Memory usage before: 11093.625 KB
0: 72.020053863525 ms per 100 recs, 0.72020053863525 ms per record
100: 6176.7508983612 ms per 100 recs, 61.767508983612 ms per record
200: 5176.0048866272 ms per 100 recs, 51.760048866272 ms per record
300: 6420.0539588928 ms per 100 recs, 64.200539588928 ms per record
400: 6482.6898574829 ms per 100 recs, 64.826898574829 ms per record
500: 6104.2850017548 ms per 100 recs, 61.042850017548 ms per record
600: 6288.3360385895 ms per 100 recs, 62.883360385895 ms per record
700: 6146.4748382568 ms per 100 recs, 61.464748382568 ms per record
800: 6770.1621055603 ms per 100 recs, 67.701621055603 ms per record
900: 6584.9199295044 ms per 100 recs, 65.849199295044 ms per record
1000: 6412.6410484314 ms per 100 recs, 64.126410484314 ms per record
1100: 6258.7239742279 ms per 100 recs, 62.587239742279 ms per record
1200: 6797.226190567 ms per 100 recs, 67.97226190567 ms per record
1300: 6087.1047973633 ms per 100 recs, 60.871047973633 ms per record
1400: 6855.9670448303 ms per 100 recs, 68.559670448303 ms per record
1500: 6254.8818588257 ms per 100 recs, 62.548818588257 ms per record
1600: 6560.830116272 ms per 100 recs, 65.60830116272 ms per record
1700: 6186.6490840912 ms per 100 recs, 61.866490840912 ms per record
1800: 5932.6858520508 ms per 100 recs, 59.326858520508 ms per record
1900: 5979.1638851166 ms per 100 recs, 59.791638851166 ms per record
2000: 6172.4371910095 ms per 100 recs, 61.724371910095 ms per record
2100: 6023.1838226318 ms per 100 recs, 60.231838226318 ms per record
2200: 5620.5279827118 ms per 100 recs, 56.205279827118 ms per record
2300: 5701.101064682 ms per 100 recs, 57.01101064682 ms per record
2400: 5549.901008606 ms per 100 recs, 55.49901008606 ms per record
2500: 6074.1829872131 ms per 100 recs, 60.741829872131 ms per record
2600: 5552.3228645325 ms per 100 recs, 55.523228645325 ms per record
2700: 5988.3549213409 ms per 100 recs, 59.883549213409 ms per record
2800: 5743.7229156494 ms per 100 recs, 57.437229156494 ms per record
2900: 5913.4390354156 ms per 100 recs, 59.134390354156 ms per record
3000: 5881.3800811768 ms per 100 recs, 58.813800811768 ms per record
3100: 5759.449005127 ms per 100 recs, 57.59449005127 ms per record
3200: 6435.478925705 ms per 100 recs, 64.35478925705 ms per record
3300: 5844.6788787842 ms per 100 recs, 58.446788787842 ms per record
3400: 6177.1669387817 ms per 100 recs, 61.771669387817 ms per record
3500: 6893.0761814117 ms per 100 recs, 68.930761814117 ms per record
3600: 6400.9170532227 ms per 100 recs, 64.009170532227 ms per record
3700: 6342.4608707428 ms per 100 recs, 63.424608707428 ms per record
3800: 6302.6909828186 ms per 100 recs, 63.026909828186 ms per record
3900: 6166.0149097443 ms per 100 recs, 61.660149097443 ms per record
4000: 6153.4478664398 ms per 100 recs, 61.534478664398 ms per record
4100: 6226.2120246887 ms per 100 recs, 62.262120246887 ms per record
4200: 6148.6611366272 ms per 100 recs, 61.486611366272 ms per record
4300: 6393.275976181 ms per 100 recs, 63.93275976181 ms per record
4400: 6384.104013443 ms per 100 recs, 63.84104013443 ms per record
4500: 5884.9139213562 ms per 100 recs, 58.849139213562 ms per record
4600: 5712.6669883728 ms per 100 recs, 57.126669883728 ms per record
4700: 5379.6968460083 ms per 100 recs, 53.796968460083 ms per record
4800: 5986.10496521 ms per 100 recs, 59.8610496521 ms per record
4900: 5665.5819416046 ms per 100 recs, 56.655819416046 ms per record
5000: 5882.5531005859 ms per 100 recs, 58.825531005859 ms per record
5100: 6090.5120372772 ms per 100 recs, 60.905120372772 ms per record
5200: 6101.1838912964 ms per 100 recs, 61.011838912964 ms per record
5300: 5873.9368915558 ms per 100 recs, 58.739368915558 ms per record
5400: 5945.2230930328 ms per 100 recs, 59.452230930328 ms per record
5500: 6039.2138957977 ms per 100 recs, 60.392138957977 ms per record
5600: 6457.3669433594 ms per 100 recs, 64.573669433594 ms per record
5700: 5925.2099990845 ms per 100 recs, 59.252099990845 ms per record
5800: 5912.7650260925 ms per 100 recs, 59.127650260925 ms per record
5900: 5748.5768795013 ms per 100 recs, 57.485768795013 ms per record
6000: 5572.3798274994 ms per 100 recs, 55.723798274994 ms per record
6100: 6255.068063736 ms per 100 recs, 62.55068063736 ms per record
6200: 6661.4210605621 ms per 100 recs, 66.614210605621 ms per record
6300: 6357.2959899902 ms per 100 recs, 63.572959899902 ms per record
6400: 6479.2070388794 ms per 100 recs, 64.792070388794 ms per record
6500: 6617.931842804 ms per 100 recs, 66.17931842804 ms per record
6600: 6656.3341617584 ms per 100 recs, 66.563341617584 ms per record
6700: 6554.3489456177 ms per 100 recs, 65.543489456177 ms per record
6800: 6768.3620452881 ms per 100 recs, 67.683620452881 ms per record
6900: 6388.0138397217 ms per 100 recs, 63.880138397217 ms per record
7000: 6600.2531051636 ms per 100 recs, 66.002531051636 ms per record
7100: 5750.1010894775 ms per 100 recs, 57.501010894775 ms per record
7200: 6123.4738826752 ms per 100 recs, 61.234738826752 ms per record
7300: 5926.6119003296 ms per 100 recs, 59.266119003296 ms per record
7400: 5880.2309036255 ms per 100 recs, 58.802309036255 ms per record
7500: 6310.2869987488 ms per 100 recs, 63.102869987488 ms per record
7600: 6375.972032547 ms per 100 recs, 63.75972032547 ms per record
7700: 6444.8869228363 ms per 100 recs, 64.448869228363 ms per record
7800: 6557.1041107178 ms per 100 recs, 65.571041107178 ms per record
7900: 6392.0900821686 ms per 100 recs, 63.920900821686 ms per record
8000: 6295.4959869385 ms per 100 recs, 62.954959869385 ms per record
8100: 7240.5128479004 ms per 100 recs, 72.405128479004 ms per record
8200: 6392.1499252319 ms per 100 recs, 63.921499252319 ms per record
8300: 6335.7739448547 ms per 100 recs, 63.357739448547 ms per record
8400: 6611.7579936981 ms per 100 recs, 66.117579936981 ms per record
8500: 6586.6820812225 ms per 100 recs, 65.866820812225 ms per record
8600: 6775.7580280304 ms per 100 recs, 67.757580280304 ms per record
8700: 6070.2750682831 ms per 100 recs, 60.702750682831 ms per record
8800: 5972.275018692 ms per 100 recs, 59.72275018692 ms per record
8900: 6232.5041294098 ms per 100 recs, 62.325041294098 ms per record
9000: 6237.8308773041 ms per 100 recs, 62.378308773041 ms per record
9100: 5952.7471065521 ms per 100 recs, 59.527471065521 ms per record
9200: 6120.3939914703 ms per 100 recs, 61.203939914703 ms per record
9300: 5936.4049434662 ms per 100 recs, 59.364049434662 ms per record
9400: 5907.6781272888 ms per 100 recs, 59.076781272888 ms per record
9500: 6020.1361179352 ms per 100 recs, 60.201361179352 ms per record
9600: 5866.3008213043 ms per 100 recs, 58.663008213043 ms per record
9700: 6158.5290431976 ms per 100 recs, 61.585290431976 ms per record
9800: 6418.426990509 ms per 100 recs, 64.18426990509 ms per record
9900: 6609.3130111694 ms per 100 recs, 66.093130111694 ms per record
10000: 6721.8577861786 ms per 100 recs, 67.218577861786 ms per record
10100: 6078.7479877472 ms per 100 recs, 60.787479877472 ms per record
10200: 6013.6477947235 ms per 100 recs, 60.136477947235 ms per record
10300: 6140.0530338287 ms per 100 recs, 61.400530338287 ms per record
10400: 6230.2350997925 ms per 100 recs, 62.302350997925 ms per record
10500: 6680.526971817 ms per 100 recs, 66.80526971817 ms per record
10600: 6987.8809452057 ms per 100 recs, 69.878809452057 ms per record
10700: 6733.3650588989 ms per 100 recs, 67.333650588989 ms per record
10800: 6002.8750896454 ms per 100 recs, 60.028750896454 ms per record
10900: 6148.7128734589 ms per 100 recs, 61.487128734589 ms per record
11000: 6181.321144104 ms per 100 recs, 61.81321144104 ms per record
11100: 6142.8790092468 ms per 100 recs, 61.428790092468 ms per record
11200: 6366.3630485535 ms per 100 recs, 63.663630485535 ms per record
11300: 6506.6368579865 ms per 100 recs, 65.066368579865 ms per record
11400: 6206.4130306244 ms per 100 recs, 62.064130306244 ms per record
11500: 6123.3289241791 ms per 100 recs, 61.233289241791 ms per record
11600: 6508.7220668793 ms per 100 recs, 65.087220668793 ms per record
11700: 5907.0029258728 ms per 100 recs, 59.070029258728 ms per record
11800: 6575.1469135284 ms per 100 recs, 65.751469135284 ms per record
11900: 6187.9441738129 ms per 100 recs, 61.879441738129 ms per record
12000: 6127.1779537201 ms per 100 recs, 61.271779537201 ms per record
12100: 6287.7280712128 ms per 100 recs, 62.877280712128 ms per record
12200: 6031.261920929 ms per 100 recs, 60.31261920929 ms per record
12300: 6192.8079128265 ms per 100 recs, 61.928079128265 ms per record
12400: 6145.6389427185 ms per 100 recs, 61.456389427185 ms per record
12500: 6325.5980014801 ms per 100 recs, 63.255980014801 ms per record
12600: 6057.0390224457 ms per 100 recs, 60.570390224457 ms per record
12700: 6841.0651683807 ms per 100 recs, 68.410651683807 ms per record
12800: 6280.6599140167 ms per 100 recs, 62.806599140167 ms per record
12900: 6187.4511241913 ms per 100 recs, 61.874511241913 ms per record
13000: 6139.9610042572 ms per 100 recs, 61.399610042572 ms per record
13100: 6280.6720733643 ms per 100 recs, 62.806720733643 ms per record
13200: 6231.5819263458 ms per 100 recs, 62.315819263458 ms per record
13300: 6340.6391143799 ms per 100 recs, 63.406391143799 ms per record
13400: 6435.3139400482 ms per 100 recs, 64.353139400482 ms per record
13500: 6500.0350475311 ms per 100 recs, 65.000350475311 ms per record
13600: 6571.074962616 ms per 100 recs, 65.71074962616 ms per record
13700: 5809.4000816345 ms per 100 recs, 58.094000816345 ms per record
13800: 5982.6219081879 ms per 100 recs, 59.826219081879 ms per record
13900: 5900.1212120056 ms per 100 recs, 59.001212120056 ms per record
14000: 6299.7379302979 ms per 100 recs, 62.997379302979 ms per record
14100: 6282.3579311371 ms per 100 recs, 62.823579311371 ms per record
14200: 6407.1259498596 ms per 100 recs, 64.071259498596 ms per record
14300: 5620.4710006714 ms per 100 recs, 56.204710006714 ms per record
14400: 6054.6669960022 ms per 100 recs, 60.546669960022 ms per record
14500: 6061.1591339111 ms per 100 recs, 60.611591339111 ms per record
14600: 6335.2611064911 ms per 100 recs, 63.352611064911 ms per record
14700: 6415.3118133545 ms per 100 recs, 64.153118133545 ms per record
14800: 5813.4250640869 ms per 100 recs, 58.134250640869 ms per record
14900: 5915.1780605316 ms per 100 recs, 59.151780605316 ms per record
15000: 5866.2939071655 ms per 100 recs, 58.662939071655 ms per record
15100: 5797.4860668182 ms per 100 recs, 57.974860668182 ms per record
15200: 5962.639093399 ms per 100 recs, 59.62639093399 ms per record
15300: 5991.9199943542 ms per 100 recs, 59.919199943542 ms per record
15400: 6232.8979969025 ms per 100 recs, 62.328979969025 ms per record
15500: 6009.204864502 ms per 100 recs, 60.09204864502 ms per record
15600: 5782.723903656 ms per 100 recs, 57.82723903656 ms per record
15700: 5861.3369464874 ms per 100 recs, 58.613369464874 ms per record
15800: 5705.7001590729 ms per 100 recs, 57.057001590729 ms per record
15900: 5844.0520763397 ms per 100 recs, 58.440520763397 ms per record
16000: 5466.3209915161 ms per 100 recs, 54.663209915161 ms per record
16100: 6417.0229434967 ms per 100 recs, 64.170229434967 ms per record
16200: 6143.7530517578 ms per 100 recs, 61.437530517578 ms per record
16300: 6335.8528614044 ms per 100 recs, 63.358528614044 ms per record
16400: 6468.2831764221 ms per 100 recs, 64.682831764221 ms per record
16500: 6328.9401531219 ms per 100 recs, 63.289401531219 ms per record
16600: 6195.9931850433 ms per 100 recs, 61.959931850433 ms per record
16700: 5815.2368068695 ms per 100 recs, 58.152368068695 ms per record
16800: 6014.5959854126 ms per 100 recs, 60.145959854126 ms per record
16900: 6142.315864563 ms per 100 recs, 61.42315864563 ms per record
17000: 5940.1249885559 ms per 100 recs, 59.401249885559 ms per record
17100: 6115.5781745911 ms per 100 recs, 61.155781745911 ms per record
17200: 5965.6717777252 ms per 100 recs, 59.656717777252 ms per record
17300: 6269.4590091705 ms per 100 recs, 62.694590091705 ms per record
17400: 6169.5411205292 ms per 100 recs, 61.695411205292 ms per record
17500: 6138.5140419006 ms per 100 recs, 61.385140419006 ms per record
17600: 6287.2979640961 ms per 100 recs, 62.872979640961 ms per record
17700: 6193.5892105103 ms per 100 recs, 61.935892105103 ms per record
17800: 6520.516872406 ms per 100 recs, 65.20516872406 ms per record
17900: 6448.7209320068 ms per 100 recs, 64.487209320068 ms per record
18000: 6705.6031227112 ms per 100 recs, 67.056031227112 ms per record
18100: 6429.3382167816 ms per 100 recs, 64.293382167816 ms per record
18200: 6723.2229709625 ms per 100 recs, 67.232229709625 ms per record
18300: 6590.5120372772 ms per 100 recs, 65.905120372772 ms per record
18400: 7120.1050281525 ms per 100 recs, 71.201050281525 ms per record
18500: 6360.2819442749 ms per 100 recs, 63.602819442749 ms per record
18600: 6485.2991104126 ms per 100 recs, 64.852991104126 ms per record
18700: 6442.8911209106 ms per 100 recs, 64.428911209106 ms per record
18800: 7262.2971534729 ms per 100 recs, 72.622971534729 ms per record
18900: 6828.0789852142 ms per 100 recs, 68.280789852142 ms per record
19000: 6245.8600997925 ms per 100 recs, 62.458600997925 ms per record
19100: 6630.6738853455 ms per 100 recs, 66.306738853455 ms per record
19200: 6559.7250461578 ms per 100 recs, 65.597250461578 ms per record
19300: 5676.2080192566 ms per 100 recs, 56.762080192566 ms per record
19400: 5864.6879196167 ms per 100 recs, 58.646879196167 ms per record
19500: 6035.5179309845 ms per 100 recs, 60.355179309845 ms per record
19600: 5722.9731082916 ms per 100 recs, 57.229731082916 ms per record
19700: 5868.6599731445 ms per 100 recs, 58.686599731445 ms per record
19800: 5578.3150196075 ms per 100 recs, 55.783150196075 ms per record
19900: 6414.3869876862 ms per 100 recs, 64.143869876862 ms per record
20000: 6384.526014328 ms per 100 recs, 63.84526014328 ms per record
20100: 6475.7900238037 ms per 100 recs, 64.757900238037 ms per record
20200: 6354.5000553131 ms per 100 recs, 63.545000553131 ms per record
20300: 6138.71717453 ms per 100 recs, 61.3871717453 ms per record
20400: 5761.1141204834 ms per 100 recs, 57.611141204834 ms per record
20500: 6144.994020462 ms per 100 recs, 61.44994020462 ms per record
20600: 5735.5029582977 ms per 100 recs, 57.355029582977 ms per record
20700: 5833.9478969574 ms per 100 recs, 58.339478969574 ms per record
20800: 6614.4139766693 ms per 100 recs, 66.144139766693 ms per record
20900: 6535.5341434479 ms per 100 recs, 65.355341434479 ms per record
21000: 6313.4500980377 ms per 100 recs, 63.134500980377 ms per record
21100: 6450.786113739 ms per 100 recs, 64.50786113739 ms per record
21200: 6066.929101944 ms per 100 recs, 60.66929101944 ms per record
21300: 5827.3379802704 ms per 100 recs, 58.273379802704 ms per record
21400: 5931.1180114746 ms per 100 recs, 59.311180114746 ms per record
21500: 6046.0610389709 ms per 100 recs, 60.460610389709 ms per record
21600: 6305.4740428925 ms per 100 recs, 63.054740428925 ms per record
21700: 6578.4769058228 ms per 100 recs, 65.784769058228 ms per record
21800: 6612.3640537262 ms per 100 recs, 66.123640537262 ms per record
21900: 6369.5681095123 ms per 100 recs, 63.695681095123 ms per record
22000: 6089.0300273895 ms per 100 recs, 60.890300273895 ms per record
22100: 6864.483833313 ms per 100 recs, 68.64483833313 ms per record
22200: 6262.796163559 ms per 100 recs, 62.62796163559 ms per record
22300: 5719.2740440369 ms per 100 recs, 57.192740440369 ms per record
22400: 5981.7988872528 ms per 100 recs, 59.817988872528 ms per record
22500: 6594.5870876312 ms per 100 recs, 65.945870876312 ms per record
22600: 6606.1918735504 ms per 100 recs, 66.061918735504 ms per record
22700: 6486.545085907 ms per 100 recs, 64.86545085907 ms per record
22800: 6017.6498889923 ms per 100 recs, 60.176498889923 ms per record
22900: 6452.6968002319 ms per 100 recs, 64.526968002319 ms per record
23000: 6302.6351928711 ms per 100 recs, 63.026351928711 ms per record
23100: 6316.5469169617 ms per 100 recs, 63.165469169617 ms per record
23200: 6330.7740688324 ms per 100 recs, 63.307740688324 ms per record
23300: 6066.073179245 ms per 100 recs, 60.66073179245 ms per record
23400: 6077.6741504669 ms per 100 recs, 60.776741504669 ms per record
23500: 6345.8769321442 ms per 100 recs, 63.458769321442 ms per record
23600: 6498.7819194794 ms per 100 recs, 64.987819194794 ms per record
23700: 6371.0041046143 ms per 100 recs, 63.710041046143 ms per record
23800: 6264.1441822052 ms per 100 recs, 62.641441822052 ms per record
23900: 6858.011007309 ms per 100 recs, 68.58011007309 ms per record
24000: 13997.375011444 ms per 100 recs, 139.97375011444 ms per record
24100: 13480.50403595 ms per 100 recs, 134.8050403595 ms per record
24200: 12634.824991226 ms per 100 recs, 126.34824991226 ms per record
24300: 12441.690206528 ms per 100 recs, 124.41690206528 ms per record
24400: 12515.247106552 ms per 100 recs, 125.15247106552 ms per record
24500: 13402.444839478 ms per 100 recs, 134.02444839478 ms per record
24600: 12167.881011963 ms per 100 recs, 121.67881011963 ms per record
24700: 12148.123025894 ms per 100 recs, 121.48123025894 ms per record
24800: 12832.30304718 ms per 100 recs, 128.3230304718 ms per record
24900: 13063.866853714 ms per 100 recs, 130.63866853714 ms per record
25000: 13625.446081161 ms per 100 recs, 136.25446081161 ms per record
25100: 13067.949771881 ms per 100 recs, 130.67949771881 ms per record
25200: 13123.092889786 ms per 100 recs, 131.23092889786 ms per record
25300: 13332.726955414 ms per 100 recs, 133.32726955414 ms per record
25400: 12211.358070374 ms per 100 recs, 122.11358070374 ms per record
25500: 12459.679841995 ms per 100 recs, 124.59679841995 ms per record
25600: 12864.995002747 ms per 100 recs, 128.64995002747 ms per record
25700: 13741.887807846 ms per 100 recs, 137.41887807846 ms per record
25800: 13526.773929596 ms per 100 recs, 135.26773929596 ms per record
25900: 13845.970153809 ms per 100 recs, 138.45970153809 ms per record
26000: 12964.869022369 ms per 100 recs, 129.64869022369 ms per record
26100: 13007.387161255 ms per 100 recs, 130.07387161255 ms per record
26200: 9869.9610233307 ms per 100 recs, 98.699610233307 ms per record
26300: 5451.632976532 ms per 100 recs, 54.51632976532 ms per record
26400: 6113.0027770996 ms per 100 recs, 61.130027770996 ms per record
26500: 5960.4420661926 ms per 100 recs, 59.604420661926 ms per record
26600: 6381.1039924622 ms per 100 recs, 63.811039924622 ms per record
26700: 6624.5219707489 ms per 100 recs, 66.245219707489 ms per record
26800: 6261.255979538 ms per 100 recs, 62.61255979538 ms per record
26900: 6010.1230144501 ms per 100 recs, 60.101230144501 ms per record
27000: 5883.945941925 ms per 100 recs, 58.83945941925 ms per record
27100: 5783.096075058 ms per 100 recs, 57.83096075058 ms per record
27200: 5383.9461803436 ms per 100 recs, 53.839461803436 ms per record
27300: 6165.1401519775 ms per 100 recs, 61.651401519775 ms per record
27400: 5993.2460784912 ms per 100 recs, 59.932460784912 ms per record
27500: 6021.1460590363 ms per 100 recs, 60.211460590363 ms per record
27600: 5857.8310012817 ms per 100 recs, 58.578310012817 ms per record
27700: 5901.7419815063 ms per 100 recs, 59.017419815063 ms per record
27800: 6005.3391456604 ms per 100 recs, 60.053391456604 ms per record
27900: 5824.0909576416 ms per 100 recs, 58.240909576416 ms per record
28000: 5276.9610881805 ms per 100 recs, 52.769610881805 ms per record
28100: 5995.3169822693 ms per 100 recs, 59.953169822693 ms per record
28200: 6133.1970691681 ms per 100 recs, 61.331970691681 ms per record
28300: 6543.5390472412 ms per 100 recs, 65.435390472412 ms per record
28400: 6137.974023819 ms per 100 recs, 61.37974023819 ms per record
28500: 6105.0140857697 ms per 100 recs, 61.050140857697 ms per record
28600: 5730.6380271912 ms per 100 recs, 57.306380271912 ms per record
28700: 6346.4078903198 ms per 100 recs, 63.464078903198 ms per record
28800: 6221.846818924 ms per 100 recs, 62.21846818924 ms per record
28900: 5750.391960144 ms per 100 recs, 57.50391960144 ms per record
29000: 5509.4349384308 ms per 100 recs, 55.094349384308 ms per record
29100: 5695.3890323639 ms per 100 recs, 56.953890323639 ms per record
29200: 6600.5570888519 ms per 100 recs, 66.005570888519 ms per record
29300: 5772.7451324463 ms per 100 recs, 57.727451324463 ms per record
29400: 6272.2008228302 ms per 100 recs, 62.722008228302 ms per record
29500: 6180.9859275818 ms per 100 recs, 61.809859275818 ms per record
29600: 6260.5330944061 ms per 100 recs, 62.605330944061 ms per record
29700: 5828.5479545593 ms per 100 recs, 58.285479545593 ms per record
29800: 6930.2871227264 ms per 100 recs, 69.302871227264 ms per record
29900: 5511.9409561157 ms per 100 recs, 55.119409561157 ms per record
30000: 6430.2299022675 ms per 100 recs, 64.302299022675 ms per record
30100: 5778.461933136 ms per 100 recs, 57.78461933136 ms per record
30200: 6514.5568847656 ms per 100 recs, 65.145568847656 ms per record
30300: 7396.1908817291 ms per 100 recs, 73.961908817291 ms per record
30400: 7367.8159713745 ms per 100 recs, 73.678159713745 ms per record
30500: 6700.3078460693 ms per 100 recs, 67.003078460693 ms per record
30600: 6707.7398300171 ms per 100 recs, 67.077398300171 ms per record
30700: 6851.1281013489 ms per 100 recs, 68.511281013489 ms per record
30800: 7070.0080394745 ms per 100 recs, 70.700080394745 ms per record
30900: 6006.2339305878 ms per 100 recs, 60.062339305878 ms per record
31000: 5858.9820861816 ms per 100 recs, 58.589820861816 ms per record
31100: 5347.9201793671 ms per 100 recs, 53.479201793671 ms per record
31200: 5656.553030014 ms per 100 recs, 56.56553030014 ms per record
31300: 6563.2178783417 ms per 100 recs, 65.632178783417 ms per record
31400: 6975.800037384 ms per 100 recs, 69.75800037384 ms per record
31500: 6704.176902771 ms per 100 recs, 67.04176902771 ms per record
31600: 7032.016992569 ms per 100 recs, 70.32016992569 ms per record
31700: 7140.9349441528 ms per 100 recs, 71.409349441528 ms per record
31800: 6315.9091472626 ms per 100 recs, 63.159091472626 ms per record
31900: 5716.1889076233 ms per 100 recs, 57.161889076233 ms per record
32000: 5879.9729347229 ms per 100 recs, 58.799729347229 ms per record
32100: 6269.4928646088 ms per 100 recs, 62.694928646088 ms per record
32200: 6466.3808345795 ms per 100 recs, 64.663808345795 ms per record
32300: 6221.2309837341 ms per 100 recs, 62.212309837341 ms per record
32400: 6571.319103241 ms per 100 recs, 65.71319103241 ms per record
32500: 6347.6250171661 ms per 100 recs, 63.476250171661 ms per record
32600: 6226.9198894501 ms per 100 recs, 62.269198894501 ms per record
32700: 6264.5089626312 ms per 100 recs, 62.645089626312 ms per record
32800: 6711.1079692841 ms per 100 recs, 67.111079692841 ms per record
32900: 6287.7957820892 ms per 100 recs, 62.877957820892 ms per record
33000: 5914.6368503571 ms per 100 recs, 59.146368503571 ms per record
33100: 5824.7449398041 ms per 100 recs, 58.247449398041 ms per record
33200: 6107.0039272308 ms per 100 recs, 61.070039272308 ms per record
33300: 6834.2847824097 ms per 100 recs, 68.342847824097 ms per record
33400: 6495.7849979401 ms per 100 recs, 64.957849979401 ms per record
33500: 6315.9310817719 ms per 100 recs, 63.159310817719 ms per record
33600: 6882.7102184296 ms per 100 recs, 68.827102184296 ms per record
33700: 7151.5488624573 ms per 100 recs, 71.515488624573 ms per record
33800: 6686.4619255066 ms per 100 recs, 66.864619255066 ms per record
33900: 6998.6898899078 ms per 100 recs, 69.986898899078 ms per record
34000: 6623.3429908752 ms per 100 recs, 66.233429908752 ms per record
34100: 6497.4172115326 ms per 100 recs, 64.974172115326 ms per record
34200: 6591.3300514221 ms per 100 recs, 65.913300514221 ms per record
34300: 6334.7399234772 ms per 100 recs, 63.347399234772 ms per record
34400: 6689.3072128296 ms per 100 recs, 66.893072128296 ms per record
34500: 6803.8079738617 ms per 100 recs, 68.038079738617 ms per record
34600: 6986.6638183594 ms per 100 recs, 69.866638183594 ms per record
34700: 6169.5110797882 ms per 100 recs, 61.695110797882 ms per record
34800: 6064.4669532776 ms per 100 recs, 60.644669532776 ms per record
34900: 6059.0391159058 ms per 100 recs, 60.590391159058 ms per record
35000: 5811.4461898804 ms per 100 recs, 58.114461898804 ms per record
35100: 5556.0019016266 ms per 100 recs, 55.560019016266 ms per record
35200: 5835.1240158081 ms per 100 recs, 58.351240158081 ms per record
35300: 6196.212053299 ms per 100 recs, 61.96212053299 ms per record
35400: 6853.4510135651 ms per 100 recs, 68.534510135651 ms per record
35500: 6242.5329685211 ms per 100 recs, 62.425329685211 ms per record
35600: 7146.0020542145 ms per 100 recs, 71.460020542145 ms per record
35700: 6348.1950759888 ms per 100 recs, 63.481950759888 ms per record
35800: 6284.1148376465 ms per 100 recs, 62.841148376465 ms per record
35900: 6159.5468521118 ms per 100 recs, 61.595468521118 ms per record
36000: 6159.0981483459 ms per 100 recs, 61.590981483459 ms per record
36100: 6261.4099979401 ms per 100 recs, 62.614099979401 ms per record
36200: 6806.9949150085 ms per 100 recs, 68.069949150085 ms per record
36300: 6423.0000972748 ms per 100 recs, 64.230000972748 ms per record
36400: 7100.8489131927 ms per 100 recs, 71.008489131927 ms per record
36500: 6086.8890285492 ms per 100 recs, 60.868890285492 ms per record
36600: 6107.0530414581 ms per 100 recs, 61.070530414581 ms per record
36700: 5807.7368736267 ms per 100 recs, 58.077368736267 ms per record
36800: 5695.4839229584 ms per 100 recs, 56.954839229584 ms per record
36900: 6102.2889614105 ms per 100 recs, 61.022889614105 ms per record
37000: 6357.5899600983 ms per 100 recs, 63.575899600983 ms per record
37100: 5867.6149845123 ms per 100 recs, 58.676149845123 ms per record
37200: 6327.0399570465 ms per 100 recs, 63.270399570465 ms per record
37300: 6227.5109291077 ms per 100 recs, 62.275109291077 ms per record
37400: 6173.4399795532 ms per 100 recs, 61.734399795532 ms per record
37500: 7002.0971298218 ms per 100 recs, 70.020971298218 ms per record
37600: 6256.1068534851 ms per 100 recs, 62.561068534851 ms per record
37700: 6520.4930305481 ms per 100 recs, 65.204930305481 ms per record
37800: 6428.2519817352 ms per 100 recs, 64.282519817352 ms per record
37900: 6492.3441410065 ms per 100 recs, 64.923441410065 ms per record
38000: 6198.1761455536 ms per 100 recs, 61.981761455536 ms per record
38100: 6020.6470489502 ms per 100 recs, 60.206470489502 ms per record
38200: 5500.0960826874 ms per 100 recs, 55.000960826874 ms per record
38300: 5912.397146225 ms per 100 recs, 59.12397146225 ms per record
38400: 5642.1630382538 ms per 100 recs, 56.421630382538 ms per record
38500: 7037.2369289398 ms per 100 recs, 70.372369289398 ms per record
38600: 6237.9548549652 ms per 100 recs, 62.379548549652 ms per record
38700: 6353.2419204712 ms per 100 recs, 63.532419204712 ms per record
38800: 6225.8501052856 ms per 100 recs, 62.258501052856 ms per record
38900: 6500.1931190491 ms per 100 recs, 65.001931190491 ms per record
39000: 6107.1951389313 ms per 100 recs, 61.071951389313 ms per record
39100: 5964.7650718689 ms per 100 recs, 59.647650718689 ms per record
39200: 6091.4628505707 ms per 100 recs, 60.914628505707 ms per record
39300: 6873.272895813 ms per 100 recs, 68.73272895813 ms per record
39400: 6367.2630786896 ms per 100 recs, 63.672630786896 ms per record
39500: 6537.0230674744 ms per 100 recs, 65.370230674744 ms per record
39600: 6368.3831691742 ms per 100 recs, 63.683831691742 ms per record
39700: 5801.9092082977 ms per 100 recs, 58.019092082977 ms per record
39800: 5837.1961116791 ms per 100 recs, 58.371961116791 ms per record
39900: 5558.6619377136 ms per 100 recs, 55.586619377136 ms per record
40000: 5518.9471244812 ms per 100 recs, 55.189471244812 ms per record
40100: 6529.7331809998 ms per 100 recs, 65.297331809998 ms per record
40200: 6199.0480422974 ms per 100 recs, 61.990480422974 ms per record
40300: 6888.6799812317 ms per 100 recs, 68.886799812317 ms per record
40400: 5875.9949207306 ms per 100 recs, 58.759949207306 ms per record
40500: 6587.8551006317 ms per 100 recs, 65.878551006317 ms per record
40600: 6076.9460201263 ms per 100 recs, 60.769460201263 ms per record
40700: 6604.6531200409 ms per 100 recs, 66.046531200409 ms per record
40800: 6295.774936676 ms per 100 recs, 62.95774936676 ms per record
40900: 5886.4750862122 ms per 100 recs, 58.864750862122 ms per record
41000: 6222.4149703979 ms per 100 recs, 62.224149703979 ms per record
41100: 6308.9737892151 ms per 100 recs, 63.089737892151 ms per record
41200: 7185.3239536285 ms per 100 recs, 71.853239536285 ms per record
41300: 6104.2687892914 ms per 100 recs, 61.042687892914 ms per record
41400: 6531.3901901245 ms per 100 recs, 65.313901901245 ms per record
41500: 6540.4689311981 ms per 100 recs, 65.404689311981 ms per record
41600: 7165.9009456635 ms per 100 recs, 71.659009456635 ms per record
41700: 7084.4211578369 ms per 100 recs, 70.844211578369 ms per record
41800: 6506.1650276184 ms per 100 recs, 65.061650276184 ms per record
41900: 6662.3270511627 ms per 100 recs, 66.623270511627 ms per record
42000: 6474.7891426086 ms per 100 recs, 64.747891426086 ms per record
42100: 7909.3859195709 ms per 100 recs, 79.093859195709 ms per record
42200: 6435.0368976593 ms per 100 recs, 64.350368976593 ms per record
42300: 6021.5859413147 ms per 100 recs, 60.215859413147 ms per record
42400: 6058.1660270691 ms per 100 recs, 60.581660270691 ms per record
42500: 6934.7431659698 ms per 100 recs, 69.347431659698 ms per record
42600: 6256.3347816467 ms per 100 recs, 62.563347816467 ms per record
42700: 6785.9809398651 ms per 100 recs, 67.859809398651 ms per record
42800: 6438.0700588226 ms per 100 recs, 64.380700588226 ms per record
42900: 7545.7208156586 ms per 100 recs, 75.457208156586 ms per record
43000: 6445.6911087036 ms per 100 recs, 64.456911087036 ms per record
43100: 6378.4191608429 ms per 100 recs, 63.784191608429 ms per record
43200: 7371.2980747223 ms per 100 recs, 73.712980747223 ms per record
43300: 7013.4019851685 ms per 100 recs, 70.134019851685 ms per record
43400: 6224.2770195007 ms per 100 recs, 62.242770195007 ms per record
43500: 6680.8390617371 ms per 100 recs, 66.808390617371 ms per record
43600: 6615.1628494263 ms per 100 recs, 66.151628494263 ms per record
43700: 6585.972070694 ms per 100 recs, 65.85972070694 ms per record
43800: 7417.0000553131 ms per 100 recs, 74.170000553131 ms per record
43900: 6554.9418926239 ms per 100 recs, 65.549418926239 ms per record
44000: 6711.4570140839 ms per 100 recs, 67.114570140839 ms per record
44100: 6639.4798755646 ms per 100 recs, 66.394798755646 ms per record
44200: 6658.7479114532 ms per 100 recs, 66.587479114532 ms per record
44300: 7170.7561016083 ms per 100 recs, 71.707561016083 ms per record
44400: 6700.4201412201 ms per 100 recs, 67.004201412201 ms per record
44500: 7046.3910102844 ms per 100 recs, 70.463910102844 ms per record
44600: 6987.5581264496 ms per 100 recs, 69.875581264496 ms per record
44700: 6231.5998077393 ms per 100 recs, 62.315998077393 ms per record
44800: 6933.9320659637 ms per 100 recs, 69.339320659637 ms per record
44900: 6349.6880531311 ms per 100 recs, 63.496880531311 ms per record
45000: 5977.0770072937 ms per 100 recs, 59.770770072937 ms per record
45100: 6707.4179649353 ms per 100 recs, 67.074179649353 ms per record
45200: 6761.2209320068 ms per 100 recs, 67.612209320068 ms per record
45300: 7616.7149543762 ms per 100 recs, 76.167149543762 ms per record
45400: 6510.4720592499 ms per 100 recs, 65.104720592499 ms per record
45500: 7355.516910553 ms per 100 recs, 73.55516910553 ms per record
45600: 7414.8070812225 ms per 100 recs, 74.148070812225 ms per record
45700: 7214.9999141693 ms per 100 recs, 72.149999141693 ms per record
45800: 6991.534948349 ms per 100 recs, 69.91534948349 ms per record
45900: 7258.6209774017 ms per 100 recs, 72.586209774017 ms per record
46000: 6975.2769470215 ms per 100 recs, 69.752769470215 ms per record
46100: 6715.6648635864 ms per 100 recs, 67.156648635864 ms per record
46200: 7282.8731536865 ms per 100 recs, 72.828731536865 ms per record
46300: 8077.3310661316 ms per 100 recs, 80.773310661316 ms per record
46400: 6560.1279735565 ms per 100 recs, 65.601279735565 ms per record
46500: 6228.6770343781 ms per 100 recs, 62.286770343781 ms per record
46600: 6998.1338977814 ms per 100 recs, 69.981338977814 ms per record
46700: 6879.4369697571 ms per 100 recs, 68.794369697571 ms per record
46800: 6858.0300807953 ms per 100 recs, 68.580300807953 ms per record
46900: 6196.4049339294 ms per 100 recs, 61.964049339294 ms per record
47000: 6754.2750835419 ms per 100 recs, 67.542750835419 ms per record
47100: 7221.8689918518 ms per 100 recs, 72.218689918518 ms per record
47200: 7170.4580783844 ms per 100 recs, 71.704580783844 ms per record
47300: 6740.6499385834 ms per 100 recs, 67.406499385834 ms per record
47400: 6400.1748561859 ms per 100 recs, 64.001748561859 ms per record
47500: 6242.3489093781 ms per 100 recs, 62.423489093781 ms per record
47600: 6737.9970550537 ms per 100 recs, 67.379970550537 ms per record
47700: 6627.6280879974 ms per 100 recs, 66.276280879974 ms per record
47800: 6516.3128376007 ms per 100 recs, 65.163128376007 ms per record
47900: 7064.7950172424 ms per 100 recs, 70.647950172424 ms per record
48000: 7283.0550670624 ms per 100 recs, 72.830550670624 ms per record
48100: 7906.6209793091 ms per 100 recs, 79.066209793091 ms per record
48200: 6542.0570373535 ms per 100 recs, 65.420570373535 ms per record
48300: 6466.8009281158 ms per 100 recs, 64.668009281158 ms per record
48400: 6027.9049873352 ms per 100 recs, 60.279049873352 ms per record
48500: 6169.7788238525 ms per 100 recs, 61.697788238525 ms per record
48600: 6599.2579460144 ms per 100 recs, 65.992579460144 ms per record
48700: 5961.2810611725 ms per 100 recs, 59.612810611725 ms per record
48800: 6848.3259677887 ms per 100 recs, 68.483259677887 ms per record
48900: 6342.5581455231 ms per 100 recs, 63.425581455231 ms per record
49000: 7279.4508934021 ms per 100 recs, 72.794508934021 ms per record
49100: 6069.3039894104 ms per 100 recs, 60.693039894104 ms per record
49200: 6821.3741779327 ms per 100 recs, 68.213741779327 ms per record
49300: 6853.8601398468 ms per 100 recs, 68.538601398468 ms per record
49400: 6518.1920528412 ms per 100 recs, 65.181920528412 ms per record
49500: 6490.8640384674 ms per 100 recs, 64.908640384674 ms per record
49600: 7512.2239589691 ms per 100 recs, 75.122239589691 ms per record
49700: 7013.3600234985 ms per 100 recs, 70.133600234985 ms per record
49800: 7489.5429611206 ms per 100 recs, 74.895429611206 ms per record
49900: 7463.3510112762 ms per 100 recs, 74.633510112762 ms per record
50000: 6488.1019592285 ms per 100 recs, 64.881019592285 ms per record
50100: 6789.8840904236 ms per 100 recs, 67.898840904236 ms per record
50200: 6532.9279899597 ms per 100 recs, 65.329279899597 ms per record
50300: 6732.8250408173 ms per 100 recs, 67.328250408173 ms per record
50400: 6578.7119865417 ms per 100 recs, 65.787119865417 ms per record
50500: 6651.3338088989 ms per 100 recs, 66.513338088989 ms per record
50600: 7075.7060050964 ms per 100 recs, 70.757060050964 ms per record
50700: 7674.605846405 ms per 100 recs, 76.74605846405 ms per record
50800: 6582.4799537659 ms per 100 recs, 65.824799537659 ms per record
50900: 6668.9529418945 ms per 100 recs, 66.689529418945 ms per record
51000: 6809.9410533905 ms per 100 recs, 68.099410533905 ms per record
51100: 6397.3619937897 ms per 100 recs, 63.973619937897 ms per record
51200: 6749.8009204865 ms per 100 recs, 67.498009204865 ms per record
51300: 6931.5011501312 ms per 100 recs, 69.315011501312 ms per record
51400: 7083.0228328705 ms per 100 recs, 70.830228328705 ms per record
51500: 6652.6861190796 ms per 100 recs, 66.526861190796 ms per record
51600: 7120.5229759216 ms per 100 recs, 71.205229759216 ms per record
51700: 6685.6870651245 ms per 100 recs, 66.856870651245 ms per record
51800: 6900.7730484009 ms per 100 recs, 69.007730484009 ms per record
51900: 6776.7610549927 ms per 100 recs, 67.767610549927 ms per record
52000: 6627.151966095 ms per 100 recs, 66.27151966095 ms per record
52100: 6798.2079982758 ms per 100 recs, 67.982079982758 ms per record
52200: 6533.586025238 ms per 100 recs, 65.33586025238 ms per record
52300: 7023.2560634613 ms per 100 recs, 70.232560634613 ms per record
52400: 7575.1941204071 ms per 100 recs, 75.751941204071 ms per record
52500: 6947.8940963745 ms per 100 recs, 69.478940963745 ms per record
52600: 6237.4651432037 ms per 100 recs, 62.374651432037 ms per record
52700: 7042.5040721893 ms per 100 recs, 70.425040721893 ms per record
52800: 6583.6448669434 ms per 100 recs, 65.836448669434 ms per record
52900: 6738.3990287781 ms per 100 recs, 67.383990287781 ms per record
53000: 6257.6048374176 ms per 100 recs, 62.576048374176 ms per record
53100: 6483.8409423828 ms per 100 recs, 64.838409423828 ms per record
53200: 6419.6619987488 ms per 100 recs, 64.196619987488 ms per record
53300: 7231.8189144135 ms per 100 recs, 72.318189144135 ms per record
53400: 6675.3830909729 ms per 100 recs, 66.753830909729 ms per record
53500: 6803.9400577545 ms per 100 recs, 68.039400577545 ms per record
53600: 6411.041021347 ms per 100 recs, 64.11041021347 ms per record
53700: 6566.1590099335 ms per 100 recs, 65.661590099335 ms per record
53800: 6293.8899993896 ms per 100 recs, 62.938899993896 ms per record
53900: 6821.6581344604 ms per 100 recs, 68.216581344604 ms per record
54000: 6854.1629314423 ms per 100 recs, 68.541629314423 ms per record
54100: 7456.8071365356 ms per 100 recs, 74.568071365356 ms per record
54200: 6477.707862854 ms per 100 recs, 64.77707862854 ms per record
54300: 6580.9779167175 ms per 100 recs, 65.809779167175 ms per record
54400: 6756.1161518097 ms per 100 recs, 67.561161518097 ms per record
54500: 6725.6009578705 ms per 100 recs, 67.256009578705 ms per record
54600: 6248.9500045776 ms per 100 recs, 62.489500045776 ms per record
54700: 6288.6438369751 ms per 100 recs, 62.886438369751 ms per record
54800: 6205.0938606262 ms per 100 recs, 62.050938606262 ms per record
54900: 6692.1429634094 ms per 100 recs, 66.921429634094 ms per record
55000: 7707.7651023865 ms per 100 recs, 77.077651023865 ms per record
55100: 6858.1509590149 ms per 100 recs, 68.581509590149 ms per record
55200: 6718.6450958252 ms per 100 recs, 67.186450958252 ms per record
55300: 6591.2539958954 ms per 100 recs, 65.912539958954 ms per record
55400: 6308.1481456757 ms per 100 recs, 63.081481456757 ms per record
55500: 6289.2179489136 ms per 100 recs, 62.892179489136 ms per record
55600: 6089.3180370331 ms per 100 recs, 60.893180370331 ms per record
55700: 6239.9048805237 ms per 100 recs, 62.399048805237 ms per record
55800: 6279.1769504547 ms per 100 recs, 62.791769504547 ms per record
55900: 7685.6281757355 ms per 100 recs, 76.856281757355 ms per record
56000: 6643.7830924988 ms per 100 recs, 66.437830924988 ms per record
56100: 6765.7930850983 ms per 100 recs, 67.657930850983 ms per record
56200: 6747.4761009216 ms per 100 recs, 67.474761009216 ms per record
56300: 6614.0029430389 ms per 100 recs, 66.140029430389 ms per record
56400: 6022.5639343262 ms per 100 recs, 60.225639343262 ms per record
56500: 6073.292016983 ms per 100 recs, 60.73292016983 ms per record
56600: 6019.4821357727 ms per 100 recs, 60.194821357727 ms per record
56700: 5653.7928581238 ms per 100 recs, 56.537928581238 ms per record
56800: 6444.3728923798 ms per 100 recs, 64.443728923798 ms per record
56900: 5676.2750148773 ms per 100 recs, 56.762750148773 ms per record
57000: 6128.7319660187 ms per 100 recs, 61.287319660187 ms per record
57100: 5830.5861949921 ms per 100 recs, 58.305861949921 ms per record
57200: 5574.7339725494 ms per 100 recs, 55.747339725494 ms per record
57300: 5451.1921405792 ms per 100 recs, 54.511921405792 ms per record
57400: 5615.5140399933 ms per 100 recs, 56.155140399933 ms per record
57500: 5661.456823349 ms per 100 recs, 56.61456823349 ms per record
57600: 5619.1580295563 ms per 100 recs, 56.191580295563 ms per record
57700: 5470.0860977173 ms per 100 recs, 54.700860977173 ms per record
57800: 5730.700969696 ms per 100 recs, 57.30700969696 ms per record
57900: 5904.3169021606 ms per 100 recs, 59.043169021606 ms per record
58000: 5958.7600231171 ms per 100 recs, 59.587600231171 ms per record
58100: 5979.7439575195 ms per 100 recs, 59.797439575195 ms per record
58200: 6950.2749443054 ms per 100 recs, 69.502749443054 ms per record
58300: 6291.0821437836 ms per 100 recs, 62.910821437836 ms per record
58400: 6360.6028556824 ms per 100 recs, 63.606028556824 ms per record
58500: 6344.5718288422 ms per 100 recs, 63.445718288422 ms per record
58600: 6322.3450183868 ms per 100 recs, 63.223450183868 ms per record
58700: 6396.7680931091 ms per 100 recs, 63.967680931091 ms per record
58800: 7048.2220649719 ms per 100 recs, 70.482220649719 ms per record
58900: 6439.7089481354 ms per 100 recs, 64.397089481354 ms per record
59000: 6660.493850708 ms per 100 recs, 66.60493850708 ms per record
59100: 7704.8389911652 ms per 100 recs, 77.048389911652 ms per record
59200: 7024.0211486816 ms per 100 recs, 70.240211486816 ms per record
59300: 6396.1160182953 ms per 100 recs, 63.961160182953 ms per record
59400: 6220.9501266479 ms per 100 recs, 62.209501266479 ms per record
59500: 6656.653881073 ms per 100 recs, 66.56653881073 ms per record
59600: 6347.6929664612 ms per 100 recs, 63.476929664612 ms per record
59700: 6533.3268642426 ms per 100 recs, 65.333268642426 ms per record
59800: 6845.3340530396 ms per 100 recs, 68.453340530396 ms per record
59900: 7784.4240665436 ms per 100 recs, 77.844240665436 ms per record
60000: 6354.9571037292 ms per 100 recs, 63.549571037292 ms per record
60100: 6319.8170661926 ms per 100 recs, 63.198170661926 ms per record
60200: 6783.7998867035 ms per 100 recs, 67.837998867035 ms per record
60300: 6752.3219585419 ms per 100 recs, 67.523219585419 ms per record
60400: 6703.4537792206 ms per 100 recs, 67.034537792206 ms per record
60500: 7051.0730743408 ms per 100 recs, 70.510730743408 ms per record
60600: 6754.0688514709 ms per 100 recs, 67.540688514709 ms per record
60700: 6175.5499839783 ms per 100 recs, 61.755499839783 ms per record
60800: 7447.8900432587 ms per 100 recs, 74.478900432587 ms per record
60900: 6175.0888824463 ms per 100 recs, 61.750888824463 ms per record
61000: 6733.7670326233 ms per 100 recs, 67.337670326233 ms per record
61100: 6380.4149627686 ms per 100 recs, 63.804149627686 ms per record
61200: 6133.3990097046 ms per 100 recs, 61.333990097046 ms per record
61300: 6284.453868866 ms per 100 recs, 62.84453868866 ms per record
61400: 6386.7831230164 ms per 100 recs, 63.867831230164 ms per record
61500: 6253.9541721344 ms per 100 recs, 62.539541721344 ms per record
61600: 7085.3071212769 ms per 100 recs, 70.853071212769 ms per record
61700: 6032.27186203 ms per 100 recs, 60.3227186203 ms per record
61800: 6850.3749370575 ms per 100 recs, 68.503749370575 ms per record
61900: 6115.3609752655 ms per 100 recs, 61.153609752655 ms per record
62000: 6689.6550655365 ms per 100 recs, 66.896550655365 ms per record
62100: 6500.3468990326 ms per 100 recs, 65.003468990326 ms per record
62200: 6188.5678768158 ms per 100 recs, 61.885678768158 ms per record
62300: 6776.111125946 ms per 100 recs, 67.76111125946 ms per record
62400: 6346.6579914093 ms per 100 recs, 63.466579914093 ms per record
62500: 7915.6639575958 ms per 100 recs, 79.156639575958 ms per record
62600: 6485.4757785797 ms per 100 recs, 64.854757785797 ms per record
62700: 6940.3657913208 ms per 100 recs, 69.403657913208 ms per record
62800: 6959.9199295044 ms per 100 recs, 69.599199295044 ms per record
62900: 6528.1591415405 ms per 100 recs, 65.281591415405 ms per record
63000: 6484.9648475647 ms per 100 recs, 64.849648475647 ms per record
63100: 6590.8870697021 ms per 100 recs, 65.908870697021 ms per record
63200: 6770.3769207001 ms per 100 recs, 67.703769207001 ms per record
63300: 7632.8401565552 ms per 100 recs, 76.328401565552 ms per record
63400: 6456.3090801239 ms per 100 recs, 64.563090801239 ms per record
63500: 6687.6618862152 ms per 100 recs, 66.876618862152 ms per record
63600: 6739.4208908081 ms per 100 recs, 67.394208908081 ms per record
63700: 7119.0860271454 ms per 100 recs, 71.190860271454 ms per record
63800: 7149.0018367767 ms per 100 recs, 71.490018367767 ms per record
63900: 6810.0731372833 ms per 100 recs, 68.100731372833 ms per record
64000: 6306.8871498108 ms per 100 recs, 63.068871498108 ms per record
64100: 6526.3640880585 ms per 100 recs, 65.263640880585 ms per record
64200: 7282.9580307007 ms per 100 recs, 72.829580307007 ms per record
64300: 6654.0219783783 ms per 100 recs, 66.540219783783 ms per record
64400: 6162.5990867615 ms per 100 recs, 61.625990867615 ms per record
64500: 6475.2910137177 ms per 100 recs, 64.752910137177 ms per record
64600: 6843.92619133 ms per 100 recs, 68.4392619133 ms per record
64700: 6308.7069988251 ms per 100 recs, 63.087069988251 ms per record
64800: 6298.7630367279 ms per 100 recs, 62.987630367279 ms per record
64900: 6479.9239635468 ms per 100 recs, 64.799239635468 ms per record
65000: 6045.0069904327 ms per 100 recs, 60.450069904327 ms per record
65100: 6100.5291938782 ms per 100 recs, 61.005291938782 ms per record
65200: 5781.8579673767 ms per 100 recs, 57.818579673767 ms per record
65300: 6620.7489967346 ms per 100 recs, 66.207489967346 ms per record
65400: 5892.6680088043 ms per 100 recs, 58.926680088043 ms per record
65500: 6050.5521297455 ms per 100 recs, 60.505521297455 ms per record
65600: 5893.8641548157 ms per 100 recs, 58.938641548157 ms per record
65700: 6148.4291553497 ms per 100 recs, 61.484291553497 ms per record
65800: 5845.508813858 ms per 100 recs, 58.45508813858 ms per record
65900: 5993.7179088593 ms per 100 recs, 59.937179088593 ms per record
66000: 6339.8420810699 ms per 100 recs, 63.398420810699 ms per record
66100: 6161.6280078888 ms per 100 recs, 61.616280078888 ms per record
66200: 6196.8829631805 ms per 100 recs, 61.968829631805 ms per record
66300: 6453.3371925354 ms per 100 recs, 64.533371925354 ms per record
66400: 6745.5790042877 ms per 100 recs, 67.455790042877 ms per record
66500: 8149.9810218811 ms per 100 recs, 81.499810218811 ms per record
66600: 6203.5272121429 ms per 100 recs, 62.035272121429 ms per record
66700: 6324.7919082642 ms per 100 recs, 63.247919082642 ms per record
66800: 6426.5141487122 ms per 100 recs, 64.265141487122 ms per record
66900: 6591.8371677399 ms per 100 recs, 65.918371677399 ms per record
67000: 7095.7047939301 ms per 100 recs, 70.957047939301 ms per record
67100: 7116.4698600769 ms per 100 recs, 71.164698600769 ms per record
67200: 7038.822889328 ms per 100 recs, 70.38822889328 ms per record
67300: 6691.8568611145 ms per 100 recs, 66.918568611145 ms per record
67400: 7462.2027873993 ms per 100 recs, 74.622027873993 ms per record
67500: 6197.9241371155 ms per 100 recs, 61.979241371155 ms per record
67600: 6354.9201488495 ms per 100 recs, 63.549201488495 ms per record
67700: 6423.182964325 ms per 100 recs, 64.23182964325 ms per record
67800: 5920.3062057495 ms per 100 recs, 59.203062057495 ms per record
67900: 6114.8951053619 ms per 100 recs, 61.148951053619 ms per record
68000: 6384.7541809082 ms per 100 recs, 63.847541809082 ms per record
68100: 6813.4801387787 ms per 100 recs, 68.134801387787 ms per record
68200: 7784.0430736542 ms per 100 recs, 77.840430736542 ms per record
68300: 6507.0781707764 ms per 100 recs, 65.070781707764 ms per record
68400: 5916.5351390839 ms per 100 recs, 59.165351390839 ms per record
68500: 6323.2939243317 ms per 100 recs, 63.232939243317 ms per record
68600: 6542.6518917084 ms per 100 recs, 65.426518917084 ms per record
68700: 6859.9891662598 ms per 100 recs, 68.599891662598 ms per record
68800: 6693.5980319977 ms per 100 recs, 66.935980319977 ms per record
68900: 6379.2581558228 ms per 100 recs, 63.792581558228 ms per record
69000: 6071.1359977722 ms per 100 recs, 60.711359977722 ms per record
69100: 7754.7171115875 ms per 100 recs, 77.547171115875 ms per record
69200: 5997.8799819946 ms per 100 recs, 59.978799819946 ms per record
69300: 6175.6300926208 ms per 100 recs, 61.756300926208 ms per record
69400: 6415.5380725861 ms per 100 recs, 64.155380725861 ms per record
69500: 6687.0560646057 ms per 100 recs, 66.870560646057 ms per record
69600: 6401.3879299164 ms per 100 recs, 64.013879299164 ms per record
69700: 6568.6111450195 ms per 100 recs, 65.686111450195 ms per record
69800: 6903.2921791077 ms per 100 recs, 69.032921791077 ms per record
69900: 8029.5391082764 ms per 100 recs, 80.295391082764 ms per record
70000: 6513.347864151 ms per 100 recs, 65.13347864151 ms per record
70100: 6890.636920929 ms per 100 recs, 68.90636920929 ms per record
70200: 6525.6400108337 ms per 100 recs, 65.256400108337 ms per record
70300: 7233.4480285645 ms per 100 recs, 72.334480285645 ms per record
70400: 6723.6080169678 ms per 100 recs, 67.236080169678 ms per record
70500: 6902.4930000305 ms per 100 recs, 69.024930000305 ms per record
70600: 6426.5370368958 ms per 100 recs, 64.265370368958 ms per record
70700: 6091.1359786987 ms per 100 recs, 60.911359786987 ms per record
70800: 7670.2890396118 ms per 100 recs, 76.702890396118 ms per record
70900: 6113.5349273682 ms per 100 recs, 61.135349273682 ms per record
71000: 6511.0201835632 ms per 100 recs, 65.110201835632 ms per record
71100: 6532.7699184418 ms per 100 recs, 65.327699184418 ms per record
71200: 6836.4131450653 ms per 100 recs, 68.364131450653 ms per record
71300: 6530.5089950562 ms per 100 recs, 65.305089950562 ms per record
71400: 6628.8130283356 ms per 100 recs, 66.288130283356 ms per record
71500: 6459.9850177765 ms per 100 recs, 64.599850177765 ms per record
71600: 7531.3940048218 ms per 100 recs, 75.313940048218 ms per record
71700: 6260.2798938751 ms per 100 recs, 62.602798938751 ms per record
71800: 6630.6698322296 ms per 100 recs, 66.306698322296 ms per record
71900: 5839.7529125214 ms per 100 recs, 58.397529125214 ms per record
72000: 5709.9668979645 ms per 100 recs, 57.099668979645 ms per record
72100: 6032.8240394592 ms per 100 recs, 60.328240394592 ms per record
72200: 6056.7741394043 ms per 100 recs, 60.567741394043 ms per record
72300: 6270.2040672302 ms per 100 recs, 62.702040672302 ms per record
72400: 6015.3248310089 ms per 100 recs, 60.153248310089 ms per record
72500: 5752.0000934601 ms per 100 recs, 57.520000934601 ms per record
72600: 5512.8710269928 ms per 100 recs, 55.128710269928 ms per record
72700: 5424.4720935822 ms per 100 recs, 54.244720935822 ms per record
72800: 6071.172952652 ms per 100 recs, 60.71172952652 ms per record
72900: 6942.5799846649 ms per 100 recs, 69.425799846649 ms per record
73000: 5821.3460445404 ms per 100 recs, 58.213460445404 ms per record
73100: 5967.5719738007 ms per 100 recs, 59.675719738007 ms per record
73200: 6156.8601131439 ms per 100 recs, 61.568601131439 ms per record
73300: 6449.5708942413 ms per 100 recs, 64.495708942413 ms per record
73400: 6761.4789009094 ms per 100 recs, 67.614789009094 ms per record
73500: 6168.7889099121 ms per 100 recs, 61.687889099121 ms per record
73600: 6399.5440006256 ms per 100 recs, 63.995440006256 ms per record
73700: 6211.0431194305 ms per 100 recs, 62.110431194305 ms per record
73800: 6744.8070049286 ms per 100 recs, 67.448070049286 ms per record
73900: 7579.0400505066 ms per 100 recs, 75.790400505066 ms per record
74000: 6482.4070930481 ms per 100 recs, 64.824070930481 ms per record


                                                                            
  [ErrorException]                                                          
  array_combine(): Both parameters should have an equal number of elements  
                                                                            


process:consume [-sn|--name="..."] [example]


