0|CS3563677|2013-08-14 19:27:55|Lungu|Mihai||M|1984-03-04|Botosani|BOTOSANI|Fierarilor|23|||||0765707933|||MBRFP||2 Winston Blue Tin (6mg) Pack|Yes|No||CT000505|LA FRONTIERA|Constanta|CTHRKBA56|167|CCC HRK WIN FAM 2013|121|Horeca|0
0|CS3563683|2013-08-14 19:28:43|Galateanu|Florin||M|1980-05-24|Braila|BRAILA|Fruntasilor|60|||||0767598006||Galateanu_florin80@yahoo.com|KTBL||2 Winston Blue Tin (6mg) Pack|Yes|No||CT000505|LA FRONTIERA|Constanta|CTHRKBA57|167|CCC HRK WIN FAM 2013|121|Horeca|0
0|CS3563686|2013-08-14 19:28:56|Rosu|Marian||M|1984-03-26|Bucuresti|SECTOR 3|Aleea cu Dor|35|||||0767453896||Maryan@yahoo.com|KTBL||2 Winston Blue Tin (6mg) Pack|Yes|Yes||CT000505|LA FRONTIERA|Constanta|CTHRKBA99|167|CCC HRK WIN FAM 2013|121|Horeca|0
0|CS3563688|2013-08-14 19:29:18|Tescuteanu|Dorel||M|1977-11-24|Braila|BRAILA|Vladescu|38|||||0764784286|||MBRRD||2 Winston Blue Tin (6mg) Pack|Yes|No||CT000505|LA FRONTIERA|Constanta|CTHRKBA58|167|CCC HRK WIN FAM 2013|121|Horeca|0
0|CS3563692|2013-08-14 19:29:53|Petcu|Ioana||F|1990-04-06|Bucuresti|SECTOR 2|Negru voda|22|||||0723405662||Ioana.petcu@yahoo.com|KTBL||2 Winston Blue Tin (6mg) Pack|Yes|No||CT000505|LA FRONTIERA|Constanta|CTHRKBA56|167|CCC HRK WIN FAM 2013|121|Horeca|0
0|CS3563712|2013-08-14 19:32:23|Chilian|Bogdan||M|1987-08-26|Bucuresti|2|Prisparu|49|||||0754705378|||KTBL||2 Winston Blue Tin (6mg) Pack|Yes|No||CT000505|LA FRONTIERA|Constanta|CTHRKBA58|167|CCC HRK WIN FAM 2013|121|Horeca|0
0|CS3563719|2013-08-14 19:33:17|Efren|Monica||F|1987-02-25|Calarasi|CALARASI|B.P. Hasdeu|7|U|B|||0763658879|||MBRRDH||2 Winston Blue Tin (6mg) Pack|Yes|No||CT000505|LA FRONTIERA|Constanta|CTHRKBA57|167|CCC HRK WIN FAM 2013|121|Horeca|0
0|CS3563725|2013-08-14 19:33:54|Grigoras|Valeria||F|1985-04-24|Ialomita|IAZU|Florilor|67|||||0743678321|||WISSB||2 Winston Blue Tin (6mg) Pack|Yes|Yes||CT000505|LA FRONTIERA|Constanta|CTHRKBA99|167|CCC HRK WIN FAM 2013|121|Horeca|0
0|CS3563827|2013-08-14 19:45:08|Cococea|Diana||F|1982-05-26|Brasov|BRASOV|Duminicii|38|||||0743698547||Cococea_diana26@yahoo.com|WIBLUETN||1 Bricheta WIN|Yes|Yes||CT000505|LA FRONTIERA|Constanta|CTHRKBA58|167|CCC HRK WIN FAM 2013|121|Horeca|0
0|CS3563951|2013-08-14 20:04:29|Duicu|Florina||F|1982-05-23|Arad|ARAD|Avram Iancu|7|||||0744548700||Duicuflory@gmail.com|WIBL||2 Winston Blue Tin (6mg) Pack|Yes|No||CTR01515|General Machine Bussines Division|Constanta|CTHRKBA57|167|CCC HRK WIN FAM 2013|121|Horeca|0
0|CS3563952|2013-08-14 20:04:36|Smau|Bogdan||M|1985-02-18|Constanta|CONSTANTA|Zorilor|52|||||0732167432||Smaubogdan@gmail.com|PMECBL||2 Winston Blue Tin (6mg) Pack|Yes|No||CTR01515|General Machine Bussines Division|Constanta|CTHRKBA99|167|CCC HRK WIN FAM 2013|121|Horeca|0
0|CS3563953|2013-08-14 20:04:43|Sorescu|Dumitru||M|1979-11-01|Bacau|BACAU|Poporului|14|||||0723446098||Dumitru.sorescu@yahoo.com|KTSV||2 Winston Blue Tin (6mg) Pack|Yes|Yes||CTR01515|General Machine Bussines Division|Constanta|CTHRKBA56|167|CCC HRK WIN FAM 2013|121|Horeca|0
0|CS3563958|2013-08-14 20:05:34|Bercea|Florin||M|1982-11-28|Arges|ARGESANI|Pescariilor|38|||||0732874797|||KTH||2 Winston Blue Tin (6mg) Pack|Yes|No||CTR01515|General Machine Bussines Division|Constanta|CTHRKBA58|167|CCC HRK WIN FAM 2013|121|Horeca|0
0|CS3563965|2013-08-14 20:07:58|Valahu|Anghel||M|1979-11-22|Sibiu|SIBIU|Eroilor|55|S-1|D|4|21|0733490994||Valahuanghel22@yahoo.com|KTH||2 Winston Blue Tin (6mg) Pack|Yes|No||CTR01515|General Machine Bussines Division|Constanta|CTHRKBA57|167|CCC HRK WIN FAM 2013|121|Horeca|0
0|CS3563966|2013-08-14 20:07:59|Burada|Ramona||F|1989-10-07|Cluj|CLUJ NAPOCA|Cerealelor|56|||||0732167543||Ramona_burada@yahoo.com|PMSSBL||2 Winston Blue Tin (6mg) Pack|Yes|Yes||CTR01515|General Machine Bussines Division|Constanta|CTHRKBA99|167|CCC HRK WIN FAM 2013|121|Horeca|0
0|CS3563977|2013-08-14 20:10:35|Cirparu|Madalin||M|1985-04-28|Bucuresti|3|Ion ratiu|30|||||0722893987||Cirparu_madalin@yahoo.com|PMECBL||2 Winston Blue Tin (6mg) Pack|Yes|Yes||CTR01515|General Machine Bussines Division|Constanta|CTHRKBA58|167|CCC HRK WIN FAM 2013|121|Horeca|0
0|CS3563984|2013-08-14 20:13:12|Popescu|Lidia||F|1990-05-09|Cluj|CLUJ NAPOCA|Stanca|27|||||0721446792|||MBRFPH||2 Winston Blue Tin (6mg) Pack|Yes|No||CTR01515|General Machine Bussines Division|Constanta|CTHRKBA56|167|CCC HRK WIN FAM 2013|121|Horeca|0
0|CS3564001|2013-08-14 20:19:52|Didea|Marius||M|1984-03-01|Iasi|IASI|Lebedelor|63|||||0732156743|||PMBL||1 Bricheta WIN|Yes|No||CTR01515|General Machine Bussines Division|Constanta|CTHRKBA99|167|CCC HRK WIN FAM 2013|121|Horeca|0
0|CS3564033|2013-08-14 20:29:54|Barbieriu|Florin||M|1994-04-13|Brasov|BRASOV|Timis triaj|22|||0|0|0745354869|||WIBLUETN||2 Winston Blue Tin (6mg) Pack|Yes|Yes||CT004336|Opus Day SRL 2|Constanta|CTHRKBA56|167|CCC HRK WIN FAM 2013|121|Horeca|0
0|CS3564048|2013-08-14 20:32:23|Ditoiu|Cristian||M|1981-08-03|Bucuresti|SECTOR 1|Tepes voda|17|||0|0|0740113435||cd@webmaker.ro|KTBL||2 Winston Blue Tin (6mg) Pack|Yes|Yes||CT004336|Opus Day SRL 2|Constanta|CTHRKBA58|167|CCC HRK WIN FAM 2013|121|Horeca|0
0|CS3564057|2013-08-14 20:34:23|Suta|Mihai||M|1986-03-01|Alba|ALBA IULIA|Smarda|213|||||0723409981||Suta11@yahoo.com|WIBLUETN||1 Bricheta WIN|Yes|Yes||CT004336|Opus Day SRL 2|Constanta|CTHRKBA56|167|CCC HRK WIN FAM 2013|121|Horeca|0
0|CS3564067|2013-08-14 20:36:05|Stanescu|Vlad||M|1988-03-29|Braila|BRAILA|Principala|54|||||0721456231||Vlad03@yahoo.com|PMECBL||2 Winston Blue Tin (6mg) Pack|Yes|No||CT004336|Opus Day SRL 2|Constanta|CTHRKBA99|167|CCC HRK WIN FAM 2013|121|Horeca|0
0|CS3564077|2013-08-14 20:37:48|Velichia|Cosmin||M|1978-06-19|Buzau|BUZAU|Cocorului|57|||||0737975468|||MBRFPH||2 Winston Blue Tin (6mg) Pack|Yes|No||CT004336|Opus Day SRL 2|Constanta|CTHRKBA58|167|CCC HRK WIN FAM 2013|121|Horeca|0
0|CS3564085|2013-08-14 20:39:55|Ristea|Ioan||M|1980-08-16|Bistrita Nasaud|BISTRITA|Ficusului|8|E11|B|3|55|0731432599||Risteaioan80@yahoo.com|KTSWIT||2 Winston Blue Tin (6mg) Pack|Yes|No||CT004336|Opus Day SRL 2|Constanta|CTHRKBA57|167|CCC HRK WIN FAM 2013|121|Horeca|0
0|CS3564100|2013-08-14 20:42:19|Miu|Valentina||F|1990-04-05|Brasov|BRASOV|Tampa|22|||||0722409887|||LMBL||2 Winston Blue Tin (6mg) Pack|Yes|No||CT004336|Opus Day SRL 2|Constanta|CTHRKBA56|167|CCC HRK WIN FAM 2013|121|Horeca|0
0|CS3564103|2013-08-14 20:43:10|Bisut|Ionut||M|1989-12-01|Cluj|CLUJ NAPOCA|Braziilor|31|||||0764808554|||KTBLH||2 Winston Blue Tin (6mg) Pack|Yes|No||CT004336|Opus Day SRL 2|Constanta|CTHRKBA58|167|CCC HRK WIN FAM 2013|121|Horeca|0
0|CS3564110|2013-08-14 20:44:22|Porea|Andrei||M|1985-06-01|Mehedinti|MERIS|Bursucilor|50|||||0742647695||Andu_porea@yahoo.com|PMRD||2 Winston Blue Tin (6mg) Pack|Yes|No||CT004336|Opus Day SRL 2|Constanta|CTHRKBA57|167|CCC HRK WIN FAM 2013|121|Horeca|0
0|CS3564112|2013-08-14 20:44:24|Iordan|Iulia||F|1989-10-23|Brasov|BRASOV|Stefan cel mare|67|||||0721563896||Iuliaiordan89@yahoo.com|PMECBL||2 Winston Blue Tin (6mg) Pack|Yes|No||CT004336|Opus Day SRL 2|Constanta|CTHRKBA99|167|CCC HRK WIN FAM 2013|121|Horeca|0
0|CS3564126|2013-08-14 20:47:03|Nulea|Marin||M|1981-12-25|Buzau|BUZAU|Transilvaniei|4|I6|D|1||0766834376|||LMBL||1 Bricheta WIN|Yes|Yes||CT004336|Opus Day SRL 2|Constanta|CTHRKBA57|167|CCC HRK WIN FAM 2013|121|Horeca|0
0|CS3564132|2013-08-14 20:49:18|Prodan|Miron||M|1990-04-05|Arad|ARAD|Liliacului|21|||||0756704055|||MBRFPEX||2 Winston Blue Tin (6mg) Pack|Yes|No||CT004336|Opus Day SRL 2|Constanta|CTHRKBA56|167|CCC HRK WIN FAM 2013|121|Horeca|0
0|CS3564139|2013-08-14 20:49:41|Misu|Iancu||M|1986-05-24|Bucuresti|SECTOR 4|Aviatorilor|67|||||0767438999||Iancu860524@yahoo.com|LMBL||2 Winston Blue Tin (6mg) Pack|Yes|Yes||CT004336|Opus Day SRL 2|Constanta|CTHRKBA99|167|CCC HRK WIN FAM 2013|121|Horeca|0
0|CS3564199|2013-08-14 21:03:11|Gospodin|Laura||F|1979-08-27|Constanta|CONSTANTA|Ciprian Porumbescu|7|||||0760598005|||KTH||2 Winston Blue Tin (6mg) Pack|Yes|Yes||CT004336|Opus Day SRL 2|Constanta|CTHRKBA57|167|CCC HRK WIN FAM 2013|121|Horeca|0
0|CS3564271|2013-08-14 21:22:49|Ionut|Mihai||M|1993-09-26|Iasi|IASI|Docherilor|3|||||0724840676|||KTAPGD||1 Bricheta WIN|Yes|Yes||CT004485|Iuli\'s House|Constanta|CTHRKBA56|167|CCC HRK WIN FAM 2013|121|Horeca|0
0|CS3564275|2013-08-14 21:24:37|Agache|Vasilica||M|1978-03-21|Ilfov|DRAGOMIRESTI DEAL|Libertatii|1|||0|0|0766560275||Ag_vas21@yahoo.com|LMRD||2 Winston Blue Tin (6mg) Pack|Yes|Yes||CT004485|Iuli\'s House|Constanta|CTHRKBA58|167|CCC HRK WIN FAM 2013|121|Horeca|0
0|CS3564278|2013-08-14 21:25:17|Maciuca|Andrei||M|1974-08-15|Sibiu|MEDIAS|Feleac|6|||0|0|0743641464|||KTBL||2 Winston Blue Tin (6mg) Pack|Yes|Yes||CT004485|Iuli\'s House|Constanta|CTHRKBA56|167|CCC HRK WIN FAM 2013|121|Horeca|0
0|CS3564283|2013-08-14 21:27:19|Tanasescu|Ana Maria||F|1980-02-26|Bucuresti|SECTOR 3|Aleea foisorului|95|4|3|||0766473009||Anatanasescu@gmail.com|PMECBL||2 Winston Blue Tin (6mg) Pack|Yes|Yes||CT004485|Iuli\'s House|Constanta|CTHRKBA99|167|CCC HRK WIN FAM 2013|121|Horeca|0
0|CS3564287|2013-08-14 21:28:54|Mihnea|Adrian||M|1980-06-06|Giurgiu|GIURGIU|Mare|6|||||0769606693||Mihnea_ady@yahoo.com|PMBL||1 Bricheta WIN|Yes|Yes||CT004485|Iuli\'s House|Constanta|CTHRKBA57|167|CCC HRK WIN FAM 2013|121|Horeca|0
0|CS3564304|2013-08-14 21:32:37|Gheorghe|Valentin||M|1973-09-08|Sibiu|SIBIU|Selarilor|2|||0|0|0742839529|||WIBLUETN||2 Winston Blue Tin (6mg) Pack|Yes|Yes||CT004485|Iuli\'s House|Constanta|CTHRKBA57|167|CCC HRK WIN FAM 2013|121|Horeca|0
0|CS3564310|2013-08-14 21:33:27|Pescaru|Daniel||M|1983-05-22|Bucuresti|3|Daciilor|69|||||0735786686|||KTAPBK||2 Winston Blue Tin (6mg) Pack|Yes|No||CT004485|Iuli\'s House|Constanta|CTHRKBA58|167|CCC HRK WIN FAM 2013|121|Horeca|0
0|CS3564320|2013-08-14 21:36:45|Buga|Florina||F|1994-06-01|Bucuresti|6|Sibiu|34|||||0732578657||Buga_floriana@yahoo.com|MBRGL||2 Winston Blue Tin (6mg) Pack|Yes|Yes||CT004485|Iuli\'s House|Constanta|CTHRKBA58|167|CCC HRK WIN FAM 2013|121|Horeca|0
0|CS3564331|2013-08-14 21:38:49|Vulpe|Oana||F|1990-10-12|Olt|CRACIUNEI|Malului|21|G|B|5|51|0722612133||Vulpe_oana1990@yahoo.com|KTH||2 Winston Blue Tin (6mg) Pack|Yes|No||CT004485|Iuli\'s House|Constanta|CTHRKBA57|167|CCC HRK WIN FAM 2013|121|Horeca|0
0|CS3564332|2013-08-14 21:38:52|Tanase|Marian||M|1989-03-25|Bucuresti|SECTOR 3|Mihail Sadoveanu|9|||||0732167555|||PMBL||2 Winston Blue Tin (6mg) Pack|Yes|No||CT004485|Iuli\'s House|Constanta|CTHRKBA99|167|CCC HRK WIN FAM 2013|121|Horeca|0
0|CS3564337|2013-08-14 21:40:34|Nedelcu|Mihai||M|1991-04-04|Cluj|CLUJ NAPOCA|Lacului|23|||||0722309662|||LMRD||2 Winston Blue Tin (6mg) Pack|Yes|No||CT004485|Iuli\'s House|Constanta|CTHRKBA56|167|CCC HRK WIN FAM 2013|121|Horeca|0
0|CS3564344|2013-08-14 21:42:43|Dihoiu|Augustin||M|1989-04-05|Ialomita|URZICENI|Merisor|31|||||0725712902||Dihoiu_augustin@yahoo.com|PHMQBL||2 Winston Blue Tin (6mg) Pack|Yes|Yes||CT004485|Iuli\'s House|Constanta|CTHRKBA57|167|CCC HRK WIN FAM 2013|121|Horeca|0
0|CS3564398|2013-08-14 22:04:00|Bugea|Stefan||M|1979-04-01|Cluj|CLUJ NAPOCA|Strengariilor|31|||||0743897558|||KTBL||1 Bricheta WIN|Yes|No||CT004485|Iuli\'s House|Constanta|CTHRKBA58|167|CCC HRK WIN FAM 2013|121|Horeca|0
0|CS3564408|2013-08-14 22:07:15|Dumitru|Mircea||M|1989-04-05|Braila|BRAILA|Cocorului|23|||||0766240793|||WIBL||2 Winston Blue Tin (6mg) Pack|Yes|No||CT004485|Iuli\'s House|Constanta|CTHRKBA56|167|CCC HRK WIN FAM 2013|121|Horeca|0
0|CS3564417|2013-08-14 22:16:53|Farmacu|Miron||M|1986-01-01|Sibiu|SIBIU|Voluntari|7|S3|3|||0722628960||Farmacu_miron1986@yahoo.com|MBRGL||2 Winston Blue Tin (6mg) Pack|Yes|No||CT004485|Iuli\'s House|Constanta|CTHRKBA57|167|CCC HRK WIN FAM 2013|121|Horeca|0
0|CS3564434|2013-08-14 22:50:56|Maciuca|Oana||F|1984-02-25|Dolj|Craiova|Doljului|4|R16|1|0|3|0764381956||oana.maciuca@gmail.com|LMBLH||2 Winston Blue Tin (6mg) Pack|Yes|Yes||CT000505|LA FRONTIERA|Constanta|CTHRKBA99|167|CCC HRK WIN FAM 2013|121|Horeca|0
0|CS3564435|2013-08-14 22:52:40|Fluture|Valeriu||M|1979-06-26|Constanta|MANGALIA|1decembrie 1918|3|||||0746737800|||KTAPGD||2 Winston Blue Tin (6mg) Pack|Yes|No||CT000505|LA FRONTIERA|Constanta|CTHRKBA57|167|CCC HRK WIN FAM 2013|121|Horeca|0
0|CS3564436|2013-08-14 22:53:46|Hanca|Simona||F|1976-04-20|Alba|ALBA IULIA|Septimius severus|22|Tol 6||2|8|0757208450||Simonel0420@yahoo.com|MBRRD||1 Bricheta WIN|Yes|Yes||CT000505|LA FRONTIERA|Constanta|CTHRKBA58|167|CCC HRK WIN FAM 2013|121|Horeca|0
0|CS3564437|2013-08-14 22:54:46|Lungu|Irina||F|1986-01-01|Calarasi|CALARASI|Florilor|15|||||0732509882|||LMTUNE||2 Winston Blue Tin (6mg) Pack|Yes|No||CT000505|LA FRONTIERA|Constanta|CTHRKBA56|167|CCC HRK WIN FAM 2013|121|Horeca|0
0|CS3564438|2013-08-14 22:55:46|Bucur|Paula||M|1974-08-13|Galati|GALATI|Zambilelor|47|F|A|6|65|0761548975|||MBRFP||2 Winston Blue Tin (6mg) Pack|Yes|No||CT000505|LA FRONTIERA|Constanta|CTHRKBA57|167|CCC HRK WIN FAM 2013|121|Horeca|0
0|CS3564439|2013-08-14 22:56:01|Ciutu|Alexandru||M|1987-04-25|Cluj|CLUJ NAPOCA|Clujului|57|||||0721675480|||KTBL||2 Winston Blue Tin (6mg) Pack|Yes|Yes||CT000505|LA FRONTIERA|Constanta|CTHRKBA99|167|CCC HRK WIN FAM 2013|121|Horeca|0
0|CS3564440|2013-08-14 22:57:10|Dicu|Valentin||M|1980-07-25|Braila|BRAILA|Liviu rebreanu|58|||||0743986555|||DAVGL||2 Winston Blue Tin (6mg) Pack|Yes|No||CT000505|LA FRONTIERA|Constanta|CTHRKBA58|167|CCC HRK WIN FAM 2013|121|Horeca|0
0|CS3564441|2013-08-14 22:59:40|Patrutoiu|Iulia||F|1989-04-22|Constanta|NAVODARI|Nucilor|78|||||0745327865||Patrutoiuiulia@yahoo.com|PMSSOR||2 Winston Blue Tin (6mg) Pack|Yes|Yes||CT000505|LA FRONTIERA|Constanta|CTHRKBA99|167|CCC HRK WIN FAM 2013|121|Horeca|0
0|CS3564442|2013-08-14 23:02:28|Pericleanu|Stefania||F|1982-02-12|Constanta|MANGALIA|Caisiilor|22|||||0754796336||Pericleanu.stefania@yahoo.com|MBRGLH||2 Winston Blue Tin (6mg) Pack|Yes|Yes||CT000505|LA FRONTIERA|Constanta|CTHRKBA58|167|CCC HRK WIN FAM 2013|121|Horeca|0
0|CS3564444|2013-08-14 23:07:08|Sactu|Mihaela||F|1986-01-01|Alba|ALBA IULIA|Zorilor|26|||||0721456065|||KTBLH||2 Winston Blue Tin (6mg) Pack|Yes|Yes||CT000505|LA FRONTIERA|Constanta|CTHRKBA56|167|CCC HRK WIN FAM 2013|121|Horeca|0
0|CS3564448|2013-08-14 23:16:16|Turcu|Ionel||M|1992-08-16|Galati|GALATI|Micro 38|10|||||0721407587|||WIXSTFX||0 Bricheta XST|Yes|No||CT000505|LA FRONTIERA|Constanta|CTHRKBA57|167|CCC HRK WIN FAM 2013|121|Horeca|0
0|CS3564451|2013-08-14 23:28:50|Marcu|Alexandru||M|1989-04-05|Buzau|BUZAU|Pescarilor|46|||||0745609882|||LMBLH||2 Winston Blue Tin (6mg) Pack|Yes|No||CT000505|LA FRONTIERA|Constanta|CTHRKBA56|167|CCC HRK WIN FAM 2013|121|Horeca|0
0|CS3565526|2013-08-15 19:54:50|Moldovan pop|Razvan||M|1986-09-27|Satu Mare|Carei|Armatei romane|83b|||0|0|0742651818||razvan_moldovan86@yahoo.com|WIXSTSV||0 Bricheta XST|Yes|Yes||CT000505|LA FRONTIERA|Constanta|CTHRKBA57|167|CCC HRK WIN FAM 2013|121|Horeca|0
0|CS3565528|2013-08-15 19:56:31|Nagy|Gabriela||F|1976-11-28|Sibiu|SIBIU|Aleea strei|8|||||0744632323||Gaby_nagy@yahoo.com|WISSB||1 Bricheta WIN|Yes|Yes||CT000505|LA FRONTIERA|Constanta|CTHRKBA58|167|CCC HRK WIN FAM 2013|121|Horeca|0
0|CS3565536|2013-08-15 19:57:35|Buse|Iuliana||F|1992-07-20|Bucuresti|SECTOR 4|Imparatul traian|11|B8|1|8|34|0726965153||Buse.iuliana@gmail.com|WISSB||2 Winston Blue Tin (6mg) Pack|Yes|Yes||CT000505|LA FRONTIERA|Constanta|CTHRKBA56|167|CCC HRK WIN FAM 2013|121|Horeca|0
0|CS3565542|2013-08-15 19:59:32|Carpen|Andreea||F|1976-05-24|Buzau|BUZAU|Carbunilor|67|A3|G|||0754806990||Carpen_andreea76@yahoo.com|KTH||2 Winston Blue Tin (6mg) Pack|Yes|No||CT000505|LA FRONTIERA|Constanta|CTHRKBA57|167|CCC HRK WIN FAM 2013|121|Horeca|0
0|CS3565549|2013-08-15 20:00:52|Petrescu|Violeta||F|1981-07-28|Bucuresti|4|Mihai eminescu|3|||||0744785793|||KTSV||2 Winston Blue Tin (6mg) Pack|Yes|No||CT000505|LA FRONTIERA|Constanta|CTHRKBA58|167|CCC HRK WIN FAM 2013|121|Horeca|0
0|CS3565555|2013-08-15 20:02:15|Bratu|Paul||M|1987-06-25|Hunedoara|HUNEDOARA|Ion Lahovari|56|||||0743768556|||MBRFPH||2 Winston Blue Tin (6mg) Pack|Yes|Yes||CT000505|LA FRONTIERA|Constanta|CTHRKBA57|167|CCC HRK WIN FAM 2013|121|Horeca|0
0|CS3565561|2013-08-15 20:03:50|Hancu|Gabriel||M|1985-04-28|Galati|GALATI|Ciorilor|67|||||0732166754||Gabrielhancu@yahoo.com|PMBL||2 Winston Blue Tin (6mg) Pack|Yes|Yes||CT000505|LA FRONTIERA|Constanta|CTHRKBA99|167|CCC HRK WIN FAM 2013|121|Horeca|0
0|CS3565563|2013-08-15 20:04:28|Gheorghe|Alina||F|1981-07-08|Cluj|CLUJ NAPOCA|Popescu ion|48|||||0732578537|||MBRFP||2 Winston Blue Tin (6mg) Pack|Yes|No||CT000505|LA FRONTIERA|Constanta|CTHRKBA58|167|CCC HRK WIN FAM 2013|121|Horeca|0
0|CS3565564|2013-08-15 20:04:32|Prodan|Alexandru||M|1990-07-01|Cluj|CLUJ NAPOCA|Frunzelor|15|||||0722353480|||KTBL6||2 Winston Blue Tin (6mg) Pack|Yes|No||CT000505|LA FRONTIERA|Constanta|CTHRKBA56|167|CCC HRK WIN FAM 2013|121|Horeca|0
0|CS3565565|2013-08-15 20:04:32|Stan|Lucian||M|1981-06-29|Timis|TIMISOARA|Martin Hermand Spore|0|46|B|2|13|0766571197||young_lost@yahoo.com|WIXSTFX||0 Bricheta XST|Yes|Yes||CT000505|LA FRONTIERA|Constanta|CTHRKBA57|167|CCC HRK WIN FAM 2013|121|Horeca|0
0|CS3565572|2013-08-15 20:06:13|Gelmambet|Sunai||M|1982-03-25|Bucuresti|SECTOR 3|Rozelor|56|||||0732167444||Sunai82@yahoo.com|KTBL||2 Winston Blue Tin (6mg) Pack|Yes|No||CT000505|LA FRONTIERA|Constanta|CTHRKBA99|167|CCC HRK WIN FAM 2013|121|Horeca|0
0|CS3565580|2013-08-15 20:07:56|Boangiu|Stefan||M|1976-02-26|Arges|FURNICOSI|Panselutelor|48|||||0743697544||Boangiu.stefan@gmail.com|PMECBK||2 Winston Blue Tin (6mg) Pack|Yes|Yes||CT000505|LA FRONTIERA|Constanta|CTHRKBA58|167|CCC HRK WIN FAM 2013|121|Horeca|0
0|CS3565585|2013-08-15 20:09:22|Fratila|Monica||F|1991-03-04|Buzau|BUZAU|Infratirii|37|||||0766574882||Fratila.monica@yahoo.com|MBRFPEX||2 Winston Blue Tin (6mg) Pack|Yes|No||CT000505|LA FRONTIERA|Constanta|CTHRKBA56|167|CCC HRK WIN FAM 2013|121|Horeca|0
0|CS3565584|2013-08-15 20:09:22|Gurtanu|Otilia||F|1992-05-01|Bistrita Nasaud|BISTRITA|Plopilor|7|||||0755790558||Grutzanu_oty@gmail.com|PMBL||2 Winston Blue Tin (6mg) Pack|Yes|Yes||CT000505|LA FRONTIERA|Constanta|CTHRKBA57|167|CCC HRK WIN FAM 2013|121|Horeca|0
0|CS3565592|2013-08-15 20:11:00|Ciortan|Madalina||F|1989-04-27|Braila|BRAILA|Lalelelor|8|||||0721564317||Ciortanmadalina@yahoo.com|PMSSOR||2 Winston Blue Tin (6mg) Pack|Yes|Yes||CT000505|LA FRONTIERA|Constanta|CTHRKBA99|167|CCC HRK WIN FAM 2013|121|Horeca|0
0|CS3565598|2013-08-15 20:12:02|Burca|David||M|1991-03-02|Brasov|BRASOV|Piata sfatului|44|||||0734775804|||KTBLH||2 Winston Blue Tin (6mg) Pack|Yes|No||CT000505|LA FRONTIERA|Constanta|CTHRKBA58|167|CCC HRK WIN FAM 2013|121|Horeca|0
0|CS3565602|2013-08-15 20:13:10|Stanescu|Ana Maria||F|1989-10-20|Braila|BRAILA|Primaverii|18|||||0721563907||Anamariastanescu@gmail.com|WISSS||2 Winston Blue Tin (6mg) Pack|Yes|No||CT000505|LA FRONTIERA|Constanta|CTHRKBA99|167|CCC HRK WIN FAM 2013|121|Horeca|0
0|CS3565603|2013-08-15 20:13:19|Matu|Mirel||M|1984-04-06|Botosani|BOTOSANI|Verde|70|L|2|4|34|0745880952||Mmirel.67@yahoo.com|LMGR||2 Winston Blue Tin (6mg) Pack|Yes|No||CT000505|LA FRONTIERA|Constanta|CTHRKBA56|167|CCC HRK WIN FAM 2013|121|Horeca|0
0|CS3565609|2013-08-15 20:14:45|Toader|Valentin||M|1982-06-22|Salaj|PADURENI|Dacilor|3|||||0732738443||Toader_vali_82@yahoo.com|KTH||2 Winston Blue Tin (6mg) Pack|Yes|No||CT000505|LA FRONTIERA|Constanta|CTHRKBA57|167|CCC HRK WIN FAM 2013|121|Horeca|0
0|CS3565627|2013-08-15 20:19:05|Saftu|Monica||F|1991-01-01|Constanta|CONSTANTA|Poporului|45|||||0723449021||Saftu.monica@yahoo.com|PMECBK||2 Winston Blue Tin (6mg) Pack|Yes|Yes||CT000505|LA FRONTIERA|Constanta|CTHRKBA56|167|CCC HRK WIN FAM 2013|121|Horeca|0
0|CS3565767|2013-08-15 20:41:39|Adam|Alina||F|1988-02-21|Constanta|CONSTANTA|Frunzelor|3|||||0732167543||Adamalina@yahoo.com|PMSSBL||2 Winston Blue Tin (6mg) Pack|Yes|Yes||CT000505|LA FRONTIERA|Constanta|CTHRKBA99|167|CCC HRK WIN FAM 2013|121|Horeca|0
0|CS3565846|2013-08-15 21:05:05|Suru|Mario||M|1990-05-05|Bucuresti|SECTOR 3|Drumului|33|5|A|2|4|0722464097||Suru.mario@yahoo.com|PMBL||2 Winston Blue Tin (6mg) Pack|Yes|No||CTR01515|General Machine Bussines Division|Constanta|CTHRKBA56|167|CCC HRK WIN FAM 2013|121|Horeca|0
0|CS3565845|2013-08-15 21:05:16|Tanase|Gabriela||F|1987-11-25|Bucuresti|SECTOR 6|Stramosilor|7|||||0733565547|||WIBL||1 Bricheta WIN|Yes|No||CTR01515|General Machine Bussines Division|Constanta|CTHRKBA99|167|CCC HRK WIN FAM 2013|121|Horeca|0
0|CS3565852|2013-08-15 21:06:10|Halca|Maria||F|1974-06-19|Olt|SLATINA|Cosov|80|F-2|C|27||0757463869||Halcamaria@yahoo.ro|LMRDH||2 Winston Blue Tin (6mg) Pack|Yes|No||CTR01515|General Machine Bussines Division|Constanta|CTHRKBA57|167|CCC HRK WIN FAM 2013|121|Horeca|0
0|CS3565856|2013-08-15 21:07:17|Piscan|Laura||F|1982-03-10|Bucuresti|2|Calea mosiilor|288|32|3|8|103|0744441814||Laura.piscan@yahoo.com|MBRFP||1 Bricheta WIN|Yes|Yes||CTR01515|General Machine Bussines Division|Constanta|CTHRKBA58|167|CCC HRK WIN FAM 2013|121|Horeca|0
0|CS3565859|2013-08-15 21:08:22|Stere|Andreea||F|1988-05-05|Constanta|CONSTANTA|Verde|33|||||0756402887||Stereandreea@yahoo.com|PHMQBLH||2 Winston Blue Tin (6mg) Pack|Yes|Yes||CTR01515|General Machine Bussines Division|Constanta|CTHRKBA56|167|CCC HRK WIN FAM 2013|121|Horeca|0
0|CS3565863|2013-08-15 21:08:44|Petrescu|Oliver||M|1976-01-20|Bucuresti|SECTOR 2|Radovanu|5|||||0724395596||Oliverpet2002@Yahoo.com|MBRGLT||1 Bricheta WIN|Yes|Yes||CTR01515|General Machine Bussines Division|Constanta|CTHRKBA99|167|CCC HRK WIN FAM 2013|121|Horeca|0
0|CS3565868|2013-08-15 21:10:11|Gaman|Luciana||F|1977-03-12|Olt|SLATINA|Avram Iancu|2|||||0747654769||Gaman_luciana@gmail.com|LMRD||2 Winston Blue Tin (6mg) Pack|Yes|No||CTR01515|General Machine Bussines Division|Constanta|CTHRKBA57|167|CCC HRK WIN FAM 2013|121|Horeca|0
0|CS3565880|2013-08-15 21:12:10|Postasu|Corina||F|1985-08-01|Brasov|BRASOV|Stelelor|34|||||0743707537|||LMRD||2 Winston Blue Tin (6mg) Pack|Yes|No||CTR01515|General Machine Bussines Division|Constanta|CTHRKBA58|167|CCC HRK WIN FAM 2013|121|Horeca|0
0|CS3565887|2013-08-15 21:12:49|Capau|Dragos||M|1989-05-17|Braila|BRAILA|Florilor|21|||||0732156432||Dragoscapau@yahoo.com|KTBL||2 Winston Blue Tin (6mg) Pack|Yes|Yes||CTR01515|General Machine Bussines Division|Constanta|CTHRKBA99|167|CCC HRK WIN FAM 2013|121|Horeca|0
0|CS3565893|2013-08-15 21:14:26|Marin|Marius||M|1986-01-16|Bucuresti|SECTOR 2|Anastasie Panu|4|04|1|1|4|0765209567||Marius_anarchycamp@yahoo.com|WIBLUETN||1 Bricheta WIN|Yes|Yes||CTR01515|General Machine Bussines Division|Constanta|CTHRKBA57|167|CCC HRK WIN FAM 2013|121|Horeca|0
0|CS3565904|2013-08-15 21:16:45|Preda|Sorin||M|1973-06-27|Constanta|MANGALIA|Sirenei|34|||||0736885599|||MBRRDRT||2 Winston Blue Tin (6mg) Pack|Yes|No||CTR01515|General Machine Bussines Division|Constanta|CTHRKBA58|167|CCC HRK WIN FAM 2013|121|Horeca|0
0|CS3565905|2013-08-15 21:17:03|Radu|Violeta||F|1990-05-29|Bacau|BACAU|Varful cu dor|37|||||0744340994|||WIBL||2 Winston Blue Tin (6mg) Pack|Yes|No||CTR01515|General Machine Bussines Division|Constanta|CTHRKBA56|167|CCC HRK WIN FAM 2013|121|Horeca|0
0|CS3565913|2013-08-15 21:18:22|Caruntu|Adriana||F|1987-04-28|Bucuresti|SECTOR 3|Aleea cu Dor|45|||||0723168865||Caruntuadriana@yahoo.com|PMSSOR||2 Winston Blue Tin (6mg) Pack|Yes|Yes||CTR01515|General Machine Bussines Division|Constanta|CTHRKBA99|167|CCC HRK WIN FAM 2013|121|Horeca|0
0|CS3565917|2013-08-15 21:19:01|Dragu|Marian||M|1984-04-05|Brasov|BRASOV|Tampa|48|||||0722505672|||WIXSTFX||0 Bricheta XST|Yes|No||CTR01515|General Machine Bussines Division|Constanta|CTHRKBA56|167|CCC HRK WIN FAM 2013|121|Horeca|0
0|CS3565919|2013-08-15 21:19:30|Jurca|Ioan||M|1980-08-16|Cluj|CLUJ NAPOCA|Nuntasilor|4|||||0757445652||Jurcaioan@yahoo.com|KTSWITH||2 Winston Blue Tin (6mg) Pack|Yes|No||CTR01515|General Machine Bussines Division|Constanta|CTHRKBA57|167|CCC HRK WIN FAM 2013|121|Horeca|0
0|CS3565925|2013-08-15 21:20:27|Druga|Florin||M|1981-09-27|Neamt|PIATRA NEAMT|Dreptatii|86|||||0742699589|||PMECBL||2 Winston Blue Tin (6mg) Pack|Yes|No||CTR01515|General Machine Bussines Division|Constanta|CTHRKBA58|167|CCC HRK WIN FAM 2013|121|Horeca|0
0|CS3565953|2013-08-15 21:26:43|Bondoc|Aurel||M|1968-06-22|Bucuresti|2|Ceterasiilor|6|||||0766842584||Bondoc_aurel@yahoo.com|KTAPBK||2 Winston Blue Tin (6mg) Pack|Yes|Yes||CTR01515|General Machine Bussines Division|Constanta|CTHRKBA58|167|CCC HRK WIN FAM 2013|121|Horeca|0
0|CS3565958|2013-08-15 21:28:00|Ciucanu|Luminita||M|1984-10-12|Constanta|MANGALIA|Portului|56|||||0721564211|||KTBL||2 Winston Blue Tin (6mg) Pack|Yes|No||CTR01515|General Machine Bussines Division|Constanta|CTHRKBA99|167|CCC HRK WIN FAM 2013|121|Horeca|0
0|CS3565963|2013-08-15 21:29:58|Ursache|Maria||F|1983-12-24|Constanta|CONSTANTA|Farului|15|E2|F|4|79|0768750990||Ursache_marya@yahoo.com|MBRGLT||2 Winston Blue Tin (6mg) Pack|Yes|No||CTR01515|General Machine Bussines Division|Constanta|CTHRKBA57|167|CCC HRK WIN FAM 2013|121|Horeca|0
0|CS3565969|2013-08-15 21:31:24|Grecu|Simona||M|1986-10-29|Constanta|CONSTANTA|Pimaverii|23|||||0721468832||Grecusimona@gmail.com|PMSSOR||2 Winston Blue Tin (6mg) Pack|Yes|Yes||CTR01515|General Machine Bussines Division|Constanta|CTHRKBA99|167|CCC HRK WIN FAM 2013|121|Horeca|0
0|CS3565973|2013-08-15 21:31:41|Proca|Iulian||M|1990-05-14|Dolj|Dolj|Smardan|21|||||0754705562|||WIBLH||2 Winston Blue Tin (6mg) Pack|Yes|No||CTR01515|General Machine Bussines Division|Constanta|CTHRKBA56|167|CCC HRK WIN FAM 2013|121|Horeca|0
0|CS3566010|2013-08-15 21:43:12|Brutar|Emilia||F|1978-07-12|Constanta|CONSTANTA|Decebal|66|||||0748950477|||MBRFPH||2 Winston Blue Tin (6mg) Pack|Yes|No||CT004336|Opus Day SRL 2|Constanta|CTHRKBA57|167|CCC HRK WIN FAM 2013|121|Horeca|0
0|CS3566023|2013-08-15 21:45:24|Suciu|Mihai||M|1984-03-01|Covasna|COVASNA|Liliacului|32|||||0721409884||Mihai009@yahoo.com|LMBLH||2 Winston Blue Tin (6mg) Pack|Yes|No||CT004336|Opus Day SRL 2|Constanta|CTHRKBA56|167|CCC HRK WIN FAM 2013|121|Horeca|0
0|CS3566033|2013-08-15 21:47:00|Florea|Oana||F|1988-04-11|Bucuresti|SECTOR 4|Fabrica de gheata|22-25|||||0744506320|||KTSV||2 Winston Blue Tin (6mg) Pack|Yes|No||CT004336|Opus Day SRL 2|Constanta|CTHRKBA56|167|CCC HRK WIN FAM 2013|121|Horeca|0
0|CS3566039|2013-08-15 21:47:58|Nedianu-Ban|Adela||F|1987-08-17|Timis|TIMISOARA|Hotinului|3|||||0742691977||Adela17_wow@yahoo.com|PMBL||1 Bricheta WIN|Yes|Yes||CT004336|Opus Day SRL 2|Constanta|CTHRKBA99|167|CCC HRK WIN FAM 2013|121|Horeca|0
0|CS3566048|2013-08-15 21:48:32|Popescu|Radu|1870513385628|M|1987-05-13|Bucuresti|SECTOR 4|Drumul fermei|112|2|1|2|19|0744559878||Radu.popescu@live.com|WIXSTBL||0 Bricheta XST|Yes|Yes||CT004336|Opus Day SRL 2|Constanta|CTHRKBA58|167|CCC HRK WIN FAM 2013|121|Horeca|0
0|CS3566062|2013-08-15 21:50:49|Nedianu|Luigi||M|1984-02-04|Timis|GIROC|Oituz|61|||||0763723705||Artmagicdesign@yahoo.com|PMECBL||2 Winston Blue Tin (6mg) Pack|Yes|Yes||CT004336|Opus Day SRL 2|Constanta|CTHRKBA99|167|CCC HRK WIN FAM 2013|121|Horeca|0
0|CS3566063|2013-08-15 21:51:07|Adaitei|Paula||F|1992-12-24|Constanta|TOPALU|Toamnei|28|||||0726335806|||PMECBL||2 Winston Blue Tin (6mg) Pack|Yes|No||CT004336|Opus Day SRL 2|Constanta|CTHRKBA56|167|CCC HRK WIN FAM 2013|121|Horeca|0
0|CS3566064|2013-08-15 21:51:09|Popa|Andrei||M|1987-12-01|Bucuresti|6|Veteraniilor|3|41s16|A|6|78|0737199589||Andrei.popa@gmail.com|WISV||2 Winston Blue Tin (6mg) Pack|Yes|No||CT004336|Opus Day SRL 2|Constanta|CTHRKBA58|167|CCC HRK WIN FAM 2013|121|Horeca|0
0|CS3566069|2013-08-15 21:52:10|Udrean|Mihai||M|1982-08-26|Constanta|CONSTANTA|Rusaliilor|8|||||0855904458||Udreanmihaii@gmail.com|LMRD||2 Winston Blue Tin (6mg) Pack|Yes|No||CT004336|Opus Day SRL 2|Constanta|CTHRKBA57|167|CCC HRK WIN FAM 2013|121|Horeca|0
0|CS3566076|2013-08-15 21:54:19|Voicu|Alexandru||M|1975-07-12|Bucuresti|4|Constantei|86|||||0753689658|||LMRDH||2 Winston Blue Tin (6mg) Pack|Yes|No||CT004336|Opus Day SRL 2|Constanta|CTHRKBA58|167|CCC HRK WIN FAM 2013|121|Horeca|0
0|CS3566084|2013-08-15 21:55:42|Doxan|Alexandru||M|1988-04-06|Arad|ARAD|Rozelor|32|||||0766805338|||KTSV||2 Winston Blue Tin (6mg) Pack|Yes|No||CT004336|Opus Day SRL 2|Constanta|CTHRKBA56|167|CCC HRK WIN FAM 2013|121|Horeca|0
0|CS3566086|2013-08-15 21:56:22|Cizmaru|Catalin||M|1987-03-11|Cluj|CLUJ NAPOCA|Primariei|8|||||0724787698|||PMECBK||2 Winston Blue Tin (6mg) Pack|Yes|No||CT004336|Opus Day SRL 2|Constanta|CTHRKBA58|167|CCC HRK WIN FAM 2013|121|Horeca|0
0|CS3566087|2013-08-15 21:56:41|Stavrositu|Marioara||F|1981-06-24|Arad|ARAD|Dreapta|6|J|C|6||0733659800|||MBRRD||2 Winston Blue Tin (6mg) Pack|Yes|No||CT004336|Opus Day SRL 2|Constanta|CTHRKBA57|167|CCC HRK WIN FAM 2013|121|Horeca|0
0|CS3566089|2013-08-15 21:56:56|Crueru|Adrian||M|1988-05-06|Bucuresti|SECTOR 6|Aviatorilor|8|||||0721579642|||KTBL||2 Winston Blue Tin (6mg) Pack|Yes|No||CT004336|Opus Day SRL 2|Constanta|CTHRKBA99|167|CCC HRK WIN FAM 2013|121|Horeca|0
0|CS3566100|2013-08-15 21:59:01|Georgescu|Mariana||F|1986-11-01|Covasna|COVASNA|Liliecilor|21|||||0721563890||Georgimariana@yahoo.com|PMBL||2 Winston Blue Tin (6mg) Pack|Yes|Yes||CT004336|Opus Day SRL 2|Constanta|CTHRKBA99|167|CCC HRK WIN FAM 2013|121|Horeca|0
0|CS3566101|2013-08-15 21:59:07|Guta|Traian||M|1961-05-17|Timis|TIMISOARA|Aleea viespiilor|27|||||0763379846|||MBRRDH||2 Winston Blue Tin (6mg) Pack|Yes|No||CT004336|Opus Day SRL 2|Constanta|CTHRKBA58|167|CCC HRK WIN FAM 2013|121|Horeca|0
0|CS3566104|2013-08-15 21:59:52|Ghita|Florin||M|1988-08-14|Brasov|BRASOV|Albatros|8|||||0751548804|||WIBL||1 Bricheta WIN|Yes|No||CT004336|Opus Day SRL 2|Constanta|CTHRKBA57|167|CCC HRK WIN FAM 2013|121|Horeca|0
0|CS3566106|2013-08-15 22:00:13|Bogdan|Alexandra||F|1985-03-01|Brasov|BRASOV|Lefter manole|45|||||0734669021|||WICL||2 Winston Blue Tin (6mg) Pack|Yes|No||CT004336|Opus Day SRL 2|Constanta|CTHRKBA56|167|CCC HRK WIN FAM 2013|121|Horeca|0
0|CS3566112|2013-08-15 22:01:43|Smau|Simona||F|1990-06-04|Brasov|BRASOV|Principala|12|||||0756217842||Smausimona90@yahoo.com|PMSSBL||2 Winston Blue Tin (6mg) Pack|Yes|No||CT004336|Opus Day SRL 2|Constanta|CTHRKBA99|167|CCC HRK WIN FAM 2013|121|Horeca|0
0|CS3566113|2013-08-15 22:01:48|Petreanu|Elena||F|1988-10-28|Giurgiu|GIURGIU|Petre ispirescu|36|||||0742578658|||MBRGLH||2 Winston Blue Tin (6mg) Pack|Yes|No||CT004336|Opus Day SRL 2|Constanta|CTHRKBA58|167|CCC HRK WIN FAM 2013|121|Horeca|0
0|CS3566120|2013-08-15 22:03:15|Mihai|Raluca||F|1986-01-01|Cluj|CLUJ NAPOCA|Fierarilor|22|||||0766580662||Ralucamihai@yahoo.com|LSBL||2 Winston Blue Tin (6mg) Pack|Yes|Yes||CT004336|Opus Day SRL 2|Constanta|CTHRKBA56|167|CCC HRK WIN FAM 2013|121|Horeca|0
0|CS3566126|2013-08-15 22:04:30|Buzoianu|Diana||F|1982-09-28|Bucuresti|2|Nicolae iorga|97|||||0743655444||Buzoianu.diana@yahoo.com|WIBLH||2 Winston Blue Tin (6mg) Pack|Yes|No||CT004336|Opus Day SRL 2|Constanta|CTHRKBA58|167|CCC HRK WIN FAM 2013|121|Horeca|0
0|CS3566130|2013-08-15 22:05:32|Ciurea|Madalina||F|1988-04-22|Brasov|BRAN|Frunzelor|44|||||0723167490|||PMECBL||2 Winston Blue Tin (6mg) Pack|Yes|No||CT004336|Opus Day SRL 2|Constanta|CTHRKBA99|167|CCC HRK WIN FAM 2013|121|Horeca|0
0|CS3566131|2013-08-15 22:05:40|Murgu|Gabriela||F|1988-07-01|Satu Mare|SATU MARE|Amurg|80|||||0760933266|||MBRFPH||2 Winston Blue Tin (6mg) Pack|Yes|No||CT004336|Opus Day SRL 2|Constanta|CTHRKBA57|167|CCC HRK WIN FAM 2013|121|Horeca|0
0|CS3566136|2013-08-15 22:06:25|Grosu|Ionut||M|1984-10-26|Constanta|CUMPANA|Soseaua Constantei|104|H2|A|2|7|0747060663||grosu.ionut84@yahoo.com|PMECBL||2 Winston Blue Tin (6mg) Pack|Yes|Yes||CT004336|Opus Day SRL 2|Constanta|CTHRKBA99|167|CCC HRK WIN FAM 2013|121|Horeca|0
0|CS3566221|2013-08-15 22:32:10|Ripan|Daniel||M|1985-11-04|Timis|JEBEL|Principala|11k|||0|0|0743510216||mireldany@yahoo.com|WIBLUETN||2 Winston Blue Tin (6mg) Pack|Yes|Yes||CT004485|Iuli\'s House|Constanta|CTHRKBA57|167|CCC HRK WIN FAM 2013|121|Horeca|0
0|CS3566224|2013-08-15 22:33:08|Zafiu|Adrian||M|1970-01-29|Arges|PITESTI|Negru voda|17|||||0744774142||Adriam.zafiu@yahoo.com|MBRGLH||2 Winston Blue Tin (6mg) Pack|Yes|Yes||CT004485|Iuli\'s House|Constanta|CTHRKBA56|167|CCC HRK WIN FAM 2013|121|Horeca|0
0|CS3566227|2013-08-15 22:35:15|Stoica|Robert||M|1993-12-20|Prahova|BUSTENI|Cezar petrescu|4|1bis||P|4|0725184684||Roberteu93@yahoo.com|MBRRDH||2 Winston Blue Tin (6mg) Pack|Yes|Yes||CT004485|Iuli\'s House|Constanta|CTHRKBA58|167|CCC HRK WIN FAM 2013|121|Horeca|0
0|CS3566242|2013-08-15 22:39:26|Agimof|Daniel||M|1984-09-12|Constanta|MANGALIA|Rozelor|24|||||0755564042||Danut1284@yahoo.com|PMBL||1 Bricheta WIN|Yes|Yes||CT004485|Iuli\'s House|Constanta|CTHRKBA99|167|CCC HRK WIN FAM 2013|121|Horeca|0
0|CS3566276|2013-08-15 22:47:54|Rotari|Cristina||F|1988-05-02|Bucuresti|SECTOR 4|Intrarea fabulei|4|||||0734931724||Kiki_reys@yahoo.com|KTBL||2 Winston Blue Tin (6mg) Pack|Yes|Yes||CT004485|Iuli\'s House|Constanta|CTHRKBA99|167|CCC HRK WIN FAM 2013|121|Horeca|0
0|CS3566279|2013-08-15 22:48:55|Savu|Mihai||M|1984-04-04|Bucuresti|SECTOR 3|Poporului|25|||||0721408972|||KTSV||2 Winston Blue Tin (6mg) Pack|Yes|No||CT004485|Iuli\'s House|Constanta|CTHRKBA56|167|CCC HRK WIN FAM 2013|121|Horeca|0
0|CS3566290|2013-08-15 22:50:47|Nita|Adrian||M|1991-08-08|Constanta|MANGALIA|Rozelor|34|R16|D|3|69|0747339732||Nita_ma08@yahoo.com|MBRGLT||2 Winston Blue Tin (6mg) Pack|Yes|Yes||CT004485|Iuli\'s House|Constanta|CTHRKBA57|167|CCC HRK WIN FAM 2013|121|Horeca|0
0|CS3566297|2013-08-15 22:52:00|Lazar|Mihai||F|1989-04-12|Dambovita|DAMBOVICIOARA|Serei|29|||||0721476092|||KTBL||2 Winston Blue Tin (6mg) Pack|Yes|No||CT004485|Iuli\'s House|Constanta|CTHRKBA56|167|CCC HRK WIN FAM 2013|121|Horeca|0
0|CS3566302|2013-08-15 22:52:47|Rotari|Iurie||M|1974-07-07|Bucuresti|SECTOR 4|Intrarea Fabulei|4|||||0734931725||Yura@mail.ru|KTBL||2 Winston Blue Tin (6mg) Pack|Yes|Yes||CT004485|Iuli\'s House|Constanta|CTHRKBA99|167|CCC HRK WIN FAM 2013|121|Horeca|0
0|CS3566312|2013-08-15 22:55:58|Ilie|Andreea||F|1994-10-23|Buzau|RAMNICU SARAT|Mihai Eminescu|10|||||0761316945||Deea.andreea2310@yahoo.com|WIBLUETN||2 Winston Blue Tin (6mg) Pack|Yes|Yes||CT004485|Iuli\'s House|Constanta|CTHRKBA57|167|CCC HRK WIN FAM 2013|121|Horeca|0
0|CS3566315|2013-08-15 22:56:10|Curca|Dorin||M|1980-08-27|Calarasi|CALARASI|Stefan cel mare|21|||||0735865853|||KTSWITH||2 Winston Blue Tin (6mg) Pack|Yes|No||CT004485|Iuli\'s House|Constanta|CTHRKBA58|167|CCC HRK WIN FAM 2013|121|Horeca|0
0|CS3566325|2013-08-15 22:59:41|Savu|Mirela||F|1989-05-01|Iasi|IASI|Dragoslavelor|26|||||0722787240|||WISSB||2 Winston Blue Tin (6mg) Pack|Yes|No||CT004485|Iuli\'s House|Constanta|CTHRKBA56|167|CCC HRK WIN FAM 2013|121|Horeca|0
0|CS3566326|2013-08-15 22:59:44|Cocor|Vasile||M|1991-07-25|Bucuresti|4|Maceselor|62|||||0746875787|||WIBL||2 Winston Blue Tin (6mg) Pack|Yes|No||CT004485|Iuli\'s House|Constanta|CTHRKBA58|167|CCC HRK WIN FAM 2013|121|Horeca|0
0|CS3566327|2013-08-15 22:59:57|Rezmerita|Marius||M|1990-11-06|Vaslui|TATARANI|Principala|59|||||0702354840||Baiazidmarius@yahoo.com|KTBL||2 Winston Blue Tin (6mg) Pack|Yes|Yes||CT004485|Iuli\'s House|Constanta|CTHRKBA99|167|CCC HRK WIN FAM 2013|121|Horeca|0
0|CS3566329|2013-08-15 23:00:23|Bica|Mara||F|1979-05-24|Galati|GALATI|Radulesti|50|||||0769709055|||MBRRD||2 Winston Blue Tin (6mg) Pack|Yes|No||CT004485|Iuli\'s House|Constanta|CTHRKBA57|167|CCC HRK WIN FAM 2013|121|Horeca|0
0|CS3566330|2013-08-15 23:02:14|Florescu|Cristian||F|1978-12-21|Caras Severin|CARASOVA|Dorobant|57|||||0736886808|||MBRGL||2 Winston Blue Tin (6mg) Pack|Yes|No||CT004485|Iuli\'s House|Constanta|CTHRKBA58|167|CCC HRK WIN FAM 2013|121|Horeca|0
0|CS3566331|2013-08-15 23:03:27|Roznovan|Alexandru||M|1994-04-06|Suceava|SUCEAVA|Gh cozorici|31|||||0747259503|||WIBL||1 Bricheta WIN|Yes|Yes||CT004485|Iuli\'s House|Constanta|CTHRKBA56|167|CCC HRK WIN FAM 2013|121|Horeca|0
0|CS3566333|2013-08-15 23:05:25|Dunica|Ana||F|1976-08-26|Constanta|CONSTANTA|Rasuri|7|||||0735477840|||LMBLH||1 Bricheta WIN|Yes|No||CT004485|Iuli\'s House|Constanta|CTHRKBA57|167|CCC HRK WIN FAM 2013|121|Horeca|0
0|CS3566341|2013-08-15 23:08:54|Cruceru|Marian||M|1986-03-27|Constanta|CONSTANTA|Astrilor|5|||||0723156893|||KTBL||2 Winston Blue Tin (6mg) Pack|Yes|Yes||CT004485|Iuli\'s House|Constanta|CTHRKBA99|167|CCC HRK WIN FAM 2013|121|Horeca|0
0|CS3566351|2013-08-15 23:11:23|Tanase|Cristina||F|1990-02-23|Constanta|CUMPANA|Funzelor|62|0|0|0|0|0767558352||Cristinachirila90@yahoo.com|PMSSOR||2 Winston Blue Tin (6mg) Pack|Yes|Yes||CT004485|Iuli\'s House|Constanta|CTHRKBA99|167|CCC HRK WIN FAM 2013|121|Horeca|0
0|CS3566371|2013-08-15 23:23:45|Serban|Andra||F|1989-09-04|Bucuresti|SECTOR 3|Aleea barajul cucuteni|3|14|1|4|17|0721292157||Andra_serb@yahoo.com|KTBLH||1 Bricheta WIN|Yes|Yes||CT000505|LA FRONTIERA|Constanta|CTHRKBA57|167|CCC HRK WIN FAM 2013|121|Horeca|0
0|CS3566374|2013-08-15 23:24:55|Radulescu|Cristian||M|1994-12-31|Constanta|MANGALIA|Stefan cel mare|15|||||0749997918|||KTBL||1 Bricheta WIN|Yes|Yes||CT000505|LA FRONTIERA|Constanta|CTHRKBA99|167|CCC HRK WIN FAM 2013|121|Horeca|0
0|CS3566386|2013-08-15 23:33:40|Sandu|Ionela||F|1988-08-27|Dolj|DOBROTESTI|Fulgerului|7|||||0743589578|||MBRRDH||2 Winston Blue Tin (6mg) Pack|Yes|No||CT000505|LA FRONTIERA|Constanta|CTHRKBA58|167|CCC HRK WIN FAM 2013|121|Horeca|0
0|CS3566388|2013-08-15 23:34:15|Bulgaru|Miron||M|1986-01-01|Buzau|BUZAU|Florilor|45|||||0723560988|||MBRGL||2 Winston Blue Tin (6mg) Pack|Yes|No||CT000505|LA FRONTIERA|Constanta|CTHRKBA56|167|CCC HRK WIN FAM 2013|121|Horeca|0
0|CS3566390|2013-08-15 23:35:03|Nastase|Bianca||F|1988-07-30|Ilfov|BUFTEA|Dorului|53|Iv2|B|||0766588943|||LMRD||2 Winston Blue Tin (6mg) Pack|Yes|No||CT000505|LA FRONTIERA|Constanta|CTHRKBA57|167|CCC HRK WIN FAM 2013|121|Horeca|0
0|CS3566393|2013-08-15 23:37:39|Predoiu|Mihai||M|1989-10-05|Brasov|Fagaras|Parcului|26a|||0|0|0765641020||Mihaiiii_y@yahoo.com|WIXSTSV||0 Bricheta XST|Yes|Yes||CT000505|LA FRONTIERA|Constanta|CTHRKBA56|167|CCC HRK WIN FAM 2013|121|Horeca|0
0|CS3566397|2013-08-15 23:40:54|Predoiu|Catalin||M|1989-07-07|Brasov|BRASOV|Lunga|43|||||0766303304||Predoiu.catalin@yahoo.com|WIXSTBL||0 Bricheta XST|Yes|Yes||CT000505|LA FRONTIERA|Constanta|CTHRKBA58|167|CCC HRK WIN FAM 2013|121|Horeca|0
0|CS3566400|2013-08-15 23:45:07|Manea|Adrian||M|1987-10-01|Constanta|MANGALIA|Ion Creanga|9|C12|B|3|34|0757407026||Adi.manea@yahoo.com|KTSWITH||2 Winston Blue Tin (6mg) Pack|Yes|No||CT000505|LA FRONTIERA|Constanta|CTHRKBA58|167|CCC HRK WIN FAM 2013|121|Horeca|0
0|CS3566407|2013-08-15 23:47:29|Georgescu|Petruta||M|1984-03-18|Constanta|VAMA VECHE|Ion Creanga|2c|||0|0|0743337199||Petrutageorgescu1@gmail.com|KTBL6||2 Winston Blue Tin (6mg) Pack|Yes|Yes||CT000505|LA FRONTIERA|Constanta|CTHRKBA58|167|CCC HRK WIN FAM 2013|121|Horeca|0
0|CS3566410|2013-08-15 23:48:06|Lambru|Dacian||M|1982-10-25|Maramures|MAGURENI|Lupilor|3|||||0722382910||Lambru_dacian@yahoo.com|LMBL||2 Winston Blue Tin (6mg) Pack|Yes|No||CT000505|LA FRONTIERA|Constanta|CTHRKBA57|167|CCC HRK WIN FAM 2013|121|Horeca|0
0|CS3566422|2013-08-15 23:55:10|Nedelcu|Ioan||M|1989-04-05|Constanta|CONSTANTA|Alexandru lapusneanu|186|||||0789056773|||KTSV||1 Bricheta WIN|Yes|No||CT000505|LA FRONTIERA|Constanta|CTHRKBA56|167|CCC HRK WIN FAM 2013|121|Horeca|0
0|CS3566427|2013-08-16 00:03:53|Ganea|Raul||M|1989-04-26|Constanta|CONSTANTA|Gutuiului|56|||||0745327895||Ganearaul@yahoo.com|KTBL||2 Winston Blue Tin (6mg) Pack|Yes|Yes||CT000505|LA FRONTIERA|Constanta|CTHRKBA56|167|CCC HRK WIN FAM 2013|121|Horeca|0
0|FS1114630|2013-08-14 19:26:28|||||||||||||||||KTSV||||||||||167|CCC HRK WIN FAM 2013|121|Horeca|0
0|FS1114638|2013-08-14 19:27:08|||||||||||||||||KTBL||||||||||167|CCC HRK WIN FAM 2013|121|Horeca|0
0|FS1114716|2013-08-14 19:36:01|||||||||||||||||PMBL||||||||||167|CCC HRK WIN FAM 2013|121|Horeca|0
0|FS1114719|2013-08-14 19:36:16|||||||||||||||||DUNFCMBB||||||||||167|CCC HRK WIN FAM 2013|121|Horeca|0
0|FS1114773|2013-08-14 19:42:52|||||||||||||||||KTBL||||||||||167|CCC HRK WIN FAM 2013|121|Horeca|0
0|FS1114933|2013-08-14 20:01:43|||||||||||||||||KTBL||||||||||167|CCC HRK WIN FAM 2013|121|Horeca|0
0|FS1114936|2013-08-14 20:01:58|||||||||||||||||PMECBL||||||||||167|CCC HRK WIN FAM 2013|121|Horeca|0
0|FS1115390|2013-08-14 21:31:38|||||||||||||||||KTBL||||||||||167|CCC HRK WIN FAM 2013|121|Horeca|0
0|FS1115424|2013-08-14 21:36:40||||M|||||||||||||KTBL||||||||||167|CCC HRK WIN FAM 2013|121|Horeca|0
0|FS1115446|2013-08-14 21:40:56|||||||||||||||||KTSV||||||||||167|CCC HRK WIN FAM 2013|121|Horeca|0
0|FS1115487|2013-08-14 21:46:34|||||||||||||||||KTBL||||||||||167|CCC HRK WIN FAM 2013|121|Horeca|0
0|FS1115514|2013-08-14 21:51:33|||||||||||||||||DUNFCMBB||||||||||167|CCC HRK WIN FAM 2013|121|Horeca|0
0|FS1115562|2013-08-14 22:22:55|||||||||||||||||KTBLH||||||||||167|CCC HRK WIN FAM 2013|121|Horeca|0
0|FS1115563|2013-08-14 22:23:14|||||||||||||||||PMSSBL||||||||||167|CCC HRK WIN FAM 2013|121|Horeca|0
0|FS1115649|2013-08-14 23:29:04|||||||||||||||||KTBL||||||||||167|CCC HRK WIN FAM 2013|121|Horeca|0
0|FS1116679|2013-08-15 19:55:49|||||||||||||||||PMBL||||||||||167|CCC HRK WIN FAM 2013|121|Horeca|0
0|FS1116690|2013-08-15 19:58:20|||||||||||||||||DUNFCMBB||||||||||167|CCC HRK WIN FAM 2013|121|Horeca|0
0|FS1116695|2013-08-15 19:59:17|||||||||||||||||PMBL||||||||||167|CCC HRK WIN FAM 2013|121|Horeca|0
0|FS1116849|2013-08-15 20:31:45|||||||||||||||||DUNFCMBB||||||||||167|CCC HRK WIN FAM 2013|121|Horeca|0
0|FS1116888|2013-08-15 20:39:41|||||||||||||||||DUNFCMBB||||||||||167|CCC HRK WIN FAM 2013|121|Horeca|0
0|FS1117565|2013-08-15 23:28:32|||||||||||||||||DUNFCMBB||||||||||167|CCC HRK WIN FAM 2013|121|Horeca|0
