0|CS3540835|2013-08-07 19:37:08|Costin|Horea||M|1995-06-16|Salaj|ZALAU|Tudor vladimirescu|42|B42|4|4|39|0741986023||Horea_costin@yahoo.com|MBRRD||1 Camel Filters (10mg) Pack|Yes|Yes||CT004485|Iuli\'s House|Constanta|CTHRKBA90|158|CCC HRK CAMEL FAM Vara 2013|121|Horeca|0
0|CS3540840|2013-08-07 19:37:30|Mandrean|Andra||F|1990-02-07|Sibiu|SIBIU|Maramuresului|7|||||0743642730||Adamandrean@gmail.com|KTBL||1 Camel Blue (6 mg) Pack|Yes|Yes||CT004485|Iuli\'s House|Constanta|CTHRKBA27|158|CCC HRK CAMEL FAM Vara 2013|121|Horeca|0
0|CS3540865|2013-08-07 19:39:47|Dobrin|Sorin||M|1986-02-18|Bucuresti|SECTOR 4|Aleea Bran|4|93|2|4|34|0724103996||Sorind86@yahoo.com|KTBL6||1 Camel Black (6 mg) Pack|Yes|Yes||CT004485|Iuli\'s House|Constanta|CTHRKBA93|158|CCC HRK CAMEL FAM Vara 2013|121|Horeca|0
0|CS3540879|2013-08-07 19:40:55|Dulgheru|Ioan||M|1984-04-03|Constanta|CONSTANTA|Dezrobirii|108|||||0756880935||Laurentiu22@yahoo.com|DAVGLS||1 Camel Black (6 mg) Pack|Yes|Yes||CT004485|Iuli\'s House|Constanta|CTHRKBA92|158|CCC HRK CAMEL FAM Vara 2013|121|Horeca|0
0|CS3540894|2013-08-07 19:42:01|Colta|Alexandra||F|1990-03-16|Bucuresti|SECTOR 5|13septembrie|46|||||0730512376||Alexandra.colta@yahoo.com|DUNFCMBB||1 Camel Black (6 mg) Pack|Yes|Yes||CT004485|Iuli\'s House|Constanta|CTHRKBA27|158|CCC HRK CAMEL FAM Vara 2013|121|Horeca|0
0|CS3540903|2013-08-07 19:42:57|Girleanu|Sorin||M|1982-09-27|Buzau|BUZAU|Pescariilor|48|||||0734785974|||KTBLH||1 Camel Blue (6 mg) Pack|Yes|No||CT004485|Iuli\'s House|Constanta|CTHRKBA90|158|CCC HRK CAMEL FAM Vara 2013|121|Horeca|0
0|CS3540906|2013-08-07 19:43:14|Coltescu|Adriana||F|1978-03-25|Constanta|CONSTANTA|Ulmilor|40|||||0734284638|||KTBLH||1 Camel Blue (6 mg) Pack|Yes|No||CT004485|Iuli\'s House|Constanta|CTHRKBA93|158|CCC HRK CAMEL FAM Vara 2013|121|Horeca|0
0|CS3540915|2013-08-07 19:44:05|Popa|Iuliana||F|1990-08-05|Bucuresti|SECTOR 3|Lacului|154|||||0732609446||Popa.iuliana@yahoo.com|DUNFCBB||1 Camel White (1 mg) Pack|Yes|Yes||CT004485|Iuli\'s House|Constanta|CTHRKBA92|158|CCC HRK CAMEL FAM Vara 2013|121|Horeca|0
0|CS3540929|2013-08-07 19:45:53|Porean|Emilia||F|1988-08-30|Galati|GALATI|Micro 17|6|C|B|8||0736920906||Poreanemma@yahoo.com|LSBL||1 Camel Black (6 mg) Pack|Yes|No||CT004485|Iuli\'s House|Constanta|CTHRKBA93|158|CCC HRK CAMEL FAM Vara 2013|121|Horeca|0
0|CS3540930|2013-08-07 19:46:00|Serban|George||M|1989-11-19|Bucuresti|SECTOR 5|13 septembrie|23|||||0743217883||Georgeserban@yahoo.com|DUNFCBB||1 Camel White (1 mg) Pack|Yes|Yes||CT004485|Iuli\'s House|Constanta|CTHRKBA27|158|CCC HRK CAMEL FAM Vara 2013|121|Horeca|0
0|CS3540954|2013-08-07 19:47:43|Budescu|Cristina||F|1989-03-02|Constanta|MANGALIA|Zorelelor|31|||||0752784627||Budesvu_cristina@gmail.com|DAVGL||1 Camel Black (6 mg) Pack|Yes|Yes||CT004485|Iuli\'s House|Constanta|CTHRKBA90|158|CCC HRK CAMEL FAM Vara 2013|121|Horeca|0
0|CS3540973|2013-08-07 19:49:40|Giurgiu|Marian||M|1988-03-20|Constanta|CONSTANTA|Vasile Parvan|88|||||0732156858||Marian88@yahoo.com|KTBL||1 Camel Blue (6 mg) Pack|Yes|Yes||CT004485|Iuli\'s House|Constanta|CTHRKBA27|158|CCC HRK CAMEL FAM Vara 2013|121|Horeca|0
0|CS3541021|2013-08-07 19:56:22|Grec|Bogdan||M|1983-07-31|Constanta|MANGALIA|MI Dobrogeanu|10|N5|B|3|29|0753377253||Bogdan_grec@yahoo.com|CABK||1 Camel Black (6 mg) Pack|Yes|Yes||CT004485|Iuli\'s House|Constanta|CTHRKBA92|158|CCC HRK CAMEL FAM Vara 2013|121|Horeca|0
0|CS3541085|2013-08-07 20:07:30|Oltean|Andrei||M|1987-07-13|Constanta|CONSTANTA|Farului|45|||||0721678827|||DUNFCMBB||1 Camel Black (6 mg) Pack|Yes|Yes||CT004485|Iuli\'s House|Constanta|CTHRKBA27|158|CCC HRK CAMEL FAM Vara 2013|121|Horeca|0
0|CS3541153|2013-08-07 20:19:55|Dorobantu|Florin||M|1991-07-09|Brasov|BRASOV|Molidului|2|||||0740078525|||DUNFCBB||1 Camel White (1 mg) Pack|Yes|Yes||CT000505|LA FRONTIERA|Constanta|CTHRKBA90|158|CCC HRK CAMEL FAM Vara 2013|121|Horeca|0
0|CS3541158|2013-08-07 20:20:36|Bota|Ioan||M|1987-05-02|Maramures|CERNESTI|Principala|248|||||0762696085|||DUNFCMBB||1 Camel Black (6 mg) Pack|Yes|Yes||CT000505|LA FRONTIERA|Constanta|CTHRKBA27|158|CCC HRK CAMEL FAM Vara 2013|121|Horeca|0
0|CS3541169|2013-08-07 20:22:16|Sasu|Andrei||M|1993-12-28|Alba|AIUD|Avram iancu|79|||||0746468828||Sasu_andreyut@yahoo.com|CABL||1 Camel Blue (6 mg) Pack|Yes|Yes||CT000505|LA FRONTIERA|Constanta|CTHRKBA92|158|CCC HRK CAMEL FAM Vara 2013|121|Horeca|0
0|CS3541172|2013-08-07 20:22:38|Chelmus|Verol||M|1982-02-19|Brasov|BRASOV|Nicolae iorga|2|||||0743796446|||KTSV||1 Camel Silver (4 mg) Pack|Yes|No||CT000505|LA FRONTIERA|Constanta|CTHRKBA90|158|CCC HRK CAMEL FAM Vara 2013|121|Horeca|0
0|CS3541180|2013-08-07 20:24:10|Casian|Iosif||M|1985-08-25|Iasi|IASI|Ovidiu|14|619|B|5|22|0742414604||Iosif.casian@gmail.com|DUNFCBB||1 Camel White (1 mg) Pack|Yes|Yes||CT000505|LA FRONTIERA|Constanta|CTHRKBA93|158|CCC HRK CAMEL FAM Vara 2013|121|Horeca|0
0|CS3541189|2013-08-07 20:25:55|Heidenreich|Alina||F|1977-08-08|Bucuresti|SECTOR 1|Postelnicului|5|||||0722530695||Alinaionbell@yahoo.com|DUNFCBB||1 Camel White (1 mg) Pack|Yes|Yes||CT000505|LA FRONTIERA|Constanta|CTHRKBA27|158|CCC HRK CAMEL FAM Vara 2013|121|Horeca|0
0|CS3541199|2013-08-07 20:27:40|Bivolaru|Mihaela||F|1981-11-02|Bucuresti|SECTOR 5|Dumbrava noua|2|M78|1|5|31|0726355039||b81mbc@yahoo.com|CAWH||1 Camel White (1 mg) Pack|Yes|Yes||CT000505|LA FRONTIERA|Constanta|CTHRKBA92|158|CCC HRK CAMEL FAM Vara 2013|121|Horeca|0
0|CS3541209|2013-08-07 20:29:57|Bucin|Ileana||F|1974-08-25|Cluj|CLUJ NAPOCA|S.Ludwig Roth|23|||||0722211969||Trad_art@yahoo.com|KTSV||1 Camel White (1 mg) Pack|Yes|Yes||CT000505|LA FRONTIERA|Constanta|CTHRKBA93|158|CCC HRK CAMEL FAM Vara 2013|121|Horeca|0
0|CS3541211|2013-08-07 20:30:01|Ciucardel|Dragos||M|1989-05-14|Constanta|CONSTANTA|Stefan cel mare|45|||||0732157985|||KTSV||1 Camel Silver (4 mg) Pack|Yes|Yes||CT000505|LA FRONTIERA|Constanta|CTHRKBA27|158|CCC HRK CAMEL FAM Vara 2013|121|Horeca|0
0|CS3541217|2013-08-07 20:31:11|Bolnocea|Aurel||M|1985-08-23|Cluj|CLUJ NAPOCA|Floriilor|32|||||0748964369|||MBRRD||1 Camel Filters (10mg) Pack|Yes|No||CT000505|LA FRONTIERA|Constanta|CTHRKBA90|158|CCC HRK CAMEL FAM Vara 2013|121|Horeca|0
0|CS3541239|2013-08-07 20:34:41|Burcin|Andrei||M|1985-10-18|Bucuresti|SECTOR 4|Ion Creanga|56|||||0743215994||Burcin_andrei85@yahoo.com|MBRRD||1 Camel Filters (10mg) Pack|Yes|Yes||CT000505|LA FRONTIERA|Constanta|CTHRKBA27|158|CCC HRK CAMEL FAM Vara 2013|121|Horeca|0
0|CS3541240|2013-08-07 20:34:44|Stanciu|Mihai||M|1990-03-04|Bacau|BACAU|Florilor|35|||||0732509883||Mihai68@yahoo.com|DUNFCMBB||1 Camel Black (6 mg) Pack|Yes|No||CT000505|LA FRONTIERA|Constanta|CTHRKBA92|158|CCC HRK CAMEL FAM Vara 2013|121|Horeca|0
0|CS3541248|2013-08-07 20:35:36|Comornic|George||M|1975-07-16|Ialomita|BUCSA|Principala|132|||||0732805368||Comornic_george@yahoo.com|MBRFP||1 Camel Blue (6 mg) Pack|Yes|No||CT000505|LA FRONTIERA|Constanta|CTHRKBA90|158|CCC HRK CAMEL FAM Vara 2013|121|Horeca|0
0|CS3541250|2013-08-07 20:35:44|Ducat|Lidia||F|1986-04-19|Neamt|PIATRA NEAMT|24 ianuarie|3|P4|F|2||0748336480||Ducatlivia0419@gmail.com|WICL||1 Camel Filters (10mg) Pack|Yes|No||CT000505|LA FRONTIERA|Constanta|CTHRKBA93|158|CCC HRK CAMEL FAM Vara 2013|121|Horeca|0
0|CS3541269|2013-08-07 20:38:30|Martin|Radu||M|1981-03-20|Maramures|MANASTIREA|Dorului|5|||||0760620093|||DUNFCSB||1 Camel Filters (10mg) Pack|Yes|No||CT000505|LA FRONTIERA|Constanta|CTHRKBA93|158|CCC HRK CAMEL FAM Vara 2013|121|Horeca|0
0|CS3541276|2013-08-07 20:40:38|Lazar|Miruna||F|1989-04-05|Calarasi|CALARASI|Dreptatii|44|||||0746779422||Miruna.lazar@yahoo.com|CAFI||1 Camel Filters (10mg) Pack|Yes|No||CT000505|LA FRONTIERA|Constanta|CTHRKBA92|158|CCC HRK CAMEL FAM Vara 2013|121|Horeca|0
0|CS3541283|2013-08-07 20:41:51|Gavrila|Laurentiu||M|1989-08-20|Constanta|CONSTANTA|Constantei|213|||||0732156894||G.laurentiu89@yahoo.com|KTBL||1 Camel Blue (6 mg) Pack|Yes|Yes||CT000505|LA FRONTIERA|Constanta|CTHRKBA27|158|CCC HRK CAMEL FAM Vara 2013|121|Horeca|0
0|CS3541286|2013-08-07 20:42:41|Vintila|Andreea||F|1989-12-13|Arges|CURTEA DE ARGES|Plaiesului|80|||||0769687009||Vintila1213andreea@yahoo.com|PARSB||1 Camel Silver (4 mg) Pack|Yes|No||CT000505|LA FRONTIERA|Constanta|CTHRKBA93|158|CCC HRK CAMEL FAM Vara 2013|121|Horeca|0
0|CS3541314|2013-08-07 20:48:00|Sofronie|Elena||F|1988-04-04|Brasov|BRASOV|Lordului|165|||||0733509882|||KTBLH||1 Camel Blue (6 mg) Pack|Yes|No||CT000505|LA FRONTIERA|Constanta|CTHRKBA92|158|CCC HRK CAMEL FAM Vara 2013|121|Horeca|0
0|CS3541409|2013-08-07 21:08:45|Butnaru|Adrian||M|1987-10-14|Bucuresti|SECTOR 3|Ramnicul sarat|15|||||0724477211||Butnaru.alexandru01@yahoo.com|MBRGL||1 Camel Black (6 mg) Pack|Yes|Yes||CTR01515|General Machine Bussines Division|Constanta|CTHRKBA92|158|CCC HRK CAMEL FAM Vara 2013|121|Horeca|0
0|CS3541414|2013-08-07 21:09:21|Iliescu|Mihai||M|1991-11-28|Arges|CURTEANCA|Valea jiului|74|||||0751834517|||MBRRD||1 Camel Filters (10mg) Pack|Yes|Yes||CTR01515|General Machine Bussines Division|Constanta|CTHRKBA27|158|CCC HRK CAMEL FAM Vara 2013|121|Horeca|0
0|CS3541419|2013-08-07 21:10:07|Buruiana|Rimona||F|1990-11-13|Cluj|CLUJ NAPOCA|Aleea Godeanu|12|7|7|3|91|0753739571||Rimonaburuiana@yahoo.com|MBRGLT||1 Camel Black (6 mg) Pack|Yes|Yes||CTR01515|General Machine Bussines Division|Constanta|CTHRKBA93|158|CCC HRK CAMEL FAM Vara 2013|121|Horeca|0
0|CS3541423|2013-08-07 21:11:18|Solcan|Silviu||M|1988-11-13|Bacau|BACAU|Petilor|23|||||0766790922||Silviu33@yahoo.com|KTH||1 Camel Filters (10mg) Pack|Yes|Yes||CTR01515|General Machine Bussines Division|Constanta|CTHRKBA92|158|CCC HRK CAMEL FAM Vara 2013|121|Horeca|0
0|CS3541424|2013-08-07 21:11:33|Dobrogeanu|Viorica||F|1988-04-08|Constanta|CONSTANTA|Aleea lilieciilor|21|B2|A|2|23|0733674753||Dobrogeanu.viorica23@yahoo.com|MBRGL||1 Camel Blue (6 mg) Pack|Yes|No||CTR01515|General Machine Bussines Division|Constanta|CTHRKBA90|158|CCC HRK CAMEL FAM Vara 2013|121|Horeca|0
0|CS3541436|2013-08-07 21:15:01|Scurtu|Laurentiu||M|1986-01-04|Constanta|CONSTANTA|Rascoalei|33|||||0721446099|||DUNFCSB||1 Camel Filters (10mg) Pack|Yes|No||CTR01515|General Machine Bussines Division|Constanta|CTHRKBA92|158|CCC HRK CAMEL FAM Vara 2013|121|Horeca|0
0|CS3541438|2013-08-07 21:15:21|Corbu|Raul||M|1979-11-01|Bucuresti|2|Radauti|35|||||0754747322|||PMECBK||1 Camel Filters (10mg) Pack|Yes|Yes||CTR01515|General Machine Bussines Division|Constanta|CTHRKBA90|158|CCC HRK CAMEL FAM Vara 2013|121|Horeca|0
0|CS3541439|2013-08-07 21:15:25|Gherascu|Mihaela||F|1988-04-19|Botosani|BOTOSANI|Aleea dafinului|92|N33|G|||0769540944||Gherascumihaelaa@gmail.com|MBRRDH||1 Camel Filters (10mg) Pack|Yes|No||CTR01515|General Machine Bussines Division|Constanta|CTHRKBA93|158|CCC HRK CAMEL FAM Vara 2013|121|Horeca|0
0|CS3541443|2013-08-07 21:15:47|Dica|Marian||M|1985-08-05|Bucuresti|SECTOR 4|Aviatorilor|45|||||0721567321|||KTSV||1 Camel Silver (4 mg) Pack|Yes|Yes||CTR01515|General Machine Bussines Division|Constanta|CTHRKBA27|158|CCC HRK CAMEL FAM Vara 2013|121|Horeca|0
0|CS3541452|2013-08-07 21:19:00|Florea|Mara||F|1984-06-22|Braila|BRAILA|Stadionului|7|||||0724656043|||DAVGLS||1 Camel Blue (6 mg) Pack|Yes|No||CTR01515|General Machine Bussines Division|Constanta|CTHRKBA93|158|CCC HRK CAMEL FAM Vara 2013|121|Horeca|0
0|CS3541453|2013-08-07 21:19:01|Dorobantu|Andreea||F|1990-10-03|Dambovita|DEALU FRUMOS|Ciprian porumbescu|61|||||0734748328|||KTBL||1 Camel Blue (6 mg) Pack|Yes|No||CTR01515|General Machine Bussines Division|Constanta|CTHRKBA90|158|CCC HRK CAMEL FAM Vara 2013|121|Horeca|0
0|CS3541460|2013-08-07 21:20:49|Victor|Alexandru||M|1985-04-23|Gorj|GORNACEL|Principala|56|||||0732157886|||KTBL||1 Camel Black (6 mg) Pack|Yes|Yes||CTR01515|General Machine Bussines Division|Constanta|CTHRKBA27|158|CCC HRK CAMEL FAM Vara 2013|121|Horeca|0
0|CS3541480|2013-08-07 21:27:27|Enea|Mihai||M|1989-04-05|Constanta|CONSTANTA|Stefan cel mare|143|||||0734550992||Enea32@yahoo.com|DUNFCBB||1 Camel White (1 mg) Pack|Yes|No||CTR01515|General Machine Bussines Division|Constanta|CTHRKBA92|158|CCC HRK CAMEL FAM Vara 2013|121|Horeca|0
0|CS3541482|2013-08-07 21:27:42|Mocan|Iulian||M|1983-03-26|Ilfov|BUFTEA|Harbuz|6|||||0766465530||Mocaniulian26@yahoo.com|WIBLH||1 Camel Black (6 mg) Pack|Yes|No||CTR01515|General Machine Bussines Division|Constanta|CTHRKBA93|158|CCC HRK CAMEL FAM Vara 2013|121|Horeca|0
0|CS3541485|2013-08-07 21:28:39|Cuprinsu|Teodora||F|1989-01-21|Braila|BRAILA|Zorilor|23|||||0732156885|||DUNFCMBB||1 Camel Black (6 mg) Pack|Yes|Yes||CTR01515|General Machine Bussines Division|Constanta|CTHRKBA27|158|CCC HRK CAMEL FAM Vara 2013|121|Horeca|0
0|CS3541537|2013-08-07 21:44:21|Burducea|Stefan||M|1984-09-05|Constanta|MANGALIA|Sirenei|4|E6|A|3|16|0761614444||burducea_stefan@yahoo.com|CAFI||1 Camel Filters (10mg) Pack|Yes|Yes||CT004474|Martini Touristic |Constanta|CTHRKBA92|158|CCC HRK CAMEL FAM Vara 2013|121|Horeca|0
0|CS3541539|2013-08-07 21:44:58|Ichim|Mihai||M|1981-05-23|Bucuresti|3|Istriei|1|C2|3|1|34|0722755580||Imihaii@yahoo.com|CAFI||1 Camel Filters (10mg) Pack|Yes|Yes||CT004474|Martini Touristic |Constanta|CTHRKBA90|158|CCC HRK CAMEL FAM Vara 2013|121|Horeca|0
0|CS3541545|2013-08-07 21:46:35|Marinescu|Patricia||F|1982-03-16|Bucuresti|6|Cricovului|92|||||0745076601||Patriciamarinescu@yahoo.com|CAWH||1 Camel White (1 mg) Pack|Yes|Yes||CT004474|Martini Touristic |Constanta|CTHRKBA90|158|CCC HRK CAMEL FAM Vara 2013|121|Horeca|0
0|CS3541554|2013-08-07 21:48:17|Mocanu|Alexandru||M|1988-02-04|Cluj|CLUJ NAPOCA|Lotului|54|||||0722409882|||DUNFCMBB||1 Camel Blue (6 mg) Pack|Yes|No||CT004474|Martini Touristic |Constanta|CTHRKBA92|158|CCC HRK CAMEL FAM Vara 2013|121|Horeca|0
0|CS3541563|2013-08-07 21:50:48|Vlad|Felicia||F|1991-11-08|Constanta|CONSTANTA|Ghetarilor|6|A7|B|||0761531740||Vladfelycya@gmail.com|KTSV||1 Camel Silver (4 mg) Pack|Yes|No||CT004474|Martini Touristic |Constanta|CTHRKBA93|158|CCC HRK CAMEL FAM Vara 2013|121|Horeca|0
0|CS3541572|2013-08-07 21:52:58|Dobrici|Paul||M|1980-07-23|Bucuresti|3|Dunarii|44|||||0744383796|||KTBL||1 Camel Black (6 mg) Pack|Yes|No||CT004474|Martini Touristic |Constanta|CTHRKBA90|158|CCC HRK CAMEL FAM Vara 2013|121|Horeca|0
0|CS3541573|2013-08-07 21:53:06|Grigorescu|Alexandru||M|1989-05-14|Bacau|BACIOIU|Ciprian porumbescu|67|||||0767456321|||LSRD||1 Camel Filters (10mg) Pack|Yes|Yes||CT004474|Martini Touristic |Constanta|CTHRKBA27|158|CCC HRK CAMEL FAM Vara 2013|121|Horeca|0
0|CS3541580|2013-08-07 21:54:53|Popovici|Ionela||F|1990-07-04|Constanta|CONSTANTA|Petru vulca|42|||||0745773426||Cr3atza1@yahoo.com|CAWH||1 Camel White (1 mg) Pack|Yes|No||CT004474|Martini Touristic |Constanta|CTHRKBA92|158|CCC HRK CAMEL FAM Vara 2013|121|Horeca|0
0|CS3541582|2013-08-07 21:55:13|Diaconu|Liviu||M|1979-03-24|Constanta|MANGALIA|Lalelelor|7a|||||0723768426|||LSRD||1 Camel Filters (10mg) Pack|Yes|No||CT004474|Martini Touristic |Constanta|CTHRKBA90|158|CCC HRK CAMEL FAM Vara 2013|121|Horeca|0
0|CS3541583|2013-08-07 21:56:21|Elisei|Andrei||M|1989-08-22|Constanta|MANGALIA|1 decembrie 1918|1|14|A|P|1|0748807534||Eliseiandreicosmin@yahoo.com|CAFI||1 Camel Filters (10mg) Pack|Yes|Yes||CT004474|Martini Touristic |Constanta|CTHRKBA93|158|CCC HRK CAMEL FAM Vara 2013|121|Horeca|0
0|CS3541586|2013-08-07 21:57:07|Marinciu|Loredana||F|1988-04-20|Bucuresti|SECTOR 5|13septembrie|23|||||0767231654||Loredanamarinciu04@yahoo.com|DUNFCBB||1 Camel White (1 mg) Pack|Yes|Yes||CT004474|Martini Touristic |Constanta|CTHRKBA27|158|CCC HRK CAMEL FAM Vara 2013|121|Horeca|0
0|CS3541594|2013-08-07 22:00:53|Vermeulen|Patric||M|1974-11-09|Bucuresti|SECTOR 4|Gradistea|11|B3|1|1|6|0722525509||Pvalex74@gmail.com|KTSV||1 Camel White (1 mg) Pack|Yes|Yes||CT004474|Martini Touristic |Constanta|CTHRKBA92|158|CCC HRK CAMEL FAM Vara 2013|121|Horeca|0
0|CS3541598|2013-08-07 22:03:05|Cosareanu|Nadin||M|1980-06-16|Constanta|CONSTANTA|Decebal|84|D3|D|5|6|0755940959|||DAVGL||1 Camel Blue (6 mg) Pack|Yes|No||CT004474|Martini Touristic |Constanta|CTHRKBA93|158|CCC HRK CAMEL FAM Vara 2013|121|Horeca|0
0|CS3541605|2013-08-07 22:06:18|Anghel|Valentin||M|1986-02-23|Constanta|MANGALIA|General vartejanu|2|O8|A|1|5|0754068071||Anghelvalentin1986@yahoo.com|DUNFCMBB||1 Camel Blue (6 mg) Pack|Yes|Yes||CT004474|Martini Touristic |Constanta|CTHRKBA27|158|CCC HRK CAMEL FAM Vara 2013|121|Horeca|0
0|CS3541628|2013-08-07 22:20:39|Mihnea|Teodor||M|1990-07-04|Bucuresti|SECTOR 3|Fabrica de gheata|24|||||0744350992|||MBRGLT||1 Camel Black (6 mg) Pack|Yes|No||CT004336|Opus Day SRL 2|Constanta|CTHRKBA92|158|CCC HRK CAMEL FAM Vara 2013|121|Horeca|0
0|CS3541631|2013-08-07 22:22:00|Ghimpau|Costin||M|1991-04-05|Covasna|RACOSUL DE SUS|Dealului|66|||||0743795369|||MBRFPH||1 Camel Blue (6 mg) Pack|Yes|No||CT004336|Opus Day SRL 2|Constanta|CTHRKBA90|158|CCC HRK CAMEL FAM Vara 2013|121|Horeca|0
0|CS3541636|2013-08-07 22:23:19|Mustafa|Ferda||F|1986-04-22|Bucuresti|SECTOR 3|Progresului|88|||||0754367321|||KTBL||1 Camel Blue (6 mg) Pack|Yes|Yes||CT004336|Opus Day SRL 2|Constanta|CTHRKBA27|158|CCC HRK CAMEL FAM Vara 2013|121|Horeca|0
0|CS3541637|2013-08-07 22:24:04|Enescu|Dorian||F|1983-04-05|Calarasi|CALARASII VECHI|Poporului|76|||||0743609227||Dorian.enescu@yahoo.com|MBRGLFT||1 Camel White (1 mg) Pack|Yes|No||CT004336|Opus Day SRL 2|Constanta|CTHRKBA92|158|CCC HRK CAMEL FAM Vara 2013|121|Horeca|0
0|CS3541638|2013-08-07 22:24:52|Fringu|Diana||F|1989-04-10|Bucuresti|6|Sibiu|123|C3|A|4|34|0765803695||Fringu.fiana@gmail.com|PMSV||1 Camel White (1 mg) Pack|Yes|Yes||CT004336|Opus Day SRL 2|Constanta|CTHRKBA90|158|CCC HRK CAMEL FAM Vara 2013|121|Horeca|0
0|CS3541644|2013-08-07 22:26:41|Nazare|Marian||M|1988-05-21|Constanta|CONSTANTA|Stefan cel mare|65|||||0743216788||Nazaremarian88@yahoo.com|DUNFCBB||1 Camel White (1 mg) Pack|Yes|Yes||CT004336|Opus Day SRL 2|Constanta|CTHRKBA27|158|CCC HRK CAMEL FAM Vara 2013|121|Horeca|0
0|CS3541646|2013-08-07 22:27:33|Jecu|Nisa||F|1985-12-06|Bucuresti|SECTOR 1|Nicolae Titulescu|10|20|C|7|144|0744496732||J_nissa00@yahoo.com|DAVGLS||1 Camel Black (6 mg) Pack|Yes|Yes||CT004336|Opus Day SRL 2|Constanta|CTHRKBA93|158|CCC HRK CAMEL FAM Vara 2013|121|Horeca|0
0|CS3541649|2013-08-07 22:29:47|Litea|Andreea||F|1981-03-26|Calarasi|CALARASI|Fazanului|58|||||0725498067||Liteaandreea@yahoo.com|DUNFCMBR||1 Camel Filters (10mg) Pack|Yes|No||CT004336|Opus Day SRL 2|Constanta|CTHRKBA93|158|CCC HRK CAMEL FAM Vara 2013|121|Horeca|0
0|CS3541654|2013-08-07 22:34:47|Barbieriu|Florin||M|1994-04-13|Brasov|BRASOV|Timis triaj|22|||0|0|0745354869|||CABK||1 Camel Black (6 mg) Pack|Yes|Yes||CT004336|Opus Day SRL 2|Constanta|CTHRKBA90|158|CCC HRK CAMEL FAM Vara 2013|121|Horeca|0
0|CS3541660|2013-08-07 22:42:26|Popescu|Iulia||F|1991-07-24|Bucuresti|SECTOR 4|Baba novac|16|||||0737215433||G3liv3r_m3@yahoo.com|LSBL||1 Camel Blue (6 mg) Pack|Yes|Yes||CT004336|Opus Day SRL 2|Constanta|CTHRKBA92|158|CCC HRK CAMEL FAM Vara 2013|121|Horeca|0
0|CS3541661|2013-08-07 22:42:56|Harnic|Ana||F|1988-08-23|Vaslui|VASLUI|Lanurilor|7|||||0731587998||Harnic_ana@yahoo.com|LSRD||1 Camel Filters (10mg) Pack|Yes|No||CT004336|Opus Day SRL 2|Constanta|CTHRKBA93|158|CCC HRK CAMEL FAM Vara 2013|121|Horeca|0
0|CS3541662|2013-08-07 22:42:57|Bugescu|Adelina||M|1986-02-08|Harghita|BAILE TUSNAD|Fabricii|46|||||0731768352||Bugescu_adelina@yahoo.com|LSRD||1 Camel Filters (10mg) Pack|Yes|Yes||CT004336|Opus Day SRL 2|Constanta|CTHRKBA90|158|CCC HRK CAMEL FAM Vara 2013|121|Horeca|0
0|CS3541663|2013-08-07 22:43:00|Stircu|George||M|1983-04-16|Arges|ARGESELU|Crangari|56|||||0743215689||Stircugeorge@yahoo.com|LSRD||1 Camel Filters (10mg) Pack|Yes|Yes||CT004336|Opus Day SRL 2|Constanta|CTHRKBA27|158|CCC HRK CAMEL FAM Vara 2013|121|Horeca|0
0|CS3541665|2013-08-07 22:46:20|Musat|Dan||M|1989-05-01|Bucuresti|SECTOR 5|Th burada|54|||||0746709883||Musat009@yahoo.com|KTSV||1 Camel Silver (4 mg) Pack|Yes|Yes||CT004336|Opus Day SRL 2|Constanta|CTHRKBA92|158|CCC HRK CAMEL FAM Vara 2013|121|Horeca|0
0|CS3541668|2013-08-07 22:47:23|Oancea|Daniel||M|1980-01-23|Bistrita Nasaud|BISTRITA|Macului|5|||||0753709548||Oanceadaniel58@yahoo.com|MBRFPEX||1 Camel Silver (4 mg) Pack|Yes|No||CT004336|Opus Day SRL 2|Constanta|CTHRKBA93|158|CCC HRK CAMEL FAM Vara 2013|121|Horeca|0
0|CS3541672|2013-08-07 22:50:16|Minea|Corina||F|1978-09-10|Hunedoara|HUNEDOARA|Alexandru Lapusneanu|4|||||0766487597|||ROTH||1 Camel Filters (10mg) Pack|Yes|No||CT004336|Opus Day SRL 2|Constanta|CTHRKBA93|158|CCC HRK CAMEL FAM Vara 2013|121|Horeca|0
0|CS3541684|2013-08-07 23:08:37|Pavel|Costin||M|1986-10-02|Constanta|CONSTANTA|B.P. Hasdeu|74|||||0766756000||Pavelcostin02@yahoo.com|DUNFCMBB||1 Camel Black (6 mg) Pack|Yes|No||CT004485|Iuli\'s House|Constanta|CTHRKBA93|158|CCC HRK CAMEL FAM Vara 2013|121|Horeca|0
0|CS3541686|2013-08-07 23:09:15|Grigore|Daniel||M|1983-05-21|Bucuresti|SECTOR 5|Vasile Alecsandri|32|||||0745321178|||CASV||1 Camel Silver (4 mg) Pack|Yes|Yes||CT004485|Iuli\'s House|Constanta|CTHRKBA27|158|CCC HRK CAMEL FAM Vara 2013|121|Horeca|0
0|CS3541700|2013-08-07 23:17:34|Serghei|Anda||F|1981-03-10|Tulcea|TULCEA|Garii|7|G3|A|3|18|0740239008||Anda_diaconu2000@yahoo.com|CABK||1 Camel Black (6 mg) Pack|Yes|Yes||CT004485|Iuli\'s House|Constanta|CTHRKBA93|158|CCC HRK CAMEL FAM Vara 2013|121|Horeca|0
0|CS3541703|2013-08-07 23:18:51|Meder|Iuliana||F|1990-09-01|Bucuresti|Bucuresti|Plopilor|22|||||0766509983|||KTBL||1 Camel Blue (6 mg) Pack|Yes|No||CT004485|Iuli\'s House|Constanta|CTHRKBA92|158|CCC HRK CAMEL FAM Vara 2013|121|Horeca|0
0|CS3541707|2013-08-07 23:21:59|Diacu|Adrian||M|1987-07-29|Tulcea|TULCEA|Socului|4|2|A|3|12|0742654950||Tl_29_adi@yahoo.com|PMBL||1 Camel Blue (6 mg) Pack|Yes|Yes||CT004485|Iuli\'s House|Constanta|CTHRKBA93|158|CCC HRK CAMEL FAM Vara 2013|121|Horeca|0
0|CS3541709|2013-08-07 23:22:53|Florea|Dorian||M|1986-10-27|Bucuresti|2|Cantonului|9|||||0753638954|||DUNFCBB||1 Camel White (1 mg) Pack|Yes|No||CT004485|Iuli\'s House|Constanta|CTHRKBA90|158|CCC HRK CAMEL FAM Vara 2013|121|Horeca|0
0|CS3541711|2013-08-07 23:25:24|Ion|Alexandru||M|1993-08-27|Constanta|MANGALIA|Rozelor|14|||0|0|0740640756||Ion.alex155@gmail.com|CABK||1 Camel Black (6 mg) Pack|Yes|Yes||CT004485|Iuli\'s House|Constanta|CTHRKBA93|158|CCC HRK CAMEL FAM Vara 2013|121|Horeca|0
0|CS3541713|2013-08-07 23:36:45|Teodor|Mariana||F|1990-06-04|Buzau|BUZAU|Liliacului|12|||||0721409882|||KTBL||1 Camel Blue (6 mg) Pack|Yes|No||CT004485|Iuli\'s House|Constanta|CTHRKBA92|158|CCC HRK CAMEL FAM Vara 2013|121|Horeca|0
0|CS3541714|2013-08-07 23:38:25|Covaci|Adriana||F|1988-03-03|Brasov|BRASOV|Rozelor|34|||||0732576376||Covaci.adriana03@yahoo.com|DAVGLS||1 Camel Black (6 mg) Pack|Yes|Yes||CT004485|Iuli\'s House|Constanta|CTHRKBA90|158|CCC HRK CAMEL FAM Vara 2013|121|Horeca|0
0|CS3541715|2013-08-07 23:39:09|Gheorghe|Valentin||M|1986-01-08|Sibiu|SIBIU|Selarilor|2|||0|0|0742839529|||CASV||1 Camel Silver (4 mg) Pack|Yes|Yes||CT004485|Iuli\'s House|Constanta|CTHRKBA27|158|CCC HRK CAMEL FAM Vara 2013|121|Horeca|0
0|CS3541733|2013-08-08 00:01:24|Jianu|Corina||F|1978-07-16|Gorj|COJANI|Duleni|43|||||0766973653|||LSRD||1 Camel Filters (10mg) Pack|Yes|Yes||CT004485|Iuli\'s House|Constanta|CTHRKBA90|158|CCC HRK CAMEL FAM Vara 2013|121|Horeca|0
0|CS3541734|2013-08-08 00:01:35|Grosu|Ionut||M|1984-10-26|Constanta|CUMPANA|Soseaua Constantei|104|H2|A|2|7|0747060663||grosu.ionut84@yahoo.com|PMECBL||1 Camel Black (6 mg) Pack|Yes|Yes||CT004485|Iuli\'s House|Constanta|CTHRKBA27|158|CCC HRK CAMEL FAM Vara 2013|121|Horeca|0
0|CS3541735|2013-08-08 00:02:38|Fandea|Maria||F|1993-06-11|Brasov|BRAN|Bradului|5|||||0722623129||Fandea_maria_6@yahoo.ro|MBRGLFT||1 Camel White (1 mg) Pack|Yes|No||CT004485|Iuli\'s House|Constanta|CTHRKBA93|158|CCC HRK CAMEL FAM Vara 2013|121|Horeca|0
0|CS3541737|2013-08-08 00:09:55|Maltezeanu|Adriana||M|1988-04-15|Constanta|CONSTANTA|Dezrobirii|136|ID1|A|1||0721364454||Midnight_pumish3r@yahoo.com|CAWH||1 Camel White (1 mg) Pack|Yes|Yes||CT004485|Iuli\'s House|Constanta|CTHRKBA92|158|CCC HRK CAMEL FAM Vara 2013|121|Horeca|0
0|CS3541738|2013-08-08 00:12:21|Sarbu|Adrian NIcolae||M|1986-07-25|Constanta|CONSTANTA|Dezrobirii|153|ID3|D|2|69|0723978403||Sarbu_adrian26@yahoo.com|KTBL||1 Camel Black (6 mg) Pack|Yes|Yes||CT004485|Iuli\'s House|Constanta|CTHRKBA27|158|CCC HRK CAMEL FAM Vara 2013|121|Horeca|0
0|CS3541739|2013-08-08 00:15:36|Musa|Alexandru||M|1988-06-23|Constanta|CONSTANTA|Dumitru marinescu|15|||||0723616783||Sharp_alx@yahoo.com|CABL||1 Camel Blue (6 mg) Pack|Yes|Yes||CT004485|Iuli\'s House|Constanta|CTHRKBA90|158|CCC HRK CAMEL FAM Vara 2013|121|Horeca|0
0|CS3544453|2013-08-08 19:06:02|Brindusi|Magda||F|1980-03-14|Bucuresti|6|Iuliu maniu|158a|||||0723279714||Magda_brindusi@yahoo.com|KTH||1 Camel Filters (10mg) Pack|Yes|Yes||CT000505|LA FRONTIERA|Constanta|CTHRKBA90|158|CCC HRK CAMEL FAM Vara 2013|121|Horeca|0
0|CS3544456|2013-08-08 19:06:14|Tocila|Vlad||M|1984-02-17|Bacau|BACAU|Energie|57|||||0743157005|||DUNFCMBB||1 Camel Blue (6 mg) Pack|Yes|Yes||CT000505|LA FRONTIERA|Constanta|CTHRKBA92|158|CCC HRK CAMEL FAM Vara 2013|121|Horeca|0
0|CS3544457|2013-08-08 19:06:21|Popovici|Paul||M|1994-10-03|Bistrita Nasaud|BISTRITA|Vasile petri|26|||||0748922919||Paul10p@yahoo.co.uk|LSBL||1 Camel Black (6 mg) Pack|Yes|Yes||CTR01515|General Machine Bussines Division|Constanta|CTHRKBA27|158|CCC HRK CAMEL FAM Vara 2013|121|Horeca|0
0|CS3544475|2013-08-08 19:07:50|Iepure|Simina||F|1989-10-06|Cluj|CLUJ NAPOCA|Primaverii|9|||||0748817137||Siminel_iepure@yahoo.com|DUNFCMBB||1 Camel Black (6 mg) Pack|Yes|Yes||CT000505|LA FRONTIERA|Constanta|CTHRKBA93|158|CCC HRK CAMEL FAM Vara 2013|121|Horeca|0
0|CS3544502|2013-08-08 19:11:08|Nicolescu|Dragos||M|1988-09-04|Bucuresti|SECTOR 3|Constantin brancusi|3|||||0771758185|||KTSV||1 Camel White (1 mg) Pack|Yes|Yes||CTR01515|General Machine Bussines Division|Constanta|CTHRKBA27|158|CCC HRK CAMEL FAM Vara 2013|121|Horeca|0
0|CS3544504|2013-08-08 19:11:14|Topolan|Mircea||M|1990-04-04|Bucuresti|Bucuresti|Dezrobirii|59|||||0732505578||Topola.v@yahoo.com|DUNFCBB||1 Camel White (1 mg) Pack|Yes|No||CT000505|LA FRONTIERA|Constanta|CTHRKBA92|158|CCC HRK CAMEL FAM Vara 2013|121|Horeca|0
0|CS3544505|2013-08-08 19:11:21|Preda|Sorin||M|1975-05-28|Brasov|BRASOV|Ion creanga|47|||||0732685475||Predasorin05@yahoo.com|CAFI||1 Camel Filters (10mg) Pack|Yes|No||CT000505|LA FRONTIERA|Constanta|CTHRKBA90|158|CCC HRK CAMEL FAM Vara 2013|121|Horeca|0
0|CS3544522|2013-08-08 19:12:47|Prisacar|Lucian||M|1976-01-10|Calarasi|CALARASI|Parang|5|C4|B|||0766599063||Pris_luci@yahoo.com|DAVCL||1 Camel Filters (10mg) Pack|Yes|No||CT000505|LA FRONTIERA|Constanta|CTHRKBA93|158|CCC HRK CAMEL FAM Vara 2013|121|Horeca|0
0|CS3544532|2013-08-08 19:14:07|Filimon|Grigore||M|1991-08-05|Constanta|MANGALIA|Pescarusiilor|32|||||0734789646|||KTSV||1 Camel White (1 mg) Pack|Yes|Yes||CT000505|LA FRONTIERA|Constanta|CTHRKBA90|158|CCC HRK CAMEL FAM Vara 2013|121|Horeca|0
0|CS3544536|2013-08-08 19:14:41|Tuluca|Ioan dan||M|1989-05-25|Constanta|CONSTANTA|Crinului|7b|||0|0|0746706320||Tuluca.dan@gmail.com|CABK||1 Camel Black (6 mg) Pack|Yes|Yes||CT000505|LA FRONTIERA|Constanta|CTHRKBA92|158|CCC HRK CAMEL FAM Vara 2013|121|Horeca|0
0|CS3544579|2013-08-08 19:18:00|Carson|Marian||M|1980-02-11|Vaslui|VASLUI|Mihail kogalniceanu|4a|||||0735478449|||MBRFPH||1 Camel Black (6 mg) Pack|Yes|No||CT000505|LA FRONTIERA|Constanta|CTHRKBA90|158|CCC HRK CAMEL FAM Vara 2013|121|Horeca|0
0|CS3544584|2013-08-08 19:18:24|Dobru|Otilia||F|1984-06-25|Galati|GALATI|Micro 15|25|||||0756945642||Dobruotyliya@gmail.com|WIBL||1 Camel Black (6 mg) Pack|Yes|No||CT000505|LA FRONTIERA|Constanta|CTHRKBA93|158|CCC HRK CAMEL FAM Vara 2013|121|Horeca|0
0|CS3544605|2013-08-08 19:20:18|Ene|Mircea||M|1989-04-01|Calarasi|CALARASI|Frunzelor|67|||||0723558726|||DUNFCSB||1 Camel Filters (10mg) Pack|Yes|No||CT000505|LA FRONTIERA|Constanta|CTHRKBA92|158|CCC HRK CAMEL FAM Vara 2013|121|Horeca|0
0|CS3544614|2013-08-08 19:20:58|Cristescu|Andrei||M|1987-05-22|Bucuresti|SECTOR 3|Constantin Brancusi|22|||||0743215643||Cristescuandrei@yahoo.com|DUNFCMBB||1 Camel Black (6 mg) Pack|Yes|Yes||CT000505|LA FRONTIERA|Constanta|CTHRKBA27|158|CCC HRK CAMEL FAM Vara 2013|121|Horeca|0
0|CS3544621|2013-08-08 19:21:30|Gudescu|Traian||M|1988-04-07|Iasi|IASI|Muzeului|59|||||0760695476||Gudescutraian07@yahoo.com|KTBL6||1 Camel Blue (6 mg) Pack|Yes|No||CT000505|LA FRONTIERA|Constanta|CTHRKBA93|158|CCC HRK CAMEL FAM Vara 2013|121|Horeca|0
0|CS3544641|2013-08-08 19:23:49|Tanase|Cristina||F|1990-02-23|Constanta|CUMPANA|Funzelor|62|0|0|0|0|0767558352||Cristinachirila90@yahoo.com|CAWH||1 Camel White (1 mg) Pack|Yes|Yes||CT000505|LA FRONTIERA|Constanta|CTHRKBA27|158|CCC HRK CAMEL FAM Vara 2013|121|Horeca|0
0|CS3544661|2013-08-08 19:25:43|Tanase|Florin||M|1986-05-22|Constanta|CUMPANA|Frunzelor|22a|||0|0|0767558350||meky_cretzu@yahoo.com|PMECBL||1 Camel Black (6 mg) Pack|Yes|Yes||CT000505|LA FRONTIERA|Constanta|CTHRKBA27|158|CCC HRK CAMEL FAM Vara 2013|121|Horeca|0
0|CS3544806|2013-08-08 19:40:12|Baciu|Dan||M|1975-02-20|Bucuresti|SECTOR 5|Gh. Popescu|11|||||0740077209||Arhdanbaciu@gmail.com|CAFI||1 Camel Filters (10mg) Pack|Yes|Yes||CT004474|Martini Touristic |Constanta|CTHRKBA93|158|CCC HRK CAMEL FAM Vara 2013|121|Horeca|0
0|CS3544822|2013-08-08 19:41:32|Farkas|Melinda||F|1984-12-27|Cluj|CLUJ NAPOCA|Ecaterina Varga|4|0|0|0|0|0745874014||meluindafarkas05@yahoo.com|CAWH||1 Camel White (1 mg) Pack|Yes|Yes||CT004474|Martini Touristic |Constanta|CTHRKBA27|158|CCC HRK CAMEL FAM Vara 2013|121|Horeca|0
0|CS3544825|2013-08-08 19:41:37|Deacu|Alexandru||M|1990-01-17|Constanta|MANGALIA|Negru voda|2|||0|0|0722585956|||CABK||1 Camel Black (6 mg) Pack|Yes|Yes||CT004474|Martini Touristic |Constanta|CTHRKBA90|158|CCC HRK CAMEL FAM Vara 2013|121|Horeca|0
0|CS3544839|2013-08-08 19:43:10|Lauber|Laura||F|1983-08-06|Maramures|BAIA MARE|Dragos Voda|2a|||0|38|0744187838||villi_chilli@yahoo.com|DUNFCBB||1 Camel White (1 mg) Pack|Yes|Yes||CT004474|Martini Touristic |Constanta|CTHRKBA27|158|CCC HRK CAMEL FAM Vara 2013|121|Horeca|0
0|CS3544842|2013-08-08 19:43:28|Potrocea|Andreea||F|1990-04-01|Constanta|CONSTANTA|Muresului|43|||||0756880354||Andreea_potrocea@yahoo.com|DAVGLS||1 Camel Black (6 mg) Pack|Yes|No||CT004474|Martini Touristic |Constanta|CTHRKBA92|158|CCC HRK CAMEL FAM Vara 2013|121|Horeca|0
0|CS3544846|2013-08-08 19:43:51|Firtulescu|Mihai||M|1988-06-27|Constanta|CONSTANTA|Pacii|50|||||0733839060||Firtulescumihai5@yahoo.com|MBRGLT||1 Camel Black (6 mg) Pack|Yes|No||CT004474|Martini Touristic |Constanta|CTHRKBA93|158|CCC HRK CAMEL FAM Vara 2013|121|Horeca|0
0|CS3544859|2013-08-08 19:44:51|Culeru|Traian||M|1980-05-23|Bucuresti|3|Aleea frunzelor|21|||||0743686478|||ROTH||1 Camel Filters (10mg) Pack|Yes|Yes||CT004474|Martini Touristic |Constanta|CTHRKBA90|158|CCC HRK CAMEL FAM Vara 2013|121|Horeca|0
0|CS3544903|2013-08-08 19:50:08|Tescuteanu|Florin||M|1989-06-07|Constanta|CUMPANA|Lebedelor|8|||||0743858258|||KTBL||1 Camel Blue (6 mg) Pack|Yes|No||CT004474|Martini Touristic |Constanta|CTHRKBA90|158|CCC HRK CAMEL FAM Vara 2013|121|Horeca|0
0|CS3544909|2013-08-08 19:50:38|Enache|Adriana||F|1990-02-12|Bucuresti|SECTOR 1|Mihai Viteazul|4|S4|B2|3|22|0725880458||Enacheadriana_12_02@yahoo.com|MBRFP||1 Camel Black (6 mg) Pack|Yes|No||CT004474|Martini Touristic |Constanta|CTHRKBA93|158|CCC HRK CAMEL FAM Vara 2013|121|Horeca|0
0|CS3544910|2013-08-08 19:50:41|Barbu|Nicoleta||M|1986-01-01|Cluj|CLUJ NAPOCA|Smardan|44|||||0744320991||Barbunicoleta@yahoo.com|PARNBH||1 Camel Filters (10mg) Pack|Yes|Yes||CT004474|Martini Touristic |Constanta|CTHRKBA92|158|CCC HRK CAMEL FAM Vara 2013|121|Horeca|0
0|CS3544933|2013-08-08 19:52:45|Nicolaev|Marius||M|1986-03-22|Constanta|CONSTANTA|Traian|56|||||0721346864|||KTBL||1 Camel Black (6 mg) Pack|Yes|Yes||CT004474|Martini Touristic |Constanta|CTHRKBA27|158|CCC HRK CAMEL FAM Vara 2013|121|Horeca|0
0|CS3544980|2013-08-08 19:58:21|Solomon|Andreea||F|1990-03-06|Constanta|CONSTANTA|Constantei|106a|||0|0|0721346958||Eia90@yahoo.com|CAWH||1 Camel White (1 mg) Pack|Yes|Yes||CT004474|Martini Touristic |Constanta|CTHRKBA27|158|CCC HRK CAMEL FAM Vara 2013|121|Horeca|0
0|CS3545075|2013-08-08 20:14:05|Marinescu|Patricia||F|1982-03-16|Bucuresti|SECTOR 2|Batistei|3|Na|Na|0|0|0745076601||patriciamarinescu@yahoo.com|CAWH||1 Camel White (1 mg) Pack|Yes|Yes||CTR01515|General Machine Bussines Division|Constanta|CTHRKBA92|158|CCC HRK CAMEL FAM Vara 2013|121|Horeca|0
0|CS3545094|2013-08-08 20:15:59|Ichim|Mihai||M|1988-05-23|Bucuresti|SECTOR 4|Histriei|1|||0|0|0722755580|||CAFI||1 Camel Filters (10mg) Pack|Yes|Yes||CTR01515|General Machine Bussines Division|Constanta|CTHRKBA92|158|CCC HRK CAMEL FAM Vara 2013|121|Horeca|0
0|CS3545097|2013-08-08 20:16:27|Deacu|Dorin||M|1981-06-06|Cluj|CLUJ NAPOCA|Stufului|6|||||0733796469|||KTH||1 Camel Filters (10mg) Pack|Yes|Yes||CTR01515|General Machine Bussines Division|Constanta|CTHRKBA90|158|CCC HRK CAMEL FAM Vara 2013|121|Horeca|0
0|CS3545101|2013-08-08 20:17:20|Solomon|Diana||F|1993-12-10|Bucuresti|SECTOR 3|Alexandru Vlahuta|6|N46|A|2|10|0732060804||Diana5solomon@yahoo.com|MBRGLFT||1 Camel White (1 mg) Pack|Yes|Yes||CTR01515|General Machine Bussines Division|Constanta|CTHRKBA93|158|CCC HRK CAMEL FAM Vara 2013|121|Horeca|0
0|CS3545114|2013-08-08 20:19:31|Popescu|Marian||M|1986-05-26|Constanta|CONSTANTA|Zorilor|55|||||0745321675||Popescumarian@yahoo.com|CAFI||1 Camel Filters (10mg) Pack|Yes|Yes||CTR01515|General Machine Bussines Division|Constanta|CTHRKBA27|158|CCC HRK CAMEL FAM Vara 2013|121|Horeca|0
0|CS3545130|2013-08-08 20:21:22|Glodeanu|Vasile||M|1974-11-17|Bucuresti|6|Ilie popescu|92|||||0743796478|||KTBL||1 Camel Black (6 mg) Pack|Yes|No||CTR01515|General Machine Bussines Division|Constanta|CTHRKBA90|158|CCC HRK CAMEL FAM Vara 2013|121|Horeca|0
0|CS3545133|2013-08-08 20:21:37|Dinu|Floarea||F|1981-02-15|Constanta|CONSTANTA|General Manu|58|||||0754612055|||DUNFCMBB||1 Camel Black (6 mg) Pack|Yes|No||CTR01515|General Machine Bussines Division|Constanta|CTHRKBA93|158|CCC HRK CAMEL FAM Vara 2013|121|Horeca|0
0|CS3545141|2013-08-08 20:22:51|Neagu|Ion||M|1990-11-05|Brasov|BRASOV|Fluturelui|45|||||0721587624|||KTSV||1 Camel Silver (4 mg) Pack|Yes|No||CTR01515|General Machine Bussines Division|Constanta|CTHRKBA92|158|CCC HRK CAMEL FAM Vara 2013|121|Horeca|0
0|CS3545154|2013-08-08 20:24:53|Serban|Marius||M|1984-01-26|Bucuresti|SECTOR 3|Constantin Brancusi|35|||||0734216744||Marius0184@yahoo.com|CAWH||1 Camel White (1 mg) Pack|Yes|Yes||CTR01515|General Machine Bussines Division|Constanta|CTHRKBA27|158|CCC HRK CAMEL FAM Vara 2013|121|Horeca|0
0|CS3545165|2013-08-08 20:27:08|Saftu|Monica||F|1989-05-06|Braila|BRAILA|Fulgerului|87|||||0723500992||Monica.saftu@yahoo.com|MBRFP||1 Camel Black (6 mg) Pack|Yes|Yes||CTR01515|General Machine Bussines Division|Constanta|CTHRKBA92|158|CCC HRK CAMEL FAM Vara 2013|121|Horeca|0
0|CS3545173|2013-08-08 20:27:47|Jugaru|Ion||M|1988-08-16|Neamt|PIATRA SOIMULUI|Podetului|4|||||0733658880|||MBRGLT||1 Camel Black (6 mg) Pack|Yes|No||CTR01515|General Machine Bussines Division|Constanta|CTHRKBA93|158|CCC HRK CAMEL FAM Vara 2013|121|Horeca|0
0|CS3545185|2013-08-08 20:30:27|Deleanu|Ernest||M|1987-03-22|Arges|ARGESANI|Vedele|21|||||0754797368||Deleanu_ernest@yahoo.com|PARNBH||1 Camel Blue (6 mg) Pack|Yes|No||CTR01515|General Machine Bussines Division|Constanta|CTHRKBA90|158|CCC HRK CAMEL FAM Vara 2013|121|Horeca|0
0|CS3545188|2013-08-08 20:30:36|Benghiu|Alexandru||M|1987-10-27|Constanta|CONSTANTA|Hasdeu|34|||||0721766080|||DUNFCMBB||1 Camel Black (6 mg) Pack|Yes|Yes||CTR01515|General Machine Bussines Division|Constanta|CTHRKBA27|158|CCC HRK CAMEL FAM Vara 2013|121|Horeca|0
0|CS3545202|2013-08-08 20:33:49|Tataru|Andra||F|1991-10-17|Botosani|BOTOSANI|Plopilor|43|||||0747609804||Tataruandra1991@yahoo.com|DAVGLS||1 Camel Black (6 mg) Pack|Yes|No||CTR01515|General Machine Bussines Division|Constanta|CTHRKBA93|158|CCC HRK CAMEL FAM Vara 2013|121|Horeca|0
0|CS3545259|2013-08-08 20:41:40|Tatu|Cosmina||F|1990-05-06|Arad|ARAD|Cutezatorilor|45|||||0722350998||Tatu_cosmina@yahoo.com|PMECAFBL||1 Camel Black (6 mg) Pack|Yes|Yes||CTR01515|General Machine Bussines Division|Constanta|CTHRKBA92|158|CCC HRK CAMEL FAM Vara 2013|121|Horeca|0
0|CS3545304|2013-08-08 20:52:12|Bilba|Alina||F|1982-09-29|Constanta|MANGALIA|Soseaua mangaliei|123|||||0745788490||Bilba.alina29@yahoo.com|MBRRD||1 Camel Filters (10mg) Pack|Yes|Yes||CT004336|Opus Day SRL 2|Constanta|CTHRKBA90|158|CCC HRK CAMEL FAM Vara 2013|121|Horeca|0
0|CS3545324|2013-08-08 20:56:12|Vlad|Anca||F|1974-04-08|Galati|GALATI|Micro 4|3|G2||||0721276009||Vladanca@gmail.com|DAVGL||1 Camel Black (6 mg) Pack|Yes|No||CT004336|Opus Day SRL 2|Constanta|CTHRKBA93|158|CCC HRK CAMEL FAM Vara 2013|121|Horeca|0
0|CS3545335|2013-08-08 20:59:13|Coscovan|Iulian||M|1990-08-01|Bacau|Bacau|Florilor|24|||||0723409882|||CAWH||1 Camel Black (6 mg) Pack|Yes|No||CT004336|Opus Day SRL 2|Constanta|CTHRKBA92|158|CCC HRK CAMEL FAM Vara 2013|121|Horeca|0
0|CS3545336|2013-08-08 20:59:13|Dutu|Alexandra||F|1990-09-12|Constanta|MANGALIA|Sirenei|14|||0|0|0748471577||Divolytza_tzutza@yahoo.com|CABK||1 Camel Black (6 mg) Pack|Yes|Yes||CT004336|Opus Day SRL 2|Constanta|CTHRKBA93|158|CCC HRK CAMEL FAM Vara 2013|121|Horeca|0
0|CS3545340|2013-08-08 20:59:55|Giaca|Nicolae||M|1989-05-22|Bucuresti|SECTOR 4|Mihai Eminescu|23|||||0734215785||Giacanicolae@yahoo.com|DUNFCMBB||1 Camel Black (6 mg) Pack|Yes|Yes||CT004336|Opus Day SRL 2|Constanta|CTHRKBA27|158|CCC HRK CAMEL FAM Vara 2013|121|Horeca|0
0|CS3545346|2013-08-08 21:01:10|Barbieriu|Florin||M|1994-04-13|Brasov|BRASOV|Timis triaj|22|||0|0|0745354869|||CABK||1 Camel Black (6 mg) Pack|Yes|Yes||CT004336|Opus Day SRL 2|Constanta|CTHRKBA92|158|CCC HRK CAMEL FAM Vara 2013|121|Horeca|0
0|CS3545354|2013-08-08 21:02:36|Popa|Alexandru||M|1990-06-25|Calarasi|CALARASI|Soarelui|43|||||0766487489|||KTBLH||1 Camel Black (6 mg) Pack|Yes|No||CT004336|Opus Day SRL 2|Constanta|CTHRKBA90|158|CCC HRK CAMEL FAM Vara 2013|121|Horeca|0
0|CS3545356|2013-08-08 21:02:56|Hondrea|Aurel||M|1982-03-25|Buzau|BUZAU|Salcamilor|70|||||0760746376|||KTH||1 Camel Filters (10mg) Pack|Yes|No||CT004336|Opus Day SRL 2|Constanta|CTHRKBA93|158|CCC HRK CAMEL FAM Vara 2013|121|Horeca|0
0|CS3545364|2013-08-08 21:03:47|Miu|Valentina||F|1991-04-04|Dolj|Dolj|Strajerului|142|||||0723445092||Miu.valentina@yahoo.com|PHMQBL||1 Camel Black (6 mg) Pack|Yes|No||CT004336|Opus Day SRL 2|Constanta|CTHRKBA92|158|CCC HRK CAMEL FAM Vara 2013|121|Horeca|0
0|CS3545366|2013-08-08 21:04:14|Petre|Niolae||M|1988-05-11|Constanta|CONSTANTA|Zorilor|34|||||0743168954||Nicu88@yahoo.com|CABK||1 Camel Black (6 mg) Pack|Yes|Yes||CT004336|Opus Day SRL 2|Constanta|CTHRKBA27|158|CCC HRK CAMEL FAM Vara 2013|121|Horeca|0
0|CS3545379|2013-08-08 21:06:57|Gurahan|Dorina||F|1993-07-18|Constanta|CONACU|Lanului|42|||||0761547688||Dory_gurahan@yahoo.com|MBRGLT||1 Camel Black (6 mg) Pack|Yes|No||CT004336|Opus Day SRL 2|Constanta|CTHRKBA93|158|CCC HRK CAMEL FAM Vara 2013|121|Horeca|0
0|CS3545382|2013-08-08 21:07:41|Cotac|Oana||F|1988-09-17|Constanta|CONSTANTA|Alexandrucel Bun|45|||||0741789531||Oanacotac09@yahoo.com|KTSV||1 Camel Silver (4 mg) Pack|Yes|Yes||CT004336|Opus Day SRL 2|Constanta|CTHRKBA27|158|CCC HRK CAMEL FAM Vara 2013|121|Horeca|0
0|CS3545389|2013-08-08 21:10:17|Vizeta|Albert||M|1975-08-20|Hunedoara|HUNEDOARA|Digului|23|||||0765853252|||DUNFCBB||1 Camel Silver (4 mg) Pack|Yes|No||CT004336|Opus Day SRL 2|Constanta|CTHRKBA90|158|CCC HRK CAMEL FAM Vara 2013|121|Horeca|0
0|CS3545413|2013-08-08 21:17:03|Florescu|Stela||F|1989-04-04|Calarasi|CALARASI|Rozerol|33|||||0743609882|||PARAB||1 Camel Black (6 mg) Pack|Yes|No||CT004336|Opus Day SRL 2|Constanta|CTHRKBA92|158|CCC HRK CAMEL FAM Vara 2013|121|Horeca|0
0|CS3545475|2013-08-08 21:31:59|Calescu|Daniela||F|1962-07-26|Prahova|PLOIESTI|Cristianul|18|150j|||6|0722531188|||WIBL||1 Camel Blue (6 mg) Pack|Yes|Yes||CT000505|LA FRONTIERA|Constanta|CTHRKBA90|158|CCC HRK CAMEL FAM Vara 2013|121|Horeca|0
0|CS3545477|2013-08-08 21:32:58|Baghiu|Stefan||M|1993-12-21|Neamt|PIATRA NEAMT|1 decembrie|2|||||0729569660||Stefan.baghiu@yahoo.com|CABL||1 Camel Blue (6 mg) Pack|Yes|Yes||CT000505|LA FRONTIERA|Constanta|CTHRKBA92|158|CCC HRK CAMEL FAM Vara 2013|121|Horeca|0
0|CS3545483|2013-08-08 21:33:50|Fratila|Stefan||M|1995-05-22|Cluj|CLUJ NAPOCA|Horea|2||||14|0742027717||Stefanfratila95@gmail.com|LSRD||1 Camel Filters (10mg) Pack|Yes|Yes||CT000505|LA FRONTIERA|Constanta|CTHRKBA93|158|CCC HRK CAMEL FAM Vara 2013|121|Horeca|0
0|CS3545489|2013-08-08 21:35:37|Boscaneanu|Veronica||F|1974-02-25|Constanta|CONSTANTA|Ion tautu|11|||0|0|0721818891||gran_canaria2000@yahho.com|CASV||1 Camel Silver (4 mg) Pack|Yes|Yes||CT000505|LA FRONTIERA|Constanta|CTHRKBA92|158|CCC HRK CAMEL FAM Vara 2013|121|Horeca|0
0|CS3545490|2013-08-08 21:35:40|Vaduva|Elena||F|1987-03-28|Arges|PITESTI|Republicii|14-16|||||0742156438||Elenush87@gmail.com|KTBL||1 Camel Black (6 mg) Pack|Yes|Yes||CT000505|LA FRONTIERA|Constanta|CTHRKBA27|158|CCC HRK CAMEL FAM Vara 2013|121|Horeca|0
0|CS3545495|2013-08-08 21:36:54|Tarca|Ionel||M|1982-09-02|Cluj|CLUJ NAPOCA|Al. Ioan Cuza|5|||||0768564400|||KTSV||1 Camel Silver (4 mg) Pack|Yes|No||CT000505|LA FRONTIERA|Constanta|CTHRKBA93|158|CCC HRK CAMEL FAM Vara 2013|121|Horeca|0
0|CS3545497|2013-08-08 21:37:03|Druga|Corina||F|1988-11-17|Constanta|MANGALIA|Cocorului|24|||||0744379734|||KTSV||1 Camel Silver (4 mg) Pack|Yes|No||CT000505|LA FRONTIERA|Constanta|CTHRKBA90|158|CCC HRK CAMEL FAM Vara 2013|121|Horeca|0
0|CS3545509|2013-08-08 21:39:42|Mihaila|Lucian||M|1989-02-28|Calarasi|CALARASI|Gh duca|15|||||0723440982|||MBRFPH||1 Camel Black (6 mg) Pack|Yes|No||CT000505|LA FRONTIERA|Constanta|CTHRKBA92|158|CCC HRK CAMEL FAM Vara 2013|121|Horeca|0
0|CS3545520|2013-08-08 21:41:45|Zavoianu|Andrei||M|1981-06-28|Galati|GALATI|Pacii|37|||||0722706367|||KTBLH||1 Camel Black (6 mg) Pack|Yes|Yes||CT000505|LA FRONTIERA|Constanta|CTHRKBA90|158|CCC HRK CAMEL FAM Vara 2013|121|Horeca|0
0|CS3545522|2013-08-08 21:42:07|Giurgea|Marioara||F|1981-08-27|Brasov|BRASOV|Steagului|60|||||0731436600|||CABK||1 Camel Black (6 mg) Pack|Yes|No||CT000505|LA FRONTIERA|Constanta|CTHRKBA93|158|CCC HRK CAMEL FAM Vara 2013|121|Horeca|0
0|CS3545523|2013-08-08 21:42:13|Ionescu|Andrei-Milut||M|1995-06-21|Dolj|CRAIOVA|Calea bucuresti|52|||||0766737845||Andrei.ashu@yahoo.com|LSRD||1 Camel Filters (10mg) Pack|Yes|Yes||CT000505|LA FRONTIERA|Constanta|CTHRKBA27|158|CCC HRK CAMEL FAM Vara 2013|121|Horeca|0
0|CS3545524|2013-08-08 21:42:29|Leciu|Madalina||F|1986-01-01|Constanta|HARSOVA|Dreptatii|44|||||0721213349||Elenyka.22@yahoo.com|DUNFCBB||1 Camel White (1 mg) Pack|Yes|No||CT000505|LA FRONTIERA|Constanta|CTHRKBA92|158|CCC HRK CAMEL FAM Vara 2013|121|Horeca|0
0|CS3545535|2013-08-08 21:44:58|Voicu|Madalin||M|1987-04-25|Bucuresti|SECTOR 3|13septembrie|21|||||0743216753|||DUNFCMBB||1 Camel Black (6 mg) Pack|Yes|Yes||CT000505|LA FRONTIERA|Constanta|CTHRKBA27|158|CCC HRK CAMEL FAM Vara 2013|121|Horeca|0
0|CS3545537|2013-08-08 21:45:43|Darden|Paul||M|1980-05-16|Constanta|MANGALIA|1 decembrie 1918|6|||||0751795709||Dardenpaulo@yahoo.com|DAVCL||1 Camel Filters (10mg) Pack|Yes|No||CT000505|LA FRONTIERA|Constanta|CTHRKBA93|158|CCC HRK CAMEL FAM Vara 2013|121|Horeca|0
0|CS3545540|2013-08-08 21:46:44|Popescu|Laurentiu||M|1990-04-04|Dambovita|DAMBOVICIOARA|Copiilor|33|||||0761309883|||DAVIDOR||1 Camel Blue (6 mg) Pack|Yes|Yes||CT000505|LA FRONTIERA|Constanta|CTHRKBA92|158|CCC HRK CAMEL FAM Vara 2013|121|Horeca|0
0|CS3545546|2013-08-08 21:47:35|Olteanu|Viviana||F|1987-11-29|Arges|PITESTI|Republicii|34|||||0767450235|||MBRFPEX||1 Camel White (1 mg) Pack|Yes|Yes||CT000505|LA FRONTIERA|Constanta|CTHRKBA27|158|CCC HRK CAMEL FAM Vara 2013|121|Horeca|0
0|CS3545547|2013-08-08 21:47:40|Crainic|Violeta||F|1991-04-04|Brasov|BRASOV|Cetatoiu|59|||||0764793693||Crainic_violeta@gmail.com|DUNFCBB||1 Camel White (1 mg) Pack|Yes|No||CT000505|LA FRONTIERA|Constanta|CTHRKBA90|158|CCC HRK CAMEL FAM Vara 2013|121|Horeca|0
0|CS3545600|2013-08-08 22:03:41|David|Stefan||M|1989-09-15|Vrancea|FOCSANI|Brailei|36|36|2|2|4|0743007763||iiller.stefan@gmail.com|DUNFCBB||1 Camel Black (6 mg) Pack|Yes|Yes||CT004485|Iuli\'s House|Constanta|CTHRKBA90|158|CCC HRK CAMEL FAM Vara 2013|121|Horeca|0
0|CS3545605|2013-08-08 22:05:13|Ilie|Ilie||M|1955-06-26|Constanta|VAMA VECHE|Mihail kogalniceanu|5|||||0722966568|||KTH||1 Camel Filters (10mg) Pack|Yes|Yes||CT004485|Iuli\'s House|Constanta|CTHRKBA27|158|CCC HRK CAMEL FAM Vara 2013|121|Horeca|0
0|CS3545606|2013-08-08 22:05:15|Cozma|Andreea||F|1994-09-14|Brasov|BRASOV|Codrii cosminului|145|||||0755825751||Xhaz_lulu68@yahoo.com|PMECBK||1 Camel Filters (10mg) Pack|Yes|Yes||CT004485|Iuli\'s House|Constanta|CTHRKBA92|158|CCC HRK CAMEL FAM Vara 2013|121|Horeca|0
0|CS3545608|2013-08-08 22:05:17|Dobre|Marius||M|1994-03-12|Bucuresti|SECTOR 5|Petre Ispirescu|27|M|B|4|16|0766691466||Mariusdobre@aol.com|MBRFPEX||1 Camel White (1 mg) Pack|Yes|Yes||CT004485|Iuli\'s House|Constanta|CTHRKBA93|158|CCC HRK CAMEL FAM Vara 2013|121|Horeca|0
0|CS3545616|2013-08-08 22:07:41|Marinescu|Dan||M|1991-01-20|Vrancea|FOCSANI|Magazia garii|13a|||||0745143484||Dandanutzu@yahoo.com|DUNFCMBB||1 Camel Black (6 mg) Pack|Yes|Yes||CT004485|Iuli\'s House|Constanta|CTHRKBA90|158|CCC HRK CAMEL FAM Vara 2013|121|Horeca|0
0|CS3545618|2013-08-08 22:08:18|TamPa|Dragos||M|1992-04-02|Brasov|BRASOV|Garii|30|||||0734847291||Tampa.dragos@yahoo.com|MBRGLT||1 Camel Black (6 mg) Pack|Yes|Yes||CT004485|Iuli\'s House|Constanta|CTHRKBA92|158|CCC HRK CAMEL FAM Vara 2013|121|Horeca|0
0|CS3545628|2013-08-08 22:11:39|Streza|Cristian||M|1974-12-04|Bucuresti|SECTOR 6|Aleea istru|3|||||0733934828|||DUNFCMBB||1 Camel Black (6 mg) Pack|Yes|Yes||CT004485|Iuli\'s House|Constanta|CTHRKBA27|158|CCC HRK CAMEL FAM Vara 2013|121|Horeca|0
0|CS3545630|2013-08-08 22:12:52|Prunes|Ionut Cristian||M|1988-07-08|Bucuresti|SECTOR 2|Stanescu Gheorghe|3|212|B|7|73|0729435906||Anon_artists@yahoo.com|PMBL||1 Camel Blue (6 mg) Pack|Yes|Yes||CT004485|Iuli\'s House|Constanta|CTHRKBA93|158|CCC HRK CAMEL FAM Vara 2013|121|Horeca|0
0|CS3545636|2013-08-08 22:16:37|Draistaru|Vlad||M|1991-09-11|Iasi|IASI|Nicolina|57|||||0743226651||Draistaru@gmail.com|DUNFCMBR||1 Camel Filters (10mg) Pack|Yes|Yes||CT004485|Iuli\'s House|Constanta|CTHRKBA92|158|CCC HRK CAMEL FAM Vara 2013|121|Horeca|0
0|CS3545641|2013-08-08 22:20:20|Velichea|Alexandra||F|1981-06-18|Bucuresti|6|Calarasi|38|||||0743796336|||CAFI||1 Camel Filters (10mg) Pack|Yes|No||CT004485|Iuli\'s House|Constanta|CTHRKBA90|158|CCC HRK CAMEL FAM Vara 2013|121|Horeca|0
0|CS3545643|2013-08-08 22:21:43|Maniu|Marian||M|1988-04-01|Gorj|GORNACEL|Poetilor|33|||||0766705442|||CABL||1 Camel Blue (6 mg) Pack|Yes|No||CT004485|Iuli\'s House|Constanta|CTHRKBA92|158|CCC HRK CAMEL FAM Vara 2013|121|Horeca|0
0|CS3545657|2013-08-08 22:25:36|Maciuca|Andrei||M|1974-08-15|Sibiu|MEDIAS|Feleac|6|||0|0|0743641464|||CABK||1 Camel Black (6 mg) Pack|Yes|Yes||CT004485|Iuli\'s House|Constanta|CTHRKBA90|158|CCC HRK CAMEL FAM Vara 2013|121|Horeca|0
0|CS3545659|2013-08-08 22:25:51|Macarie|Costel||M|1984-08-20|Bistrita Nasaud|BISTRITA|Principala|49|||||0732678143|||KTBL||1 Camel Black (6 mg) Pack|Yes|Yes||CT004485|Iuli\'s House|Constanta|CTHRKBA27|158|CCC HRK CAMEL FAM Vara 2013|121|Horeca|0
0|CS3545660|2013-08-08 22:26:34|Turneanu|Corina||F|1978-01-06|Brasov|MARGINENI|Tunului|40|||||0751729100|||MBRGLT||1 Camel Black (6 mg) Pack|Yes|No||CT004485|Iuli\'s House|Constanta|CTHRKBA93|158|CCC HRK CAMEL FAM Vara 2013|121|Horeca|0
0|CS3545661|2013-08-08 22:27:16|Agache|Vasilica||M|1978-03-21|Ilfov|DRAGOMIRESTI DEAL|Libertatii|1|||0|0|0766560275||Ag_vas21@yahoo.com|DAVGLS||1 Camel Black (6 mg) Pack|Yes|Yes||CT004485|Iuli\'s House|Constanta|CTHRKBA90|158|CCC HRK CAMEL FAM Vara 2013|121|Horeca|0
0|CS3545673|2013-08-08 22:30:58|Gheorghe|Valentin||M|1973-09-08|Sibiu|SIBIU|Selarilor|2|||0|0|0742839529|||CABK||1 Camel Black (6 mg) Pack|Yes|Yes||CT004485|Iuli\'s House|Constanta|CTHRKBA93|158|CCC HRK CAMEL FAM Vara 2013|121|Horeca|0
0|CS3545677|2013-08-08 22:31:56|Grigorie|Andreea||F|1994-12-22|Covasna|COVASNA|Fulgerului|88a|||||0743895476|||MBRFPH||1 Camel Black (6 mg) Pack|Yes|No||CT004485|Iuli\'s House|Constanta|CTHRKBA90|158|CCC HRK CAMEL FAM Vara 2013|121|Horeca|0
0|CS3545679|2013-08-08 22:32:22|Banica|Valeriu||M|1990-04-05|Botosani|BOTOSANI|Sucevei|46|||||0766809443|||DAVIDBL||1 Camel Blue (6 mg) Pack|Yes|No||CT004485|Iuli\'s House|Constanta|CTHRKBA92|158|CCC HRK CAMEL FAM Vara 2013|121|Horeca|0
0|CS3545680|2013-08-08 22:32:51|Vasile|Madalin||M|1989-01-16|Dolj|DOBRESTI|A.I.Cuza|33|||||0745327864||Vasilemadalin89@yahoo.com|LSBL||1 Camel Blue (6 mg) Pack|Yes|Yes||CT004485|Iuli\'s House|Constanta|CTHRKBA27|158|CCC HRK CAMEL FAM Vara 2013|121|Horeca|0
0|CS3545688|2013-08-08 22:36:20|Naumov|Marius||M|1983-05-29|Bistrita Nasaud|BISTRITA|Metalurgiei|5|A3||||0734729910|||PHMQBL||1 Camel Black (6 mg) Pack|Yes|No||CT004485|Iuli\'s House|Constanta|CTHRKBA93|158|CCC HRK CAMEL FAM Vara 2013|121|Horeca|0
0|CS3545718|2013-08-08 22:47:53|Grec|Bogdan||M|1983-07-31|Constanta|MANGALIA|M I Dobrogeanu|3|N5|B|3|29|0753377253||Bogdan_grec@yahoo.com|CABK||1 Camel Black (6 mg) Pack|Yes|Yes||CT004485|Iuli\'s House|Constanta|CTHRKBA93|158|CCC HRK CAMEL FAM Vara 2013|121|Horeca|0
0|CS3545721|2013-08-08 22:49:04|Pencu|Georgiana||F|1990-09-29|Constanta|CONSTANTA|Stefan cel mare|43|||||0754853487|||PMSV||1 Camel Silver (4 mg) Pack|Yes|No||CT004485|Iuli\'s House|Constanta|CTHRKBA90|158|CCC HRK CAMEL FAM Vara 2013|121|Horeca|0
0|CS3545724|2013-08-08 22:50:14|Bustihan|Victor cosmin||M|1992-06-17|Bacau|BACAU|9 mai|38|38|A||17|0762757819||Bushco17@yahoo.com|CABK||1 Camel Black (6 mg) Pack|Yes|Yes||CT004485|Iuli\'s House|Constanta|CTHRKBA93|158|CCC HRK CAMEL FAM Vara 2013|121|Horeca|0
0|CS3545729|2013-08-08 22:53:54|Florica|Viorica||F|1988-04-07|Arges|PITESTI|Republicii|56|||||0732156733|||KTBL||1 Camel Black (6 mg) Pack|Yes|No||CT004485|Iuli\'s House|Constanta|CTHRKBA92|158|CCC HRK CAMEL FAM Vara 2013|121|Horeca|0
0|CS3545752|2013-08-08 22:58:46|Chirila|George||M|1990-10-30|Bucuresti|SECTOR 4|Constantin brancusi|15|||||0721567834|||KTSV||1 Camel White (1 mg) Pack|Yes|Yes||CT004485|Iuli\'s House|Constanta|CTHRKBA27|158|CCC HRK CAMEL FAM Vara 2013|121|Horeca|0
0|CS3545755|2013-08-08 22:59:34|Burlac|Mariana||F|1981-01-12|Buzau|BUZAU|Infratirii|61|||||0742808966||Burlacmariana1201@yahoo.com|DUNFCMBB||1 Camel Black (6 mg) Pack|Yes|No||CT004485|Iuli\'s House|Constanta|CTHRKBA93|158|CCC HRK CAMEL FAM Vara 2013|121|Horeca|0
0|CS3545765|2013-08-08 23:03:56|Suciu|Valeriu||M|1990-05-05|Cluj|CLUJ NAPOCA|Strengarilor|14a|||||0744509982|||CAFI||1 Camel Filters (10mg) Pack|Yes|No||CT004485|Iuli\'s House|Constanta|CTHRKBA92|158|CCC HRK CAMEL FAM Vara 2013|121|Horeca|0
0|CS3545766|2013-08-08 23:04:23|Piru|Andrei||M|1979-04-11|Arges|CURTEA DE ARGES|Nuferilor|49|||||0760966945|||LSRD||1 Camel Filters (10mg) Pack|Yes|No||CT004485|Iuli\'s House|Constanta|CTHRKBA93|158|CCC HRK CAMEL FAM Vara 2013|121|Horeca|0
0|CS3545767|2013-08-08 23:04:25|Rosu|Adrian||M|1983-07-26|Constanta|CONSTANTA|Alexandru cel bun|56|||||0767598029|||CAFI||1 Camel Filters (10mg) Pack|Yes|Yes||CT004485|Iuli\'s House|Constanta|CTHRKBA27|158|CCC HRK CAMEL FAM Vara 2013|121|Horeca|0
0|CS3545768|2013-08-08 23:04:30|Crivoi|Dragos||M|1981-07-26|Cluj|CLUJ NAPOCA|Cetatii|20|||||0735995377|||MBRRD||1 Camel Filters (10mg) Pack|Yes|No||CT004485|Iuli\'s House|Constanta|CTHRKBA90|158|CCC HRK CAMEL FAM Vara 2013|121|Horeca|0
0|CS3545780|2013-08-08 23:13:02|Chiru|Cristiana||F|1990-04-28|Arges|PITESTI|Ion creanga|56|||||0756431578|||CAWH||1 Camel White (1 mg) Pack|Yes|Yes||CT004485|Iuli\'s House|Constanta|CTHRKBA27|158|CCC HRK CAMEL FAM Vara 2013|121|Horeca|0
0|CS3559106|2013-08-11 19:25:29|Maciuca|Andrei||M|1974-08-15|Sibiu|MEDIAS|Feleac|6|||0|0|0743671464|||CABK||1 Camel Black (6 mg) Pack|Yes|Yes||CT004485|Iuli\'s House|Constanta|CTHRKBA90|158|CCC HRK CAMEL FAM Vara 2013|121|Horeca|0
0|CS3559114|2013-08-11 19:26:19|Chirila|Alexandru||M|1985-04-20|Vrancea|FOCSANI|Independentei|27|||||0728007687||Chrlalexandru@yahoo.com|KTSV||1 Camel White (1 mg) Pack|Yes|Yes||CT004485|Iuli\'s House|Constanta|CTHRKBA27|158|CCC HRK CAMEL FAM Vara 2013|121|Horeca|0
0|CS3559124|2013-08-11 19:27:15|Virca|Delia Elena||F|1991-05-19|Sibiu|MEDIAS|1decembrie|37|||||0748874849||D3lylah@yahoo.com|DUNFCMBB||1 Camel Black (6 mg) Pack|Yes|Yes||CT004485|Iuli\'s House|Constanta|CTHRKBA91|158|CCC HRK CAMEL FAM Vara 2013|121|Horeca|0
0|CS3559131|2013-08-11 19:28:25|Agache|Vasiliu||M|1978-03-21|Ilfov|DRAGOMIRESTI DEAL|Libertatii|1|||||0766560275|||CABK||1 Camel Black (6 mg) Pack|Yes|Yes||CT004485|Iuli\'s House|Constanta|CTHRKBA90|158|CCC HRK CAMEL FAM Vara 2013|121|Horeca|0
0|CS3559157|2013-08-11 19:32:24|Nicolai|Nicolae||M|1979-05-15|Bistrita Nasaud|BISTRITA|Scolii|67|||||0721456328|||CAFI||1 Camel Filters (10mg) Pack|Yes|No||CT004485|Iuli\'s House|Constanta|CTHRKBA27|158|CCC HRK CAMEL FAM Vara 2013|121|Horeca|0
0|CS3559122|2013-08-11 19:36:08|Toader|Micherem||F|1991-10-07|Constanta|MANGALIA|Mihai Dobrogeanu|19|||||0735677495|||CABK||1 Camel Black (6 mg) Pack|Yes|No||CT004485|Iuli\'s House|Constanta|CTHRKBA93|158|CCC HRK CAMEL FAM Vara 2013|121|Horeca|0
0|CS3559149|2013-08-11 19:36:08|Torcan|Eugen||M|1984-09-23|Buzau|BUZAU|Picturii|41|||||0763281998||Torcan_eugen@yahoo.com|KTBL||1 Camel Blue (6 mg) Pack|Yes|No||CT004485|Iuli\'s House|Constanta|CTHRKBA93|158|CCC HRK CAMEL FAM Vara 2013|121|Horeca|0
0|CS3559172|2013-08-11 19:36:38|Dumbrava|Madalin||M|1977-06-19|Bucuresti|4|Vasilescu|36|B3|A|2|24|0765742588||Dumbrava.madalin@yahoo.com|DUNFCBB||1 Camel White (1 mg) Pack|Yes|No||CT004485|Iuli\'s House|Constanta|CTHRKBA90|158|CCC HRK CAMEL FAM Vara 2013|121|Horeca|0
0|CS3559180|2013-08-11 19:38:44|Ionescu|Mirela||F|1984-11-23|Bucuresti|Bucuresti|Mihai Viteazu|43|||||0766598921||Mirela.ionescu@yahoo.com|DAVGL||1 Camel Black (6 mg) Pack|Yes|Yes||CT004485|Iuli\'s House|Constanta|CTHRKBA91|158|CCC HRK CAMEL FAM Vara 2013|121|Horeca|0
0|CS3559197|2013-08-11 19:41:00|Gatu|Cornelia||F|1994-05-24|Iasi|IASI|Huceacului|4|||||0751829002|||PHMQBKH||1 Camel Filters (10mg) Pack|Yes|No||CT004485|Iuli\'s House|Constanta|CTHRKBA93|158|CCC HRK CAMEL FAM Vara 2013|121|Horeca|0
0|CS3559198|2013-08-11 19:41:13|Zlate|Adrian||M|1982-03-24|Calarasi|CALARASI|Costache negruzzi|45|||||0754862789|||KTBL||1 Camel Blue (6 mg) Pack|Yes|No||CT004485|Iuli\'s House|Constanta|CTHRKBA90|158|CCC HRK CAMEL FAM Vara 2013|121|Horeca|0
0|CS3559212|2013-08-11 19:43:17|Gheorghe|Valentin||M|1973-09-08|Sibiu|SIBIU|Selarilor|2|||0|0|0742839529|||CABL||1 Camel Blue (6 mg) Pack|Yes|Yes||CT004485|Iuli\'s House|Constanta|CTHRKBA93|158|CCC HRK CAMEL FAM Vara 2013|121|Horeca|0
0|CS3559245|2013-08-11 19:48:02|Labo|Teodor||M|1994-11-10|Salaj|ZALAU|Stadionului|22a|||||0745166250||Bogdiciortea@gmail.com|DUNFCMBB||1 Camel Black (6 mg) Pack|Yes|Yes||CT004485|Iuli\'s House|Constanta|CTHRKBA91|158|CCC HRK CAMEL FAM Vara 2013|121|Horeca|0
0|CS3559266|2013-08-11 19:51:54|Borfotina|Alexandra||F|1979-01-23|Constanta|CONSTANTA|Mircea|133|||||0721647968||Alexutzaborfotina@yahoo.com|KTSV||1 Camel White (1 mg) Pack|Yes|Yes||CT004485|Iuli\'s House|Constanta|CTHRKBA91|158|CCC HRK CAMEL FAM Vara 2013|121|Horeca|0
0|CS3559273|2013-08-11 19:52:23|Marcu|Sergiu||M|1985-11-10|Cluj|CLUJ NAPOCA|Mihai Eminescu|79|||||0765783256||Marcusergiu@yahoo.com|KTBL||1 Camel Black (6 mg) Pack|Yes|Yes||CT004485|Iuli\'s House|Constanta|CTHRKBA27|158|CCC HRK CAMEL FAM Vara 2013|121|Horeca|0
0|CS3559276|2013-08-11 19:52:44|Cizmaru|Bianca||F|1978-12-21|Brasov|BRASOV|Strada varful postavarul|23|||||0764806556|||DUNFCSB||1 Camel Filters (10mg) Pack|Yes|No||CT004485|Iuli\'s House|Constanta|CTHRKBA90|158|CCC HRK CAMEL FAM Vara 2013|121|Horeca|0
0|CS3559289|2013-08-11 19:54:08|Plop|Daniel||M|1984-10-18|Braila|BRAILA|Nuferilor|33|||||0787653268||Danielplop@yahoo.com|DUNFCMBB||1 Camel Blue (6 mg) Pack|Yes|Yes||CT004485|Iuli\'s House|Constanta|CTHRKBA91|158|CCC HRK CAMEL FAM Vara 2013|121|Horeca|0
0|CS3559290|2013-08-11 19:54:13|Bindu|Marius||M|1987-04-12|Dambovita|FUSEA|Horelor|60|B12|B|5||0733893082||Bindumarius87@yahoo.com|LSRD||1 Camel Filters (10mg) Pack|Yes|No||CT004485|Iuli\'s House|Constanta|CTHRKBA93|158|CCC HRK CAMEL FAM Vara 2013|121|Horeca|0
0|CS3559459|2013-08-11 20:17:13|Albu|Ionut||M|1981-09-19|Constanta|MANGALIA|Alexandru ioan cuza|384|||||0743335855|||DUNFCMBB||1 Camel Black (6 mg) Pack|Yes|Yes||CT000505|LA FRONTIERA|Constanta|CTHRKBA27|158|CCC HRK CAMEL FAM Vara 2013|121|Horeca|0
0|CS3559484|2013-08-11 20:19:40|Obreja|Dan||M|1980-02-09|Iasi|IASI|Tudor neculai|45a|||||0728737373||Dan_obre@yahoo.com|DUNFCMBB||1 Camel Black (6 mg) Pack|Yes|Yes||CT000505|LA FRONTIERA|Constanta|CTHRKBA90|158|CCC HRK CAMEL FAM Vara 2013|121|Horeca|0
0|CS3559498|2013-08-11 20:21:55|Rosu|Cezar||M|1988-05-21|Constanta|CONSTANTA|Murelor|67|||||0734216755|||DUNFCMBB||1 Camel Black (6 mg) Pack|Yes|Yes||CT000505|LA FRONTIERA|Constanta|CTHRKBA27|158|CCC HRK CAMEL FAM Vara 2013|121|Horeca|0
0|CS3559504|2013-08-11 20:22:47|Sanduloiu|Ionut||M|1982-12-13|Bucuresti|Bucuresti|Nicolae Iorga|22|||||0766878990||Ionutsanduloiu@yahoo.com|DAVCL||1 Camel Filters (10mg) Pack|Yes|Yes||CT000505|LA FRONTIERA|Constanta|CTHRKBA91|158|CCC HRK CAMEL FAM Vara 2013|121|Horeca|0
0|CS3559509|2013-08-11 20:23:21|Neagu|Paula||F|1983-07-26|Cluj|CLUJ NAPOCA|Viilor|17|||||0744586499|||PMBL||1 Camel Black (6 mg) Pack|Yes|No||CT000505|LA FRONTIERA|Constanta|CTHRKBA93|158|CCC HRK CAMEL FAM Vara 2013|121|Horeca|0
0|CS3559525|2013-08-11 20:25:48|Gherba|Sorina||F|1967-01-06|Cluj|CLUJ NAPOCA|Uliului|17|||||0745006050|||KTH||1 Camel Filters (10mg) Pack|Yes|Yes||CT000505|LA FRONTIERA|Constanta|CTHRKBA27|158|CCC HRK CAMEL FAM Vara 2013|121|Horeca|0
0|CS3559535|2013-08-11 20:27:16|Corcescu|Alexandru||M|1979-01-24|Braila|BRAILA|Principala|23|||||0765874587|||CABL||1 Camel Blue (6 mg) Pack|Yes|No||CT000505|LA FRONTIERA|Constanta|CTHRKBA90|158|CCC HRK CAMEL FAM Vara 2013|121|Horeca|0
0|CS3559553|2013-08-11 20:30:30|Andreescu|Ramona||F|1979-07-22|Bacau|BACAU|Pucioasa|7|||||0744749800||Andreescuramo22@gmail.com|DAVGLS||1 Camel Black (6 mg) Pack|Yes|No||CT000505|LA FRONTIERA|Constanta|CTHRKBA93|158|CCC HRK CAMEL FAM Vara 2013|121|Horeca|0
0|CS3559562|2013-08-11 20:31:28|Grosu|Ionut||M|1984-10-26|Constanta|CUMPANA|Soseaua Constantei|104|H2|A|2|7|0747060663||grosu.ionut84@yahoo.com|PMECBL||1 Camel Black (6 mg) Pack|Yes|Yes||CT000505|LA FRONTIERA|Constanta|CTHRKBA27|158|CCC HRK CAMEL FAM Vara 2013|121|Horeca|0
0|CS3559565|2013-08-11 20:31:47|Cristocea|Alin||M|1974-12-15|Constanta|MANGALIA|Rozelor|20|||||0786865577||Alincristocea@yahoo.com|MBRGL||1 Camel Blue (6 mg) Pack|Yes|Yes||CT000505|LA FRONTIERA|Constanta|CTHRKBA91|158|CCC HRK CAMEL FAM Vara 2013|121|Horeca|0
0|CS3559568|2013-08-11 20:31:50|Vintila|Veronica||F|1979-07-23|Brasov|BRASOV|Vointei|86|||||0784643465|||CASV||1 Camel Silver (4 mg) Pack|Yes|No||CT000505|LA FRONTIERA|Constanta|CTHRKBA90|158|CCC HRK CAMEL FAM Vara 2013|121|Horeca|0
0|CS3559680|2013-08-11 20:46:45|Taflan|Sabin||M|1986-11-03|Sibiu|SIBIU|Toparceanu|65|||||0747217250|||KTSV||1 Camel White (1 mg) Pack|Yes|No||CTR01515|General Machine Bussines Division|Constanta|CTHRKBA27|158|CCC HRK CAMEL FAM Vara 2013|121|Horeca|0
0|CS3559699|2013-08-11 20:48:39|Taflan|Calin||M|1963-09-29|Sibiu|SIBIU|Toparceanu|65|||||0744642056|||MBRFP||1 Camel Black (6 mg) Pack|Yes|No||CTR01515|General Machine Bussines Division|Constanta|CTHRKBA27|158|CCC HRK CAMEL FAM Vara 2013|121|Horeca|0
0|CS3559707|2013-08-11 20:49:49|Robu|Adrian||M|1980-01-28|Bucuresti|SECTOR 2|Hobita|8|||0|0|0724013824||Adrian_robu2003@yahoo.com|MBRRDH||1 Camel Filters (10mg) Pack|Yes|Yes||CTR01515|General Machine Bussines Division|Constanta|CTHRKBA91|158|CCC HRK CAMEL FAM Vara 2013|121|Horeca|0
0|CS3559712|2013-08-11 20:50:01|Ion|Anghel||M|1982-08-01|Prahova|PREDEAL|Poianei|63|||||0769605593||Ion_anghel82@yahoo.ro|CASV||1 Camel Silver (4 mg) Pack|Yes|No||CTR01515|General Machine Bussines Division|Constanta|CTHRKBA93|158|CCC HRK CAMEL FAM Vara 2013|121|Horeca|0
0|CS3559714|2013-08-11 20:50:21|Ghirleanu|Dragos||F|1974-06-17|Cluj|CLUJ NAPOCA|Revleanu|75|||||0743874789|||KTH||1 Camel Filters (10mg) Pack|Yes|No||CTR01515|General Machine Bussines Division|Constanta|CTHRKBA90|158|CCC HRK CAMEL FAM Vara 2013|121|Horeca|0
0|CS3559730|2013-08-11 20:52:08|Georgescu|Marian||M|1984-05-23|Constanta|MANGALIA|Farului|67|||||0734216786||Mariangeorgescu@yahoo.com|KTBL||1 Camel Blue (6 mg) Pack|Yes|Yes||CTR01515|General Machine Bussines Division|Constanta|CTHRKBA27|158|CCC HRK CAMEL FAM Vara 2013|121|Horeca|0
0|CS3559759|2013-08-11 20:56:07|Berbec|Costin||M|1980-07-21|Constanta|MANGALIA|Falezei|12|||||0736858834||Berbecostin@yahoo.com|MBRRDH||1 Camel Filters (10mg) Pack|Yes|Yes||CTR01515|General Machine Bussines Division|Constanta|CTHRKBA90|158|CCC HRK CAMEL FAM Vara 2013|121|Horeca|0
0|CS3559765|2013-08-11 20:56:52|Martin|Eduard||M|1982-11-14|Constanta|CONSTANTA|Tomis|40|||||0754376898||Eduard_martin@yahoo.com|KTSV||1 Camel White (1 mg) Pack|Yes|Yes||CTR01515|General Machine Bussines Division|Constanta|CTHRKBA91|158|CCC HRK CAMEL FAM Vara 2013|121|Horeca|0
0|CS3559768|2013-08-11 20:57:07|Dumitru|Oana||F|1989-04-26|Caras Severin|CARANSEBES|Cioplitului|67|||||0756432234|||DUNFCBB||1 Camel White (1 mg) Pack|Yes|Yes||CTR01515|General Machine Bussines Division|Constanta|CTHRKBA27|158|CCC HRK CAMEL FAM Vara 2013|121|Horeca|0
0|CS3559776|2013-08-11 20:58:02|Dascalu|Bogdan||M|1987-01-21|Vaslui|VASLUI|Vasile lupu|0|444|A|4|19|0740210437||bogdan18_coco@yahoo.com|CAWH||1 Camel White (1 mg) Pack|Yes|No||CTR01515|General Machine Bussines Division|Constanta|CTHRKBA93|158|CCC HRK CAMEL FAM Vara 2013|121|Horeca|0
0|CS3559783|2013-08-11 20:58:49|Moise|Adina||F|1983-11-20|Braila|BRAILA|Independentei|35|||||0766544998||Adinamoise@yahoo.com|DUNFCMBB||1 Camel Blue (6 mg) Pack|Yes|Yes||CTR01515|General Machine Bussines Division|Constanta|CTHRKBA91|158|CCC HRK CAMEL FAM Vara 2013|121|Horeca|0
0|CS3559804|2013-08-11 21:00:56|Terzi|Georgiana||F|1984-08-29|Galati|GALATI|Avram Iancu|65|||||0788665653||Georgyterzi@yahoo.com|PARABH||1 Camel Black (6 mg) Pack|Yes|Yes||CTR01515|General Machine Bussines Division|Constanta|CTHRKBA91|158|CCC HRK CAMEL FAM Vara 2013|121|Horeca|0
0|CS3559810|2013-08-11 21:01:29|Lintu|Ioan||M|1989-03-29|Dolj|DUTULESTI|Dunarii|134|||||0732697468|||PMECBL||1 Camel Blue (6 mg) Pack|Yes|No||CTR01515|General Machine Bussines Division|Constanta|CTHRKBA90|158|CCC HRK CAMEL FAM Vara 2013|121|Horeca|0
0|CS3559815|2013-08-11 21:02:32|Carstean|Georgiana||F|1990-03-27|Arges|ARGESANI|Fagului|67|||||0732167775|||KTSV||1 Camel White (1 mg) Pack|Yes|Yes||CTR01515|General Machine Bussines Division|Constanta|CTHRKBA27|158|CCC HRK CAMEL FAM Vara 2013|121|Horeca|0
0|CS3559820|2013-08-11 21:03:07|Covaliu|Nadin||M|1980-04-26|Bucuresti|SECTOR 4|Aleea Transilvaniei|6|V33|M|3|25|0746590897||Covaliu_nadin@yahoo.com|DUNFCMBB||1 Camel Black (6 mg) Pack|Yes|No||CTR01515|General Machine Bussines Division|Constanta|CTHRKBA93|158|CCC HRK CAMEL FAM Vara 2013|121|Horeca|0
0|CS3559860|2013-08-11 21:10:09|Orzu|Maria||F|1992-02-07|Giurgiu|GIURGIU|Astrilor|88|||||0736859800|||LSRD||1 Camel Filters (10mg) Pack|Yes|No||CTR01515|General Machine Bussines Division|Constanta|CTHRKBA93|158|CCC HRK CAMEL FAM Vara 2013|121|Horeca|0
0|CS3559929|2013-08-11 21:22:38|Ivanescu|Mihai||M|1984-03-06|Bucuresti|SECTOR 5|Rahovei|328|66|A|4|18|0745994599||Mihai_ivanescu84@yahoo.com|MBRGLFT||1 Camel White (1 mg) Pack|Yes|Yes||CT004336|Opus Day SRL 2|Constanta|CTHRKBA93|158|CCC HRK CAMEL FAM Vara 2013|121|Horeca|0
0|CS3559950|2013-08-11 21:25:03|Ungureanu|Alexandra||F|1988-08-24|Bucuresti|SECTOR 4|Aleea calinesti|4|13||||0768290278|||DUNFCMBB||1 Camel Black (6 mg) Pack|Yes|Yes||CT004336|Opus Day SRL 2|Constanta|CTHRKBA27|158|CCC HRK CAMEL FAM Vara 2013|121|Horeca|0
0|CS3559973|2013-08-11 21:28:06|Bordeanu|Sebastian||M|1988-03-05|Ilfov|BUFTEA|Strada Mare|4|||||0733276990|||MBRGLT||1 Camel Black (6 mg) Pack|Yes|No||CT004336|Opus Day SRL 2|Constanta|CTHRKBA93|158|CCC HRK CAMEL FAM Vara 2013|121|Horeca|0
0|CS3559974|2013-08-11 21:28:07|Bizaru|Adelina||F|1992-07-04|Bucuresti|2|Ion corvin|29|||||0754795585|||CAFI||1 Camel Filters (10mg) Pack|Yes|No||CT004336|Opus Day SRL 2|Constanta|CTHRKBA90|158|CCC HRK CAMEL FAM Vara 2013|121|Horeca|0
0|CS3559979|2013-08-11 21:28:44|Turcescu|Elena||F|1987-02-28|Bucuresti|Bucuresti|Avram Iancu|64|||||0722436777||Elenaturcescu@yahoo.com|LSRD||1 Camel Filters (10mg) Pack|Yes|Yes||CT004336|Opus Day SRL 2|Constanta|CTHRKBA91|158|CCC HRK CAMEL FAM Vara 2013|121|Horeca|0
0|CS3559990|2013-08-11 21:29:33|Patrutoiu|Alexandru||M|1983-05-18|Constanta|CONSTANTA|Lebedelor|67|||||0743278966|||CAFI||1 Camel Filters (10mg) Pack|Yes|Yes||CT004336|Opus Day SRL 2|Constanta|CTHRKBA27|158|CCC HRK CAMEL FAM Vara 2013|121|Horeca|0
0|CS3559997|2013-08-11 21:31:15|Pescariu|Wanda||F|1979-07-24|Sibiu|SIBIU|Marasti|28|||||0734688765|||DAVGL||1 Camel Black (6 mg) Pack|Yes|Yes||CT004336|Opus Day SRL 2|Constanta|CTHRKBA90|158|CCC HRK CAMEL FAM Vara 2013|121|Horeca|0
0|CS3559998|2013-08-11 21:31:28|Nedelescu|Petre||M|1962-11-07|Constanta|MANGALIA|Oituz|1|||0|0|0743335429|||CABK||1 Camel Black (6 mg) Pack|Yes|Yes||CT004336|Opus Day SRL 2|Constanta|CTHRKBA93|158|CCC HRK CAMEL FAM Vara 2013|121|Horeca|0
0|CS3560002|2013-08-11 21:32:18|Rogojina|Florian||F|1988-10-15|Constanta|CONSTANTA|Albastrelelor|4|||||0787654986||Florin.rogojina@yahoo.com|DUNFCSB||1 Camel Filters (10mg) Pack|Yes|Yes||CT004336|Opus Day SRL 2|Constanta|CTHRKBA91|158|CCC HRK CAMEL FAM Vara 2013|121|Horeca|0
0|CS3560006|2013-08-11 21:32:52|Panciu|Andrei||M|1989-03-29|Bucuresti|SECTOR 5|Ion creanga|56|||||0721456322||Panciuandrei89@gmail.com|DUNFCMBB||1 Camel Black (6 mg) Pack|Yes|Yes||CT004336|Opus Day SRL 2|Constanta|CTHRKBA27|158|CCC HRK CAMEL FAM Vara 2013|121|Horeca|0
0|CS3560014|2013-08-11 21:34:42|Cotun|Andrei||M|1990-04-25|Bucuresti|SECTOR 4|Republicii|56|||||0721567239||Andrei04@yahoo.com|KTH||1 Camel Filters (10mg) Pack|Yes|Yes||CT004336|Opus Day SRL 2|Constanta|CTHRKBA27|158|CCC HRK CAMEL FAM Vara 2013|121|Horeca|0
0|CS3560017|2013-08-11 21:35:50|Barbieriu|Florin||M|1984-04-13|Brasov|BRASOV|Timis|22|||||0745354869|||KTBL||1 Camel Black (6 mg) Pack|Yes|Yes||CT004336|Opus Day SRL 2|Constanta|CTHRKBA91|158|CCC HRK CAMEL FAM Vara 2013|121|Horeca|0
0|CS3560023|2013-08-11 21:37:18|Uzum|Daniela||F|1961-03-30|Constanta|NEGRU VODA|Biforului|1|||||0743292847|||CAFI||1 Camel Filters (10mg) Pack|Yes|Yes||CT004336|Opus Day SRL 2|Constanta|CTHRKBA90|158|CCC HRK CAMEL FAM Vara 2013|121|Horeca|0
0|CS3560031|2013-08-11 21:38:23|Borojan|Silvia||F|1989-11-01|Constanta|CONSTANTA|Bogdan Hasdeu|53|||||0722398998||Silvia.borojan@yahoo.com|PMECBK||1 Camel Filters (10mg) Pack|Yes|Yes||CT004336|Opus Day SRL 2|Constanta|CTHRKBA91|158|CCC HRK CAMEL FAM Vara 2013|121|Horeca|0
0|CS3560063|2013-08-11 21:48:00|Creanga|Valentin||M|1981-08-25|Buzau|BUZAU|Burebista|29|||||0746373266|||DUNFCSB||1 Camel Filters (10mg) Pack|Yes|No||CT004336|Opus Day SRL 2|Constanta|CTHRKBA90|158|CCC HRK CAMEL FAM Vara 2013|121|Horeca|0
0|CS3560089|2013-08-11 21:52:17|Guran|Dorina||F|1979-04-30|Bistrita Nasaud|BISTRITA|Furtunii|8|||||0757699005||Gurandorina@gmail.com|DUNFCBB||1 Camel White (1 mg) Pack|Yes|No||CT004336|Opus Day SRL 2|Constanta|CTHRKBA93|158|CCC HRK CAMEL FAM Vara 2013|121|Horeca|0
0|CS3560145|2013-08-11 22:04:07|Mirea|Florin||M|1980-04-18|Dolj|CRAIOVA|Henry coanda|50|M13|1|4|18|0743058909|||CAFI||1 Camel Filters (10mg) Pack|Yes|Yes||CT004474|Martini Touristic |Constanta|CTHRKBA90|158|CCC HRK CAMEL FAM Vara 2013|121|Horeca|0
0|CS3560146|2013-08-11 22:04:59|Burducea|Stefan||M|1984-09-05|Constanta|MANGALIA|Sirenei|4|E6|A|3|16|0761614444||burducea_stefan@yahoo.com|CABL||1 Camel Blue (6 mg) Pack|Yes|Yes||CT004474|Martini Touristic |Constanta|CTHRKBA27|158|CCC HRK CAMEL FAM Vara 2013|121|Horeca|0
0|CS3560151|2013-08-11 22:06:11|Safta|Codrut||M|1976-04-10|Olt|CORABIA|Carpati|127|||||0786354558||Ameona2@yahoo.com|CAFI||1 Camel Filters (10mg) Pack|Yes|No||CT004474|Martini Touristic |Constanta|CTHRKBA93|158|CCC HRK CAMEL FAM Vara 2013|121|Horeca|0
0|CS3560157|2013-08-11 22:07:24|Mirea|Diana||F|1981-03-31|Valcea|RAMNICU VALCEA|Henry coanda|10|R10|A|1|6|0743198571||Scrociob_diana@yahoo.com|CAFI||1 Camel Filters (10mg) Pack|Yes|Yes||CT004474|Martini Touristic |Constanta|CTHRKBA90|158|CCC HRK CAMEL FAM Vara 2013|121|Horeca|0
0|CS3560164|2013-08-11 22:10:29|Calma|Cristian||M|1976-01-15|Valcea|RAMNICU VALCEA|Venus|14|||||0723351442||Calmacristi@yahoo.com|CABL||1 Camel Blue (6 mg) Pack|Yes|Yes||CT004474|Martini Touristic |Constanta|CTHRKBA90|158|CCC HRK CAMEL FAM Vara 2013|121|Horeca|0
0|CS3560165|2013-08-11 22:10:49|Safta|Mihaela||F|1972-09-24|Olt|CORABIA|Carpati|127|||||0740639205||Ameona2@yahoo.com|CAFI||1 Camel Filters (10mg) Pack|Yes|Yes||CT004474|Martini Touristic |Constanta|CTHRKBA93|158|CCC HRK CAMEL FAM Vara 2013|121|Horeca|0
0|CS3560167|2013-08-11 22:11:01|Neagu|Valentin||M|1987-07-27|Prahova|PLOIESTI|Republicii|66|||0|0|0727880783|||KTH||1 Camel Filters (10mg) Pack|Yes|Yes||CT004474|Martini Touristic |Constanta|CTHRKBA91|158|CCC HRK CAMEL FAM Vara 2013|121|Horeca|0
0|CS3560174|2013-08-11 22:13:00|Bazon|Sorin||M|1988-12-09|Ialomita|IAZU|Dionisie cel mic|27|||||0743784798|||DAVGLS||1 Camel Black (6 mg) Pack|Yes|No||CT004474|Martini Touristic |Constanta|CTHRKBA90|158|CCC HRK CAMEL FAM Vara 2013|121|Horeca|0
0|CS3560178|2013-08-11 22:14:41|Minca|Horia||M|1978-06-17|Timis|TIMISOARA|Micro 34|37|S2|E|P|4|0768588976||Horia_Minca@yahoo.com|KTH||1 Camel Filters (10mg) Pack|Yes|No||CT004474|Martini Touristic |Constanta|CTHRKBA93|158|CCC HRK CAMEL FAM Vara 2013|121|Horeca|0
0|CS3560179|2013-08-11 22:14:50|Filimon|Anca||F|1982-08-16|Buzau|BUZAU|Ion Creanga|8|||||0721347867||Ancutzafil@yahoo.com|KTBL||1 Camel Black (6 mg) Pack|Yes|Yes||CT004474|Martini Touristic |Constanta|CTHRKBA91|158|CCC HRK CAMEL FAM Vara 2013|121|Horeca|0
0|CS3560186|2013-08-11 22:19:05|Zosim|Roxana||F|1990-04-17|Bacau|BACAU|Mihail Sadoveanu|43|||||0732167542||Roxy90@yahoo.com|KTBL||1 Camel Black (6 mg) Pack|Yes|Yes||CT004474|Martini Touristic |Constanta|CTHRKBA27|158|CCC HRK CAMEL FAM Vara 2013|121|Horeca|0
0|CS3560187|2013-08-11 22:19:36|Bobarnac|Dana||F|1975-01-01|Calarasi|CALARASI|Gradinitei|18|||||0726587124||Dana_bobarnac@yahoo.com|DUNFCSB||1 Camel Filters (10mg) Pack|Yes|Yes||CT004474|Martini Touristic |Constanta|CTHRKBA91|158|CCC HRK CAMEL FAM Vara 2013|121|Horeca|0
0|CS3560189|2013-08-11 22:19:42|Gravu|Dorin||M|1980-07-23|Botosani|BOTOSANI|Ceasornicarului|48|||||0745267536|||CABL||1 Camel Blue (6 mg) Pack|Yes|No||CT004474|Martini Touristic |Constanta|CTHRKBA90|158|CCC HRK CAMEL FAM Vara 2013|121|Horeca|0
0|CS3560193|2013-08-11 22:21:28|Dandea|Oana||F|1989-11-11|Ialomita|TANDAREI|Bisericii|70|||||0769659982|||MBRFPH||1 Camel Black (6 mg) Pack|Yes|No||CT004474|Martini Touristic |Constanta|CTHRKBA93|158|CCC HRK CAMEL FAM Vara 2013|121|Horeca|0
0|CS3560195|2013-08-11 22:21:36|Dragu|Alina||M|1983-05-26|Constanta|MANGALIA|Aleea Portului|73|||||0732156832|||CAFI||1 Camel Filters (10mg) Pack|Yes|No||CT004474|Martini Touristic |Constanta|CTHRKBA27|158|CCC HRK CAMEL FAM Vara 2013|121|Horeca|0
0|CS3560196|2013-08-11 22:21:39|Zaharneanu|Ionela||F|1981-07-13|Bucuresti|Bucuresti|Nicolae Grigorescu|90|||||0721467788||Ionik.zaharneanu@yahoo.com|MBRFP||1 Camel Black (6 mg) Pack|Yes|Yes||CT004474|Martini Touristic |Constanta|CTHRKBA91|158|CCC HRK CAMEL FAM Vara 2013|121|Horeca|0
0|CS3560197|2013-08-11 22:22:20|Bodilcu|Marius||M|1981-07-18|Bucuresti|6|Sibiu|59|||||0744258646|||PMECBK||1 Camel Filters (10mg) Pack|Yes|No||CT004474|Martini Touristic |Constanta|CTHRKBA90|158|CCC HRK CAMEL FAM Vara 2013|121|Horeca|0
0|CS3560198|2013-08-11 22:24:07|Dencu|Catalin||M|1990-02-04|Constanta|CONSTANTA|Soseaua Mangaliei|86|||||0726588989||Dencu.catalin@yahoo.com|LSBL||1 Camel Blue (6 mg) Pack|Yes|Yes||CT004474|Martini Touristic |Constanta|CTHRKBA91|158|CCC HRK CAMEL FAM Vara 2013|121|Horeca|0
0|CS3560238|2013-08-11 22:41:08|Popa|Ciprian||M|1994-09-19|Constanta|NAVODARI|Ogorului|1|||||0737140626|||DUNFCMBB||1 Camel Black (6 mg) Pack|Yes|Yes||CT004485|Iuli\'s House|Constanta|CTHRKBA27|158|CCC HRK CAMEL FAM Vara 2013|121|Horeca|0
0|CS3560240|2013-08-11 22:42:02|Soloc|Paul||M|1975-01-20|Constanta|CONSTANTA|Cernica|11|||||0723151520||Theo.soloc@yahoo.com|MBRRD||1 Camel Filters (10mg) Pack|Yes|Yes||CT004485|Iuli\'s House|Constanta|CTHRKBA90|158|CCC HRK CAMEL FAM Vara 2013|121|Horeca|0
0|CS3560242|2013-08-11 22:42:38|Giuglea|Maria||F|1967-11-18|Constanta|CONSTANTA|Ion Voda|76|||||0720403788|||KTH||1 Camel Filters (10mg) Pack|Yes|Yes||CT004485|Iuli\'s House|Constanta|CTHRKBA91|158|CCC HRK CAMEL FAM Vara 2013|121|Horeca|0
0|CS3560250|2013-08-11 22:44:37|Bercea|Ramona||F|1979-10-01|Constanta|CONSTANTA|Dezrobirii|82a|||||0753017465||Ramona_rowater@yahoo.com|CAFI||1 Camel Filters (10mg) Pack|Yes|Yes||CT004485|Iuli\'s House|Constanta|CTHRKBA90|158|CCC HRK CAMEL FAM Vara 2013|121|Horeca|0
0|CS3560253|2013-08-11 22:46:02|Sanchi|Nicoleta||F|1994-04-14|Constanta|CONSTANTA|Unirii|114|||||0736691764||Sanchi_nicoleata@yahoo.com|PARABH||1 Camel Black (6 mg) Pack|Yes|Yes||CT004485|Iuli\'s House|Constanta|CTHRKBA91|158|CCC HRK CAMEL FAM Vara 2013|121|Horeca|0
0|CS3560254|2013-08-11 22:46:10|Sandu|Mihai||M|1989-06-11|Ialomita|SLOBOZIA|C.d. Ghe|0|B5|A|3|15|0755856072||mihaiu1189@yahoo.com|KTBL6||1 Camel Blue (6 mg) Pack|Yes|Yes||CT004485|Iuli\'s House|Constanta|CTHRKBA93|158|CCC HRK CAMEL FAM Vara 2013|121|Horeca|0
0|CS3560255|2013-08-11 22:48:03|Nae|Costin||M|1969-12-01|Bucuresti|SECTOR 3|Tudor ion|3|||||0722719385|||DUNFCMBB||1 Camel Blue (6 mg) Pack|Yes|Yes||CT004485|Iuli\'s House|Constanta|CTHRKBA27|158|CCC HRK CAMEL FAM Vara 2013|121|Horeca|0
0|CS3560259|2013-08-11 22:49:58|Petcu|Cristina||F|1979-03-07|Bucuresti|SECTOR 5|Locotent popa|5|||||0721271304|||CABL||1 Camel Blue (6 mg) Pack|Yes|Yes||CT004485|Iuli\'s House|Constanta|CTHRKBA27|158|CCC HRK CAMEL FAM Vara 2013|121|Horeca|0
0|CS3560260|2013-08-11 22:50:13|Vasile|Anca||F|1991-07-27|Arges|PITESTI|Traian|18|1|B|1|3|0752649603||Anka.vasile91@yahoo.com|DUNFCMBB||1 Camel Black (6 mg) Pack|Yes|Yes||CT004485|Iuli\'s House|Constanta|CTHRKBA93|158|CCC HRK CAMEL FAM Vara 2013|121|Horeca|0
0|CS3560268|2013-08-11 22:52:28|Albu|Loredana||F|1982-12-29|Constanta|CONSTANTA|Ion Ratiu|21|||||0726634471|||KTSV||1 Camel White (1 mg) Pack|Yes|Yes||CT004485|Iuli\'s House|Constanta|CTHRKBA91|158|CCC HRK CAMEL FAM Vara 2013|121|Horeca|0
0|CS3560271|2013-08-11 22:53:08|Teodorescu|Ioana Alina||F|1991-06-17|Arges|PITESTI|Carpenului|7|E3a|A|P|1|0722533698||Ioana.teodorescu@yahoo.com|DUNFCMBB||1 Camel Black (6 mg) Pack|Yes|Yes||CT004485|Iuli\'s House|Constanta|CTHRKBA93|158|CCC HRK CAMEL FAM Vara 2013|121|Horeca|0
0|CS3560275|2013-08-11 22:54:45|Radoi|Vlad|1940810070016|M|1994-08-10|Constanta|NAVODARI|Aleea crinului|1|66|B|2|32|0785761726|||WIBLH||1 Camel Black (6 mg) Pack|Yes|Yes||CT004485|Iuli\'s House|Constanta|CTHRKBA27|158|CCC HRK CAMEL FAM Vara 2013|121|Horeca|0
0|CS3560282|2013-08-11 22:56:26|Mitache|Marius||M|1978-07-02|Constanta|Mangalia|Rozelor|30|||0|0|0747338581||marius.mitache@gmail.com|CAWH||1 Camel White (1 mg) Pack|Yes|Yes||CT004485|Iuli\'s House|Constanta|CTHRKBA27|158|CCC HRK CAMEL FAM Vara 2013|121|Horeca|0
0|CS3560294|2013-08-11 23:00:53|Ciurea|Cornel||M|1984-05-20|Constanta|CONSTANTA|Gutuiului|56a|||||0732167342|||CAFI||1 Camel Filters (10mg) Pack|Yes|Yes||CT004485|Iuli\'s House|Constanta|CTHRKBA27|158|CCC HRK CAMEL FAM Vara 2013|121|Horeca|0
0|CS3560296|2013-08-11 23:01:47|Boromir|Daniel||M|1979-04-26|Brasov|BRASOV|Trestiilor|36|||||0735775888|||CAFI||1 Camel Filters (10mg) Pack|Yes|No||CT004485|Iuli\'s House|Constanta|CTHRKBA90|158|CCC HRK CAMEL FAM Vara 2013|121|Horeca|0
0|CS3560298|2013-08-11 23:02:40|Rotaru|Alexandru||M|1982-11-22|Constanta|CONSTANTA|Dimitrie Cantimir|4|||||0721456778||Alexrotaru@yahoo.com|PMECBK||1 Camel Filters (10mg) Pack|Yes|Yes||CT004485|Iuli\'s House|Constanta|CTHRKBA91|158|CCC HRK CAMEL FAM Vara 2013|121|Horeca|0
0|CS3560304|2013-08-11 23:03:33|Vacaru|Bogdan||M|1977-02-21|Bucuresti|SECTOR 3|Iuliu Maniu|80|||||0755877680||Vacarubogdan77@gmail.com|LSRD||1 Camel Filters (10mg) Pack|Yes|No||CT004485|Iuli\'s House|Constanta|CTHRKBA93|158|CCC HRK CAMEL FAM Vara 2013|121|Horeca|0
0|CS3560324|2013-08-11 23:22:13|Popescu|Georgian||M|1981-04-09|Bucuresti|4|Floriilor|74|||||0746837636|||KTSV||1 Camel White (1 mg) Pack|Yes|No||CT004485|Iuli\'s House|Constanta|CTHRKBA90|158|CCC HRK CAMEL FAM Vara 2013|121|Horeca|0
0|CS3560357|2013-08-11 23:35:35|Ion|Alexandru||M|1993-01-01|Constanta|MANGALIA|Rozelor|14|||||0740640756||Ion.alex155@gmail.com|DUNFCMBB||1 Camel Blue (6 mg) Pack|Yes|Yes||CT004485|Iuli\'s House|Constanta|CTHRKBA91|158|CCC HRK CAMEL FAM Vara 2013|121|Horeca|0
0|CS3560362|2013-08-11 23:39:42|Ionescu|Gabriel||M|1979-10-21|Neamt|TARGU NEAMT|Ardeluta|45|||||0767432178|||KTSV||1 Camel White (1 mg) Pack|Yes|Yes||CT004485|Iuli\'s House|Constanta|CTHRKBA27|158|CCC HRK CAMEL FAM Vara 2013|121|Horeca|0
0|CS3560363|2013-08-11 23:40:35|Codrescu|Flavia||F|1988-09-08|Buzau|BUZAU|Aleea albatros|77|D21|F|4|55|0743748792||Codrescu_flavia_88@yahoo.com|MBRFPEX||1 Camel White (1 mg) Pack|Yes|No||CT004485|Iuli\'s House|Constanta|CTHRKBA93|158|CCC HRK CAMEL FAM Vara 2013|121|Horeca|0
0|CS3560364|2013-08-11 23:42:11|Deaconu|Cristian||M|1978-09-12|Galati|GALATI|Ghioceiilor|53|||||0743697469|||CAFI||1 Camel Filters (10mg) Pack|Yes|No||CT004485|Iuli\'s House|Constanta|CTHRKBA90|158|CCC HRK CAMEL FAM Vara 2013|121|Horeca|0
0|FS1095279|2013-08-07 19:40:22||||M|||||||||||||PMGR||||||||||158|CCC HRK CAMEL FAM Vara 2013|121|Horeca|0
0|FS1095282|2013-08-07 19:40:38||||F|||||||||||||KTSWITH||||||||||158|CCC HRK CAMEL FAM Vara 2013|121|Horeca|0
0|FS1095364|2013-08-07 19:47:24|||||||||||||||||DUNFCMBB||||||||||158|CCC HRK CAMEL FAM Vara 2013|121|Horeca|0
0|FS1095396|2013-08-07 19:50:17||||M|||||||||||||KTAPGD||||||||||158|CCC HRK CAMEL FAM Vara 2013|121|Horeca|0
0|FS1095663|2013-08-07 20:27:06|||||||||||||||||DUNFCMBB||||||||||158|CCC HRK CAMEL FAM Vara 2013|121|Horeca|0
0|FS1095767|2013-08-07 20:51:51|||||||||||||||||WIXSTFX||||||||||158|CCC HRK CAMEL FAM Vara 2013|121|Horeca|0
0|FS1095951|2013-08-07 21:21:48|||||||||||||||||KTNBK||||||||||158|CCC HRK CAMEL FAM Vara 2013|121|Horeca|0
0|FS1095952|2013-08-07 21:22:06|||||||||||||||||DUNBL||||||||||158|CCC HRK CAMEL FAM Vara 2013|121|Horeca|0
0|FS1095957|2013-08-07 21:23:34|||||||||||||||||DAVIDOR||||||||||158|CCC HRK CAMEL FAM Vara 2013|121|Horeca|0
0|FS1096193|2013-08-07 22:19:49|||||||||||||||||KTBLH||||||||||158|CCC HRK CAMEL FAM Vara 2013|121|Horeca|0
0|FS1096194|2013-08-07 22:20:16|||||||||||||||||VIRSPR||||||||||158|CCC HRK CAMEL FAM Vara 2013|121|Horeca|0
0|FS1096195|2013-08-07 22:20:35|||||||||||||||||GLMMNT||||||||||158|CCC HRK CAMEL FAM Vara 2013|121|Horeca|0
0|FS1096210|2013-08-07 22:28:48|||||||||||||||||GLMBL||||||||||158|CCC HRK CAMEL FAM Vara 2013|121|Horeca|0
0|FS1096214|2013-08-07 22:35:06|||||||||||||||||DUNFCBB||||||||||158|CCC HRK CAMEL FAM Vara 2013|121|Horeca|0
0|FS1096216|2013-08-07 22:35:59|||||||||||||||||VOGJSN||||||||||158|CCC HRK CAMEL FAM Vara 2013|121|Horeca|0
0|FS1096235|2013-08-07 22:45:04|||||||||||||||||MBRGLA||||||||||158|CCC HRK CAMEL FAM Vara 2013|121|Horeca|0
0|FS1096270|2013-08-07 23:15:19|||||||||||||||||GLMLIL||||||||||158|CCC HRK CAMEL FAM Vara 2013|121|Horeca|0
0|FS1096271|2013-08-07 23:15:35|||||||||||||||||KTNBK||||||||||158|CCC HRK CAMEL FAM Vara 2013|121|Horeca|0
0|FS1096281|2013-08-07 23:22:11|||||||||||||||||CHSTBLH||||||||||158|CCC HRK CAMEL FAM Vara 2013|121|Horeca|0
0|FS1096283|2013-08-07 23:22:24|||||||||||||||||DUNFCMBB||||||||||158|CCC HRK CAMEL FAM Vara 2013|121|Horeca|0
0|FS1096292|2013-08-07 23:26:16|||||||||||||||||DAVGLS||||||||||158|CCC HRK CAMEL FAM Vara 2013|121|Horeca|0
0|FS1096293|2013-08-07 23:26:17|||||||||||||||||DAVGLS||||||||||158|CCC HRK CAMEL FAM Vara 2013|121|Horeca|0
0|FS1096299|2013-08-07 23:32:40|||||||||||||||||DAVGL||||||||||158|CCC HRK CAMEL FAM Vara 2013|121|Horeca|0
0|FS1096306|2013-08-07 23:35:32|||||||||||||||||GLMMNT||||||||||158|CCC HRK CAMEL FAM Vara 2013|121|Horeca|0
0|FS1096307|2013-08-07 23:35:33|||||||||||||||||GLMMNT||||||||||158|CCC HRK CAMEL FAM Vara 2013|121|Horeca|0
0|FS1096308|2013-08-07 23:35:46|||||||||||||||||PMSSBL||||||||||158|CCC HRK CAMEL FAM Vara 2013|121|Horeca|0
0|FS1098383|2013-08-08 19:12:36|||||||||||||||||PMECAFBL||||||||||158|CCC HRK CAMEL FAM Vara 2013|121|Horeca|0
0|FS1098600|2013-08-08 19:44:36|||||||||||||||||KTAPBK||||||||||158|CCC HRK CAMEL FAM Vara 2013|121|Horeca|0
0|FS1098619|2013-08-08 19:45:52|||||||||||||||||DAVGL||||||||||158|CCC HRK CAMEL FAM Vara 2013|121|Horeca|0
0|FS1098723|2013-08-08 19:58:40||||M|||||||||||||DUNFCMBB||||||||||158|CCC HRK CAMEL FAM Vara 2013|121|Horeca|0
0|FS1098853|2013-08-08 20:14:28|||||||||||||||||KTSV||||||||||158|CCC HRK CAMEL FAM Vara 2013|121|Horeca|0
0|FS1098866|2013-08-08 20:16:16|Popescu|Marian||M|1988-05-26||||||||||||CAFI||||||||||158|CCC HRK CAMEL FAM Vara 2013|121|Horeca|0
0|FS1098981|2013-08-08 20:32:38||||M|||||||||||||DUNFCBB||||||||||158|CCC HRK CAMEL FAM Vara 2013|121|Horeca|0
0|FS1098985|2013-08-08 20:33:12||||F|||||||||||||DUNFCBB||||||||||158|CCC HRK CAMEL FAM Vara 2013|121|Horeca|0
0|FS1098988|2013-08-08 20:33:26||||F|||||||||||||KTNBL||||||||||158|CCC HRK CAMEL FAM Vara 2013|121|Horeca|0
0|FS1099009|2013-08-08 20:37:58|||||||||||||||||VIRSFA||||||||||158|CCC HRK CAMEL FAM Vara 2013|121|Horeca|0
0|FS1099011|2013-08-08 20:38:14|||||||||||||||||PMSSBL||||||||||158|CCC HRK CAMEL FAM Vara 2013|121|Horeca|0
0|FS1099023|2013-08-08 20:39:57|||||||||||||||||KTBLH||||||||||158|CCC HRK CAMEL FAM Vara 2013|121|Horeca|0
0|FS1099273|2013-08-08 21:31:30|||||||||||||||||KTSV||||||||||158|CCC HRK CAMEL FAM Vara 2013|121|Horeca|0
0|FS1099275|2013-08-08 21:32:31|||||||||||||||||DUNFCMBB||||||||||158|CCC HRK CAMEL FAM Vara 2013|121|Horeca|0
0|FS1099277|2013-08-08 21:33:03|||||||||||||||||DAVGL||||||||||158|CCC HRK CAMEL FAM Vara 2013|121|Horeca|0
0|FS1099450|2013-08-08 22:20:30|||||||||||||||||DUNFCMBB||||||||||158|CCC HRK CAMEL FAM Vara 2013|121|Horeca|0
0|FS1099454|2013-08-08 22:21:25|||||||||||||||||MBRRD||||||||||158|CCC HRK CAMEL FAM Vara 2013|121|Horeca|0
0|FS1099456|2013-08-08 22:21:45|||||||||||||||||KTSWITH||||||||||158|CCC HRK CAMEL FAM Vara 2013|121|Horeca|0
0|FS1099464|2013-08-08 22:23:13|||||||||||||||||GLMMNT||||||||||158|CCC HRK CAMEL FAM Vara 2013|121|Horeca|0
0|FS1099525|2013-08-08 22:59:08|||||||||||||||||DUNFCBB||||||||||158|CCC HRK CAMEL FAM Vara 2013|121|Horeca|0
0|FS1099535|2013-08-08 23:01:16|||||||||||||||||GLMMNT||||||||||158|CCC HRK CAMEL FAM Vara 2013|121|Horeca|0
0|FS1110459|2013-08-11 19:26:40|||||||||||||||||DUNFCMBB||||||||||158|CCC HRK CAMEL FAM Vara 2013|121|Horeca|0
0|FS1110476|2013-08-11 19:28:44|||||||||||||||||KTBL||||||||||158|CCC HRK CAMEL FAM Vara 2013|121|Horeca|0
0|FS1110519|2013-08-11 19:36:23|||||||||||||||||DUNFCBB||||||||||158|CCC HRK CAMEL FAM Vara 2013|121|Horeca|0
0|FS1110532|2013-08-11 19:40:09|||||||||||||||||DAVGL||||||||||158|CCC HRK CAMEL FAM Vara 2013|121|Horeca|0
0|FS1110571|2013-08-11 19:49:35|||||||||||||||||KTBLH||||||||||158|CCC HRK CAMEL FAM Vara 2013|121|Horeca|0
0|FS1110597|2013-08-11 19:54:43|||||||||||||||||GLMLIL||||||||||158|CCC HRK CAMEL FAM Vara 2013|121|Horeca|0
0|FS1110600|2013-08-11 19:54:57|||||||||||||||||KTNBK||||||||||158|CCC HRK CAMEL FAM Vara 2013|121|Horeca|0
0|FS1110639|2013-08-11 20:00:41|||||||||||||||||DUNFCMBB||||||||||158|CCC HRK CAMEL FAM Vara 2013|121|Horeca|0
0|FS1110713|2013-08-11 20:13:51|||||||||||||||||VOGLL||||||||||158|CCC HRK CAMEL FAM Vara 2013|121|Horeca|0
0|FS1110714|2013-08-11 20:14:07|||||||||||||||||VOGLL||||||||||158|CCC HRK CAMEL FAM Vara 2013|121|Horeca|0
0|FS1110752|2013-08-11 20:18:47|||||||||||||||||DUNFCBB||||||||||158|CCC HRK CAMEL FAM Vara 2013|121|Horeca|0
0|FS1110757|2013-08-11 20:19:49|||||||||||||||||DAVGL||||||||||158|CCC HRK CAMEL FAM Vara 2013|121|Horeca|0
0|FS1110884|2013-08-11 20:42:26||||F|||||||||||||LMBL||||||||||158|CCC HRK CAMEL FAM Vara 2013|121|Horeca|0
0|FS1110986|2013-08-11 20:59:15|||||||||||||||||DUNFCMBB||||||||||158|CCC HRK CAMEL FAM Vara 2013|121|Horeca|0
0|FS1110989|2013-08-11 20:59:30|||||||||||||||||VOGLL||||||||||158|CCC HRK CAMEL FAM Vara 2013|121|Horeca|0
0|FS1110997|2013-08-11 21:00:01|||||||||||||||||PMSSBL||||||||||158|CCC HRK CAMEL FAM Vara 2013|121|Horeca|0
0|FS1111093|2013-08-11 21:21:11|||||||||||||||||DUNFCBB||||||||||158|CCC HRK CAMEL FAM Vara 2013|121|Horeca|0
0|FS1111122|2013-08-11 21:26:20|||||||||||||||||GLMBL||||||||||158|CCC HRK CAMEL FAM Vara 2013|121|Horeca|0
0|FS1111520|2013-08-11 23:20:07|||||||||||||||||DUNFCMBB||||||||||158|CCC HRK CAMEL FAM Vara 2013|121|Horeca|0
0|FS1111556|2013-08-11 23:33:55|||||||||||||||||DUNFCBB||||||||||158|CCC HRK CAMEL FAM Vara 2013|121|Horeca|0
