0|CS328211|2012-08-22 12:04:54|Dascalu|Tiberiu||M|1988-09-28|Suceava|Suceava|Eternitatii|14|||||0746882455||t.dascalu@yahoo.com|WIBL||Winston Blue (6mg) Pack|Yes|Yes||CT003905|AQUA LAND|Constanta|CTDTCBA52|51|CCC MULTI Aqua 2012|121|Retail|0
0|CS328236|2012-08-22 12:19:12|Ostafi|Alina||F|1992-02-02|Constanta|CONSTANTA|Al lapusneanu|96|||0|0|0729530868||alynutza94@yahoo.com|KTCON||Winston Fresh XSpression (5mg) Pack|Yes|Yes||CT003905|AQUA LAND|Constanta|CTDTCBA52|51|CCC MULTI Aqua 2012|121|Retail|0
0|CS328247|2012-08-22 12:23:57|Florea|Petre||M|1971-10-02|Caras Severin|CARANSEBES|Surianu|1|||||0730345710|||WICL||Winston Classic Pack|Yes|Yes||CT003905|AQUA LAND|Constanta|CTDTCBA52|51|CCC MULTI Aqua 2012|121|Retail|0
0|CS328260|2012-08-22 12:26:22|David|Marinela||F|1984-03-08|Caras Severin|CARANSEBES|Surianu|1|||||0727741494|||KTSV||Winston XStyle Silver (4mg) Pack|Yes|Yes||CT003905|AQUA LAND|Constanta|CTDTCBA52|51|CCC MULTI Aqua 2012|121|Retail|0
0|CS328265|2012-08-22 12:28:32|Steriu |Ionut||M|1981-03-08|Constanta|MANGALIA|Soseaua constantei|28|||||0755151127||steliuionut@yahoo.com|MBRRD||Bricheta 1 Winston|Yes|Yes||CT003905|AQUA LAND|Constanta|CTDTCBA54|51|CCC MULTI Aqua 2012|121|Retail|0
0|CS328268|2012-08-22 12:29:13|Voicila|Mihaela||F|1992-08-03|Constanta|CONSTANTA|Teodor sperantia|23|40|A|1|4|0729620229||mihaelavoicila@yahoo.com|WIXSTFX||Bricheta Winston XST|Yes|Yes||CT003905|AQUA LAND|Constanta|CTDTCBA52|51|CCC MULTI Aqua 2012|121|Retail|0
0|CS328278|2012-08-22 12:31:57|Batranu|Florin||M|1980-02-22|Constanta|Constanta|Avram iancu|10|||0|0|0724298349|||WIBL||Winston Blue (6mg) Pack|Yes|Yes||CT003905|AQUA LAND|Constanta|CTDTCBA52|51|CCC MULTI Aqua 2012|121|Retail|0
0|CS328285|2012-08-22 12:34:33|Ciovei|Cristian||M|1993-03-16|Dolj|Targu jiu|Minerilor|9|||||0768768861||mad_cristian0@yahoo.com|KTBL||Bricheta Winston XST|Yes|Yes||CT003905|AQUA LAND|Constanta|CTDTCBA52|51|CCC MULTI Aqua 2012|121|Retail|0
0|CS328288|2012-08-22 12:36:40|Leciu|Elena||F|1992-03-04|Constanta|CONSTANTA|Cpt. Dobrila eugeniu|21|X6|B|4|39|0728922936||tu_gattitta@yahoo.com|WIXSTBL||Bricheta Winston XST|Yes|Yes||CT003905|AQUA LAND|Constanta|CTDTCBA52|51|CCC MULTI Aqua 2012|121|Retail|0
0|CS328292|2012-08-22 12:38:57|David|Adrian||M|1983-05-19|Caras Severin|RESITA|Surianu|1|||||0724553917|||WIXSTBL||Bricheta Winston XST|Yes|Yes||CT003905|AQUA LAND|Constanta|CTDTCBA52|51|CCC MULTI Aqua 2012|121|Retail|0
0|CS328296|2012-08-22 12:40:09|Enciu|Cosmin||M|1993-01-25|Constanta|CONSTANTA|Baba novac|12|||0|0|0724625693||cosmin.enciu94@yahoo.com|WISSB||Bricheta 1 Winston|Yes|Yes||CT003905|AQUA LAND|Constanta|CTDTCBA52|51|CCC MULTI Aqua 2012|121|Retail|0
0|CS328306|2012-08-22 12:43:52|Suliman|Enghin||M|1986-03-22|Constanta|CONSTANTA|Scarlat|4|||0|0|0766252766|||CABK||Camel Black (6mg) Pack|Yes|Yes||CT003905|AQUA LAND|Constanta|CTDTCBA52|51|CCC MULTI Aqua 2012|121|Retail|0
0|CS328310|2012-08-22 12:47:23|Geara|Cristian||M|1984-04-12|Constanta|CONSTANTA|Sf. Andrei|20|||0|0|0762597027|||WIBLH||Winston 100s Blue (6 mg)  Pack|Yes|Yes||CT003905|AQUA LAND|Constanta|CTDTCBA52|51|CCC MULTI Aqua 2012|121|Retail|0
0|CS328313|2012-08-22 12:49:30|Voinea|Constantin||M|1976-05-25|Caras Severin|Resita|Crizantemei|4|||||0762236263|||WISSS||Winston Super Slims Silver (3mg) Pack|Yes|Yes||CT003905|AQUA LAND|Constanta|CTDTCBA54|51|CCC MULTI Aqua 2012|121|Retail|0
0|CS328316|2012-08-22 12:50:52|Voinea|Angela||F|1970-01-14|Caras Severin|RESITA|Crizantemei|4|||||0762236264|||WISSS||Bricheta Winston XST|Yes|Yes||CT003905|AQUA LAND|Constanta|CTDTCBA54|51|CCC MULTI Aqua 2012|121|Retail|0
0|CS328321|2012-08-22 12:52:13|VoineA|Cristian||M|1992-04-04|Caras Severin|RESITA|Crizantemei|4|||||0762236262|||KTCON||Bricheta Winston XST|Yes|Yes||CT003905|AQUA LAND|Constanta|CTDTCBA54|51|CCC MULTI Aqua 2012|121|Retail|0
0|CS328325|2012-08-22 12:53:29|Elmi|Ener||M|1988-08-17|Constanta|CONSTANTA|Motilor|8a|||0|0|0724918584||ener_the_best@yahoo.com|CABK||Camel Black (6mg) Pack|Yes|Yes||CT003905|AQUA LAND|Constanta|CTDTCBA52|51|CCC MULTI Aqua 2012|121|Retail|0
0|CS328336|2012-08-22 12:56:41|Cojocaru|Aurel||M|1981-05-05|Constanta|CONSTANTA|Violetelor|5|L12|A|1|6|0722963778||ryk24x@yahoo.com|KTCON||Winston Fresh XSpression (5mg) Pack|Yes|Yes||CT003905|AQUA LAND|Constanta|CTDTCBA52|51|CCC MULTI Aqua 2012|121|Retail|0
0|CS328345|2012-08-22 12:59:36|Pascariu|Vasile||M|1987-09-20|Suceava|LITENI|Terasei|29|||||0746713339|||KTBL||Bricheta 1 Camel|Yes|Yes||CT003905|AQUA LAND|Constanta|CTDTCBA52|51|CCC MULTI Aqua 2012|121|Retail|0
0|CS328356|2012-08-22 13:03:24|Prioteasa|Emilian||M|1986-10-15|Constanta|CONSTANTA|Aleea gradinitei|4|||0|0|0727077698||ct86emi@yahoo.com|KTBL||Winston XStyle Blue (6mg) Pack|Yes|Yes||CT003905|AQUA LAND|Constanta|CTDTCBA52|51|CCC MULTI Aqua 2012|121|Retail|0
0|CS328365|2012-08-22 13:07:31|Piron|Nicu||M|1987-12-21|Constanta|CONSTANTA|Artarului|4|||0|0|0720011398|||KTBL6||Winston XStyle Blue (6mg) Pack|Yes|Yes||CT003905|AQUA LAND|Constanta|CTDTCBA52|51|CCC MULTI Aqua 2012|121|Retail|0
0|CS328371|2012-08-22 13:09:37|Cernusca|Ionut||M|1987-01-28|Suceava|Suceava|Gheorghe doja|156|||||0753278319|||KTBL||Camel Black (6mg) Pack|Yes|Yes||CT003905|AQUA LAND|Constanta|CTDTCBA52|51|CCC MULTI Aqua 2012|121|Retail|0
0|CS328434|2012-08-22 13:32:55|Molnav|Georgiana||F|1986-04-29|Prahova|BUSTENI|Cuza voda|15|||||0726000285|||KTBL||Bricheta 1 Camel|Yes|Yes||CT003905|AQUA LAND|Constanta|CTDTCBA54|51|CCC MULTI Aqua 2012|121|Retail|0
0|CS328439|2012-08-22 13:34:29|Morna|Arpii||M|1981-02-15|Prahova|BUSTENI|Cuza voda|15|||||0721580626|||KTBL||Bricheta 1 Camel|Yes|Yes||CT003905|AQUA LAND|Constanta|CTDTCBA54|51|CCC MULTI Aqua 2012|121|Retail|0
0|CS328456|2012-08-22 13:39:35|Rusu|Remus||M|1986-07-04|Iasi|IASI|Arcului|16|||||0746810332||remus_ads@yahoo.com|CAFI||Camel Filters (10mg) Pack|Yes|Yes||CT003905|AQUA LAND|Constanta|CTDTCBA52|51|CCC MULTI Aqua 2012|121|Retail|0
0|CS328462|2012-08-22 13:40:56|Comunoiu|Marcela||F|1972-08-14|Buzau|BUZAU|George bacovia|31|||||0765181379||alex94_08@yahoo.com|KTBL||Winston XStyle Blue (6mg) Pack|Yes|Yes||CT003905|AQUA LAND|Constanta|CTDTCBA54|51|CCC MULTI Aqua 2012|121|Retail|0
0|CS328478|2012-08-22 13:50:10|Berbecel|Constantin||M|1985-08-21|Valcea|Voineasa|I gh. Duca |111|||||0743467838|||KTBL||Bricheta Winston XST|Yes|Yes||CT003905|AQUA LAND|Constanta|CTDTCBA52|51|CCC MULTI Aqua 2012|121|Retail|0
0|CS328486|2012-08-22 13:54:07|Bulache|George||M|1993-03-26|Covasna|INTORSURA BUZAULUI|Brazilir|22|||||0768795968||bulachageorge93@yahoo.com|KTBL||Winston XStyle Silver (4mg) Pack|Yes|Yes||CT003905|AQUA LAND|Constanta|CTDTCBA54|51|CCC MULTI Aqua 2012|121|Retail|0
0|CS328491|2012-08-22 13:55:55|Diaconescu|Ilie||M|1986-02-06|Valcea|VOINEASA|Lotrului|4|||||0743840333|||KTBL||Winston XStyle Blue (6mg) Pack|Yes|Yes||CT003905|AQUA LAND|Constanta|CTDTCBA52|51|CCC MULTI Aqua 2012|121|Retail|0
0|CS328495|2012-08-22 13:58:05|Ursu|Valentin||M|1976-11-29|Timis|FAGET|Batesti|40|||||0729931630|||KTBL||Bricheta Winston XST|Yes|Yes||CT003905|AQUA LAND|Constanta|CTDTCBA52|51|CCC MULTI Aqua 2012|121|Retail|0
0|CS328502|2012-08-22 14:00:11|Muresean|Maria marcela||F|1973-04-28|Cluj|GHERLA|Stejarului|6|||||0740891993||marcelamuresean@yahoo.com|PMSSBL||Winston Super Slims Silver (3mg) Pack|Yes|Yes||CT003905|AQUA LAND|Constanta|CTDTCBA54|51|CCC MULTI Aqua 2012|121|Retail|0
0|CS328507|2012-08-22 14:02:04|Demian|Ionut||M|1986-04-23|Sibiu|GURA RAULUI|Stramta|776|||||0743543422|||WISSB||Bricheta 1 Winston|Yes|Yes||CT003905|AQUA LAND|Constanta|CTDTCBA52|51|CCC MULTI Aqua 2012|121|Retail|0
0|CS328510|2012-08-22 14:02:35|Partale|Madalina||F|1988-03-01|Constanta|CONSTANTA|Potarnichii|2|||||0767514193|||KTBL||Camel Black (6mg) Pack|Yes|Yes||CT003905|AQUA LAND|Constanta|CTDTCBA54|51|CCC MULTI Aqua 2012|121|Retail|0
0|CS328525|2012-08-22 14:10:33|Necsunea|Costel||M|1970-10-02|Dolj|CRAIOVA|Elena farago|30|||||0755137492|||MBRFP||Camel White (4 mg) Pack|Yes|Yes||CT003905|AQUA LAND|Constanta|CTDTCBA54|51|CCC MULTI Aqua 2012|121|Retail|0
0|CS328528|2012-08-22 14:11:54|Carpici|Marcel||M|1972-01-03|Dolj|CRAIOVA|Brestii|28|||||0745818239|||PMSSBL||Camel White (4 mg) Pack|Yes|Yes||CT003905|AQUA LAND|Constanta|CTDTCBA54|51|CCC MULTI Aqua 2012|121|Retail|0
0|CS328531|2012-08-22 14:14:28|Carpici|Viorel||M|1976-03-20|Dolj|CRAIOVA|Emil garleanu|16|||||0743925248|||MBRGLFT||Bricheta Winston XST|Yes|Yes||CT003905|AQUA LAND|Constanta|CTDTCBA54|51|CCC MULTI Aqua 2012|121|Retail|0
0|CS328536|2012-08-22 14:17:34|Gureanu |Adriana||F|1979-08-11|Constanta|CONSTANTA|Eliberarii|10|||||0726870071|||PMSSBL||Winston Super Slims Blue (5mg) Pack|Yes|Yes||CT003905|AQUA LAND|Constanta|CTDTCBA54|51|CCC MULTI Aqua 2012|121|Retail|0
0|CS328554|2012-08-22 14:29:03|Cretu|Adrian||M|1993-05-19|Constanta|CONSTANTA|Amurgului|94|||||0727143888|||WIXSTBL||Bricheta Winston XST|Yes|Yes||CT003905|AQUA LAND|Constanta|CTDTCBA52|51|CCC MULTI Aqua 2012|121|Retail|0
0|CS328555|2012-08-22 14:29:15|Trifaj|Romana||F|1976-02-19|Valcea|RAMNICU VALCEA|Regia maria|12|||||0729836184|||GLMMNT||Bricheta 1 Glamour|Yes|Yes||CT003905|AQUA LAND|Constanta|CTDTCBA54|51|CCC MULTI Aqua 2012|121|Retail|0
0|CS328559|2012-08-22 14:30:48|Chiriac|Florin||M|1990-06-08|Braila|BRAILA|Portului|4|||||0764199606|||WIBL||Bricheta 1 Winston|Yes|Yes||CT003905|AQUA LAND|Constanta|CTDTCBA52|51|CCC MULTI Aqua 2012|121|Retail|0
0|CS328566|2012-08-22 14:34:28|Pop|Andra||F|1991-04-20|Sibiu|CISNADIE|Selimbarului|19|||||0755544490||andrutza_cristy_cis@yahoo.com|KTBL||Winston XStyle Blue (6mg) Pack|Yes|Yes||CT003905|AQUA LAND|Constanta|CTDTCBA54|51|CCC MULTI Aqua 2012|121|Retail|0
0|CS328570|2012-08-22 14:36:44|Constantin|Dumitriu||M|1984-05-21|Tulcea|TULCEA|Metalurgistilor|4|||||0746571844||dimitriut@yahoo.com|WIBLH||Winston 100s Blue (6 mg)  Pack|Yes|Yes||CT003905|AQUA LAND|Constanta|CTDTCBA54|51|CCC MULTI Aqua 2012|121|Retail|0
0|CS328572|2012-08-22 14:37:18|Malacu|Iulian||M|1979-05-26|Constanta|CUMPANA|Ciresica|80|||0|0|0723762490|||CABK||Camel Black (6mg) Pack|Yes|Yes||CT003905|AQUA LAND|Constanta|CTDTCBA52|51|CCC MULTI Aqua 2012|121|Retail|0
0|CS328582|2012-08-22 14:44:00|Grecu|Costel||M|1985-12-11|Galati|GALATI|Capitan|5||||||0236810000||KTBL||Bricheta 1 Camel|Yes|Yes||CT003905|AQUA LAND|Constanta|CTDTCBA52|51|CCC MULTI Aqua 2012|121|Retail|0
0|CS328583|2012-08-22 14:44:45|Pulse|Mihaela romona||F|1984-02-07|Sibiu|CISNADIE|Piata noua|2n||||||0269563611|ramonapulse@yahoo.de|LSRD||Winston XStyle Blue (6mg) Pack|Yes|Yes||CT003905|AQUA LAND|Constanta|CTDTCBA54|51|CCC MULTI Aqua 2012|121|Retail|0
0|CS328590|2012-08-22 14:49:49|Nedelcu|Robert||M|1990-01-03|Constanta|CONSTANTA|Arcasului|7|||||0720605311||nede_andrei@yahoo.com|CABK||Bricheta 1 Camel|Yes|Yes||CT003905|AQUA LAND|Constanta|CTDTCBA54|51|CCC MULTI Aqua 2012|121|Retail|0
0|CS328608|2012-08-22 15:00:57|Maghinici|Constantin||M|1969-05-26|Constanta|CONSTANTA|Ovidiu|1|||||0724173186|||WIBLH||Winston 100s Blue (6 mg)  Pack|Yes|Yes||CT003905|AQUA LAND|Constanta|CTDTCBA54|51|CCC MULTI Aqua 2012|121|Retail|0
0|CS328615|2012-08-22 15:04:18|Rosca|Nicoleta||F|1990-01-23|Galati|GALATI|Bl dunarea|4|||||0740585734|||KTBL||Winston 100s Blue (6 mg)  Pack|Yes|Yes||CT003905|AQUA LAND|Constanta|CTDTCBA54|51|CCC MULTI Aqua 2012|121|Retail|0
0|CS328619|2012-08-22 15:06:01|Rata|Stela||F|1976-06-06|Constanta|CONSTANTA|Tepes voda|27a|||0|0|0733838040|||WISSS||Winston Super Slims Silver (3mg) Pack|Yes|Yes||CT003905|AQUA LAND|Constanta|CTDTCBA54|51|CCC MULTI Aqua 2012|121|Retail|0
0|CS328629|2012-08-22 15:13:46|Bugu|George||M|1993-12-02|Constanta|AGIGEA|Avram iancu|10|||0|0|0785461846||g3o_bug@yahoo.com|CABK||Camel Black (6mg) Pack|Yes|Yes||CT003905|AQUA LAND|Constanta|CTDTCBA52|51|CCC MULTI Aqua 2012|121|Retail|0
0|CS328642|2012-08-22 15:26:50|Stuprulovici|Raluca||F|1981-06-04|Galati|GALATI|1decembrie 1918|1|||||0754397173|||PMBL||Bricheta 1 Winston|Yes|Yes||CT003905|AQUA LAND|Constanta|CTDTCBA52|51|CCC MULTI Aqua 2012|121|Retail|0
0|CS328645|2012-08-22 15:27:41|Balusa|Nicoleta||F|1992-05-24|Braila|BRAILA|Focsani|63|||||0745265389|||KTNBK||Glamour Lilac (5mg) Pack|Yes|Yes||CT003905|AQUA LAND|Constanta|CTDTCBA54|51|CCC MULTI Aqua 2012|121|Retail|0
0|CS328647|2012-08-22 15:29:07|Bogdan|Steluta||F|1975-05-08|Braila|BRAILA|Focsani|63|||||0745265389|||KTNBK||Glamour Lilac (5mg) Pack|Yes|Yes||CT003905|AQUA LAND|Constanta|CTDTCBA54|51|CCC MULTI Aqua 2012|121|Retail|0
0|CS328656|2012-08-22 15:32:04|Bogdan|Emanuel||M|1990-06-30|Braila|BRAILA|Focsani|63|||||0745265389|||KTBL||Bricheta 1 Glamour|Yes|Yes||CT003905|AQUA LAND|Constanta|CTDTCBA54|51|CCC MULTI Aqua 2012|121|Retail|0
0|CS328658|2012-08-22 15:33:38|Baluta|Sorin||M|1989-09-01|Braila|BRAILA|Focsani|63|||||0745265389|||PMSSBL||Bricheta 1 Glamour|Yes|Yes||CT003905|AQUA LAND|Constanta|CTDTCBA54|51|CCC MULTI Aqua 2012|121|Retail|0
0|CS328661|2012-08-22 15:36:09|Modruz|Elena||F|1986-03-25|Galati|GALATI|Constantin|12|||||0741525432|||VOGABP||Glamour PB Pink FT (5mg) Pack|Yes|Yes||CT003905|AQUA LAND|Constanta|CTDTCBA54|51|CCC MULTI Aqua 2012|121|Retail|0
0|CS328663|2012-08-22 15:37:00|Scarlat|Virgil||M|1975-11-27|Olt|SLATINA|Independentei|2|||||0764403215|||WIBLH||Winston 100s Blue (6 mg)  Pack|Yes|Yes||CT003905|AQUA LAND|Constanta|CTDTCBA52|51|CCC MULTI Aqua 2012|121|Retail|0
0|CS328664|2012-08-22 15:37:28|Nanaila|Viorel||M|1987-03-14|Galati|GALATI|Constantin|12|||||0741525432|||VIRSFA||Bricheta 1 Glamour|Yes|Yes||CT003905|AQUA LAND|Constanta|CTDTCBA54|51|CCC MULTI Aqua 2012|121|Retail|0
0|CS328671|2012-08-22 15:41:43|Bogdan|Daniel||M|1973-06-18|Braila|BRAILA|Focsani|63|||||0745579058|||WIXSTFX||Winston Fresh XSpression (5mg) Pack|Yes|Yes||CT003905|AQUA LAND|Constanta|CTDTCBA52|51|CCC MULTI Aqua 2012|121|Retail|0
0|CS328674|2012-08-22 15:43:54|Suliman|Iulia||F|1985-10-31|Constanta|CONSTANTA|Medgidia|4|||0|0|0763914127|||KTBL||Camel Black (6mg) Pack|Yes|Yes||CT003905|AQUA LAND|Constanta|CTDTCBA54|51|CCC MULTI Aqua 2012|121|Retail|0
0|CS328679|2012-08-22 15:47:31|Zaharia|Alexandru||M|1990-08-02|Constanta|CONSTANTA|Ciusmelei|14|||0|0|0762797182|||KTBL||Camel Black (6mg) Pack|Yes|Yes||CT003905|AQUA LAND|Constanta|CTDTCBA54|51|CCC MULTI Aqua 2012|121|Retail|0
0|CS328681|2012-08-22 15:48:32|Cojocaru|Aurelian||M|1989-05-22|Bucuresti|SECTOR 6|Dreptati|10|||0|0|0722573792||no_spray_today@yahoo.com|KTBL||Camel Black (6mg) Pack|Yes|Yes||CT003905|AQUA LAND|Constanta|CTDTCBA54|51|CCC MULTI Aqua 2012|121|Retail|0
0|CS328688|2012-08-22 15:51:16|Andrei|Daniel||M|1990-04-12|Constanta|CONSTANTA|Randunelelor|14|||||0752690785|||WIXSTBL||Winston XStyle Blue (6mg) Pack|Yes|Yes||CT003905|AQUA LAND|Constanta|CTDTCBA52|51|CCC MULTI Aqua 2012|121|Retail|0
0|CS328689|2012-08-22 15:51:19|Francu|Catalin||M|1984-01-01|Braila|BRAILA|Liberarii|2|||||0766345567|||KTBL||Bricheta 1 Camel|Yes|Yes||CT003905|AQUA LAND|Constanta|CTDTCBA54|51|CCC MULTI Aqua 2012|121|Retail|0
0|CS328690|2012-08-22 15:52:33|Bica|Alexandru||M|1990-01-01|Constanta|CONSTANTA|Aleea garofitei|8|||||0735140538|||WISSS||Winston Super Slims Silver (3mg) Pack|Yes|Yes||CT003905|AQUA LAND|Constanta|CTDTCBA54|51|CCC MULTI Aqua 2012|121|Retail|0
0|CS328693|2012-08-22 15:54:25|Alistar|Constantin||M|1992-05-23|Constanta|Constanta|Cismelei|21|||0|0|0721373649|||KTBL||Winston XStyle Blue (6mg) Pack|Yes|Yes||CT003905|AQUA LAND|Constanta|CTDTCBA54|51|CCC MULTI Aqua 2012|121|Retail|0
0|CS328698|2012-08-22 15:57:46|Stanila|Andrei||M|1993-02-02|Covasna|INTORSURA BUZAULUI|Mihai viteazu|56|||||0752408956|||LMBL||Bricheta Winston XST|Yes|Yes||CT003905|AQUA LAND|Constanta|CTDTCBA54|51|CCC MULTI Aqua 2012|121|Retail|0
0|CS328708|2012-08-22 16:00:29|State|Ionut||M|1990-11-14|Braila|BRAILA|Calarasilor|226|||0|0|0762370917||istate90@gmail.com|LSSV||Bricheta 1 Camel|Yes|Yes||CT003905|AQUA LAND|Constanta|CTDTCBA54|51|CCC MULTI Aqua 2012|121|Retail|0
0|CS328723|2012-08-22 16:04:37|Maghiliciu|Didina||F|1970-09-30|Constanta|CONSTANTA|Ovidiu|1|||||0724173186|||WIBLH||Winston 100s Blue (6 mg)  Pack|Yes|Yes||CT003905|AQUA LAND|Constanta|CTDTCBA54|51|CCC MULTI Aqua 2012|121|Retail|0
0|CS328730|2012-08-22 16:06:05|Samoila|Camelia||F|1989-03-27|Bacau|BACAU|Mioritei|15|||||0741982804|||WISV||Winston Silver (4 mg) Pack|Yes|Yes||CT003905|AQUA LAND|Constanta|CTDTCBA52|51|CCC MULTI Aqua 2012|121|Retail|0
0|CS328735|2012-08-22 16:07:46|Popescu|Doriana||F|1987-03-01|Botosani|BOTOSANI|Tineretului|3|||||0766456788|||WIBLH||Winston 100s Blue (6 mg)  Pack|Yes|Yes||CT003905|AQUA LAND|Constanta|CTDTCBA54|51|CCC MULTI Aqua 2012|121|Retail|0
0|CS328751|2012-08-22 16:11:41|Scarlat|Mariana||F|1976-07-30|Olt|Olt|Independentei|2|||||0764403215|||WICLH||Winston 100s Clasic (10 mg)  Pack|Yes|Yes||CT003905|AQUA LAND|Constanta|CTDTCBA52|51|CCC MULTI Aqua 2012|121|Retail|0
0|CS328782|2012-08-22 16:18:48|Pantes |Iulia||F|1986-03-29|Constanta|BANEASA|Badea cartar|17|||||0766362886||iulian_pantes@yahoo.com|VOGABP||Glamour Lilac (5mg) Pack|Yes|Yes||CT003905|AQUA LAND|Constanta|CTDTCBA54|51|CCC MULTI Aqua 2012|121|Retail|0
0|CS328788|2012-08-22 16:20:23|Baraghin|Marius||M|1991-09-29|Constanta|CONSTANTA|Vaii|2|||0|0|0727529881||marius_200869@yahoo.com|KTBL||Winston XStyle Blue (6mg) Pack|Yes|Yes||CT003905|AQUA LAND|Constanta|CTDTCBA52|51|CCC MULTI Aqua 2012|121|Retail|0
0|CS328793|2012-08-22 16:21:42|Stoica|Sabina||F|1989-11-29|Bucuresti|Sector 3|Independentei|40|0|0|0|0|0732325432|||WIXSTBL||Bricheta Winston XST|Yes|Yes||CT003905|AQUA LAND|Constanta|CTDTCBA52|51|CCC MULTI Aqua 2012|121|Retail|0
0|CS328804|2012-08-22 16:23:25|Nan|Ionut||M|1990-05-06|Braila|BRAILA|Principala|2|||0|0|0751016923|||DUNBL||Bricheta 1 Camel|Yes|Yes||CT003905|AQUA LAND|Constanta|CTDTCBA54|51|CCC MULTI Aqua 2012|121|Retail|0
0|CS328812|2012-08-22 16:24:41|Stefan|Cristian||M|1987-11-23|Tulcea|Tulcea|Aleea cristina|5|5|A|0|1|0743531409||stefan_crs@yahoo.com|KTSV||Camel White (4 mg) Pack|Yes|Yes||CT003905|AQUA LAND|Constanta|CTDTCBA52|51|CCC MULTI Aqua 2012|121|Retail|0
0|CS328829|2012-08-22 16:29:58|Stanica|Florin||M|1991-08-08|Giurgiu|GIURGIU|Daciei|1|31|B|3|27|0784495127||florinjob21@yahoo.com|CABK||Camel Black (6mg) Pack|Yes|Yes||CT003905|AQUA LAND|Constanta|CTDTCBA54|51|CCC MULTI Aqua 2012|121|Retail|0
0|CS328856|2012-08-22 16:35:56|Muresan|Vitgil||M|1966-02-28|Cluj|CLUJ NAPOCA|Rotnei|39|||||0746137778|||WISSS||Winston Super Slims Silver (3mg) Pack|Yes|Yes||CT003905|AQUA LAND|Constanta|CTDTCBA52|51|CCC MULTI Aqua 2012|121|Retail|0
0|CS328878|2012-08-22 16:41:35|Racoviteanu|Florin||M|1987-03-08|Bucuresti|SECTOR 3|Buhus|1|||||0760572500|||CAFI||Bricheta 1 Camel|Yes|Yes||CT003905|AQUA LAND|Constanta|CTDTCBA52|51|CCC MULTI Aqua 2012|121|Retail|0
0|CS328881|2012-08-22 16:42:51|Rotaru|Mariana||F|1967-02-07|Constanta|VALU LUI TRAIAN|Scolii|11a|||0|0|0730906199|||WICLH||Bricheta 1 Winston|Yes|Yes||CT003905|AQUA LAND|Constanta|CTDTCBA52|51|CCC MULTI Aqua 2012|121|Retail|0
0|CS328905|2012-08-22 16:48:31|Harnagea|Gabriel||M|1968-11-25|Vaslui|HUSI|Corni|12|||||0763992966|||WIBL||Bricheta 1 Winston|Yes|Yes||CT003905|AQUA LAND|Constanta|CTDTCBA52|51|CCC MULTI Aqua 2012|121|Retail|0
0|CS328911|2012-08-22 16:49:31|Ivascu|Claudiu||F|1974-09-03|Bucuresti|2|Soseaua pantelimon|10|||||0722988400|||WISSB||Winston 100s Clasic (10 mg)  Pack|Yes|Yes||CT003905|AQUA LAND|Constanta|CTDTCBA54|51|CCC MULTI Aqua 2012|121|Retail|0
0|CS328912|2012-08-22 16:50:07|Harnagea|Manuela||F|1978-05-23|Vaslui|HUSI|Corni|12|||||0763992966|||WIXSTBL||Bricheta Winston XST|Yes|Yes||CT003905|AQUA LAND|Constanta|CTDTCBA52|51|CCC MULTI Aqua 2012|121|Retail|0
0|CS328918|2012-08-22 16:51:03|Mocanu|Rodica||F|1984-12-23|Constanta|CONSTANTA|Lapusneanu|177|||||0726447828|||DUNGL||Bricheta 1 Camel|Yes|Yes||CT003905|AQUA LAND|Constanta|CTDTCBA54|51|CCC MULTI Aqua 2012|121|Retail|0
0|CS328930|2012-08-22 16:52:44|Rahau|Constantin||M|1974-01-31|Constanta|CONSTANTA|Calarasi|44|||||0737413463|||WIXSTBL||Winston XStyle Blue (6mg) Pack|Yes|Yes||CT003905|AQUA LAND|Constanta|CTDTCBA54|51|CCC MULTI Aqua 2012|121|Retail|0
0|CS328931|2012-08-22 16:52:48|Gramosteanu|Adrian||M|1984-01-20|Constanta|CONSTANTA|I gh duca|81|||||0721415170|||WIXSTBL||Winston XStyle Blue (6mg) Pack|Yes|Yes||CT003905|AQUA LAND|Constanta|CTDTCBA52|51|CCC MULTI Aqua 2012|121|Retail|0
0|CS328941|2012-08-22 16:54:46|Erascu|Andrei||M|1993-09-30|Caras Severin|CARASOVA|Ardealului|0|||||0728539877|||WIBLH||Winston 100s Blue (6 mg)  Pack|Yes|Yes||CT003905|AQUA LAND|Constanta|CTDTCBA52|51|CCC MULTI Aqua 2012|121|Retail|0
0|CS328960|2012-08-22 16:57:41|Craciun|Laurentiu||M|1984-06-20|Galati|GALATI|Nae 3|3|||||0236452546|||KTBL||Winston Blue (6mg) Pack|Yes|Yes||CT003905|AQUA LAND|Constanta|CTDTCBA54|51|CCC MULTI Aqua 2012|121|Retail|0
0|CS328966|2012-08-22 16:59:17|Craciun |Daniela||F|1980-02-07|Galati|GALATI|Nae|3|||||0736452546|||WICLH||Bricheta 1 Winston|Yes|Yes||CT003905|AQUA LAND|Constanta|CTDTCBA54|51|CCC MULTI Aqua 2012|121|Retail|0
0|CS328968|2012-08-22 16:59:19|Popescu|Cosmin||M|1992-03-11|Constanta|CONSTANTA|Timonei|14|||||0768887822|||WIBL||Bricheta 1 Winston|Yes|Yes||CT003905|AQUA LAND|Constanta|CTDTCBA52|51|CCC MULTI Aqua 2012|121|Retail|0
0|CS328995|2012-08-22 17:02:36|Gavrila|Alexandru||M|1989-09-12|Constanta|CONSTANTA|Gabesti|1|||||0765778900|||WICL||Bricheta 1 Winston|Yes|Yes||CT003905|AQUA LAND|Constanta|CTDTCBA52|51|CCC MULTI Aqua 2012|121|Retail|0
0|CS329021|2012-08-22 17:06:21|Boat|Zoltan||M|1993-10-19|Constanta|Sica buzaului|Principala|287|||||0762755614||viioll.lent@yahoo.com|MBRBI||Bricheta 1 Winston|Yes|Yes||CT003905|AQUA LAND|Constanta|CTDTCBA54|51|CCC MULTI Aqua 2012|121|Retail|0
0|CS329022|2012-08-22 17:06:32|Serban|Alex||M|1986-10-22|Constanta|CONSTANTA|Petriei|5|||||0727567888|||WIBL||Bricheta 1 Winston|Yes|Yes||CT003905|AQUA LAND|Constanta|CTDTCBA52|51|CCC MULTI Aqua 2012|121|Retail|0
0|CS329031|2012-08-22 17:07:34|Harta|Daniel||M|1992-02-20|Timis|TIMISOARA|Martin |5|||||0766788919|||WIBL||Bricheta 1 Winston|Yes|Yes||CT003905|AQUA LAND|Constanta|CTDTCBA54|51|CCC MULTI Aqua 2012|121|Retail|0
0|CS331254|2012-08-23 12:14:28|Dragut|Angela||F|1976-01-22|Sibiu|SIBIU|Urnisorului|56|||||0740904831|||KTBL||Winston XStyle Blue (6mg) Pack|Yes|Yes||CT003905|AQUA LAND|Constanta|CTDTCBA52|51|CCC MULTI Aqua 2012|121|Retail|0
0|CS331257|2012-08-23 12:16:10|Rogojan|Daniel||M|1975-06-26|Sibiu|SIBIU|Scarlatului|56|||||0742079383|||PMBL||Bricheta Winston XST|Yes|Yes||CT003905|AQUA LAND|Constanta|CTDTCBA52|51|CCC MULTI Aqua 2012|121|Retail|0
0|CS331258|2012-08-23 12:16:41|Beidaut|Virgil||M|1991-02-08|Constanta|CONSTANTA|Poporului|11|||||0721521546|||PMBL||Winston 100s Blue (6 mg)  Pack|Yes|Yes||CT003905|AQUA LAND|Constanta|CTDTCBA54|51|CCC MULTI Aqua 2012|121|Retail|0
0|CS331264|2012-08-23 12:19:29|Bozga|Alina||F|1992-09-27|Timis|TIMISOARA|Frantza lisst|3|||||0723764957||alinutajustforyou@yahoo.com|PMBL||Bricheta 1 Winston|Yes|Yes||CT003905|AQUA LAND|Constanta|CTDTCBA54|51|CCC MULTI Aqua 2012|121|Retail|0
0|CS331272|2012-08-23 12:23:10|Elmi|Ener||M|1988-08-17|Constanta|CONSTANTA|Motilor|8a|||0|0|0724918584||ener_the_best@yahoo.com|WIXSTFX||Winston Fresh XSpression (5mg) Pack|Yes|Yes||CT003905|AQUA LAND|Constanta|CTDTCBA52|51|CCC MULTI Aqua 2012|121|Retail|0
0|CS331281|2012-08-23 12:26:25|Geara|Cristian||M|1984-04-12|Constanta|CONSTANTA|Sf. Andrei|20|||0|0|0762597027|||WIBL||Winston Blue (6mg) Pack|Yes|Yes||CT003905|AQUA LAND|Constanta|CTDTCBA52|51|CCC MULTI Aqua 2012|121|Retail|0
0|CS331288|2012-08-23 12:28:44|Craioveanu|Andra||F|1971-10-20|Bucuresti|4|Studiului|5|||||0730026387|||PARAB||Bricheta 1 Winston|Yes|Yes||CT003905|AQUA LAND|Constanta|CTDTCBA54|51|CCC MULTI Aqua 2012|121|Retail|0
0|CS331300|2012-08-23 12:33:43|Lamba|Daniel||M|1992-01-28|Constanta|CONSTANTA|Ion ratiu|70|||||0737521354|||KTBL||Winston XStyle Blue (6mg) Pack|Yes|Yes||CT003905|AQUA LAND|Constanta|CTDTCBA52|51|CCC MULTI Aqua 2012|121|Retail|0
0|CS331308|2012-08-23 12:37:37|Cernica|Vali||M|1992-06-22|Constanta|Constanta|Unirii|108|1|E|2|82|0727577855|||KTH||Winston 100s Blue (6 mg)  Pack|Yes|Yes||CT003905|AQUA LAND|Constanta|CTDTCBA54|51|CCC MULTI Aqua 2012|121|Retail|0
0|CS331325|2012-08-23 12:42:25|Piron|Nicu||M|1987-12-21|Constanta|CONSTANTA|Artarului|4|||0|0|0720011398|||KTBL||Winston XStyle Blue (6mg) Pack|Yes|Yes||CT003905|AQUA LAND|Constanta|CTDTCBA52|51|CCC MULTI Aqua 2012|121|Retail|0
0|CS331346|2012-08-23 12:47:52|Cojocaru|Aurel||M|1981-05-05|Constanta|CONSTANTA|Violetelor|5|L12|A|1|6|0722963778||ryk24x@yahoo.com|CABK||Camel Black (6mg) Pack|Yes|Yes||CT003905|AQUA LAND|Constanta|CTDTCBA52|51|CCC MULTI Aqua 2012|121|Retail|0
0|CS331384|2012-08-23 12:58:38|Radulescu|Ionel||M|1987-08-10|Timis|TIMISOARA|Franteilescu|3|||||0725420366|||WIBL||Winston Blue (6mg) Pack|Yes|Yes||CT003905|AQUA LAND|Constanta|CTDTCBA52|51|CCC MULTI Aqua 2012|121|Retail|0
0|CS331392|2012-08-23 13:00:41|Batranu|Florin||M|1980-02-22|Constanta|Constanta|Avram iancu|10|||0|0|0724298349|||WIBL||Winston Blue (6mg) Pack|Yes|Yes||CT003905|AQUA LAND|Constanta|CTDTCBA52|51|CCC MULTI Aqua 2012|121|Retail|0
0|CS331413|2012-08-23 13:06:55|Minta|Cristina||F|1992-12-14|Constanta|CONSTANTA|Razboieni|77|||0|0|0720859652||crissu4@yahoo.com|KTH||Camel Filters (10mg) Pack|Yes|Yes||CT003905|AQUA LAND|Constanta|CTDTCBA52|51|CCC MULTI Aqua 2012|121|Retail|0
0|CS331426|2012-08-23 13:08:55|Ghitiu|George||M|1986-01-01|Constanta|CONSTANTA|Cabanei|5|||||0760188028|||KTBL||Camel Black (6mg) Pack|Yes|Yes||CT003905|AQUA LAND|Constanta|CTDTCBA54|51|CCC MULTI Aqua 2012|121|Retail|0
0|CS331451|2012-08-23 13:17:59|Suliman|Iulia||F|1985-10-31|Constanta|CONSTANTA|Medgidia|4|||0|0|0763914127|||KTBL||Camel Black (6mg) Pack|Yes|Yes||CT003905|AQUA LAND|Constanta|CTDTCBA54|51|CCC MULTI Aqua 2012|121|Retail|0
0|CS331470|2012-08-23 13:23:56|Bujor|Florin||M|1988-03-31|Arad|GHIOROC|Ecaterina varga|401|||||0727741075|||CAFI||Bricheta 1 Camel|Yes|Yes||CT003905|AQUA LAND|Constanta|CTDTCBA52|51|CCC MULTI Aqua 2012|121|Retail|0
0|CS331487|2012-08-23 13:29:19|Ionita|Adriana||F|1985-07-10|Ialomita|SLOBOZIA|Matei basarab|1|||||0721501534|||KTBL||Bricheta 1 Camel|Yes|Yes||CT003905|AQUA LAND|Constanta|CTDTCBA54|51|CCC MULTI Aqua 2012|121|Retail|0
0|CS331496|2012-08-23 13:31:50|Basarab|Mircea||M|1989-03-04|Bihor|BOGEI|Poporului|4|||||0788564454|||KTBL||Winston XStyle Blue (6mg) Pack|Yes|Yes||CT003905|AQUA LAND|Constanta|CTDTCBA54|51|CCC MULTI Aqua 2012|121|Retail|0
0|CS331500|2012-08-23 13:32:46|Cojocaru|Aurelian||M|1989-05-22|Bucuresti|SECTOR 6|Dreptati|10|||0|0|0722573792||no_spray_today@yahoo.com|KTCON||Winston Fresh XSpression (5mg) Pack|Yes|Yes||CT003905|AQUA LAND|Constanta|CTDTCBA54|51|CCC MULTI Aqua 2012|121|Retail|0
0|CS331504|2012-08-23 13:34:24|Bebu|Liliana||F|1984-03-30|Constanta|INDEPENDENTA|Principala|23|||0|0|0751087342|||LMBL||Camel Black (6mg) Pack|Yes|Yes||CT003905|AQUA LAND|Constanta|CTDTCBA54|51|CCC MULTI Aqua 2012|121|Retail|0
0|CS331519|2012-08-23 13:40:32|Lois|Cosmin||M|1980-08-31|Constanta|CONSTANTA|Badea cartan|10|||||0727658549|||CABK||Camel Black (6mg) Pack|Yes|Yes||CT003905|AQUA LAND|Constanta|CTDTCBA52|51|CCC MULTI Aqua 2012|121|Retail|0
0|CS331527|2012-08-23 13:43:00|Uzila|Sna||F|1962-09-20|Constanta|CONSTANTA|Lilei|8|||||0762435535|||WISSS||Winston Super Slims Silver (3mg) Pack|Yes|Yes||CT003905|AQUA LAND|Constanta|CTDTCBA52|51|CCC MULTI Aqua 2012|121|Retail|0
0|CS331562|2012-08-23 13:53:46|Sandru|Monica||F|1975-06-08|Mehedinti|DROBETA TURNU SEVERIN|Iuliu maniu|32|21|2|0|2|0723535686||smonica75@yahoo.com|WISSS||Winston Super Slims Blue (5mg) Pack|Yes|Yes||CT003905|AQUA LAND|Constanta|CTDTCBA54|51|CCC MULTI Aqua 2012|121|Retail|0
0|CS331569|2012-08-23 13:56:02|Sandru|Gabriel||M|1977-11-15|Mehedinti|DROBETA TURNU SEVERIN|Iuliu mariu|72|||||0721236121|||WIBL||Winston Blue (6mg) Pack|Yes|Yes||CT003905|AQUA LAND|Constanta|CTDTCBA54|51|CCC MULTI Aqua 2012|121|Retail|0
0|CS331576|2012-08-23 13:58:02|Seandru|Elena||F|1954-05-30|Mehedinti|DRAGHESTI|Independentei|53||||||0231402492||PMSSBL||Winston Super Slims Blue (5mg) Pack|Yes|Yes||CT003905|AQUA LAND|Constanta|CTDTCBA54|51|CCC MULTI Aqua 2012|121|Retail|0
0|CS331590|2012-08-23 14:04:10|Popa|Mihaela||F|1981-02-01|Galati|Galati|Principala|1|||||0754849888|||PMBL||Bricheta 1 Winston|Yes|Yes||CT003905|AQUA LAND|Constanta|CTDTCBA54|51|CCC MULTI Aqua 2012|121|Retail|0
0|CS331596|2012-08-23 14:05:50|Popa|Gheorghe||M|1975-02-19|Galati|Galati|Principala|1|||||0741969319|||DAVGLSS||Bricheta 1 Winston|Yes|Yes||CT003905|AQUA LAND|Constanta|CTDTCBA54|51|CCC MULTI Aqua 2012|121|Retail|0
0|CS331599|2012-08-23 14:07:47|Baraghin|Marius||M|1992-09-29|Constanta|CONSTANTA|Baien|2|||0|0|0727529881|||KTBL||Winston XStyle Blue (6mg) Pack|Yes|Yes||CT003905|AQUA LAND|Constanta|CTDTCBA54|51|CCC MULTI Aqua 2012|121|Retail|0
0|CS331612|2012-08-23 14:11:48|Saban|Givan||M|1977-04-21|Constanta|CONSTANTA|Luminisului|4|||0|0|0743556789|||WIBL||Umbrela Winston|Yes|Yes||CT003905|AQUA LAND|Constanta|CTDTCBA52|51|CCC MULTI Aqua 2012|121|Retail|0
0|CS331632|2012-08-23 14:19:03|Suliman|Enghin||M|1986-03-22|Constanta|CONSTANTA|Scarlat|4|||0|0|0766252766|||CABK||Camel Black (6mg) Pack|Yes|Yes||CT003905|AQUA LAND|Constanta|CTDTCBA52|51|CCC MULTI Aqua 2012|121|Retail|0
0|CS331636|2012-08-23 14:20:26|Balaceanu|Georgel||M|1986-04-23|Constanta|CONSTANTA|Egalitatii|10|||||0769368920|||KTBL||Bricheta Winston XST|Yes|Yes||CT003905|AQUA LAND|Constanta|CTDTCBA54|51|CCC MULTI Aqua 2012|121|Retail|0
0|CS331653|2012-08-23 14:25:49|Bodo|Cristian||M|1992-07-20|Constanta|CONSTANTA|Regretei|7|||0|0|0737360020|||KTBL||Winston XStyle Blue (6mg) Pack|Yes|Yes||CT003905|AQUA LAND|Constanta|CTDTCBA54|51|CCC MULTI Aqua 2012|121|Retail|0
0|CS331672|2012-08-23 14:40:21|Asan|Sevin||F|1977-09-28|Constanta|CONSTANTA|Grivitei|56|||||0764530430|||WIBLH||Winston 100s Blue (6 mg)  Pack|Yes|Yes||CT003905|AQUA LAND|Constanta|CTDTCBA52|51|CCC MULTI Aqua 2012|121|Retail|0
0|CS331697|2012-08-23 14:52:04|Enciu|Cosmin||M|1993-01-25|Constanta|CONSTANTA|Baba novac|12|||0|0|0724625693||cosmin.enciu94@yahoo.com|WISV||Winston Silver (4 mg) Pack|Yes|Yes||CT003905|AQUA LAND|Constanta|CTDTCBA52|51|CCC MULTI Aqua 2012|121|Retail|0
0|CS331706|2012-08-23 14:55:56|Ahmad|Asan||M|1977-10-21|Iasi|Iasi|Bucium|36|||||0755334567|||WIXSTSV||Bricheta Winston XST|Yes|Yes||CT003905|AQUA LAND|Constanta|CTDTCBA52|51|CCC MULTI Aqua 2012|121|Retail|0
0|CS331710|2012-08-23 14:56:24|Caluseriu|Liliana||F|1972-03-29|Mehedinti|DROBETA TURNU SEVERIN|Orly|73|||||0727875378|||PMBL||Winston Blue (6mg) Pack|Yes|Yes||CT003905|AQUA LAND|Constanta|CTDTCBA54|51|CCC MULTI Aqua 2012|121|Retail|0
0|CS331730|2012-08-23 15:05:11|Sauan|Ioana||F|1986-11-24|Cluj|CLUJ NAPOCA|Nicolae titulescu|165|||||0744309656|||WIXSTSV||Bricheta Winston XST|Yes|Yes||CT003905|AQUA LAND|Constanta|CTDTCBA52|51|CCC MULTI Aqua 2012|121|Retail|0
0|CS331738|2012-08-23 15:08:21|Pantes |Iulia||F|1986-03-29|Constanta|BANEASA|Badea cartar|17|||0|0|0766362886||iulian_pantes@yahoo.com|VOGDV||Glamour Azure (3mg) Pack|Yes|Yes||CT003905|AQUA LAND|Constanta|CTDTCBA54|51|CCC MULTI Aqua 2012|121|Retail|0
0|CS331739|2012-08-23 15:08:42|Mihai|Andreea||F|1989-05-13|Constanta|Constanta|Crinului|98|||0|0|0735616663|||GLMMNT||Glamour Menthol (5mg) Pack|Yes|Yes||CT003905|AQUA LAND|Constanta|CTDTCBA52|51|CCC MULTI Aqua 2012|121|Retail|0
0|CS331748|2012-08-23 15:12:02|Gari|Nicoleta||F|1990-11-10|Constanta|CONSTANTA|Hasdeu|121|||||0737113124|||VOGLL||Geanta Glamour|Yes|Yes||CT003905|AQUA LAND|Constanta|CTDTCBA52|51|CCC MULTI Aqua 2012|121|Retail|0
0|CS331781|2012-08-23 15:26:09|Diaconu|Razvan||M|1991-03-22|Neamt|FARCASA|Principala|1|||||0763457282|||WIBL||Bricheta 1 Winston|Yes|Yes||CT003905|AQUA LAND|Constanta|CTDTCBA52|51|CCC MULTI Aqua 2012|121|Retail|0
0|CS331787|2012-08-23 15:28:28|Vlaicu|Andrei||M|1987-04-25|Bucuresti|SECTOR 4|Alexandru obregia|25|||||0766696040|||WIBL||Bricheta 1 Winston|Yes|Yes||CT003905|AQUA LAND|Constanta|CTDTCBA52|51|CCC MULTI Aqua 2012|121|Retail|0
0|CS331804|2012-08-23 15:35:48|Mezin|Florin||M|1977-06-06|Salaj|Smiu silvaniei|Argesului|27|||||0761660777|||WICLH||Winston 100s Clasic (10 mg)  Pack|Yes|Yes||CT003905|AQUA LAND|Constanta|CTDTCBA54|51|CCC MULTI Aqua 2012|121|Retail|0
0|CS331806|2012-08-23 15:37:47|Gavriliu|Eugen||M|1977-09-28|Constanta|EFORIE NORD|Magnoliei|17|||||0768163523|||PMBL||Winston Blue (6mg) Pack|Yes|Yes||CT003905|AQUA LAND|Constanta|CTDTCBA54|51|CCC MULTI Aqua 2012|121|Retail|0
0|CS331817|2012-08-23 15:46:55|Rascanu|Florin||M|1985-01-19|Constanta|CONSTANTA|Fulgerului|11|||||0727532817|||MBRBI||Winston XStyle Blue (6mg) Pack|Yes|Yes||CT003905|AQUA LAND|Constanta|CTDTCBA54|51|CCC MULTI Aqua 2012|121|Retail|0
0|CS331835|2012-08-23 15:54:29|Alistar|Constantin||M|1992-05-23|Constanta|Constanta|Cismelei|21|||0|0|0721373649|||KTBL||Camel Black (6mg) Pack|Yes|Yes||CT003905|AQUA LAND|Constanta|CTDTCBA54|51|CCC MULTI Aqua 2012|121|Retail|0
0|CS331910|2012-08-23 16:12:43|Dogaru|Constantin||M|1970-04-25|Bucuresti|3|Dodo paladi|3|||||0722511292|||PMBL||Winston Silver (4 mg) Pack|Yes|Yes||CT003905|AQUA LAND|Constanta|CTDTCBA54|51|CCC MULTI Aqua 2012|121|Retail|0
0|CS331947|2012-08-23 16:19:47|Pricop|Mihai||M|1976-03-02|Iasi|Iasi|Tanta|18|||||0730660585|||KTBL||Bricheta 1 Camel|Yes|Yes||CT003905|AQUA LAND|Constanta|CTDTCBA54|51|CCC MULTI Aqua 2012|121|Retail|0
0|CS332003|2012-08-23 16:27:27|Stanica|Florin||M|1984-01-01|Constanta|CONSTANTA|Fulgerului121|121|||||0766546790|||WIBL||Umbrela Winston|Yes|Yes||CT003905|AQUA LAND|Constanta|CTDTCBA54|51|CCC MULTI Aqua 2012|121|Retail|0
0|CS332062|2012-08-23 16:38:17|Rotaru|Mariana||F|1967-02-07|Constanta|VALU LUI TRAIAN|Scolii|11a|||0|0|0730906199|||WIXSTBL||Bricheta Winston XST|Yes|Yes||CT003905|AQUA LAND|Constanta|CTDTCBA52|51|CCC MULTI Aqua 2012|121|Retail|0
0|CS332070|2012-08-23 16:40:14|Padureanu|Andreea||F|1991-08-21|Dolj|CRAIOVA|Marasesti|1|||||0736245540||yo_ap1@yahoo.com|KTBL||Bricheta 1 Camel|Yes|Yes||CT003905|AQUA LAND|Constanta|CTDTCBA54|51|CCC MULTI Aqua 2012|121|Retail|0
0|CS332076|2012-08-23 16:41:49|Popa|Vicentiu||M|1978-02-26|Constanta|CONSTANTA|Eroilor|10|||||0766330320|||WICLH||Winston 100s Clasic (10 mg)  Pack|Yes|Yes||CT003905|AQUA LAND|Constanta|CTDTCBA52|51|CCC MULTI Aqua 2012|121|Retail|0
0|CS332097|2012-08-23 16:45:08|Voicu|Camelia||F|1979-05-19|Bucuresti|5|Popnita|12|||||0727316138|||GLMMNT||Bricheta 1 Glamour|Yes|Yes||CT003905|AQUA LAND|Constanta|CTDTCBA54|51|CCC MULTI Aqua 2012|121|Retail|0
0|CS3003220|2012-08-24 12:04:56|Batranu|Florin||M|1980-02-22|Constanta|Constanta|Avram iancu|10|||0|0|0724298349|||WIBL||Winston Blue (6mg) Pack|Yes|Yes||CT003905|AQUA LAND|Constanta|CTDTCBA52|51|CCC MULTI Aqua 2012|121|Retail|0
0|CS3003247|2012-08-24 12:14:33|Ciuca|Ana||F|1989-09-12|Braila|BRAILA|Calea brailei|9|||||0758607897|||KTCON||Bricheta Winston XST|Yes|Yes||CT003905|AQUA LAND|Constanta|CTDTCBA52|51|CCC MULTI Aqua 2012|121|Retail|0
0|CS3003250|2012-08-24 12:15:58|Remus|Ionut||M|1987-08-18|Braila|BRAILA|Invatatorilor|9|||||0758607897|||KTBL||Bricheta 1 Camel|Yes|Yes||CT003905|AQUA LAND|Constanta|CTDTCBA52|51|CCC MULTI Aqua 2012|121|Retail|0
0|CS3003262|2012-08-24 12:18:34|Andrei|Alexandrel||M|1983-07-09|Braila|BRAILA|Debresin|45|||||0743892980|||VOGM||Bricheta Winston XST|Yes|Yes||CT003905|AQUA LAND|Constanta|CTDTCBA52|51|CCC MULTI Aqua 2012|121|Retail|0
0|CS3003267|2012-08-24 12:19:58|Balaceanu|Georgel||M|1986-04-23|Constanta|CONSTANTA|Egalitatii|10|||0|0|0769368920|||KTCON||Winston Fresh XSpression (5mg) Pack|Yes|Yes||CT003905|AQUA LAND|Constanta|CTDTCBA52|51|CCC MULTI Aqua 2012|121|Retail|0
0|CS3003271|2012-08-24 12:21:28|Ablachin|Senol||M|1991-03-08|Constanta|CONSTANTA|Amurgului|101|||0|0|0765438799|||WIBLH||Bricheta 1 Winston|Yes|Yes||CT003905|AQUA LAND|Constanta|CTDTCBA52|51|CCC MULTI Aqua 2012|121|Retail|0
0|CS3003278|2012-08-24 12:22:52|Cernica|Vali||M|1992-06-22|Constanta|Constanta|Unirii|108|1|E|2|82|0727577855|||WIBLH||Winston 100s Blue (6 mg)  Pack|Yes|Yes||CT003905|AQUA LAND|Constanta|CTDTCBA52|51|CCC MULTI Aqua 2012|121|Retail|0
0|CS3003287|2012-08-24 12:25:22|Prioteasa|Emilian||M|1986-10-15|Constanta|CONSTANTA|Aleea gradinitei|4|||0|0|0727077698||ct86emi@yahoo.com|PMBL||Winston XStyle Blue (6mg) Pack|Yes|Yes||CT003905|AQUA LAND|Constanta|CTDTCBA52|51|CCC MULTI Aqua 2012|121|Retail|0
0|CS3003290|2012-08-24 12:25:54|Dobrin|Daniel||M|1975-01-26|Ialomita|SLOBOZIA|Razoare|46|||||0744441887||daniel.dobrin75@yahoo.com|MBRBI||Winston Fresh XSpression (5mg) Pack|Yes|Yes||CT003905|AQUA LAND|Constanta|CTDTCBA54|51|CCC MULTI Aqua 2012|121|Retail|0
0|CS3003298|2012-08-24 12:28:27|Elmi|Ener||M|1988-08-17|Constanta|CONSTANTA|Motilor|8a|||0|0|0724918584||ener_the_best@yahoo.com|WIXSTFX||Winston Fresh XSpression (5mg) Pack|Yes|Yes||CT003905|AQUA LAND|Constanta|CTDTCBA52|51|CCC MULTI Aqua 2012|121|Retail|0
0|CS3003349|2012-08-24 12:39:34|Costisor|Adina||F|1969-06-10|Cluj|TURDA|Motilor|19||||||0726729347||MBRRDH||Winston 100s Blue (6 mg)  Pack|Yes|Yes||CT003905|AQUA LAND|Constanta|CTDTCBA54|51|CCC MULTI Aqua 2012|121|Retail|0
0|CS3003354|2012-08-24 12:41:39|Costisor|Mircea||M|1970-06-30|Cluj|TURDA|Macilor|10|||||0726729347|||MBRGLH||Winston 100s Blue (6 mg)  Pack|Yes|Yes||CT003905|AQUA LAND|Constanta|CTDTCBA54|51|CCC MULTI Aqua 2012|121|Retail|0
0|CS3003360|2012-08-24 12:43:27|Cojocaru|Aurel||M|1981-05-05|Constanta|CONSTANTA|Violetelor|5|L12|A|1|6|0722963778||ryk24x@yahoo.com|CABK||Camel Black (6mg) Pack|Yes|Yes||CT003905|AQUA LAND|Constanta|CTDTCBA52|51|CCC MULTI Aqua 2012|121|Retail|0
0|CS3003362|2012-08-24 12:43:41|Sucaciu|Anamaria||F|1974-06-20|Tulcea|CALarasi|Principala|176||||||0264356122||DAVCL||Bricheta 1 Winston|Yes|Yes||CT003905|AQUA LAND|Constanta|CTDTCBA54|51|CCC MULTI Aqua 2012|121|Retail|0
0|CS3003370|2012-08-24 12:45:56|Szekely|Stefan||M|1968-08-26|Cluj|TURDA|Lacramioarelor|3||||24|0744516197|||WICLH||Winston 100s Clasic (10 mg)  Pack|Yes|Yes||CT003905|AQUA LAND|Constanta|CTDTCBA54|51|CCC MULTI Aqua 2012|121|Retail|0
0|CS3003378|2012-08-24 12:47:53|Garbu|Maria||F|1970-06-10|Cluj|TURDA|Florilor|8a|||||0744516197|||PMSSBL||Winston 100s Clasic (10 mg)  Pack|Yes|Yes||CT003905|AQUA LAND|Constanta|CTDTCBA54|51|CCC MULTI Aqua 2012|121|Retail|0
0|CS3003379|2012-08-24 12:48:05|Suliman|Enghin||M|1986-03-22|Constanta|CONSTANTA|Scarlat|4|||0|0|0766252766|||CABK||Camel Black (6mg) Pack|Yes|Yes||CT003905|AQUA LAND|Constanta|CTDTCBA52|51|CCC MULTI Aqua 2012|121|Retail|0
0|CS3003383|2012-08-24 12:49:12|Szekely|Carmen||F|1973-06-01|Cluj|TURDA|Lacramiarelor3|3|||||0740116246|||LSRD||Bricheta 1 Winston|Yes|Yes||CT003905|AQUA LAND|Constanta|CTDTCBA54|51|CCC MULTI Aqua 2012|121|Retail|0
0|CS3003393|2012-08-24 12:51:46|Ghitiu|George||M|1986-01-01|Constanta|CONSTANTA|Cabanei|5|||0|0|0760188028|||KTBL||Camel Black (6mg) Pack|Yes|Yes||CT003905|AQUA LAND|Constanta|CTDTCBA54|51|CCC MULTI Aqua 2012|121|Retail|0
0|CS3003399|2012-08-24 12:53:01|Covac|Iuliana||F|1968-09-17|Vaslui|BARLAD|Replubicii|277|||||0762666496|||PMSSBL||Winston Super Slims Menthol (5mg) Pack|Yes|Yes||CT003905|AQUA LAND|Constanta|CTDTCBA54|51|CCC MULTI Aqua 2012|121|Retail|0
0|CS3003407|2012-08-24 12:55:43|Popa|Costel||M|1972-03-11|Galati|Tecuci|George cosbun|10|||||0723235459|||KTCON||Umbrela Winston|Yes|Yes||CT003905|AQUA LAND|Constanta|CTDTCBA54|51|CCC MULTI Aqua 2012|121|Retail|0
0|CS3003408|2012-08-24 12:57:47|Ghitiu|Mihaela||F|1989-11-10|Constanta|CONSTANTA|Cabanei|5|||||0728434687|||VOGBL||Bricheta 1 Winston|Yes|Yes||CT003905|AQUA LAND|Constanta|CTDTCBA54|51|CCC MULTI Aqua 2012|121|Retail|0
0|CS3003418|2012-08-24 12:59:09|Amdrose|Alexandru||M|1988-03-21|Iasi|PASCANI|Decembrie22|46|||||0747861992|||KTBL||Winston 100s Blue (6 mg)  Pack|Yes|Yes||CT003905|AQUA LAND|Constanta|CTDTCBA54|51|CCC MULTI Aqua 2012|121|Retail|0
0|CS3003422|2012-08-24 13:00:31|Piron|Nicu||M|1987-12-21|Constanta|CONSTANTA|Artarului|4|||0|0|0720011398|||KTBL||Winston XStyle Blue (6mg) Pack|Yes|Yes||CT003905|AQUA LAND|Constanta|CTDTCBA52|51|CCC MULTI Aqua 2012|121|Retail|0
0|CS3003437|2012-08-24 13:02:53|Bogdiu|Razvan||M|1989-05-01|Hunedoara|PETRILA|Minei|1|22a|1|3|14|0765056506|||WICL||Umbrela Winston|Yes|Yes||CT003905|AQUA LAND|Constanta|CTDTCBA54|51|CCC MULTI Aqua 2012|121|Retail|0
0|CS3003492|2012-08-24 13:13:43|Stoica|Sabina||F|1991-06-26|Constanta|CONSTANTA|Soveja|54|||0|0|0721742728|||CAFI||Camel Filters (10mg) Pack|Yes|Yes||CT003905|AQUA LAND|Constanta|CTDTCBA52|51|CCC MULTI Aqua 2012|121|Retail|0
0|CS3003505|2012-08-24 13:16:57|Zarnescu|Adriana||F|1961-04-22|Dolj|CRAIOVA|Fratii|7|||||0722835901|||CABK||Camel Black (6mg) Pack|Yes|Yes||CT003905|AQUA LAND|Constanta|CTDTCBA54|51|CCC MULTI Aqua 2012|121|Retail|0
0|CS3003526|2012-08-24 13:20:26|Szollosi|Szabolcs||M|1981-04-13|Harghita|ODORHEIU SECUIESC|Olarilor|3|||||0740161996|||WIBLH||Winston 100s Blue (6 mg)  Pack|Yes|Yes||CT003905|AQUA LAND|Constanta|CTDTCBA52|51|CCC MULTI Aqua 2012|121|Retail|0
0|CS3003537|2012-08-24 13:23:05|Suliman|Iulia||F|1985-10-31|Constanta|CONSTANTA|Medgidia|4|||0|0|0763914127|||KTBL||Camel Black (6mg) Pack|Yes|Yes||CT003905|AQUA LAND|Constanta|CTDTCBA54|51|CCC MULTI Aqua 2012|121|Retail|0
0|CS3003543|2012-08-24 13:24:20|Suliman|Erol||M|1975-06-29|Constanta|CASTELU|Nisipari|33|||0|0|0784584713|||DUNBL||Bricheta Winston XST|Yes|Yes||CT003905|AQUA LAND|Constanta|CTDTCBA54|51|CCC MULTI Aqua 2012|121|Retail|0
0|CS3003550|2012-08-24 13:25:42|Suliman|Ghilmas||M|1977-04-16|Constanta|MEDGIDIA|Carla |4a|||||0760920355|||LSSV||Bricheta 1 Camel|Yes|Yes||CT003905|AQUA LAND|Constanta|CTDTCBA54|51|CCC MULTI Aqua 2012|121|Retail|0
0|CS3003564|2012-08-24 13:28:38|Tudorache|Constantin||M|1980-05-14|Dolj|CRAIOVA|Trajan lalescu|12|G15|1|1|8|0727717756||tudoracherobertmihaita@yahoo.com|KTCON||Winston Fresh XSpression (5mg) Pack|Yes|Yes||CT003905|AQUA LAND|Constanta|CTDTCBA54|51|CCC MULTI Aqua 2012|121|Retail|0
0|CS3003572|2012-08-24 13:31:16|Ibadula|Dunya||F|1990-06-06|Constanta|CONSTANTA|Delfinariu|46|||0|0|0767360526|||DUNBL||Winston Blue (6mg) Pack|Yes|Yes||CT003905|AQUA LAND|Constanta|CTDTCBA54|51|CCC MULTI Aqua 2012|121|Retail|0
0|CS3003601|2012-08-24 13:38:39|Tudor|Catalin||M|1987-09-18|Constanta|Constanta|Avram zenovia|10|||0|0|0721451962||djn3gry@yahoo.com|WIXSTFX||Bricheta Winston XST|Yes|Yes||CT003905|AQUA LAND|Constanta|CTDTCBA52|51|CCC MULTI Aqua 2012|121|Retail|0
0|CS3003617|2012-08-24 13:41:39|Mateusa|Cristina||F|1967-02-19|Bucuresti|4|Sergentul|56|||||0722302757|||CAFI||Camel Filters (10mg) Pack|Yes|Yes||CT003905|AQUA LAND|Constanta|CTDTCBA54|51|CCC MULTI Aqua 2012|121|Retail|0
0|CS3003623|2012-08-24 13:43:06|Gheorghe|Mateuta roxana||F|1976-09-30|Bucuresti|4|Aleea moldovita|6|||||0723336128|||CAFI||Camel Filters (10mg) Pack|Yes|Yes||CT003905|AQUA LAND|Constanta|CTDTCBA54|51|CCC MULTI Aqua 2012|121|Retail|0
0|CS3003629|2012-08-24 13:44:13|Ciobanu|Mihai||M|1964-03-02|Ilfov|VOLUNTARI|Bujorului|12|||||0722326584|||LMBL||Bricheta 1 Camel|Yes|Yes||CT003905|AQUA LAND|Constanta|CTDTCBA54|51|CCC MULTI Aqua 2012|121|Retail|0
0|CS3003637|2012-08-24 13:45:46|Porumboiul |Dan||M|1974-09-18|Bucuresti|5|Dumbrava|10|||||0752218137|||CABK||Bricheta 1 Camel|Yes|Yes||CT003905|AQUA LAND|Constanta|CTDTCBA54|51|CCC MULTI Aqua 2012|121|Retail|0
0|CS3003644|2012-08-24 13:46:55|Radulescu|Dan||M|1989-01-01|Bucuresti|5|Sf maria|15|||||0744515159|||DAVGL||Bricheta 1 Camel|Yes|Yes||CT003905|AQUA LAND|Constanta|CTDTCBA54|51|CCC MULTI Aqua 2012|121|Retail|0
0|CS3003646|2012-08-24 13:48:16|Zicas|Liana||F|1964-03-19|Bucuresti|1|Dionisie|74|||||0722238037|||KTBL||Bricheta 1 Camel|Yes|Yes||CT003905|AQUA LAND|Constanta|CTDTCBA54|51|CCC MULTI Aqua 2012|121|Retail|0
0|CS3003658|2012-08-24 13:51:32|Radu|Marius||M|1983-05-25|Dolj|CRAIOVA|Vantului|9|||||0766306012||radu.mari0@yahoo.com|PMECBL||Winston 100s Blue (6 mg)  Pack|Yes|Yes||CT003905|AQUA LAND|Constanta|CTDTCBA54|51|CCC MULTI Aqua 2012|121|Retail|0
0|CS3003672|2012-08-24 13:55:26|Popescu|Marian||M|1971-06-13|Braila|Braila|Titu maiorescu|5|||0|0|0746418108|||KTCON||Winston Fresh XSpression (5mg) Pack|Yes|Yes||CT003905|AQUA LAND|Constanta|CTDTCBA54|51|CCC MULTI Aqua 2012|121|Retail|0
0|CS3003679|2012-08-24 13:56:39|Alistar|Constantin||M|1992-05-23|Constanta|Constanta|Cismelei|21|||0|0|0721373649|||PMBL||Winston Fresh XSpression (5mg) Pack|Yes|Yes||CT003905|AQUA LAND|Constanta|CTDTCBA54|51|CCC MULTI Aqua 2012|121|Retail|0
0|CS3003718|2012-08-24 14:09:59|Batranu|Nicoleta||F|1983-09-15|Constanta|Constanta|Mircea cel batran|148|E2|B|5|62|0724139239||nicoletabfl@yahoo.com|WIBL||Winston Blue (6mg) Pack|Yes|Yes||CT003905|AQUA LAND|Constanta|CTDTCBA52|51|CCC MULTI Aqua 2012|121|Retail|0
0|CS3003733|2012-08-24 14:14:01|Raiciu|Florentina||F|1985-07-05|Constanta|CONSTANTA|Hasdeu|24|||||0726272482|||GLMBL||Glamour Azure (3mg) Pack|Yes|Yes||CT003905|AQUA LAND|Constanta|CTDTCBA52|51|CCC MULTI Aqua 2012|121|Retail|0
0|CS3003737|2012-08-24 14:16:16|Zaharia|Alexandru||M|1990-04-02|Constanta|CONSTANTA|Libertatii|67|||0|0|0762797182||mister_alexandru90@yahoo.com|CABK||Camel Black (6mg) Pack|Yes|Yes||CT003905|AQUA LAND|Constanta|CTDTCBA54|51|CCC MULTI Aqua 2012|121|Retail|0
0|CS3003741|2012-08-24 14:17:44|Constantin |Narchita||F|1979-01-13|Constanta|CONSTANTA|Aurel vlaicu|35|||||0745583307|||GLMLIL||Glamour Lilac (5mg) Pack|Yes|Yes||CT003905|AQUA LAND|Constanta|CTDTCBA54|51|CCC MULTI Aqua 2012|121|Retail|0
0|CS3003752|2012-08-24 14:21:40|Sitar|Luiza||F|1980-07-28|Prahova|PRAJANI|Rezervoarelor|16|||||0765777897|||GLMMNT||Bricheta 1 Glamour|Yes|Yes||CT003905|AQUA LAND|Constanta|CTDTCBA52|51|CCC MULTI Aqua 2012|121|Retail|0
0|CS3003755|2012-08-24 14:25:29|Geara|Cristian||M|1984-04-12|Constanta|CONSTANTA|Sf. Andrei|20|||0|0|0762597027|||WIBLH||Winston 100s Blue (6 mg)  Pack|Yes|Yes||CT003905|AQUA LAND|Constanta|CTDTCBA52|51|CCC MULTI Aqua 2012|121|Retail|0
0|CS3003759|2012-08-24 14:27:36|Seuleanu|Daniela||F|1992-10-10|Constanta|CONSTANTA|Grivitei|23|||0|0|0727457066||preetydana@yahoo.com|CABK||Camel Black (6mg) Pack|Yes|Yes||CT003905|AQUA LAND|Constanta|CTDTCBA52|51|CCC MULTI Aqua 2012|121|Retail|0
0|CS3003761|2012-08-24 14:28:50|Fieraru|Sorin||M|1992-04-29|Ialomita|SLOBOZIA|Ianculescu|102|||||0727130394|||CABK||Camel Black (6mg) Pack|Yes|Yes||CT003905|AQUA LAND|Constanta|CTDTCBA54|51|CCC MULTI Aqua 2012|121|Retail|0
0|CS3003766|2012-08-24 14:31:37|Cezar|Dan||M|1993-05-29|Constanta|CONSTANTA|Bulevardul 1decembrie 1918|102|||4|16|0720425639|||KTSV||Bricheta Winston XST|Yes|Yes||CT003905|AQUA LAND|Constanta|CTDTCBA52|51|CCC MULTI Aqua 2012|121|Retail|0
0|CS3003774|2012-08-24 14:35:16|Memedi|Varol||M|1990-01-12|Constanta|CONSTANTA|Niculescu|8|||||0720135151|||KTBL||Winston XStyle Blue (6mg) Pack|Yes|Yes||CT003905|AQUA LAND|Constanta|CTDTCBA52|51|CCC MULTI Aqua 2012|121|Retail|0
0|CS3003779|2012-08-24 14:36:20|Constantin|Daniela||F|1970-01-29|Vaslui|BADEANA|Traian vuia|38|||||0740192728|||WISSB||Winston Super Slims Blue (5mg) Pack|Yes|Yes||CT003905|AQUA LAND|Constanta|CTDTCBA54|51|CCC MULTI Aqua 2012|121|Retail|0
0|CS3003788|2012-08-24 14:40:00|Gavrila|Andrei||M|1993-06-28|Constanta|Constanta|Caraiman|2|||0|0|0724812939||gaga_steaua2007@yahoo.com|WIXSTFX||Winston Fresh XSpression (5mg) Pack|Yes|Yes||CT003905|AQUA LAND|Constanta|CTDTCBA52|51|CCC MULTI Aqua 2012|121|Retail|0
0|CS3003794|2012-08-24 14:43:24|Doboranu|Adina||F|1987-02-03|Constanta|CONSTANTA|Caraiman|2|||||0724812939|||WISSB||Winston Super Slims Blue (5mg) Pack|Yes|Yes||CT003905|AQUA LAND|Constanta|CTDTCBA52|51|CCC MULTI Aqua 2012|121|Retail|0
0|CS3003804|2012-08-24 14:46:29|Olaru|Cristian||M|1976-12-09|Brasov|Brasov|Mimozei|4|73|B|1|25||0234287250||WICLH||Winston 100s Clasic (10 mg)  Pack|Yes|Yes||CT003905|AQUA LAND|Constanta|CTDTCBA52|51|CCC MULTI Aqua 2012|121|Retail|0
0|CS3003811|2012-08-24 14:48:54|Avram |Marius||M|1976-01-09|Constanta|CONSTANTA|Hasdeu|34||||||0241287250||WICLH||Winston 100s Clasic (10 mg)  Pack|Yes|Yes||CT003905|AQUA LAND|Constanta|CTDTCBA52|51|CCC MULTI Aqua 2012|121|Retail|0
0|CS3003813|2012-08-24 14:49:08|Tudor|Isacescu||M|1980-05-05|Bacau|BACAU|Carpati|16||||||0234213215||KTBL||Bricheta Winston XST|Yes|Yes||CT003905|AQUA LAND|Constanta|CTDTCBA54|51|CCC MULTI Aqua 2012|121|Retail|0
0|CS3003838|2012-08-24 15:02:36|Bodo|Cristian||M|1992-07-20|Constanta|CONSTANTA|Regretei|7|||0|0|0737360020|||KTBL||Winston XStyle Blue (6mg) Pack|Yes|Yes||CT003905|AQUA LAND|Constanta|CTDTCBA54|51|CCC MULTI Aqua 2012|121|Retail|0
0|CS3003858|2012-08-24 15:09:40|Giembaselu|Magda||F|1988-08-16|Vrancea|BORDESTII DE JOS|Matei basarab|9|||||0721955889||magda_simona@yahoo.com|WISSB||Winston Super Slims Blue (5mg) Pack|Yes|Yes||CT003905|AQUA LAND|Constanta|CTDTCBA54|51|CCC MULTI Aqua 2012|121|Retail|0
0|CS3003863|2012-08-24 15:11:19|Sofian|Ana||F|1971-02-02|Suceava|Suceava|Marasesti|48|||||0746302106|||WICLH||Winston 100s Clasic (10 mg)  Pack|Yes|Yes||CT003905|AQUA LAND|Constanta|CTDTCBA52|51|CCC MULTI Aqua 2012|121|Retail|0
0|CS3003870|2012-08-24 15:13:32|Bodo|Alexandru||M|1968-03-01|Constanta|CONSTANTA|Topolog|6|||||0737360020|||PMBL||Winston Blue (6mg) Pack|Yes|Yes||CT003905|AQUA LAND|Constanta|CTDTCBA54|51|CCC MULTI Aqua 2012|121|Retail|0
0|CS3003872|2012-08-24 15:14:52|Bodo|Luminita||F|1969-12-16|Constanta|CONACU|Topolog|6|||||0737736002|||MOBL||Winston Blue (6mg) Pack|Yes|Yes||CT003905|AQUA LAND|Constanta|CTDTCBA54|51|CCC MULTI Aqua 2012|121|Retail|0
0|CS3003875|2012-08-24 15:15:36|Rotaru|Mihaela||F|1991-02-12|Iasi|Iasi|Codrescu|32|C12||3|84|0746434424||mihaaa_mi@yahoo.com|WICLH||Bricheta 1 Winston|Yes|Yes||CT003905|AQUA LAND|Constanta|CTDTCBA52|51|CCC MULTI Aqua 2012|121|Retail|0
0|CS3003880|2012-08-24 15:17:30|Sofian|Catalin||M|1966-02-13|Suceava|SUCEAVA|Marasesti|48|||||0746202106|||WIXSTFX||Bricheta Winston XST|Yes|Yes||CT003905|AQUA LAND|Constanta|CTDTCBA52|51|CCC MULTI Aqua 2012|121|Retail|0
0|CS3003886|2012-08-24 15:20:13|Mustafa|Ailin||M|1990-04-10|Constanta|CONSTANTA|Poporului|74|||||0765282026|||KTSV||Winston XStyle Silver (4mg) Pack|Yes|Yes||CT003905|AQUA LAND|Constanta|CTDTCBA52|51|CCC MULTI Aqua 2012|121|Retail|0
0|CS3003899|2012-08-24 15:25:43|Guset|Adrian||M|1975-01-12|Hunedoara|PETROSANI|Progresului|4|||||0742184474|||PMBL||Bricheta 1 Winston|Yes|Yes||CT003905|AQUA LAND|Constanta|CTDTCBA54|51|CCC MULTI Aqua 2012|121|Retail|0
0|CS3003900|2012-08-24 15:25:44|Clim|Alexandra||F|1991-11-13|Constanta|CONSTANTA|Democratiei|51|||||0769993043|||KTBL||Bricheta 1 Camel|Yes|Yes||CT003905|AQUA LAND|Constanta|CTDTCBA52|51|CCC MULTI Aqua 2012|121|Retail|0
0|CS3003908|2012-08-24 15:27:20|Enache|Marius||M|1993-08-21|Constanta|CONSTANTA|Pescarilor|33|Fz9|A|5|23|0727524209||stfcta@yahoo.com|CAFI||Camel Filters (10mg) Pack|Yes|Yes||CT003905|AQUA LAND|Constanta|CTDTCBA54|51|CCC MULTI Aqua 2012|121|Retail|0
0|CS3003914|2012-08-24 15:31:05|Ghinea|Florian||M|1982-06-04|Suceava|GURA HUMORULUI|Cetatii|6|||||0749800716|||WIBLH||Bricheta 1 Winston|Yes|Yes||CT003905|AQUA LAND|Constanta|CTDTCBA54|51|CCC MULTI Aqua 2012|121|Retail|0
0|CS3003920|2012-08-24 15:32:48|Rata|Stela||F|1976-06-06|Constanta|CONSTANTA|Tepes voda|27a|||0|0|0733838040|||WISSS||Winston Super Slims Blue (5mg) Pack|Yes|Yes||CT003905|AQUA LAND|Constanta|CTDTCBA54|51|CCC MULTI Aqua 2012|121|Retail|0
0|CS3003929|2012-08-24 15:35:50|Zarnescu|Viorel||M|1958-09-20|Dolj|CRAIOVA|Fratii golesti|7|||||0722253752|||WICL||Umbrela Winston|Yes|Yes||CT003905|AQUA LAND|Constanta|CTDTCBA52|51|CCC MULTI Aqua 2012|121|Retail|0
0|CS3003943|2012-08-24 15:41:28|Sever|Postovei||M|1975-11-22|Constanta|CONACU|Soveja|110|||||0752177881|||MBRGLFT||Bricheta 1 Camel|Yes|Yes||CT003905|AQUA LAND|Constanta|CTDTCBA54|51|CCC MULTI Aqua 2012|121|Retail|0
0|CS3003953|2012-08-24 15:44:12|Popa|Daniel||M|1970-03-29|Constanta|CONSTANTA|Tulcei|5|||||0726940270|||KTSV||Bricheta 1 Camel|Yes|Yes||CT003905|AQUA LAND|Constanta|CTDTCBA54|51|CCC MULTI Aqua 2012|121|Retail|0
0|CS3003962|2012-08-24 15:48:26|Gheorgita|Mihai||M|1974-02-24|Galati|UMBRARESTI|Principala|719|||||0745509692|||KTBL||Bricheta 1 Camel|Yes|Yes||CT003905|AQUA LAND|Constanta|CTDTCBA54|51|CCC MULTI Aqua 2012|121|Retail|0
0|CS3003970|2012-08-24 15:53:01|Hasan|Sevil||F|1977-08-28|Constanta|CONSTANTA|Grivitei56|56|||0|0|0764530630|||GLMLIL||Glamour Lilac (5mg) Pack|Yes|Yes||CT003905|AQUA LAND|Constanta|CTDTCBA54|51|CCC MULTI Aqua 2012|121|Retail|0
0|CS3004008|2012-08-24 16:01:38|Huca|Leonard||M|1963-04-13|Timis|BUZAD|Grivitei|2|||||0743110863|||KTBL||Bricheta 1 Winston|Yes|Yes||CT003905|AQUA LAND|Constanta|CTDTCBA54|51|CCC MULTI Aqua 2012|121|Retail|0
0|CS3004025|2012-08-24 16:04:16|Maghinici|Constantin||M|1969-05-26|Constanta|CONSTANTA|Ovidiu|1|||0|0|0724173186|||WIBLH||Winston Blue (6mg) Pack|Yes|Yes||CT003905|AQUA LAND|Constanta|CTDTCBA54|51|CCC MULTI Aqua 2012|121|Retail|0
0|CS3004031|2012-08-24 16:05:06|State|Ionut||M|1990-04-16|Braila|BRAILA|Principala|25|2|2|0|0|0762370917|||MOBL||Winston Blue (6mg) Pack|Yes|Yes||CT003905|AQUA LAND|Constanta|CTDTCBA54|51|CCC MULTI Aqua 2012|121|Retail|0
0|CS3004096|2012-08-24 16:17:16|Malacu|Iulian||M|1979-05-26|Constanta|CUMPANA|Ciresica|80|||0|0|0723762490|||WIBL||Winston Blue (6mg) Pack|Yes|Yes||CT003905|AQUA LAND|Constanta|CTDTCBA52|51|CCC MULTI Aqua 2012|121|Retail|0
0|CS3004130|2012-08-24 16:26:39|Craiu|Mircea||M|1986-09-01|Constanta|CONSTANTA|Mangaliei|58|||0|0|0765431299|||CAFI||Camel Filters (10mg) Pack|Yes|Yes||CT003905|AQUA LAND|Constanta|CTDTCBA52|51|CCC MULTI Aqua 2012|121|Retail|0
0|CS3004160|2012-08-24 16:34:08|Mihai|Andreea||F|1993-07-13|Constanta|CONSTANTA|Hortensiei|10|||||0730175457|||KTCON||Winston Fresh XSpression (5mg) Pack|Yes|Yes||CT003905|AQUA LAND|Constanta|CTDTCBA52|51|CCC MULTI Aqua 2012|121|Retail|0
0|CS3004232|2012-08-24 16:47:04|Ciufu|Cosmin||M|1985-04-18|Constanta|CONSTANTA|Dezdrobirii|123|||||0763361129|||WISSB||Bricheta 1 Winston|Yes|Yes||CT003905|AQUA LAND|Constanta|CTDTCBA52|51|CCC MULTI Aqua 2012|121|Retail|0
0|CS3008844|2012-08-25 12:22:06|Batranu|Florin||M|1980-02-22|Constanta|Constanta|Avram iancu|10|||0|0|0724298349|||WIBL||Winston Blue (6mg) Pack|Yes|Yes||CT003905|AQUA LAND|Constanta|CTDTCBA52|51|CCC MULTI Aqua 2012|121|Retail|0
0|CS3008877|2012-08-25 12:29:48|Prioteasa|Emilian||M|1986-10-15|Constanta|CONSTANTA|Aleea gradinitei|4|||0|0|0727077698||ct86emi@yahoo.com|KTBL||Winston XStyle Blue (6mg) Pack|Yes|Yes||CT003905|AQUA LAND|Constanta|CTDTCBA52|51|CCC MULTI Aqua 2012|121|Retail|0
0|CS3008890|2012-08-25 12:32:17|Geara|Cristian||M|1984-04-12|Constanta|CONSTANTA|Sf. Andrei|20|||0|0|0762597027|||WIBL||Winston Blue (6mg) Pack|Yes|Yes||CT003905|AQUA LAND|Constanta|CTDTCBA52|51|CCC MULTI Aqua 2012|121|Retail|0
0|CS3008913|2012-08-25 12:37:44|Suliman|Enghin||M|1986-03-22|Constanta|CONSTANTA|Scarlat|4|||0|0|0766252766|||CABK||Camel Black (6mg) Pack|Yes|Yes||CT003905|AQUA LAND|Constanta|CTDTCBA52|51|CCC MULTI Aqua 2012|121|Retail|0
0|CS3008965|2012-08-25 12:47:49|Cezar|Dan||M|1993-05-29|Constanta|CONSTANTA|Bulevardul 1decembrie 1918|102|||4|16|0720425639|||WIBL||Winston Blue (6mg) Pack|Yes|Yes||CT003905|AQUA LAND|Constanta|CTDTCBA52|51|CCC MULTI Aqua 2012|121|Retail|0
0|CS3008976|2012-08-25 12:49:11|Hasan|Sevil||F|1977-08-28|Constanta|CONSTANTA|Grivitei56|56|||0|0|0764530630|||GLMLIL||Glamour Lilac (5mg) Pack|Yes|Yes||CT003905|AQUA LAND|Constanta|CTDTCBA52|51|CCC MULTI Aqua 2012|121|Retail|0
0|CS3008991|2012-08-25 12:52:23|Rusu|Calin||M|1990-07-28|Constanta|CONSTANTA|Andrei muresanu|45|||||0731112996|||WIXSTBL||Winston XStyle Blue (6mg) Pack|Yes|Yes||CT003905|AQUA LAND|Constanta|CTDTCBA52|51|CCC MULTI Aqua 2012|121|Retail|0
0|CS3008998|2012-08-25 12:54:44|Gavrilita|Bogdan||M|1968-12-12|Timis|TIMISOARA|Lalelelor|28|||||0723815339|||WIBL||Winston Blue (6mg) Pack|Yes|Yes||CT003905|AQUA LAND|Constanta|CTDTCBA52|51|CCC MULTI Aqua 2012|121|Retail|0
0|CS3009025|2012-08-25 12:59:35|Baraghin|Marius||M|1991-09-29|Constanta|CONSTANTA|Vaii|2|||0|0|0727529881||marius_200869@yahoo.com|WIXSTBL||Winston XStyle Blue (6mg) Pack|Yes|Yes||CT003905|AQUA LAND|Constanta|CTDTCBA52|51|CCC MULTI Aqua 2012|121|Retail|0
0|CS3009033|2012-08-25 13:01:50|Burlacu|Ionut||M|1991-07-27|Constanta|CONSTANTA|Crinului|103|||||0726343511|||KTBL||Bricheta Winston XST|Yes|Yes||CT003905|AQUA LAND|Constanta|CTDTCBA52|51|CCC MULTI Aqua 2012|121|Retail|0
0|CS3009076|2012-08-25 13:14:33|Cernica|Vali||M|1992-06-22|Constanta|Constanta|Unirii|108|1|E|2|82|0727577855|||CABK||Camel Black (6mg) Pack|Yes|Yes||CT003905|AQUA LAND|Constanta|CTDTCBA52|51|CCC MULTI Aqua 2012|121|Retail|0
0|CS3009166|2012-08-25 13:33:09|Radu|Andrei||M|1991-12-19|Constanta|PECINEAGA|Stefan cel Mare|84|||0|0|0763222259||maxi.mixx@yahoo.com|KTBL||Camel Black (6mg) Pack|Yes|Yes||CT003905|AQUA LAND|Constanta|CTDTCBA54|51|CCC MULTI Aqua 2012|121|Retail|0
0|CS3009183|2012-08-25 13:36:25|Elmi|Ener||M|1988-08-17|Constanta|CONSTANTA|Motilor|8a|||0|0|0724918584||ener_the_best@yahoo.com|KTBL||Camel Black (6mg) Pack|Yes|Yes||CT003905|AQUA LAND|Constanta|CTDTCBA54|51|CCC MULTI Aqua 2012|121|Retail|0
0|CS3009248|2012-08-25 13:52:08|Sirbu|Camelia||F|1991-09-30|Constanta|CONSTANTA|Prelungirea|12c|||||0762176354|||GLMMNT||Bricheta 1 Glamour|Yes|Yes||CT003905|AQUA LAND|Constanta|CTDTCBA54|51|CCC MULTI Aqua 2012|121|Retail|0
0|CS3009260|2012-08-25 13:55:39|Suliman|Iulia||F|1985-10-31|Constanta|CONSTANTA|Medgidia|4|||0|0|0763914127|||KTBL||Camel Black (6mg) Pack|Yes|Yes||CT003905|AQUA LAND|Constanta|CTDTCBA54|51|CCC MULTI Aqua 2012|121|Retail|0
0|CS3009280|2012-08-25 14:01:45|Stiovoranu|Adina||F|1979-08-11|Constanta|CONSTANTA|Eliberarii|10|||||0726870071|||PMSSBL||Winston Super Slims Blue (5mg) Pack|Yes|Yes||CT003905|AQUA LAND|Constanta|CTDTCBA54|51|CCC MULTI Aqua 2012|121|Retail|0
0|CS3009293|2012-08-25 14:04:45|Lica|Eduard janel||M|1986-04-28|Braila|BRAILA|Sebesului|12|||||0763248936|||DUNBL||Winston XS Blue (6 mg) (charcoal) Pack|Yes|Yes||CT003905|AQUA LAND|Constanta|CTDTCBA54|51|CCC MULTI Aqua 2012|121|Retail|0
0|CS3009302|2012-08-25 14:06:22|Maxe|Marian||M|1974-04-18|Tulcea|TULCEA|Metalurgistilor|4|||||0742261660|||WIBL||Winston Blue (6mg) Pack|Yes|Yes||CT003905|AQUA LAND|Constanta|CTDTCBA52|51|CCC MULTI Aqua 2012|121|Retail|0
0|CS3009314|2012-08-25 14:08:24|Dinu|Gabriala||F|1992-09-01|Constanta|CONACU|Vasile emilia|15|||||0766478285|||KTCON||Winston Fresh XSpression (5mg) Pack|Yes|Yes||CT003905|AQUA LAND|Constanta|CTDTCBA54|51|CCC MULTI Aqua 2012|121|Retail|0
0|CS3009330|2012-08-25 14:13:11|State|Ionut||M|1990-04-16|Braila|BRAILA|Principala|25|2|2|0|0|0762370917|||KTBL||Camel Black (6mg) Pack|Yes|Yes||CT003905|AQUA LAND|Constanta|CTDTCBA54|51|CCC MULTI Aqua 2012|121|Retail|0
0|CS3009333|2012-08-25 14:14:21|Gheorghe|Madalina||F|1987-08-08|Bucuresti|SECTOR 6|Tineretului|1|||0|0|0734348999||gheorghe_mara@yahoo.com|PMBL||Winston XStyle Blue (6mg) Pack|Yes|Yes||CT003905|AQUA LAND|Constanta|CTDTCBA54|51|CCC MULTI Aqua 2012|121|Retail|0
0|CS3009336|2012-08-25 14:15:22|Cojocaru|Aurelian||M|1989-05-22|Bucuresti|SECTOR 6|Dreptatii|10|O3||0|208|0722573792||no_spray_today@yahoo.com|KTCON||Winston Fresh XSpression (5mg) Pack|Yes|Yes||CT003905|AQUA LAND|Constanta|CTDTCBA54|51|CCC MULTI Aqua 2012|121|Retail|0
0|CS3009340|2012-08-25 14:16:30|Mitrana|Stefan||M|1983-11-23|Constanta|CONSTANTA|Principala|38|||0|0|0720978706|||DUNBL||Winston XStyle Blue (6mg) Pack|Yes|Yes||CT003905|AQUA LAND|Constanta|CTDTCBA54|51|CCC MULTI Aqua 2012|121|Retail|0
0|CS3009345|2012-08-25 14:18:18|Piron|Nicu||M|1987-12-21|Constanta|CONSTANTA|Artarului|4|||0|0|0720011398|||KTBL||Winston XStyle Blue (6mg) Pack|Yes|Yes||CT003905|AQUA LAND|Constanta|CTDTCBA54|51|CCC MULTI Aqua 2012|121|Retail|0
0|CS3009350|2012-08-25 14:19:43|Mustafa|Belgin||M|1983-03-02|Constanta|CONSTANTA|Topolog|25|||||0727009613|||PMBL||Winston Blue (6mg) Pack|Yes|Yes||CT003905|AQUA LAND|Constanta|CTDTCBA54|51|CCC MULTI Aqua 2012|121|Retail|0
0|CS3009361|2012-08-25 14:23:56|Stanica|Florin||M|1985-01-30|Constanta|CONSTANTA|Fulgerului|43|||||0734186661|||WIXSTBL||Bricheta Winston XST|Yes|Yes||CT003905|AQUA LAND|Constanta|CTDTCBA52|51|CCC MULTI Aqua 2012|121|Retail|0
0|CS3009383|2012-08-25 14:29:20|Obreja|Manuel||M|1991-01-10|Valcea|Valcea|Buna vestire|10|||||0749461066||veejay_vasik@yahoo.com|PHMQBL||Winston Blue (6mg) Pack|Yes|Yes||CT003905|AQUA LAND|Constanta|CTDTCBA54|51|CCC MULTI Aqua 2012|121|Retail|0
0|CS3009390|2012-08-25 14:30:43|Elmi|Ener||M|1988-08-17|Constanta|CONSTANTA|Motilor|8a|||0|0|0724918584||ener_the_best@yahoo.com|WIXSTFX||Winston Fresh XSpression (5mg) Pack|Yes|Yes||CT003905|AQUA LAND|Constanta|CTDTCBA52|51|CCC MULTI Aqua 2012|121|Retail|0
0|CS3009395|2012-08-25 14:32:20|Cojocaru|Aurel||M|1981-05-05|Constanta|CONSTANTA|Violetelor|5|L12|A|1|6|0722963778||ryk24x@yahoo.com|CABK||Camel Black (6mg) Pack|Yes|Yes||CT003905|AQUA LAND|Constanta|CTDTCBA52|51|CCC MULTI Aqua 2012|121|Retail|0
0|CS3009399|2012-08-25 14:34:56|Andrei|Silvana||F|1969-12-16|Constanta|CONSTANTA|Aleea lirei|13|||||0741153267|||WISSB||Winston Super Slims Blue (5mg) Pack|Yes|Yes||CT003905|AQUA LAND|Constanta|CTDTCBA54|51|CCC MULTI Aqua 2012|121|Retail|0
0|CS3009404|2012-08-25 14:35:38|Mustafa|Ailin||M|1990-04-10|Constanta|CONSTANTA|Poporului|74|||0|0|0765282026|||CAFI||Camel Filters (10mg) Pack|Yes|Yes||CT003905|AQUA LAND|Constanta|CTDTCBA52|51|CCC MULTI Aqua 2012|121|Retail|0
0|CS3009435|2012-08-25 14:47:31|Aliesei|Ali||M|1972-08-08|Constanta|CONSTANTA|Macilor|5||||||0241855393||KTBL||Camel Filters (10mg) Pack|Yes|Yes||CT003905|AQUA LAND|Constanta|CTDTCBA54|51|CCC MULTI Aqua 2012|121|Retail|0
0|CS3009440|2012-08-25 14:50:26|Gari|Nicoleta||F|1990-11-10|Constanta|Constanta|Hasdeu|43|||0|0|0765454890|||CABK||Bricheta 1 Camel|Yes|Yes||CT003905|AQUA LAND|Constanta|CTDTCBA52|51|CCC MULTI Aqua 2012|121|Retail|0
0|CS3009456|2012-08-25 14:55:34|Bodo|Cristian||M|1992-07-20|Constanta|CONSTANTA|Regretei|7|||0|0|0737360020|||CHSTBL||Winston 100s Clasic (10 mg)  Pack|Yes|Yes||CT003905|AQUA LAND|Constanta|CTDTCBA54|51|CCC MULTI Aqua 2012|121|Retail|0
0|CS3009483|2012-08-25 15:04:53|Saban|Jivan||M|1986-03-01|Constanta|CONACU|Garoafelor|1|||||0755667889|||CABK||Winston XStyle Blue (6mg) Pack|Yes|Yes||CT003905|AQUA LAND|Constanta|CTDTCBA54|51|CCC MULTI Aqua 2012|121|Retail|0
0|CS3009501|2012-08-25 15:13:22|Popescu|Mihai||M|1993-03-17|Constanta|CONACU|Timonei|14|||||0768887822|||KTH||Winston 100s Blue (6 mg)  Pack|Yes|Yes||CT003905|AQUA LAND|Constanta|CTDTCBA54|51|CCC MULTI Aqua 2012|121|Retail|0
0|CS3009522|2012-08-25 15:25:23|Batranu|Nicoleta||F|1983-09-15|Constanta|Constanta|Mircea cel batran|148|E2|B|5|62|0724139239||nicoletabfl@yahoo.com|WIBL||Winston Blue (6mg) Pack|Yes|Yes||CT003905|AQUA LAND|Constanta|CTDTCBA52|51|CCC MULTI Aqua 2012|121|Retail|0
0|CS3009549|2012-08-25 15:46:07|Hasan|Sevil||F|1988-03-01|Constanta|CONSTANTA|Principala|4|||||0764530130|||PARAB||Glamour Lilac (5mg) Pack|Yes|Yes||CT003905|AQUA LAND|Constanta|CTDTCBA54|51|CCC MULTI Aqua 2012|121|Retail|0
0|CS3009565|2012-08-25 15:53:43|Iulinoiu|Alin||M|1989-07-22|Braila|BRAILA|Aleea cinematografului|2|||||0744667780|||KTBL||Bricheta 1 Camel|Yes|Yes||CT003905|AQUA LAND|Constanta|CTDTCBA54|51|CCC MULTI Aqua 2012|121|Retail|0
0|CS3009571|2012-08-25 16:00:10|Oprisan|Ciprian||M|1978-07-14|Iasi|Iasi|Aleea nicolina|5|||||0755567880|||KTBL||Camel Black (6mg) Pack|Yes|Yes||CT003905|AQUA LAND|Constanta|CTDTCBA54|51|CCC MULTI Aqua 2012|121|Retail|0
0|CS3009577|2012-08-25 16:02:21|Marvis|Liviu||M|1979-02-01|Bucuresti|SECTOR 6|Targu neamt|16|||||0788789020|||WISSS||Bricheta 1 Winston|Yes|Yes||CT003905|AQUA LAND|Constanta|CTDTCBA52|51|CCC MULTI Aqua 2012|121|Retail|0
0|CS3009590|2012-08-25 16:10:14|Ibadula|Dunya||F|1990-06-06|Constanta|CONSTANTA|Delfinariu|46|||0|0|0767360526|||CHSTBL||Winston XStyle Blue (6mg) Pack|Yes|Yes||CT003905|AQUA LAND|Constanta|CTDTCBA54|51|CCC MULTI Aqua 2012|121|Retail|0
0|CS3009611|2012-08-25 16:18:39|Malacu|Iulian||M|1979-05-26|Constanta|CUMPANA|Ciresica|80|||0|0|0723762490|||WIXSTBL||Bricheta Winston XST|Yes|Yes||CT003905|AQUA LAND|Constanta|CTDTCBA52|51|CCC MULTI Aqua 2012|121|Retail|0
0|CS3009616|2012-08-25 16:20:04|Stoica|Sabina||F|1991-06-26|Constanta|CONSTANTA|Soveja|54|||0|0|0721742728|||WIXSTSV||Bricheta Winston XST|Yes|Yes||CT003905|AQUA LAND|Constanta|CTDTCBA52|51|CCC MULTI Aqua 2012|121|Retail|0
0|CS3009621|2012-08-25 16:21:44|Memedi|Varol||M|1990-01-12|Constanta|CONSTANTA|Niculescu|8|||0|0|0720135151|||KTCON||Winston Fresh XSpression (5mg) Pack|Yes|Yes||CT003905|AQUA LAND|Constanta|CTDTCBA52|51|CCC MULTI Aqua 2012|121|Retail|0
0|CS3009629|2012-08-25 16:23:34|Mihai|Andreea||F|1989-05-13|Constanta|Constanta|Crinului|98|||0|0|0735616663|||WIXSTFX||Winston Fresh XSpression (5mg) Pack|Yes|Yes||CT003905|AQUA LAND|Constanta|CTDTCBA52|51|CCC MULTI Aqua 2012|121|Retail|0
0|CS3009640|2012-08-25 16:27:47|Chirhulita|Gigel||M|1967-08-25|Galati|GALATI|Aviatorului|4|||||0744695041|||WICLH||Camel Filters (10mg) Pack|Yes|Yes||CT003905|AQUA LAND|Constanta|CTDTCBA54|51|CCC MULTI Aqua 2012|121|Retail|0
0|CS3009648|2012-08-25 16:29:32|Tirica|Adela||F|1976-03-16|Arges|PITESTI|Hcc|4|||||0722573487|||WIBLH||Winston Blue (6mg) Pack|Yes|Yes||CT003905|AQUA LAND|Constanta|CTDTCBA54|51|CCC MULTI Aqua 2012|121|Retail|0
0|CS3009687|2012-08-25 16:40:46|Staiculescu|Mihai||M|1973-07-13|Constanta|CONSTANTA|Calatis|1|||||0749997330|||ASSFI||Camel Filters (10mg) Pack|Yes|Yes||CT003905|AQUA LAND|Constanta|CTDTCBA52|51|CCC MULTI Aqua 2012|121|Retail|0
0|CS3009714|2012-08-25 16:53:21|Radut|Valentin||M|1969-08-04|Arges|PITESTI|Craiovei|126|||||0745091492|||WIBL||Bricheta 1 Winston|Yes|Yes||CT003905|AQUA LAND|Constanta|CTDTCBA52|51|CCC MULTI Aqua 2012|121|Retail|0
0|CS3013505|2012-08-26 11:03:33|Irimia|Dragos||M|1964-09-09|Bucuresti|2|Ca rosetti|46||||1|0729380020|||KTH||Camel Filters (10mg) Pack|Yes|Yes||CT003905|AQUA LAND|Constanta|CTDTCBA54|51|CCC MULTI Aqua 2012|121|Retail|0
0|CS3013520|2012-08-26 11:14:05|Gheorghe|Adrian||M|1984-11-09|Constanta|CONSTANTA|Scolii|8|||||0765905385|||WIXSTBL||Bricheta Winston XST|Yes|Yes||CT003905|AQUA LAND|Constanta|CTDTCBA52|51|CCC MULTI Aqua 2012|121|Retail|0
0|CS3013534|2012-08-26 11:21:44|Batranu|Florin||M|1980-02-22|Constanta|Constanta|Avram iancu|10|||0|0|0724298349|||WIBL||Winston Blue (6mg) Pack|Yes|Yes||CT003905|AQUA LAND|Constanta|CTDTCBA52|51|CCC MULTI Aqua 2012|121|Retail|0
0|CS3013544|2012-08-26 11:27:10|Suliman|Enghin||M|1986-03-22|Constanta|CONSTANTA|Scarlat|4|||0|0|0766252766|||CABK||Camel Black (6mg) Pack|Yes|Yes||CT003905|AQUA LAND|Constanta|CTDTCBA52|51|CCC MULTI Aqua 2012|121|Retail|0
0|CS3013551|2012-08-26 11:29:38|Piron|Nicu||M|1987-12-21|Constanta|CONSTANTA|Artarului|4|||0|0|0720011398|||WIXSTFX||Winston Fresh XSpression (5mg) Pack|Yes|Yes||CT003905|AQUA LAND|Constanta|CTDTCBA52|51|CCC MULTI Aqua 2012|121|Retail|0
0|CS3013563|2012-08-26 11:34:03|Saban|Givan||M|1977-04-21|Constanta|CONSTANTA|Luminisului|4|||0|0|0743556789|||PMBL||Winston Blue (6mg) Pack|Yes|Yes||CT003905|AQUA LAND|Constanta|CTDTCBA54|51|CCC MULTI Aqua 2012|121|Retail|0
0|CS3013569|2012-08-26 11:36:20|Cernica|Vali||M|1992-06-22|Constanta|Constanta|Unirii|108|1|E|2|82|0727577855|||WIBL||Winston Blue (6mg) Pack|Yes|Yes||CT003905|AQUA LAND|Constanta|CTDTCBA52|51|CCC MULTI Aqua 2012|121|Retail|0
0|CS3013570|2012-08-26 11:38:11|Iasar|Belgin||M|1988-05-02|Constanta|CONSTANTA|Unirii|108|||||0727577855|||WIBL||Winston Blue (6mg) Pack|Yes|Yes||CT003905|AQUA LAND|Constanta|CTDTCBA52|51|CCC MULTI Aqua 2012|121|Retail|0
0|CS3013578|2012-08-26 11:39:41|Cojocaru|Aurel||M|1981-05-05|Constanta|CONSTANTA|Violetelor|5|L12|A|1|6|0722963778||ryk24x@yahoo.com|CABK||Bricheta 1 Camel|Yes|Yes||CT003905|AQUA LAND|Constanta|CTDTCBA52|51|CCC MULTI Aqua 2012|121|Retail|0
0|CS3013595|2012-08-26 11:44:14|Geara|Cristian||M|1984-04-12|Constanta|CONSTANTA|Sf. Andrei|20|||0|0|0762597027|||WIXSTBL||Winston XStyle Blue (6mg) Pack|Yes|Yes||CT003905|AQUA LAND|Constanta|CTDTCBA52|51|CCC MULTI Aqua 2012|121|Retail|0
0|CS3013604|2012-08-26 11:47:34|Manu|Mihaita||M|1975-05-29|Constanta|CONSTANTA|Soveja|104|||||0722973437|||KTBL||Camel Filters (10mg) Pack|Yes|Yes||CT003905|AQUA LAND|Constanta|CTDTCBA54|51|CCC MULTI Aqua 2012|121|Retail|0
0|CS3013610|2012-08-26 11:49:30|Batranu|Nicoleta||F|1983-09-15|Constanta|Constanta|Mircea cel batran|148|E2|B|5|62|0724139239||nicoletabfl@yahoo.com|KTBL||Bricheta Winston XST|Yes|Yes||CT003905|AQUA LAND|Constanta|CTDTCBA52|51|CCC MULTI Aqua 2012|121|Retail|0
0|CS3013615|2012-08-26 11:51:47|Suliman|Iulia||F|1985-10-31|Constanta|CONSTANTA|Medgidia|4|||0|0|0763914127|||CABK||Camel Black (6mg) Pack|Yes|Yes||CT003905|AQUA LAND|Constanta|CTDTCBA52|51|CCC MULTI Aqua 2012|121|Retail|0
0|CS3013620|2012-08-26 11:53:56|Suliman|Erol||M|1975-06-29|Constanta|CONSTANTA|Nisiparu|33|||||0766252776|||WICLH||Winston 100s Clasic (10 mg)  Pack|Yes|Yes||CT003905|AQUA LAND|Constanta|CTDTCBA52|51|CCC MULTI Aqua 2012|121|Retail|0
0|CS3013631|2012-08-26 11:57:55|Stoica|Madalina||F|1987-01-24|Bucuresti|SECTOR 2|Larisei|5|||||0762342768|||KTCON||Bricheta Winston XST|Yes|Yes||CT003905|AQUA LAND|Constanta|CTDTCBA52|51|CCC MULTI Aqua 2012|121|Retail|0
0|CS3013636|2012-08-26 11:59:22|Balaceanu|Georgel||M|1986-04-23|Constanta|CONSTANTA|Egalitatii|10|||0|0|0769368920|||KTBL||Winston XStyle Blue (6mg) Pack|Yes|Yes||CT003905|AQUA LAND|Constanta|CTDTCBA52|51|CCC MULTI Aqua 2012|121|Retail|0
0|CS3013649|2012-08-26 12:02:02|Elmi|Ener||M|1988-08-17|Constanta|CONSTANTA|Motilor|8a|||0|0|0724918584||ener_the_best@yahoo.com|WIXSTFX||Winston Fresh XSpression (5mg) Pack|Yes|Yes||CT003905|AQUA LAND|Constanta|CTDTCBA52|51|CCC MULTI Aqua 2012|121|Retail|0
0|CS3013667|2012-08-26 12:07:30|Carauleanu|Ionut||M|1990-05-02|Constanta|CONSTANTA|Decembrie|1918|||||0747802088|||DUNFF||Bricheta 1 Camel|Yes|Yes||CT003905|AQUA LAND|Constanta|CTDTCBA54|51|CCC MULTI Aqua 2012|121|Retail|0
0|CS3013679|2012-08-26 12:10:48|Nita|Cristina||F|1950-03-16|Bucuresti|SECTOR 6|Radna|46|||||0722683126|||GLMBL||Bricheta 1 Glamour|Yes|Yes||CT003905|AQUA LAND|Constanta|CTDTCBA52|51|CCC MULTI Aqua 2012|121|Retail|0
0|CS3013681|2012-08-26 12:12:22|Anghel|Vasile||M|1989-07-21|Constanta|CONSTANTA|Albastrelelor|1|||||0728454179|||WIBL||Bricheta 1 Winston|Yes|Yes||CT003905|AQUA LAND|Constanta|CTDTCBA52|51|CCC MULTI Aqua 2012|121|Retail|0
0|CS3013676|2012-08-26 12:12:53|Ablachim|Senol||M|1991-03-08|Constanta|CONSTANTA|Amurgului|101|||0|0|0745346784|||WIBLH||Bricheta 1 Winston|Yes|Yes||CT003905|AQUA LAND|Constanta|CTDTCBA52|51|CCC MULTI Aqua 2012|121|Retail|0
0|CS3013687|2012-08-26 12:13:31|Prioteasa|Emilian||M|1986-10-15|Constanta|CONSTANTA|Aleea gradinitei|4|||0|0|0727077698||ct86emi@yahoo.com|KTBL||Winston XStyle Blue (6mg) Pack|Yes|Yes||CT003905|AQUA LAND|Constanta|CTDTCBA52|51|CCC MULTI Aqua 2012|121|Retail|0
0|CS3013689|2012-08-26 12:13:58|Negureanu|Catalin||M|1968-03-12|Mehedinti|DROBETA TURNU SEVERIN|Cornelius|2|B1|8||2|0744504886|||KTBL||Camel Black (6mg) Pack|Yes|Yes||CT003905|AQUA LAND|Constanta|CTDTCBA54|51|CCC MULTI Aqua 2012|121|Retail|0
0|CS3013704|2012-08-26 12:21:57|Stoichita|Liliana||F|1977-04-26|Mehedinti|DROBETA TURNU SEVERIN|Mihai viteazu|17|||||0745293846|||KTBL||Glamour Azure (3mg) Pack|Yes|Yes||CT003905|AQUA LAND|Constanta|CTDTCBA54|51|CCC MULTI Aqua 2012|121|Retail|0
0|CS3013728|2012-08-26 12:32:17|Olaru|Cristian||M|1976-12-09|Brasov|Brasov|Mimozei|4|73|B|1|25||0234287250||MBRBI||Winston 100s Clasic (10 mg)  Pack|Yes|Yes||CT003905|AQUA LAND|Constanta|CTDTCBA54|51|CCC MULTI Aqua 2012|121|Retail|0
0|CS3013734|2012-08-26 12:34:18|Cernescu|Nicolae||M|1971-09-30|Constanta|CONSTANTA|Baba novac|181|||||0721554906|||MBRBI||Bricheta Winston XST|Yes|Yes||CT003905|AQUA LAND|Constanta|CTDTCBA54|51|CCC MULTI Aqua 2012|121|Retail|0
0|CS3013746|2012-08-26 12:39:06|Stioboreanu|Adina||F|1979-08-11|Constanta|CONACU|Eliberarii|10|||||0726870071|||PMSSBL||Winston Super Slims Blue (5mg) Pack|Yes|Yes||CT003905|AQUA LAND|Constanta|CTDTCBA54|51|CCC MULTI Aqua 2012|121|Retail|0
0|CS3013755|2012-08-26 12:42:47|Tanase|Viorel||M|1990-10-14|Bucuresti|SECTOR 3|Dealu ploienii|2|||||0762180633|||KTSV||Bricheta Winston XST|Yes|Yes||CT003905|AQUA LAND|Constanta|CTDTCBA52|51|CCC MULTI Aqua 2012|121|Retail|0
0|CS3013759|2012-08-26 12:44:03|Caraba|Tudorel||M|1985-07-20|Constanta|CONSTANTA|Randunelelor|17||||||0241766554||KTBL||Camel Blue (6mg) Pack|Yes|Yes||CT003905|AQUA LAND|Constanta|CTDTCBA54|51|CCC MULTI Aqua 2012|121|Retail|0
0|CS3013760|2012-08-26 12:44:48|Ene|Andrei||M|1989-01-04|Bucuresti|SECTOR 3|Anghel saligni|12|||||0735420368|||WIXSTBL||Bricheta Winston XST|Yes|Yes||CT003905|AQUA LAND|Constanta|CTDTCBA52|51|CCC MULTI Aqua 2012|121|Retail|0
0|CS3013764|2012-08-26 12:46:00|Cristea|Mihaela||F|1989-04-06|Constanta|CONSTANTA|Randunelelor|17||||||0241766554||KTCON||Winston Fresh XSpression (5mg) Pack|Yes|Yes||CT003905|AQUA LAND|Constanta|CTDTCBA54|51|CCC MULTI Aqua 2012|121|Retail|0
0|CS3013766|2012-08-26 12:46:40|Ruzescu|Andrei||M|1991-09-10|Timis|TIMISOARA|Putna|15|||||0768448776|||CAWH||Camel White (4 mg) Pack|Yes|Yes||CT003905|AQUA LAND|Constanta|CTDTCBA52|51|CCC MULTI Aqua 2012|121|Retail|0
0|CS3013768|2012-08-26 12:47:26|Popescu|Maria||M|1988-04-04|Braila|BRADEANCA|Principala|1|||||0755440090|||KTBL||Camel Silver (4mg) Pack|Yes|Yes||CT003905|AQUA LAND|Constanta|CTDTCBA54|51|CCC MULTI Aqua 2012|121|Retail|0
0|CS3013771|2012-08-26 12:49:44|Gheorghe |Maria||F|1989-06-01|Constanta|CONSTANTA|Ciresica|4|||||0734556789|||MBRBI||Camel Black (6mg) Pack|Yes|Yes||CT003905|AQUA LAND|Constanta|CTDTCBA54|51|CCC MULTI Aqua 2012|121|Retail|0
0|CS3013785|2012-08-26 12:56:09|Suliman|Ghilmas||M|1977-04-16|Constanta|MEDGIDIA|Carla |4a|||0|0|0760920355|||KTBL||Winston XStyle Blue (6mg) Pack|Yes|Yes||CT003905|AQUA LAND|Constanta|CTDTCBA54|51|CCC MULTI Aqua 2012|121|Retail|0
0|CS3013791|2012-08-26 12:57:49|Chiscan|Mihaita||M|1989-01-10|Braila|Braila|Lalelelor|2|||||0742317229|||WIXSTBL||Bricheta Winston XST|Yes|Yes||CT003905|AQUA LAND|Constanta|CTDTCBA52|51|CCC MULTI Aqua 2012|121|Retail|0
0|CS3013793|2012-08-26 12:58:24|Oprea|Raluca||F|1973-12-24|Constanta|CONACU|Soseaua mangalia|60|||||0765889188|||KTCON||Bricheta Winston XST|Yes|Yes||CT003905|AQUA LAND|Constanta|CTDTCBA54|51|CCC MULTI Aqua 2012|121|Retail|0
0|CS3013797|2012-08-26 12:59:53|Ghitiu|George||M|1989-01-01|Constanta|CONSTANTA|Cabanei|5|||0|0|0760188028|||CABK||Bricheta 1 Camel|Yes|Yes||CT003905|AQUA LAND|Constanta|CTDTCBA54|51|CCC MULTI Aqua 2012|121|Retail|0
0|CS3013805|2012-08-26 13:02:26|Craiu|Mircea||M|1986-09-01|Constanta|CONSTANTA|Mangaliei|58|||0|0|0765431299|||PMBL||Winston Blue (6mg) Pack|Yes|Yes||CT003905|AQUA LAND|Constanta|CTDTCBA54|51|CCC MULTI Aqua 2012|121|Retail|0
0|CS3013806|2012-08-26 13:02:53|Neghina|Valerica||F|1952-08-02|Mehedinti|DROBETA TURNU SEVERIN|Mihai viteazu|17|||||0745293846|||CABK||Bricheta 1 Camel|Yes|Yes||CT003905|AQUA LAND|Constanta|CTDTCBA52|51|CCC MULTI Aqua 2012|121|Retail|0
0|CS3013807|2012-08-26 13:03:57|Margine|Alberta||F|1989-06-04|Constanta|CONSTANTA|Palas|2|||||0737396944|||VOGJSN||Bricheta 1 Glamour|Yes|Yes||CT003905|AQUA LAND|Constanta|CTDTCBA54|51|CCC MULTI Aqua 2012|121|Retail|0
0|CS3013809|2012-08-26 13:04:25|Negreanu|Silvia||F|1945-08-16|Mehedinti|DROBETA TURNU SEVERIN|Corneliu savoiu|2|||||0744504886|||CABK||Bricheta 1 Camel|Yes|Yes||CT003905|AQUA LAND|Constanta|CTDTCBA52|51|CCC MULTI Aqua 2012|121|Retail|0
0|CS3013813|2012-08-26 13:05:42|Craiu|Viorel||M|1983-04-07|Constanta|CERNAVODA|Energiei|16|||||0761738406|||KTBL||Bricheta 1 Camel|Yes|Yes||CT003905|AQUA LAND|Constanta|CTDTCBA54|51|CCC MULTI Aqua 2012|121|Retail|0
0|CS3013814|2012-08-26 13:05:59|Becheanu|Ana||F|1980-06-06|Bucuresti|SECTOR 2|Trei scaune|22|||||0769333333|||WISSB||Bricheta 1 Winston|Yes|Yes||CT003905|AQUA LAND|Constanta|CTDTCBA52|51|CCC MULTI Aqua 2012|121|Retail|0
0|CS3013817|2012-08-26 13:06:46|Cojocaru|Aurelian||M|1989-05-22|Bucuresti|SECTOR 6|Dreptatii|10|O3||0|208|0722573792||no_spray_today@yahoo.com|DAVGL||Winston Fresh XSpression (5mg) Pack|Yes|Yes||CT003905|AQUA LAND|Constanta|CTDTCBA54|51|CCC MULTI Aqua 2012|121|Retail|0
0|CS3013820|2012-08-26 13:07:52|Alistar|Constantin||M|1992-05-23|Constanta|Constanta|Cismelei|21|||0|0|0721373649|||PMBL||Winston XStyle Blue (6mg) Pack|Yes|Yes||CT003905|AQUA LAND|Constanta|CTDTCBA54|51|CCC MULTI Aqua 2012|121|Retail|0
0|CS3013825|2012-08-26 13:08:38|Bebu|Alexandru||M|1990-01-02|Constanta|INDEPENDENTA|Principala|24|||0|0|0785177485|||MORD||Winston Blue (6mg) Pack|Yes|Yes||CT003905|AQUA LAND|Constanta|CTDTCBA54|51|CCC MULTI Aqua 2012|121|Retail|0
0|CS3013830|2012-08-26 13:10:33|Stegaru|Ilie||M|1970-05-24|Bucuresti|SECTOR 3|Teodor palade|12|||||0764017625|||WIXSTBL||Bricheta Winston XST|Yes|Yes||CT003905|AQUA LAND|Constanta|CTDTCBA52|51|CCC MULTI Aqua 2012|121|Retail|0
0|CS3013843|2012-08-26 13:15:57|Enache|Alexandru||M|1990-10-22|Galati|GALATI|Gradina veche|80|||||0743694171|||CABK||Bricheta 1 Camel|Yes|Yes||CT003905|AQUA LAND|Constanta|CTDTCBA52|51|CCC MULTI Aqua 2012|121|Retail|0
0|CS3013850|2012-08-26 13:19:35|Parcas|Enisa||F|1991-12-21|Bacau|BACAU|Primaverii|3c|||||0748378938|||GLMLIL||Bricheta 1 Glamour|Yes|Yes||CT003905|AQUA LAND|Constanta|CTDTCBA52|51|CCC MULTI Aqua 2012|121|Retail|0
0|CS3013862|2012-08-26 13:29:01|Damasaru|Elena||F|1991-01-25|Constanta|CONSTANTA|Hasdeu|118|||||0728630908|||KTBL||Winston XStyle Blue (6mg) Pack|Yes|Yes||CT003905|AQUA LAND|Constanta|CTDTCBA52|51|CCC MULTI Aqua 2012|121|Retail|0
0|CS3013870|2012-08-26 13:31:16|Parteca|Iotis||M|1988-08-14|Constanta|CONSTANTA|1decembrie|29|||0|0|0732549183|||KTH||Camel Filters (10mg) Pack|Yes|Yes||CT003905|AQUA LAND|Constanta|CTDTCBA52|51|CCC MULTI Aqua 2012|121|Retail|0
0|CS3013876|2012-08-26 13:33:47|Malacu|Iulian||M|1979-05-26|Constanta|CUMPANA|Ciresica|80|||0|0|0723762490|||CABL||Camel Blue (6mg) Pack|Yes|Yes||CT003905|AQUA LAND|Constanta|CTDTCBA52|51|CCC MULTI Aqua 2012|121|Retail|0
0|CS3013887|2012-08-26 13:38:25|Dobleaca|Ionel||M|1974-02-28|Buzau|BUZAU|Dimitrie cantemir|8|||||0742140051|||MBRRD||Bricheta 1 Camel|Yes|Yes||CT003905|AQUA LAND|Constanta|CTDTCBA54|51|CCC MULTI Aqua 2012|121|Retail|0
0|CS3013894|2012-08-26 13:42:44|Stoichita|Tiberiu||M|1990-04-27|Constanta|Constanta|Libertatii|27|Lv1|B|0|13|0727524533||extraaa_boy@yahoo.com|WIXSTBL||Winston XStyle Blue (6mg) Pack|Yes|Yes||CT003905|AQUA LAND|Constanta|CTDTCBA52|51|CCC MULTI Aqua 2012|121|Retail|0
0|CS3013897|2012-08-26 13:43:54|Stefan|Cristian||M|1987-11-23|Tulcea|Tulcea|Aleea cristina|5|5|A|0|1|0743531409||stefan_crs@yahoo.com|KTSV||Winston XStyle Silver (4mg) Pack|Yes|Yes||CT003905|AQUA LAND|Constanta|CTDTCBA52|51|CCC MULTI Aqua 2012|121|Retail|0
0|CS3013947|2012-08-26 14:00:54|Chezea|Marius||M|1972-01-20|Constanta|CONSTANTA|Berzei|1|||||0722849782|||MBRFP||Bricheta 1 Camel|Yes|Yes||CT003905|AQUA LAND|Constanta|CTDTCBA54|51|CCC MULTI Aqua 2012|121|Retail|0
0|CS3013948|2012-08-26 14:01:05|Mustafa|Ailin||M|1990-04-10|Constanta|CONSTANTA|Poporului|74|||0|0|0765282026|||WIBL||Bricheta 1 Winston|Yes|Yes||CT003905|AQUA LAND|Constanta|CTDTCBA52|51|CCC MULTI Aqua 2012|121|Retail|0
0|CS3013962|2012-08-26 14:05:35|Sfat|Vasile||M|1970-04-07|Galati|GALATI|Alexandria|3|||||0744516714|||CAWH||Bricheta 1 Camel|Yes|Yes||CT003905|AQUA LAND|Constanta|CTDTCBA52|51|CCC MULTI Aqua 2012|121|Retail|0
0|CS3013968|2012-08-26 14:07:13|Rotaru|Mariana||F|1967-02-07|Constanta|VALU LUI TRAIAN|Scolii|11a|||0|0|0730906199|||WIXSTBL||Bricheta Winston XST|Yes|Yes||CT003905|AQUA LAND|Constanta|CTDTCBA52|51|CCC MULTI Aqua 2012|121|Retail|0
0|CS3013969|2012-08-26 14:08:39|Motoi|Elena||F|1967-02-04|Constanta|VALU LUI TRAIAN|Scolii|11|||||0754668970|||GLMLIL||Bricheta 1 Glamour|Yes|Yes||CT003905|AQUA LAND|Constanta|CTDTCBA52|51|CCC MULTI Aqua 2012|121|Retail|0
0|CS3013973|2012-08-26 14:09:46|Achitei|Andrei||M|1984-07-03|Bacau|BACAU|Mioritei74|74|||||0749639131||andrei.achitei@yahoo.com|KTBL||Bricheta Winston XST|Yes|Yes||CT003905|AQUA LAND|Constanta|CTDTCBA54|51|CCC MULTI Aqua 2012|121|Retail|0
0|CS3013975|2012-08-26 14:10:09|Fatu|Mariana||F|1966-04-21|Constanta|CONSTANTA|Viilor|11|||||0767525700|||CAFI||Camel Filters (10mg) Pack|Yes|Yes||CT003905|AQUA LAND|Constanta|CTDTCBA52|51|CCC MULTI Aqua 2012|121|Retail|0
0|CS3014016|2012-08-26 14:25:26|Radas|Cosmin||M|1982-02-02|Arges|PITIGAIA|Hcc|15|||||0741907156|||DUNBL||Camel Blue (6mg) Pack|Yes|Yes||CT003905|AQUA LAND|Constanta|CTDTCBA54|51|CCC MULTI Aqua 2012|121|Retail|0
0|CS3014037|2012-08-26 14:37:15|Uluan|Gabriel||M|1982-07-15|Braila|BRAILA|Micsunelelor|4|||||0723765895|||PMBL||Bricheta 1 Winston|Yes|Yes||CT003905|AQUA LAND|Constanta|CTDTCBA54|51|CCC MULTI Aqua 2012|121|Retail|0
0|CS3014067|2012-08-26 14:52:55|Fagaras|Marian||M|1970-03-01|Mures|TARGU MURES|Paraului|555|||||0742100307|||MBRGLT||Cub Camel|Yes|Yes||CT003905|AQUA LAND|Constanta|CTDTCBA54|51|CCC MULTI Aqua 2012|121|Retail|0
