0|CS3613769|2013-09-05 09:24:25|IONESCU|FLORIN|1870410460053|M|1987-04-10|BUCURESTI|SECTOR 6|LUNCA CERNEI|4|D47|G|4|105|0788548290||FLORIN.ZTE@GMAIL.COM|VOGDV||1 Sobranie Side Slide Blacks (4mg) Pack|Yes|Yes||BW031555|LS TRAVEL RETAIL ROMANIA CITY GATE|Bucuresti|BWDTCBA103|172|CCC SOBR FAM 2013|121|Retail|0
0|CS3613771|2013-09-05 09:53:06|IOSIF|FLORINA|2880403394464|F|1988-04-03|BUCURESTI|SECTOR 2|CHISINAU|18|M8|1|2|34|0748084620||FLORI88@GMAIL.COM|KTSWITH||2 Sobranie SS Menthol (5 mg) Pack|Yes|Yes||BW031555|LS TRAVEL RETAIL ROMANIA CITY GATE|Bucuresti|BWDTCBA103|172|CCC SOBR FAM 2013|121|Retail|0
0|CS3613772|2013-09-05 09:56:55|ANGHELESCU|MONICA|2750426434543|F|1975-04-26|BUCURESTI|SECTOR 5|ABATAJULUI|45A|||||0767801534||MONICA.ANGHELESCU@ROMTELECOM.RO|VIRSV||1 Sobranie Side Slide Whites (1mg) Pack|Yes|Yes||BW031555|LS TRAVEL RETAIL ROMANIA CITY GATE|Bucuresti|BWDTCBA103|172|CCC SOBR FAM 2013|121|Retail|0
0|CS3613774|2013-09-05 10:13:06|STAMA|CLAUDIU|1921009510036|M|1992-10-09|CALARASI|CALARASI|RAHOVA|161|||||0722861749||STAMA.CLAUDIU@YAHOO.COM|DUNFCMBR|SBKSBK|2 Sobranie KS Black (8mg) Pack|Yes|Yes||BW031555|LS TRAVEL RETAIL ROMANIA CITY GATE|Bucuresti|BWDTCBA103|172|CCC SOBR FAM 2013|121|Retail|0
0|CS3613786|2013-09-05 10:28:22|TUDORACHE|IULIAN|1820730410015|M|1982-07-30|ILFOV|OTOPENI|BUCURESTI|92|A22|2|1|16|0766502064||IULIAN.TUDORACHE@ME.COM|KTNWH||1 Sobranie Side Slide Whites (1mg) Pack|Yes|Yes||BW031555|LS TRAVEL RETAIL ROMANIA CITY GATE|Bucuresti|BWDTCBA103|172|CCC SOBR FAM 2013|121|Retail|0
0|CS3613790|2013-09-05 10:37:03|PELCARU|CRISTIAN|1801007410068|M|1980-10-07|BUCURESTI|SECTOR 3|BASARABIEI|244|MY8|1|2|9|0730500042||CRISTIAN.PELCARU@YAHOO.COM|KTH|KTBL|2 Sobranie KS Black (8mg) Pack|Yes|Yes||BW031555|LS TRAVEL RETAIL ROMANIA CITY GATE|Bucuresti|BWDTCBA103|172|CCC SOBR FAM 2013|121|Retail|0
0|CS3613793|2013-09-05 10:42:47|GARBEA|ANA MARIA|2830131420031|F|1983-01-31|BUCURESTI|SECTOR 3|BARAJUL DUNARII|8|21A|B|6|68|0724835858||ANA.GARBEA@GMAIL.COM|VIRSV|SBSSPK|1 Sobranie Side Slide Blacks (4mg) Pack|Yes|Yes||BW031555|LS TRAVEL RETAIL ROMANIA CITY GATE|Bucuresti|BWDTCBA103|172|CCC SOBR FAM 2013|121|Retail|0
0|CS3613795|2013-09-05 10:50:17|PARASCHIV|BIANCA|2860904394514|F|1986-09-04|BUCURESTI|SECTOR 3|DRISTORULUI|97-119|63|D|P|633|0764906090||TREEOFSMARTS@YAHOO.COM|VOGLL||1 Sobranie Side Slide Whites (1mg) Pack|Yes|Yes||BW031555|LS TRAVEL RETAIL ROMANIA CITY GATE|Bucuresti|BWDTCBA103|172|CCC SOBR FAM 2013|121|Retail|0
0|CS3613800|2013-09-05 11:03:04|CULEA|CRISTINA|2770528100028|F|1977-05-28|BUCURESTI|SECTOR 5|RAHOVEI|334|43|B|8|54|0753304054||CRISTINA.CULEA@MEDLIFE.RO|KTNWH||1 Sobranie Side Slide Whites (1mg) Pack|Yes|Yes||BW031555|LS TRAVEL RETAIL ROMANIA CITY GATE|Bucuresti|BWDTCBA103|172|CCC SOBR FAM 2013|121|Retail|0
0|CS3613802|2013-09-05 11:05:03|CORBU|LAURA||F|1983-11-26|BACAU|BACAU|1 MAI|3|3|A|||0735859082||DELIA.LAURA@HOTMAIL.COM|DAVGL||2 Sobranie SS Black (6mg) Pack|Yes|Yes||BW004439|HACHETTE DISTRIBUTION SERVICE INMEDIO SRL CORA|Bucuresti|BWDTCBA136|172|CCC SOBR FAM 2013|121|Retail|0
0|CS3613811|2013-09-05 11:22:15|SOARE|FLORIN ALEXANDRU|1870920340461|M|1987-09-20|TELEORMAN|ALEXANDRIA|DUNARII|0|I5|A|1|4|0762283137||FLORINSOARE87@YAHOO.COM|KTNBL||1 Sobranie Side Slide Blacks (4mg) Pack|Yes|Yes||BW031555|LS TRAVEL RETAIL ROMANIA CITY GATE|Bucuresti|BWDTCBA103|172|CCC SOBR FAM 2013|121|Retail|0
0|CS3613813|2013-09-05 11:28:15|STEFAN|DANIEL|1781122150397|M|1978-11-22|DAMBOVITA|GAESTI|CUZA VODA|41|41|A|||0724456850||OLTEANU_GABRYELA@YAHOO.COM|DAVGL||2 Sobranie KS Blue (6mg) Pack|Yes|Yes||BW004439|HACHETTE DISTRIBUTION SERVICE INMEDIO SRL CORA|Bucuresti|BWDTCBA136|172|CCC SOBR FAM 2013|121|Retail|0
0|CS3613817|2013-09-05 11:33:54|AMBROZIE|COSTIN|1880812430025|M|1988-08-12|BUCURESTI|SECTOR 4|MOLDOVITA|12|A8|1|||0733534639||AMBROZIE_COSTIN2007@YAHOO.COM|SBKSBL||2 Sobranie KS Blue (6mg) Pack|Yes|Yes||BW004439|HACHETTE DISTRIBUTION SERVICE INMEDIO SRL CORA|Bucuresti|BWDTCBA136|172|CCC SOBR FAM 2013|121|Retail|0
0|CS3613828|2013-09-05 11:52:54|COVACI|PAULA|2830919313850|F|1983-09-19|SALAJ|CEHU SILVANIEI|PETOFI SANDOR|21|||||0741438901||PAULA_COVACI@YAHOO.COM|VOGDV||1 Sobranie Side Slide Blacks (4mg) Pack|Yes|Yes||BW004439|HACHETTE DISTRIBUTION SERVICE INMEDIO SRL CORA|Bucuresti|BWDTCBA136|172|CCC SOBR FAM 2013|121|Retail|0
0|CS3613830|2013-09-05 11:55:25|NICULAE|MARIA|2860920410038|F|1986-09-20|BUCURESTI|SECTOR 5|SEBASTIAN|33|S6|1|1|6|0766699344||MARIA.NICULAE@ROMTELECOM.RO|VOGLL||1 Sobranie Side Slide Blacks (4mg) Pack|Yes|Yes||BW031555|LS TRAVEL RETAIL ROMANIA CITY GATE|Bucuresti|BWDTCBA103|172|CCC SOBR FAM 2013|121|Retail|0
0|CS3613845|2013-09-05 12:17:43|ROSU|COSMIN|1790217443013|M|1979-02-17|BUCURESTI|SECTOR 4|SOS BERCENI|35|||||0726178699||ROSUCORNEL@YMAIL.RO|KTBLH||2 Sobranie KS Black (8mg) Pack|Yes|Yes||BW004439|HACHETTE DISTRIBUTION SERVICE INMEDIO SRL CORA|Bucuresti|BWDTCBA136|172|CCC SOBR FAM 2013|121|Retail|0
0|CS3613847|2013-09-05 12:19:33|TRUIE|MARIAN|1751211413013|M|1975-12-11|BUCURESTI|SECTOR 1|SCHITU MAGUREANU|23|||P|1|0733939323||MARIAN.TRUIE@GMAIL.COM|KTWH||1 Sobranie Side Slide Whites (1mg) Pack|Yes|Yes||BW031555|LS TRAVEL RETAIL ROMANIA CITY GATE|Bucuresti|BWDTCBA103|172|CCC SOBR FAM 2013|121|Retail|0
0|CS3613851|2013-09-05 12:29:52|NOVAC|FLORENTA|2680519433011|F|1968-05-19|BUCURESTI|SECTOR 4|CALEA VACARESTI|312|||||0730012828|||KTNBK||1 Sobranie Side Slide Blacks (4mg) Pack|Yes|Yes||BW004439|HACHETTE DISTRIBUTION SERVICE INMEDIO SRL CORA|Bucuresti|BWDTCBA136|172|CCC SOBR FAM 2013|121|Retail|0
0|CS3613858|2013-09-05 12:38:03|NEAGOE|MAGDA||F|1977-03-08|BUCURESTI|SECTOR 3|VULCAN JUDET|31|V3|A|6|39|0760888111||MAGDA.NEAGOE@GMAIL.COM|VOGLL|VIRSV|1 Sobranie Side Slide Blacks (4mg) Pack|Yes|Yes||BW031555|LS TRAVEL RETAIL ROMANIA CITY GATE|Bucuresti|BWDTCBA103|172|CCC SOBR FAM 2013|121|Retail|0
0|CS3613864|2013-09-05 12:48:19|CRACIUN|SORINA|2860917512021|F|1986-09-17|CALARASI|NANA|PRINCIPALA|13|||||0769897979||CRACIUNSORYNA@YAHOO.COM|SBKSSSWH||1 Sobranie Side Slide Whites (1mg) Pack|Yes|Yes||BW004439|HACHETTE DISTRIBUTION SERVICE INMEDIO SRL CORA|Bucuresti|BWDTCBA136|172|CCC SOBR FAM 2013|121|Retail|0
0|CS3613873|2013-09-05 13:00:01|BETIU|ANDREI|1870916430013|M|1987-09-16|BUCURESTI|SECTOR 5|MARINESCU CONSTANTIN|10|A38|1|4|18|0737003330||ANDREI.BETIU@YAHOO.COM|DUNFCMBB||2 Sobranie KS Blue (6mg) Pack|Yes|Yes||BW031555|LS TRAVEL RETAIL ROMANIA CITY GATE|Bucuresti|BWDTCBA103|172|CCC SOBR FAM 2013|121|Retail|0
0|CS3613878|2013-09-05 13:08:40|IVANESCU|MIHAELA|2870512284540|F|1987-05-12|BUCURESTI|SECTOR 6|TIMISOARA|49|CC6|B|8|72|0767801015||CRISTINA0IVANESCU@GMAIL.COM|VOGLL||1 Sobranie Side Slide Blacks (4mg) Pack|Yes|Yes||BW031555|LS TRAVEL RETAIL ROMANIA CITY GATE|Bucuresti|BWDTCBA103|172|CCC SOBR FAM 2013|121|Retail|0
0|CS3613882|2013-09-05 13:11:03|GHEORGHIU|MIHAELA|2880722460020|F|1988-07-22|BUCURESTI|SECTOR 4|RESITA|12|47|1|1|7|0761115827||MIHAELA.GHEORGHIU1@GMAIL.COM|SBSSWH|KTNWH|2 Sobranie SS White (1mg) Pack|Yes|Yes||BW031555|LS TRAVEL RETAIL ROMANIA CITY GATE|Bucuresti|BWDTCBA103|172|CCC SOBR FAM 2013|121|Retail|0
0|CS3613887|2013-09-05 13:16:14|HAIDAU|CRISTINA|2840422046252|F|1984-04-22|BUCURESTI|SECTOR 6|VIRTUTII|12|R11A|1|3|15|0741229767||CRIS.HAIDAU@GMAIL.COM|SBSSPK||2 Sobranie SS Pink (3mg) Pack|Yes|Yes||BW031555|LS TRAVEL RETAIL ROMANIA CITY GATE|Bucuresti|BWDTCBA103|172|CCC SOBR FAM 2013|121|Retail|0
0|CS3613896|2013-09-05 13:36:02|VIU|DIANA|2790526434541|F|1979-05-26|BUCURESTI|SECTOR 1|GHEORGHE BUCIUMAT|27|||4|9|0722212492||DIANAVIU@YAHOO.COM|SBSSWH||2 Sobranie SS White (1mg) Pack|Yes|Yes||BW031555|LS TRAVEL RETAIL ROMANIA CITY GATE|Bucuresti|BWDTCBA103|172|CCC SOBR FAM 2013|121|Retail|0
0|CS3613899|2013-09-05 13:38:02|SORODOC|LAURA|2760526333215|F|1976-05-26|SUCEAVA|VOITINEL|PRINCIPALA|1169|||||0723244849||LAURA.SORODOC@GMAIL.COM|SBSSWH||2 Sobranie SS White (1mg) Pack|Yes|Yes||BW031555|LS TRAVEL RETAIL ROMANIA CITY GATE|Bucuresti|BWDTCBA103|172|CCC SOBR FAM 2013|121|Retail|0
0|CS3613905|2013-09-05 13:41:52|ZAMFIROIU|DAN OCTAVIAN||M|1973-06-04|BUCURESTI|SECTOR 4|CONSTANTIN BRANCOVEANU|81|27|B|6|62|0723499089||DANZAMFIROIU@YAHOO.COM|SBKSGD|PARSB|2 Sobranie KS Gold  (4mg) Pack|Yes|Yes||BW031555|LS TRAVEL RETAIL ROMANIA CITY GATE|Bucuresti|BWDTCBA103|172|CCC SOBR FAM 2013|121|Retail|0
0|CS3613907|2013-09-05 13:45:21|MATEI|IONUT|1860917450100|M|1986-09-17|BUCURESTI|SECTOR 5|SLT POPA|17|23A|1|2|9|0766339440||IONUT.MATEI2@GMAIL.COM|SBSSWH||2 Sobranie SS White (1mg) Pack|Yes|Yes||BW031555|LS TRAVEL RETAIL ROMANIA CITY GATE|Bucuresti|BWDTCBA103|172|CCC SOBR FAM 2013|121|Retail|0
0|CS3613913|2013-09-05 13:51:00|TROFIN|MARICICA MICSUNICA||F|1968-12-25|BUCURESTI|SECTOR 4|ALEEA EMIL RACOVITA|4|||||0724124202|||PARRSSH||1 Sobranie Side Slide Blacks (4mg) Pack|Yes|Yes||BW004439|HACHETTE DISTRIBUTION SERVICE INMEDIO SRL CORA|Bucuresti|BWDTCBA136|172|CCC SOBR FAM 2013|121|Retail|0
0|CS3613915|2013-09-05 13:52:37|SCAFA|CORNELIA|2571231400324|F|1957-12-31|BUCURESTI|SECTOR 1|OASTEI|39|||||0723177855||CORNELIA.SCAFA@ROMTELECOM.RO|KTNBK||1 Sobranie Side Slide Blacks (4mg) Pack|Yes|Yes||BW031555|LS TRAVEL RETAIL ROMANIA CITY GATE|Bucuresti|BWDTCBA103|172|CCC SOBR FAM 2013|121|Retail|0
0|CS3613928|2013-09-05 14:05:31|DULGHERU|CARMEN|2690106440021|F|1969-01-06|BUCURESTI|SECTOR 4|ALEXANDRU OBREGIA|33|||||0722982508||DULGHERU.CARMEN@GMAIL.COM|VOGM||2 Sobranie SS Menthol (5 mg) Pack|Yes|Yes||BW004439|HACHETTE DISTRIBUTION SERVICE INMEDIO SRL CORA|Bucuresti|BWDTCBA136|172|CCC SOBR FAM 2013|121|Retail|0
0|CS3613940|2013-09-05 14:19:08|BARDAN|SILVIU||M|1969-11-09|BUCURESTI|SECTOR 4|GIURGIULUI|125|||||0724224598||SILVIU@PRINTMAN.RO|KTBL||2 Sobranie KS Black (8mg) Pack|Yes|Yes||BW004439|HACHETTE DISTRIBUTION SERVICE INMEDIO SRL CORA|Bucuresti|BWDTCBA136|172|CCC SOBR FAM 2013|121|Retail|0
0|CS3613949|2013-09-05 14:32:10|GUGUMETE|MIHAI|1900618100169|M|1990-06-18|BUCURESTI|SECTOR 3|ALEEA EPRUBETEI|17|A19||||0745415753||GUGUMETE.MIHAI@GMAIL.COM|DUNFCBB||1 Sobranie Side Slide Blacks (4mg) Pack|Yes|Yes||BW004439|HACHETTE DISTRIBUTION SERVICE INMEDIO SRL CORA|Bucuresti|BWDTCBA136|172|CCC SOBR FAM 2013|121|Retail|0
0|CS3613953|2013-09-05 14:35:21|PARASCHIV|ALIN|1900601340920|M|1990-06-01|TELEORMAN|ROSIORI DE VEDE|MIHAIL EMINESCU|13|||||0768620266||PAPARAZZIBUCURESTI@YAHOO.COM|DUNFCSB||1 Sobranie Side Slide Blacks (4mg) Pack|Yes|Yes||BW004439|HACHETTE DISTRIBUTION SERVICE INMEDIO SRL CORA|Bucuresti|BWDTCBA136|172|CCC SOBR FAM 2013|121|Retail|0
0|CS3614013|2013-09-05 15:56:51|LETCANU|MARIAN||M|1987-12-01|BUCURESTI|SECTOR 4|OBREGIA|6|M2|3|6|50|0767864288||MARIAN.FLORYN@YAHOO.COM|KTNBK||1 Sobranie Side Slide Blacks (4mg) Pack|Yes|Yes||BWK00582|ROMPETROL DOWNSTREAM SRL MIHAI BRAVU|Bucuresti|BWDTCBA133|172|CCC SOBR FAM 2013|121|Retail|0
0|CS3614020|2013-09-05 16:06:41|SIMA|ALINA FLORENTINA||F|1988-05-24|BUCURESTI|SECTOR 2|MAICA DOMNULUI|8|T57|1|9|38|0769916072||LIVEIZLIVE@YAHOO.COM|PMSSBL||1 Sobranie Side Slide Blacks (4mg) Pack|No|Yes||BWK00582|ROMPETROL DOWNSTREAM SRL MIHAI BRAVU|Bucuresti|BWDTCBA133|172|CCC SOBR FAM 2013|121|Retail|0
0|CS3614030|2013-09-05 16:21:36|IANCULESCU|MIHAELA|2820520297243|F|1982-05-20|BUCURESTI|SECTOR 2|CIUREA|2-4|P6A B|B|8|79|0723354234||MIHAELA.ISNCULESCU@YAHOO.COM|KTNWH|SBSSWH|1 Sobranie Side Slide Whites (1mg) Pack|Yes|Yes||BWK00582|ROMPETROL DOWNSTREAM SRL MIHAI BRAVU|Bucuresti|BWDTCBA133|172|CCC SOBR FAM 2013|121|Retail|0
0|CS3614036|2013-09-05 16:29:57|POPESCU|COSMIN|1840124410066|M|1984-01-24|ILFOV|PANTELIMON|SFANTUL GHEORGHE|67A|||||0727431731||COSMIN.POPESCU24@YAHOO.COM|DUNBL||1 Sobranie Side Slide Blacks (4mg) Pack|Yes|Yes||BWK00582|ROMPETROL DOWNSTREAM SRL MIHAI BRAVU|Bucuresti|BWDTCBA133|172|CCC SOBR FAM 2013|121|Retail|0
0|CS3614060|2013-09-05 17:02:45|DUMITRACHE|LOUIS||M|1983-09-19|ILFOV|POPESTI LEORDENI|SPLAIUL UNIRII|9|4|A|8|51|0726103510||LOUIS.DUMITRACHE@GMAIL.COM|PARAB||2 Sobranie KS Black (8mg) Pack|Yes|Yes||BWK00582|ROMPETROL DOWNSTREAM SRL MIHAI BRAVU|Bucuresti|BWDTCBA133|172|CCC SOBR FAM 2013|121|Retail|0
0|CS3614069|2013-09-05 17:10:00|PETROV|MARIN|1801008430057|M|1980-10-08|BUCURESTI|SECTOR 4|CONSTANTIN BRANCOVEANU|97|M6|4|0|37|0752295568||PETROVMARIN@YAHOO.CO.UK|KTWH||1 Sobranie Side Slide Whites (1mg) Pack|Yes|Yes||BWK00582|ROMPETROL DOWNSTREAM SRL MIHAI BRAVU|Bucuresti|BWDTCBA133|172|CCC SOBR FAM 2013|121|Retail|0
0|CS3614085|2013-09-05 17:31:27|GONEA|CLAUDIU|1840618384960|M|1984-06-18|BUCURESTI|SECTOR 5|EPIGONIILOR|30|||||0763349949||CLAU_41TAV@YAHOO.COM|MBRGLFT||1 Sobranie Side Slide Blacks (4mg) Pack|Yes|Yes||BWK00582|ROMPETROL DOWNSTREAM SRL MIHAI BRAVU|Bucuresti|BWDTCBA133|172|CCC SOBR FAM 2013|121|Retail|0
0|CS3614116|2013-09-05 18:09:23|TOMA|CRISTIAN|1881126410057|M|1988-11-26|BUCURESTI|SECTOR 3|RAMBICUL VALCEA|1|4A|A|9|40|0763437779||IUSTINIULIAN13@YAHOO.COM|KTNWH||1 Sobranie Side Slide Whites (1mg) Pack|Yes|Yes||BWK00582|ROMPETROL DOWNSTREAM SRL MIHAI BRAVU|Bucuresti|BWDTCBA133|172|CCC SOBR FAM 2013|121|Retail|0
0|CS3614142|2013-09-05 18:38:29|CHIVU|ALEXANDRA||F|1991-07-06|BUCURESTI|SECTOR 4|UIOARA|5|53|3|3|56|0760946803||ALEXA_GLAM@YAHOO.COM|VOGJSN||2 Sobranie SS Menthol (5 mg) Pack|Yes|Yes||BWK00582|ROMPETROL DOWNSTREAM SRL MIHAI BRAVU|Bucuresti|BWDTCBA133|172|CCC SOBR FAM 2013|121|Retail|0
0|CS3614163|2013-09-05 18:59:46|NEDELCU|ELENA||F|1992-07-30|BUCURESTI|SECTOR 3|CAMPIA LIBERTATII|64B|34A|E|3|219|0741451034||NEDELCU.ELENA@GMAIL.COM|VOGJSN||2 Sobranie SS Menthol (5 mg) Pack|Yes|Yes||BWK00582|ROMPETROL DOWNSTREAM SRL MIHAI BRAVU|Bucuresti|BWDTCBA133|172|CCC SOBR FAM 2013|121|Retail|0
0|CS3614171|2013-09-05 19:08:19|TISMANARU|SIMONA|2830715450041|F|1983-07-15|BUCURESTI|SECTOR 3|TRAIAN POPOVICI|87|M11|1|3|20|0724430931||SIMONA.TISMANARU@YAHOO.COM|SBSSPK||2 Sobranie SS Pink (3mg) Pack|Yes|Yes||BWK00582|ROMPETROL DOWNSTREAM SRL MIHAI BRAVU|Bucuresti|BWDTCBA133|172|CCC SOBR FAM 2013|121|Retail|0
0|CS3614178|2013-09-05 19:18:30|IVANESCU|DRAGOS ALEXANDRU|1750323293112|M|1975-03-23|BUCURESTI|SECTOR 4|CONSTANTIN RADULESCU|14|27A|A|4|17|0747036591||MFORROCK@GMAIL.COM|KTNWH||1 Sobranie Side Slide Whites (1mg) Pack|Yes|Yes||BWK00582|ROMPETROL DOWNSTREAM SRL MIHAI BRAVU|Bucuresti|BWDTCBA133|172|CCC SOBR FAM 2013|121|Retail|0
0|CS3614181|2013-09-05 19:23:29|COJOCARU|LOREDANA||F|1984-12-29|BUCURESTI|SECTOR 4|ALEEA IZVORUL OLTULUI|1|26|1|4|30|0761219494||LOREDANADCOJOCARU@GMAIL.COM|SBSSPK|SBSSBK|2 Sobranie SS Black (6mg) Pack|Yes|Yes||BWK00582|ROMPETROL DOWNSTREAM SRL MIHAI BRAVU|Bucuresti|BWDTCBA133|172|CCC SOBR FAM 2013|121|Retail|0
0|CS3614535|2013-09-06 09:24:18|VERES|CORINA||F|1992-02-08|BUCURESTI|SECTOR 4|HUEDIN|14|A13|5|P|63|0735226488||VERESMCORINA@GMAIL.COM|DAVGLS||1 Sobranie Side Slide Blacks (4mg) Pack|Yes|Yes||BW031555|LS TRAVEL RETAIL ROMANIA CITY GATE|Bucuresti|BWDTCBA103|172|CCC SOBR FAM 2013|121|Retail|0
0|CS3614537|2013-09-06 10:12:39|MANDACHE|ELENA|2790823133109|F|1979-08-23|BUCURESTI|SECTOR 2|BASARABIEI|118|L13|C|6|12|0766505130||LEMBRAU@YAHOO.COM|VOGABP||1 Sobranie Side Slide Whites (1mg) Pack|Yes|Yes||BW031555|LS TRAVEL RETAIL ROMANIA CITY GATE|Bucuresti|BWDTCBA103|172|CCC SOBR FAM 2013|121|Retail|0
0|CS3614543|2013-09-06 10:27:37|MOJA|MADALINA|2920820090011|F|1992-08-20|BUCURESTI|SECTOR 4|STOIAN MILITARU|8-10||2|8|34|0763016715||MADALINA.MOJA@GMAIL.COM|VOGLL|DUNFCBB|1 Sobranie Side Slide Blacks (4mg) Pack|Yes|Yes||BW031555|LS TRAVEL RETAIL ROMANIA CITY GATE|Bucuresti|BWDTCBA103|172|CCC SOBR FAM 2013|121|Retail|0
0|CS3614546|2013-09-06 10:38:21|TOADER|ALEXANDRU|1841228297266|M|1984-12-28|BUCURESTI|SECTOR 5|LIVEZILOR|7|||||0762472202||TOADER.ALLEX@GMAIL.COM|KTBL||2 Sobranie KS Black (8mg) Pack|Yes|Yes||BW004439|HACHETTE DISTRIBUTION SERVICE INMEDIO SRL CORA|Bucuresti|BWDTCBA136|172|CCC SOBR FAM 2013|121|Retail|0
0|CS3614548|2013-09-06 10:41:19|SERBANESCU|ALINA|2850911211187|F|1985-09-11|BUCURESTI|SECTOR 3|MARIUS BUTEICA|10|61|1|3|22|0723154362||ALINA.ELENA.SERBANESCU@GMAIL.COM|VIRSV||1 Sobranie Side Slide Blacks (4mg) Pack|Yes|Yes||BW031555|LS TRAVEL RETAIL ROMANIA CITY GATE|Bucuresti|BWDTCBA103|172|CCC SOBR FAM 2013|121|Retail|0
0|CS3614549|2013-09-06 10:44:09|KAZANAS|ANDREEA|2850710460092|F|1985-07-10|ILFOV|OTOPENI|SOFIA|86|||||0723969310||ANDREIA.KAZANAS@GMAIL.COM|KTSV||2 Sobranie KS Gold  (4mg) Pack|Yes|Yes||BW031555|LS TRAVEL RETAIL ROMANIA CITY GATE|Bucuresti|BWDTCBA103|172|CCC SOBR FAM 2013|121|Retail|0
0|CS3614550|2013-09-06 10:49:33|ISTRATE|PETRUTA|2530530400513|F|1953-05-30|BUCURESTI|SECTOR 4|OBREGIA|4|||||0724770315|||SBKSGD||2 Sobranie KS Gold  (4mg) Pack|Yes|Yes||BW004439|HACHETTE DISTRIBUTION SERVICE INMEDIO SRL CORA|Bucuresti|BWDTCBA136|172|CCC SOBR FAM 2013|121|Retail|0
0|CS3614551|2013-09-06 10:56:08|MATUSA|BIANCA|2950714410026|F|1995-07-14|BUCURESTI|SECTOR 4|ALEEA SECUILOR|4|||||0767474667||BIA_ALEXA2000@YAHOO.COM|SBSSMN||2 Sobranie SS Menthol (5 mg) Pack|Yes|Yes||BW004439|HACHETTE DISTRIBUTION SERVICE INMEDIO SRL CORA|Bucuresti|BWDTCBA136|172|CCC SOBR FAM 2013|121|Retail|0
0|CS3614559|2013-09-06 11:21:21|BRAZUICA|STELUTA||F|1973-08-31|BUCURESTI|SECTOR 2|GRIGORE MOISIL|1|13B|1|2|9|0766673445||STELUTABREZUICA@YAHOO.COM|KTBL||2 Sobranie KS Black (8mg) Pack|Yes|Yes||BW031555|LS TRAVEL RETAIL ROMANIA CITY GATE|Bucuresti|BWDTCBA103|172|CCC SOBR FAM 2013|121|Retail|0
0|CS3614561|2013-09-06 11:24:04|SCAFA|CORNELIA|2571231400324|F|1957-12-31|BUCURESTI|SECTOR 1|OASTEI|39|||0|0|0723177855||CORNELIA.SCAFA@ROMTELECOM.RO|KTNBK||1 Sobranie Side Slide Blacks (4mg) Pack|Yes|Yes||BW031555|LS TRAVEL RETAIL ROMANIA CITY GATE|Bucuresti|BWDTCBA103|172|CCC SOBR FAM 2013|121|Retail|0
0|CS3614572|2013-09-06 11:41:50|PARASCHIV|BIANCA|2860904394514|F|1986-09-04|BUCURESTI|SECTOR 3|DRISTORULUI|97-119|63|D|0|633|0764906090||TREEOFSMARTS@YAHOO.COM|KTNWH||2 Sobranie SS White (1mg) Pack|Yes|Yes||BW031555|LS TRAVEL RETAIL ROMANIA CITY GATE|Bucuresti|BWDTCBA103|172|CCC SOBR FAM 2013|121|Retail|0
0|CS3614578|2013-09-06 11:48:45|DINU|ELENA|2580409400252|F|1958-04-09|BUCURESTI|SECTOR 6|VALEA CIBINULUI|7|||||0766766713||ELENA.DINU@ROMTELECOM.RO|VIRSM||2 Sobranie SS Menthol (5 mg) Pack|Yes|Yes||BW031555|LS TRAVEL RETAIL ROMANIA CITY GATE|Bucuresti|BWDTCBA103|172|CCC SOBR FAM 2013|121|Retail|0
0|CS3614593|2013-09-06 12:24:19|SUFANA|ELENA|2581006323985|F|1958-10-06|BUCURESTI|SECTOR 1|DOCTOR FELIX|2|M4|A|2|21|0769648607||ELENA.SUFANA@ROMTELECOM.RO|MBRFP|KTSV|2 Sobranie KS Gold  (4mg) Pack|Yes|Yes||BW031555|LS TRAVEL RETAIL ROMANIA CITY GATE|Bucuresti|BWDTCBA103|172|CCC SOBR FAM 2013|121|Retail|0
0|CS3614594|2013-09-06 12:24:29|TUDORACHE|RAMONA||F|1981-05-11|BUCURESTI|SECTOR 6|CEAHLAU|22|||||0723929449||RAMONA.TUDORACHE@YAHOO.COM|KTNWH||1 Sobranie Side Slide Whites (1mg) Pack|Yes|Yes||BW004439|HACHETTE DISTRIBUTION SERVICE INMEDIO SRL CORA|Bucuresti|BWDTCBA136|172|CCC SOBR FAM 2013|121|Retail|0
0|CS3614597|2013-09-06 12:29:43|TROFIN|MARICICA||F|1968-12-25|BUCURESTI|SECTOR 4|EMIL RACOVIA|4|||||0724124202|||PARRSSH||1 Sobranie Side Slide Blacks (4mg) Pack|Yes|Yes||BW004439|HACHETTE DISTRIBUTION SERVICE INMEDIO SRL CORA|Bucuresti|BWDTCBA136|172|CCC SOBR FAM 2013|121|Retail|0
0|CS3614604|2013-09-06 12:37:28|CONSTANTINESCU|IULIAN|1610811400039|M|1961-08-11|BUCURESTI|SECTOR 4|MINCA DUMITRU|1|||||0726574182|||MBRRD||2 Sobranie KS Black (8mg) Pack|Yes|Yes||BW004439|HACHETTE DISTRIBUTION SERVICE INMEDIO SRL CORA|Bucuresti|BWDTCBA136|172|CCC SOBR FAM 2013|121|Retail|0
0|CS3614606|2013-09-06 12:43:02|STANESCU|MIRCEA||M|1989-02-09|ILFOV|OTOPENI|BELGRAD|25|||||0723619899||MIRCEA.STANESCU@EMAIL.COM|SBKSGD||2 Sobranie KS Gold  (4mg) Pack|Yes|No||BW031555|LS TRAVEL RETAIL ROMANIA CITY GATE|Bucuresti|BWDTCBA103|172|CCC SOBR FAM 2013|121|Retail|0
0|CS3614608|2013-09-06 12:45:32|ROGOVEANU|STEFANA||F|1971-03-26|BUCURESTI|SECTOR 4|SOS OLTENITEI|234|||||0731622975|||KTAPBK||2 Sobranie KS Black (8mg) Pack|Yes|Yes||BW004439|HACHETTE DISTRIBUTION SERVICE INMEDIO SRL CORA|Bucuresti|BWDTCBA136|172|CCC SOBR FAM 2013|121|Retail|0
0|CS3614611|2013-09-06 12:49:52|SORETE|ANDREI|1861201410068|M|1986-12-01|BUCURESTI|SECTOR 1|ARGENTINA|14A|||||0744361715||ANDREI.S_01@YAHOO.COM|DUNFCBB||2 Sobranie KS Gold  (4mg) Pack|Yes|Yes||BW031555|LS TRAVEL RETAIL ROMANIA CITY GATE|Bucuresti|BWDTCBA103|172|CCC SOBR FAM 2013|121|Retail|0
0|CS3614629|2013-09-06 13:13:52|VICIU|OANA||F|1979-12-15|BUCURESTI|SECTOR 5|URANUS|98|U8|1|1|3|0723272758||OANA.VICIU@YAHOO.COM|SBSSWH||2 Sobranie SS White (1mg) Pack|Yes|Yes||BW031555|LS TRAVEL RETAIL ROMANIA CITY GATE|Bucuresti|BWDTCBA103|172|CCC SOBR FAM 2013|121|Retail|0
0|CS3614634|2013-09-06 13:18:46|SOARE|FLORIN ALEXANDRU|1870920340461|M|1987-09-20|TELEORMAN|ALEXANDRIA|DUNARII|0|I5|A|1|4|0762283137||FLORINSOARE87@YAHOO.COM|KTSV||2 Sobranie KS Gold  (4mg) Pack|Yes|Yes||BW031555|LS TRAVEL RETAIL ROMANIA CITY GATE|Bucuresti|BWDTCBA103|172|CCC SOBR FAM 2013|121|Retail|0
0|CS3614645|2013-09-06 13:27:16|RUSU|SANZIANA|2580323400165|F|1958-03-23|BUCURESTI|SECTOR 4|ALEXANDRU OBREGIA|10-14|||||0755981361||RUSUSANZIANA@YAHOO.COM|SBSSWH||2 Sobranie SS White (1mg) Pack|Yes|Yes||BW004439|HACHETTE DISTRIBUTION SERVICE INMEDIO SRL CORA|Bucuresti|BWDTCBA136|172|CCC SOBR FAM 2013|121|Retail|0
0|CS3614647|2013-09-06 13:32:20|CIOPLU|MADALINA||F|1980-09-29|BUCURESTI|SECTOR 6|VALEA IALOMITEI|4|C11|4|6|143|0766314945||MADALINA.CIOPLU@YAHOO.COM|MBRGLFT|KTNBK|1 Sobranie Side Slide Blacks (4mg) Pack|Yes|Yes||BW031555|LS TRAVEL RETAIL ROMANIA CITY GATE|Bucuresti|BWDTCBA103|172|CCC SOBR FAM 2013|121|Retail|0
0|CS3614653|2013-09-06 13:36:16|RUSU|SANZIANA||F|1958-03-23|BUCURESTI|SECTORUL 4|OBREGIA|10 14|||||0724950523|||KTNWH||1 Sobranie Side Slide Whites (1mg) Pack|Yes|Yes||BW004439|HACHETTE DISTRIBUTION SERVICE INMEDIO SRL CORA|Bucuresti|BWDTCBA136|172|CCC SOBR FAM 2013|121|Retail|0
0|CS3614666|2013-09-06 13:54:56|STUPARU|ALEXANDRU||M|1984-12-05|BUCURESTI|SECTOR 6|CAMPUL CU FLORI|21|||||0724536070||STUPARU_ALEXANDRU_MARIUS@YAHOO.COM|GLMBL||1 Sobranie Side Slide Blacks (4mg) Pack|Yes|Yes||BW004439|HACHETTE DISTRIBUTION SERVICE INMEDIO SRL CORA|Bucuresti|BWDTCBA136|172|CCC SOBR FAM 2013|121|Retail|0
0|CS3614683|2013-09-06 14:27:15|COLMER|ALEXANDRU||M|1989-09-29|BUCURESTI|SECTOR 4|RAUL MARA|11|||||0728843528||COLMERALEXANDRU@YAHOO.COM|MBRFPH||2 Sobranie KS Blue (6mg) Pack|Yes|No||BW004439|HACHETTE DISTRIBUTION SERVICE INMEDIO SRL CORA|Bucuresti|BWDTCBA136|172|CCC SOBR FAM 2013|121|Retail|0
0|CS3614686|2013-09-06 14:30:38|SANDU|CRISTINA||F|1976-03-23|BUCURESTI|SECTOR 4|BALTITA|6|B28|3|3|44|0762516133||BIA.SANDU@YAHOO.COM|SBSSWH||2 Sobranie SS White (1mg) Pack|Yes|Yes||BW004439|HACHETTE DISTRIBUTION SERVICE INMEDIO SRL CORA|Bucuresti|BWDTCBA136|172|CCC SOBR FAM 2013|121|Retail|0
0|CS3614695|2013-09-06 14:42:02|POMPIERU|VICTORIA|2671111424520|F|1967-11-11|DAMBOVITA|CORNATEL|PREOT ANDRONESCU|140|||||0730293882|||KTSV||1 Sobranie Side Slide Blacks (4mg) Pack|Yes|Yes||BW004439|HACHETTE DISTRIBUTION SERVICE INMEDIO SRL CORA|Bucuresti|BWDTCBA136|172|CCC SOBR FAM 2013|121|Retail|0
0|CS3614712|2013-09-06 15:14:07|ISOPESCU|GEORGE|1900920336528|M|1990-09-20|BUCURESTI|SECTOR 3|STELA SPATARU|12|||||0746334201||ISOESCU.STEFAN@YAHOO.COM|DUNFCMBB||2 Sobranie KS Black (8mg) Pack|Yes|Yes||BWK00582|ROMPETROL DOWNSTREAM SRL MIHAI BRAVU|Bucuresti|BWDTCBA133|172|CCC SOBR FAM 2013|121|Retail|0
0|CS3614740|2013-09-06 15:42:40|OLARU|ALEXANDRU|1860131134252|M|1986-01-31|CONSTANTA|CONSTANTA|UNIRII|112|||||0745551199||ALEX@CONSTANTABLOG.NET|DUNFCMBB||2 Sobranie KS Black (8mg) Pack|Yes|Yes||BWK00582|ROMPETROL DOWNSTREAM SRL MIHAI BRAVU|Bucuresti|BWDTCBA133|172|CCC SOBR FAM 2013|121|Retail|0
0|CS3614749|2013-09-06 15:49:37|POTIRNICHIE|ANGELICA|2790714423037|F|1979-07-14|BUCURESTI|SECTOR 2|AVRIG|28|P18BI|A|3|42|0722257014|||MBRFPH||1 Sobranie Side Slide Blacks (4mg) Pack|Yes|Yes||BWK00582|ROMPETROL DOWNSTREAM SRL MIHAI BRAVU|Bucuresti|BWDTCBA133|172|CCC SOBR FAM 2013|121|Retail|0
0|CS3614814|2013-09-06 16:54:29|MITROI|LAURENTIU|1831114340011|M|1983-11-14|ILFOV|CHIAJNA|NICOLAE IORGA|37|||||0724305869||LAURENTIU.MITROI@ECADESIGN.RO|KTBL||2 Sobranie KS Black (8mg) Pack|Yes|Yes||BWK00582|ROMPETROL DOWNSTREAM SRL MIHAI BRAVU|Bucuresti|BWDTCBA133|172|CCC SOBR FAM 2013|121|Retail|0
0|CS3614845|2013-09-06 17:19:59|IGNAT|BOGDAN|1890711460088|M|1989-07-11|BUCURESTI|SECTOR 6|TIMISOARA|27|G|A|7|31|0727413212||MACHO_EXTRA@YAHOO.COM|DUNFCMBB||1 Sobranie Side Slide Blacks (4mg) Pack|Yes|Yes||BWK00582|ROMPETROL DOWNSTREAM SRL MIHAI BRAVU|Bucuresti|BWDTCBA133|172|CCC SOBR FAM 2013|121|Retail|0
0|CS3614847|2013-09-06 17:23:40|CALIN|ANDA|2900331394067|F|1990-03-31|BUCURESTI|SECTOR 4|VOILA|10|21|2|2|23|0729214294||ANDA.CALLIN@YAHOO.COM|SBSSPK||2 Sobranie SS Pink (3mg) Pack|Yes|Yes||BWK00582|ROMPETROL DOWNSTREAM SRL MIHAI BRAVU|Bucuresti|BWDTCBA133|172|CCC SOBR FAM 2013|121|Retail|0
0|CS3614860|2013-09-06 17:31:07|BILDEA|BOGDAN||M|1979-03-10|BUCURESTI|SECTOR 3|AUREL BOTEA|4|B8|1|8|50|0721321501|||PARAB||2 Sobranie KS Black (8mg) Pack|Yes|Yes||BWK00582|ROMPETROL DOWNSTREAM SRL MIHAI BRAVU|Bucuresti|BWDTCBA133|172|CCC SOBR FAM 2013|121|Retail|0
0|CS3614865|2013-09-06 17:34:05|CHIVU|ALEXANDRA||F|1991-07-06|BUCURESTI|SECTOR 4|UIOARA|5|53|3|3|56|0760946803||ALEXA_GLAM@YAHOO.COM|VOGJSN||2 Sobranie SS Menthol (5 mg) Pack|Yes|Yes||BWK00582|ROMPETROL DOWNSTREAM SRL MIHAI BRAVU|Bucuresti|BWDTCBA133|172|CCC SOBR FAM 2013|121|Retail|0
0|CS3614902|2013-09-06 17:57:48|MIRCEA|GABRIELA||F|1953-11-29|BUCURESTI|SECTOR 3|ION TUCULESCU|42A|PM20|3|3|34|0723531154||GABRIELA_MIRCEARO@YAHOO.COM|SBKSGD||2 Sobranie KS Gold  (4mg) Pack|Yes|Yes||BWK00582|ROMPETROL DOWNSTREAM SRL MIHAI BRAVU|Bucuresti|BWDTCBA133|172|CCC SOBR FAM 2013|121|Retail|0
0|CS3614967|2013-09-06 18:45:48|MOLDOVEANU|ADRIAN||M|1976-07-24|ILFOV|PANTELIMON|IOSIV SAVA|17A|||||0765450602||AMOLDOVEANU@BADSI.RO|SBKSGD||1 Sobranie Side Slide Blacks (4mg) Pack|Yes|Yes||BWK00582|ROMPETROL DOWNSTREAM SRL MIHAI BRAVU|Bucuresti|BWDTCBA133|172|CCC SOBR FAM 2013|121|Retail|0
0|CS3614974|2013-09-06 18:53:00|VACARU|BOGDAN|1870630180060|M|1987-06-30|BUCURESTI|SECTOR 2|COLENTINA|10|6|4|4|51|0724061833||BOGDAN@ALGOMA-TECH.COM|KTBL||2 Sobranie KS Blue (6mg) Pack|Yes|Yes||BWK00582|ROMPETROL DOWNSTREAM SRL MIHAI BRAVU|Bucuresti|BWDTCBA133|172|CCC SOBR FAM 2013|121|Retail|0
0|CS3614985|2013-09-06 19:03:40|BOTEZ|LUCIAN|1820628045360|M|1982-06-28|BUCURESTI|SECTOR 3|MURESANA|59|10|A|0|1|0723404932||LUCIAN.BOTEZ@GRIFONUL.RO|SBKSBL||2 Sobranie KS Blue (6mg) Pack|Yes|Yes||BWK00582|ROMPETROL DOWNSTREAM SRL MIHAI BRAVU|Bucuresti|BWDTCBA133|172|CCC SOBR FAM 2013|121|Retail|0
0|CS3615004|2013-09-06 19:30:25|PASARE|ISABELA||F|1990-03-29|BUCURESTI|SECTOR 3|JAN STELIADI|24|M9|B|2|53|0785336321||ISABELA.PASARE@YAHOO.COM|DUNFCMBB||1 Sobranie Side Slide Blacks (4mg) Pack|Yes|Yes||BWK00582|ROMPETROL DOWNSTREAM SRL MIHAI BRAVU|Bucuresti|BWDTCBA133|172|CCC SOBR FAM 2013|121|Retail|0
0|CS3615008|2013-09-06 19:34:36|NEDELCU|ELENA||F|1992-07-30|BUCURESTI|SECTOR 3|CAMPIA LIBERTATII|64B|34A|E|3|219|0741451034||NEDELCU.ELENA@GMAIL.COM|VOGJSN||2 Sobranie SS Menthol (5 mg) Pack|Yes|Yes||BWK00582|ROMPETROL DOWNSTREAM SRL MIHAI BRAVU|Bucuresti|BWDTCBA133|172|CCC SOBR FAM 2013|121|Retail|0
0|CS3615872|2013-09-07 11:14:33|MITU RATIU|FLORIN|1731023443020|M|1973-10-23|BUCURESTI|SECTOR 5|MITRULUI|24|||||0722888963||MITU2FLORIN@YAHOO.COM|SBKSBK||2 Sobranie KS Black (8mg) Pack|Yes|Yes||BW004439|HACHETTE DISTRIBUTION SERVICE INMEDIO SRL CORA|Bucuresti|BWDTCBA133|172|CCC SOBR FAM 2013|121|Retail|0
0|CS3615880|2013-09-07 11:46:29|NICOLAU|GEORGE|1750106441525|M|1975-01-06|BUCURESTI|SECTOR 4|SERGENT SAMOILA DUMITRU|2|88|2|3|27|0723430627||NICK_GEORGE75@YAHOO.COM|KTNWH||1 Sobranie Side Slide Whites (1mg) Pack|Yes|Yes||BW004439|HACHETTE DISTRIBUTION SERVICE INMEDIO SRL CORA|Bucuresti|BWDTCBA133|172|CCC SOBR FAM 2013|121|Retail|0
0|CS3615885|2013-09-07 11:52:40|PADUCEL|GEORGETA||F|1956-01-27|BUCURESTI|SECTOR 4|PRIDVORULUI|7|5|3|0|34|0727393435|||GLMBL|KTSWIT|1 Sobranie Side Slide Blacks (4mg) Pack|Yes|Yes||BW004439|HACHETTE DISTRIBUTION SERVICE INMEDIO SRL CORA|Bucuresti|BWDTCBA133|172|CCC SOBR FAM 2013|121|Retail|0
0|CS3615901|2013-09-07 12:27:19|VILAU|GEORGIANA|2920722410013|F|1992-07-22|BUCURESTI|SECTOR 4|SOSEAUA BERCENI|39|107|1|2|15|0765434384||EVELYNE2207@YAHOO.COM|DUNFCSB||2 Sobranie KS Black (8mg) Pack|Yes|Yes||BW004439|HACHETTE DISTRIBUTION SERVICE INMEDIO SRL CORA|Bucuresti|BWDTCBA133|172|CCC SOBR FAM 2013|121|Retail|0
0|CS3615912|2013-09-07 13:18:11|ROSCA|CRISTINA||M|1990-09-18|BUCURESTI|SECTOR 4|LUICA|33|M5|1|8|48|0754339319||ROSCAMC@GMAIL.COM|DUNFCBB||2 Sobranie KS Gold  (4mg) Pack|Yes|Yes||BW004439|HACHETTE DISTRIBUTION SERVICE INMEDIO SRL CORA|Bucuresti|BWDTCBA133|172|CCC SOBR FAM 2013|121|Retail|0
0|CS3615923|2013-09-07 14:06:11|CEAUSESCU|CONSTANTA|2700621441548|F|1970-06-21|BUCURESTI|SECTOR 4|STRADUINTEI|11|D2|1|2|7|0724734120||CEAUSESCU_CON70@YAHOO.COM|KTH||2 Sobranie KS Black (8mg) Pack|Yes|Yes||BW004439|HACHETTE DISTRIBUTION SERVICE INMEDIO SRL CORA|Bucuresti|BWDTCBA133|172|CCC SOBR FAM 2013|121|Retail|0
0|FS1169343|2013-09-05 09:06:01||||F|||||||||||||MBRFPEX||||||||||172|CCC SOBR FAM 2013|121|Retail|0
0|FS1169344|2013-09-05 09:08:49||||M|||||||||||||WIBL||||||||||172|CCC SOBR FAM 2013|121|Retail|0
0|FS1169345|2013-09-05 09:12:13||||M|||||||||||||DUNBL||||||||||172|CCC SOBR FAM 2013|121|Retail|0
0|FS1169346|2013-09-05 09:30:19||||M|||||||||||||KTSV||||||||||172|CCC SOBR FAM 2013|121|Retail|0
0|FS1169350|2013-09-05 09:59:02|||||||||||||||||MBRFPH||||||||||172|CCC SOBR FAM 2013|121|Retail|0
0|FS1169361|2013-09-05 10:21:05||||M|||||||||||||DUNFCMBB||||||||||172|CCC SOBR FAM 2013|121|Retail|0
0|FS1169391|2013-09-05 11:34:01|||||||||||||||||GLMMNT||||||||||172|CCC SOBR FAM 2013|121|Retail|0
0|FS1169392|2013-09-05 11:38:26|||||||||||||||||DUNFCMBB||||||||||172|CCC SOBR FAM 2013|121|Retail|0
0|FS1169395|2013-09-05 11:39:25||||M|||||||||||||ROTH||||||||||172|CCC SOBR FAM 2013|121|Retail|0
0|FS1169405|2013-09-05 12:05:56|||||||||||||||||DUNFCMBB||||||||||172|CCC SOBR FAM 2013|121|Retail|0
0|FS1169416|2013-09-05 12:21:50|||||||||||||||||VIRSM||||||||||172|CCC SOBR FAM 2013|121|Retail|0
0|FS1169433|2013-09-05 12:37:29|||||||||||||||||MBRGLH||||||||||172|CCC SOBR FAM 2013|121|Retail|0
0|FS1169550|2013-09-05 14:19:49|||||||||||||||||PARAB||||||||||172|CCC SOBR FAM 2013|121|Retail|0
0|FS1169551|2013-09-05 14:19:50|||||||||||||||||PARAB||||||||||172|CCC SOBR FAM 2013|121|Retail|0
0|FS1169716|2013-09-05 16:48:06|||||||||||||||||LSRD||||||||||172|CCC SOBR FAM 2013|121|Retail|0
0|FS1170159|2013-09-06 09:13:31||||M|||||||||||||PMSSGR||||||||||172|CCC SOBR FAM 2013|121|Retail|0
0|FS1170169|2013-09-06 10:04:16||||F|||||||||||||MBRGLFT||||||||||172|CCC SOBR FAM 2013|121|Retail|0
0|FS1170181|2013-09-06 10:57:52|||||||||||||||||VOGLL||||||||||172|CCC SOBR FAM 2013|121|Retail|0
0|FS1170182|2013-09-06 10:57:53|||||||||||||||||VOGLL||||||||||172|CCC SOBR FAM 2013|121|Retail|0
0|FS1170189|2013-09-06 11:08:48|||||||||||||||||DAVSVSS||||||||||172|CCC SOBR FAM 2013|121|Retail|0
0|FS1170193|2013-09-06 11:17:45|||||||||||||||||MBRFP||||||||||172|CCC SOBR FAM 2013|121|Retail|0
0|FS1170194|2013-09-06 11:23:22|||||||||||||||||MBRFP||||||||||172|CCC SOBR FAM 2013|121|Retail|0
0|FS1170195|2013-09-06 11:23:38|||||||||||||||||MBRFP||||||||||172|CCC SOBR FAM 2013|121|Retail|0
0|FS1170196|2013-09-06 11:48:30|||||||||||||||||KTBL||||||||||172|CCC SOBR FAM 2013|121|Retail|0
0|FS1170203|2013-09-06 12:08:06|||||||||||||||||DAVGLS||||||||||172|CCC SOBR FAM 2013|121|Retail|0
0|FS1170207|2013-09-06 12:17:23|||||||||||||||||PARRSSH||||||||||172|CCC SOBR FAM 2013|121|Retail|0
0|FS1170221|2013-09-06 12:46:08|CRISTEA|MARIUS|||1981-09-24||||||||||||MBRFP||||||||||172|CCC SOBR FAM 2013|121|Retail|0
0|FS1170231|2013-09-06 12:55:42|FEDOROV|IRINA|||1984-06-11||||||||||||VOGJSN||||||||||172|CCC SOBR FAM 2013|121|Retail|0
0|FS1170236|2013-09-06 12:58:55|TEPOR|TIMEEA|||||||||||||||KTSWIT||||||||||172|CCC SOBR FAM 2013|121|Retail|0
0|FS1170248|2013-09-06 13:21:41|||||||||||||||||PARSB||||||||||172|CCC SOBR FAM 2013|121|Retail|0
0|FS1170304|2013-09-06 14:36:51|||||||||||||||||MBRRDH||||||||||172|CCC SOBR FAM 2013|121|Retail|0
