0|CS3525759|2013-08-02 19:58:42|Petrica|Alexandru||M|1979-03-23|Constanta|CONSTANTA|Morilor|20|||||0734109876||Alexandru.alex@yahoo.com|KTSV||1 Sobranie KS Gold  (4mg) Pack|Yes|Yes||CT004657|ETROMARE SRL|Constanta|CTHRKBA84|156|CCC HRK SOBR FAM Vara 2013|121|Horeca|0
0|CS3525766|2013-08-02 19:59:39|Florea|Adrian||M|1981-12-29|Constanta|CONSTANTA|Mircea|80|||||0722546868||Adrian_florea@yahoo.com|KTNWH||1 Sobranie SS White (1mg) Pack|Yes|Yes||CT004657|ETROMARE SRL|Constanta|CTHRKBA20|156|CCC HRK SOBR FAM Vara 2013|121|Horeca|0
0|CS3525767|2013-08-02 19:59:39|Milea|Iuliana||F|1979-10-24|Braila|BUMBACARI|Ceahlaului|47|||||0758848752||Milea.iuli@yahoo.com|KTSWITH||1 Sobranie SS Menthol (5 mg) Pack|Yes|Yes||CT004657|ETROMARE SRL|Constanta|CTHRKBA95|156|CCC HRK SOBR FAM Vara 2013|121|Horeca|0
0|CS3525776|2013-08-02 20:00:53|Urzicea|Paula||F|1989-04-05|Bacau|BACAU|Pinikor|21|||||0731368998||Urzicea_paula@yahoo.com|DUNFCBB||1 Sobranie KS Gold  (4mg) Pack|Yes|No||CT004657|ETROMARE SRL|Constanta|CTHRKBA87|156|CCC HRK SOBR FAM Vara 2013|121|Horeca|0
0|CS3525785|2013-08-02 20:04:19|Politescu|Crina||F|1985-11-29|Constanta|Constanta|Tomis|620|C1|A||14|0741345567||Politescu.crina@yahoo.com|KTBL||1 Sobranie KS Black (8mg) Pack|Yes|Yes||CT004657|ETROMARE SRL|Constanta|CTHRKBA87|156|CCC HRK SOBR FAM Vara 2013|121|Horeca|0
0|CS3525787|2013-08-02 20:04:31|Gheorghe|Andreea||F|1982-01-12|Constanta|CONSTANTA|Ion Vidu|2|||||0766438798||Deutzagh@yahoo.com|KTSV||1 Sobranie KS Gold  (4mg) Pack|Yes|Yes||CT004657|ETROMARE SRL|Constanta|CTHRKBA20|156|CCC HRK SOBR FAM Vara 2013|121|Horeca|0
0|CS3525788|2013-08-02 20:04:35|Marcu|Ioana||F|1976-07-01|Constanta|CONSTANTA|Lalelelor|12|||||0721098098|||KTNWH||1 Sobranie SS White (1mg) Pack|Yes|Yes||CT004657|ETROMARE SRL|Constanta|CTHRKBA84|156|CCC HRK SOBR FAM Vara 2013|121|Horeca|0
0|CS3525792|2013-08-02 20:05:29|Epure|Catalin||M|1992-05-20|Buzau|Buzau|Alexandru cel bun|20|B|||32|0759872298||Epure_catalin@gmail.com|KTBL||1 Sobranie KS Blue (6mg) Pack|Yes|Yes||CT004657|ETROMARE SRL|Constanta|CTHRKBA95|156|CCC HRK SOBR FAM Vara 2013|121|Horeca|0
0|CS3525810|2013-08-02 20:08:48|Matei|Alina||F|1980-06-29|Bucuresti|SECTOR 2|Caramitru|2|||||0754109810||Matei.alina@yahoo.com|GLMBL||1 Sobranie SS White (1mg) Pack|Yes|Yes||CT004657|ETROMARE SRL|Constanta|CTHRKBA84|156|CCC HRK SOBR FAM Vara 2013|121|Horeca|0
0|CS3525816|2013-08-02 20:09:36|Zena|Claudia||F|1984-08-29|Cluj|CLUJ NAPOCA|Mihai eminescu|56|||||0752145569||Zena?claudia@yahoo.com|SBSSWH||1 Sobranie SS White (1mg) Pack|Yes|No||CT004657|ETROMARE SRL|Constanta|CTHRKBA87|156|CCC HRK SOBR FAM Vara 2013|121|Horeca|0
0|CS3525818|2013-08-02 20:10:10|Taralunga|Dorina||F|1984-03-03|Constanta|CONSTANTA|Soveja|24|G|||17|0728563686||Dori_dutzu@gmail.com|GLMBL||1 Sobranie SS White (1mg) Pack|Yes|Yes||CT004657|ETROMARE SRL|Constanta|CTHRKBA95|156|CCC HRK SOBR FAM Vara 2013|121|Horeca|0
0|CS3525819|2013-08-02 20:10:17|Petre|Adina||F|1988-09-19|Galati|GALATI|Galati|32|||||0726547679||Adinapetre@yahoo.com|KTNWH||1 Sobranie SS White (1mg) Pack|Yes|Yes||CT004657|ETROMARE SRL|Constanta|CTHRKBA20|156|CCC HRK SOBR FAM Vara 2013|121|Horeca|0
0|CS3525918|2013-08-02 20:22:17|Ion|Mihaela||F|1989-08-04|Bucuresti|Bucuresti|Mihail Kogalniceanu|53|||||0720908543||Mihaellutza.08@yahoo.com|DUNFCBB||1 Sobranie KS Gold  (4mg) Pack|Yes|Yes||CT004657|ETROMARE SRL|Constanta|CTHRKBA20|156|CCC HRK SOBR FAM Vara 2013|121|Horeca|0
0|CS3525923|2013-08-02 20:22:44|Rudenco|Rodica||F|1989-09-19|Tulcea|Tulcea|Trandafirilor|35||||3|0738646689||Rudenco_rodica@yahoo.com|VIRSV||1 Sobranie SS White (1mg) Pack|Yes|Yes||CT004657|ETROMARE SRL|Constanta|CTHRKBA95|156|CCC HRK SOBR FAM Vara 2013|121|Horeca|0
0|CS3526061|2013-08-02 20:39:53|Amariei|Adriana||F|1984-10-01|Bucuresti|Bucuresti|Elena cargiani|11|||||0728112379|||KTBL||1 Sobranie SS Menthol (5 mg) Pack|Yes|Yes||CT001910|Amalfi Inc|Constanta|CTHRKBA87|156|CCC HRK SOBR FAM Vara 2013|121|Horeca|0
0|CS3526088|2013-08-02 20:42:04|Halibei|Bogdan||M|1975-08-23|Constanta|CONSTANTA|Poporului|199|||||0752037268||Halibei89@yahoo.com|DUNFCMBB||1 Sobranie KS Blue (6mg) Pack|Yes|Yes||CT001910|Amalfi Inc|Constanta|CTHRKBA84|156|CCC HRK SOBR FAM Vara 2013|121|Horeca|0
0|CS3526120|2013-08-02 20:46:14|Guliman|Aurel||M|1960-09-11|Bucuresti|Bucuresti|Burebista|3|||||0748219440||Gulimanaurel@yahoo.com|PARRSSH||1 Sobranie SS White (1mg) Pack|Yes|Yes||CT001910|Amalfi Inc|Constanta|CTHRKBA95|156|CCC HRK SOBR FAM Vara 2013|121|Horeca|0
0|CS3526141|2013-08-02 20:48:18|Popa|Lucica||F|1960-11-19|Bucuresti|Bucuresti|Mircea voda|47|||||0740131923||Lucicapopa2000@yahoo.com|SBSSWH||1 Sobranie SS White (1mg) Pack|Yes|Yes||CT001910|Amalfi Inc|Constanta|CTHRKBA95|156|CCC HRK SOBR FAM Vara 2013|121|Horeca|0
0|CS3526195|2013-08-02 20:55:21|Dumitrache|PatriciA||F|1972-05-24|Bucuresti|SECTOR 5|Parului|2|||||0722198765||Piticot09pitic@yahoo.com|KTSV||1 Sobranie KS Gold  (4mg) Pack|Yes|Yes||CT001910|Amalfi Inc|Constanta|CTHRKBA84|156|CCC HRK SOBR FAM Vara 2013|121|Horeca|0
0|CS3526198|2013-08-02 20:55:47|Caragea|Cristina||F|1983-01-15|Braila|BRAILA|Scolilor|6|||||0721658798||Cristina_caragea@yahoo.com|KTSV||1 Sobranie KS Gold  (4mg) Pack|Yes|Yes||CT001910|Amalfi Inc|Constanta|CTHRKBA20|156|CCC HRK SOBR FAM Vara 2013|121|Horeca|0
0|CS3526201|2013-08-02 20:56:07|Rosca|Victor||M|1989-07-18|Constanta|COSTINESTI|Marii|67|||||0726758984||Rosca.victor.00@yahoo.com|DUNFCBB||1 Sobranie KS Gold  (4mg) Pack|Yes|Yes||CT001910|Amalfi Inc|Constanta|CTHRKBA95|156|CCC HRK SOBR FAM Vara 2013|121|Horeca|0
0|CS3526206|2013-08-02 20:56:45|Rosu|Adina||F|1989-10-29|Dolj|CRAIOVA|Garilor|16b|||||0732166789|||MBRFPEX||1 Sobranie KS Gold  (4mg) Pack|Yes|No||CT001910|Amalfi Inc|Constanta|CTHRKBA87|156|CCC HRK SOBR FAM Vara 2013|121|Horeca|0
0|CS3526214|2013-08-02 20:59:19|Chiriac|Monica||F|1983-05-29|Bucuresti|SECTOR 5|General Manu|20|||||0744908710||Alexa549@yahoo.com|GLMBL||1 Sobranie SS White (1mg) Pack|Yes|Yes||CT001910|Amalfi Inc|Constanta|CTHRKBA84|156|CCC HRK SOBR FAM Vara 2013|121|Horeca|0
0|CS3526223|2013-08-02 21:00:08|Lupea|Fanel||M|1986-01-01|Giurgiu|GIURGIU|Focsanenilor|51|2|4||19|0754218954||Lupea.boy@yahoo.com|KTSV||1 Sobranie KS Gold  (4mg) Pack|Yes|Yes||CT001910|Amalfi Inc|Constanta|CTHRKBA87|156|CCC HRK SOBR FAM Vara 2013|121|Horeca|0
0|CS3526224|2013-08-02 21:00:16|Doma|Victoria||F|1984-06-26|Bucuresti|Bucuresti|Mircea|14|||||0748484467||Doma_victoria@yahoo.com|VOGLL||1 Sobranie SS Pink (3mg) Pack|Yes|Yes||CT001910|Amalfi Inc|Constanta|CTHRKBA95|156|CCC HRK SOBR FAM Vara 2013|121|Horeca|0
0|CS3526225|2013-08-02 21:00:23|Craciun|Gabriela||F|1981-04-09|Cluj|CLUJ NAPOCA|Rozelor|24|||||0766589888||Gabitza4ever@yahoo.com|PARAB||1 Sobranie KS Black (8mg) Pack|Yes|Yes||CT001910|Amalfi Inc|Constanta|CTHRKBA20|156|CCC HRK SOBR FAM Vara 2013|121|Horeca|0
0|CS3526227|2013-08-02 21:01:01|Ignat|Marina||F|1985-09-30|Constanta|CONSTANTA|Florilor|2a|||||0746098121||Monacreatza@yahoo.com|GLMLIL||1 Sobranie SS White (1mg) Pack|Yes|Yes||CT001910|Amalfi Inc|Constanta|CTHRKBA84|156|CCC HRK SOBR FAM Vara 2013|121|Horeca|0
0|CS3526242|2013-08-02 21:02:40|Ionita|Lucian||M|1989-04-05|Ialomita|SLOBOZIA|Trandafirilor|18|||||0743235789||Ionita.lucian@yahoo.com|DUNFCMBB||1 Sobranie KS Blue (6mg) Pack|Yes|Yes||CT001910|Amalfi Inc|Constanta|CTHRKBA87|156|CCC HRK SOBR FAM Vara 2013|121|Horeca|0
0|CS3526243|2013-08-02 21:02:48|Puiu|Domenic||F|1990-08-26|Brasov|Brasov|Independentei|54|||||0768774632||Puiu.domeniic@yahoo.com|PARABH||1 Sobranie KS Black (8mg) Pack|Yes|Yes||CT001910|Amalfi Inc|Constanta|CTHRKBA95|156|CCC HRK SOBR FAM Vara 2013|121|Horeca|0
0|CS3526244|2013-08-02 21:02:49|Nicolae|Bianca||F|1984-09-18|Constanta|CONSTANTA|Tulcea|43|||||0765497655||Bianca.nicolae@yahoo.com|KTNWH||1 Sobranie SS White (1mg) Pack|Yes|Yes||CT001910|Amalfi Inc|Constanta|CTHRKBA20|156|CCC HRK SOBR FAM Vara 2013|121|Horeca|0
0|CS3526319|2013-08-02 21:12:34|Calimera|Laura||F|1984-09-10|Constanta|CONSTANTA|Pescarilor|3|||||0732145609||Laurik99@yahooo.com|KTNWH||1 Sobranie SS White (1mg) Pack|Yes|Yes||CT004822|Event Club Crush|Constanta|CTHRKBA84|156|CCC HRK SOBR FAM Vara 2013|121|Horeca|0
0|CS3526339|2013-08-02 21:14:47|Traian|Adela||F|1988-11-25|Constanta|CONSTANTA|Firiceilor|12|||||0715678352||Adela.traian@yahoo.com|SBSSWH||1 Sobranie SS White (1mg) Pack|Yes|Yes||CT004822|Event Club Crush|Constanta|CTHRKBA87|156|CCC HRK SOBR FAM Vara 2013|121|Horeca|0
0|CS3526340|2013-08-02 21:14:52|Jugaru|Petronela||F|1978-08-17|Bucuresti|Bucuresti|Astronautilor|24|||||0746473653||Jugaru_petronela10@yahoo.com|DAVSVSS||1 Sobranie SS White (1mg) Pack|Yes|Yes||CT004822|Event Club Crush|Constanta|CTHRKBA95|156|CCC HRK SOBR FAM Vara 2013|121|Horeca|0
0|CS3526341|2013-08-02 21:14:56|Savu|Ionut||M|1990-01-21|Bucuresti|Bucuresti|Tudor Vladimirescu|92|||||0766435476||Ionutsavu@yahoo.com|SBSSWH||1 Sobranie SS White (1mg) Pack|Yes|Yes||CT004822|Event Club Crush|Constanta|CTHRKBA20|156|CCC HRK SOBR FAM Vara 2013|121|Horeca|0
0|CS3526353|2013-08-02 21:16:39|Coril|Marius||M|1984-01-21|Bucuresti|SECTOR 4|Stana de vale|20|||||0742138907|||KTSV||1 Sobranie KS Gold  (4mg) Pack|Yes|Yes||CT004822|Event Club Crush|Constanta|CTHRKBA84|156|CCC HRK SOBR FAM Vara 2013|121|Horeca|0
0|CS3526356|2013-08-02 21:16:56|Dragomir|Cosmin||M|1980-09-12|Constanta|CONSTANTA|Mangaliei|22|||||0721548760||Cosmin_dragomir@yahoo.com|MBRFPEX||1 Sobranie KS Gold  (4mg) Pack|Yes|Yes||CT004822|Event Club Crush|Constanta|CTHRKBA20|156|CCC HRK SOBR FAM Vara 2013|121|Horeca|0
0|CS3526362|2013-08-02 21:18:00|Danaila|Marius||M|1984-10-30|Constanta|CONSTANTA|Gh.murgoci|32|4|||39|0741357965|||VIRSV||1 Sobranie SS White (1mg) Pack|Yes|No||CT004822|Event Club Crush|Constanta|CTHRKBA87|156|CCC HRK SOBR FAM Vara 2013|121|Horeca|0
0|CS3526366|2013-08-02 21:18:19|Axintii|Dumitru||F|1990-09-13|Galati|BURSUCANI|Artistii|7|||||0736567557||Axintii_dima@gmail.com|DUNBL||1 Sobranie KS Blue (6mg) Pack|Yes|Yes||CT004822|Event Club Crush|Constanta|CTHRKBA95|156|CCC HRK SOBR FAM Vara 2013|121|Horeca|0
0|CS3526369|2013-08-02 21:18:54|Soare|Elena||F|1982-08-15|Calarasi|CALARASI|Gradinilor|8|||||0722657780||Elygirl.s@yahoo.com|GLMLIL||1 Sobranie SS Pink (3mg) Pack|Yes|Yes||CT004822|Event Club Crush|Constanta|CTHRKBA20|156|CCC HRK SOBR FAM Vara 2013|121|Horeca|0
0|CS3526382|2013-08-02 21:20:56|Pelteu|Vlad||M|1984-06-23|Constanta|CONSTANTA|Cuzavoda|2|||||0723124509||Vladutzbaiatfin@yahoo.com|KTBL||1 Sobranie KS Blue (6mg) Pack|Yes|Yes||CT004822|Event Club Crush|Constanta|CTHRKBA84|156|CCC HRK SOBR FAM Vara 2013|121|Horeca|0
0|CS3526388|2013-08-02 21:21:23|Firea|Stefania||F|1984-12-28|Bacau|BACAU|Il caragiale|3|||||0721467890||Firea.weet@yahoo.com|MBRGLFT||1 Sobranie KS Gold  (4mg) Pack|Yes|Yes||CT004822|Event Club Crush|Constanta|CTHRKBA87|156|CCC HRK SOBR FAM Vara 2013|121|Horeca|0
0|CS3526398|2013-08-02 21:22:16|Boaghe|Eduard||M|1990-08-19|Cluj|CLUJ NAPOCA|Piezisa|14|||||0745427726||Boaghe_edic@yahoo.com|CASV||1 Sobranie KS Gold  (4mg) Pack|Yes|Yes||CT004822|Event Club Crush|Constanta|CTHRKBA95|156|CCC HRK SOBR FAM Vara 2013|121|Horeca|0
0|CS3526698|2013-08-02 22:06:21|Nita|Andrei||M|1983-09-26|Bucuresti|SECTOR 5|Mihai viteazu|98|||||0721009807|||KTNBK||1 Sobranie KS Gold  (4mg) Pack|Yes|Yes||CT004093|CRICOROM TURISM SRL TERASA AZA|Constanta|CTHRKBA84|156|CCC HRK SOBR FAM Vara 2013|121|Horeca|0
0|CS3526700|2013-08-02 22:06:41|Secelean|Marian||M|1985-04-26|Botosani|BOTOSANI|Florilor|14|||||0745467225||Secelean_marian@yahoo.com|KTBL||1 Sobranie KS Black (8mg) Pack|Yes|Yes||CT004093|CRICOROM TURISM SRL TERASA AZA|Constanta|CTHRKBA95|156|CCC HRK SOBR FAM Vara 2013|121|Horeca|0
0|CS3526706|2013-08-02 22:07:18|Mitran|Alexandru||M|1986-01-01|Cluj|CLUJ NAPOCA|Mihai eminescu|3|||||0743298421||Alexandrutheboss@yahoo.com|DAVSVSS||1 Sobranie SS White (1mg) Pack|Yes|Yes||CT004093|CRICOROM TURISM SRL TERASA AZA|Constanta|CTHRKBA87|156|CCC HRK SOBR FAM Vara 2013|121|Horeca|0
0|CS3526709|2013-08-02 22:07:44|Plugaru|Alina||F|1986-06-24|Constanta|CONSTANTA|Ion Creanga|40|||||0722309876||Alina.plugaru@yahoo.com|SBSSWH||1 Sobranie SS White (1mg) Pack|Yes|Yes||CT004093|CRICOROM TURISM SRL TERASA AZA|Constanta|CTHRKBA20|156|CCC HRK SOBR FAM Vara 2013|121|Horeca|0
0|CS3526711|2013-08-02 22:08:09|Pop|Veronica||F|1983-06-24|Constanta|CONSTANTA|Liliacului|4|||||0732160945||Veronica.mititica@yahoo.com|KTNWH||1 Sobranie SS White (1mg) Pack|Yes|Yes||CT004093|CRICOROM TURISM SRL TERASA AZA|Constanta|CTHRKBA84|156|CCC HRK SOBR FAM Vara 2013|121|Horeca|0
0|CS3526714|2013-08-02 22:09:01|Teodoroiu|Carina||F|1982-03-10|Galati|GALATI|Prutului|64|||||0766548670||Carinateodoroiu@yahoo.com|KTSV||1 Sobranie KS Gold  (4mg) Pack|Yes|Yes||CT004093|CRICOROM TURISM SRL TERASA AZA|Constanta|CTHRKBA20|156|CCC HRK SOBR FAM Vara 2013|121|Horeca|0
0|CS3526717|2013-08-02 22:09:13|Banau|Otilia||F|1991-07-08|Constanta|MANGALIA|Soarelui|45|||||0768925636||Banau0968@yahoo.com|VIRSV||1 Sobranie SS White (1mg) Pack|Yes|Yes||CT004093|CRICOROM TURISM SRL TERASA AZA|Constanta|CTHRKBA95|156|CCC HRK SOBR FAM Vara 2013|121|Horeca|0
0|CS3526719|2013-08-02 22:09:31|Vizireanu|Narcis||M|1990-04-04|Constanta|CONSTANTA|Tomis|4|C|||41|0775765323||Vizireanu.narcis@yahoo.com|MBRFPEX||1 Sobranie KS Gold  (4mg) Pack|Yes|No||CT004093|CRICOROM TURISM SRL TERASA AZA|Constanta|CTHRKBA87|156|CCC HRK SOBR FAM Vara 2013|121|Horeca|0
0|CS3526720|2013-08-02 22:09:43|Managu|Octavian||M|1981-05-23|Constanta|CONSTANTA|Portului|61|||||0766120091||Handsome89@yahoo.com|KTBL||1 Sobranie KS Black (8mg) Pack|Yes|Yes||CT004093|CRICOROM TURISM SRL TERASA AZA|Constanta|CTHRKBA84|156|CCC HRK SOBR FAM Vara 2013|121|Horeca|0
0|CS3526732|2013-08-02 22:11:22|Claponea|Cristian||M|1984-05-20|Constanta|NAVODARI|Pescarilor|8|||||0720983211||Cristyclaponea@yahoo.com|DUNFCBB||1 Sobranie KS Gold  (4mg) Pack|Yes|Yes||CT004093|CRICOROM TURISM SRL TERASA AZA|Constanta|CTHRKBA20|156|CCC HRK SOBR FAM Vara 2013|121|Horeca|0
0|CS3526746|2013-08-02 22:12:07|Florea|Andreea||F|1986-06-23|Iasi|LITENI|Turnului|12|||||0764756456||Florea_andreea@yahoo.com|KTNWH||1 Sobranie SS White (1mg) Pack|Yes|Yes||CT004093|CRICOROM TURISM SRL TERASA AZA|Constanta|CTHRKBA95|156|CCC HRK SOBR FAM Vara 2013|121|Horeca|0
0|CS3526772|2013-08-02 22:17:28|Aciobanitei|Ionela||F|1982-04-04|Brasov|BRASOV|Frunzisilui|4|7||2|22|0732568899|||PARRSSH||1 Sobranie SS Black (6mg) Pack|Yes|Yes||CT004093|CRICOROM TURISM SRL TERASA AZA|Constanta|CTHRKBA87|156|CCC HRK SOBR FAM Vara 2013|121|Horeca|0
0|CS3526806|2013-08-02 22:23:21|Popescu|Mihaela||F|1992-02-27|Valcea|Ramnicul valcea|M eminescu|1|||||0766418657|||SBSSPK||1 Sobranie SS Pink (3mg) Pack|Yes|Yes||CT004093|CRICOROM TURISM SRL TERASA AZA|Constanta|CTHRKBA87|156|CCC HRK SOBR FAM Vara 2013|121|Horeca|0
0|CS3526812|2013-08-02 22:24:35|Dita|Denisa||F|1989-04-06|Bucuresti|1|Paresului|13|||||0765588638|||SBSSMN||1 Sobranie SS Menthol (5 mg) Pack|Yes|Yes||CT004093|CRICOROM TURISM SRL TERASA AZA|Constanta|CTHRKBA87|156|CCC HRK SOBR FAM Vara 2013|121|Horeca|0
0|CS3526850|2013-08-02 22:31:41|Brat|Daniel||M|1977-03-28|Bucuresti|Bucuresti|Trapezului|3|||||0723165088||Daniel.brat@yahoo.com|DAVGLS||1 Sobranie SS Menthol (5 mg) Pack|Yes|Yes||CT003940|CRICOROM TURISM SRL TERASA MOTOR|Constanta|CTHRKBA95|156|CCC HRK SOBR FAM Vara 2013|121|Horeca|0
0|CS3526856|2013-08-02 22:32:28|Vioreanu|Ionel||M|1981-10-31|Brasov|BRASOV|Paraului|50b|||||0724123670|||KTBL||1 Sobranie KS Black (8mg) Pack|Yes|Yes||CT003940|CRICOROM TURISM SRL TERASA MOTOR|Constanta|CTHRKBA84|156|CCC HRK SOBR FAM Vara 2013|121|Horeca|0
0|CS3526870|2013-08-02 22:33:41|Stoica|Razvan||M|1983-11-24|Constanta|CONSTANTA|Varna|2|||||0745123456||Razvan.stoica@yahoo.com|DUNFCBB||1 Sobranie KS Gold  (4mg) Pack|Yes|Yes||CT003940|CRICOROM TURISM SRL TERASA MOTOR|Constanta|CTHRKBA84|156|CCC HRK SOBR FAM Vara 2013|121|Horeca|0
0|CS3526884|2013-08-02 22:36:03|Mamulea|Alexandru||M|1989-10-29|Braila|Braila|Al ioan cuza|4|Va|4||21|0741664259||Mamuleathe boy@yahoo.com|DAVGL||1 Sobranie KS Blue (6mg) Pack|Yes|Yes||CT003940|CRICOROM TURISM SRL TERASA MOTOR|Constanta|CTHRKBA87|156|CCC HRK SOBR FAM Vara 2013|121|Horeca|0
0|CS3526885|2013-08-02 22:36:05|Neafu|Sorina||F|1984-11-05|Bucuresti|SECTOR 2|Elisabeta1|2|||||0744567000|||GLMBL||1 Sobranie SS White (1mg) Pack|Yes|Yes||CT003940|CRICOROM TURISM SRL TERASA MOTOR|Constanta|CTHRKBA84|156|CCC HRK SOBR FAM Vara 2013|121|Horeca|0
0|CS3526886|2013-08-02 22:36:06|Dan|Mihaela||F|1984-12-10|Sibiu|SIBIU|Sibiu|4|||||0721199876||Mikky_dan@yahoo.com|VOGJSN||1 Sobranie SS Menthol (5 mg) Pack|Yes|Yes||CT003940|CRICOROM TURISM SRL TERASA MOTOR|Constanta|CTHRKBA20|156|CCC HRK SOBR FAM Vara 2013|121|Horeca|0
0|CS3526894|2013-08-02 22:36:44|Ciorescu|Katy||F|1984-05-25|Iasi|Iasi|Avram iancu|34|||||0765646442||Ciorescu.ecaterina@gmail.com|GLMBL||1 Sobranie SS White (1mg) Pack|Yes|Yes||CT003940|CRICOROM TURISM SRL TERASA MOTOR|Constanta|CTHRKBA95|156|CCC HRK SOBR FAM Vara 2013|121|Horeca|0
0|CS3526907|2013-08-02 22:37:43|Panait|Gabriel||M|1978-06-30|Constanta|CONSTANTA|Ferdinand|12a|||||0723450098|||KTBL||1 Sobranie KS Black (8mg) Pack|Yes|Yes||CT003940|CRICOROM TURISM SRL TERASA MOTOR|Constanta|CTHRKBA84|156|CCC HRK SOBR FAM Vara 2013|121|Horeca|0
0|CS3526912|2013-08-02 22:38:12|Pastor|Ioana||F|1983-10-30|Bucuresti|Bucuresti|Mihai viteazu|4|||||0763356778||Thebest4you@yahoo.com|CAWH||1 Sobranie KS Gold  (4mg) Pack|Yes|Yes||CT003940|CRICOROM TURISM SRL TERASA MOTOR|Constanta|CTHRKBA87|156|CCC HRK SOBR FAM Vara 2013|121|Horeca|0
0|CS3526917|2013-08-02 22:38:59|Tenea|Diana||F|1989-04-17|Bucuresti|Bucuresti|Romana|19|||||0725476757||Tenea.dyana.01@yahoo.com|VOGLL||1 Sobranie SS Pink (3mg) Pack|Yes|Yes||CT003940|CRICOROM TURISM SRL TERASA MOTOR|Constanta|CTHRKBA95|156|CCC HRK SOBR FAM Vara 2013|121|Horeca|0
0|CS3526932|2013-08-02 22:40:07|Rusu|Adela||F|1986-02-01|Constanta|CONSTANTA|Nicolae Iorga|40|||||0722467798||Adelarusu@yahoo.com|KTNWH||1 Sobranie SS White (1mg) Pack|Yes|Yes||CT003940|CRICOROM TURISM SRL TERASA MOTOR|Constanta|CTHRKBA20|156|CCC HRK SOBR FAM Vara 2013|121|Horeca|0
0|CS3526933|2013-08-02 22:40:13|Stratulat|Ionel||M|1979-04-10|Bucuresti|4|Neputintei|3|A4||||0758653268|||KTSWIT||1 Sobranie SS Menthol (5 mg) Pack|Yes|No||CT003940|CRICOROM TURISM SRL TERASA MOTOR|Constanta|CTHRKBA87|156|CCC HRK SOBR FAM Vara 2013|121|Horeca|0
0|CS3526934|2013-08-02 22:40:30|Popescu|Marian||M|1992-01-01|Mehedinti|GHELMEGIOAIA|Aioanei|3|B||||0753247687||Popescu.marian@yahoo.com|DUNFCMBB||1 Sobranie KS Blue (6mg) Pack|Yes|Yes||CT003940|CRICOROM TURISM SRL TERASA MOTOR|Constanta|CTHRKBA95|156|CCC HRK SOBR FAM Vara 2013|121|Horeca|0
0|CS3526944|2013-08-02 22:41:40|Abdula|Denisa||F|1982-06-08|Constanta|CONSTANTA|Tomis|53|||||0767597899||Denisa_abdula@yahoo.com|DAVSVSS||1 Sobranie SS White (1mg) Pack|Yes|Yes||CT003940|CRICOROM TURISM SRL TERASA MOTOR|Constanta|CTHRKBA20|156|CCC HRK SOBR FAM Vara 2013|121|Horeca|0
0|CS3526980|2013-08-02 22:48:24|Stamescu|Adrian||M|1983-08-16|Bucuresti|Bucuresti|Ion maniu|73|||||0724214287||Adrian_stanescu83@yahoo.com|SBSSPK||1 Sobranie SS Pink (3mg) Pack|Yes|Yes||CT002735|CRICOROM TURISM SRL|Constanta|CTHRKBA95|156|CCC HRK SOBR FAM Vara 2013|121|Horeca|0
0|CS3526983|2013-08-02 22:49:34|Slav|Ioana||F|1983-10-30|Constanta|CONSTANTA|Artar|3|||||0723890091||Ioanabomboana09@yahoo.com|GLMLIL||1 Sobranie SS Pink (3mg) Pack|Yes|Yes||CT002735|CRICOROM TURISM SRL|Constanta|CTHRKBA84|156|CCC HRK SOBR FAM Vara 2013|121|Horeca|0
0|CS3526985|2013-08-02 22:49:45|Berescu|Ana||F|1987-06-01|Bucuresti|Bucuresti|Splaiul independentei|41|||||0744963234|||DUNFCMBB||1 Sobranie KS Blue (6mg) Pack|Yes|No||CT002735|CRICOROM TURISM SRL|Constanta|CTHRKBA87|156|CCC HRK SOBR FAM Vara 2013|121|Horeca|0
0|CS3526999|2013-08-02 22:52:53|Eugenia|Paval||F|1964-07-17|Ialomita|URZICENI|Mihai Viteazu|100|||||0728878137||Eugenia_paval64@yahoo.com|KTBL||1 Sobranie KS Black (8mg) Pack|Yes|Yes||CT002735|CRICOROM TURISM SRL|Constanta|CTHRKBA20|156|CCC HRK SOBR FAM Vara 2013|121|Horeca|0
0|CS3527067|2013-08-02 23:05:03|Plutea|Claudiu||M|1987-04-13|Bucuresti|Bucuresti|Mihai Eminescu|55|||||0735476533||Claudiuplutea@yahoo.com|DUNFCBB||1 Sobranie KS Gold  (4mg) Pack|Yes|Yes||CT002735|CRICOROM TURISM SRL|Constanta|CTHRKBA20|156|CCC HRK SOBR FAM Vara 2013|121|Horeca|0
0|CS3527068|2013-08-02 23:05:10|Nicolae|Raluca||F|1982-06-23|Constanta|CONSTANTA|Mihail sadoveanu|22|||||0722090911||Raluca.nicole@yahoo.com|GLMBL||1 Sobranie SS White (1mg) Pack|Yes|Yes||CT002735|CRICOROM TURISM SRL|Constanta|CTHRKBA84|156|CCC HRK SOBR FAM Vara 2013|121|Horeca|0
0|CS3527073|2013-08-02 23:05:13|Draganel|Andrei||M|1979-03-18|Bucuresti|Bucuresti|Teilor|38|||||0769464164||Andrei.draganel@yahoo.com|DAVSVSS||1 Sobranie SS White (1mg) Pack|Yes|Yes||CT002735|CRICOROM TURISM SRL|Constanta|CTHRKBA95|156|CCC HRK SOBR FAM Vara 2013|121|Horeca|0
0|CS3527083|2013-08-02 23:07:24|Savencu|Mirela||F|1988-04-05|Calarasi|Calarasi|Dunareenilor|3|B|1||1|0741084356||Savencu.sweetgirl@yahoo.com|SBSSWH||1 Sobranie SS White (1mg) Pack|Yes|No||CT002735|CRICOROM TURISM SRL|Constanta|CTHRKBA87|156|CCC HRK SOBR FAM Vara 2013|121|Horeca|0
0|CS3527085|2013-08-02 23:07:48|Iosif|Cristina||F|1985-07-18|Brasov|BRASOV|Cetatuia|6|||||0766326089||Cristyna.iosif1985@yahoo.com|DAVSVSS||1 Sobranie SS White (1mg) Pack|Yes|Yes||CT002735|CRICOROM TURISM SRL|Constanta|CTHRKBA20|156|CCC HRK SOBR FAM Vara 2013|121|Horeca|0
0|CS3527086|2013-08-02 23:07:59|Mocanu|Teodor||M|1984-08-08|Constanta|CONSTANTA|Bratianu|153|||||0738657574||Mocanu_teodor@yahoo.com|DUNFCMBR||1 Sobranie KS Black (8mg) Pack|Yes|Yes||CT002735|CRICOROM TURISM SRL|Constanta|CTHRKBA95|156|CCC HRK SOBR FAM Vara 2013|121|Horeca|0
0|CS3527093|2013-08-02 23:10:47|Dumitrascu|Cornelia||F|1977-10-01|Bucuresti|Bucuresti|Unirii|143|||||0788654392||Dumitrascu.cornelia@yahoo.com|KTNWH||1 Sobranie SS White (1mg) Pack|Yes|Yes||CT002735|CRICOROM TURISM SRL|Constanta|CTHRKBA20|156|CCC HRK SOBR FAM Vara 2013|121|Horeca|0
0|CS3527101|2013-08-02 23:11:41|Dulama|Mireea||F|1992-01-01|Constanta|CONSTANTA|Mamaia|79|||||0747872866||Dulama.miruu@yahoo.com|DUNFCBB||1 Sobranie KS Gold  (4mg) Pack|Yes|Yes||CT002735|CRICOROM TURISM SRL|Constanta|CTHRKBA95|156|CCC HRK SOBR FAM Vara 2013|121|Horeca|0
0|CS3527102|2013-08-02 23:11:45|Frone|Miruna||F|1989-03-03|Timis|Timisoa|Aleea crizantemelor|17|C|||19|0752166786||Frone.miruna@yahoo.com|MBRFPEX||1 Sobranie KS Gold  (4mg) Pack|Yes|No||CT002735|CRICOROM TURISM SRL|Constanta|CTHRKBA87|156|CCC HRK SOBR FAM Vara 2013|121|Horeca|0
0|CS3527108|2013-08-02 23:12:59|Mironea|Ema||F|1985-11-26|Constanta|CONSTANTA|Tomis|19|||||0742141566|||SBSSWH||1 Sobranie SS White (1mg) Pack|Yes|No||CT002735|CRICOROM TURISM SRL|Constanta|CTHRKBA87|156|CCC HRK SOBR FAM Vara 2013|121|Horeca|0
0|CS3527156|2013-08-02 23:22:47|Constantin|Emin||M|1986-05-28|Constanta|CONSTANTA|Cismelei|5|||||0727296439||Constantin_emin@yahoo.com|PARRSSH||1 Sobranie SS Black (6mg) Pack|Yes|Yes||CT004657|ETROMARE SRL|Constanta|CTHRKBA95|156|CCC HRK SOBR FAM Vara 2013|121|Horeca|0
0|CS3527199|2013-08-02 23:34:31|Palade|Camelia||F|1988-07-28|Constanta|CONSTANTA|Unirii|12|||||0722005567||Camy88@yahoo.com|GLPBMNFT||1 Sobranie SS Menthol (5 mg) Pack|Yes|Yes||CT004822|Event Club Crush|Constanta|CTHRKBA84|156|CCC HRK SOBR FAM Vara 2013|121|Horeca|0
0|CS3527200|2013-08-02 23:34:53|Ciobanu|Florin||M|1984-12-16|Constanta|CONSTANTA|Th Burada|67|||||0726590654||Florin_ciobanu@yahoo.com|MBRFPEX||1 Sobranie KS Gold  (4mg) Pack|Yes|Yes||CT004822|Event Club Crush|Constanta|CTHRKBA20|156|CCC HRK SOBR FAM Vara 2013|121|Horeca|0
0|CS3527201|2013-08-02 23:35:03|Caratas|Maria||F|1992-03-14|Constanta|CONSTANTA|Caragiale|15|||||0748577435||Maria.caratas@yahoo.com|GLMBL||1 Sobranie SS White (1mg) Pack|Yes|Yes||CT004822|Event Club Crush|Constanta|CTHRKBA95|156|CCC HRK SOBR FAM Vara 2013|121|Horeca|0
0|CS3527206|2013-08-02 23:36:55|Tufat|Silviu||M|1979-04-25|Constanta|CONSTANTA|Zmeurei|56|||||0744109823|||KTBL||1 Sobranie KS Black (8mg) Pack|Yes|Yes||CT004822|Event Club Crush|Constanta|CTHRKBA84|156|CCC HRK SOBR FAM Vara 2013|121|Horeca|0
0|CS3527211|2013-08-02 23:37:49|Chiritescu|Adrian||M|1990-06-04|Ialomita|Slobozia|Unirii|28|C|1||10|0742168865||Chiritescu.adrian@yahoo.com|DUNFCBB||1 Sobranie KS Gold  (4mg) Pack|Yes|No||CT004822|Event Club Crush|Constanta|CTHRKBA87|156|CCC HRK SOBR FAM Vara 2013|121|Horeca|0
0|CS3527209|2013-08-02 23:37:58|Marodin|Liviu||M|1982-03-01|Constanta|CONSTANTA|Albatros|60|||||0766438767||Liviu.marodin03@yahoo.com|KTNWH||1 Sobranie SS White (1mg) Pack|Yes|Yes||CT004822|Event Club Crush|Constanta|CTHRKBA20|156|CCC HRK SOBR FAM Vara 2013|121|Horeca|0
0|CS3527210|2013-08-02 23:38:08|Balan|Mihai||M|1984-06-22|Bucuresti|Bucuresti|Stefan cel mare|176|B||||0745254115||Mihai_balan@gmail.com|KTSWIT||1 Sobranie SS Menthol (5 mg) Pack|Yes|Yes||CT004822|Event Club Crush|Constanta|CTHRKBA95|156|CCC HRK SOBR FAM Vara 2013|121|Horeca|0
0|CS3527219|2013-08-02 23:40:33|Andrei|Ana maria||F|1983-09-29|Constanta|MEDGIDIA|Bdul ioan cuza|17|||||0740764976|||DAVSVSS||1 Sobranie SS Pink (3mg) Pack|Yes|Yes||CT004822|Event Club Crush|Constanta|CTHRKBA87|156|CCC HRK SOBR FAM Vara 2013|121|Horeca|0
0|CS3527251|2013-08-02 23:48:54|Marin|George||M|1989-09-11|Covasna|COVASNA|Republicii|61|||||0734956531||Marin.ion.george@yahoo.com|DUNFCSB||1 Sobranie KS Black (8mg) Pack|Yes|Yes||CT002935|Trotter Restaurant|Constanta|CTHRKBA95|156|CCC HRK SOBR FAM Vara 2013|121|Horeca|0
0|CS3527252|2013-08-02 23:48:58|Bolmandar|Bianca||F|1978-03-09|Constanta|CONSTANTA|Mamaia|206|||||0726578906||Biank_b@yahoo.com|GLMBL||1 Sobranie SS White (1mg) Pack|Yes|Yes||CT002935|Trotter Restaurant|Constanta|CTHRKBA20|156|CCC HRK SOBR FAM Vara 2013|121|Horeca|0
0|CS3527256|2013-08-02 23:49:43|Dinca|Beatrice||F|1976-06-27|Constanta|CONSTANTA|Pelicanului|3|||||0732100198||Bea.frumi@yahoo.com|VOGBL||1 Sobranie SS Black (6mg) Pack|Yes|Yes||CT002935|Trotter Restaurant|Constanta|CTHRKBA84|156|CCC HRK SOBR FAM Vara 2013|121|Horeca|0
0|CS3527257|2013-08-02 23:49:54|Busuioc|Mioara||F|1989-03-05|Bucuresti|1|Mihai viteazu|83|C|6||88|0747297654||Mioryca_89@yahoo.com|KTNWH||1 Sobranie SS White (1mg) Pack|Yes|No||CT002935|Trotter Restaurant|Constanta|CTHRKBA87|156|CCC HRK SOBR FAM Vara 2013|121|Horeca|0
0|CS3527263|2013-08-02 23:50:58|Dinu|Larisa||F|1987-04-19|Constanta|CONSTANTA|Bratianu|153|||||0754376878||Larisadinu@yahoo.com|KTNWH||1 Sobranie SS White (1mg) Pack|Yes|Yes||CT002935|Trotter Restaurant|Constanta|CTHRKBA20|156|CCC HRK SOBR FAM Vara 2013|121|Horeca|0
0|CS3527265|2013-08-02 23:51:13|Cazacu|Alexandru||M|1980-04-27|Constanta|CONSTANTA|I g duca|30|||||0732871045|||SBKSBK||1 Sobranie KS Black (8mg) Pack|Yes|Yes||CT002935|Trotter Restaurant|Constanta|CTHRKBA84|156|CCC HRK SOBR FAM Vara 2013|121|Horeca|0
0|CS3527273|2013-08-02 23:52:46|Barsan|Alin||M|1983-09-28|Calarasi|CALARASI|Bucurestilor|6|||||0748543247||Alincrazy@yahoo@yahaoo.com|DAVSVSS||1 Sobranie SS White (1mg) Pack|Yes|No||CT002935|Trotter Restaurant|Constanta|CTHRKBA87|156|CCC HRK SOBR FAM Vara 2013|121|Horeca|0
0|CS3527274|2013-08-02 23:52:46|Munteanu|Ioana||F|1990-06-24|Bucuresti|Bucuresti|Militari|34|D|||46|0746624687||Munteanu_ioana00@yahoo.com|DAVSVSS||1 Sobranie SS White (1mg) Pack|Yes|Yes||CT002935|Trotter Restaurant|Constanta|CTHRKBA95|156|CCC HRK SOBR FAM Vara 2013|121|Horeca|0
0|CS3527276|2013-08-02 23:53:03|Macovei|Denisa||F|1979-06-23|Bucuresti|SECTOR 3|Decebal|57|||||0722142309||Deny-roz@yahoo.com|DAVGLS||1 Sobranie SS Pink (3mg) Pack|Yes|Yes||CT002935|Trotter Restaurant|Constanta|CTHRKBA84|156|CCC HRK SOBR FAM Vara 2013|121|Horeca|0
0|CS3527283|2013-08-02 23:54:27|Miron|Claudiu||M|1986-12-01|Bucuresti|Bucuresti|Aviatorilor|70|||||0729705321||Claudiu.miron@yahoo.com|KTSV||1 Sobranie KS Gold  (4mg) Pack|Yes|Yes||CT002935|Trotter Restaurant|Constanta|CTHRKBA20|156|CCC HRK SOBR FAM Vara 2013|121|Horeca|0
0|CS3527287|2013-08-02 23:55:17|Avram|Mihaela||M|1986-04-05|Dambovita|CRANGASI|Aviatorilor|3|||||0747542278||Mihaela.avram@yahoo.com|SBSSPK||1 Sobranie SS Pink (3mg) Pack|Yes|No||CT002935|Trotter Restaurant|Constanta|CTHRKBA87|156|CCC HRK SOBR FAM Vara 2013|121|Horeca|0
0|CS3527307|2013-08-02 23:58:14|Apostolu|Monica||F|1989-04-06|Constanta|CONSTANTA|Grozesti|27|Aa|B||9|0747542257||Monicasweet@yahoo.com|KTBL6||1 Sobranie KS Blue (6mg) Pack|Yes|No||CT002935|Trotter Restaurant|Constanta|CTHRKBA87|156|CCC HRK SOBR FAM Vara 2013|121|Horeca|0
0|CS3527338|2013-08-03 00:06:34|Chiru|Valeria||F|1979-05-22|Constanta|CONSTANTA|Tulcei|24|||||0732109876|||KTNWH||1 Sobranie SS White (1mg) Pack|Yes|Yes||CT002935|Trotter Restaurant|Constanta|CTHRKBA84|156|CCC HRK SOBR FAM Vara 2013|121|Horeca|0
0|CS3527342|2013-08-03 00:07:45|Andronic|Iulia||F|1989-08-21|Iasi|Iasi|Mircea|64|||||0736488314||Iulitza_andronic@yahoo.com|KTSV||1 Sobranie KS Gold  (4mg) Pack|Yes|Yes||CT002935|Trotter Restaurant|Constanta|CTHRKBA95|156|CCC HRK SOBR FAM Vara 2013|121|Horeca|0
0|CS3527345|2013-08-03 00:09:16|Pop|Adelina||F|1982-08-30|Satu Mare|SATU MARE|Ion luca caragiale|5|||||0753257976||Pop.adelina82@yahoo.com|DAVGL||1 Sobranie KS Blue (6mg) Pack|Yes|No||CT002935|Trotter Restaurant|Constanta|CTHRKBA87|156|CCC HRK SOBR FAM Vara 2013|121|Horeca|0
0|CS3530648|2013-08-03 19:57:58|Ghinescu|Ioana||F|1986-04-25|Bucuresti|SECTOR 3|Victoriei|5|||||0724109187||Ghinescu.office@yahoo.com|KTSV||1 Sobranie KS Gold  (4mg) Pack|Yes|Yes||CT004657|ETROMARE SRL|Constanta|CTHRKBA84|156|CCC HRK SOBR FAM Vara 2013|121|Horeca|0
0|CS3530653|2013-08-03 19:58:18|Ranciu|Corina||F|1990-08-23|Constanta|BUGEAC|1 decembrie|1073|||||0747561396||Corina.ranciu@yahoo.com|DAVGLS||1 Sobranie KS Black (8mg) Pack|Yes|Yes||CT004657|ETROMARE SRL|Constanta|CTHRKBA95|156|CCC HRK SOBR FAM Vara 2013|121|Horeca|0
0|CS3530660|2013-08-03 19:59:10|Efteme|Iuliana||F|1989-08-02|Braila|Braila|Zorelelor|74|||||0737432245||Iuliana_efteme@yahoo.com|DUNFCBB||1 Sobranie KS Gold  (4mg) Pack|Yes|No||CT004657|ETROMARE SRL|Constanta|CTHRKBA87|156|CCC HRK SOBR FAM Vara 2013|121|Horeca|0
0|CS3530667|2013-08-03 20:00:28|Marcus|Liviu||M|1986-06-27|Constanta|CONSTANTA|Primaverii|56|||||0744101199||Liviu86@yahoo.com|DUNFCSB||1 Sobranie KS Black (8mg) Pack|Yes|Yes||CT004657|ETROMARE SRL|Constanta|CTHRKBA84|156|CCC HRK SOBR FAM Vara 2013|121|Horeca|0
0|CS3530668|2013-08-03 20:00:33|Ciobanu|Dorin||M|1981-04-01|Braila|Braila|Miorita|46|||||0768242974||Ciobanu_dorin@yahoo.com|DUNFCMBB||1 Sobranie KS Blue (6mg) Pack|Yes|Yes||CT004657|ETROMARE SRL|Constanta|CTHRKBA95|156|CCC HRK SOBR FAM Vara 2013|121|Horeca|0
0|CS3530681|2013-08-03 20:02:56|Anghel|Minodor||F|1985-10-29|Brasov|Brasov|Calimanesti|46|||||0761467889|||KTNWH||1 Sobranie SS White (1mg) Pack|Yes|No||CT004657|ETROMARE SRL|Constanta|CTHRKBA87|156|CCC HRK SOBR FAM Vara 2013|121|Horeca|0
0|CS3530686|2013-08-03 20:03:50|Nechifor|Alina||F|1984-04-23|Constanta|CONSTANTA|Tomis|102a|||||0724109945||Alinutza_sweet@yahoo.com|GLMMNT||1 Sobranie SS Menthol (5 mg) Pack|Yes|Yes||CT004657|ETROMARE SRL|Constanta|CTHRKBA84|156|CCC HRK SOBR FAM Vara 2013|121|Horeca|0
0|CS3530699|2013-08-03 20:05:39|Antonaru|Florin||M|1989-04-01|Dolj|Craiova|Salcesti|5|C|2||62|0774134567||Antonaruflorin@yahoo.com|PARSB||1 Sobranie KS Gold  (4mg) Pack|Yes|No||CT004657|ETROMARE SRL|Constanta|CTHRKBA87|156|CCC HRK SOBR FAM Vara 2013|121|Horeca|0
0|CS3530704|2013-08-03 20:07:10|Dimcea|Roxana||F|1993-10-06|Bucuresti|Bucuresti|Mircea|45|||||0769359657||Dimcea.roxana@yahoo.com|KTNWH||1 Sobranie SS White (1mg) Pack|Yes|Yes||CT004657|ETROMARE SRL|Constanta|CTHRKBA95|156|CCC HRK SOBR FAM Vara 2013|121|Horeca|0
0|CS3530711|2013-08-03 20:07:50|Clondir|Larisa||M|1984-11-29|Galati|Galati|Calea brailei|9|||||0751854324||Lary666@yahoo.com|MBRFP||1 Sobranie KS Blue (6mg) Pack|Yes|No||CT004657|ETROMARE SRL|Constanta|CTHRKBA87|156|CCC HRK SOBR FAM Vara 2013|121|Horeca|0
0|CS3530716|2013-08-03 20:08:14|Ivanov|Alin||M|1983-04-14|Constanta|CONACU|Verde|45|||||0754120091|||KTBL6||1 Sobranie KS Blue (6mg) Pack|Yes|Yes||CT004657|ETROMARE SRL|Constanta|CTHRKBA84|156|CCC HRK SOBR FAM Vara 2013|121|Horeca|0
0|CS3530903|2013-08-03 20:37:16|Enache|Vanda||F|1986-12-10|Constanta|CONSTANTA|Pescarilor|B4|||7|19|0723727604||Vandaenache@yahoo.com|SBKSBL||1 Sobranie KS Blue (6mg) Pack|Yes|Yes||CT004657|ETROMARE SRL|Constanta|CTHRKBA95|156|CCC HRK SOBR FAM Vara 2013|121|Horeca|0
0|CS3530911|2013-08-03 20:38:09|Cuciuc|Stelian||M|1979-08-23|Bucuresti|SECTOR 2|Ritmului|16|431|A|3|9|0733333393||stelian_cuciuc@yahoo.com|SBSSWH||1 Sobranie SS White (1mg) Pack|Yes|Yes||CT004657|ETROMARE SRL|Constanta|CTHRKBA84|156|CCC HRK SOBR FAM Vara 2013|121|Horeca|0
0|CS3530917|2013-08-03 20:39:50|Bianca|Ioana||F|1990-01-01|Bucuresti|SECTOR 1|Drumul lapus|110a|||||0724664467|||SBSSWH||1 Sobranie SS White (1mg) Pack|Yes|Yes||CT004657|ETROMARE SRL|Constanta|CTHRKBA84|156|CCC HRK SOBR FAM Vara 2013|121|Horeca|0
0|CS3530985|2013-08-03 20:50:20|Neagusor|Ilinca||F|1987-02-15|Iasi|IASI|Dacia|54|||||0722801980||Ilinca.puff@yahoo.com|GLMLIL||1 Sobranie SS Pink (3mg) Pack|Yes|Yes||CT001910|Amalfi Inc|Constanta|CTHRKBA84|156|CCC HRK SOBR FAM Vara 2013|121|Horeca|0
0|CS3530987|2013-08-03 20:50:32|Munteanu|Alexandru Ionel||M|1984-12-16|Constanta|CONSTANTA|Mihai Viteazu|18|||||0766587433||Alex.munteanu@yahoo.com|KTSV||1 Sobranie KS Gold  (4mg) Pack|Yes|Yes||CT001910|Amalfi Inc|Constanta|CTHRKBA20|156|CCC HRK SOBR FAM Vara 2013|121|Horeca|0
0|CS3530989|2013-08-03 20:50:58|Chiper|Nutica||F|1990-10-24|Braila|Ianca|Micsunelelor|5|||||0731578999||Nuticachiper.90@yahoo.com|DAVGLS||1 Sobranie SS Black (6mg) Pack|Yes|No||CT001910|Amalfi Inc|Constanta|CTHRKBA87|156|CCC HRK SOBR FAM Vara 2013|121|Horeca|0
0|CS3530992|2013-08-03 20:51:32|Miron|George||M|1991-05-10|Maramures|MAGURENI|Danubius|23|||||0761034208||Miron.geo99@yahoo.com|KTSV||1 Sobranie KS Gold  (4mg) Pack|Yes|Yes||CT001910|Amalfi Inc|Constanta|CTHRKBA95|156|CCC HRK SOBR FAM Vara 2013|121|Horeca|0
0|CS3530999|2013-08-03 20:52:22|Chiriac|Raluca||F|1981-08-19|Bucuresti|Bucuresti|Dorobanti|160|||||0765487212||Ralucutzacurly@yahoo.com|KTNWH||1 Sobranie SS White (1mg) Pack|Yes|Yes||CT001910|Amalfi Inc|Constanta|CTHRKBA20|156|CCC HRK SOBR FAM Vara 2013|121|Horeca|0
0|CS3531001|2013-08-03 20:52:31|Popa|Radu||M|1981-08-26|Bucuresti|SECTOR 4|Izvor|109|||||0742106576||Radu.r@yahoo.com|KTBL||1 Sobranie KS Black (8mg) Pack|Yes|Yes||CT001910|Amalfi Inc|Constanta|CTHRKBA84|156|CCC HRK SOBR FAM Vara 2013|121|Horeca|0
0|CS3531012|2013-08-03 20:54:11|Paraschiv|Nastase||M|1967-07-20|Sibiu|Sibiu|Iarmarocului|95|||||0748527885||Nastase.paraschiv@yahoo.com|DUNFCBB||1 Sobranie KS Gold  (4mg) Pack|Yes|No||CT001910|Amalfi Inc|Constanta|CTHRKBA95|156|CCC HRK SOBR FAM Vara 2013|121|Horeca|0
0|CS3531013|2013-08-03 20:54:18|Cocor|Aurelia||F|1980-06-17|Constanta|CONSTANTA|Eforia|70|||||0721908109|||GLMMNT||1 Sobranie SS Menthol (5 mg) Pack|Yes|Yes||CT001910|Amalfi Inc|Constanta|CTHRKBA84|156|CCC HRK SOBR FAM Vara 2013|121|Horeca|0
0|CS3531015|2013-08-03 20:54:19|Chirac|Nicoleta||F|1984-10-29|Constanta|CONSTANTA|Tomis|214|S|2||38|0754156097||Chiracsweet84@yahoo.com|VIRSFA||1 Sobranie SS Pink (3mg) Pack|Yes|No||CT001910|Amalfi Inc|Constanta|CTHRKBA87|156|CCC HRK SOBR FAM Vara 2013|121|Horeca|0
0|CS3531020|2013-08-03 20:55:00|Savuica|Flavia||F|1986-11-04|Constanta|CONSTANTA|8martie|21|||||0766543322||Flavia_savuica@yahoo.com|GLMBL||1 Sobranie SS White (1mg) Pack|Yes|Yes||CT001910|Amalfi Inc|Constanta|CTHRKBA20|156|CCC HRK SOBR FAM Vara 2013|121|Horeca|0
0|CS3531031|2013-08-03 20:56:44|Toma|Virgil||M|1980-05-06|Constanta|CONSTANTA|Al Lapusneanu|172|||||0735690987||Virgil.toma@yahoo.com|DUNFCBB||1 Sobranie KS Gold  (4mg) Pack|Yes|Yes||CT001910|Amalfi Inc|Constanta|CTHRKBA20|156|CCC HRK SOBR FAM Vara 2013|121|Horeca|0
0|CS3531044|2013-08-03 20:58:12|Botescu|Irina||F|1977-05-08|Galati|GALATI|Delfinul|13|B|||23|0768436478||Irina.botescu@yahoo.com|VIRSV||1 Sobranie SS White (1mg) Pack|Yes|Yes||CT001910|Amalfi Inc|Constanta|CTHRKBA95|156|CCC HRK SOBR FAM Vara 2013|121|Horeca|0
0|CS3531215|2013-08-03 21:21:38|Ursu|Constantin||M|1992-04-10|Galati|Galati|Dunarea|47|||||0761200467||Costi.ursu@yahoo.com|DAVGL||1 Sobranie KS Blue (6mg) Pack|Yes|Yes||CT004822|Event Club Crush|Constanta|CTHRKBA95|156|CCC HRK SOBR FAM Vara 2013|121|Horeca|0
0|CS3531223|2013-08-03 21:22:32|Chiru|Ramona||F|1989-02-13|Brasov|BRASOV|Independentei|88|||||0735478321||Ramona_chiru@yahoo.com|DAVGL||1 Sobranie KS Blue (6mg) Pack|Yes|Yes||CT004822|Event Club Crush|Constanta|CTHRKBA20|156|CCC HRK SOBR FAM Vara 2013|121|Horeca|0
0|CS3531239|2013-08-03 21:24:14|Geageac|Ionut||M|1987-09-28|Ialomita|Slobozia|Eternitatii|62|2|1||4|0741753226||Geagi-ionut@yahoo.com|VOGLL||1 Sobranie SS Pink (3mg) Pack|Yes|No||CT004822|Event Club Crush|Constanta|CTHRKBA87|156|CCC HRK SOBR FAM Vara 2013|121|Horeca|0
0|CS3531240|2013-08-03 21:24:21|Vlase|Dan||M|1981-04-20|Constanta|CONSTANTA|Dimitrie Cantemir|53|||||0765498709||Dan.vlase@yahoo.com|KTSV||1 Sobranie KS Gold  (4mg) Pack|Yes|Yes||CT004822|Event Club Crush|Constanta|CTHRKBA20|156|CCC HRK SOBR FAM Vara 2013|121|Horeca|0
0|CS3531244|2013-08-03 21:24:35|Goane|Mihai||M|1992-09-15|Constanta|Constanta|Poporului|32|||||0747356756||Goane.mihai@yahoo.com|KTBL||1 Sobranie KS Black (8mg) Pack|Yes|Yes||CT004822|Event Club Crush|Constanta|CTHRKBA95|156|CCC HRK SOBR FAM Vara 2013|121|Horeca|0
0|CS3531265|2013-08-03 21:27:35|OLanescu|Maria||F|1984-07-24|Brasov|BRAN|Zmeuluui|22|||||0724109871|||GLMLIL||1 Sobranie SS Pink (3mg) Pack|Yes|Yes||CT004822|Event Club Crush|Constanta|CTHRKBA84|156|CCC HRK SOBR FAM Vara 2013|121|Horeca|0
0|CS3531267|2013-08-03 21:27:52|Rizea|Liliana||F|1985-07-12|Bucuresti|Bucuresti|Pantelimon|76|||||0788765443||Lilianarizea85@yahoo.com|KTNWH||1 Sobranie SS White (1mg) Pack|Yes|Yes||CT004822|Event Club Crush|Constanta|CTHRKBA20|156|CCC HRK SOBR FAM Vara 2013|121|Horeca|0
0|CS3531270|2013-08-03 21:28:02|Dulea|Alexandra||F|1990-08-11|Bucuresti|Bucuresti|Lascar catargiu|5|||||0768734537||Dulea.alexandra@gmail.com|GLMBL||1 Sobranie SS White (1mg) Pack|Yes|Yes||CT004822|Event Club Crush|Constanta|CTHRKBA95|156|CCC HRK SOBR FAM Vara 2013|121|Horeca|0
0|CS3531274|2013-08-03 21:28:39|Varuiala|Adina||M|1983-10-29|Bucuresti|Buc|Independentei|31|||||0720735343||Adina_4you@yahoo.com|DAVSVSS||1 Sobranie SS Pink (3mg) Pack|Yes|No||CT004822|Event Club Crush|Constanta|CTHRKBA87|156|CCC HRK SOBR FAM Vara 2013|121|Horeca|0
0|CS3531283|2013-08-03 21:29:50|Pusa|Elena||F|1988-05-20|Constanta|CONSTANTA|Poporului|3|||||0732108090||Ely-girl@yahoo.com|VOGLL||1 Sobranie SS White (1mg) Pack|Yes|Yes||CT004822|Event Club Crush|Constanta|CTHRKBA84|156|CCC HRK SOBR FAM Vara 2013|121|Horeca|0
0|CS3531296|2013-08-03 21:31:25|Samson|Alexandru||M|1982-09-26|Constanta|CONSTANTA|Aleea fragilor|90|||||0754123409|||PARABH||1 Sobranie KS Blue (6mg) Pack|Yes|Yes||CT004822|Event Club Crush|Constanta|CTHRKBA84|156|CCC HRK SOBR FAM Vara 2013|121|Horeca|0
0|CS3531341|2013-08-03 21:37:44|Zamfir|Andrei||M|1993-09-14|Ilfov|Ilfov|Eroul iancului|126|||||0722222313|||KTBL||1 Sobranie KS Blue (6mg) Pack|Yes|Yes||CT004822|Event Club Crush|Constanta|CTHRKBA87|156|CCC HRK SOBR FAM Vara 2013|121|Horeca|0
0|CS3531361|2013-08-03 21:40:50|Dobos|Giuliano||M|1992-03-23|Bucuresti|SECTOR 5|Zamfir Olaru|11|||||0768810295||Dogof07@yahoo.com|ROTH||1 Sobranie KS Black (8mg) Pack|Yes|Yes||CT004822|Event Club Crush|Constanta|CTHRKBA20|156|CCC HRK SOBR FAM Vara 2013|121|Horeca|0
0|CS3531497|2013-08-03 21:58:01|Malciu|Andrei||M|1983-07-29|Constanta|CONSTANTA|Mircea cel bAtran|3|||||0729104629||Andrew22@yahoo.com|KTBL||1 Sobranie KS Black (8mg) Pack|Yes|Yes||CT004093|CRICOROM TURISM SRL TERASA AZA|Constanta|CTHRKBA84|156|CCC HRK SOBR FAM Vara 2013|121|Horeca|0
0|CS3531514|2013-08-03 21:59:33|Crin|Ioana||F|1988-07-23|Bucuresti|SECTOR 3|Teilor|44|||||0765142790|||GLMMNT||1 Sobranie SS Menthol (5 mg) Pack|Yes|Yes||CT004093|CRICOROM TURISM SRL TERASA AZA|Constanta|CTHRKBA84|156|CCC HRK SOBR FAM Vara 2013|121|Horeca|0
0|CS3531516|2013-08-03 21:59:53|Ontel|Florin||M|1992-04-05|Sibiu|Sibiu|Calinescu|12|||||0746756856||Ontel.florin.12@yahoo.com|KTBL6||1 Sobranie KS Blue (6mg) Pack|Yes|Yes||CT004093|CRICOROM TURISM SRL TERASA AZA|Constanta|CTHRKBA95|156|CCC HRK SOBR FAM Vara 2013|121|Horeca|0
0|CS3531521|2013-08-03 22:00:28|Boboc|Loredana||F|1988-06-01|Constanta|CONSTANTA|Ion Lahovari|60|||||0726598787||Loredanaboboc@yahoo.com|MBRFPEX||1 Sobranie KS Gold  (4mg) Pack|Yes|Yes||CT004093|CRICOROM TURISM SRL TERASA AZA|Constanta|CTHRKBA20|156|CCC HRK SOBR FAM Vara 2013|121|Horeca|0
0|CS3531524|2013-08-03 22:00:42|Bunea|Nicoleta||F|1984-11-30|Constanta|CONSTANTA|Unirii|15|A|1||19|0731568764||Nico.bunea@yhoo.com|MBRFP||1 Sobranie KS Blue (6mg) Pack|Yes|Yes||CT004093|CRICOROM TURISM SRL TERASA AZA|Constanta|CTHRKBA87|156|CCC HRK SOBR FAM Vara 2013|121|Horeca|0
0|CS3531537|2013-08-03 22:02:35|Morel|Adriana||F|1989-07-28|Constanta|CONSTANTA|Tabla butii|55|||||0724189012||Bombon.africano@yahoo.com|VOGBL||1 Sobranie SS Black (6mg) Pack|Yes|Yes||CT004093|CRICOROM TURISM SRL TERASA AZA|Constanta|CTHRKBA84|156|CCC HRK SOBR FAM Vara 2013|121|Horeca|0
0|CS3531538|2013-08-03 22:02:44|Rata|Irina||F|1990-12-21|Constanta|CONSTANTA|Unirii|6|G|||17|0725467735||Rata.irina@gmail.com|GLMLIL||1 Sobranie SS Pink (3mg) Pack|Yes|No||CT004093|CRICOROM TURISM SRL TERASA AZA|Constanta|CTHRKBA95|156|CCC HRK SOBR FAM Vara 2013|121|Horeca|0
0|CS3531540|2013-08-03 22:02:57|Banu|Mihaela||F|1984-05-25|Braila|BRAILA|Independentei|15|||||0766789084||Mihaela_banu@yahoo.com|VIRSV||1 Sobranie SS Pink (3mg) Pack|Yes|Yes||CT004093|CRICOROM TURISM SRL TERASA AZA|Constanta|CTHRKBA20|156|CCC HRK SOBR FAM Vara 2013|121|Horeca|0
0|CS3531544|2013-08-03 22:03:17|Toma|Andreea||F|1983-11-29|Bistrita Nasaud|BISTRITA BARGAULUI|Principala|18|||||0746432145||Andreeanot4you@yahoo.com|KTWH||1 Sobranie SS White (1mg) Pack|Yes|No||CT004093|CRICOROM TURISM SRL TERASA AZA|Constanta|CTHRKBA87|156|CCC HRK SOBR FAM Vara 2013|121|Horeca|0
0|CS3531554|2013-08-03 22:05:07|Arnautu|Mihai||M|1982-09-27|Constanta|CONSTANTA|Mangaliei|15|||||0726109271||Badboy33@yahoo.com|KTBL||1 Sobranie KS Black (8mg) Pack|Yes|Yes||CT004093|CRICOROM TURISM SRL TERASA AZA|Constanta|CTHRKBA84|156|CCC HRK SOBR FAM Vara 2013|121|Horeca|0
0|CS3531555|2013-08-03 22:05:20|Simion|Cristian||M|1995-04-01|Bucuresti|Buc|Ecaterina teodoroi|18|A0|4||79|0752157809|||PARABH||1 Sobranie KS Black (8mg) Pack|Yes|Yes||CT004093|CRICOROM TURISM SRL TERASA AZA|Constanta|CTHRKBA87|156|CCC HRK SOBR FAM Vara 2013|121|Horeca|0
0|CS3531661|2013-08-03 22:27:35|Caracostea|Luiza||F|1989-07-25|Constanta|CONSTANTA|Ion Voda|49|||||0721893631|||VOGLL||1 Sobranie SS Pink (3mg) Pack|Yes|Yes||CT009095|Ocean Cafe SRL|Constanta|CTHRKBA20|156|CCC HRK SOBR FAM Vara 2013|121|Horeca|0
0|CS3531681|2013-08-03 22:30:59|Lazar|Calin||M|1986-04-06|Maramures|Mures|Muncii|25|C|||2|0763146789|||KTBL||1 Sobranie KS Blue (6mg) Pack|Yes|Yes||CT009095|Ocean Cafe SRL|Constanta|CTHRKBA87|156|CCC HRK SOBR FAM Vara 2013|121|Horeca|0
0|CS3531696|2013-08-03 22:32:37|Baboian|Emanuel||M|1993-07-27|Bucuresti|SECTOR 2|Polona|27|||||0730023816|||KTSWIT||1 Sobranie KS Gold  (4mg) Pack|Yes|Yes||CT009095|Ocean Cafe SRL|Constanta|CTHRKBA84|156|CCC HRK SOBR FAM Vara 2013|121|Horeca|0
0|CS3531714|2013-08-03 22:34:53|Constantinos|Anagnostou||M|1989-06-08|Constanta|CONSTANTA|Ioan borcea|61|||||0734384391||Costasktm@yahoo.com|KTSV||1 Sobranie KS Gold  (4mg) Pack|Yes|No||CT009095|Ocean Cafe SRL|Constanta|CTHRKBA95|156|CCC HRK SOBR FAM Vara 2013|121|Horeca|0
0|CS3531740|2013-08-03 22:37:51|Grasu|Iulian||M|1978-05-24|Constanta|CONSTANTA|Pandurului|93|||||0723680994|||KTWH||1 Sobranie SS White (1mg) Pack|Yes|Yes||CT009095|Ocean Cafe SRL|Constanta|CTHRKBA87|156|CCC HRK SOBR FAM Vara 2013|121|Horeca|0
0|CS3531765|2013-08-03 22:40:17|Moromete|Adrian||M|1989-05-24|Constanta|CONSTANTA|Tulcei|5|A|||3|0747030093||Adi_morro@yahoo.com|DUNFCMBB||1 Sobranie KS Blue (6mg) Pack|Yes|No||CT009095|Ocean Cafe SRL|Constanta|CTHRKBA95|156|CCC HRK SOBR FAM Vara 2013|121|Horeca|0
0|CS3531789|2013-08-03 22:44:01|Toader|Anisa||F|1987-03-18|Dambovita|TARGOVISTE|Maior Alexandrescu|63|||||0735496834||Anysya23diva@yahoo.com|VIRSM||1 Sobranie SS Menthol (5 mg) Pack|Yes|Yes||CT009095|Ocean Cafe SRL|Constanta|CTHRKBA20|156|CCC HRK SOBR FAM Vara 2013|121|Horeca|0
0|CS3531840|2013-08-03 22:53:07|Raclea|Daniel||M|1977-08-25|Galati|GALATI|Bd dunarea|44|||||0742353862|||SBKSBK||1 Sobranie KS Blue (6mg) Pack|Yes|Yes||CT003940|CRICOROM TURISM SRL TERASA MOTOR|Constanta|CTHRKBA84|156|CCC HRK SOBR FAM Vara 2013|121|Horeca|0
0|CS3531855|2013-08-03 22:56:18|Apostu|Marian||M|1985-11-01|Bucuresti|Buc|Aleea barsanesti|2|156|2||78|0740010085|||MBRRD||1 Sobranie KS Black (8mg) Pack|Yes|Yes||CT003940|CRICOROM TURISM SRL TERASA MOTOR|Constanta|CTHRKBA87|156|CCC HRK SOBR FAM Vara 2013|121|Horeca|0
0|CS3531860|2013-08-03 22:56:38|Olteanu|Ovidiu||M|1973-08-30|Dambovita|FIENI|Codisorului|13|||||0720997766|||SBKSBL||1 Sobranie KS Blue (6mg) Pack|Yes|Yes||CT003940|CRICOROM TURISM SRL TERASA MOTOR|Constanta|CTHRKBA20|156|CCC HRK SOBR FAM Vara 2013|121|Horeca|0
0|CS3531862|2013-08-03 22:56:41|Manole|MihaelA||F|1986-01-01|Bucuresti|SECTOR 4|Oltenitei|119|||||0722091232|||SBSSWH||1 Sobranie SS White (1mg) Pack|Yes|Yes||CT003940|CRICOROM TURISM SRL TERASA MOTOR|Constanta|CTHRKBA84|156|CCC HRK SOBR FAM Vara 2013|121|Horeca|0
0|CS3531869|2013-08-03 22:57:36|Barsan|Claudia||F|1984-12-22|Prahova|PLOIESTI|Aleea biruintei|1|134A|||14|0726338606||Claudia_afanase@yahoo.com|KTSWITH||1 Sobranie SS Menthol (5 mg) Pack|Yes|Yes||CT003940|CRICOROM TURISM SRL TERASA MOTOR|Constanta|CTHRKBA95|156|CCC HRK SOBR FAM Vara 2013|121|Horeca|0
0|CS3531881|2013-08-03 23:01:50|Draghici|Andreea||F|1990-11-29|Prahova|BARCANESTI|Dn1|338|||||0720706985||Andrush_k_galush_k@yahoo.com|GLMMNT||1 Sobranie KS Blue (6mg) Pack|Yes|Yes||CT003940|CRICOROM TURISM SRL TERASA MOTOR|Constanta|CTHRKBA95|156|CCC HRK SOBR FAM Vara 2013|121|Horeca|0
0|CS3531922|2013-08-03 23:11:17|Ionescu|Lorena||F|1987-07-27|Ilfov|BRAGADIRU|Caporalului|31|||||0743017087||Lorychic@yahoo.com|SBSSBK||1 Sobranie SS Black (6mg) Pack|Yes|Yes||CT003940|CRICOROM TURISM SRL TERASA MOTOR|Constanta|CTHRKBA20|156|CCC HRK SOBR FAM Vara 2013|121|Horeca|0
0|CS3531929|2013-08-03 23:12:46|Mocanu|Francesco||M|1988-04-04|Bucuresti|SECTOR 5|Calea rahovei|217|||||0724108345|||MBRRD||1 Sobranie KS Black (8mg) Pack|Yes|Yes||CT003940|CRICOROM TURISM SRL TERASA MOTOR|Constanta|CTHRKBA84|156|CCC HRK SOBR FAM Vara 2013|121|Horeca|0
0|CS3531933|2013-08-03 23:13:07|Tugui|Georgr||M|1986-10-31|Calarasi|OLTENITA|Pacii|3|||||0726725178|||KTBL||1 Sobranie KS Black (8mg) Pack|Yes|Yes||CT003940|CRICOROM TURISM SRL TERASA MOTOR|Constanta|CTHRKBA87|156|CCC HRK SOBR FAM Vara 2013|121|Horeca|0
0|CS3531941|2013-08-03 23:15:40|Vernaz|Aliona||F|1982-05-21|Galati|GALATI|Arad|16|||||0758311993||Vernazaliona@gmail.com|VOGABP||1 Sobranie SS Black (6mg) Pack|Yes|Yes||CT003940|CRICOROM TURISM SRL TERASA MOTOR|Constanta|CTHRKBA20|156|CCC HRK SOBR FAM Vara 2013|121|Horeca|0
0|CS3531978|2013-08-03 23:25:05|Banu|Ioana||F|1980-09-24|Constanta|CONSTANTA|Perinita|59|||||0725176545||Ioanablabla@yahoo.com|MBRGLT||1 Sobranie KS Blue (6mg) Pack|Yes|Yes||CT002735|CRICOROM TURISM SRL|Constanta|CTHRKBA84|156|CCC HRK SOBR FAM Vara 2013|121|Horeca|0
0|CS3531983|2013-08-03 23:26:09|Nicea|Dumitru||M|1988-04-20|Buzau|BUZAU|Liliacului|5|||||0720654879||Dumitru.nicea@yahoo.com|KTSV||1 Sobranie KS Gold  (4mg) Pack|Yes|Yes||CT002735|CRICOROM TURISM SRL|Constanta|CTHRKBA20|156|CCC HRK SOBR FAM Vara 2013|121|Horeca|0
0|CS3531986|2013-08-03 23:26:33|Fulga|Alexandra||F|1991-04-11|Bucuresti|Bucuresti|Lahovari|8|||||0746211397||Alexandra.fulga@yahoo.com|DUNFCBB||1 Sobranie KS Gold  (4mg) Pack|Yes|Yes||CT002735|CRICOROM TURISM SRL|Constanta|CTHRKBA95|156|CCC HRK SOBR FAM Vara 2013|121|Horeca|0
0|CS3531987|2013-08-03 23:26:46|Crivat|Iuliana||F|1981-06-29|Constanta|CONSTANTA|Poetilor|24|||||0724194345|||GLMMNT||1 Sobranie SS Menthol (5 mg) Pack|Yes|Yes||CT002735|CRICOROM TURISM SRL|Constanta|CTHRKBA84|156|CCC HRK SOBR FAM Vara 2013|121|Horeca|0
0|CS3531988|2013-08-03 23:28:30|Bujor|Razvan||M|1980-11-15|Constanta|CONSTANTA|Arcasului|11|||||0721593266||Razvan.bujor@yahoo.com|DUNFCMBB||1 Sobranie KS Blue (6mg) Pack|Yes|Yes||CT002735|CRICOROM TURISM SRL|Constanta|CTHRKBA20|156|CCC HRK SOBR FAM Vara 2013|121|Horeca|0
0|CS3531990|2013-08-03 23:28:41|Malaias|Crina||F|1990-11-01|Bucuresti|SECTOR 3|Pelicanului|22|||||0724189065||Crina-papusa@yahoo.com|GLMBL||1 Sobranie SS White (1mg) Pack|Yes|Yes||CT002735|CRICOROM TURISM SRL|Constanta|CTHRKBA84|156|CCC HRK SOBR FAM Vara 2013|121|Horeca|0
0|CS3531994|2013-08-03 23:29:13|Tinica|Anatol||M|1988-05-13|Bacau|Bacau|Andromeda|5|D|||15|0737572150||Tinuca_anatol@gmail.com|KTNWH||1 Sobranie SS White (1mg) Pack|Yes|Yes||CT002735|CRICOROM TURISM SRL|Constanta|CTHRKBA95|156|CCC HRK SOBR FAM Vara 2013|121|Horeca|0
0|CS3532013|2013-08-03 23:29:20|Chiritea|Daniel||M|1986-01-01|Alba|ALBA IULIA|Luminii|5|T|1||6|0765547886||Daniel.chiritea@yahoo.com|DAVGL||1 Sobranie KS Blue (6mg) Pack|Yes|No||CT002735|CRICOROM TURISM SRL|Constanta|CTHRKBA87|156|CCC HRK SOBR FAM Vara 2013|121|Horeca|0
0|CS3532003|2013-08-03 23:30:49|Ploiesteanu|Antonela||F|1990-03-21|Constanta|CONSTANTA|Pandurului|68|||||0776598332||Antonela.ploiesteanu@yahoo.com|GLMBL||1 Sobranie SS White (1mg) Pack|Yes|Yes||CT002735|CRICOROM TURISM SRL|Constanta|CTHRKBA20|156|CCC HRK SOBR FAM Vara 2013|121|Horeca|0
0|CS3532008|2013-08-03 23:31:44|Duhnea|Emilian||M|1988-07-29|Brasov|BRASOV|Periferie|123|||||0765109826||Emi.emilian.9@yahoo.com|KTBL6||1 Sobranie KS Blue (6mg) Pack|Yes|Yes||CT002735|CRICOROM TURISM SRL|Constanta|CTHRKBA84|156|CCC HRK SOBR FAM Vara 2013|121|Horeca|0
0|CS3532009|2013-08-03 23:32:16|Pintea|Elena||F|1981-10-14|Bucuresti|Bucuresti|Florilor|5|||||0737805484||Pintea.3elena@gmail.com|DAVGLS||1 Sobranie KS Black (8mg) Pack|Yes|Yes||CT002735|CRICOROM TURISM SRL|Constanta|CTHRKBA95|156|CCC HRK SOBR FAM Vara 2013|121|Horeca|0
0|CS3532011|2013-08-03 23:32:35|Sandu|Angel||M|1983-10-29|Constanta|CONSTANTA|Dragoslavelor|17|2|1||2|0741736358|||KTBL||1 Sobranie KS Black (8mg) Pack|Yes|Yes||CT002735|CRICOROM TURISM SRL|Constanta|CTHRKBA87|156|CCC HRK SOBR FAM Vara 2013|121|Horeca|0
0|CS3532014|2013-08-03 23:33:27|Croitoriu|Elis||F|1986-09-15|Bucuresti|Bucuresti|Tudor Arghezi|24|||||0766598065||Eliscroitoriu@yahoo.com|MBRFP||1 Sobranie KS Blue (6mg) Pack|Yes|Yes||CT002735|CRICOROM TURISM SRL|Constanta|CTHRKBA20|156|CCC HRK SOBR FAM Vara 2013|121|Horeca|0
0|CS3532024|2013-08-03 23:35:55|Caraiman|Georgian||M|1988-05-03|Tulcea|Tulcea|Centrala|16|||||0741578990||Caraimangeorgian@yahoo.com|MBRGLFT||1 Sobranie KS Gold  (4mg) Pack|Yes|No||CT002735|CRICOROM TURISM SRL|Constanta|CTHRKBA87|156|CCC HRK SOBR FAM Vara 2013|121|Horeca|0
0|CS3532025|2013-08-03 23:36:11|Lupusor|Madalina||F|1990-06-10|Braila|TUDOR VLADIMIRESCU|Grigorescu|38|||||0768359386||Lupusir_mada@yahoo.com|GLMBL||1 Sobranie SS White (1mg) Pack|Yes|No||CT002735|CRICOROM TURISM SRL|Constanta|CTHRKBA95|156|CCC HRK SOBR FAM Vara 2013|121|Horeca|0
0|CS3532026|2013-08-03 23:36:21|Bogdana|Ploae||F|1984-02-14|Constanta|CONSTANTA|Badea Cartan|49|||||0722657778||Bogdanaploae@yahoo.com|SBSSWH||1 Sobranie SS White (1mg) Pack|Yes|Yes||CT002735|CRICOROM TURISM SRL|Constanta|CTHRKBA20|156|CCC HRK SOBR FAM Vara 2013|121|Horeca|0
0|CS3532028|2013-08-03 23:38:53|Ispas|Daniel||M|1989-09-30|Calarasi|Calarasi|Tabla butii|51|||||0751963242||Ispasdaniel@yahoo.com|KTSV||1 Sobranie KS Gold  (4mg) Pack|Yes|No||CT002735|CRICOROM TURISM SRL|Constanta|CTHRKBA87|156|CCC HRK SOBR FAM Vara 2013|121|Horeca|0
0|CS3532031|2013-08-03 23:39:29|Dobre|Claudia||F|1980-05-24|Dambovita|CRACIUNESTI|Radacini|64|||||0785566284||Dobre.claudia.09@yahoo.com|VOGLL||1 Sobranie SS White (1mg) Pack|Yes|Yes||CT002735|CRICOROM TURISM SRL|Constanta|CTHRKBA95|156|CCC HRK SOBR FAM Vara 2013|121|Horeca|0
0|CS3532035|2013-08-03 23:40:55|Batlan|Bianca||F|1984-11-30|Botosani|BOTOSANI|Banu mihalcea|4|||||0738541416|||SBSSWH||1 Sobranie SS White (1mg) Pack|Yes|No||CT002735|CRICOROM TURISM SRL|Constanta|CTHRKBA87|156|CCC HRK SOBR FAM Vara 2013|121|Horeca|0
0|CS3532047|2013-08-03 23:44:18|Filimon|Izabela||F|1982-07-30|Constanta|CONSTANTA|Badea cartan|5|||||0762346230||Issa.issu@yahoo.com|GLMBL||1 Sobranie SS White (1mg) Pack|Yes|Yes||CT002935|Trotter Restaurant|Constanta|CTHRKBA84|156|CCC HRK SOBR FAM Vara 2013|121|Horeca|0
0|CS3532049|2013-08-03 23:44:49|Valeanu|Vlad||M|1986-07-24|Iasi|Iasi|Luminii|59|||||0739058734||Vladdy_valean@gmail.com|PARRSSH||1 Sobranie KS Black (8mg) Pack|Yes|Yes||CT002935|Trotter Restaurant|Constanta|CTHRKBA95|156|CCC HRK SOBR FAM Vara 2013|121|Horeca|0
0|CS3532052|2013-08-03 23:45:05|Ioachim|Ana||F|1982-10-16|Buzau|BUZAU|Bujorilor|40|||||0735467784||Anaioachim10@yahoo.com|KTNBK||1 Sobranie SS Pink (3mg) Pack|Yes|Yes||CT002935|Trotter Restaurant|Constanta|CTHRKBA20|156|CCC HRK SOBR FAM Vara 2013|121|Horeca|0
0|CS3532058|2013-08-03 23:45:42|Bob|Iulian||M|1984-10-28|Cluj|CLUJ NAPOCA|Aleea aries|4|R|1||8|0739876438||Bobiulian@yahoo.com|DUNFCBB||1 Sobranie KS Gold  (4mg) Pack|Yes|Yes||CT002935|Trotter Restaurant|Constanta|CTHRKBA87|156|CCC HRK SOBR FAM Vara 2013|121|Horeca|0
0|CS3532059|2013-08-03 23:45:56|Mocanu|Miruna||F|1989-06-22|Constanta|CONSTANTA|Ecaterina varga|13|||||0767980912||Sweetheart10@yahoo.com|KTNWH||1 Sobranie SS White (1mg) Pack|Yes|Yes||CT002935|Trotter Restaurant|Constanta|CTHRKBA84|156|CCC HRK SOBR FAM Vara 2013|121|Horeca|0
0|CS3532065|2013-08-03 23:47:09|Fanescu|Tamira||F|1990-07-26|Constanta|CONSTANTA|Vihor haiducul|32|||||0768463667||Fany856@yahoo.com|VIRSFA||1 Sobranie SS White (1mg) Pack|Yes|No||CT002935|Trotter Restaurant|Constanta|CTHRKBA95|156|CCC HRK SOBR FAM Vara 2013|121|Horeca|0
0|CS3532066|2013-08-03 23:47:23|Haghiac|Geanina||F|1980-04-12|Constanta|CONSTANTA|I.l.Caragiale|97|||||0765876433||Geani_haghiac@yahoo.com|VOGDV||1 Sobranie KS Black (8mg) Pack|Yes|Yes||CT002935|Trotter Restaurant|Constanta|CTHRKBA20|156|CCC HRK SOBR FAM Vara 2013|121|Horeca|0
0|CS3532068|2013-08-03 23:47:49|Minca|Eduard||M|1989-11-28|Bucuresti|SECTOR 3|Dacia|4|||||0767678967||Eduard.at@yahoo.com|KTBL||1 Sobranie KS Blue (6mg) Pack|Yes|Yes||CT002935|Trotter Restaurant|Constanta|CTHRKBA84|156|CCC HRK SOBR FAM Vara 2013|121|Horeca|0
0|CS3532073|2013-08-03 23:48:27|Buliga|Alina||F|1991-03-01|Constanta|CONSTANTA|Aleea bahiului|17|Ah|5||98|0754327926||Buliga.alina@yahoo.com|KTNWH||1 Sobranie SS White (1mg) Pack|Yes|No||CT002935|Trotter Restaurant|Constanta|CTHRKBA87|156|CCC HRK SOBR FAM Vara 2013|121|Horeca|0
0|CS3532074|2013-08-03 23:49:16|Sandulescu|Silvia||F|1989-02-11|Constanta|NAVODARI|Delfinului|12|||||0755476032||Silvia_sandulescu@yahoo.com|GLMMNT||1 Sobranie SS Menthol (5 mg) Pack|Yes|Yes||CT002935|Trotter Restaurant|Constanta|CTHRKBA20|156|CCC HRK SOBR FAM Vara 2013|121|Horeca|0
0|CS3532078|2013-08-03 23:49:55|Pestritu|Cosmina||F|1988-09-27|Constanta|CONSTANTA|Morisca|29|||||0725109276||Cosmy999@yahoo.com|DUNFCBB||1 Sobranie KS Gold  (4mg) Pack|Yes|Yes||CT002935|Trotter Restaurant|Constanta|CTHRKBA84|156|CCC HRK SOBR FAM Vara 2013|121|Horeca|0
0|CS3532087|2013-08-03 23:50:55|Caragea|Georgiana||F|1987-07-24|Constanta|CONSTANTA|Alexandru lapusneanu|79|||||0748231860||Georgi_caragea_k@yahoo.com|KTNWH||1 Sobranie SS White (1mg) Pack|Yes|Yes||CT002935|Trotter Restaurant|Constanta|CTHRKBA95|156|CCC HRK SOBR FAM Vara 2013|121|Horeca|0
0|CS3532090|2013-08-03 23:51:37|Scanteie|Andra||F|1982-05-21|Constanta|CONSTANTA|Crinului|82|||||0745189012|||PARRSSMH||1 Sobranie SS Menthol (5 mg) Pack|Yes|Yes||CT002935|Trotter Restaurant|Constanta|CTHRKBA84|156|CCC HRK SOBR FAM Vara 2013|121|Horeca|0
0|CS3532093|2013-08-03 23:52:04|Vitan|Corina||F|1983-09-11|Botosani|BOTOSANI|Luminii|1|||||0765494455||Corina.vitan8300@yahoo.com|DUNFCSB||1 Sobranie KS Black (8mg) Pack|Yes|Yes||CT002935|Trotter Restaurant|Constanta|CTHRKBA20|156|CCC HRK SOBR FAM Vara 2013|121|Horeca|0
0|CS3532098|2013-08-03 23:52:53|Soare|Catalin||M|1982-07-28|Constanta|CONSTANTA|Grivitei|54|||||0754648883||Catalin.sare@yahoo.com|KTNWH||1 Sobranie SS White (1mg) Pack|Yes|Yes||CT002935|Trotter Restaurant|Constanta|CTHRKBA95|156|CCC HRK SOBR FAM Vara 2013|121|Horeca|0
0|CS3532100|2013-08-03 23:53:06|Cercel|Narcisa||F|1984-07-30|Covasna|COVASNA|Emil racovita|18|Q|1|1|15|0756542324||Cercel.narcis@yahoo.com|DAVGLS||1 Sobranie KS Blue (6mg) Pack|Yes|Yes||CT002935|Trotter Restaurant|Constanta|CTHRKBA87|156|CCC HRK SOBR FAM Vara 2013|121|Horeca|0
0|CS3532102|2013-08-03 23:53:52|Radulescu|Sibel||F|1986-06-14|Constanta|CONSTANTA|Brazilor|60|||||0766432767||Sibel.radulescu@yahoo.com|KTNBK||1 Sobranie SS Pink (3mg) Pack|Yes|Yes||CT002935|Trotter Restaurant|Constanta|CTHRKBA20|156|CCC HRK SOBR FAM Vara 2013|121|Horeca|0
0|CS3532105|2013-08-03 23:55:17|Gorgan|Ana||F|1991-04-23|Braila|BRAILA|Trandafirilor|47|||||0768723957||Gorgan.anutza_sa@yahoo.com|SBSSWH||1 Sobranie SS White (1mg) Pack|Yes|Yes||CT002935|Trotter Restaurant|Constanta|CTHRKBA95|156|CCC HRK SOBR FAM Vara 2013|121|Horeca|0
0|CS3532107|2013-08-03 23:55:22|Banel|Claudia||M|1984-10-28|Constanta|CONSTANTA|Eugen tanta|41|3|3||62|0731468990||Banel.claudia@yahoo.com|MBRGLH||1 Sobranie KS Gold  (4mg) Pack|Yes|Yes||CT002935|Trotter Restaurant|Constanta|CTHRKBA87|156|CCC HRK SOBR FAM Vara 2013|121|Horeca|0
0|CS3532119|2013-08-03 23:57:41|Firea|Sabina||F|1985-11-29|Ialomita|SLOBOZIA|Ion neculce|72|||||0742579543|||KTNWH||1 Sobranie SS White (1mg) Pack|Yes|Yes||CT002935|Trotter Restaurant|Constanta|CTHRKBA87|156|CCC HRK SOBR FAM Vara 2013|121|Horeca|0
0|CS3532129|2013-08-04 00:00:43|Bogdescu|Gabriel||M|1984-10-30|Galati|Galati|Ion neculce|5|E|||1|0722747362||Bogdescu.gaby@yahoo.com|DAVGL||1 Sobranie KS Blue (6mg) Pack|Yes|Yes||CT002935|Trotter Restaurant|Constanta|CTHRKBA87|156|CCC HRK SOBR FAM Vara 2013|121|Horeca|0
0|CS3534461|2013-08-04 20:01:50|Mircel|Ioana||F|1986-05-30|Constanta|CONSTANTA|Unirii|30|||||0729081123||Ioana22@yahoo.com|GLMBL||1 Sobranie SS White (1mg) Pack|Yes|Yes||CT004058|Abi Grup SRL|Constanta|CTHRKBA84|156|CCC HRK SOBR FAM Vara 2013|121|Horeca|0
0|CS3534467|2013-08-04 20:03:05|Nicolae|Diana||F|1979-07-08|Constanta|CONSTANTA|Ion Ratiu|40|||||0725609433||Diana_nicolae@yahoo.com|GLMBL||1 Sobranie SS Pink (3mg) Pack|Yes|Yes||CT004058|Abi Grup SRL|Constanta|CTHRKBA20|156|CCC HRK SOBR FAM Vara 2013|121|Horeca|0
0|CS3534472|2013-08-04 20:03:54|Ciurariu|Violeta||F|1980-06-28|Bucuresti|SECTOR 3|Corbului|25|||||0722190378||Violeta.doll@yahoo.com|SBSSPK||1 Sobranie SS Pink (3mg) Pack|Yes|Yes||CT004058|Abi Grup SRL|Constanta|CTHRKBA84|156|CCC HRK SOBR FAM Vara 2013|121|Horeca|0
0|CS3534480|2013-08-04 20:05:27|Raducan|Bianca||M|1986-12-21|Bucuresti|Bucuresti|Avram Iancu|79|||||0755366700||Bibi4u@yahoo.com|DUNFCMBB||1 Sobranie KS Blue (6mg) Pack|Yes|Yes||CT004058|Abi Grup SRL|Constanta|CTHRKBA20|156|CCC HRK SOBR FAM Vara 2013|121|Horeca|0
0|CS3534481|2013-08-04 20:05:44|Tifan|Rodica||F|1984-09-05|Constanta|CONSTANTA|Soveja|17|||||0752578900||Princess4@yahoo.com|GLMBL||1 Sobranie SS White (1mg) Pack|Yes|Yes||CT004058|Abi Grup SRL|Constanta|CTHRKBA87|156|CCC HRK SOBR FAM Vara 2013|121|Horeca|0
0|CS3534487|2013-08-04 20:06:45|Marinica|Marin||F|1984-01-30|Bucuresti|SECTOR 2|Pescarilor|23|||||0742170982|||KTNWH||1 Sobranie SS White (1mg) Pack|Yes|Yes||CT004058|Abi Grup SRL|Constanta|CTHRKBA84|156|CCC HRK SOBR FAM Vara 2013|121|Horeca|0
0|CS3534489|2013-08-04 20:07:10|Culeac|Diana||F|1990-08-26|Bucuresti|Bucuresti|Eroilor|48|||||0762587363||Diana.didi@yahoo.com|VIRSV||1 Sobranie SS Pink (3mg) Pack|Yes|Yes||CT004058|Abi Grup SRL|Constanta|CTHRKBA95|156|CCC HRK SOBR FAM Vara 2013|121|Horeca|0
0|CS3534491|2013-08-04 20:07:29|Mircea|Alexandru||M|1985-10-21|Constanta|CONSTANTA|Jupiter|4|||||0735476789||Alex.mircea@uahoo.com|KTSV||1 Sobranie KS Gold  (4mg) Pack|Yes|Yes||CT004058|Abi Grup SRL|Constanta|CTHRKBA20|156|CCC HRK SOBR FAM Vara 2013|121|Horeca|0
0|CS3534495|2013-08-04 20:08:36|Luca|Marian||M|1990-10-05|Constanta|CONSTANTA|Unirii|62|Ad|3||61|0763175236||Luca.boy@yahoo.com|DUNFCBB||1 Sobranie KS Gold  (4mg) Pack|Yes|Yes||CT004058|Abi Grup SRL|Constanta|CTHRKBA87|156|CCC HRK SOBR FAM Vara 2013|121|Horeca|0
0|CS3534499|2013-08-04 20:09:41|Ene|Vlad||M|1989-05-23|Constanta|Constanta|Tulcei|33|||||0727478564||Ene.vlad@yahoo.com|KTNWH||1 Sobranie SS White (1mg) Pack|Yes|Yes||CT004058|Abi Grup SRL|Constanta|CTHRKBA95|156|CCC HRK SOBR FAM Vara 2013|121|Horeca|0
0|CS3534618|2013-08-04 20:35:43|Dima|Claudia||F|1991-11-29|Constanta|CONSTANTA|Andrei muresan|16|||||0727656027||Dima_ramona30@yahoo.com|SBSSWH||1 Sobranie SS White (1mg) Pack|Yes|Yes||CT005185|Filozofie Urbana SRL|Constanta|CTHRKBA87|156|CCC HRK SOBR FAM Vara 2013|121|Horeca|0
0|CS3534625|2013-08-04 20:37:13|Cioroba|Stefan||M|1992-06-04|Dambovita|TARGOVISTE|Republicii|12|||||0745504448||Crb_stefan@yahoo.com|DUNFCMBB||1 Sobranie KS Blue (6mg) Pack|Yes|Yes||CT005185|Filozofie Urbana SRL|Constanta|CTHRKBA95|156|CCC HRK SOBR FAM Vara 2013|121|Horeca|0
0|CS3534666|2013-08-04 20:45:27|Popescu|Claudia||F|1987-09-19|Braila|BRAILA|Albastrele|8|||||0721587323||Claudia_popescu@yahoo.com|KTNWH||1 Sobranie SS White (1mg) Pack|Yes|Yes||CT005185|Filozofie Urbana SRL|Constanta|CTHRKBA20|156|CCC HRK SOBR FAM Vara 2013|121|Horeca|0
0|CS3534669|2013-08-04 20:46:09|Munteanu|Natalia||F|1992-06-07|Dambovita|TARGOVISTE|Independentei|64|||||0747568833||Tutr_86@yahoo.com|SBSSWH||1 Sobranie SS White (1mg) Pack|Yes|Yes||CT005185|Filozofie Urbana SRL|Constanta|CTHRKBA95|156|CCC HRK SOBR FAM Vara 2013|121|Horeca|0
0|CS3534670|2013-08-04 20:46:20|Dumitrescu|Donia||F|1984-05-26|Brasov|BRAN|Doinei|5|||||0743109056||Donia.d@yahoo.com|GLMMNT||1 Sobranie SS Menthol (5 mg) Pack|Yes|Yes||CT005185|Filozofie Urbana SRL|Constanta|CTHRKBA84|156|CCC HRK SOBR FAM Vara 2013|121|Horeca|0
0|CS3534676|2013-08-04 20:47:20|Milea|Alina||F|1984-09-29|Constanta|CONSTANTA|Tabla butii|73|||||0762176554||Mileathe boss@yahoo.com|MBRFP||1 Sobranie KS Blue (6mg) Pack|Yes|Yes||CT005185|Filozofie Urbana SRL|Constanta|CTHRKBA87|156|CCC HRK SOBR FAM Vara 2013|121|Horeca|0
0|CS3534680|2013-08-04 20:48:03|Purice|Adriana||F|1987-01-22|Constanta|CONSTANTA|Sulmona|99|||||0744346709||Ady.frumy@yahoo.com|GLMBL||1 Sobranie SS White (1mg) Pack|Yes|Yes||CT005185|Filozofie Urbana SRL|Constanta|CTHRKBA84|156|CCC HRK SOBR FAM Vara 2013|121|Horeca|0
0|CS3534683|2013-08-04 20:48:16|Prislop|Florentina||F|1988-01-10|Constanta|CONSTANTA|Maramures|23|||||0726593098||Flori.prislop@yahoo.com|GLMBL||1 Sobranie SS White (1mg) Pack|Yes|Yes||CT005185|Filozofie Urbana SRL|Constanta|CTHRKBA20|156|CCC HRK SOBR FAM Vara 2013|121|Horeca|0
0|CS3534686|2013-08-04 20:48:55|Vifor|Cornel||M|1986-01-26|Bucuresti|Bucuresti|Doinei|23|||||0751194873||Vifor_cornel@yahoo.com|DUNFCMBB||1 Sobranie KS Black (8mg) Pack|Yes|No||CT005185|Filozofie Urbana SRL|Constanta|CTHRKBA95|156|CCC HRK SOBR FAM Vara 2013|121|Horeca|0
0|CS3534691|2013-08-04 20:49:43|Caran|Ionela||F|1989-01-18|Prahova|PLOIESTI|Anara|34a|||||0742323390||Ioana.hitme@yahoo.com|SBSSPK||1 Sobranie SS Pink (3mg) Pack|Yes|Yes||CT005185|Filozofie Urbana SRL|Constanta|CTHRKBA84|156|CCC HRK SOBR FAM Vara 2013|121|Horeca|0
0|CS3534694|2013-08-04 20:50:18|Costache|Iulia||F|1989-08-16|Sibiu|SIBIU|Stefan Cel Mare|48|||||0735476921||Iulia_costache@yahoo.com|MBRFPEX||1 Sobranie KS Gold  (4mg) Pack|Yes|Yes||CT005185|Filozofie Urbana SRL|Constanta|CTHRKBA20|156|CCC HRK SOBR FAM Vara 2013|121|Horeca|0
0|CS3534697|2013-08-04 20:50:39|Marin|Anca||F|1990-04-06|Bucuresti|Buc|Il caragiale|23|A|3||78|0763179005|||DAVSVSS||1 Sobranie SS Pink (3mg) Pack|Yes|Yes||CT005185|Filozofie Urbana SRL|Constanta|CTHRKBA87|156|CCC HRK SOBR FAM Vara 2013|121|Horeca|0
0|CS3534698|2013-08-04 20:50:42|Trambita|Victoria||F|1981-06-25|Galati|Galati|Haiducului|13|||||0733982854||Viki_trmb@gmail.com|KTNWH||1 Sobranie SS White (1mg) Pack|Yes|Yes||CT005185|Filozofie Urbana SRL|Constanta|CTHRKBA95|156|CCC HRK SOBR FAM Vara 2013|121|Horeca|0
0|CS3534701|2013-08-04 20:50:57|Panait|Petrica||M|1988-07-13|Constanta|CONSTANTA|Dragoslavelor|21|||||0742178554||Petricapanait88@yahoo.com|PARSB||1 Sobranie KS Gold  (4mg) Pack|Yes|Yes||CT005185|Filozofie Urbana SRL|Constanta|CTHRKBA87|156|CCC HRK SOBR FAM Vara 2013|121|Horeca|0
0|CS3534737|2013-08-04 20:57:31|Roxana|Croitoru||F|1986-01-22|Bucuresti|Bucuresti|Dimitrie Camtemir|18|||||0721382479|||SBSSPK||1 Sobranie SS Pink (3mg) Pack|Yes|Yes||CT003789|SCAPINO SRL|Constanta|CTHRKBA20|156|CCC HRK SOBR FAM Vara 2013|121|Horeca|0
0|CS3534739|2013-08-04 20:57:41|Niculescu|Ivona||F|1990-10-27|Constanta|CONSTANTA|Dorului|55|||||0732109832||Ivona.iv22@yahoo.com|VOGBL||1 Sobranie SS Black (6mg) Pack|Yes|Yes||CT003789|SCAPINO SRL|Constanta|CTHRKBA84|156|CCC HRK SOBR FAM Vara 2013|121|Horeca|0
0|CS3534745|2013-08-04 20:58:31|Budea|Camelia||F|1988-04-05|Constanta|CONSTANTA|Mircea cel batran|69|E|2||52|0742146780||Camelianot4you@yahoo.com|KTBL||1 Sobranie KS Black (8mg) Pack|Yes|Yes||CT003789|SCAPINO SRL|Constanta|CTHRKBA87|156|CCC HRK SOBR FAM Vara 2013|121|Horeca|0
0|CS3534746|2013-08-04 20:58:33|Corcodel|Artur||M|1981-09-26|Bucuresti|Bucuresti|Miorita|63|||||0758436675||Arthur.corcodel@yahoo.com|DAVGLSS||1 Sobranie KS Black (8mg) Pack|Yes|Yes||CT003789|SCAPINO SRL|Constanta|CTHRKBA95|156|CCC HRK SOBR FAM Vara 2013|121|Horeca|0
0|CS3534747|2013-08-04 20:58:41|Vinvent|Alexandra||F|1988-05-24|Constanta|CONSTANTA|N iorga|4|||||0743120987|||VIRSM||1 Sobranie SS Menthol (5 mg) Pack|Yes|Yes||CT003789|SCAPINO SRL|Constanta|CTHRKBA84|156|CCC HRK SOBR FAM Vara 2013|121|Horeca|0
0|CS3534758|2013-08-04 21:01:22|Parpala|Eduard||M|1987-09-10|Constanta|CONSTANTA|Crisana|61|||||0754109809||Eduard888@yahoo.com|KTBL||1 Sobranie KS Blue (6mg) Pack|Yes|Yes||CT003789|SCAPINO SRL|Constanta|CTHRKBA84|156|CCC HRK SOBR FAM Vara 2013|121|Horeca|0
0|CS3534759|2013-08-04 21:01:36|Lumina|Stefan||M|1989-05-27|Constanta|CONSTANTA|Nufarului|25|A|||16|0763866252||Luminastefan@yahoo.com|DAVGL||1 Sobranie KS Gold  (4mg) Pack|Yes|Yes||CT003789|SCAPINO SRL|Constanta|CTHRKBA95|156|CCC HRK SOBR FAM Vara 2013|121|Horeca|0
0|CS3534764|2013-08-04 21:02:48|Vincea|Iulian||M|1978-03-24|Constanta|CONSTANTA|Bratianu|33|||||0744357893||Iulianvincea@yahoo.com|KTSV||1 Sobranie KS Gold  (4mg) Pack|Yes|Yes||CT003789|SCAPINO SRL|Constanta|CTHRKBA20|156|CCC HRK SOBR FAM Vara 2013|121|Horeca|0
0|CS3534768|2013-08-04 21:03:26|Tase|Claudiu||M|1989-04-05|Constanta|CONSTANTA|Abatorului|5|16|2||41|0748521468||Taseclaudiu89@yahoo.com|PARABH||1 Sobranie KS Black (8mg) Pack|Yes|Yes||CT003789|SCAPINO SRL|Constanta|CTHRKBA87|156|CCC HRK SOBR FAM Vara 2013|121|Horeca|0
0|CS3534778|2013-08-04 21:04:52|Banu|Alina||F|1985-11-30|Constanta|CONSTANTA|Mamaia|124|C|1||9|0741569765|||SBSSWH||1 Sobranie SS White (1mg) Pack|Yes|Yes||CT003789|SCAPINO SRL|Constanta|CTHRKBA87|156|CCC HRK SOBR FAM Vara 2013|121|Horeca|0
0|CS3534779|2013-08-04 21:04:58|Capitanu|Cristina||F|1978-06-30|Constanta|CONSTANTA|Traian|77|||||0766555444||Cristina.capitanu@yahoo.com|SBSSWH||1 Sobranie SS White (1mg) Pack|Yes|Yes||CT003789|SCAPINO SRL|Constanta|CTHRKBA20|156|CCC HRK SOBR FAM Vara 2013|121|Horeca|0
0|CS3534789|2013-08-04 21:06:58|Badjenaru|Melisa||F|1987-01-17|Bucuresti|Bucuresti|Tudor Arghezi|20|||||0766598355||Melisiatat@yahoo.com|CASV||1 Sobranie KS Gold  (4mg) Pack|Yes|Yes||CT003789|SCAPINO SRL|Constanta|CTHRKBA20|156|CCC HRK SOBR FAM Vara 2013|121|Horeca|0
0|CS3534816|2013-08-04 21:16:55|Bajdechi|Virginia||F|1963-04-06|Constanta|CONSTANTA|Ctin bratescu|35|||||0721880450|||KTBL||1 Sobranie KS Blue (6mg) Pack|Yes|Yes||CT004932|Toscana SRL |Constanta|CTHRKBA87|156|CCC HRK SOBR FAM Vara 2013|121|Horeca|0
0|CS3534825|2013-08-04 21:19:09|Luca|Cristian||M|1979-11-13|Constanta|CONSTANTA|Tomis|105|||||0722279999||K.cristian@gmail.com|DUNBL||1 Sobranie KS Blue (6mg) Pack|Yes|Yes||CT004932|Toscana SRL |Constanta|CTHRKBA20|156|CCC HRK SOBR FAM Vara 2013|121|Horeca|0
0|CS3534844|2013-08-04 21:24:30|Maradona|Vlad||M|1984-10-06|Constanta|CONSTANTA|N IOrga|32|||||0726190654||Vladutzzz@yahoo.com|SBKSBL||1 Sobranie KS Blue (6mg) Pack|Yes|Yes||CT004932|Toscana SRL |Constanta|CTHRKBA84|156|CCC HRK SOBR FAM Vara 2013|121|Horeca|0
0|CS3534849|2013-08-04 21:25:44|Costache|Luminita||F|1990-09-27|Constanta|CONSTANTA|Bratianu|47|||||0773546842||Costache.luminita@yahoo.com|DAVCL||1 Sobranie KS Black (8mg) Pack|Yes|Yes||CT004932|Toscana SRL |Constanta|CTHRKBA95|156|CCC HRK SOBR FAM Vara 2013|121|Horeca|0
0|CS3534850|2013-08-04 21:25:45|Adapteanu|Marius||M|1989-07-10|Constanta|CONSTANTA|Plopului|53|||||0733398709|||KTBLH||1 Sobranie KS Blue (6mg) Pack|Yes|Yes||CT004932|Toscana SRL |Constanta|CTHRKBA84|156|CCC HRK SOBR FAM Vara 2013|121|Horeca|0
0|CS3534851|2013-08-04 21:25:53|Viteazu|Narcis||M|1982-01-23|Constanta|CONSTANTA|Dezrobirii|3|||||0766548788||Narcis.viteazu@yahoo.com|KTBL||1 Sobranie KS Black (8mg) Pack|Yes|Yes||CT004932|Toscana SRL |Constanta|CTHRKBA20|156|CCC HRK SOBR FAM Vara 2013|121|Horeca|0
0|CS3534856|2013-08-04 21:27:31|Apostolov|Adina||F|1985-11-29|Constanta|CONSTANTA|Ferdinand|29|4|H||4|0733628965||Apostolovadina@yahoo.com|KTWH||1 Sobranie SS White (1mg) Pack|Yes|Yes||CT004932|Toscana SRL |Constanta|CTHRKBA87|156|CCC HRK SOBR FAM Vara 2013|121|Horeca|0
0|CS3534857|2013-08-04 21:27:35|Cart|Madalina||F|1984-06-28|Constanta|CONSTANTA|Cuza Voda|34|||||0725129021||Madalunaa@yahoo.com|VOGLL||1 Sobranie SS Pink (3mg) Pack|Yes|Yes||CT004932|Toscana SRL |Constanta|CTHRKBA84|156|CCC HRK SOBR FAM Vara 2013|121|Horeca|0
0|CS3534860|2013-08-04 21:27:54|Jugariu|Miruna||F|1977-10-23|Constanta|NAVODARI|Cucului|63|||||0758762646||Jugariu.miru@yahoo.com|SBSSMN||1 Sobranie SS Menthol (5 mg) Pack|Yes|Yes||CT004932|Toscana SRL |Constanta|CTHRKBA95|156|CCC HRK SOBR FAM Vara 2013|121|Horeca|0
0|CS3534861|2013-08-04 21:27:56|Zaharia|Nicu||M|1975-05-10|Constanta|CONSTANTA|Ferdinand|45|||||0766583214||Nicu.zaharia@yahoo.com|DUNFCMBB||1 Sobranie KS Blue (6mg) Pack|Yes|Yes||CT004932|Toscana SRL |Constanta|CTHRKBA20|156|CCC HRK SOBR FAM Vara 2013|121|Horeca|0
0|CS3534867|2013-08-04 21:29:02|Cartel|Violeta||F|1989-11-29|Constanta|CONSTANTA|Chiliei|61|||||0766120000||Violeta.albastra@yahoo.com|KTNWH||1 Sobranie SS White (1mg) Pack|Yes|Yes||CT004932|Toscana SRL |Constanta|CTHRKBA84|156|CCC HRK SOBR FAM Vara 2013|121|Horeca|0
0|CS3534873|2013-08-04 21:29:55|Dorobantu|Aurelia||F|1987-10-25|Constanta|CONSTANTA|Nicolae Balcescu|39|||||0755487321||Aurelia_dorobantu@yahoo.com|VIRSM||1 Sobranie SS Menthol (5 mg) Pack|Yes|Yes||CT004932|Toscana SRL |Constanta|CTHRKBA20|156|CCC HRK SOBR FAM Vara 2013|121|Horeca|0
0|CS3534875|2013-08-04 21:30:03|Fratila|Stefania||F|1989-03-03|Constanta|CONSTANTA|Grozesti|51|A4|D||17|0743862156||Fratilastefqnia@yahoo.com|GLMMNT||1 Sobranie SS Menthol (5 mg) Pack|Yes|No||CT004932|Toscana SRL |Constanta|CTHRKBA87|156|CCC HRK SOBR FAM Vara 2013|121|Horeca|0
0|CS3534881|2013-08-04 21:30:35|Enache|Marin||M|1989-10-09|Brasov|Brasov|Mircea cel batran|20|||||0748680069||Enache.marin@yahoo.com|SBSSWH||1 Sobranie SS White (1mg) Pack|Yes|No||CT004932|Toscana SRL |Constanta|CTHRKBA95|156|CCC HRK SOBR FAM Vara 2013|121|Horeca|0
0|CS3534888|2013-08-04 21:32:07|Gavaneanu|Daniel||M|1982-11-28|Braila|Braila|Calea galati|337|14|1|1|2|0737414578|||DUNFCBB||1 Sobranie KS Gold  (4mg) Pack|Yes|No||CT004932|Toscana SRL |Constanta|CTHRKBA87|156|CCC HRK SOBR FAM Vara 2013|121|Horeca|0
0|CS3534964|2013-08-04 21:50:30|Malciu|Atena||F|1984-05-09|Constanta|CONSTANTA|Tomis|44|||||0723109821||Atenutza22@yahoo.com|GLMMNT||1 Sobranie SS Menthol (5 mg) Pack|Yes|Yes||CT002023|Trinagria SRL |Constanta|CTHRKBA84|156|CCC HRK SOBR FAM Vara 2013|121|Horeca|0
0|CS3534966|2013-08-04 21:50:53|Morariu|Emilia||F|1985-02-21|Constanta|CONSTANTA|Poporului|38|||||0722546885||Emyemilia@yahoo.com|PARRSSMH||1 Sobranie SS Menthol (5 mg) Pack|Yes|Yes||CT002023|Trinagria SRL |Constanta|CTHRKBA20|156|CCC HRK SOBR FAM Vara 2013|121|Horeca|0
0|CS3534969|2013-08-04 21:51:23|Bogdaci|Georgiana||F|1984-10-26|Constanta|CONSTANTA|Emil garleanu|5|6|2||17|0742158854||Creatzascumpicutza@yahoo.com|DAVGLS||1 Sobranie SS Black (6mg) Pack|Yes|No||CT002023|Trinagria SRL |Constanta|CTHRKBA87|156|CCC HRK SOBR FAM Vara 2013|121|Horeca|0
0|CS3534970|2013-08-04 21:51:39|Ursu|Ecaterina||F|1968-06-23|Prahova|Ploiesti|Uzinelor|35|||||0757387549||Ursu.ecaterina.kat@yahoo.com|DUNFCBB||1 Sobranie KS Gold  (4mg) Pack|Yes|Yes||CT002023|Trinagria SRL |Constanta|CTHRKBA95|156|CCC HRK SOBR FAM Vara 2013|121|Horeca|0
0|CS3534973|2013-08-04 21:52:12|Perifeu|Marina||M|1984-04-05|Constanta|CONSTANTA|Mangaliei|55|||||0732101010||Marina.balerina@yahoo.com|DUNFCBB||1 Sobranie KS Gold  (4mg) Pack|Yes|Yes||CT002023|Trinagria SRL |Constanta|CTHRKBA84|156|CCC HRK SOBR FAM Vara 2013|121|Horeca|0
0|CS3534974|2013-08-04 21:52:59|Bucurenciu|Simona||F|1989-03-18|Caras Severin|CARANSEBES|George Cosbuc|9|||||0766325759||Simobucurenciu@yahoo.com|DUNFCSB||1 Sobranie KS Black (8mg) Pack|Yes|Yes||CT002023|Trinagria SRL |Constanta|CTHRKBA20|156|CCC HRK SOBR FAM Vara 2013|121|Horeca|0
0|CS3534977|2013-08-04 21:53:43|Apostol|Marina||F|1989-08-24|Constanta|CONSTANTA|Stefan Mihaileanu|25|||||0762568359||Apostolmarinaa@yahoo.com|DUNFCBB||1 Sobranie KS Gold  (4mg) Pack|Yes|Yes||CT002023|Trinagria SRL |Constanta|CTHRKBA95|156|CCC HRK SOBR FAM Vara 2013|121|Horeca|0
0|CS3534979|2013-08-04 21:54:31|Noman|Alev||F|1988-04-05|Constanta|MEDGIDIA|Ali kemal|39|||||0753727212||Alevnoman@yahoo.com|VIRSM||1 Sobranie SS Menthol (5 mg) Pack|Yes|No||CT002023|Trinagria SRL |Constanta|CTHRKBA87|156|CCC HRK SOBR FAM Vara 2013|121|Horeca|0
0|CS3534984|2013-08-04 21:55:03|Lavric|Cristina||F|1988-12-27|Constanta|CONSTANTA|Mamaia|190|||||0722842463||Cristina_lavric@yahoo.com|KTNWH||1 Sobranie SS White (1mg) Pack|Yes|Yes||CT002023|Trinagria SRL |Constanta|CTHRKBA20|156|CCC HRK SOBR FAM Vara 2013|121|Horeca|0
0|CS3534986|2013-08-04 21:55:59|Tomescu|Virgil||M|1982-07-26|Dambovita|TARGOVISTE|Teilor|25|||||0738854091||Virgilius.tomescu@yahoo.com|KTBL||1 Sobranie KS Blue (6mg) Pack|Yes|Yes||CT002023|Trinagria SRL |Constanta|CTHRKBA95|156|CCC HRK SOBR FAM Vara 2013|121|Horeca|0
0|CS3534988|2013-08-04 21:57:33|Zamfir|Andreea||F|1984-11-19|Constanta|NAVODARI|Pescarusului|64|||||0787421346|||GLMMNT||1 Sobranie SS Menthol (5 mg) Pack|Yes|Yes||CT002023|Trinagria SRL |Constanta|CTHRKBA20|156|CCC HRK SOBR FAM Vara 2013|121|Horeca|0
0|CS3534992|2013-08-04 21:58:00|Zorelu|Loredan||M|1991-05-24|Constanta|CONSTANTA|Doinei|7|||||0747482556||Zorelu_lordan@yahoo.com|PARAB||1 Sobranie KS Black (8mg) Pack|Yes|Yes||CT002023|Trinagria SRL |Constanta|CTHRKBA95|156|CCC HRK SOBR FAM Vara 2013|121|Horeca|0
0|CS3535047|2013-08-04 22:24:51|Susoi|Cristina||F|1989-11-30|Calarasi|CALARASI|N titulescu|1|||||0720334750|||KTSV||1 Sobranie KS Blue (6mg) Pack|Yes|Yes||CT005099|Lascu-Bros|Constanta|CTHRKBA87|156|CCC HRK SOBR FAM Vara 2013|121|Horeca|0
0|CS3535049|2013-08-04 22:24:57|Tornea|Vladimir||M|1987-06-24|Dolj|Craiova|Fagaras|4|F28|1||7|0769452511|||PARRSSKS||1 Sobranie KS Gold  (4mg) Pack|Yes|No||CT005099|Lascu-Bros|Constanta|CTHRKBA95|156|CCC HRK SOBR FAM Vara 2013|121|Horeca|0
0|CS3535054|2013-08-04 22:26:13|Bitescu|Dorina||F|1981-08-11|Constanta|CONSTANTA|Tomis|307|||||0723507717|||MBRFP||1 Sobranie KS Blue (6mg) Pack|Yes|Yes||CT005099|Lascu-Bros|Constanta|CTHRKBA20|156|CCC HRK SOBR FAM Vara 2013|121|Horeca|0
0|CS3535055|2013-08-04 22:26:51|Georgescu|Andreea||F|1992-10-09|Buzau|BUZAU|Bd 1 decembrie1918|1|||||0744404655||G.andreea10@gmail.com|DUNFCBB||1 Sobranie KS Gold  (4mg) Pack|Yes|Yes||CT005099|Lascu-Bros|Constanta|CTHRKBA84|156|CCC HRK SOBR FAM Vara 2013|121|Horeca|0
0|CS3535059|2013-08-04 22:28:39|Gheorgita|Violeta||F|1992-05-19|Buzau|BUZAU|Aleea industrei|1|||||0786802050|||DUNFCBB||1 Sobranie SS Pink (3mg) Pack|Yes|Yes||CT005099|Lascu-Bros|Constanta|CTHRKBA84|156|CCC HRK SOBR FAM Vara 2013|121|Horeca|0
0|CS3535063|2013-08-04 22:29:58|Dumitru|Costache||M|1984-11-10|Dolj|Craiova|Copanez|51|||||0762149236||Stillinhell@yahoo.com|KTBL||1 Sobranie KS Blue (6mg) Pack|Yes|Yes||CT005099|Lascu-Bros|Constanta|CTHRKBA95|156|CCC HRK SOBR FAM Vara 2013|121|Horeca|0
0|CS3535066|2013-08-04 22:30:05|Papusa|Ioana||F|1984-01-30|Buzau|BUZAU|Mihai viteazu|25|||||0744231234|||DUNFCBB||1 Sobranie KS Black (8mg) Pack|Yes|Yes||CT005099|Lascu-Bros|Constanta|CTHRKBA84|156|CCC HRK SOBR FAM Vara 2013|121|Horeca|0
0|CS3535083|2013-08-04 22:37:02|Chin du|Maria||F|1988-10-30|Constanta|CONSTANTA|Mamaia|25|||||0725121324|||KTNWH||1 Sobranie SS White (1mg) Pack|Yes|Yes||CT005099|Lascu-Bros|Constanta|CTHRKBA84|156|CCC HRK SOBR FAM Vara 2013|121|Horeca|0
0|CS3535087|2013-08-04 22:39:00|Ifet|Sabina||F|1988-05-29|Bucuresti|SECTOR 4|Patria|5|||||0733120981||Sabina1110987@yahoo.com|VOGLL||1 Sobranie SS Pink (3mg) Pack|Yes|Yes||CT005099|Lascu-Bros|Constanta|CTHRKBA84|156|CCC HRK SOBR FAM Vara 2013|121|Horeca|0
0|CS3535088|2013-08-04 22:39:35|Cristian|Delia||F|1987-08-19|Constanta|CONSTANTA|Rascoalei|7|||||0769032684||Cristian_delia@yahoo.com|KTSWIT||1 Sobranie SS Menthol (5 mg) Pack|Yes|Yes||CT005099|Lascu-Bros|Constanta|CTHRKBA95|156|CCC HRK SOBR FAM Vara 2013|121|Horeca|0
0|CS3535089|2013-08-04 22:39:42|Manea|Alexandra||F|1980-05-20|Constanta|CONSTANTA|Decebal|95|||||0726909765||Alexutzza.pis@yahoo.com|VOGLL||1 Sobranie SS Pink (3mg) Pack|Yes|Yes||CT005099|Lascu-Bros|Constanta|CTHRKBA20|156|CCC HRK SOBR FAM Vara 2013|121|Horeca|0
0|CS3535095|2013-08-04 22:40:23|Banu|Nicoleta||F|1988-09-26|Constanta|CONSTANTA|N Iorga|74|||||0721012131|||GLMMNT||1 Sobranie SS Menthol (5 mg) Pack|Yes|Yes||CT005099|Lascu-Bros|Constanta|CTHRKBA84|156|CCC HRK SOBR FAM Vara 2013|121|Horeca|0
0|CS3535098|2013-08-04 22:41:23|Sandu|Raluca||F|1985-11-28|Constanta|CONSTANTA|Th burada|63|4|4!||49|0745327890||Relysandu@yahoo.com|KTBL||1 Sobranie KS Black (8mg) Pack|Yes|No||CT005099|Lascu-Bros|Constanta|CTHRKBA87|156|CCC HRK SOBR FAM Vara 2013|121|Horeca|0
0|CS3535100|2013-08-04 22:41:38|Burlacu|Raluca||F|1989-10-12|Constanta|CONSTANTA|Mercur|60|||||0721755456||Raluca.burlacu@yahoo.com|KTSWIT||1 Sobranie SS Menthol (5 mg) Pack|Yes|Yes||CT005099|Lascu-Bros|Constanta|CTHRKBA20|156|CCC HRK SOBR FAM Vara 2013|121|Horeca|0
0|CS3535102|2013-08-04 22:42:17|Turculet|Natalia||F|1989-05-20|Prahova|PLOPENI|1 mai|4|||||0745590315||Turculet.natalia@gmail.com|DUNFCBB||1 Sobranie KS Blue (6mg) Pack|Yes|Yes||CT005099|Lascu-Bros|Constanta|CTHRKBA95|156|CCC HRK SOBR FAM Vara 2013|121|Horeca|0
0|CS3535105|2013-08-04 22:43:25|Ruta|Cecilia||F|1986-11-01|Constanta|CONSTANTA|Mamaia|226|||||0755482234||Ceci.ruta@yahoo.com|KTNBK||1 Sobranie SS Pink (3mg) Pack|Yes|Yes||CT005099|Lascu-Bros|Constanta|CTHRKBA20|156|CCC HRK SOBR FAM Vara 2013|121|Horeca|0
0|CS3535108|2013-08-04 22:44:01|Stoiceecu|Marian||M|1984-11-30|Constanta|CONSTANTA|Rozelor|61|6|2||39|0753578899||Stoicescu_marian@yahoo.com|DUNFCSB||1 Sobranie KS Black (8mg) Pack|Yes|No||CT005099|Lascu-Bros|Constanta|CTHRKBA87|156|CCC HRK SOBR FAM Vara 2013|121|Horeca|0
0|CS3535113|2013-08-04 22:44:25|Croitor|Vlad||M|1980-06-20|Caras Severin|TARNOVA|Severinu|14|||||0746632785||Vlad.croitor@yahoo.com|KTNBK||1 Sobranie SS Pink (3mg) Pack|Yes|Yes||CT005099|Lascu-Bros|Constanta|CTHRKBA95|156|CCC HRK SOBR FAM Vara 2013|121|Horeca|0
0|CS3535117|2013-08-04 22:46:08|Bunea|Nicoleta||F|1979-11-30|Constanta|CONSTANTA|St cel mare|74|||||0742578096|||MBRFPEX||1 Sobranie KS Blue (6mg) Pack|Yes|No||CT005099|Lascu-Bros|Constanta|CTHRKBA87|156|CCC HRK SOBR FAM Vara 2013|121|Horeca|0
0|CS3535124|2013-08-04 22:54:51|Popa|Silviu||M|1993-11-16|Constanta|CONSTANTA|Soveja|25|V2|B||39|0741465083||Silviudpopa@gmail.com|MBRGL||1 Sobranie KS Blue (6mg) Pack|Yes|Yes||CT005099|Lascu-Bros|Constanta|CTHRKBA87|156|CCC HRK SOBR FAM Vara 2013|121|Horeca|0
0|CS3535137|2013-08-04 23:02:36|Bruja|Cristian||M|1984-01-01|Constanta|CONSTANTA|Primaverii|4|||||0723450987|||DUNFCBB||1 Sobranie KS Gold  (4mg) Pack|Yes|Yes||CT000708|AMI COM SRL|Constanta|CTHRKBA84|156|CCC HRK SOBR FAM Vara 2013|121|Horeca|0
0|CS3535138|2013-08-04 23:03:01|Delca|Elena||F|1985-01-01|Constanta|Constanta|Ic bratianu|41|||||0723194469|||SBSSWH||1 Sobranie SS Pink (3mg) Pack|Yes|Yes||CT000708|AMI COM SRL|Constanta|CTHRKBA87|156|CCC HRK SOBR FAM Vara 2013|121|Horeca|0
0|CS3535140|2013-08-04 23:03:52|Dragos|Roxana Maria||F|1993-07-24|Constanta|CONSTANTA|1decembrie|37|L21|B|3|50|0723467692||Ruxy.love@yahoo.com|KTSWIT||1 Sobranie SS Menthol (5 mg) Pack|Yes|Yes||CT000708|AMI COM SRL|Constanta|CTHRKBA20|156|CCC HRK SOBR FAM Vara 2013|121|Horeca|0
0|CS3535142|2013-08-04 23:05:00|Tanase|Alexandru||M|1980-08-05|Constanta|CONSTANTA|Tabla butii|67|||||0728332086|||PARSB||1 Sobranie KS Blue (6mg) Pack|Yes|Yes||CT000708|AMI COM SRL|Constanta|CTHRKBA95|156|CCC HRK SOBR FAM Vara 2013|121|Horeca|0
0|CS3535143|2013-08-04 23:05:37|Balica|Bianca||F|1993-06-04|Constanta|CONSTANTA|Malinului|1|B4|B|2|29|0747078677||Bianca.sorina04@yahoo.ro|VOGJSN||1 Sobranie SS Black (6mg) Pack|Yes|Yes||CT000708|AMI COM SRL|Constanta|CTHRKBA20|156|CCC HRK SOBR FAM Vara 2013|121|Horeca|0
0|CS3535146|2013-08-04 23:08:12|Calep|Elena||F|1993-03-16|Constanta|CONSTANTA|Garofitei|7|L74|B||18|0724068688||Elentza_hlp@yahoo.com|KTSWIT||1 Sobranie SS Menthol (5 mg) Pack|Yes|Yes||CT000708|AMI COM SRL|Constanta|CTHRKBA20|156|CCC HRK SOBR FAM Vara 2013|121|Horeca|0
0|CS3535154|2013-08-04 23:13:33|Antonovici|Raul||M|1984-09-30|Bucuresti|SECTOR 3|Mircea|43|||||0722178909||Raoul21@yahoo.com|KTBL6||1 Sobranie KS Blue (6mg) Pack|Yes|Yes||CT000708|AMI COM SRL|Constanta|CTHRKBA84|156|CCC HRK SOBR FAM Vara 2013|121|Horeca|0
0|CS3535156|2013-08-04 23:14:36|Pirlitanu|Olga||F|1983-10-16|Constanta|CONSTANTA|Lapusneanu|53|||||0768542643||Olga.pirlitanu@yahoo.com|VOGLL||1 Sobranie SS Pink (3mg) Pack|Yes|Yes||CT000708|AMI COM SRL|Constanta|CTHRKBA95|156|CCC HRK SOBR FAM Vara 2013|121|Horeca|0
0|CS3535159|2013-08-04 23:15:01|Cocor|Marina||F|1985-08-29|Constanta|CONSTANTA|Primaverii|65|||||0744310987|||GLMMNT||1 Sobranie SS Menthol (5 mg) Pack|Yes|Yes||CT000708|AMI COM SRL|Constanta|CTHRKBA84|156|CCC HRK SOBR FAM Vara 2013|121|Horeca|0
0|CS3535161|2013-08-04 23:15:33|Stanciu|Alexandru||M|1984-11-29|Constanta|CONSTANTA|Ic bratianu|48|5|3||51|0742164477|||DUNFCMBB||1 Sobranie KS Blue (6mg) Pack|Yes|No||CT000708|AMI COM SRL|Constanta|CTHRKBA87|156|CCC HRK SOBR FAM Vara 2013|121|Horeca|0
0|CS3535165|2013-08-04 23:16:52|Puica|Dumitrita||F|1983-05-26|Bucuresti|Bucuresti|Tudor vladimitrescu|47|||||0738476288||Puica_dumi@yahoo.com|DAVGLS||1 Sobranie KS Black (8mg) Pack|Yes|Yes||CT000708|AMI COM SRL|Constanta|CTHRKBA95|156|CCC HRK SOBR FAM Vara 2013|121|Horeca|0
0|CS3535166|2013-08-04 23:17:07|Lupu|Vanesa||F|1981-04-27|Constanta|CONSTANTA|Nicolae Grigorescu|20|||||0767598743||Vlad_lupu@yahoo.com|SBSSWH||1 Sobranie SS White (1mg) Pack|Yes|Yes||CT000708|AMI COM SRL|Constanta|CTHRKBA20|156|CCC HRK SOBR FAM Vara 2013|121|Horeca|0
0|CS3535167|2013-08-04 23:18:24|Bisericuta|Marinica||M|1986-10-30|Calarasi|MODELU|Principala|18|||||0731568964||Marinicathebest@yahoo.com|DAVSVSS||1 Sobranie SS Pink (3mg) Pack|Yes|Yes||CT000708|AMI COM SRL|Constanta|CTHRKBA87|156|CCC HRK SOBR FAM Vara 2013|121|Horeca|0
0|CS3535173|2013-08-04 23:28:46|Adima|Iuliana||F|1985-11-29|Cluj|CLUJ NAPOCA|Mihai eminescu|27|2|At||47|0743267953||Adima.iuliana@yahoo.com|KTNBK||1 Sobranie SS Pink (3mg) Pack|Yes|Yes||CT004056|Restaurant Mediteranean SRL |Constanta|CTHRKBA87|156|CCC HRK SOBR FAM Vara 2013|121|Horeca|0
0|CS3535174|2013-08-04 23:28:48|Stere|Vasile||M|1978-02-09|Constanta|CONSTANTA|Primaverii|23a|||||0745668923||Stere_vasea@gmail.com|DUNFCSB||1 Sobranie KS Black (8mg) Pack|Yes|Yes||CT004056|Restaurant Mediteranean SRL |Constanta|CTHRKBA84|156|CCC HRK SOBR FAM Vara 2013|121|Horeca|0
0|CS3535175|2013-08-04 23:28:51|Banau|Octavian||M|1990-10-27|Prahova|AZUGA|Ion neculce|66|||||0747875327||Banau_tavy@yahoo.com|DAVGL||1 Sobranie KS Blue (6mg) Pack|Yes|Yes||CT004056|Restaurant Mediteranean SRL |Constanta|CTHRKBA95|156|CCC HRK SOBR FAM Vara 2013|121|Horeca|0
0|CS3535176|2013-08-04 23:29:06|Potcoava|Gabriela||F|1982-12-15|Brasov|BRASOV|Garii|19|||||0765487654||Gabrielapotcoava@yahoo.com|DAVGL||1 Sobranie KS Blue (6mg) Pack|Yes|Yes||CT004056|Restaurant Mediteranean SRL |Constanta|CTHRKBA20|156|CCC HRK SOBR FAM Vara 2013|121|Horeca|0
0|CS3535177|2013-08-04 23:30:44|Popescu|Maria||F|1983-06-24|Constanta|CONSTANTA|Mircea|258|||||0754667868||Mary.popescu@yahoo.com|VOGJSN||1 Sobranie SS Menthol (5 mg) Pack|Yes|Yes||CT004056|Restaurant Mediteranean SRL |Constanta|CTHRKBA20|156|CCC HRK SOBR FAM Vara 2013|121|Horeca|0
0|CS3535178|2013-08-04 23:30:53|Vrabie|Teodor||M|1988-10-06|Calarasi|TARICENI|Tariceni|1004|||||0758726674||Vrabie.teodor@gmail.com|KTSWITH||1 Sobranie SS Menthol (5 mg) Pack|Yes|Yes||CT004056|Restaurant Mediteranean SRL |Constanta|CTHRKBA95|156|CCC HRK SOBR FAM Vara 2013|121|Horeca|0
0|CS3535180|2013-08-04 23:31:02|Filiuta|Mihaela||F|1970-03-24|Constanta|EFORIE SUD|Closca|16b|||||0788452790||Filiuta.mihaela@yahoo.com|VOGBL||1 Sobranie SS Black (6mg) Pack|Yes|Yes||CT004056|Restaurant Mediteranean SRL |Constanta|CTHRKBA84|156|CCC HRK SOBR FAM Vara 2013|121|Horeca|0
0|CS3535181|2013-08-04 23:31:25|Smirnea|Claudiu||M|1984-11-29|Bucuresti|Buc|Kiselef|6|3|A||4|0752157975||Smirnea.cludita@yaho.com|MBRFP||1 Sobranie KS Blue (6mg) Pack|Yes|No||CT004056|Restaurant Mediteranean SRL |Constanta|CTHRKBA87|156|CCC HRK SOBR FAM Vara 2013|121|Horeca|0
0|CS3535184|2013-08-04 23:32:11|Calistrat|Corina||F|1981-06-26|Constanta|CONSTANTA|Viilor|54|||||0743697789||Corinacalisyrat06@yahoo.com|KTNBK||1 Sobranie SS Pink (3mg) Pack|Yes|Yes||CT004056|Restaurant Mediteranean SRL |Constanta|CTHRKBA20|156|CCC HRK SOBR FAM Vara 2013|121|Horeca|0
0|FS1081506|2013-08-02 20:40:18||||F|||||||||||||VOGBL||||||||||156|CCC HRK SOBR FAM Vara 2013|121|Horeca|0
0|FS1082438|2013-08-02 22:20:59|||||||||||||||||WIBL||||||||||156|CCC HRK SOBR FAM Vara 2013|121|Horeca|0
0|FS1082527|2013-08-02 22:32:54||||M|||||||||||||CAFI||||||||||156|CCC HRK SOBR FAM Vara 2013|121|Horeca|0
0|FS1082637|2013-08-02 22:46:47||||M|||||||||||||CHSTRD||||||||||156|CCC HRK SOBR FAM Vara 2013|121|Horeca|0
0|FS1086987|2013-08-03 21:33:50||||M|||||||||||||WIXSTSV||||||||||156|CCC HRK SOBR FAM Vara 2013|121|Horeca|0
0|FS1091441|2013-08-04 23:12:13|||||||||||||||||CAFI||||||||||156|CCC HRK SOBR FAM Vara 2013|121|Horeca|0
