0|CS3673712|2013-11-24 00:21:52|TATARU|CORINA||F|1982-06-15|BUCURESTI|SECTOR 3|FOISORULUI|17|F10C|2|2|45|0727717088||TACCORAA@GMAIL.COM|PARAB||0 Sobranie KS Black (8mg) Pack|Yes|Yes||BW031588|TWINS CAFE SRL STUDIO|Bucuresti|BWEVENTBA139|154|CCC EVENT SOBR FAM Fratelli 2013|121|Horeca|0
0|CS3673713|2013-11-24 00:22:06|VOICU|ADI||M|1982-03-05|BUCURESTI|SECTOR 5|SIRENELOR|90|117|A|8|32|0722263173||ADIVOICU82@YAHOO.COM|KTNBK||0 Sobranie Side Slide Blacks (4mg) Pack|Yes|Yes||BW031588|TWINS CAFE SRL STUDIO|Bucuresti|BWEVENTBA200|154|CCC EVENT SOBR FAM Fratelli 2013|121|Horeca|0
0|CS3673715|2013-11-24 00:22:10|ANTOHI|VALERIA||F|1982-08-03|BUCURESTI|SECTOR 2|ION MAIORESCU|11|50|1|1|52|0723523586||VALERIA.ANTOHI@GMAIL.COM|SBSSWH||0 Sobranie SS White (1mg) Pack|Yes|Yes||BW031588|TWINS CAFE SRL STUDIO|Bucuresti|BWEVENTBA28|154|CCC EVENT SOBR FAM Fratelli 2013|121|Horeca|0
0|CS3673724|2013-11-24 00:23:15|MOCIORNITA|SIMONA||F|1986-09-22|PRAHOVA|PLOIESTI|NICOLAE IORGA|5|-|-|-||0724573648||SIMONA_MOCIORNITA@YAHOO.COM|KTSV||0 Sobranie KS Gold  (4mg) Pack|Yes|Yes||BW031588|TWINS CAFE SRL STUDIO|Bucuresti|BWEVENTBA156|154|CCC EVENT SOBR FAM Fratelli 2013|121|Horeca|0
0|CS3673725|2013-11-24 00:23:23|SESCU|LOREDANA||F|1983-04-29|BUCURESTI|SECTOR 2|PANTELIMON|225|||0|0|0740151525||LOREDANA_SESCU@YAHOO.COM|SBSSWH||0 Sobranie Side Slide Whites (1mg) Pack|Yes|Yes||BW031588|TWINS CAFE SRL STUDIO|Bucuresti|BWEVENTBA201|154|CCC EVENT SOBR FAM Fratelli 2013|121|Horeca|0
0|CS3673726|2013-11-24 00:23:33|TUDOSAN|ANDREEA||F|1987-01-30|DOLJ|CRAIOVA|OPANEZ|29|E9|2|4|15|0749152979||ANDREEA.TUDOSAN@YAHOO.COM|SBKSSSWH||0 Sobranie Side Slide Whites (1mg) Pack|Yes|Yes||BW031588|TWINS CAFE SRL STUDIO|Bucuresti|BWEVENTBA202|154|CCC EVENT SOBR FAM Fratelli 2013|121|Horeca|0
0|CS3673727|2013-11-24 00:23:35|TANASE|MIRUNA||F|1980-07-28|BUCURESTI|SECTOR 1|ION MIHALACHE|142||D|1|91|0722613106||MIRUNATANASE200@YAHOO.COM|SBSSBK||0 Sobranie Side Slide Blacks (4mg) Pack|Yes|Yes||BW031588|TWINS CAFE SRL STUDIO|Bucuresti|BWEVENTBA197|154|CCC EVENT SOBR FAM Fratelli 2013|121|Horeca|0
0|CS3673728|2013-11-24 00:23:36|ION|LOREDANA||F|1988-08-23|BUCURESTI|SECTOR 3|UNIRII|53|G1|1|4|59|0760459614||IONLOREDANA86@YAHOO.COM|SBSSMN||0 Sobranie SS Menthol (5 mg) Pack|Yes|Yes||BW031588|TWINS CAFE SRL STUDIO|Bucuresti|BWEVENTBA03|154|CCC EVENT SOBR FAM Fratelli 2013|121|Horeca|0
0|CS3673730|2013-11-24 00:23:56|MARINAS|DAN||M|1980-09-17|BUCURESTI|SECTOR 2|DIMITRIE BOLDENI|10|||0|0|0733349282||VALENTIN.MARINAS@GMAIL.COM|SBKSSSBK||0 Sobranie Side Slide Blacks (4mg) Pack|Yes|Yes||BW031588|TWINS CAFE SRL STUDIO|Bucuresti|BWEVENTBA200|154|CCC EVENT SOBR FAM Fratelli 2013|121|Horeca|0
0|CS3673733|2013-11-24 00:24:31|LUCAS|DAVID||M|1983-01-30|BUCURESTI|SECTOR 3|CALARASI|162|B|A|4|40|0744932887||SERGIOS_ADA@YAHOO.COM|SBKSBK||0 Sobranie KS Black (8mg) Pack|Yes|Yes||BW031588|TWINS CAFE SRL STUDIO|Bucuresti|BWEVENTBA28|154|CCC EVENT SOBR FAM Fratelli 2013|121|Horeca|0
0|CS3673735|2013-11-24 00:24:45|CRACAOANU|VASILE||M|1986-01-17|NEAMT|PIATRA NEAMT|CERNEI|8|||||0766523524||VASILECRACAOANU@YAHOO.COM|MBRFP||0 Sobranie KS Blue (6mg) Pack|Yes|Yes||BW031588|TWINS CAFE SRL STUDIO|Bucuresti|BWEVENTBA139|154|CCC EVENT SOBR FAM Fratelli 2013|121|Horeca|0
0|CS3673738|2013-11-24 00:25:10|LAZAR|MARINA||F|1985-02-08|BUCURESTI|PLOIESTI|ION LUCA CARAGIALE|51|-|-|-||0732093663||MARINA.IOANA@YAHOO.COM|SBSSPK||0 Sobranie Side Slide Blacks (4mg) Pack|Yes|Yes||BW031588|TWINS CAFE SRL STUDIO|Bucuresti|BWEVENTBA156|154|CCC EVENT SOBR FAM Fratelli 2013|121|Horeca|0
0|CS3673739|2013-11-24 00:25:18|VODA|SIMONA||F|1984-01-03|BUCURESTI|SECTOR 3|ALEEA MIZIL|9||A|5|42|0742987359||VODA.SIMONA@YMAIL.COM|KTSV||0 Sobranie KS Gold  (4mg) Pack|Yes|Yes||BW031588|TWINS CAFE SRL STUDIO|Bucuresti|BWEVENTBA201|154|CCC EVENT SOBR FAM Fratelli 2013|121|Horeca|0
0|CS3673741|2013-11-24 00:25:28|HANGA|CRISTINA||F|1989-02-01|BUCURESTI|SECTOR 2|DIMITRI ANGHEL|1|M45|1|1|11|0757787934||ANCACRISSTINA@YAHOO.COM|SBSSMN||0 Sobranie SS Menthol (5 mg) Pack|Yes|Yes||BW031588|TWINS CAFE SRL STUDIO|Bucuresti|BWEVENTBA03|154|CCC EVENT SOBR FAM Fratelli 2013|121|Horeca|0
0|CS3673743|2013-11-24 00:25:40|CORAVU|ALINA||F|1983-11-26|BUCURESTI|SECTOR 1|VASILE MIRONIUC|13|||0|1|0744440666||ALINA.CORAVU@GMAIL.COM|SBSSBK||0 Sobranie SS Black (6mg) Pack|Yes|Yes||BW031588|TWINS CAFE SRL STUDIO|Bucuresti|BWEVENTBA197|154|CCC EVENT SOBR FAM Fratelli 2013|121|Horeca|0
0|CS3673746|2013-11-24 00:26:07|STAICULESCU|ISABELA||F|1981-12-07|DOLJ|CRAIOVA|UNU|19|||||0763685743||IZA0712@YAHOO.COM|KTBL||0 Sobranie KS Black (8mg) Pack|Yes|Yes||BW031588|TWINS CAFE SRL STUDIO|Bucuresti|BWEVENTBA202|154|CCC EVENT SOBR FAM Fratelli 2013|121|Horeca|0
0|CS3673747|2013-11-24 00:26:10|TURSUNEFE|LEO||M|1982-03-24|BUCURESTI|SECTOR 3|LIVIU REBREANU|46|11|K|1|11|0755053333||DJSRDR@YAHOO.COM|DUNFCSB||0 Sobranie KS Black (8mg) Pack|Yes|Yes||BW031588|TWINS CAFE SRL STUDIO|Bucuresti|BWEVENTBA28|154|CCC EVENT SOBR FAM Fratelli 2013|121|Horeca|0
0|CS3673748|2013-11-24 00:26:10|CHIRIAC|ALINA||F|1986-06-09|BUCURESTI|SECTOR 3|MIRCEA VODA|46|||0|0|0724370682||ALINA_IONELA_CHIRIAC@YAHOO.COM|DAVSVSS||0 Sobranie SS Pink (3mg) Pack|Yes|Yes||BW031588|TWINS CAFE SRL STUDIO|Bucuresti|BWEVENTBA139|154|CCC EVENT SOBR FAM Fratelli 2013|121|Horeca|0
0|CS3673750|2013-11-24 00:26:17|DUMITRASCU|ADRIANA||F|1982-03-09|PRAHOVA|PLOIESTI|GHE DOJA|154|||0|0|0728943073||ADR212003@YAHOO.COM|SBSSWH||0 Sobranie Side Slide Whites (1mg) Pack|Yes|Yes||BW031588|TWINS CAFE SRL STUDIO|Bucuresti|BWEVENTBA156|154|CCC EVENT SOBR FAM Fratelli 2013|121|Horeca|0
0|CS3673755|2013-11-24 00:26:45|TUDOR|ANDREEA||F|1985-11-25|BUCURESTI|SECTOR 1|AGRONOMIEI|2|1|C|4|22|0748090131||XY@YAHOO.COM|VIRSV||0 Sobranie SS Pink (3mg) Pack|Yes|Yes||BW031588|TWINS CAFE SRL STUDIO|Bucuresti|BWEVENTBA200|154|CCC EVENT SOBR FAM Fratelli 2013|121|Horeca|0
0|CS3673760|2013-11-24 00:27:09|ARTENIE|TEODORA|2750521411519|F|1975-05-21|BUCURESTI|SECTOR 1|RADU BOIANGIU|10|||0|0|0722786597||TEODORAARTENI@YAHOO.COM|SBSSWH||0 Sobranie SS White (1mg) Pack|Yes|Yes||BW031588|TWINS CAFE SRL STUDIO|Bucuresti|BWEVENTBA03|154|CCC EVENT SOBR FAM Fratelli 2013|121|Horeca|0
0|CS3673761|2013-11-24 00:27:16|BERCU|SIMONA||F|1986-05-12|PRAHOVA|PLOIESTI|ALEEA PRISTOP|21A|||0|0|0728117394||SIMONA.BERCU@YAHOO.COM|SBSSWH||0 Sobranie Side Slide Whites (1mg) Pack|Yes|Yes||BW031588|TWINS CAFE SRL STUDIO|Bucuresti|BWEVENTBA156|154|CCC EVENT SOBR FAM Fratelli 2013|121|Horeca|0
0|CS3673764|2013-11-24 00:27:38|GHIGIUSCA|ALEXANDRA||F|1985-11-10|BUCURESTI|SECTOR 3|NERVA TRAIAN|12|||0|0|0744796959||ALEXA_ALEXXYA@YAHOO.COM|VIRSM||0 Sobranie SS Menthol (5 mg) Pack|Yes|Yes||BW031588|TWINS CAFE SRL STUDIO|Bucuresti|BWEVENTBA139|154|CCC EVENT SOBR FAM Fratelli 2013|121|Horeca|0
0|CS3673765|2013-11-24 00:27:49|GHEORGHE|OANA||F|1987-11-24|DOLJ|CRAIOVA|OLTET|6|I|4|4|17|0740407945||OANA022003@YAHOO.COM|DUNFCBB||0 Sobranie KS Gold  (4mg) Pack|Yes|Yes||BW031588|TWINS CAFE SRL STUDIO|Bucuresti|BWEVENTBA202|154|CCC EVENT SOBR FAM Fratelli 2013|121|Horeca|0
0|CS3673767|2013-11-24 00:28:08|LECCA|RALUCA||F|1979-11-10|BUCURESTI|SECTOR 1|ALEEA ALEXANDRU|9|||0|0|0722224499||LECA_RALUCA@YAHOO.COM|DAVGLS||0 Sobranie KS Blue (6mg) Pack|Yes|Yes||BW031588|TWINS CAFE SRL STUDIO|Bucuresti|BWEVENTBA201|154|CCC EVENT SOBR FAM Fratelli 2013|121|Horeca|0
0|CS3673769|2013-11-24 00:28:31|CIOBANU|MARIA||F|1987-09-07|BUCURESTI|SECTOR 2|MIHAI BRAVU|190|205|A|3|14|0744448083||MARIA.CIOBANU@ORANGE.COM|VIRSM||0 Sobranie SS Menthol (5 mg) Pack|Yes|Yes||BW031588|TWINS CAFE SRL STUDIO|Bucuresti|BWEVENTBA197|154|CCC EVENT SOBR FAM Fratelli 2013|121|Horeca|0
0|CS3673770|2013-11-24 00:28:42|FRANK|RIMBACH||M|1983-04-28|PRAHOVA|PLOIESTI|MILCOV|16|10|3|1|3|0722619903||FRANKRIMBACH@YAHOO.COM|KTSV||0 Sobranie KS Gold  (4mg) Pack|Yes|Yes||BW031588|TWINS CAFE SRL STUDIO|Bucuresti|BWEVENTBA28|154|CCC EVENT SOBR FAM Fratelli 2013|121|Horeca|0
0|CS3673774|2013-11-24 00:29:19|BRANISTEANU|SORIN||M|1978-03-25|BUCURESTI|SECTOR 4|BALADEI|1|55|1||4|0722740983||SORIN232@YAHOO.COM|KTSWIT||0 Sobranie KS Blue (6mg) Pack|Yes|Yes||BW031588|TWINS CAFE SRL STUDIO|Bucuresti|BWEVENTBA200|154|CCC EVENT SOBR FAM Fratelli 2013|121|Horeca|0
0|CS3673777|2013-11-24 00:29:34|GUY|REDARES||M|1971-02-16|BUCURESTI|SECTOR 2|BARBU VACARESCU|46|||||0758066958||GUY.REDARES@YAHOO.COM|DAVGL||0 Sobranie KS Blue (6mg) Pack|Yes|Yes||BW031588|TWINS CAFE SRL STUDIO|Bucuresti|BWEVENTBA139|154|CCC EVENT SOBR FAM Fratelli 2013|121|Horeca|0
0|CS3673780|2013-11-24 00:29:58|VASILE|ALEXANDRU||M|1986-11-03|BUCURESTI|SECTOR 2|CHIRISTIGIILOR|2|P36|1|3|9|0726715451|||KTBL||0 Sobranie KS Blue (6mg) Pack|Yes|Yes||BW031588|TWINS CAFE SRL STUDIO|Bucuresti|BWEVENTBA201|154|CCC EVENT SOBR FAM Fratelli 2013|121|Horeca|0
0|CS3673783|2013-11-24 00:30:31|CALNICEANU|ANDRA||F|1987-08-28|BUCURESTI|5|13 SEPTEMBRIE|130|P36|1|1|17|0733854250||ANDRA_CILNICEANU@YAHOO.RO|VOGABP||0 Sobranie SS Black (6mg) Pack|Yes|Yes||BW031588|TWINS CAFE SRL STUDIO|Bucuresti|BWEVENTBA202|154|CCC EVENT SOBR FAM Fratelli 2013|121|Horeca|0
0|CS3673784|2013-11-24 00:30:49|GURAL|BARLAS||M|1985-06-08|ILFOV|PIPERA|SOARELUI|1|||||0766759082||BARLASGURAL@HOTMAIL.COM|DUNFCSB||0 Sobranie KS Black (8mg) Pack|Yes|Yes||BW031588|TWINS CAFE SRL STUDIO|Bucuresti|BWEVENTBA28|154|CCC EVENT SOBR FAM Fratelli 2013|121|Horeca|0
0|CS3673785|2013-11-24 00:30:53|BOARU|BENDIS||F|1978-07-23|BUCURESTI|SECTOR 2|BULEVARDUL LACUL TEI|107|14|D|0|137|0722667154||BENDISB@YAHOO.COM|SBSSWH||0 Sobranie SS Pink (3mg) Pack|Yes|Yes||BW031588|TWINS CAFE SRL STUDIO|Bucuresti|BWEVENTBA03|154|CCC EVENT SOBR FAM Fratelli 2013|121|Horeca|0
0|CS3673787|2013-11-24 00:31:15|ZOTTA|ALEXANDRA||F|1982-10-02|BUCURESTI|SECTOR 6|PINULUI|36|||||0730486609||ALEXANDRAZOTTA@YAHOO.COM|SBSSWH||0 Sobranie SS White (1mg) Pack|Yes|Yes||BW031588|TWINS CAFE SRL STUDIO|Bucuresti|BWEVENTBA200|154|CCC EVENT SOBR FAM Fratelli 2013|121|Horeca|0
0|CS3673788|2013-11-24 00:31:18|RAVARU|CASANDRA||F|1988-04-22|BUCURESTI|SECTOR 1|FAUREI|6|P11|2|7|211|0755406340||CASANDRA.RAVARU@YAHOO.COM|VOGBL||0 Sobranie SS Black (6mg) Pack|Yes|No||BW031588|TWINS CAFE SRL STUDIO|Bucuresti|BWEVENTBA156|154|CCC EVENT SOBR FAM Fratelli 2013|121|Horeca|0
0|CS3673790|2013-11-24 00:31:35|BUTA|VERONICA||F|1987-08-20|BUCURESTI|SECTOR 3|INTRAREA HORBOTEI|2A|||||0721820482||VERA_BUTA@YAHOO.COM|KTSWITH||0 Sobranie SS Menthol (5 mg) Pack|Yes|Yes||BW031588|TWINS CAFE SRL STUDIO|Bucuresti|BWEVENTBA197|154|CCC EVENT SOBR FAM Fratelli 2013|121|Horeca|0
0|CS3673793|2013-11-24 00:32:25|DI BELLO|MAURITIO||M|1959-09-29|BUCURESTI|SECTOR 4|BARBU VACARESCU|45|||||0722120153||MAUDIB@VIRGILIO.IT|MBRGLFT||0 Sobranie KS Gold  (4mg) Pack|Yes|Yes||BW031588|TWINS CAFE SRL STUDIO|Bucuresti|BWEVENTBA139|154|CCC EVENT SOBR FAM Fratelli 2013|121|Horeca|0
0|CS3673794|2013-11-24 00:32:52|LEFTER|COSMIN||M|1983-02-22|BUCURESTI|2|DROBETA|4-10|||||0744434143||COSMINLEF@YAHOO.COM|KTWH||0 Sobranie Side Slide Whites (1mg) Pack|Yes|Yes||BW031588|TWINS CAFE SRL STUDIO|Bucuresti|BWEVENTBA202|154|CCC EVENT SOBR FAM Fratelli 2013|121|Horeca|0
0|CS3673798|2013-11-24 00:33:19|GABOR|IOANA||F|1989-02-21|BUCURESTI|SECTOR 2|CIRCULUI|3|3|2|2|21|0753476315||IOANA.GABOR@GMAIL.COM|SBSSPK||0 Sobranie SS Pink (3mg) Pack|Yes|Yes||BW031588|TWINS CAFE SRL STUDIO|Bucuresti|BWEVENTBA28|154|CCC EVENT SOBR FAM Fratelli 2013|121|Horeca|0
0|CS3673803|2013-11-24 00:33:52|PINTEA|CIPRIAN||M|1983-02-11|BUCURESTI|SECTOR 1|GHEORGHE LAZAR|5|||0|0|0788500075||DESPERADOMAIL@YAHOO.COM|DUNFCBB||0 Sobranie KS Gold  (4mg) Pack|Yes|Yes||BW031588|TWINS CAFE SRL STUDIO|Bucuresti|BWEVENTBA156|154|CCC EVENT SOBR FAM Fratelli 2013|121|Horeca|0
0|CS3673806|2013-11-24 00:34:26|LOSNEANU|MARIA||F|1989-08-03|BUCURESTI|SECTOR 1|DIMITRIE CANTEMIR|4|P1|1|6|30|0742622443||MARIA_10ANA@YAHOO.COM|VOGABP||0 Sobranie SS Black (6mg) Pack|Yes|Yes||BW031588|TWINS CAFE SRL STUDIO|Bucuresti|BWEVENTBA139|154|CCC EVENT SOBR FAM Fratelli 2013|121|Horeca|0
0|CS3673807|2013-11-24 00:34:27|DAVID|DANIELA||F|1980-04-30|BUCURESTI|SECTOR 3|TUZLA|9|CA|B|5|51|0723184654||DANIELAELENADAVID@YAHOO.COM|KTWH||0 Sobranie Side Slide Whites (1mg) Pack|Yes|Yes||BW031588|TWINS CAFE SRL STUDIO|Bucuresti|BWEVENTBA03|154|CCC EVENT SOBR FAM Fratelli 2013|121|Horeca|0
0|CS3673808|2013-11-24 00:34:33|ONOFTEI|ANCA||F|1988-09-05|BUCURESTI|SECTOR 3|ALEEA LUNCA BRADULUI|50|||||0726814217|||VOGDV||0 Sobranie SS Black (6mg) Pack|Yes|Yes||BW031588|TWINS CAFE SRL STUDIO|Bucuresti|BWEVENTBA197|154|CCC EVENT SOBR FAM Fratelli 2013|121|Horeca|0
0|CS3673812|2013-11-24 00:35:26|IONESCU|MARIUS||M|1981-01-30|BUCURESTI|SECTOR 2|COLENTINA|16|B2|A|6|52|0722155243||MARIUS29@YAHOO.COM|KTBL||0 Sobranie KS Black (8mg) Pack|Yes|Yes||BW031588|TWINS CAFE SRL STUDIO|Bucuresti|BWEVENTBA28|154|CCC EVENT SOBR FAM Fratelli 2013|121|Horeca|0
0|CS3673815|2013-11-24 00:35:45|SIMINEA|SIMONA||F|1975-06-03|BUCURESTI|1|GIMBOLIA|38E||1||2|0755095459||SIMONA.SIMINEA@MHOUSE.RO|PARRSSH||0 Sobranie SS Black (6mg) Pack|Yes|Yes||BW031588|TWINS CAFE SRL STUDIO|Bucuresti|BWEVENTBA202|154|CCC EVENT SOBR FAM Fratelli 2013|121|Horeca|0
0|CS3673816|2013-11-24 00:35:49|VASILE|ALEXANDRU||M|1981-01-05|BUCURESTI|SECTOR 2|MOSILOR|234|M12|1|2|8|0720755447||VASILEALEXANDRESCU@GMAIL.COM|SBSSPK||0 Sobranie Side Slide Blacks (4mg) Pack|Yes|Yes||BW031588|TWINS CAFE SRL STUDIO|Bucuresti|BWEVENTBA201|154|CCC EVENT SOBR FAM Fratelli 2013|121|Horeca|0
0|CS3673818|2013-11-24 00:36:23|RUS|ALINA-MARIA||F|1976-04-14|BUCURESTI|SECTOR 2|STEFAN CEL MARE|29|29||0|68|0722571519||ALINA_RUS_RO@YAHOO.COM|SBSSPK||0 Sobranie SS Menthol (5 mg) Pack|Yes|Yes||BW031588|TWINS CAFE SRL STUDIO|Bucuresti|BWEVENTBA03|154|CCC EVENT SOBR FAM Fratelli 2013|121|Horeca|0
0|CS3673819|2013-11-24 00:36:34|GARTAN|CRISTINA||F|1989-05-15|BUCURESTI|SECTOR 2|ZAMBILELOR|75|TEI|2|4|69|0728999000||CRISTINA.GARTAN@TAGOR.RO|VIRSPR||0 Sobranie SS Black (6mg) Pack|Yes|Yes||BW031588|TWINS CAFE SRL STUDIO|Bucuresti|BWEVENTBA139|154|CCC EVENT SOBR FAM Fratelli 2013|121|Horeca|0
0|CS3673821|2013-11-24 00:37:01|MIHAI|ALEXANDRA||F|1987-07-05|BUCURESTI|SECTOR 3|BVD CAMIL RESSU|64|||||0721256914||TIBERIA15@YAHOO.COM|VIRSV||0 Sobranie SS Pink (3mg) Pack|Yes|Yes||BW031588|TWINS CAFE SRL STUDIO|Bucuresti|BWEVENTBA197|154|CCC EVENT SOBR FAM Fratelli 2013|121|Horeca|0
0|CS3673822|2013-11-24 00:37:17|PLESOIANU|IOANA|2791005203140|F|1979-10-05|BUCURESTI|SECTOR 1|CTIN ARICESCU|30|30||1|2|0730177268||IOANA.PLESOIANU@COLDWELL-BANKER.RO|SBSSMN||0 Sobranie SS Menthol (5 mg) Pack|Yes|Yes||BW031588|TWINS CAFE SRL STUDIO|Bucuresti|BWEVENTBA200|154|CCC EVENT SOBR FAM Fratelli 2013|121|Horeca|0
0|CS3673824|2013-11-24 00:38:12|MANEA|ALEXANDRA||F|1981-11-26|BUCURESTI|SECTOR 3|SOLIDARITATII|3|||||0752123376||MANEA_ALECSANDRA@YAHOO.ES|VIRSPR||0 Sobranie SS Black (6mg) Pack|Yes|Yes||BW031588|TWINS CAFE SRL STUDIO|Bucuresti|BWEVENTBA139|154|CCC EVENT SOBR FAM Fratelli 2013|121|Horeca|0
0|CS3673825|2013-11-24 00:38:12|URSULEA|VIORELA||F|1981-02-16|BUCURESTI|6|CUPOLEI|1|106|2|4|42|0728999791||DORAVIORELA@HOTMAIL.COM|DAVGLS||0 Sobranie SS Black (6mg) Pack|Yes|Yes||BW031588|TWINS CAFE SRL STUDIO|Bucuresti|BWEVENTBA202|154|CCC EVENT SOBR FAM Fratelli 2013|121|Horeca|0
0|CS3673830|2013-11-24 00:39:50|PRUNCU|CATALIN||M|1991-01-20|BUCURESTI|SECTOR 4|SPLAIUL UNIRII|58|||||0757115310||PRUNCU.CATALIN@YAHOO.COM|SBKSGD||0 Sobranie KS Gold  (4mg) Pack|Yes|Yes||BW031588|TWINS CAFE SRL STUDIO|Bucuresti|BWEVENTBA201|154|CCC EVENT SOBR FAM Fratelli 2013|121|Horeca|0
0|CS3673833|2013-11-24 00:40:09|PREDA|CRISTIAN||F|1981-01-19|BUCURESTI|SECTOR 3|ALEEA FIZICIENILOR|12|||||0755059214||CRISTI_PROF@YAHOO.COM|SBKSBL||0 Sobranie KS Blue (6mg) Pack|Yes|Yes||BW031588|TWINS CAFE SRL STUDIO|Bucuresti|BWEVENTBA197|154|CCC EVENT SOBR FAM Fratelli 2013|121|Horeca|0
0|CS3673835|2013-11-24 00:40:28|BACIRCEL|MARIA BIANCA|2900902030028|F|1990-09-02|BUCURESTI|SECTOR 4|VISANA|3|44|A|1|5|0744448553||BIANCABACIRCEL@YAHOO.COM|SBKSSSWH||0 Sobranie Side Slide Whites (1mg) Pack|Yes|Yes||BW031588|TWINS CAFE SRL STUDIO|Bucuresti|BWEVENTBA200|154|CCC EVENT SOBR FAM Fratelli 2013|121|Horeca|0
0|CS3673836|2013-11-24 00:40:44|DRAGAN|SVETLANA||F|1989-01-25|BUCURESTI|SECTOR 6|VLADEASA|4|B75|A|5|30|0765028881||SVETLANA.COSTAS@YAHOO.COM|VOGLL||0 Sobranie SS Pink (3mg) Pack|Yes|Yes||BW031588|TWINS CAFE SRL STUDIO|Bucuresti|BWEVENTBA139|154|CCC EVENT SOBR FAM Fratelli 2013|121|Horeca|0
0|CS3673837|2013-11-24 00:40:51|PANDELICA|ANA MARIA||F|1984-12-14|BUCURESTI|2|IANCULUI|18|||||0753514114||ANAMARIA.PANDELICA@GMAIL.COM|SBSSMN||0 Sobranie SS Menthol (5 mg) Pack|Yes|Yes||BW031588|TWINS CAFE SRL STUDIO|Bucuresti|BWEVENTBA202|154|CCC EVENT SOBR FAM Fratelli 2013|121|Horeca|0
0|CS3673841|2013-11-24 00:42:36|BADEA|LAURENTIU||M|1979-05-19|BUCURESTI|SECTOR 1|TITULESCU|96|-|-|-||0766282854||BADEA@BOBOBUN.RO|KTSWIT||0 Sobranie KS Gold  (4mg) Pack|Yes|Yes||BW031588|TWINS CAFE SRL STUDIO|Bucuresti|BWEVENTBA156|154|CCC EVENT SOBR FAM Fratelli 2013|121|Horeca|0
0|CS3673842|2013-11-24 00:42:39|CIUTACU|FLORIN||M|1987-02-06|BUCURESTI|SECTOR 2|VIDIN|2|50|A|3|13|0727351487||FLORIN_CFC@YAHOO.COM|DUNFCBB||0 Sobranie KS Gold  (4mg) Pack|Yes|Yes||BW031588|TWINS CAFE SRL STUDIO|Bucuresti|BWEVENTBA28|154|CCC EVENT SOBR FAM Fratelli 2013|121|Horeca|0
0|CS3673843|2013-11-24 00:42:44|DOROBANTIU|DORIN||M|1981-06-26|BUCURESTI|SECTOR 4|DEMOCRATIEI|4|8|2|8|119|0720959858|||KTSV||0 Sobranie KS Gold  (4mg) Pack|Yes|Yes||BW031588|TWINS CAFE SRL STUDIO|Bucuresti|BWEVENTBA201|154|CCC EVENT SOBR FAM Fratelli 2013|121|Horeca|0
0|CS3673844|2013-11-24 00:43:00|MALCOCI|VERONICA||F|1986-03-20|BUCURESTI|SECTOR 3|RECONSTRUCTIEI|3|28|2|9|84|0730470513||VERONIKA_MALCOCI@YAHOO.COM|GLMBL||0 Sobranie SS Pink (3mg) Pack|Yes|Yes||BW031588|TWINS CAFE SRL STUDIO|Bucuresti|BWEVENTBA139|154|CCC EVENT SOBR FAM Fratelli 2013|121|Horeca|0
0|CS3673845|2013-11-24 00:43:24|NICULESCU|OFELIA||F|1981-04-11|BUCURESTI|3|POPA NAN|185||A|6|17|0722415151||OFE2007@YAHOO.COM|VOGJSN||0 Sobranie SS Menthol (5 mg) Pack|Yes|Yes||BW031588|TWINS CAFE SRL STUDIO|Bucuresti|BWEVENTBA202|154|CCC EVENT SOBR FAM Fratelli 2013|121|Horeca|0
0|CS3673846|2013-11-24 00:43:42|CARARE|MARIUS||M|1979-01-28|BUCURESTI|SECTOR 4|LIBERTATII|1|||||0746243724||MARIUSCARARE@YAHOO.COM|KTBL||0 Sobranie KS Blue (6mg) Pack|Yes|Yes||BW031588|TWINS CAFE SRL STUDIO|Bucuresti|BWEVENTBA197|154|CCC EVENT SOBR FAM Fratelli 2013|121|Horeca|0
0|CS3673850|2013-11-24 00:44:14|MINCIULESCU|ALEXANDRU||M|1986-09-29|BUCURESTI|SECTOR 2|IANCULUI|21|106|A||58|0742222908||ALEXANDRU.MINCIUNESCU@GMAIL.COM|KTBL||0 Sobranie KS Blue (6mg) Pack|Yes|Yes||BW031588|TWINS CAFE SRL STUDIO|Bucuresti|BWEVENTBA200|154|CCC EVENT SOBR FAM Fratelli 2013|121|Horeca|0
0|CS3673852|2013-11-24 00:44:16|DAN|CRISTINA||F|1987-04-08|BUCURESTI|SECTOR 2|VIDIN|2|1|1|3|14|0721874556|||DUNFCBB||0 Sobranie KS Gold  (4mg) Pack|Yes|Yes||BW031588|TWINS CAFE SRL STUDIO|Bucuresti|BWEVENTBA28|154|CCC EVENT SOBR FAM Fratelli 2013|121|Horeca|0
0|CS3673856|2013-11-24 00:45:08|TURJINSCAIA|ECATERINA||F|1989-07-30|BUCURESTI|SECTOR 3|CULESULUI|55|||||0737034280||T_KATE89@YAHOO.COM|GLMBL||0 Sobranie SS Pink (3mg) Pack|Yes|Yes||BW031588|TWINS CAFE SRL STUDIO|Bucuresti|BWEVENTBA139|154|CCC EVENT SOBR FAM Fratelli 2013|121|Horeca|0
0|CS3673860|2013-11-24 00:45:54|PENU|MARIA||F|1990-06-10|BUCURESTI|SECTOR 4|SAMOILA DUMITRU|1|124|2|6|94|0766226438||RAMONA1006@YAHOO.COM|KTSV||0 Sobranie KS Gold  (4mg) Pack|Yes|Yes||BW031588|TWINS CAFE SRL STUDIO|Bucuresti|BWEVENTBA28|154|CCC EVENT SOBR FAM Fratelli 2013|121|Horeca|0
0|CS3673859|2013-11-24 00:45:54|IONESCU|ANA||F|1970-07-28|BUCURESTI|SECTOR 2|BARSEI|8|N2|3|1|7|0745234348|||MBRGL||0 Sobranie KS Blue (6mg) Pack|Yes|Yes||BW031588|TWINS CAFE SRL STUDIO|Bucuresti|BWEVENTBA156|154|CCC EVENT SOBR FAM Fratelli 2013|121|Horeca|0
0|CS3673861|2013-11-24 00:46:03|DINCA|MHAELA||F|1987-07-06|BUCURESTI|SECTOR 4|C-TN BRANCOVEANU|180|||0|0|0766368613||MIHAELADINCA9@YAHOO.COM|VIRSM||0 Sobranie SS Menthol (5 mg) Pack|Yes|Yes||BW031588|TWINS CAFE SRL STUDIO|Bucuresti|BWEVENTBA201|154|CCC EVENT SOBR FAM Fratelli 2013|121|Horeca|0
0|CS3673862|2013-11-24 00:46:23|PAPP|ANA MARIA||F|1984-11-10|BUCURESTI|6|SEGARCEA|1|||||0733069004||ANUTZA_17@YAHOO.COM|DUNFCBB||0 Sobranie KS Gold  (4mg) Pack|Yes|Yes||BW031588|TWINS CAFE SRL STUDIO|Bucuresti|BWEVENTBA202|154|CCC EVENT SOBR FAM Fratelli 2013|121|Horeca|0
0|CS3673863|2013-11-24 00:46:34|PODOLEANU|VLAD||M|1986-04-28|BUCURESTI|SECTOR 3|FOISORULUI|6|||||0747305461||VLADPODOLEANU@YMAIL.COM|SBSSPK||0 Sobranie SS Pink (3mg) Pack|Yes|Yes||BW031588|TWINS CAFE SRL STUDIO|Bucuresti|BWEVENTBA197|154|CCC EVENT SOBR FAM Fratelli 2013|121|Horeca|0
0|CS3673867|2013-11-24 00:46:56|DEDIU|MARIAN||M|1978-10-15|BUCURESTI|SECTOR 5|BUZOIENI|8|M41|1|6|39|0765348317||DEDIU_M1978@YAHOO.COM|GLMBL||0 Sobranie SS Pink (3mg) Pack|Yes|Yes||BW031588|TWINS CAFE SRL STUDIO|Bucuresti|BWEVENTBA139|154|CCC EVENT SOBR FAM Fratelli 2013|121|Horeca|0
0|CS3673868|2013-11-24 00:47:02|CONSTANTINESCU|IOANA|2850723440040|F|1985-07-23|BUCURESTI|SECTOR 2|MAIOR VASILE BACILA|27|31|A|6|25|0721785321||IOANAVOLEI@YAHOO.COM|SBSSWH||0 Sobranie SS White (1mg) Pack|Yes|Yes||BW031588|TWINS CAFE SRL STUDIO|Bucuresti|BWEVENTBA200|154|CCC EVENT SOBR FAM Fratelli 2013|121|Horeca|0
0|CS3673872|2013-11-24 00:48:18|GRASU|SIMONA||F|1985-02-17|BUCURESTI|SECTOR 2|MAIOR ATANASE IONESCU|5|||||0722195580||SIMONAGRASU@GMAIL.COM|KTSV||0 Sobranie KS Gold  (4mg) Pack|Yes|Yes||BW031588|TWINS CAFE SRL STUDIO|Bucuresti|BWEVENTBA28|154|CCC EVENT SOBR FAM Fratelli 2013|121|Horeca|0
0|CS3673873|2013-11-24 00:48:22|MIHORDEA|DIANA||F|1988-08-21|IASI|IASI|NICOLINA|T937|4|B|4|13|0766246826||DIANA_MIHORDEA@YAHOO.COM|DUNFCMBB||0 Sobranie KS Blue (6mg) Pack|Yes|Yes||BW031588|TWINS CAFE SRL STUDIO|Bucuresti|BWEVENTBA156|154|CCC EVENT SOBR FAM Fratelli 2013|121|Horeca|0
0|CS3673874|2013-11-24 00:48:41|PASTRAV|ROXANA||F|1981-08-22|BUCURESTI|SECTOR 3|ODOBESTI|17|||0|0|0734101337||ROIXANA.CRISTINAP@YAHOO.COM|VIRSM||0 Sobranie SS Menthol (5 mg) Pack|Yes|Yes||BW031588|TWINS CAFE SRL STUDIO|Bucuresti|BWEVENTBA202|154|CCC EVENT SOBR FAM Fratelli 2013|121|Horeca|0
0|CS3673877|2013-11-24 00:49:15|STOICHITA|IULIA||F|1984-06-07|BUCURESTI|SECTOR 3|MURGENI|7|||||0743199007||IULIA_STOICHITA22@YAHOO.COM|MBRGLA||0 Sobranie KS Gold  (4mg) Pack|Yes|Yes||BW031588|TWINS CAFE SRL STUDIO|Bucuresti|BWEVENTBA139|154|CCC EVENT SOBR FAM Fratelli 2013|121|Horeca|0
0|CS3673878|2013-11-24 00:49:15|CRINTEA|ALINA||F|1989-03-11|BUCURESTI|SECTOR 1|ARDEALULUI|16|||||0728193171||ALINACRINTEA89@YAHOO.COM|DUNFCSB||0 Sobranie KS Black (8mg) Pack|Yes|Yes||BW031588|TWINS CAFE SRL STUDIO|Bucuresti|BWEVENTBA201|154|CCC EVENT SOBR FAM Fratelli 2013|121|Horeca|0
0|CS3673880|2013-11-24 00:49:43|ANTON|ROXANA||F|1990-01-14|BUCURESTI|SECTOR 3|CORABIEI|85|||0|0|0722123042||ANABON851@YAHOO.COM|SBSSWH||0 Sobranie SS White (1mg) Pack|Yes|Yes||BW031588|TWINS CAFE SRL STUDIO|Bucuresti|BWEVENTBA156|154|CCC EVENT SOBR FAM Fratelli 2013|121|Horeca|0
0|CS3673881|2013-11-24 00:49:44|DIJMARESCU|ADRIAN||M|1987-04-18|BUCURESTI|SECTOR 2|POLONA|92|||||0766422477||DIJMARESCU_ADRIAN@YAHOO.COM|KTBL||0 Sobranie KS Blue (6mg) Pack|Yes|Yes||BW031588|TWINS CAFE SRL STUDIO|Bucuresti|BWEVENTBA197|154|CCC EVENT SOBR FAM Fratelli 2013|121|Horeca|0
0|CS3673884|2013-11-24 00:50:05|CONSTANTIN|ANDREEA||F|1985-07-12|BUCURESTI|SECTOR 5|ION CONEA|36|||||0724545336||ANDREEA@CASPERO.RO|KTBL||0 Sobranie KS Blue (6mg) Pack|Yes|Yes||BW031588|TWINS CAFE SRL STUDIO|Bucuresti|BWEVENTBA200|154|CCC EVENT SOBR FAM Fratelli 2013|121|Horeca|0
0|CS3673885|2013-11-24 00:50:11|TUDOR|CRISTI||M|1982-09-26|BUCURESTI|SECTOR 2|MIHAI BRAVU|195|||||0722273242||PANCA_TUDOR@YAHOO.COM|KTNWH||0 Sobranie Side Slide Whites (1mg) Pack|Yes|Yes||BW031588|TWINS CAFE SRL STUDIO|Bucuresti|BWEVENTBA28|154|CCC EVENT SOBR FAM Fratelli 2013|121|Horeca|0
0|CS3673889|2013-11-24 00:50:55|MATEI|ALEXANDRA||F|1984-06-07|ILFOV|BRAGADIRU|PRELUNGIREA GHENCEA|71|||0|0|0724390789||ALXANDRAMATEI@YAHOO.COM|VOGLL||0 Sobranie Side Slide Blacks (4mg) Pack|Yes|Yes||BW031588|TWINS CAFE SRL STUDIO|Bucuresti|BWEVENTBA139|154|CCC EVENT SOBR FAM Fratelli 2013|121|Horeca|0
0|CS3673891|2013-11-24 00:51:14|MOCANU|STEFAN||M|1979-04-01|BUCURESTI|2|DOAMNA GHICA|10|32|B|8|81|0740111873||MOCANU_STEF@YAHOO.COM|DUNFCBB||0 Sobranie KS Gold  (4mg) Pack|Yes|Yes||BW031588|TWINS CAFE SRL STUDIO|Bucuresti|BWEVENTBA202|154|CCC EVENT SOBR FAM Fratelli 2013|121|Horeca|0
0|CS3673894|2013-11-24 00:51:32|IRIS|GOGORICI||F|1978-03-25|BUCURESTI|SECTOR 1|ALEXANDRU CONSTANTINESCU|20|||||0724377110||IRIS@IRISGOGORICI.COM|DAVSVSS||0 Sobranie SS White (1mg) Pack|Yes|Yes||BW031588|TWINS CAFE SRL STUDIO|Bucuresti|BWEVENTBA03|154|CCC EVENT SOBR FAM Fratelli 2013|121|Horeca|0
0|CS3673895|2013-11-24 00:52:03|SARAMET|RALUCA||F|1989-07-03|BUCURESTI|SECTOR 3|TRAIAN POPOVICI|91|7|2|3|71|0733879959||RAL.SARA@YAHOO.COM|DAVGL||0 Sobranie KS Blue (6mg) Pack|Yes|Yes||BW031588|TWINS CAFE SRL STUDIO|Bucuresti|BWEVENTBA201|154|CCC EVENT SOBR FAM Fratelli 2013|121|Horeca|0
0|CS3673896|2013-11-24 00:52:14|BIRCEA|RUXANDRA||F|1989-08-11|BUCURESTI|SECTOR 1|VIRGIL MAGEARU|25A|-|-|-||0741189368||RUXANDRA.BIRCEA@YAHOO.COM|DAVSVSS||0 Sobranie SS White (1mg) Pack|Yes|Yes||BW031588|TWINS CAFE SRL STUDIO|Bucuresti|BWEVENTBA156|154|CCC EVENT SOBR FAM Fratelli 2013|121|Horeca|0
0|CS3673897|2013-11-24 00:52:30|MIHAILESCU|OCTAVIAN||M|1978-12-15|BUCURESTI|SECTOR 1|GURILEANU|7|20A|B||21|0730777093||OKTALIGHTS@YAHOO.COM|MBRFP||0 Sobranie KS Blue (6mg) Pack|Yes|Yes||BW031588|TWINS CAFE SRL STUDIO|Bucuresti|BWEVENTBA28|154|CCC EVENT SOBR FAM Fratelli 2013|121|Horeca|0
0|CS3673900|2013-11-24 00:53:34|PETRESCU|ANUCA||F|1981-01-26|BUCURESTI|SECTOR 1|POLONA|115|||||0745246126||ANUCA.PETRESCU@GMAIL.COM|DAVSVSS||0 Sobranie SS White (1mg) Pack|Yes|Yes||BW031588|TWINS CAFE SRL STUDIO|Bucuresti|BWEVENTBA03|154|CCC EVENT SOBR FAM Fratelli 2013|121|Horeca|0
0|CS3673901|2013-11-24 00:53:36|TROACA|ION MIHAI||M|1992-08-04|BUCURESTI|SECTOR 5|CALEA FERENTARI|11|||||0760288982||I.MIHAITROACA@GMAIL.COM|SBKSBL||0 Sobranie KS Blue (6mg) Pack|Yes|Yes||BW031588|TWINS CAFE SRL STUDIO|Bucuresti|BWEVENTBA197|154|CCC EVENT SOBR FAM Fratelli 2013|121|Horeca|0
0|CS3673902|2013-11-24 00:53:50|CICIC|OCTAVIAN||M|1986-04-30|BUCURESTI|4|CRISTIAN PASCAL|4|||||0768590408||GRAFICARTMEDIA@YAHOO.COM|KTBL||0 Sobranie KS Black (8mg) Pack|Yes|Yes||BW031588|TWINS CAFE SRL STUDIO|Bucuresti|BWEVENTBA202|154|CCC EVENT SOBR FAM Fratelli 2013|121|Horeca|0
0|CS3673904|2013-11-24 00:54:13|SEBE|MARIANA|2851112430052|F|1985-11-12|BUCURESTI|SECTOR 3|CAMIL RESSU|10|3|3|7|118|0749033349||MARIANA.SEBE@MORETHANPUB.RO|SBSSWH||0 Sobranie SS White (1mg) Pack|Yes|Yes||BW031588|TWINS CAFE SRL STUDIO|Bucuresti|BWEVENTBA139|154|CCC EVENT SOBR FAM Fratelli 2013|121|Horeca|0
0|CS3673903|2013-11-24 00:54:13|BECALI|ANA||F|1988-05-26|ILFOV|VOLUNTARI|PIPERA|48C|-|-|-||0720823194||ANABECALI@YAHOO.COM|VOGDV||0 Sobranie SS Black (6mg) Pack|Yes|Yes||BW031588|TWINS CAFE SRL STUDIO|Bucuresti|BWEVENTBA156|154|CCC EVENT SOBR FAM Fratelli 2013|121|Horeca|0
0|CS3673905|2013-11-24 00:54:27|JALBA|DAN||M|1985-11-10|BUCURESTI|SECTOR 6|DRUMUL TABEREI|93|H|B|3|33|0766730528||JALBA_D@YAHOO.COM|KTWH||0 Sobranie Side Slide Whites (1mg) Pack|Yes|Yes||BW031588|TWINS CAFE SRL STUDIO|Bucuresti|BWEVENTBA28|154|CCC EVENT SOBR FAM Fratelli 2013|121|Horeca|0
0|CS3673906|2013-11-24 00:54:29|TRANDAFIR|LARISA|2890513410065|F|1989-05-13|BUCURESTI|SECTOR 3|LIPANESTI|6|J18|A|4|10|0766290424||TRANDAFIR_LARISA@YAHOO.COM|KTSV||0 Sobranie KS Gold  (4mg) Pack|Yes|Yes||BW031588|TWINS CAFE SRL STUDIO|Bucuresti|BWEVENTBA200|154|CCC EVENT SOBR FAM Fratelli 2013|121|Horeca|0
0|CS3673912|2013-11-24 00:55:29|GRIGORIU|ANA MARIA||F|1989-09-08|BUCURESTI|SECTOR 5|BOLDESTI|60|||0|0|0724217592||ANA899MARIA@YAHOO.COM|SBSSPK||0 Sobranie SS Pink (3mg) Pack|Yes|Yes||BW031588|TWINS CAFE SRL STUDIO|Bucuresti|BWEVENTBA03|154|CCC EVENT SOBR FAM Fratelli 2013|121|Horeca|0
0|CS3673913|2013-11-24 00:55:46|GHEORGHITA|ANDRA||F|1989-04-02|BUCURESTI|SECTOR 3|GOJEA|10|||0|0|0757067408||ANDRA.GHEORGHITA@YAHOO.COM|KTSV||0 Sobranie KS Gold  (4mg) Pack|Yes|Yes||BW031588|TWINS CAFE SRL STUDIO|Bucuresti|BWEVENTBA139|154|CCC EVENT SOBR FAM Fratelli 2013|121|Horeca|0
0|CS3673914|2013-11-24 00:56:15|ALECU|LUCIANA||F|1985-01-10|BUCURESTI|SECTOR 4|BRANCOVEANU|132|34|1|2|8|0721300731||LUCIANA.ALECU@GMAIL.COM|SBSSWH||0 Sobranie Side Slide Whites (1mg) Pack|Yes|Yes||BW031588|TWINS CAFE SRL STUDIO|Bucuresti|BWEVENTBA201|154|CCC EVENT SOBR FAM Fratelli 2013|121|Horeca|0
0|CS3673915|2013-11-24 00:56:18|TAPARTEA|MADALINA||F|1989-05-31|BUCURESTI|2|BECATEI|8|U26|A||3|0762957204||MADY31NAILS@YAHOO.COM|SBSSPK||0 Sobranie SS Pink (3mg) Pack|Yes|Yes||BW031588|TWINS CAFE SRL STUDIO|Bucuresti|BWEVENTBA202|154|CCC EVENT SOBR FAM Fratelli 2013|121|Horeca|0
0|CS3673917|2013-11-24 00:56:37|VATUIU|VIRGINIA||F|1988-12-12|BUCURESTI|SECTOR 6|SIBIU|1|C5|2|4|56|0767305420||VIRGINIA12@GMAIL.COM|DUNFCBB||0 Sobranie KS Gold  (4mg) Pack|Yes|Yes||BW031588|TWINS CAFE SRL STUDIO|Bucuresti|BWEVENTBA197|154|CCC EVENT SOBR FAM Fratelli 2013|121|Horeca|0
0|CS3673919|2013-11-24 00:56:45|OPREA|TEODORA||F|1986-05-16|BUCURESTI|SECTOR 1|REGIMENTULUI|77C|-|-|-||0768101047||TEO86MADESCU@YAHOO.COM|SBSSWH||0 Sobranie SS White (1mg) Pack|Yes|Yes||BW031588|TWINS CAFE SRL STUDIO|Bucuresti|BWEVENTBA156|154|CCC EVENT SOBR FAM Fratelli 2013|121|Horeca|0
0|CS3673920|2013-11-24 00:56:49|ISAROIU|MIHAI||M|1984-05-23|BUCURESTI|SECTOR 2|BAICULUI|6|3A|A|8|34|0726287560||ISAROIUM@GMAIL.COM|DUNFCMBB||0 Sobranie KS Blue (6mg) Pack|Yes|Yes||BW031588|TWINS CAFE SRL STUDIO|Bucuresti|BWEVENTBA28|154|CCC EVENT SOBR FAM Fratelli 2013|121|Horeca|0
0|CS3673921|2013-11-24 00:57:09|MAGEANU|IONUT||M|1985-04-22|BUCURESTI|SECTOR 6|CEAHLAU|18|1|A||12|0724384385||IONUTMAGEANU@YAHOO.COM|KTSV||0 Sobranie Side Slide Blacks (4mg) Pack|Yes|Yes||BW031588|TWINS CAFE SRL STUDIO|Bucuresti|BWEVENTBA200|154|CCC EVENT SOBR FAM Fratelli 2013|121|Horeca|0
0|CS3673923|2013-11-24 00:57:31|POPESCU|ALEXANDRA||F|1988-06-27|BUCURESTI|SECTOR 4|INTRAREA MANGANULUI|4|||||0786088511||POPESCU_ALEXANDRACLAUDIA@YAHOO.COM|DUNFCBB||0 Sobranie KS Gold  (4mg) Pack|Yes|Yes||BW031588|TWINS CAFE SRL STUDIO|Bucuresti|BWEVENTBA139|154|CCC EVENT SOBR FAM Fratelli 2013|121|Horeca|0
0|CS3673927|2013-11-24 00:58:44|GHEORGHIU|CRISTIANA||F|1987-12-26|BUCURESTI|SECTOR 4|CRISAN|38|6|A|P|5|0728614614||BIBI88@YAHOO.COM|MBRGLFT||0 Sobranie KS Gold  (4mg) Pack|Yes|Yes||BW031588|TWINS CAFE SRL STUDIO|Bucuresti|BWEVENTBA156|154|CCC EVENT SOBR FAM Fratelli 2013|121|Horeca|0
0|CS3673928|2013-11-24 00:58:46|TEODORESCU|ANDREEA||F|1984-03-03|BUCURESTI|SECTOR 5|GREACA|34|||||0721247059||ANDREEEA_RALUCA_TEODORESCU@YAHOO.COM|KTSV||0 Sobranie Side Slide Blacks (4mg) Pack|Yes|Yes||BW031588|TWINS CAFE SRL STUDIO|Bucuresti|BWEVENTBA201|154|CCC EVENT SOBR FAM Fratelli 2013|121|Horeca|0
0|CS3673929|2013-11-24 00:59:16|COCOS|MARIUS FLORIN|1841119460010|M|1984-11-19|BUCURESTI|SECTOR 4|TATULESTI|5|100B|F|1|81|0722220057||COOCS_MARIUSFLORIN@YAHOO.COM|DAVGL||0 Sobranie KS Blue (6mg) Pack|Yes|Yes||BW031588|TWINS CAFE SRL STUDIO|Bucuresti|BWEVENTBA139|154|CCC EVENT SOBR FAM Fratelli 2013|121|Horeca|0
0|CS3673930|2013-11-24 00:59:17|GRUSHEVAN|DRAGOMIR||M|1987-07-13|BUCURESTI|SECTOR 3|MATEI BASARAB|106|73|A||6|0723079329||DGRUSEVAN@GMAIL.COM|PARAB||0 Sobranie KS Blue (6mg) Pack|Yes|Yes||BW031588|TWINS CAFE SRL STUDIO|Bucuresti|BWEVENTBA03|154|CCC EVENT SOBR FAM Fratelli 2013|121|Horeca|0
0|CS3673931|2013-11-24 00:59:34|ISTRATE|MARIA||F|1978-12-25|BUCURESTI|SECTOR 1|FROSA SARANDY|1|33|A|4|19|0723211211||MARIA_DOMINIQUE@YAHOO.COM|VOGLL||0 Sobranie Side Slide Blacks (4mg) Pack|Yes|Yes||BW031588|TWINS CAFE SRL STUDIO|Bucuresti|BWEVENTBA28|154|CCC EVENT SOBR FAM Fratelli 2013|121|Horeca|0
0|CS3673932|2013-11-24 01:00:06|OLTEANU|BOGDAN|1851219030039|M|1985-12-19|BUCURESTI|SECTOR 6|CALEA CRANGASI|18|||3|12|0766518728||BOGDAN@HERITAGEMEDIA.RO|KTSV||0 Sobranie KS Gold  (4mg) Pack|Yes|Yes||BW031588|TWINS CAFE SRL STUDIO|Bucuresti|BWEVENTBA200|154|CCC EVENT SOBR FAM Fratelli 2013|121|Horeca|0
0|CS3673933|2013-11-24 01:00:14|TIGAU|NATALIA||F|1983-08-27|BUCURESTI|SECTOR 3|FOISORULUI|6|||||0747037970||NATALIATIGAU@YAHOO.COM|DUNFCBB||0 Sobranie KS Gold  (4mg) Pack|Yes|Yes||BW031588|TWINS CAFE SRL STUDIO|Bucuresti|BWEVENTBA197|154|CCC EVENT SOBR FAM Fratelli 2013|121|Horeca|0
0|CS3673939|2013-11-24 01:01:34|CONSTANTINESCU|EDMOND||M|1985-09-22|BUCURESTI|SECTOR 1|TUDOR STEFAN|15|||||0727867476||EDMONDCONSTANTINESCU@GMAIL.COM|SBKSBL||0 Sobranie KS Blue (6mg) Pack|Yes|Yes||BW031588|TWINS CAFE SRL STUDIO|Bucuresti|BWEVENTBA28|154|CCC EVENT SOBR FAM Fratelli 2013|121|Horeca|0
0|CS3673940|2013-11-24 01:01:42|BALAZS|IOSIF||M|1972-10-29|BUCURESTI|2|PESCARILOR|6|26|1|2|10|0758869641||IOSIFBALASZ72@YAHOO.COM|MBRGL||0 Sobranie KS Blue (6mg) Pack|Yes|Yes||BW031588|TWINS CAFE SRL STUDIO|Bucuresti|BWEVENTBA202|154|CCC EVENT SOBR FAM Fratelli 2013|121|Horeca|0
0|CS3673941|2013-11-24 01:01:47|IFTODI|ADA||F|1988-09-04|BUCURESTI|SECTOR 1|ZAGAZULUI|4E|-|B|1|7|0745169100||ADAIFTODI@GMAIL.COM|SBSSWH||0 Sobranie SS White (1mg) Pack|Yes|Yes||BW031588|TWINS CAFE SRL STUDIO|Bucuresti|BWEVENTBA156|154|CCC EVENT SOBR FAM Fratelli 2013|121|Horeca|0
0|CS3673943|2013-11-24 01:02:14|IENCI|STELIAN||M|1983-12-21|ARAD|ARAD|LUDOVIC|4||||5|0785221976||IENCI.STELIAN@GMAIL.COM|DUNFCMBB||0 Sobranie KS Black (8mg) Pack|Yes|Yes||BW031588|TWINS CAFE SRL STUDIO|Bucuresti|BWEVENTBA201|154|CCC EVENT SOBR FAM Fratelli 2013|121|Horeca|0
0|CS3673944|2013-11-24 01:02:38|ARDELEAN|DIANA||F|1990-08-14|BUCURESTI|SECTOR 2|TEIUL DOAMNEI|1|||||0725522293||DIANA.ANA.ARDELEAN@GMAIL.COM|VOGLL||0 Sobranie Side Slide Blacks (4mg) Pack|Yes|Yes||BW031588|TWINS CAFE SRL STUDIO|Bucuresti|BWEVENTBA139|154|CCC EVENT SOBR FAM Fratelli 2013|121|Horeca|0
0|CS3673948|2013-11-24 01:03:23|GHERBOVAN|IRINA||F|1982-06-17|BUCURESTI|SECTOR 6|DRUMUL TABEREI|25|Z48|A|5|35|0723490540||IRINAGHERBOVAN@GMAIL.COM|VOGABP||0 Sobranie SS Black (6mg) Pack|Yes|Yes||BW031588|TWINS CAFE SRL STUDIO|Bucuresti|BWEVENTBA28|154|CCC EVENT SOBR FAM Fratelli 2013|121|Horeca|0
0|CS3673949|2013-11-24 01:03:56|ALEDDA|ANTONIO||M|1970-07-04|BUCURESTI|SECTOR 2|PIATA ROSETTI|3|||0|18|0731039480||ANTONIOALEDDA@GMAIL.COM|SBKSBL||0 Sobranie KS Blue (6mg) Pack|Yes|Yes||BW031588|TWINS CAFE SRL STUDIO|Bucuresti|BWEVENTBA197|154|CCC EVENT SOBR FAM Fratelli 2013|121|Horeca|0
0|CS3673951|2013-11-24 01:04:02|NEFERU|ADELINA||F|1986-11-21|ARGES|PITESTI|PATRASCU VODA|3|||0|0|0751080480||ADELINANEFERU@YAHOO.COM|DUNFCBB||0 Sobranie KS Gold  (4mg) Pack|Yes|Yes||BW031588|TWINS CAFE SRL STUDIO|Bucuresti|BWEVENTBA139|154|CCC EVENT SOBR FAM Fratelli 2013|121|Horeca|0
0|CS3673953|2013-11-24 01:04:26|RUSU|ELENA||F|1988-08-06|BUCURESTI|SECTOR 3|PETRE|9|||0|0|0726540123||ELLADA_06@YAHOO.COM|KTNWH||0 Sobranie Side Slide Whites (1mg) Pack|Yes|Yes||BW031588|TWINS CAFE SRL STUDIO|Bucuresti|BWEVENTBA201|154|CCC EVENT SOBR FAM Fratelli 2013|121|Horeca|0
0|CS3673955|2013-11-24 01:05:31|MIHAILESCU|LUIZA||F|1982-07-29|BUCURESTI|SECTOR 1|PRUNARU|6|8|A|2|9|0723646209||LUIZA.MIHAILESCU@GMAIL.COM|KTNWH||0 Sobranie Side Slide Whites (1mg) Pack|Yes|Yes||BW031588|TWINS CAFE SRL STUDIO|Bucuresti|BWEVENTBA03|154|CCC EVENT SOBR FAM Fratelli 2013|121|Horeca|0
0|CS3673956|2013-11-24 01:05:32|NICOLESCU|ALEX||M|1990-07-29|BUCURESTI|3|CAMPIA LIBERTATII|27|42|2|2|32|0728503033||NICOLESCU_BOBO2006@YAHOO.COM|MBRGLFT||0 Sobranie KS Gold  (4mg) Pack|Yes|Yes||BW031588|TWINS CAFE SRL STUDIO|Bucuresti|BWEVENTBA202|154|CCC EVENT SOBR FAM Fratelli 2013|121|Horeca|0
0|CS3673959|2013-11-24 01:05:48|NEAGU|SORIN||M|1978-01-01|BUCURESTI|SECTOR 1|AVIONULUI|1|||||0728220526||SORIN.NEAGU@PORCHE.RO|DAVGLS||0 Sobranie SS Black (6mg) Pack|Yes|Yes||BW031588|TWINS CAFE SRL STUDIO|Bucuresti|BWEVENTBA139|154|CCC EVENT SOBR FAM Fratelli 2013|121|Horeca|0
0|CS3673961|2013-11-24 01:06:05|BERCEA|GABI||F|1977-06-17|BUCURESTI|SECTOR 1|SMARANDA BRAESCU|75|25|3|2|43|0722331233||GABIBERCEA@YAHOO.COM|SBSSWH||0 Sobranie SS White (1mg) Pack|Yes|Yes||BW031588|TWINS CAFE SRL STUDIO|Bucuresti|BWEVENTBA156|154|CCC EVENT SOBR FAM Fratelli 2013|121|Horeca|0
0|CS3673962|2013-11-24 01:06:09|DOBRESCU|AURELIAN||M|1975-07-28|BUCURESTI|SECTOR 1|TRIFESTI|2|11I|A|4|20|0724377694||AURELIANDOBRESCU@YAHOO.COM|SBKSBL||0 Sobranie KS Blue (6mg) Pack|Yes|Yes||BW031588|TWINS CAFE SRL STUDIO|Bucuresti|BWEVENTBA28|154|CCC EVENT SOBR FAM Fratelli 2013|121|Horeca|0
0|CS3673965|2013-11-24 01:06:54|MARCU|SIMONA||F|1987-03-15|BUCURESTI|SECTOR 1|BVD AVIATORILOR|34|||||0763655111|||SBSSWH||0 Sobranie SS White (1mg) Pack|Yes|Yes||BW031588|TWINS CAFE SRL STUDIO|Bucuresti|BWEVENTBA197|154|CCC EVENT SOBR FAM Fratelli 2013|121|Horeca|0
0|CS3673968|2013-11-24 01:07:19|BALOIU|SIMONA||F|1981-05-21|BUCURESTI|SECTOR 4|MOLDOVITA|12|8||0|0|0733047334||BALOIUSIMONA@YAHOO.COM|SBSSPK||0 Sobranie SS Pink (3mg) Pack|Yes|Yes||BW031588|TWINS CAFE SRL STUDIO|Bucuresti|BWEVENTBA03|154|CCC EVENT SOBR FAM Fratelli 2013|121|Horeca|0
0|CS3673971|2013-11-24 01:07:50|IONEL|ROXANA||F|1987-12-06|BUCURESTI|SECTOR 3|CALARASI|253|62|1|2|10|0729479903||ROXANA_IONEL@YAHOO.COM|KTSWITH||0 Sobranie KS Black (8mg) Pack|Yes|Yes||BW031588|TWINS CAFE SRL STUDIO|Bucuresti|BWEVENTBA201|154|CCC EVENT SOBR FAM Fratelli 2013|121|Horeca|0
0|CS3673972|2013-11-24 01:08:03|SOUCA|MONICA||F|1981-08-13|BUCURESTI|SECTOR 1|MONETARIEI|12|||0|0|0740641414||MOSOUCA@YAHOO.COM|SBSSWH||0 Sobranie SS White (1mg) Pack|Yes|Yes||BW031588|TWINS CAFE SRL STUDIO|Bucuresti|BWEVENTBA156|154|CCC EVENT SOBR FAM Fratelli 2013|121|Horeca|0
0|CS3673974|2013-11-24 01:08:21|ZBIRCIOG|VLAD||M|1986-02-11|BUCURESTI|SECTOR 4|SINCAI|9|||||0722232190||VLAD.ZBIRCIOG@YAHOO.COM|KTSV||0 Sobranie KS Gold  (4mg) Pack|Yes|Yes||BW031588|TWINS CAFE SRL STUDIO|Bucuresti|BWEVENTBA139|154|CCC EVENT SOBR FAM Fratelli 2013|121|Horeca|0
0|CS3673975|2013-11-24 01:08:29|FINARIU|ELENA||F|1989-10-18|BUCURESTI|SECTOR 3|BUHUS|7|7|2|9|34|0733309419||ELENAFINARIU@YAHOO.COM|SBSSBK||0 Sobranie SS Black (6mg) Pack|Yes|Yes||BW031588|TWINS CAFE SRL STUDIO|Bucuresti|BWEVENTBA197|154|CCC EVENT SOBR FAM Fratelli 2013|121|Horeca|0
0|CS3673979|2013-11-24 01:08:55|ANGHELUTA|DRAGOS||M|1986-10-08|BUCURESTI|3|OCTAVIAN GOGA|21|C|B||17|0746620896||DRAGOS.ANGHELUTA@YAHOO.COM|SBSSWH||0 Sobranie SS White (1mg) Pack|Yes|Yes||BW031588|TWINS CAFE SRL STUDIO|Bucuresti|BWEVENTBA202|154|CCC EVENT SOBR FAM Fratelli 2013|121|Horeca|0
0|CS3673989|2013-11-24 01:10:27|STAMATOIU|CRISTI||M|1985-11-30|BUCURESTI|SECTOR 1|JITIA|8|-|-|-||0724319385||CRISTISTAM@GMAIL.COM|KTSV||0 Sobranie KS Gold  (4mg) Pack|Yes|Yes||BW031588|TWINS CAFE SRL STUDIO|Bucuresti|BWEVENTBA156|154|CCC EVENT SOBR FAM Fratelli 2013|121|Horeca|0
0|CS3673990|2013-11-24 01:10:31|MARINESCU|SILVIU|1780518340027|M|1985-05-18|BUCURESTI|SECTOR 2|VASILE LASCAR|8||||22|0755500515||MARINESCUSILVIU@YAHOO.COM|DUNFCBB||0 Sobranie KS Gold  (4mg) Pack|Yes|Yes||BW031588|TWINS CAFE SRL STUDIO|Bucuresti|BWEVENTBA200|154|CCC EVENT SOBR FAM Fratelli 2013|121|Horeca|0
0|CS3673992|2013-11-24 01:10:51|ANDRUSCENCO|LIVIU||M|1973-05-06|BUCURESTI|SECTOR 1|CAMPINANU|1|||||0725482221||ANDRCOSTIN@YAHOO.COM|KTH||0 Sobranie KS Black (8mg) Pack|Yes|Yes||BW031588|TWINS CAFE SRL STUDIO|Bucuresti|BWEVENTBA03|154|CCC EVENT SOBR FAM Fratelli 2013|121|Horeca|0
0|CS3673995|2013-11-24 01:11:00|MITROFAN|MIOARA||F|1977-02-15|BUCURESTI|SECTOR 6|TIMISOARA|89|103E|1|4|40|0735747516||MIORITZA_MIT@YAHOO.COM|SBSSWH||0 Sobranie Side Slide Whites (1mg) Pack|Yes|Yes||BW031588|TWINS CAFE SRL STUDIO|Bucuresti|BWEVENTBA201|154|CCC EVENT SOBR FAM Fratelli 2013|121|Horeca|0
0|CS3673997|2013-11-24 01:11:07|GANCIU|DANIELA||F|1985-07-21|BUCURESTI|SECTOR 3|FLORIN CIUNGAN|66|||||0726427106||DANIELAGANCIU@GMAIL.COM|SBSSWH||0 Sobranie Side Slide Whites (1mg) Pack|Yes|Yes||BW031588|TWINS CAFE SRL STUDIO|Bucuresti|BWEVENTBA197|154|CCC EVENT SOBR FAM Fratelli 2013|121|Horeca|0
0|CS3673998|2013-11-24 01:11:12|PAUL|COSMIN-SEBASTIAN||M|1976-11-03|BUCURESTI|SECTOR 3|CALEA CALARASILOR|176|59|A|4|16|0758745495||PAUL_COSMIN_31@YAHOO.COM|MBRFP||0 Sobranie KS Blue (6mg) Pack|Yes|Yes||BW031588|TWINS CAFE SRL STUDIO|Bucuresti|BWEVENTBA139|154|CCC EVENT SOBR FAM Fratelli 2013|121|Horeca|0
0|CS3673999|2013-11-24 01:11:40|CRISTU|SMARANDA||F|1983-07-28|BUCURESTI|SECTOR 2|DELENI|6|||0|0|0745900666||SMARANDA.CRISTU@YAHOO.COM|KTSV||0 Sobranie KS Gold  (4mg) Pack|Yes|Yes||BW031588|TWINS CAFE SRL STUDIO|Bucuresti|BWEVENTBA202|154|CCC EVENT SOBR FAM Fratelli 2013|121|Horeca|0
0|CS3674004|2013-11-24 01:12:55|MOCANU|ADRIANA||F|1990-07-02|BUCURESTI|SECTOR 4|MARIUCA|10|116|A|8|50|0763504527||MOCANUADRIANA02@YAHOO.COM|VIRSPR||0 Sobranie Side Slide Blacks (4mg) Pack|Yes|Yes||BW031588|TWINS CAFE SRL STUDIO|Bucuresti|BWEVENTBA139|154|CCC EVENT SOBR FAM Fratelli 2013|121|Horeca|0
0|CS3674005|2013-11-24 01:13:11|DINU|ANDREI||M|1990-08-08|BUCURESTI|SECTOR 1|JIULUI|157|||||0747435654||DINU.ANDREI@YAHOO.COM|SBSSWH||0 Sobranie SS White (1mg) Pack|Yes|Yes||BW031588|TWINS CAFE SRL STUDIO|Bucuresti|BWEVENTBA28|154|CCC EVENT SOBR FAM Fratelli 2013|121|Horeca|0
0|CS3674006|2013-11-24 01:13:26|TAMAGA|TRAIAN||M|1977-05-26|BUCURESTI|SECTOR 1|SOSEAUA NORDULUI|82|82|D|1|41|0723255670||TRAIANTAMAGA@YAHOO.COM|KTWH||0 Sobranie KS Gold  (4mg) Pack|Yes|Yes||BW031588|TWINS CAFE SRL STUDIO|Bucuresti|BWEVENTBA156|154|CCC EVENT SOBR FAM Fratelli 2013|121|Horeca|0
0|CS3674013|2013-11-24 01:13:51|GHEORGHIAS|IOANA||F|1988-08-04|BUCURESTI|SECTOR 3|GH TEODORESCU|11|||||0766493884||IGHEORGHIAS@GMAIL.COM|SBSSPK||0 Sobranie SS Pink (3mg) Pack|Yes|Yes||BW031588|TWINS CAFE SRL STUDIO|Bucuresti|BWEVENTBA197|154|CCC EVENT SOBR FAM Fratelli 2013|121|Horeca|0
0|CS3674015|2013-11-24 01:14:17|DIACONITA|MADALINA||F|1992-05-07|BACAU|RACACIUNI|MIHAI EMINESCU|643|||0|0|0740011498||MADALINA.DIACONUTA@GMAIL.COM|VOGJSN||0 Sobranie SS Menthol (5 mg) Pack|Yes|Yes||BW031588|TWINS CAFE SRL STUDIO|Bucuresti|BWEVENTBA202|154|CCC EVENT SOBR FAM Fratelli 2013|121|Horeca|0
0|CS3674017|2013-11-24 01:14:28|OANA|ARGESANU||F|1990-12-08|BUCURESTI|SECTOR 5|UNIRII|3|||||0757050504||OANAH@YAHOO.COM|KTSV||0 Sobranie SS Menthol (5 mg) Pack|Yes|Yes||BW031588|TWINS CAFE SRL STUDIO|Bucuresti|BWEVENTBA03|154|CCC EVENT SOBR FAM Fratelli 2013|121|Horeca|0
0|CS3674019|2013-11-24 01:14:48|VINTILESCU|NATALIA||F|1986-12-31|BUCURESTI|SECTOR 5|RAHOVEI|219|13|C|8|101|0730774325||TABAN_NATALIA@YAHOO.COM|DUNFCBB||0 Sobranie KS Gold  (4mg) Pack|Yes|Yes||BW031588|TWINS CAFE SRL STUDIO|Bucuresti|BWEVENTBA200|154|CCC EVENT SOBR FAM Fratelli 2013|121|Horeca|0
0|CS3674023|2013-11-24 01:15:23|STANCIU|ANDREI||M|1983-04-19|BUCURESTI|SECTOR 2|ZIDURI MOSI|2|6|A|6|25|0735397199||RRONALDO99@YAHOO.COM|KTBL||0 Sobranie KS Black (8mg) Pack|Yes|Yes||BW031588|TWINS CAFE SRL STUDIO|Bucuresti|BWEVENTBA201|154|CCC EVENT SOBR FAM Fratelli 2013|121|Horeca|0
0|CS3674024|2013-11-24 01:15:24|NEGURESCU|GEORGIANA||F|1992-10-08|BUCURESTI|SECTOR 1|DURAU|75|||||0752154022||GEORGIANA892@YAHOO.COM|DUNFCBB||0 Sobranie KS Gold  (4mg) Pack|Yes|Yes||BW031588|TWINS CAFE SRL STUDIO|Bucuresti|BWEVENTBA28|154|CCC EVENT SOBR FAM Fratelli 2013|121|Horeca|0
0|CS3674025|2013-11-24 01:15:34|VASILE|ANDREEA||F|1991-09-23|BUCURESTI|SECTOR 6|VIRTUTII|16|||||0749955226||X23_TYNES@YAHOO.COM|KTSWITH||0 Sobranie SS Menthol (5 mg) Pack|Yes|Yes||BW031588|TWINS CAFE SRL STUDIO|Bucuresti|BWEVENTBA139|154|CCC EVENT SOBR FAM Fratelli 2013|121|Horeca|0
0|CS3674026|2013-11-24 01:15:41|SAVA|ARINA||F|1985-03-12|BUCURESTI|SECTOR 2|SOSEAUA COLENTINA|3A|||0|0|0742870808||SAVA.ARINA@GMAIL.COM|SBSSMN||0 Sobranie SS Menthol (5 mg) Pack|Yes|Yes||BW031588|TWINS CAFE SRL STUDIO|Bucuresti|BWEVENTBA197|154|CCC EVENT SOBR FAM Fratelli 2013|121|Horeca|0
0|CS3674037|2013-11-24 01:16:45|ANGHEL|SIMONA||F|1993-09-10|BUCURESTI|SECTOR 1|SOIMULUI|21|||||0752643664||ANGHEL.SIMONA@YAHOO.COM|SBSSPK||0 Sobranie SS Pink (3mg) Pack|Yes|Yes||BW031588|TWINS CAFE SRL STUDIO|Bucuresti|BWEVENTBA28|154|CCC EVENT SOBR FAM Fratelli 2013|121|Horeca|0
0|CS3674045|2013-11-24 01:17:57|MADAN|DOINA||F|1986-03-28|ILFOV|CORBEANCA|AVIATORILOR|16|||||0758014009||MADAN.DOINA@YAHOO.COM|MBRGLFT||0 Sobranie Side Slide Blacks (4mg) Pack|Yes|Yes||BW031588|TWINS CAFE SRL STUDIO|Bucuresti|BWEVENTBA200|154|CCC EVENT SOBR FAM Fratelli 2013|121|Horeca|0
0|CS3674046|2013-11-24 01:17:58|GHEORGHE|RAZVAN||M|1987-02-19|BUCURESTI|3|LUGOJANA|2|11|1|9|49|0784022966||FAGAVIP@YAHOO.COM|DUNFCBB||0 Sobranie KS Gold  (4mg) Pack|Yes|Yes||BW031588|TWINS CAFE SRL STUDIO|Bucuresti|BWEVENTBA202|154|CCC EVENT SOBR FAM Fratelli 2013|121|Horeca|0
0|CS3674047|2013-11-24 01:18:12|DUMITRIU|OANA||F|1985-12-17|BUCURESTI|SECTOR 2|RADOVANU|15|||0|0|0762913375||OANA.DUMITRIU85@YAHOO.COM|KTSWIT||0 Sobranie KS Blue (6mg) Pack|Yes|Yes||BW031588|TWINS CAFE SRL STUDIO|Bucuresti|BWEVENTBA28|154|CCC EVENT SOBR FAM Fratelli 2013|121|Horeca|0
0|CS3674049|2013-11-24 01:18:14|POPESCU|CEZAR||M|1986-11-03|BUCURESTI|SECTOR 3|ALEXANDRU VLAHUTA|20|A6|2|6|69|0765483683||DREAMON273@YAHOO.COM|KTSWIT||0 Sobranie KS Gold  (4mg) Pack|Yes|Yes||BW031588|TWINS CAFE SRL STUDIO|Bucuresti|BWEVENTBA201|154|CCC EVENT SOBR FAM Fratelli 2013|121|Horeca|0
0|CS3674050|2013-11-24 01:18:17|POPA|BOGDAN||M|1981-05-07|BUCURESTI|SECTOR 3|LUNCOARA|5|||||0722629669||POPABOGDAN@YAHOO.COM|DUNFCMBB||0 Sobranie KS Blue (6mg) Pack|Yes|Yes||BW031588|TWINS CAFE SRL STUDIO|Bucuresti|BWEVENTBA139|154|CCC EVENT SOBR FAM Fratelli 2013|121|Horeca|0
0|CS3674059|2013-11-24 01:19:29|GRIGOROIU|FELICIA||F|1987-05-04|BUCURESTI|SECTOR 4|IZVORUL MURESULUI|11|A11|H|3|117|0727830162||FELICIAGRIGOROIU@YAHOO.COM|DUNFCBB||0 Sobranie KS Gold  (4mg) Pack|Yes|Yes||BW031588|TWINS CAFE SRL STUDIO|Bucuresti|BWEVENTBA156|154|CCC EVENT SOBR FAM Fratelli 2013|121|Horeca|0
0|CS3674063|2013-11-24 01:19:53|DANCIU|CRISTI||M|1986-10-15|BUCURESTI|SECTOR 3|FOISORULUI|18|F12C|A|7|0|0721077733||CRISTIAN.DANCIU@YAHOO.COM|MBRFP||0 Sobranie KS Blue (6mg) Pack|Yes|Yes||BW031588|TWINS CAFE SRL STUDIO|Bucuresti|BWEVENTBA200|154|CCC EVENT SOBR FAM Fratelli 2013|121|Horeca|0
0|CS3674064|2013-11-24 01:20:04|CALAGIU|BOGDAN||M|1982-04-23|BUCURESTI|SECTOR 2|BALTA ALBA|217|||||0760294259||GEORGE_MIHAI82@YAHOO.COM|DUNFCMBB||0 Sobranie KS Blue (6mg) Pack|Yes|Yes||BW031588|TWINS CAFE SRL STUDIO|Bucuresti|BWEVENTBA139|154|CCC EVENT SOBR FAM Fratelli 2013|121|Horeca|0
0|CS3674069|2013-11-24 01:21:00|VERDE|IOANA||F|1990-11-06|BUCURESTI|SECTOR 1|LASCAR CATARGIU|26|A|C|5|41|0724507453||IOANA.VERDE@EESTEC.COM|KTSWIT||0 Sobranie KS Blue (6mg) Pack|Yes|Yes||BW031588|TWINS CAFE SRL STUDIO|Bucuresti|BWEVENTBA28|154|CCC EVENT SOBR FAM Fratelli 2013|121|Horeca|0
0|CS3674074|2013-11-24 01:22:00|ANDREI|VLAD||M|1984-03-14|BUCURESTI|SECTOR 2|DR LISTER|16|||||0723885392||VLAD.AURELIAN84@GMAIL.COM|SBKSBL||0 Sobranie KS Blue (6mg) Pack|Yes|Yes||BW031588|TWINS CAFE SRL STUDIO|Bucuresti|BWEVENTBA201|154|CCC EVENT SOBR FAM Fratelli 2013|121|Horeca|0
0|CS3674076|2013-11-24 01:22:19|PANDELE|ANCA||F|1982-06-10|ILFOV|PIPERA|EMIL RACOVITA|35-39|||0|0|0722384151||ANCAPANDELE@GMAIL.COM|SBSSWH||0 Sobranie SS White (1mg) Pack|Yes|Yes||BW031588|TWINS CAFE SRL STUDIO|Bucuresti|BWEVENTBA139|154|CCC EVENT SOBR FAM Fratelli 2013|121|Horeca|0
0|CS3674078|2013-11-24 01:22:52|BICA|LARISA||F|1989-02-19|BUCURESTI|SECTOR 3|CAMIL RESSU|23|55|4|5|154|0746119289||LARRY_CA_ID@YAHOO.COM|VOGJSN||0 Sobranie SS Menthol (5 mg) Pack|Yes|Yes||BW031588|TWINS CAFE SRL STUDIO|Bucuresti|BWEVENTBA28|154|CCC EVENT SOBR FAM Fratelli 2013|121|Horeca|0
0|CS3674081|2013-11-24 01:23:29|CURMEI|DAIANA||F|1990-08-04|BUCURESTI|SECTOR 1|CAPALNA|10|15A|2|2|34|0721060868||DAIANA.FREAKISH@YAHOO.COM|PARRSSMH||0 Sobranie SS Menthol (5 mg) Pack|Yes|Yes||BW031588|TWINS CAFE SRL STUDIO|Bucuresti|BWEVENTBA200|154|CCC EVENT SOBR FAM Fratelli 2013|121|Horeca|0
0|CS3674084|2013-11-24 01:23:48|GHEORGHITA|ALINA||F|1987-08-16|BUCURESTI|1|RETORTEI|41|||||0785520800||GHEORGHITA.ALINAA@YAHOO.COM|KTSV||0 Sobranie KS Gold  (4mg) Pack|Yes|Yes||BW031588|TWINS CAFE SRL STUDIO|Bucuresti|BWEVENTBA202|154|CCC EVENT SOBR FAM Fratelli 2013|121|Horeca|0
0|CS3674087|2013-11-24 01:24:30|CONSTANTIN|ALEXANDRA||F|1988-01-11|BUCURESTI|SECTOR 3|MIHAI BRAVU|202|||||0769732425||AL_CONST@YAHOO.FR|SBSSWH||0 Sobranie SS White (1mg) Pack|Yes|Yes||BW031588|TWINS CAFE SRL STUDIO|Bucuresti|BWEVENTBA139|154|CCC EVENT SOBR FAM Fratelli 2013|121|Horeca|0
0|CS3674089|2013-11-24 01:24:37|ABABEI|ROXANA||F|1978-05-25|BUCURESTI|SECTOR 1|TURDA|106|32|A|6|32|0721372790||ROXOFFICE@YMAIL.COM|SBSSWH||0 Sobranie Side Slide Whites (1mg) Pack|Yes|Yes||BW031588|TWINS CAFE SRL STUDIO|Bucuresti|BWEVENTBA201|154|CCC EVENT SOBR FAM Fratelli 2013|121|Horeca|0
0|CS3674090|2013-11-24 01:24:55|ORZAC|ILEANA||F|1974-07-07|BUCURESTI|SECTOR 1|GH SIMIONESCU|9|||||0740123513||ORZACFURNITURE@GMAIL.COM|SBKSBL||0 Sobranie KS Blue (6mg) Pack|Yes|Yes||BW031588|TWINS CAFE SRL STUDIO|Bucuresti|BWEVENTBA197|154|CCC EVENT SOBR FAM Fratelli 2013|121|Horeca|0
0|CS3674093|2013-11-24 01:25:54|SCHUSTER|HANELORE||F|1983-01-07|SIBIU|SIBIU|MASINA DE PAINE|2|OD32A|B|9|82|0762287678||SCHUSTER.NOTAR@GMAIL.COM|VOGDV||0 Sobranie SS Black (6mg) Pack|Yes|Yes||BW031588|TWINS CAFE SRL STUDIO|Bucuresti|BWEVENTBA28|154|CCC EVENT SOBR FAM Fratelli 2013|121|Horeca|0
0|CS3674094|2013-11-24 01:25:54|SOREANU|ANDA||F|1984-04-17|BUCURESTI|SECTOR 1|FULGERULUI|3|-|-|4|8|0722677811||ANDA_SOEANU@YAHOO.COM|SBSSWH||0 Sobranie SS White (1mg) Pack|Yes|Yes||BW031588|TWINS CAFE SRL STUDIO|Bucuresti|BWEVENTBA156|154|CCC EVENT SOBR FAM Fratelli 2013|121|Horeca|0
0|CS3674095|2013-11-24 01:25:55|MUSCU|GEORGIANA||F|1988-11-18|BUCURESTI|SECTOR 2|GHESPARILOR|50|||||0786435601||GMUSCU@YAHOO.COM|SBSSPK||0 Sobranie Side Slide Blacks (4mg) Pack|Yes|Yes||BW031588|TWINS CAFE SRL STUDIO|Bucuresti|BWEVENTBA139|154|CCC EVENT SOBR FAM Fratelli 2013|121|Horeca|0
0|CS3674097|2013-11-24 01:27:39|BARBU|RALUCA||F|1990-05-10|BUCURESTI|SECTOR 3|DECEBAL|24|B5|1|4|16|0722121748||RALUCA.BARBU1@GMAIL.COM|VIRSPR||0 Sobranie KS Blue (6mg) Pack|Yes|Yes||BW031588|TWINS CAFE SRL STUDIO|Bucuresti|BWEVENTBA201|154|CCC EVENT SOBR FAM Fratelli 2013|121|Horeca|0
0|CS3674098|2013-11-24 01:27:45|JIANU|NICU||M|1982-07-15|PRAHOVA|PLOIESTI|GHINDIEI|4|-|-|-||0730500409||NICU.JIANU@YAHOO.COM|KTNWH||0 Sobranie Side Slide Whites (1mg) Pack|Yes|Yes||BW031588|TWINS CAFE SRL STUDIO|Bucuresti|BWEVENTBA156|154|CCC EVENT SOBR FAM Fratelli 2013|121|Horeca|0
0|CS3674100|2013-11-24 01:28:12|HOGEA|ANA-MARIA|2860113430079|F|1986-01-13|ILFOV|VOLUNTARI|EROU IANCU NICOLAE|123|C||0|4|0730345161||AMA131313@YAHOO.ES|SBSSMN||0 Sobranie SS Menthol (5 mg) Pack|Yes|Yes||BW031588|TWINS CAFE SRL STUDIO|Bucuresti|BWEVENTBA200|154|CCC EVENT SOBR FAM Fratelli 2013|121|Horeca|0
0|CS3674101|2013-11-24 01:28:38|RADU|CATALIN||M|1983-10-30|BUCURESTI|3|BARAJUL BICAZ|11C|M32A|2||127|0721208203||RADUCATALIN30@YAHOO.COM|DUNFCBB||0 Sobranie KS Gold  (4mg) Pack|Yes|Yes||BW031588|TWINS CAFE SRL STUDIO|Bucuresti|BWEVENTBA202|154|CCC EVENT SOBR FAM Fratelli 2013|121|Horeca|0
0|CS3674102|2013-11-24 01:29:09|VASILESCU|ANDRADA||F|1989-06-01|BUCURESTI|SECTOR 1|VIORELELOR|34|||||0765333999||ALEXA.ALEXA76@YAHOO.COM|DAVGL||0 Sobranie KS Blue (6mg) Pack|Yes|Yes||BW031588|TWINS CAFE SRL STUDIO|Bucuresti|BWEVENTBA139|154|CCC EVENT SOBR FAM Fratelli 2013|121|Horeca|0
0|CS3674105|2013-11-24 01:29:22|GUDA|TEODORA||F|1986-06-12|BUCURESTI|SECTOR 3|CALARASILOR|116-12|||0|0|0721061936||THEODORA.GUDA@YAHOO.COM|SBSSMN||0 Sobranie SS Menthol (5 mg) Pack|Yes|Yes||BW031588|TWINS CAFE SRL STUDIO|Bucuresti|BWEVENTBA156|154|CCC EVENT SOBR FAM Fratelli 2013|121|Horeca|0
0|CS3674106|2013-11-24 01:29:23|OZCAN|CENGIZ||M|1978-04-23|BUCURESTI|SECTOR 3|DECEBAL|11|||||0734117711|||KTSV||0 Sobranie KS Gold  (4mg) Pack|Yes|Yes||BW031588|TWINS CAFE SRL STUDIO|Bucuresti|BWEVENTBA28|154|CCC EVENT SOBR FAM Fratelli 2013|121|Horeca|0
0|CS3674109|2013-11-24 01:30:37|TURCU|ALIN||M|1990-02-13|BUCURESTI|SECTOR 2|IULIU MANIU|5|||||0765125084||ALINUTZUUU@GMAIL.COM|DUNFCMBB||0 Sobranie KS Blue (6mg) Pack|Yes|Yes||BW031588|TWINS CAFE SRL STUDIO|Bucuresti|BWEVENTBA139|154|CCC EVENT SOBR FAM Fratelli 2013|121|Horeca|0
0|CS3674115|2013-11-24 01:32:14|PABLO|ALVARES||M|1986-01-30|ILFOV|VOLUNTARI|EROU IANCU NICOLAE|123|C||2|6|0728119898||AMA131313@YAHOO.COM|SBSSMN||0 Sobranie SS Menthol (5 mg) Pack|Yes|Yes||BW031588|TWINS CAFE SRL STUDIO|Bucuresti|BWEVENTBA200|154|CCC EVENT SOBR FAM Fratelli 2013|121|Horeca|0
0|CS3674116|2013-11-24 01:32:21|GALCEAVA|MARIUS||M|1986-01-01|BUCURESTI|SECTOR 1|GHIOCEILOR|45|||||0786432000||ANDREIU.ANDR@YAHOO.COM|GLMMNT||0 Sobranie SS Menthol (5 mg) Pack|Yes|Yes||BW031588|TWINS CAFE SRL STUDIO|Bucuresti|BWEVENTBA139|154|CCC EVENT SOBR FAM Fratelli 2013|121|Horeca|0
0|CS3674120|2013-11-24 01:32:39|ZOTA|ALEXANDRA||F|1982-10-02|BUCURESTI|SECTOR 4|VIORELE|34|||||0730486709||ALEXANDRAZOTA@YAHOO.COM|SBSSWH||0 Sobranie SS White (1mg) Pack|Yes|Yes||BW031588|TWINS CAFE SRL STUDIO|Bucuresti|BWEVENTBA03|154|CCC EVENT SOBR FAM Fratelli 2013|121|Horeca|0
0|CS3674119|2013-11-24 01:32:39|IONITA|ANDRA||F|1988-08-30|BUCURESTI|SECTOR 1|PROMETEU|8|||||0724744014||ANNDRA.IONITA@GMAIL.COM|DAVGLS||0 Sobranie Side Slide Blacks (4mg) Pack|Yes|Yes||BW031588|TWINS CAFE SRL STUDIO|Bucuresti|BWEVENTBA197|154|CCC EVENT SOBR FAM Fratelli 2013|121|Horeca|0
0|CS3674121|2013-11-24 01:32:41|NEGRESCU|STEFAN||M|1989-09-24|BUCURESTI|SECTOR 6|SPLAIUL INDEPENDENTEI|196|1|1|5|32|0722307355|||SBKSGD||0 Sobranie KS Gold  (4mg) Pack|Yes|Yes||BW031588|TWINS CAFE SRL STUDIO|Bucuresti|BWEVENTBA156|154|CCC EVENT SOBR FAM Fratelli 2013|121|Horeca|0
0|CS3674123|2013-11-24 01:33:19|CHINA|ANA MARIA||F|1987-12-29|BUCURESTI|6|POLITEHNICII|2|2|1|0|1|0723259906||CHINA.ANAMARIA@GMAIL.COM|SBKSSSBK||0 Sobranie Side Slide Blacks (4mg) Pack|Yes|Yes||BW031588|TWINS CAFE SRL STUDIO|Bucuresti|BWEVENTBA28|154|CCC EVENT SOBR FAM Fratelli 2013|121|Horeca|0
0|CS3674122|2013-11-24 01:33:19|DUMITRU|MARIA||F|1988-04-03|BUCURESTI|SECTOR 5|BALTAGULUI|4|B76|4|4|30|0742622446||MARIA_IOANA@YAHOO.COM|VOGABP||0 Sobranie KS Blue (6mg) Pack|Yes|Yes||BW031588|TWINS CAFE SRL STUDIO|Bucuresti|BWEVENTBA201|154|CCC EVENT SOBR FAM Fratelli 2013|121|Horeca|0
0|CS3674125|2013-11-24 01:33:26|BADEA|LIVIU||M|1986-06-14|BUCURESTI|2|LUIGI GALVANI|17|||||0760920387||OSCARLIVIU@GMAIL.COM|SBKSBL||0 Sobranie KS Blue (6mg) Pack|Yes|Yes||BW031588|TWINS CAFE SRL STUDIO|Bucuresti|BWEVENTBA202|154|CCC EVENT SOBR FAM Fratelli 2013|121|Horeca|0
0|CS3674126|2013-11-24 01:33:28|CHELU|SEVASTIAN||M|1983-04-05|BUCURESTI|SECTOR 2|BASARABIEI|45|||||0756320922||SEVASTIAAAN@GMAIL.COM|DUNFCMBB||0 Sobranie KS Blue (6mg) Pack|Yes|Yes||BW031588|TWINS CAFE SRL STUDIO|Bucuresti|BWEVENTBA139|154|CCC EVENT SOBR FAM Fratelli 2013|121|Horeca|0
0|CS3674128|2013-11-24 01:34:46|IANCU|ADRIAN||M|1989-11-25|BUCURESTI|SECTOR 6|PASCANI|7|D8|B|4|19|0721334567||IANCUADI2005@YAHOO.COM|KTNBK||0 Sobranie Side Slide Blacks (4mg) Pack|Yes|Yes||BW031588|TWINS CAFE SRL STUDIO|Bucuresti|BWEVENTBA156|154|CCC EVENT SOBR FAM Fratelli 2013|121|Horeca|0
0|CS3674129|2013-11-24 01:34:55|IONESCU|ADRIAN||M|1990-05-05|BUCURESTI|SECTOR 3|CALARASILOR|45|||||0766345087||ALIN.GALATASARAI@GMAIL.COM|DUNFCMBB||0 Sobranie KS Blue (6mg) Pack|Yes|Yes||BW031588|TWINS CAFE SRL STUDIO|Bucuresti|BWEVENTBA139|154|CCC EVENT SOBR FAM Fratelli 2013|121|Horeca|0
0|CS3674131|2013-11-24 01:35:39|SERBAN|CRISTINA||F|1989-08-15|BUCURESTI|SECTOR 2|ZAMBILELIR|75|3|1|0|6|0767931292||CRISU_CRISSY@YAHOO.COM|VIRSPR||0 Sobranie KS Blue (6mg) Pack|Yes|Yes||BW031588|TWINS CAFE SRL STUDIO|Bucuresti|BWEVENTBA201|154|CCC EVENT SOBR FAM Fratelli 2013|121|Horeca|0
0|CS3674132|2013-11-24 01:35:54|CRETU|CATALIN||M|1983-10-19|BUCURESTI|SECTOR 2|ALEEA DIHAM|2|P16|A|7|50|0745651802||CATALINCRETU1982@YAHOO.COM|DAVGL||0 Sobranie KS Black (8mg) Pack|Yes|Yes||BW031588|TWINS CAFE SRL STUDIO|Bucuresti|BWEVENTBA28|154|CCC EVENT SOBR FAM Fratelli 2013|121|Horeca|0
0|CS3674135|2013-11-24 01:36:19|UNGUREANU|ELENA||F|1987-06-04|BUCURESTI|SECTOR 3|VALEA CALARASILOR|173|42|2|3|47|0723356002||ELENA.UNGUREANU04@YAHOO.COM|SBKSSSWH||0 Sobranie Side Slide Whites (1mg) Pack|Yes|Yes||BW031588|TWINS CAFE SRL STUDIO|Bucuresti|BWEVENTBA03|154|CCC EVENT SOBR FAM Fratelli 2013|121|Horeca|0
0|CS3674136|2013-11-24 01:36:25|PLESA|CORNELIU||M|1963-05-01|BUCURESTI|SECTOR 2|STEFAN CEL MARE|54|59|2|9|61|0722361853||RADIO21@GMAIL.COM|MBRRD||0 Sobranie KS Black (8mg) Pack|Yes|Yes||BW031588|TWINS CAFE SRL STUDIO|Bucuresti|BWEVENTBA156|154|CCC EVENT SOBR FAM Fratelli 2013|121|Horeca|0
0|CS3674137|2013-11-24 01:36:35|VOINEA|DIANA||F|1989-06-29|BUCURESTI|SECTOR 2|GHEORGHE LAZAR|555|||||0766644466||DIANA.DIANA68@GMAIL.COM|VIRSPR||0 Sobranie Side Slide Blacks (4mg) Pack|Yes|Yes||BW031588|TWINS CAFE SRL STUDIO|Bucuresti|BWEVENTBA139|154|CCC EVENT SOBR FAM Fratelli 2013|121|Horeca|0
0|CS3674139|2013-11-24 01:37:25|NEGRISAN|IRINA||F|1988-01-06|BUCURESTI|SECTOR 5|CALEA13SEPTEMBRIE|55|57|2|4|39|0726415576||IRINA_NEGRISAN@YAHOO.COM|SBKSBL||0 Sobranie KS Blue (6mg) Pack|Yes|Yes||BW031588|TWINS CAFE SRL STUDIO|Bucuresti|BWEVENTBA03|154|CCC EVENT SOBR FAM Fratelli 2013|121|Horeca|0
0|CS3674140|2013-11-24 01:37:45|GHINESCU|IOANA||F|1991-01-01|BUCURESTI|SECTOR 2|IULI MANIU|67|||||0765245798||TURCU.EA@GMAIL.COM|VIRSPR||0 Sobranie KS Gold  (4mg) Pack|Yes|Yes||BW031588|TWINS CAFE SRL STUDIO|Bucuresti|BWEVENTBA139|154|CCC EVENT SOBR FAM Fratelli 2013|121|Horeca|0
0|CS3674141|2013-11-24 01:38:42|DUMITRU|VALENTIN|1870205340434|M|1987-02-05|BUCURESTI|SECTOR 6|PRELUNGIREA GHENCEA|45|F1|A|3|24|0742594939||VALI.VON.DTRU@GMAIL.COM|DUNFCMBB||0 Sobranie KS Blue (6mg) Pack|Yes|Yes||BW031588|TWINS CAFE SRL STUDIO|Bucuresti|BWEVENTBA200|154|CCC EVENT SOBR FAM Fratelli 2013|121|Horeca|0
0|CS3674142|2013-11-24 01:38:57|GEORGESCU|IOAN||M|1988-01-10|BUCURESTI|SECTOR 6|MIHAI GRIGORESCU|16|||||0744254443||GEORGESCU_IOAN@YAHOO.COM|SBKSGD||0 Sobranie KS Gold  (4mg) Pack|Yes|Yes||BW031588|TWINS CAFE SRL STUDIO|Bucuresti|BWEVENTBA28|154|CCC EVENT SOBR FAM Fratelli 2013|121|Horeca|0
0|CS3674143|2013-11-24 01:38:58|POP|ADRIANA||F|1994-10-15|HUNEDOARA|LUPENI|VICTORIA|23|||||0732274409||P.ADRYANNA@YAHOO.COM|VOGJSN||0 Sobranie SS Menthol (5 mg) Pack|Yes|Yes||BW031588|TWINS CAFE SRL STUDIO|Bucuresti|BWEVENTBA201|154|CCC EVENT SOBR FAM Fratelli 2013|121|Horeca|0
0|CS3674150|2013-11-24 01:40:30|SANISLAV|PAULA||F|1988-07-13|BUCURESTI|1|INTRAREA DRIDU|7|F13|C|0|82|0767546465||CRISTINAPAULA56@YAHOO.COM|VIRSM||0 Sobranie SS Menthol (5 mg) Pack|Yes|Yes||BW031588|TWINS CAFE SRL STUDIO|Bucuresti|BWEVENTBA202|154|CCC EVENT SOBR FAM Fratelli 2013|121|Horeca|0
0|CS3674153|2013-11-24 01:41:16|DRAGHICEANU|RADU||M|1991-12-10|TULCEA|TULCEA|SALCIILOR|6|S|A|4|17|0746063855||RADU.DRAGHICEANU@YAHOO.COM|DUNFCMBB||0 Sobranie KS Blue (6mg) Pack|Yes|Yes||BW031588|TWINS CAFE SRL STUDIO|Bucuresti|BWEVENTBA201|154|CCC EVENT SOBR FAM Fratelli 2013|121|Horeca|0
0|CS3674154|2013-11-24 01:41:25|SULEAPA|ALEXANDRU||M|1988-09-23|BUCURESTI|SECTOR 1|VICTORIEI|214|-|-|-||0726265224||ALEXANDRU.SULEAPA@ME.COM|DAVGL||0 Sobranie KS Black (8mg) Pack|Yes|Yes||BW031588|TWINS CAFE SRL STUDIO|Bucuresti|BWEVENTBA156|154|CCC EVENT SOBR FAM Fratelli 2013|121|Horeca|0
0|CS3674156|2013-11-24 01:41:41|MIHAILA|ALIN||M|1977-02-18|BUCURESTI|SECTOR 3|UNIRII|64|K4|3|1|61|0723710191||ALINMIHAILA@YAHOO.COM|MBRGL||0 Sobranie KS Blue (6mg) Pack|Yes|Yes||BW031588|TWINS CAFE SRL STUDIO|Bucuresti|BWEVENTBA200|154|CCC EVENT SOBR FAM Fratelli 2013|121|Horeca|0
0|CS3674157|2013-11-24 01:41:52|IOAN|CRINA||F|1989-07-27|BRASOV|BRASOV|ION CORAVU|27|||||0753744644||IOAN.CRINA@YAHOO.COM|SBSSPK||0 Sobranie SS Pink (3mg) Pack|Yes|Yes||BW031588|TWINS CAFE SRL STUDIO|Bucuresti|BWEVENTBA28|154|CCC EVENT SOBR FAM Fratelli 2013|121|Horeca|0
0|CS3674160|2013-11-24 01:43:05|GEORGE|UNGUREANU||M|1986-04-23|BUCURESTI|SECTOR 4|BRADETULUI|2|||||0746048764||GEORGE.UNGUREANU@BDG.RO|SBKSBL||0 Sobranie KS Blue (6mg) Pack|Yes|Yes||BW031588|TWINS CAFE SRL STUDIO|Bucuresti|BWEVENTBA03|154|CCC EVENT SOBR FAM Fratelli 2013|121|Horeca|0
0|CS3674161|2013-11-24 01:43:15|GRECU|ALINA|2890618046235|F|1989-06-18|BUCURESTI|SECTOR 2|AVRIG|64|O20|A|3|43|0730177271||ALINA_GRECU89@YAHOO.COM|DUNFCBB||0 Sobranie Side Slide Blacks (4mg) Pack|Yes|Yes||BW031588|TWINS CAFE SRL STUDIO|Bucuresti|BWEVENTBA200|154|CCC EVENT SOBR FAM Fratelli 2013|121|Horeca|0
0|CS3674162|2013-11-24 01:43:32|NITU|DANIELA||F|1986-06-09|BUCURESTI|5|PETRE ISPIRESCU|14|P22|C|4|18|0720424673||DANNAA_N@YAHOO.COM|KTNWH||0 Sobranie Side Slide Whites (1mg) Pack|Yes|Yes||BW031588|TWINS CAFE SRL STUDIO|Bucuresti|BWEVENTBA202|154|CCC EVENT SOBR FAM Fratelli 2013|121|Horeca|0
0|CS3674163|2013-11-24 01:43:35|MACA|ALEXANDRU||M|1985-01-05|BUCURESTI|SECTOR 2|MIHAI BRAVU|107|E1|1|4|17|0755741200||ALEXANDRUMACA@GMAIL.COM|DUNFCBB||0 Sobranie KS Gold  (4mg) Pack|Yes|Yes||BW031588|TWINS CAFE SRL STUDIO|Bucuresti|BWEVENTBA156|154|CCC EVENT SOBR FAM Fratelli 2013|121|Horeca|0
0|CS3674164|2013-11-24 01:43:38|GHEORGHE|CRISTINA||F|1986-08-30|BUCURESTI|SECTOR 2|CALEA MOSILOR|215|||||0725538583||CRISTINA.LAURA.GHEORGHE@GMAIL.COM|DUNFCBB||0 Sobranie KS Gold  (4mg) Pack|Yes|Yes||BW031588|TWINS CAFE SRL STUDIO|Bucuresti|BWEVENTBA197|154|CCC EVENT SOBR FAM Fratelli 2013|121|Horeca|0
0|CS3674165|2013-11-24 01:43:48|RADA|CRISTI||M|1989-08-10|ARGES|ARAD|VICTORIEI|245|||||0754643323||RADA.RADA@YAHOO.COM|DUNFCSB||0 Sobranie KS Black (8mg) Pack|Yes|Yes||BW031588|TWINS CAFE SRL STUDIO|Bucuresti|BWEVENTBA28|154|CCC EVENT SOBR FAM Fratelli 2013|121|Horeca|0
0|CS3674168|2013-11-24 01:45:25|MATCO|TANIA||F|1985-02-05|CLUJ|CLUJ|CALEA TURZII|233|||||0752482174||PUPSYK21@YAHOO.COM|DUNFCBB||0 Sobranie SS Pink (3mg) Pack|Yes|Yes||BW031588|TWINS CAFE SRL STUDIO|Bucuresti|BWEVENTBA201|154|CCC EVENT SOBR FAM Fratelli 2013|121|Horeca|0
0|CS3674170|2013-11-24 01:47:06|DEJAN|LUCA||M|1994-07-20|BUCURESTI|SECTOR 2|MIHAI BRAVU|122|||||0723066026||CUREA.LUCA@YAHOO.COM|DUNFCBB||0 Sobranie KS Gold  (4mg) Pack|Yes|Yes||BW031588|TWINS CAFE SRL STUDIO|Bucuresti|BWEVENTBA197|154|CCC EVENT SOBR FAM Fratelli 2013|121|Horeca|0
0|CS3674171|2013-11-24 01:47:15|MANOLESCU|BOGDAN||M|1977-03-17|BUCURESTI|SECTOR 3|ALEEA BARAJ BICAZ|2|M25|B|1|98|0721244234||MANOLESCUBOGDAN@YAHOO.COM|SBKSBL||0 Sobranie KS Blue (6mg) Pack|Yes|Yes||BW031588|TWINS CAFE SRL STUDIO|Bucuresti|BWEVENTBA03|154|CCC EVENT SOBR FAM Fratelli 2013|121|Horeca|0
0|CS3674173|2013-11-24 01:47:47|CEPI|COSTIN||M|1986-11-04|ILFOV|PANTELIMON|CERNICA|37|||0|0|0732083487||CEPICOSTIN@YAHOO.COM|KTWH||0 Sobranie Side Slide Whites (1mg) Pack|Yes|Yes||BW031588|TWINS CAFE SRL STUDIO|Bucuresti|BWEVENTBA200|154|CCC EVENT SOBR FAM Fratelli 2013|121|Horeca|0
0|CS3674174|2013-11-24 01:48:11|SERESCU|RADU||M|1987-08-21|BUCURESTI|3|MIHAI BRAVU|293|||||0753055554||RADUSERESCU@GMAIL.COM|KTNBK||0 Sobranie Side Slide Blacks (4mg) Pack|Yes|Yes||BW031588|TWINS CAFE SRL STUDIO|Bucuresti|BWEVENTBA202|154|CCC EVENT SOBR FAM Fratelli 2013|121|Horeca|0
0|CS3674175|2013-11-24 01:48:15|MARIA|CRISTIANA||F|1992-05-06|BUCURESTI|SECTOR 6|DR TABEREI|10|||0|0|0784640282||MIA.CRISTIANA@YAHOO.COM|SBSSBK||0 Sobranie SS Black (6mg) Pack|Yes|Yes||BW031588|TWINS CAFE SRL STUDIO|Bucuresti|BWEVENTBA156|154|CCC EVENT SOBR FAM Fratelli 2013|121|Horeca|0
0|CS3674177|2013-11-24 01:48:37|VARA|ALINA||F|1988-08-09|BUCURESTI|SECTOR 2|RADOVANU|3|20|3|3|40|0724729723||ALINA_VARA@YAHOO.COM|DUNFCBB||0 Sobranie Side Slide Blacks (4mg) Pack|Yes|Yes||BW031588|TWINS CAFE SRL STUDIO|Bucuresti|BWEVENTBA201|154|CCC EVENT SOBR FAM Fratelli 2013|121|Horeca|0
0|CS3674178|2013-11-24 01:48:50|GHEORGHE|ADINA||F|1986-04-29|BUCURESTI|SECTOR 4|VIILOR|32|||||0789555339||ADINA.ADINA69@YAHOO.COM|SBKSBL||0 Sobranie KS Blue (6mg) Pack|Yes|Yes||BW031588|TWINS CAFE SRL STUDIO|Bucuresti|BWEVENTBA139|154|CCC EVENT SOBR FAM Fratelli 2013|121|Horeca|0
0|CS3674180|2013-11-24 01:49:49|SERBAN|RADU||M|1993-05-18|ILFOV|VOLUNTARI|DRUMUL BISERICII|48|||||0744371721||RADU.SERBAN94@YAHOO.COM|DUNFCBB||0 Sobranie KS Gold  (4mg) Pack|Yes|Yes||BW031588|TWINS CAFE SRL STUDIO|Bucuresti|BWEVENTBA197|154|CCC EVENT SOBR FAM Fratelli 2013|121|Horeca|0
0|CS3674181|2013-11-24 01:50:36|IORDACHE|DANIELA||F|1993-05-21|BUCURESTI|SECTOR 6|SPLAIUL INDEPENDENTEI|290|P20|-|2|221|0761773576||ELENA_DANIELA_I@YAHOO.COM|SBSSBK||0 Sobranie SS Black (6mg) Pack|Yes|Yes||BW031588|TWINS CAFE SRL STUDIO|Bucuresti|BWEVENTBA156|154|CCC EVENT SOBR FAM Fratelli 2013|121|Horeca|0
0|CS3674182|2013-11-24 01:50:38|CRISTEA|EUGEN||M|1979-12-12|BUCURESTI|SECTOR 1|PLOPENI|2|||0|0|0730633699||BARBONNE_2006@YAHOO.COM|SBSSPK||0 Sobranie SS Pink (3mg) Pack|Yes|Yes||BW031588|TWINS CAFE SRL STUDIO|Bucuresti|BWEVENTBA28|154|CCC EVENT SOBR FAM Fratelli 2013|121|Horeca|0
0|CS3674183|2013-11-24 01:51:24|BUCUR|VALERIU||M|1986-11-25|BUCURESTI|4|SINCAI|9|3|G|6|27|0767723240||MB_VARLERIU@YAHOO.COM|SBKSSSWH||0 Sobranie Side Slide Whites (1mg) Pack|Yes|Yes||BW031588|TWINS CAFE SRL STUDIO|Bucuresti|BWEVENTBA202|154|CCC EVENT SOBR FAM Fratelli 2013|121|Horeca|0
0|CS3674184|2013-11-24 01:51:31|JIRU|THEODORA|2851125440010|F|1985-11-25|BUCURESTI|SECTOR 2|COLENTINA|60|103|A|4|19|0724358696||THEODORA.JIRU@GMAIL.COM|SBSSMN||0 Sobranie SS Menthol (5 mg) Pack|Yes|Yes||BW031588|TWINS CAFE SRL STUDIO|Bucuresti|BWEVENTBA200|154|CCC EVENT SOBR FAM Fratelli 2013|121|Horeca|0
0|CS3674185|2013-11-24 01:51:35|NAE|LAURA||F|1990-04-08|BUCURESTI|SECTOR 4|SAMOILA DUMITRU|1|124|2|5|86|0764423399||LAURA_FLORINA@YAHOO.COM|KTSV||0 Sobranie KS Gold  (4mg) Pack|Yes|Yes||BW031588|TWINS CAFE SRL STUDIO|Bucuresti|BWEVENTBA03|154|CCC EVENT SOBR FAM Fratelli 2013|121|Horeca|0
0|CS3674186|2013-11-24 01:52:32|BADEA|RAMONA||F|1993-06-02|BUCURESTI|SECTOR 6|FABRICII|47|B|B|2||0745683852||RAMONA_VICTORIA_B@YAHOO.COM|SBSSBK||0 Sobranie SS Black (6mg) Pack|Yes|Yes||BW031588|TWINS CAFE SRL STUDIO|Bucuresti|BWEVENTBA156|154|CCC EVENT SOBR FAM Fratelli 2013|121|Horeca|0
0|CS3674187|2013-11-24 01:52:33|TOMITA|RADU||F|1991-05-31|BUCURESTI|SECTOR 6|FABRICII|47|||||0722197197||RADU.TOMITA@GMAIL.COM|SBKSGD||0 Sobranie KS Gold  (4mg) Pack|Yes|Yes||BW031588|TWINS CAFE SRL STUDIO|Bucuresti|BWEVENTBA197|154|CCC EVENT SOBR FAM Fratelli 2013|121|Horeca|0
0|CS3674189|2013-11-24 01:53:39|GHEORGHIU|VIVIANA||F|1988-10-17|BUCURESTI|SECTOR 5|DR STAICOVICI|45|3|A|1|3|0732785019||VIVITZA_17@YAHOO.COM|KTBL||0 Sobranie KS Black (8mg) Pack|Yes|Yes||BW031588|TWINS CAFE SRL STUDIO|Bucuresti|BWEVENTBA201|154|CCC EVENT SOBR FAM Fratelli 2013|121|Horeca|0
0|CS3674190|2013-11-24 01:53:47|CIUCA|ELENA||F|1985-01-08|BUCURESTI|SECTOR 2|VIDIN|2|1|1|3|15|0723585955|||DUNFCBB||0 Sobranie KS Gold  (4mg) Pack|Yes|Yes||BW031588|TWINS CAFE SRL STUDIO|Bucuresti|BWEVENTBA03|154|CCC EVENT SOBR FAM Fratelli 2013|121|Horeca|0
0|CS3674192|2013-11-24 01:54:32|POPESCU|ION LIVIU||M|1990-01-05|BUCURESTI|3|BARAJ LOTRU|11|M4A1|A|2|10|0724179105||IONUT.POPESCU90@GMAIL.COM|KTSWIT||0 Sobranie SS Menthol (5 mg) Pack|Yes|Yes||BW031588|TWINS CAFE SRL STUDIO|Bucuresti|BWEVENTBA202|154|CCC EVENT SOBR FAM Fratelli 2013|121|Horeca|0
0|CS3674193|2013-11-24 01:54:35|BRATU|ANDREI||M|1985-01-07|ILFOV|VOLUNTARI|PIPERA|103|||||0721201002||BRATU85@YAHOO.COM|DAVSVSS||0 Sobranie SS Pink (3mg) Pack|Yes|Yes||BW031588|TWINS CAFE SRL STUDIO|Bucuresti|BWEVENTBA200|154|CCC EVENT SOBR FAM Fratelli 2013|121|Horeca|0
0|CS3674195|2013-11-24 01:56:16|FLORESCU|MIHAELA||F|1983-01-27|BUCURESTI|SECTOR 2|STEFAN CEL MARE|380|||||0747757453||MIHAELA@OFFICEMS.RO|SBSSMN||0 Sobranie SS Menthol (5 mg) Pack|Yes|Yes||BW031588|TWINS CAFE SRL STUDIO|Bucuresti|BWEVENTBA03|154|CCC EVENT SOBR FAM Fratelli 2013|121|Horeca|0
0|CS3674196|2013-11-24 01:56:24|SUTEU|PAUL||M|1991-04-19|BUCURESTI|SECTOR 2|BARBU VACARESCU|44|||||0741380636||PAUL.SUTEU@YAHOO.COM|SBKSSSBK||0 Sobranie KS Black (8mg) Pack|Yes|Yes||BW031588|TWINS CAFE SRL STUDIO|Bucuresti|BWEVENTBA197|154|CCC EVENT SOBR FAM Fratelli 2013|121|Horeca|0
0|CS3674197|2013-11-24 01:57:02|BRATU|VLAD|1880329410094|M|1988-03-29|ILFOV|VOLUNTARI|PIPERA-TUNARI|103|||||0721331310||BRATU.VLAD88@YAHOO.COM|DAVGL||0 Sobranie KS Black (8mg) Pack|Yes|Yes||BW031588|TWINS CAFE SRL STUDIO|Bucuresti|BWEVENTBA200|154|CCC EVENT SOBR FAM Fratelli 2013|121|Horeca|0
0|CS3674198|2013-11-24 01:59:00|IOMEL|IONUT||M|1985-03-14|BUCURESTI|SECTOR 4|GIURGIULUI|66|3|C|1|13|0743089075||IONEL1985@YAHOO.COM|SBKSBL||0 Sobranie KS Blue (6mg) Pack|Yes|Yes||BW031588|TWINS CAFE SRL STUDIO|Bucuresti|BWEVENTBA03|154|CCC EVENT SOBR FAM Fratelli 2013|121|Horeca|0
0|CS3674199|2013-11-24 01:59:39|ANDRITA|FLORIN||M|1985-08-27|BUCURESTI|2|PANTELIMON|98|209|1|9|33|0766747475||FANDRITA@GMAIL.COM|DAVGL||0 Sobranie KS Blue (6mg) Pack|Yes|Yes||BW031588|TWINS CAFE SRL STUDIO|Bucuresti|BWEVENTBA202|154|CCC EVENT SOBR FAM Fratelli 2013|121|Horeca|0
0|CS3674200|2013-11-24 01:59:46|CONN|ALINA||F|1994-11-08|BUCURESTI|SECTOR 3|HERTA|14|||||0722654866||DENISACONN@YAHOO.COM|PARAB||0 Sobranie Side Slide Blacks (4mg) Pack|Yes|Yes||BW031588|TWINS CAFE SRL STUDIO|Bucuresti|BWEVENTBA197|154|CCC EVENT SOBR FAM Fratelli 2013|121|Horeca|0
0|CS3674201|2013-11-24 01:59:59|SAVA|DANIELA||F|1985-03-29|BUCURESTI|SECTOR 2|MASINA DE PAINE|8|OD7|A|3|15|0722334567||DSAVA85@GMAIL.COM|VOGLL||0 Sobranie Side Slide Blacks (4mg) Pack|Yes|Yes||BW031588|TWINS CAFE SRL STUDIO|Bucuresti|BWEVENTBA156|154|CCC EVENT SOBR FAM Fratelli 2013|121|Horeca|0
0|CS3674202|2013-11-24 02:00:37|MOLDOVEANU|RADU||M|1983-09-05|BUCURESTI|SECTOR 4|LANARIEI|145|||||0722266950||RADU_MOLDOVEANU@YAHOO.COM|SBKSBL||0 Sobranie KS Blue (6mg) Pack|Yes|Yes||BW031588|TWINS CAFE SRL STUDIO|Bucuresti|BWEVENTBA200|154|CCC EVENT SOBR FAM Fratelli 2013|121|Horeca|0
0|CS3674203|2013-11-24 02:01:02|CONSTANTINESCU|ANDREEA||F|1985-04-05|BUCURESTI|SECTOR 3|BVD DECEBAL|12|S7|1|1|3|0728040175||ANDREEA_CONSTANTINESCU2002@YAHOO.COM|KTSV||0 Sobranie Side Slide Blacks (4mg) Pack|Yes|Yes||BW031588|TWINS CAFE SRL STUDIO|Bucuresti|BWEVENTBA201|154|CCC EVENT SOBR FAM Fratelli 2013|121|Horeca|0
0|CS3674204|2013-11-24 02:02:32|POPA|SABINA||F|1992-01-31|BUCURESTI|3|ION FLORESCU|2|1|1|1|2|0747938365||SABINA_IOANA_31@YAHOO.CO.UK|MBRBI||0 Sobranie SS Menthol (5 mg) Pack|Yes|Yes||BW031588|TWINS CAFE SRL STUDIO|Bucuresti|BWEVENTBA202|154|CCC EVENT SOBR FAM Fratelli 2013|121|Horeca|0
0|CS3674205|2013-11-24 02:03:22|BUTE|RARES||M|1985-04-27|BUCURESTI|SECTOR 4|SECUILOR|12|35|1|7|30|0745647684||BUTE.RARES@YAHOO.COM|DUNFCMBB||0 Sobranie KS Black (8mg) Pack|Yes|Yes||BW031588|TWINS CAFE SRL STUDIO|Bucuresti|BWEVENTBA201|154|CCC EVENT SOBR FAM Fratelli 2013|121|Horeca|0
0|CS3674206|2013-11-24 02:03:42|GHERGULESCU|CLAUDIU||M|1980-05-22|BUCURESTI|SECTOR 1|PARANGULUI|13|||||0730025656||CLAUDIU.GHERGULESCU@PROTANSA.RO|SBKSSSBK||0 Sobranie Side Slide Blacks (4mg) Pack|Yes|Yes||BW031588|TWINS CAFE SRL STUDIO|Bucuresti|BWEVENTBA200|154|CCC EVENT SOBR FAM Fratelli 2013|121|Horeca|0
0|CS3674207|2013-11-24 02:05:44|VARDIE|ORIANA||F|1990-03-24|BUCURESTI|SECTOR 5|DOCTOR LISTER|86|||0|0|0765535022||ORIANA.VARDIE@YAHOO.COM|VIRSPR||0 Sobranie SS Black (6mg) Pack|Yes|Yes||BW031588|TWINS CAFE SRL STUDIO|Bucuresti|BWEVENTBA200|154|CCC EVENT SOBR FAM Fratelli 2013|121|Horeca|0
0|FS1256010|2013-11-24 01:02:48||||M|||||||||||||DAVGL||||||||||154|CCC EVENT SOBR FAM Fratelli 2013|121|Horeca|0
