0|CS3725777|2014-01-25 11:13:53|GABOR|OVIDIU EUGEN|1830621082208|M|1983-06-21|BRASOV|CATA|PRINCIPALA|200|-|-|-||0727081216||ANDORKAREKA@YAHOO.COM|LMRD|MBRRDH|0 Winston Classic (10mg) Pack|Yes|Yes||BVR01784|ROMNIAL|Brasov|BVDTCBA45|189|CCC GFB Iarna 2014|121|Retail|0
0|CS3725780|2014-01-25 11:16:23|ION|GEORGE||M|1982-11-30|BUCURESTI|BUCURESTI|ALEEA BANUL UDREA|5|7|A|4|20|0728557358||IONGEORGEMIHAI@GMAIL.COM|DUNFCMBB|SBKSBK|0 Sobranie KS Black (8mg) Pack|Yes|Yes||20347333|PICCOLO|Brasov|BVDTCBA49|189|CCC GFB Iarna 2014|121|Retail|0
0|CS3725789|2014-01-25 11:20:54|LUNGU|ELENA||F|1988-03-10|BUCURESTI|SECTOR 3|RAMNICU VALCEA|3|4|A|2|9|0735161167||ALINA_LUNGU88@YAHOO.COM|SBSSBK||0 Sobranie SS Black (6mg) Pack|Yes|Yes||BV004948|OMV PREDEAL|Brasov|BVDTCBA46|189|CCC GFB Iarna 2014|121|Retail|0
0|CS3725795|2014-01-25 11:24:23|VASILESCU|VIOREL||M|1972-01-23|PRAHOVA|BREAZA|PLUTONIER RADULESCU|30|||0|0|0722347886||PROD_GALI@YAHOO.COM|MBRRD||0 Winston Classic (10mg) Pack|Yes|Yes||PHK00469|OMV PETROM KM 6|Ploiesti|PHDTCBA15|189|CCC GFB Iarna 2014|121|Retail|0
0|CS3725800|2014-01-25 11:26:14|SOAVA|IONELA MARIA|2890313180761|F|1989-03-13|BUCURESTI|BUCURESTI|VALEA OLTULUI|11A|||||0727060231||ONITTZA_03@YAHOO.COM|SBSSWH||0 Sobranie SS White (1mg) Pack|Yes|Yes||BV004948|OMV PREDEAL|Brasov|BVDTCBA46|189|CCC GFB Iarna 2014|121|Retail|0
0|CS3725801|2014-01-25 11:26:47|MITU|TUDOR||M|1956-03-30|BUCURESTI|BUCURESTI|STA RINOS|28|153|1|2|15|0744454970||MITUTUDOR@YAHOO.COM|PMSSBL|PMSSBL|0 Winston SS Blue (5mg) Pack|Yes|Yes||20362683|UNI-FIT 2000 (Apreski)|Brasov|BVDTCBA48|189|CCC GFB Iarna 2014|121|Retail|0
0|CS3725805|2014-01-25 11:29:28|MIHALCEA|MONICA||F|1975-05-09|BRASOV|PREDEAL|POIANA NARCISELOR|1|||0|0|0740180241|||SBKSGD||0 Sobranie KS Gold  (4mg) Pack|Yes|Yes||BV004948|OMV PREDEAL|Brasov|BVDTCBA46|189|CCC GFB Iarna 2014|121|Retail|0
0|CS3725808|2014-01-25 11:32:19|RADU|GHEORGHE||M|1988-02-19|PRAHOVA|AZUGA|VICTORIEI|50|||||0727692543|||KTSWIT||0 Winston Fresh XSpression (5mg) Pack|Yes|Yes||BV004948|OMV PREDEAL|Brasov|BVDTCBA46|189|CCC GFB Iarna 2014|121|Retail|0
0|CS3725809|2014-01-25 11:33:15|GRAMA|FLORIN|1800526080015|M|1980-05-26|BRASOV|BRASOV|ANDREI BARSEANU|8|O|O|O|0|0744654222||FUNKY_FLOW_BOARDS@YAHOO.CO.UK|DUNFCMBB|DUNFCMBB|0 Sobranie KS Black (8mg) Pack|Yes|Yes||20362683|UNI-FIT 2000 (Apreski)|Brasov|BVDTCBA48|189|CCC GFB Iarna 2014|121|Retail|0
0|CS3725811|2014-01-25 11:33:40|PETCULESCU|CRISTIAN||M|1989-12-17|PRAHOVA|PLOIESTI|ALEEA PORTITA|1|9|B|1|19|0724257565||PETCULESCU.CRISTIAN@YAHOO.RO|DUNFCMBB||0 Sobranie KS Black (8mg) Pack|Yes|Yes||PHK00469|OMV PETROM KM 6|Ploiesti|PHDTCBA15|189|CCC GFB Iarna 2014|121|Retail|0
0|CS3725816|2014-01-25 11:36:46|MORAR|EUGEN||M|1973-08-26|MURES|TARNAVENI|ALEEA GARII|3|3B|B|1|4|0744936945|||WICLH||0 Winston 100s Classic (10mg) Pack|Yes|Yes||PHK00469|OMV PETROM KM 6|Ploiesti|PHDTCBA15|189|CCC GFB Iarna 2014|121|Retail|0
0|CS3725818|2014-01-25 11:37:09|POP|SILVIA|2900704080065|F|1990-07-04|BRASOV|BRASOV|MOLIDULUI|9|14|B|OS|5|0753754109||SILVIACHRIS@YAHOO.COM|DUNFCMBB|DUNFCMBB|0 Sobranie KS Black (8mg) Pack|Yes|Yes||20362683|UNI-FIT 2000 (Apreski)|Brasov|BVDTCBA48|189|CCC GFB Iarna 2014|121|Retail|0
0|CS3725819|2014-01-25 11:37:40|SERBAN|ADRIAN||M|1976-08-01|BUZAU|CILIBIA|PRINCIPALA|99|0|0|0|0|0730258801||SERBANADRIAN@YAHOO.COM|SBKSBL||0 Sobranie KS Blue (6mg) Pack|Yes|Yes||BVR00724|SUSAI MONT SRL|Brasov|BVDTCBA32|189|CCC GFB Iarna 2014|121|Retail|0
0|CS3725829|2014-01-25 11:40:10|NICA|ALEXANDRU|1850831430045|M|1985-08-31|BUCURESTI|BUCURESTI|INTRAREA BARSEI|8|G6|1|2|11|0744633872||ALEX85DAN@YAHOO.COM|SBKSBL||0 Sobranie KS Blue (6mg) Pack|Yes|Yes||BVR00724|SUSAI MONT SRL|Brasov|BVDTCBA32|189|CCC GFB Iarna 2014|121|Retail|0
0|CS3725830|2014-01-25 11:40:31|ROSCA MARC|EUGENIA|2750330193782|F|1975-03-30|HARGHITA|SARMAS|PRINCIPALA|612|-|-|0|0|0743811206||GENA.ROSCA@YAHOO.COM|GLMBL|PMSSOR|0 Sobranie SS Pink (3mg) Pack|Yes|Yes||BVR01784|ROMNIAL|Brasov|BVDTCBA45|189|CCC GFB Iarna 2014|121|Retail|0
0|CS3725836|2014-01-25 11:43:19|COLANIOS|IOAN|1811211080081|M|1981-12-11|BRASOV|PREDEAL|POIANA NARCISELOR|3|3|3|0|0|0731556534||IONUTIONUTZ81@YAHOO.COM|KTBLH||0 Winston XStyle Blue (6mg) Pack|Yes|Yes||BVR00724|SUSAI MONT SRL|Brasov|BVDTCBA32|189|CCC GFB Iarna 2014|121|Retail|0
0|CS3725837|2014-01-25 11:44:52|CORNEA|FLORIN|1810415081822|M|1981-04-15|BRASOV|BRASOV|COSMOS|5|20|B|0|5|0742737033||CORNEA_F@YAHOO.COM|SBKSBL||0 Sobranie KS Blue (6mg) Pack|Yes|Yes||BVR02143|SABIDO SKY SRL|Brasov|BVDTCBA36|189|CCC GFB Iarna 2014|121|Retail|0
0|CS3725841|2014-01-25 11:47:00|GIZELLA|VARGA|2670912140015|F|1967-09-12|COVASNA|BARAOLT|BBYUDI NAGY ANTAL|3|-|-|-||0740166901||GIZIKE.VARGA@YAHOO.COM|PMBL|SBSSWH|0 Winston XStyle Blue (6mg) Pack|Yes|Yes||20347333|PICCOLO|Brasov|BVDTCBA49|189|CCC GFB Iarna 2014|121|Retail|0
0|CS3725843|2014-01-25 11:47:36|AROTARITEI|MIHAELA|2860610080077|F|1986-06-10|BRASOV|BRASOV|MIRCEA CEL BATRAN|49|36|B|5|23|0748691873||MIHA_AROTARITEI@YAHOO.COM|SBSSPK||0 Sobranie SS Pink (3mg) Pack|Yes|Yes||BVR02143|SABIDO SKY SRL|Brasov|BVDTCBA36|189|CCC GFB Iarna 2014|121|Retail|0
0|CS3725846|2014-01-25 11:48:12|MUNTEANU|GEORGE|1700507084499|M|1970-05-07|BRASOV|SACELE|CAPRIOAREI|4|-|-|-||0745661582||MUNTEANUGEORGE@YAHOO.COM|KTSV|PMSV|0 Winston XStyle Silver (4mg) Pack|Yes|Yes||BVR01784|ROMNIAL|Brasov|BVDTCBA45|189|CCC GFB Iarna 2014|121|Retail|0
0|CS3725847|2014-01-25 11:48:12|STANESCU|RAUL||M|1981-07-07|VALCEA|RAMNICU VALCEA|ALEEA FLORILOR|7|11|D|1|7|0748833833||AUTOCYP81@YAHOO.COM|DAVGLS|DUNFCMBB|0 Sobranie SS Black (6mg) Pack|Yes|Yes||PHK00475|PETROM CORNU|Ploiesti|PHDTCBA14|189|CCC GFB Iarna 2014|121|Retail|0
0|CS3725849|2014-01-25 11:50:04|DAMIAN|GABRIELA||F|1987-03-23|PRAHOVA|PLOIESTI|VORNICEI|4|4||10||0721656597||GABRIELADAMIAN@YAHOO.COM|CABL||0 Sobranie KS Black (8mg) Pack|Yes|Yes||BV001621|ODIDESIGN CONSTRUCT CAZACU|Brasov|BVDTCBA34|189|CCC GFB Iarna 2014|121|Retail|0
0|CS3725850|2014-01-25 11:50:14|CRISTOGEL|BOGDAN|1930309080016|M|1993-03-09|BRASOV|BRASOV|BARSEI|4C|0|0|0|0|0745246859||BUGA4@ROCKETMAIL.COM|KTSWIT|KTSWIT|0 Winston Fresh XSpression (5mg) Pack|Yes|Yes||20362683|UNI-FIT 2000 (Apreski)|Brasov|BVDTCBA48|189|CCC GFB Iarna 2014|121|Retail|0
0|CS3725853|2014-01-25 11:51:29|PERTEA|VIOREL||M|1983-08-16|PRAHOVA|PLOIESTI|CONSTANTIN BREZEANU|2A|B2|B|0|16|0724225060||VIOREL.PERTEA@YAHOO.COM|DUNFCMBB||0 Sobranie KS Black (8mg) Pack|Yes|Yes||PHK00469|OMV PETROM KM 6|Ploiesti|PHDTCBA15|189|CCC GFB Iarna 2014|121|Retail|0
0|CS3725854|2014-01-25 11:51:30|POP|LAURA|2810224243823|F|1981-02-24|MARAMURES|VISEU DE SUS|MACRISULUI|6|-|-|-||0745096481||LAURA@TEAMINSTAL.RO|SBSSWH|VIRSPR|0 Sobranie SS White (1mg) Pack|Yes|Yes||20347333|PICCOLO|Brasov|BVDTCBA49|189|CCC GFB Iarna 2014|121|Retail|0
0|CS3725855|2014-01-25 11:51:53|MOT|DANIELA||F|1978-10-04|PRAHOVA|AZUGA|RITIVOIU|19|0|0|0|0|0729631583||DANUTZA197@YAHOO.COM|SBSSMN||0 Sobranie SS Menthol (5 mg) Pack|Yes|Yes||BV001621|ODIDESIGN CONSTRUCT CAZACU|Brasov|BVDTCBA34|189|CCC GFB Iarna 2014|121|Retail|0
0|CS3725861|2014-01-25 11:53:37|PINTOI|ANCUTA||F|1994-06-13|PRAHOVA|AZUGA|RITIVOIU|30|0|0|0|0|0736165357||PINTOIU_A@YAHOO.COM|SBSSPK||0 Sobranie SS Pink (3mg) Pack|Yes|Yes||BV001340|ODIDESIGN CONSTRUCT SORICA|Brasov|BVDTCBA44|189|CCC GFB Iarna 2014|121|Retail|0
0|CS3725864|2014-01-25 11:54:37|PITEA|STEFAN||M|1993-07-13|ARGES|RUCAR|VALEA LUI ANDREIAS|34|-|-|-||0751033309||L.AVRAM94@YAHOO.COM|KTBL|PMBL|0 Winston XStyle Blue (6mg) Pack|Yes|Yes||BVR01784|ROMNIAL|Brasov|BVDTCBA45|189|CCC GFB Iarna 2014|121|Retail|0
0|CS3725869|2014-01-25 11:56:17|LITA|CONSTANTA||F|1970-11-06|PRAHOVA|PLOIESTI|GHEORGHE DOJA|70|||||0728911106|||PARNBH||0 Sobranie KS Black (8mg) Pack|Yes|Yes||PHK00469|OMV PETROM KM 6|Ploiesti|PHDTCBA15|189|CCC GFB Iarna 2014|121|Retail|0
0|CS3725873|2014-01-25 11:58:24|STRIMBEANU|ALINA||F|1985-12-12|BUCURESTI|SECTOR 1|GRIVITEI|206|K|A|1|3|0728188026||ALINA.STRIMBEANU@YAHOO.COM|PARRSSH|PARRSSH|0 Sobranie SS Black (6mg) Pack|Yes|Yes||PHK00475|PETROM CORNU|Ploiesti|PHDTCBA14|189|CCC GFB Iarna 2014|121|Retail|0
0|CS3725876|2014-01-25 12:00:02|BALTA|ROXANA||F|1991-06-06|BACAU|BACAU|BUCIUM|8|8|B|4|18|0749080569||ROXANABALTA@YAHOO.COM|SBSSWH||0 Sobranie SS White (1mg) Pack|Yes|Yes||20347333|PICCOLO|Brasov|BVDTCBA49|189|CCC GFB Iarna 2014|121|Retail|0
0|CS3725878|2014-01-25 12:00:45|STOLANIC|ALINA|2910401080056|M|1991-04-01|BRASOV|BRASOV|COCORULUI|13|220|B|1|7|0757350364||ALINUTZA_ALY@YAHOO.COM|SBSSMN||0 Sobranie SS Menthol (5 mg) Pack|Yes|Yes||BV004948|OMV PREDEAL|Brasov|BVDTCBA46|189|CCC GFB Iarna 2014|121|Retail|0
0|CS3725881|2014-01-25 12:02:14|POPA|BOGDAN|1760520384207|M|1976-05-20|BUCURESTI|BUCURESTI|LACUL TEI|126128|1718|B|6|68|0723744309||EREGO_78@YAHOO.COM|PMSSGR|PMGR|1 Bricheta WIN|Yes|Yes||20362683|UNI-FIT 2000 (Apreski)|Brasov|BVDTCBA48|189|CCC GFB Iarna 2014|121|Retail|0
0|CS3725887|2014-01-25 12:06:46|CHISALITA-IGNAT|RADU STELIAN|1720127080064|M|1972-01-27|BRASOV|BRASOV|NEPTUN|13|O|A|4|20|0769217812||ROMANIANSNOWMANIAC@YAHOO.COM|MBRRDH|MBRRDH|0 Winston 100s Classic (10mg) Pack|Yes|Yes||20362683|UNI-FIT 2000 (Apreski)|Brasov|BVDTCBA48|189|CCC GFB Iarna 2014|121|Retail|0
0|CS3725893|2014-01-25 12:09:19|VATRA|MONICA|2770413163227|F|1977-04-13|BRASOV|BRASOV|MIHAI VITEAZU|6|3|A|7|31|0728277709||MONICAVATRA@YAHOO.COM|LMBL|WIBL|0 Winston XStyle Blue (6mg) Pack|Yes|Yes||20347333|PICCOLO|Brasov|BVDTCBA49|189|CCC GFB Iarna 2014|121|Retail|0
0|CS3725894|2014-01-25 12:12:05|ILIE|COSMIN||M|1984-09-09|CONSTANTA|CONSTANTA|INSULEI|9|-|-|-||0730080101||CLOPOTEL_2004@YAHOO.COM|KTBL|MBRRD|0 Winston XStyle Blue (6mg) Pack|Yes|Yes||BVR01784|ROMNIAL|Brasov|BVDTCBA45|189|CCC GFB Iarna 2014|121|Retail|0
0|CS3725899|2014-01-25 12:13:13|RADUT|OANA LAURA||F|1982-09-24|MURES|TARGU MURES|MUNTENIA|78|78|A|3|51|0743156134||OANA_RADUT@YAHOO.COM|SBSSWH|SBSSWH|0 Sobranie SS White (1mg) Pack|Yes|Yes||PHK00475|PETROM CORNU|Ploiesti|PHDTCBA14|189|CCC GFB Iarna 2014|121|Retail|0
0|CS3725900|2014-01-25 12:13:23|SODRINGA|CORINA|2881227134213|F|1988-01-27|CONSTANTA|CONSTANTA|CUTEZATORILOR|8F1||B|2|15|0763905515||CORINUTZA_DEC@YAHOO.COM|VOGABP||0 Winston SS Blue (5mg) Pack|Yes|Yes||BVR02143|SABIDO SKY SRL|Brasov|BVDTCBA36|189|CCC GFB Iarna 2014|121|Retail|0
0|CS3725902|2014-01-25 12:13:55|SIMON|SORIN||M|1980-12-05|PRAHOVA|PLOIESTI|MIHAI BRAVU|24|||0|0|0721544924||SORINDUMITRU@YAHOO.COM|SBKSBK||0 Sobranie KS Black (8mg) Pack|Yes|Yes||PHK00469|OMV PETROM KM 6|Ploiesti|PHDTCBA15|189|CCC GFB Iarna 2014|121|Retail|0
0|CS3725912|2014-01-25 12:19:04|MARCU|MIRCEA|1590417400195|M|1959-04-17|BUCURESTI|CORBEANCA|ALEEA PLOPULUI|5|-|-|-||0744504259||SEVATI_IMPEXSRL@YAHOO.COM|MBRGLH|CASV|0 Winston 100s Blue (6mg) Pack|Yes|No||BVR01784|ROMNIAL|Brasov|BVDTCBA45|189|CCC GFB Iarna 2014|121|Retail|0
0|CS3725913|2014-01-25 12:19:29|COCOTA|CRISTIAN|1880305134138|M|1981-03-05|CONSTANTA|CONSTANTA|CUTEZATORILOR|9|F1|B||15|0765359170||COCOEU2003@YAHOO.COM|KTBL||0 Winston XStyle Blue (6mg) Pack|Yes|Yes||BVR02143|SABIDO SKY SRL|Brasov|BVDTCBA36|189|CCC GFB Iarna 2014|121|Retail|0
0|CS3725916|2014-01-25 12:20:33|CIUCHI|MADALINA ANDRA||F|1990-04-28|BUCURESTI|SECTOR 3|DIMITRIE CANTEMIR|1|B2|A|4|13|0746925367||MADALINA.CIUCHI@GMAIL.COM|DAVGLS|SBSSBK|0 Sobranie SS Black (6mg) Pack|Yes|Yes||PHK00475|PETROM CORNU|Ploiesti|PHDTCBA14|189|CCC GFB Iarna 2014|121|Retail|0
0|CS3725927|2014-01-25 12:24:26|GRIGORICA|BOGDAN||M|1980-08-24|GALATI|GALATI|SIDERURGIEI|35|||||0740093483||BOGDAN.GRIGORICA@YAHOO.COM|DAVGL|SOBBR|0 Sobranie KS Black (8mg) Pack|Yes|Yes||PHK00475|PETROM CORNU|Ploiesti|PHDTCBA14|189|CCC GFB Iarna 2014|121|Retail|0
0|CS3725931|2014-01-25 12:28:33|CROITORU|NICOLAE|1780102345388|M|1978-01-01|PRAHOVA|PLOIESTI|GENERAL EREMIA GRIGORESCU|12|76|B||12|0731038332||NICOLAECROITORUL@YAHOO.COM|DUNFCMBB||0 Sobranie KS Black (8mg) Pack|Yes|Yes||BV004948|OMV PREDEAL|Brasov|BVDTCBA46|189|CCC GFB Iarna 2014|121|Retail|0
0|CS3725934|2014-01-25 12:29:51|BANEA|ALEXANDRU|1820118080156|M|1982-01-18|BRASOV|BRASOV|BULEVARDUL STEFAN CEL MARE|3|O|B|O|13|0745255125||ALEXANDRU.BANEA@UNITBV.RO|DUNFCBB|DUNFCBB|0 Sobranie KS Gold  (4mg) Pack|Yes|Yes||20362683|UNI-FIT 2000 (Apreski)|Brasov|BVDTCBA48|189|CCC GFB Iarna 2014|121|Retail|0
0|CS3725935|2014-01-25 12:29:58|BUCSA|HORIA|1730216083469|M|1973-02-16|BRASOV|BRASOV|LALELELOR|14|-|-|0|0|0724199099||HORIA.BUCSA@YAHOO.COM|DAVGL|MBRGL|0 Sobranie KS Black (8mg) Pack|Yes|Yes||BVR01784|ROMNIAL|Brasov|BVDTCBA45|189|CCC GFB Iarna 2014|121|Retail|0
0|CS3725939|2014-01-25 12:31:13|GOGNEA|MARIANA||F|1964-05-25|PRAHOVA|SINAIA|LUNEI|3|3|A|1|1|0735328530||GOGONEA_MARIANA@YAHOO.COM|WIBLH||0 Winston 100s Blue (6mg) Pack|Yes|Yes||PH001430|OLD NICK BAR CAFFE PUB|Brasov|BVDTCBA51|189|CCC GFB Iarna 2014|121|Retail|0
0|CS3725940|2014-01-25 12:31:19|IVAN|IULIAN|1670824080031|M|1967-08-24|BRASOV|BRASOV|VISINULUI|18|C1|F|0|13|0743754979||IVAN67@YAHOO.COM|SBKSBL||0 Sobranie KS Blue (6mg) Pack|Yes|Yes||20347333|PICCOLO|Brasov|BVDTCBA49|189|CCC GFB Iarna 2014|121|Retail|0
0|CS3725960|2014-01-25 12:32:54|NUTA|DRAGOS||M|1987-08-05|PRAHOVA|FILIPESTII DE PADURE|GARII|647|||||0736572830||DODOS@YAHOO.COM|DUNFCMBB||0 Sobranie KS Black (8mg) Pack|Yes|Yes||PHK00469|OMV PETROM KM 6|Ploiesti|PHDTCBA15|189|CCC GFB Iarna 2014|121|Retail|0
0|CS3725950|2014-01-25 12:34:11|PUPEZESCU|COSMIN|1891011330791|M|1989-10-11|CLUJ|CLUJ|PRIMAVERII|16|0|1|1|8|0743508172||PUPEZESCU_COSMIN@YAHOO.COM|DUNFCMBB||0 Sobranie KS Black (8mg) Pack|Yes|Yes||BVR00724|SUSAI MONT SRL|Brasov|BVDTCBA32|189|CCC GFB Iarna 2014|121|Retail|0
0|CS3725953|2014-01-25 12:35:59|PINTILESCU|IONUT||M|1978-11-09|PRAHOVA|SINAIA|KOGALNICEANU|33|33|A|1|1|0727552863||IONUTPINTILESCU@YAHOO.COM|WICL||0 Winston Classic (10mg) Pack|Yes|Yes||PH001430|OLD NICK BAR CAFFE PUB|Brasov|BVDTCBA51|189|CCC GFB Iarna 2014|121|Retail|0
0|CS3725961|2014-01-25 12:38:20|INOVAN|FRANCISC||M|1987-01-03|CLUJ|GHERLA|MESTEACANULUI|1|C1|2|3|27|0744893876||INOFER987@YAHOO.COM|WIBL||0 Winston Blue (6mg) Pack|Yes|Yes||BVR00724|SUSAI MONT SRL|Brasov|BVDTCBA32|189|CCC GFB Iarna 2014|121|Retail|0
0|CS3725965|2014-01-25 12:40:46|KURON|HORATIU||M|1980-06-07|BISTRITA NASAUD|BISTRITA|INDEPENDENTEI|81|81|E|5|58|0727500673||HORATIU.KURON@GMAIL.COM|SBKSBL||0 Sobranie KS Blue (6mg) Pack|Yes|Yes||BV004948|OMV PREDEAL|Brasov|BVDTCBA46|189|CCC GFB Iarna 2014|121|Retail|0
0|CS3725966|2014-01-25 12:41:10|IONESCU|GABRIEL|1910224152474|M|1991-02-24|BUCURESTI|BUCURESTI|MOHORULUI|7|138||9|170|0741224040||IONESCU_GABRIEL@YMAIL.COM|KTBL||1 Bricheta XST|Yes|Yes||BVR02143|SABIDO SKY SRL|Brasov|BVDTCBA36|189|CCC GFB Iarna 2014|121|Retail|0
0|CS3725967|2014-01-25 12:41:15|MICU|ALEXANDRU|1820923035280|M|1982-09-23|BUCURESTI|BUCURESTI|DAMBOVITA|40B|-|-|5|24|0723290761||ACEMAIL82@YAHOO.COM|PARAB|DUNFCMBB|0 Sobranie KS Black (8mg) Pack|Yes|Yes||20347333|PICCOLO|Brasov|BVDTCBA49|189|CCC GFB Iarna 2014|121|Retail|0
0|CS3725970|2014-01-25 12:42:45|NASTASOIU|TUNDE|2780822120658|M|1978-08-22|CLUJ|CLUJ NAPOCA|DONATH|105|B1|2|2|49|0742668960||NASTASOIU_TUNDE2007@YAHOO.COM|PMSSBL||0 Winston SS Blue (5mg) Pack|Yes|Yes||BVR00724|SUSAI MONT SRL|Brasov|BVDTCBA32|189|CCC GFB Iarna 2014|121|Retail|0
0|CS3725976|2014-01-25 12:44:57|NEAGU|RADU|1911124152481|M|1990-11-24|DAMBOVITA|TARGOVISTE|CALEA BUCURESTI|63|||||0784049890||NEAGU.RADU.COSTI@GMAIL.COM|DUNFCMBB||0 Sobranie KS Black (8mg) Pack|Yes|Yes||BVR02143|SABIDO SKY SRL|Brasov|BVDTCBA36|189|CCC GFB Iarna 2014|121|Retail|0
0|CS3725977|2014-01-25 12:45:04|FULGA|OLEG||M|1975-11-15|GALATI|GALATI|CLOSCA|11|PS10A|2|1|26|0757018558||DECAMERON75@GMAIL.COM|WIBL|LMBL|0 Winston Blue (6mg) Pack|Yes|No||BVR01784|ROMNIAL|Brasov|BVDTCBA45|189|CCC GFB Iarna 2014|121|Retail|0
0|CS3725979|2014-01-25 12:45:55|LUPU|ANDA|2861218394065|F|1986-12-18|MURES|TARGU MURES|PRINCIPALA|174|174|A|3|19|0751914901||ANDA.LUPU@GMAIL.COM|PMSSGR||0 Winston SS Menthol (3mg) Pack|Yes|Yes||BVR00724|SUSAI MONT SRL|Brasov|BVDTCBA32|189|CCC GFB Iarna 2014|121|Retail|0
0|CS3725986|2014-01-25 12:47:39|CONSTANTINESCU|CONSTANTIN||M|1985-01-08|PRAHOVA|PLOIESTI|ROMANA|59|||||0724864307||CCONST@YAHOO.COM|PARABH||0 Sobranie KS Black (8mg) Pack|Yes|Yes||PHK00469|OMV PETROM KM 6|Ploiesti|PHDTCBA15|189|CCC GFB Iarna 2014|121|Retail|0
0|CS3725989|2014-01-25 12:48:17|NAGY SPILLER|ENIKO|2690220240029|F|1969-02-20|MARAMURES|BAIA MARE|VICTORIEI|146|2||||0747528514||AISAENI@YAHOO.COM|DUNFCBB||0 Sobranie KS Gold  (4mg) Pack|Yes|Yes||BV004948|OMV PREDEAL|Brasov|BVDTCBA46|189|CCC GFB Iarna 2014|121|Retail|0
0|CS3725991|2014-01-25 12:49:25|CHIRVASIU|IANIS|1890804295895|M|1989-08-04|PRAHOVA|BREAZA|POIENITEI|81|||||0721739931||IANIS.IVASIU@GMAIL.COM|KTSWITH||0 Winston Fresh XSpression (5mg) Pack|Yes|Yes||BVR02143|SABIDO SKY SRL|Brasov|BVDTCBA36|189|CCC GFB Iarna 2014|121|Retail|0
0|CS3725994|2014-01-25 12:49:53|FILIP|IONUT||M|1988-07-08|BISTRITA NASAUD|BISTRITA|DECEBAL|7|0|A|0|4|0742937262||IONUT.CIPRIAN.FILIP@GMAIL.COM|DUNFCSB||0 Sobranie KS Black (8mg) Pack|Yes|Yes||BVR00724|SUSAI MONT SRL|Brasov|BVDTCBA32|189|CCC GFB Iarna 2014|121|Retail|0
0|CS3725995|2014-01-25 12:50:48|STEFAN|DANIEL||M|1984-06-02|BUCURESTI|SECTOR 6|CATINII|15|||||0741125836||GSTEFAN@GMAIL.COM|DUNFCBB||0 Sobranie KS Gold  (4mg) Pack|Yes|No||BV001621|ODIDESIGN CONSTRUCT CAZACU|Brasov|BVDTCBA34|189|CCC GFB Iarna 2014|121|Retail|0
0|CS3725997|2014-01-25 12:51:20|BALAN|ANA MARIA|2811226060581|F|1981-12-26|BISTRITA NASAUD|BISTRITA|OCTAVIAN GOGA|3||B|4|24|0744503730||ANAMARIA.BALAN81@GMAIL.COM|WIBL||0 Winston Blue (6mg) Pack|Yes|Yes||BV004948|OMV PREDEAL|Brasov|BVDTCBA46|189|CCC GFB Iarna 2014|121|Retail|0
0|CS3726002|2014-01-25 12:53:28|ANGHELACHE|DORU|1670910182803|M|1967-09-10|BUCURESTI|BUCURESTI|CAMPINEANCA|2|RE3|A|7|31|0723636178||DORU.ANGHELACHE@GMAIL.COM|MBRRD||0 Winston Classic (10mg) Pack|Yes|Yes||20347333|PICCOLO|Brasov|BVDTCBA49|189|CCC GFB Iarna 2014|121|Retail|0
0|CS3726005|2014-01-25 12:55:56|SABAU|SORIN|1790701302006|M|1979-07-01|SATU MARE|SATU MARE|JOCULUI|UJ17||||4|0729998447||SORIN.SABAU@TBICREDIT.RO|PARRSSH||0 Sobranie SS Black (6mg) Pack|Yes|Yes||BV004948|OMV PREDEAL|Brasov|BVDTCBA46|189|CCC GFB Iarna 2014|121|Retail|0
0|CS3726006|2014-01-25 12:56:03|CODREA|CORINA||M|1987-02-17|BRASOV|BRASOV|COSMOS|5|20|B|0|5|0743897168||CORINA1702@YAHOO.COM|KTSWIT||0 Winston Fresh XSpression (5mg) Pack|Yes|Yes||BVR00724|SUSAI MONT SRL|Brasov|BVDTCBA32|189|CCC GFB Iarna 2014|121|Retail|0
0|CS3726010|2014-01-25 12:58:06|PIETRIS|MARIUS|1850106430020|M|1985-01-06|BUCURESTI|BUCURESTI|DANUBIU|9|6F|1|4|17|0737093467||FOR_LIFE_TO@YAHOO.COM|SBKSBL||0 Sobranie KS Blue (6mg) Pack|Yes|No||BVR00724|SUSAI MONT SRL|Brasov|BVDTCBA32|189|CCC GFB Iarna 2014|121|Retail|0
0|CS3726016|2014-01-25 13:00:03|LAMBREA|DRAGOS|1870123091270|M|1987-01-23|BRAILA|BRAILA|ALEEIEI IPOTESTI|2|D2|A|4|18|0751649400||LAMBR_DRAGOS23@YAHOO.COM|MBRGL|MBRGL|0 Winston XStyle Blue (6mg) Pack|Yes|Yes||20362683|UNI-FIT 2000 (Apreski)|Brasov|BVDTCBA48|189|CCC GFB Iarna 2014|121|Retail|0
0|CS3726017|2014-01-25 13:00:21|COCOS|ADINA|2870213420022|F|1987-02-13|IALOMITA|SLOBOZIA|MATEI BASARAB|38|29|D|0|3|0721203775||ADINUTZA_87@YAHOO.COM|KTSV||0 Winston XStyle Silver (4mg) Pack|Yes|Yes||20347333|PICCOLO|Brasov|BVDTCBA49|189|CCC GFB Iarna 2014|121|Retail|0
0|CS3726025|2014-01-25 13:04:52|POPESCU|LIVIU||M|1983-07-16|VALCEA|RAMNICU VALCEA|DECEBAL|5|F56|D|1|12|0749064405||LIVIU.POPESCU@ORANGESTORE.RO|KTBL||0 Winston XStyle Blue (6mg) Pack|Yes|Yes||BVR00724|SUSAI MONT SRL|Brasov|BVDTCBA32|189|CCC GFB Iarna 2014|121|Retail|0
0|CS3726032|2014-01-25 13:06:06|NECULA|VASILE||M|1970-09-12|BRASOV|TIMISUL DE SUS|TRACTORULUI|4|||||0768265847|||PMBL||0 Winston XStyle Blue (6mg) Pack|Yes|Yes||BVR02143|SABIDO SKY SRL|Brasov|BVDTCBA36|189|CCC GFB Iarna 2014|121|Retail|0
0|CS3726036|2014-01-25 13:08:03|BALACEANU|CORNELIA||M|1968-02-09|PRAHOVA|COMARNIC|POIANA|217|0|0|0|0|0729154817|||WIBL||1 Bricheta WIN|Yes|Yes||BVR02143|SABIDO SKY SRL|Brasov|BVDTCBA36|189|CCC GFB Iarna 2014|121|Retail|0
0|CS3726041|2014-01-25 13:10:48|ROVENTA|GEORGE|1860626430028|M|1986-06-26|BUCURESTI|SECTOR 4|MOLDOVITA|13|5|2|4|28|0721869514||WAFFCOOL_PICIU@YAHOO.COM|MBRFPH||0 Winston 100s Blue (6mg) Pack|Yes|Yes||BVR00724|SUSAI MONT SRL|Brasov|BVDTCBA32|189|CCC GFB Iarna 2014|121|Retail|0
0|CS3726050|2014-01-25 13:12:54|POPA|ALEXANDRU||M|1989-07-20|BUCURESTI|SECTOR 3|EMIL BOTTA|3|M105|2|4|56|0785136516||ALEX_POPA1054@YAHOO.COM|PARSB|PARAB|0 Sobranie KS Gold  (4mg) Pack|Yes|Yes||PHK00475|PETROM CORNU|Ploiesti|PHDTCBA14|189|CCC GFB Iarna 2014|121|Retail|0
0|CS3726052|2014-01-25 13:14:04|RADU|BOGDAN||M|1985-05-25|IALOMITA|SLOBOZIA|IALOMITEI|-|-||||0766212772||ELCAREVREA@YAHOO.COM|SBKSBL||0 Sobranie KS Blue (6mg) Pack|Yes|Yes||BV001621|ODIDESIGN CONSTRUCT CAZACU|Brasov|BVDTCBA34|189|CCC GFB Iarna 2014|121|Retail|0
0|CS3726055|2014-01-25 13:16:28|OLARU|COSMIN|1830508134263|M|1983-05-08|CONSTANTA|CONSTANTA|MURELOR|10|0|0|0|0|0732032351||COMSAT20ART@YAHOO.COM|KTBL6||0 Winston XStyle Blue (6mg) Pack|Yes|Yes||BVR00724|SUSAI MONT SRL|Brasov|BVDTCBA32|189|CCC GFB Iarna 2014|121|Retail|0
0|CS3726066|2014-01-25 13:20:08|BANICA|GEORGIANA|2910226104091|F|1991-02-26|BUZAU|BUZAU|BUZAULUI|5|2|A|0|3|0767536898||BANICA91GEORGIANA@YAHOO.COM|DAVGLS||0 Sobranie SS Black (6mg) Pack|Yes|Yes||20347333|PICCOLO|Brasov|BVDTCBA49|189|CCC GFB Iarna 2014|121|Retail|0
0|CS3726070|2014-01-25 13:22:59|DOMNISOR|MARIUS|1790131297297|M|1979-01-31|BRASOV|PURCARENI|PRINCIPALA|74|||||0727642982|||WIBLH||0 Winston 100s Blue (6mg) Pack|Yes|Yes||BV004948|OMV PREDEAL|Brasov|BVDTCBA46|189|CCC GFB Iarna 2014|121|Retail|0
0|CS3726089|2014-01-25 13:30:53|BARBU|ALEXANDRU|1800516450112|M|1980-05-16|BUCURESTI|BUCURESTI|AUREL CIUREA|2|S41|2|8|54|0766304053||ALEXBARBU7@GMAIL.COM|MBRGLFT||0 Winston XStyle Silver (4mg) Pack|Yes|Yes||BV004948|OMV PREDEAL|Brasov|BVDTCBA46|189|CCC GFB Iarna 2014|121|Retail|0
0|CS3726092|2014-01-25 13:32:08|UNGUREANU|NICOLETA||F|1988-07-09|CONSTANTA|EFORIE NORD|ALEXANDRU LAPUSNEANU|35|||||0767239059||INGERAS_NICO@YAHOO.COM|WISSB||0 Winston SS Blue (5mg) Pack|Yes|Yes||BV001621|ODIDESIGN CONSTRUCT CAZACU|Brasov|BVDTCBA34|189|CCC GFB Iarna 2014|121|Retail|0
0|CS3726093|2014-01-25 13:32:24|BOBOC|NICU|1850418340463|M|1985-04-18|TELEORMAN|BRAGADIRU|CAISILOR|18|||||0761868556||BOBOCNICU_2013@YAHOO.COM|DUNFCMBB||0 Sobranie KS Black (8mg) Pack|Yes|Yes||BVR02143|SABIDO SKY SRL|Brasov|BVDTCBA36|189|CCC GFB Iarna 2014|121|Retail|0
0|CS3726095|2014-01-25 13:35:06|POP|DIANA|2801222080032|F|1980-12-22|BRASOV|BRASOV|FANIONULUI|33|4|C|2|6|0740569181||BLONDABV28@YAHOO.COM|KTSV|KTSV|0 Winston XStyle Silver (4mg) Pack|Yes|Yes||20362683|UNI-FIT 2000 (Apreski)|Brasov|BVDTCBA48|189|CCC GFB Iarna 2014|121|Retail|0
0|CS3726107|2014-01-25 13:39:31|BONDOC|ALEXANDRU|1860829080048|M|1986-08-29|BRASOV|BRASOV|GRIVITEI|39|28|A|0|1|0743977126||BONDOCALEXANDRU@GMAIL.COM|SBKSBK|MBRRD|0 Sobranie KS Black (8mg) Pack|Yes|Yes||20347333|PICCOLO|Brasov|BVDTCBA49|189|CCC GFB Iarna 2014|121|Retail|0
0|CS3726112|2014-01-25 13:40:47|STOICA|CRISTIANA|2801020237756|F|1980-11-20|IALOMITA|URZICENI|PERILOR|44|5|A|4|16|0784414189||STOICA_MIHAIL78@YAHOO.COM|WIBLH||0 Winston 100s Blue (6mg) Pack|Yes|Yes||BVR02143|SABIDO SKY SRL|Brasov|BVDTCBA36|189|CCC GFB Iarna 2014|121|Retail|0
0|CS3726113|2014-01-25 13:40:58|ALEXANDROAIA|CRISTIAN|1731230170361|M|1973-12-30|CONSTANTA|CONSTANTA|BARBU STEFANESCU DE LA VRANCEA|49|7|D|4|49|0756469988||CRISTI_30CT@YAHOO.COM|KTBL|DUNBL|0 Winston XStyle Blue (6mg) Pack|Yes|Yes||BVR01784|ROMNIAL|Brasov|BVDTCBA45|189|CCC GFB Iarna 2014|121|Retail|0
0|CS3726117|2014-01-25 13:42:38|CALBAZA|MORENA||F|1985-02-12|SIBIU|SIBIU|ALEEA FRATII BUZESTI|1|1|A|4|19|0740134514||MORENA_PETREAN@YAHOO.COM|GLMBL|VOGLL|0 Sobranie SS Pink (3mg) Pack|Yes|Yes||PHK00475|PETROM CORNU|Ploiesti|PHDTCBA14|189|CCC GFB Iarna 2014|121|Retail|0
0|CS3726119|2014-01-25 13:43:33|STOICA|MIHAIL|1780622290910|M|1978-06-22|IALOMITA|URZICENI|PERILOR|44|5|A|4|16|0764436317||STOICA_MIHAIL78@YAHOO.COM|KTBL||0 Winston XStyle Blue (6mg) Pack|Yes|Yes||BVR02143|SABIDO SKY SRL|Brasov|BVDTCBA36|189|CCC GFB Iarna 2014|121|Retail|0
0|CS3726120|2014-01-25 13:44:36|BERHART|DANIEL||M|1990-03-24|ILFOV|POPESTI LEORDENI|PORUMBACU|5|G3|0|P|16|0760714414||SORYN_BASTER240390@YAHOO.COM|LMSV||1 Bricheta XST|Yes|Yes||BVR00724|SUSAI MONT SRL|Brasov|BVDTCBA32|189|CCC GFB Iarna 2014|121|Retail|0
0|CS3726122|2014-01-25 13:45:17|BARLIGA|RALUCA|2861007104276|F|1986-10-07|BRASOV|BRASOV|MUNCII|8|E19|A|2|6|0731624301||MELETINA.BARLIGA@GMAIL.COM|KTBL||0 Winston XStyle Blue (6mg) Pack|Yes|Yes||20347333|PICCOLO|Brasov|BVDTCBA49|189|CCC GFB Iarna 2014|121|Retail|0
0|CS3726123|2014-01-25 13:45:28|HARAPU|HORIA||M|1967-07-07|PRAHOVA|AZUGA|POSTAVARIEI|1|1|A|0|0|0722784284||MARIA.HARAPU@YAHOO.COM|SBSSBK||0 Sobranie SS Black (6mg) Pack|Yes|Yes||BV001621|ODIDESIGN CONSTRUCT CAZACU|Brasov|BVDTCBA34|189|CCC GFB Iarna 2014|121|Retail|0
0|CS3726127|2014-01-25 13:46:47|PINTOI|LAVINIA||F|1995-10-02|PRAHOVA|AZUGA|RITIVOIU|30|0|0|0|0|0734523278||LAVYNUTZAYO@YAHOO.COM|SBSSBK||0 Sobranie SS Black (6mg) Pack|Yes|Yes||BV001621|ODIDESIGN CONSTRUCT CAZACU|Brasov|BVDTCBA34|189|CCC GFB Iarna 2014|121|Retail|0
0|CS3726129|2014-01-25 13:46:54|PATRASCU|ANDREEA|2890723410033|M|1989-07-23|BUCURESTI|SECTOR 1|PAJUREI|14|19|A|1|7|0721242915||PATRASCU.ANDREEA.CRISTINA@GMAIL.COM|PMSV||1 Bricheta XST|Yes|Yes||BVR00724|SUSAI MONT SRL|Brasov|BVDTCBA32|189|CCC GFB Iarna 2014|121|Retail|0
0|CS3726134|2014-01-25 13:49:10|MALCIU|IONUT|1830726520016|M|1983-07-26|GIURGIU|GIURGIU|VIITORULUI|30|||||0768108155||IONUTMALCIU@YAHOO.COM|WIBL||1 Bricheta WIN|Yes|Yes||BVR02143|SABIDO SKY SRL|Brasov|BVDTCBA36|189|CCC GFB Iarna 2014|121|Retail|0
0|CS3726146|2014-01-25 13:53:43|GHINESCU|SORIN||M|1988-06-13|BRASOV|SACELE|VIITORULUI|40|40|B|1|6|0749781737||SORINGHINESCU@YAHOO.COM|PMECBL|KTBL|0 Winston 100s Blue (6mg) Pack|Yes|Yes||BVR01784|ROMNIAL|Brasov|BVDTCBA45|189|CCC GFB Iarna 2014|121|Retail|0
0|CS3726153|2014-01-25 13:56:59|CACIULA|MARIAN||M|1984-08-12|PRAHOVA|AZUGA|RICHIVOIU|30|||||0724101292||CIULA_MARIAN@YAHOO.COM|WIXSTSV||0 Winston XStyle Silver (4mg) Pack|Yes|Yes||BV001621|ODIDESIGN CONSTRUCT CAZACU|Brasov|BVDTCBA34|189|CCC GFB Iarna 2014|121|Retail|0
0|CS3726152|2014-01-25 13:56:59|NECULA|DANIEL|1870826082359|M|1987-08-25|BUCURESTI|BUCURESTI|SAVINESTI|5|A|-|7|37|0758858148||N.DAAAANI@YAHOO.COM|KTSV||0 Winston XStyle Silver (4mg) Pack|Yes|Yes||20347333|PICCOLO|Brasov|BVDTCBA49|189|CCC GFB Iarna 2014|121|Retail|0
0|CS3726156|2014-01-25 13:58:57|DUNCA|AURELIA ILEANA||F|1963-07-10|BRASOV|PREDEAL|SOIMULUI|9|0|0|0|406|0736036122|||LMSV||0 Winston XStyle Silver (4mg) Pack|Yes|Yes||BVR00724|SUSAI MONT SRL|Brasov|BVDTCBA32|189|CCC GFB Iarna 2014|121|Retail|0
0|CS3726158|2014-01-25 14:00:51|MANDIUC|ANA MARIA||F|1986-10-25|CONSTANTA|CONSTANTA|PATRIEI|14|-|-|-||0769515649||ANAMARIAMANDIUC@YAHOO.COM|GLMLIL|VOGLL|0 Sobranie SS Black (6mg) Pack|Yes|No||BVR01784|ROMNIAL|Brasov|BVDTCBA45|189|CCC GFB Iarna 2014|121|Retail|0
0|CS3726159|2014-01-25 14:01:13|TUGUI|BOGDAN||M|1988-03-12|BRASOV|SACELE|MOCANILOR|8|-|-|-||0748357045||BOGDANTZU@GMAIL.COM|KTBL||0 Winston XStyle Blue (6mg) Pack|Yes|Yes||20347333|PICCOLO|Brasov|BVDTCBA49|189|CCC GFB Iarna 2014|121|Retail|0
0|CS3726172|2014-01-25 14:08:18|BUCUR|NARCIS||M|1988-10-25|PRAHOVA|COMARNIC|POIANA|521A|||||0721709754||NAKE_C2000@YAHOO.COM|DUNFCMBB|DUNFCMBB|0 Sobranie KS Black (8mg) Pack|Yes|No||PHK00475|PETROM CORNU|Ploiesti|PHDTCBA14|189|CCC GFB Iarna 2014|121|Retail|0
0|CS3726174|2014-01-25 14:09:35|CRISTEA|DANIEL||M|1977-04-16|BUCURESTI|SECTOR 1|IZBANDEI|79|||||0733041548|||PMECBK||0 Winston 100s Classic (10mg) Pack|Yes|Yes||BV001621|ODIDESIGN CONSTRUCT CAZACU|Brasov|BVDTCBA34|189|CCC GFB Iarna 2014|121|Retail|0
0|CS3726177|2014-01-25 14:11:18|PATAKI|ALEXANDRA||F|1989-12-20|BRASOV|BRASOV|PELICANULUI|11|-|-|-||0735092502||ALEJANDRAPATAKY@YAHOO.ES|DUNFCMBB|VOGABP|0 Sobranie KS Black (8mg) Pack|Yes|Yes||BVR01784|ROMNIAL|Brasov|BVDTCBA45|189|CCC GFB Iarna 2014|121|Retail|0
0|CS3726182|2014-01-25 14:14:42|NEGOESCU|ANGELA||F|1975-07-31|BRASOV|BRASOV|COCORULUI|7|0|B|1|6|0721000498||ANGESH369@YAHOO.COM|GLMLIL|VOGM|0 Sobranie SS Black (6mg) Pack|Yes|Yes||BVR01784|ROMNIAL|Brasov|BVDTCBA45|189|CCC GFB Iarna 2014|121|Retail|0
0|CS3726184|2014-01-25 14:15:22|CARABAN|ALEXANDRU|1820305134200|M|1982-03-05|CONSTANTA|CONSTANTA|POPORULUI|90|0|0|0|0|0733610668||ALEXCARABAN@YAHOO.COM|KTBL6||0 Winston XStyle Blue (6mg) Pack|Yes|Yes||BVR00724|SUSAI MONT SRL|Brasov|BVDTCBA32|189|CCC GFB Iarna 2014|121|Retail|0
0|CS3726186|2014-01-25 14:16:13|DUTA|ALEXANDRU||M|1987-09-10|BUCURESTI|SECTOR 2|SOSEAUA ANDRONACHE|28|||||0724343154||ALEXANDRU.DUTA@GMAI.COM|PARSB||0 Sobranie KS Gold  (4mg) Pack|Yes|Yes||BV001621|ODIDESIGN CONSTRUCT CAZACU|Brasov|BVDTCBA34|189|CCC GFB Iarna 2014|121|Retail|0
0|CS3726193|2014-01-25 14:21:32|SIMIONESCU|ALEXANDRU GEORGE||M|1989-07-10|CONSTANTA|CONSTANTA|MURELOR|2|R1|D|4|77|0748936350||NATCCROMANCE@YAHOO.COM|KTBL||0 Winston XStyle Blue (6mg) Pack|Yes|Yes||20347333|PICCOLO|Brasov|BVDTCBA49|189|CCC GFB Iarna 2014|121|Retail|0
0|CS3726194|2014-01-25 14:22:20|BANU|ROLAND CRISTIAN|1750315080057|M|1975-03-15|BRASOV|BRASOV|MACESULUI|17|A12D|O|2|8|0730537344||ROLANDBANU@YAHOO.COM|KTBL|KTBL|0 Winston XStyle Blue (6mg) Pack|Yes|Yes||20362683|UNI-FIT 2000 (Apreski)|Brasov|BVDTCBA48|189|CCC GFB Iarna 2014|121|Retail|0
0|CS3726203|2014-01-25 14:26:26|MUNTEANU|ANDREI|1881024080034|M|1988-10-24|BRASOV|PREDEAL|NATIONALA|73|0|0|0|0|0741462295||TB_GURITZU@YAHOO.COM|MBRGLFT||1 Bricheta XST|Yes|Yes||BVR02143|SABIDO SKY SRL|Brasov|BVDTCBA36|189|CCC GFB Iarna 2014|121|Retail|0
0|CS3726204|2014-01-25 14:26:52|BISCARO|ADRIANO||M|1975-06-30|BRASOV|BRASOV|BD MUNCII|17|D10|D||2|0752172004|||WIBLH||0 Winston 100s Blue (6mg) Pack|Yes|Yes||BV004948|OMV PREDEAL|Brasov|BVDTCBA46|189|CCC GFB Iarna 2014|121|Retail|0
0|CS3726205|2014-01-25 14:27:06|LUNGU|FLORIN||M|1982-11-14|BUZAU|BUZAU|PRINCIPALA|549|-|-|-||0748355006||FLORIN82_SCOOTS@YAHOO.COM|MBRRD|KTAPBK|0 Winston Classic (10mg) Pack|Yes|Yes||BVR01784|ROMNIAL|Brasov|BVDTCBA45|189|CCC GFB Iarna 2014|121|Retail|0
0|CS3726206|2014-01-25 14:29:07|RAKOSI|IZABELA|2871012080037|F|1987-10-12|BRASOV|BRASOV|13DECEMBRIE|90B|4|B|3|11|0745461212||IZABELARAKOSI@GMAIL.COM|WIBLH||0 Winston 100s Blue (6mg) Pack|Yes|Yes||20347333|PICCOLO|Brasov|BVDTCBA49|189|CCC GFB Iarna 2014|121|Retail|0
0|CS3726209|2014-01-25 14:31:33|CARJA|DIANA||F|1984-09-26|BUCURESTI|SECTOR 1|ALESA STALPEANU|6|6|B|4|37|0726395484||DIANACARJA@HOTMAIL.COM|KTSV|PMGR|2 Scrumiera WIN|Yes|Yes||PHK00475|PETROM CORNU|Ploiesti|PHDTCBA14|189|CCC GFB Iarna 2014|121|Retail|0
0|CS3726214|2014-01-25 14:35:24|DINU|FLORIN||M|1979-12-13|BUCURESTI|BUCURESTI|PETRE ISPIRESCU|8|P6|2|8|52|0740118218||ARH.FLORING@GMAIL.COM|DAVGL|PARAB|0 Sobranie KS Black (8mg) Pack|Yes|No||BVR01784|ROMNIAL|Brasov|BVDTCBA45|189|CCC GFB Iarna 2014|121|Retail|0
0|CS3726215|2014-01-25 14:35:53|PAVLOVSCHI|DANA|2770929443031|F|1977-09-29|BUCURESTI|SECTOR 4|JIRULUI|24|0|0|1|6|0722608034||DANAPAVLOVSCHI@YAHOO.COM|CAWH||0 Sobranie KS Gold  (4mg) Pack|Yes|Yes||BVR00724|SUSAI MONT SRL|Brasov|BVDTCBA32|189|CCC GFB Iarna 2014|121|Retail|0
0|CS3726219|2014-01-25 14:39:42|POPA|CATALIN||M|1985-11-27|BRASOV|ZARNESTI|FLORILOR|1|25||||0758424703|||MBRFPH||5 Rucsac WIN|Yes|Yes||PHK00469|OMV PETROM KM 6|Ploiesti|PHDTCBA15|189|CCC GFB Iarna 2014|121|Retail|0
0|CS3726221|2014-01-25 14:43:45|ARSU|MARIUS IULIAN||M|1994-02-27|BRASOV|BRASOV|CICI AT PAVELESCU|4|0|0|0|0|0745158401||YULY_01@YAHOO.COM|KTBLH|KTBLH|0 Winston XStyle Blue (6mg) Pack|Yes|Yes||20362683|UNI-FIT 2000 (Apreski)|Brasov|BVDTCBA48|189|CCC GFB Iarna 2014|121|Retail|0
0|CS3726223|2014-01-25 14:44:19|PRISTOPAN|VANESA||F|1993-03-13|SATU MARE|SATU MARE|ARGESULUI|107|-|-|-||0735554607||V_VANESA265@HOTMAIL.COM|WIBL|MBRGL|0 Winston Blue (6mg) Pack|Yes|Yes||BVR01784|ROMNIAL|Brasov|BVDTCBA45|189|CCC GFB Iarna 2014|121|Retail|0
0|CS3726224|2014-01-25 14:44:24|ANTON|BIANCA GEORGIANA|2910123100189|F|1991-01-23|BUZAU|BUZAU|DOROBANTI|2|E15|0|2|10|0740225717||ANTONBIANCAGRG@YAHOO.RO|CAWH||0 Sobranie KS Gold  (4mg) Pack|Yes|Yes||BVR00724|SUSAI MONT SRL|Brasov|BVDTCBA32|189|CCC GFB Iarna 2014|121|Retail|0
0|CS3726230|2014-01-25 14:50:34|SARBU|CATALINA||F|1987-06-05|BUCURESTI|BUCURESTI|RASINARI|4A|||3|16|0732025792||CATALINA.S.SIRBU@GMAIL.COM|SBSSWH||0 Sobranie SS White (1mg) Pack|Yes|Yes||BV004948|OMV PREDEAL|Brasov|BVDTCBA46|189|CCC GFB Iarna 2014|121|Retail|0
0|CS3726231|2014-01-25 14:53:07|MEREU|ANDREEA||F|1988-02-06|BRASOV|BRASOV|PRUNULUI|7|0|0|0|0|0726084042||MEREUANDREEA@YAHOO.COM|DUNFCMBB|DUNFCMBB|0 Sobranie KS Black (8mg) Pack|Yes|Yes||20362683|UNI-FIT 2000 (Apreski)|Brasov|BVDTCBA48|189|CCC GFB Iarna 2014|121|Retail|0
0|CS3726234|2014-01-25 14:54:03|MIHAI|CRISTINA||F|1983-11-16|ARGES|PITESTI|PETROCHIMISTILOR|12|B5B|B|4|17|0766587209||CRISTINA_ELENA832000@YAHOO.COM|KTBL||0 Winston XStyle Blue (6mg) Pack|Yes|Yes||BVR00724|SUSAI MONT SRL|Brasov|BVDTCBA32|189|CCC GFB Iarna 2014|121|Retail|0
0|CS3726237|2014-01-25 14:55:52|MIHALCEA|ALEXANDRU||M|1974-07-12|PRAHOVA|AZUGA|INDEPENDENTEI|12|||||0722162566|||WIXSTFX||0 Winston Fresh XSpression (5mg) Pack|Yes|Yes||BV004948|OMV PREDEAL|Brasov|BVDTCBA46|189|CCC GFB Iarna 2014|121|Retail|0
0|CS3726239|2014-01-25 14:56:24|CATRINOIU|ANA||F|1991-02-03|BUZAU|SIRIU|PRINCIPALA|3|0||||0749494744||CATRINOIU_ANAAIRAM@YAHOO.COM|KTSWIT||0 Winston Fresh XSpression (5mg) Pack|Yes|Yes||BV001621|ODIDESIGN CONSTRUCT CAZACU|Brasov|BVDTCBA34|189|CCC GFB Iarna 2014|121|Retail|0
0|CS3726240|2014-01-25 14:58:28|VEVERITA|LAURENTIU|1750214090074|M|1975-02-14|BRAILA|BRAILA|CELULOZEI|42|0|0|0|0|0743967467||VEVELAURENTIU@YAHOO.COM|KTSV||0 Winston XStyle Silver (4mg) Pack|Yes|Yes||BVR00724|SUSAI MONT SRL|Brasov|BVDTCBA32|189|CCC GFB Iarna 2014|121|Retail|0
0|CS3726241|2014-01-25 14:58:34|PSEPOLSCI|LOREDANA||F|1991-05-05|PRAHOVA|PLOIESTI|NICOPOLELOR|134|||0|0|0731266387||LOREDANA_ZUZI@YAHOO.COM|SBSSBK||0 Sobranie SS Black (6mg) Pack|Yes|Yes||PHK00469|OMV PETROM KM 6|Ploiesti|PHDTCBA15|189|CCC GFB Iarna 2014|121|Retail|0
0|CS3726244|2014-01-25 14:59:33|CAIA|DANIELS||F|1979-07-05|NEAMT|PIATRA NEAMT|DUMBRAVEI|275|||||0725814241||DANIELA7729@YAHOO.COM|SBSSWH|SBSSWH|0 Sobranie SS White (1mg) Pack|Yes|Yes||PHK00475|PETROM CORNU|Ploiesti|PHDTCBA14|189|CCC GFB Iarna 2014|121|Retail|0
0|CS3726245|2014-01-25 15:00:58|EPURE|VIOLETA|2880706520042|F|1988-07-06|GIURGIU|GIURGIU|SLOBOZIEI|B49|B49||4|44|0761328496||VIOLETUTZA@YAHOO.COM|KTSWIT||0 Winston Fresh XSpression (5mg) Pack|Yes|Yes||BVR02143|SABIDO SKY SRL|Brasov|BVDTCBA36|189|CCC GFB Iarna 2014|121|Retail|0
0|CS3726247|2014-01-25 15:02:25|NISTOR|IONUT|1840721080011|M|1984-07-21|BRASOV|BRASOV|MURESULUI|6|0|A|1|6|0752102987||NISTOR_IONUT84@YAHOO.COM|KTSWIT|KTSWIT|0 Winston Fresh XSpression (5mg) Pack|Yes|Yes||20362683|UNI-FIT 2000 (Apreski)|Brasov|BVDTCBA48|189|CCC GFB Iarna 2014|121|Retail|0
0|CS3726248|2014-01-25 15:04:36|DANTA|MADALIN|1841223340911|M|1984-12-23|GIURGIU|GIURGIU|TINERETULUI|B1|B1||1|10|0720000884||BUZZLIPPS20@YAHOO.COM|KTBL||0 Winston XStyle Blue (6mg) Pack|Yes|Yes||BVR02143|SABIDO SKY SRL|Brasov|BVDTCBA36|189|CCC GFB Iarna 2014|121|Retail|0
0|CS3726252|2014-01-25 15:06:22|BOBEICA|MARIUS|1880218080044|M|1988-02-18|BRASOV|BRASOV|13DECEMBRIE|88|2|C|1|7|0753228121||MARIUSS_BV@YAHOO.COM|KTSWIT|KTSWITH|0 Winston Fresh XSpression (5mg) Pack|Yes|Yes||20362683|UNI-FIT 2000 (Apreski)|Brasov|BVDTCBA48|189|CCC GFB Iarna 2014|121|Retail|0
0|CS3726255|2014-01-25 15:08:43|CATRINOIU|GEORGETA||F|1967-07-18|BUZAU|SIRIU|PRINCIPALA|3|||||0748346381|||KTSWIT||0 Winston Fresh XSpression (5mg) Pack|Yes|Yes||BV001621|ODIDESIGN CONSTRUCT CAZACU|Brasov|BVDTCBA34|189|CCC GFB Iarna 2014|121|Retail|0
0|CS3726265|2014-01-25 15:25:53|BABA|ALEX||M|1993-10-26|BIHOR|ORADEA|MOLDOVEI|46|QR53||2|8|0754403359||DUMITRU.BABA@YAHOO.RO|WIBL|WIBL|5 Rucsac WIN|Yes|Yes||PHK00475|PETROM CORNU|Ploiesti|PHDTCBA14|189|CCC GFB Iarna 2014|121|Retail|0
0|CS3726271|2014-01-25 15:32:04|DRILEA|ANDREEA||F|1981-12-03|BUCURESTI|SECTOR 1|STIRBEI VODA|2|||||0733960240||MAILTOANDREEA@GMAIL.COM|DAVGLSS|SBSSBK|0 Sobranie SS Black (6mg) Pack|Yes|Yes||PHK00475|PETROM CORNU|Ploiesti|PHDTCBA14|189|CCC GFB Iarna 2014|121|Retail|0
0|CS3727722|2014-01-26 11:00:02|JUCAN|ANDREEA||F|1992-03-05|BUCURESTI|SECTOR 3|ALEEA FLORIN CIUNGAN|9|64|1|2|14|0763204233||DEYW.DULCIK@YAHOO.COM|WIXSTBL||0 Winston XStyle Blue (6mg) Pack|Yes|Yes||BVR02143|SABIDO SKY SRL|Brasov|BVDTCBA32|189|CCC GFB Iarna 2014|121|Retail|0
0|CS3727726|2014-01-26 11:03:59|TINA|MARIA||F|1995-10-29|BUCURESTI|SECTOR 3|BUHUS|39|0|0|0|0|0762312560||ALEXANDRA_MONICA10@YAHOO.COM|MBRGLFT||0 Winston XStyle Silver (4mg) Pack|Yes|Yes||BVR02143|SABIDO SKY SRL|Brasov|BVDTCBA32|189|CCC GFB Iarna 2014|121|Retail|0
0|CS3727731|2014-01-26 11:07:20|BARLIGEA|ANDRA|2831123134146|F|1983-11-23|BUCURESTI|SECTOR 6|VALEA ARGESULUI|6|M22|A|8|48|0736564955||ANDRA.BARLIGEA@GMAIL.COM|DAVGLS||0 Sobranie SS Black (6mg) Pack|Yes|Yes||BVR02143|SABIDO SKY SRL|Brasov|BVDTCBA32|189|CCC GFB Iarna 2014|121|Retail|0
0|CS3727736|2014-01-26 11:10:45|RAIZI|MIHAI||M|1985-03-18|PRAHOVA|PLOIESTI|BAHLUILUI|1|138|A|8|31|0765466112||MIHAI1803@YAHOO.COM|SBKSBL||0 Sobranie KS Blue (6mg) Pack|Yes|Yes||BVR00724|SUSAI MONT SRL|Brasov|BVDTCBA46|189|CCC GFB Iarna 2014|121|Retail|0
0|CS3727737|2014-01-26 11:11:20|ROSCA MARC|EUGENIA|2750330193782|F|1975-03-30|HARGHITA|SARMAS|PRINCIPALA|612|-|-|0|0|0743811206||GENA.ROSCA@YAHOO.COM|GLMBL|PMSSOR|0 Sobranie SS Pink (3mg) Pack|Yes|Yes||20362683|UNI-FIT 2000 (Apreski)|Brasov|BVDTCBA45|189|CCC GFB Iarna 2014|121|Retail|0
0|CS3727739|2014-01-26 11:12:49|CHIPER|FLORIN|1910616132802|M|1991-06-16|CONSTANTA|COBADIN|SOSEAUA CONSTANTEI|4|RB2|A|2|8|0731249394||PHOENIX_R0CK@YAHOO.COM|CABK||0 Sobranie KS Black (8mg) Pack|Yes|Yes||20347333|PICCOLO|Brasov|BVDTCBA49|189|CCC GFB Iarna 2014|121|Retail|0
0|CS3727742|2014-01-26 11:16:16|MUSAT|ROXANA|2950721440025|F|1995-07-21|ILFOV|DOBROIESTI|HORIA|7|0|0|0|0|0730007015||UNIQUE_ZUZ@YAHOO.COM|MBRGLT||0 Winston XStyle Blue (6mg) Pack|Yes|Yes||BVR02143|SABIDO SKY SRL|Brasov|BVDTCBA32|189|CCC GFB Iarna 2014|121|Retail|0
0|CS3727748|2014-01-26 11:18:35|GRAMA|FLORIN|1800526080015|M|1980-05-26|BRASOV|BRASOV|ANDREI BARSEANU|8|O|O|0|0|0744654222||FUNKY_FLOW_BOARDS@YAHOO.CO.UK|DAVIDBL|DUNBL|0 Sobranie KS Blue (6mg) Pack|Yes|No||20362683|UNI-FIT 2000 (Apreski)|Brasov|BVDTCBA45|189|CCC GFB Iarna 2014|121|Retail|0
0|CS3727754|2014-01-26 11:21:54|IGNAT|ADELA|2700615080016|F|1970-06-15|BRASOV|BRASOV|SATURN|50|6|A|9|40|0752085868||ADELAMARIAI@YAHOO.COM|MBRBI||0 Winston Fresh XSpression (5mg) Pack|Yes|Yes||20347333|PICCOLO|Brasov|BVDTCBA49|189|CCC GFB Iarna 2014|121|Retail|0
0|CS3727759|2014-01-26 11:24:46|MARIN|MARIANA|2730413364217|F|1973-04-13|TULCEA|NALBANT|PRINCIPALA|3|0|0|0|0|0740165658|||VCRBL||1 Bricheta WIN|Yes|Yes||BVR02143|SABIDO SKY SRL|Brasov|BVDTCBA32|189|CCC GFB Iarna 2014|121|Retail|0
0|CS3727760|2014-01-26 11:25:19|ZARNOVEAN|FLORIN||M|1961-06-29|BRASOV|BRASOV|CASTELULUI|56|-|-|-||0747965210||ZARNOVEANFLORIN@YAHOO.COM|KTBL|PMBL|0 Winston XStyle Blue (6mg) Pack|Yes|Yes||20362683|UNI-FIT 2000 (Apreski)|Brasov|BVDTCBA45|189|CCC GFB Iarna 2014|121|Retail|0
0|CS3727763|2014-01-26 11:25:36|ARSENIE|MARIUS|1880612080106|M|1988-06-12|BRASOV|BRASOV|PRINULUI|32|3|E|4|18|0756757719||ARSENIE_MARIUS@YAHOO.COM|WIBL||0 Winston Blue (6mg) Pack|Yes|Yes||20347333|PICCOLO|Brasov|BVDTCBA49|189|CCC GFB Iarna 2014|121|Retail|0
0|CS3727773|2014-01-26 11:28:54|RAITA|LAURENTIU||M|1969-12-29|BRASOV|SACELE|NARCISELOR|34A|-|-|0|0|0772472053||R.LORENZO2004@LIBERO.IT|WIBL|DUNBL|0 Winston Blue (6mg) Pack|Yes|Yes||20362683|UNI-FIT 2000 (Apreski)|Brasov|BVDTCBA45|189|CCC GFB Iarna 2014|121|Retail|0
0|CS3727776|2014-01-26 11:31:06|ION|FLORIN|1920419297243|M|1992-04-19|PRAHOVA|AZUGA|VANATOR|3|||0|0|0721017902||FLORIN_ROBERT58@YAHOO.COM|KTBL||0 Winston XStyle Blue (6mg) Pack|Yes|No||BV001621|ODIDESIGN CONSTRUCT CAZACU|Brasov|BVDTCBA34|189|CCC GFB Iarna 2014|121|Retail|0
0|CS3727778|2014-01-26 11:31:54|SERBAN|ADRIAN||M|1976-08-01|BUZAU|CILIBIA|PRINCIPALA|99|0|0|0|0|0730258801||SERBANADRIAN@YAHOO.COM|SBKSBL||0 Sobranie KS Blue (6mg) Pack|Yes|Yes||BVR00724|SUSAI MONT SRL|Brasov|BVDTCBA46|189|CCC GFB Iarna 2014|121|Retail|0
0|CS3727781|2014-01-26 11:34:53|HARDA|MARIAN|1900409080121|M|1990-09-04|BRASOV|BRAN|IANCU GOANTA|34|0|0|0|0|0744398939||HARDAMARIAN@YAHOO.COM|DUNFCMBB|DUNFCMBB|0 Sobranie KS Black (8mg) Pack|Yes|Yes||BVR01784|ROMNIAL|Brasov|BVDTCBA48|189|CCC GFB Iarna 2014|121|Retail|0
0|CS3727783|2014-01-26 11:36:26|CHINT|STEFAN|1771123421547|M|1977-11-23|BUCURESTI|BUCURESTI|COLENTINA|32|67||7|32|0762268133||FASHIONDAINIS@YAHOO.RO|KTNWH||0 Winston SS Silver (3mg) Pack|Yes|Yes||BV004948|OMV PREDEAL|Brasov|BVDTCBA36|189|CCC GFB Iarna 2014|121|Retail|0
0|CS3727784|2014-01-26 11:36:27|NITA|DANUT||M|1988-04-27|BRASOV|PREDEAL|POIANA NARCISELOR|0|1|0|P|9|0741652647||DANUT_STEFAN1987@YAHOO.COM|PMECBL||0 Winston 100s Blue (6mg) Pack|Yes|Yes||BVR02143|SABIDO SKY SRL|Brasov|BVDTCBA32|189|CCC GFB Iarna 2014|121|Retail|0
0|CS3727786|2014-01-26 11:37:58|TOMA|DIANA||F|1976-06-25|PRAHOVA|CAMPINA|PIESTRIS|810|||||0722673426||DIANA_LUCIA76@YAHOO.COM|KTBL||0 Winston XStyle Blue (6mg) Pack|Yes|Yes||BV001621|ODIDESIGN CONSTRUCT CAZACU|Brasov|BVDTCBA34|189|CCC GFB Iarna 2014|121|Retail|0
0|CS3727787|2014-01-26 11:38:33|MODIGA|CRISTI|1900522080109|M|1990-05-22|BRASOV|BRAN|COLIBASILOR|26A|0|0|0|0|0721041270||CRISTIMODIGA@GMAIL.COM|SBKSBL|SBKSBL|0 Sobranie KS Blue (6mg) Pack|Yes|Yes||BVR01784|ROMNIAL|Brasov|BVDTCBA48|189|CCC GFB Iarna 2014|121|Retail|0
0|CS3727788|2014-01-26 11:38:39|PUIU|ION|1890903030042|M|1989-09-03|ARGES|CAMPULUNG MUSCEL|GROSANI|204|||0|0|0751802348||PUIUION89@YAHOO.RO|MBRRDH||0 Winston 100s Classic (10mg) Pack|Yes|Yes||BVR02143|SABIDO SKY SRL|Brasov|BVDTCBA32|189|CCC GFB Iarna 2014|121|Retail|0
0|CS3727790|2014-01-26 11:39:41|BALOI|MIHAITA|1820309420083|M|1982-03-09|BUCURESTI|BUCURESTI|INTRAREA BARSEI|6|G7|B|8|100|0765512421||TORGAIE@YAHOO.COM|SBKSBL||0 Sobranie KS Blue (6mg) Pack|Yes|Yes||BVR00724|SUSAI MONT SRL|Brasov|BVDTCBA46|189|CCC GFB Iarna 2014|121|Retail|0
0|CS3727796|2014-01-26 11:43:33|GEORGESCU|TEODORA||F|1986-08-21|PRAHOVA|PLOIESTI|MARASESTI|64|||||0722629572||THEODORA.GEORGESC@YAHOO.COM|GLMMNT||0 Sobranie SS Menthol (5 mg) Pack|Yes|Yes||BV001621|ODIDESIGN CONSTRUCT CAZACU|Brasov|BVDTCBA34|189|CCC GFB Iarna 2014|121|Retail|0
0|CS3727800|2014-01-26 11:44:16|CARP|CONSTANTIN||M|1967-08-07|BRASOV|BRASOV|DOBROGEANU GHEREA|2|-|-|-||0749345977||CARPCONSTANTIN@GMAIL.COM|MOBL|PMECBK|0 Winston Blue (6mg) Pack|Yes|Yes||20362683|UNI-FIT 2000 (Apreski)|Brasov|BVDTCBA45|189|CCC GFB Iarna 2014|121|Retail|0
0|CS3727801|2014-01-26 11:44:52|BORCA|MARIAN|1800417080019|M|1980-04-17|BRASOV|PREDEAL|POIANA NARCISELOR|11|11|||1|0728022017|||LMRDH||0 Winston 100s Classic (10mg) Pack|Yes|Yes||BVR00724|SUSAI MONT SRL|Brasov|BVDTCBA46|189|CCC GFB Iarna 2014|121|Retail|0
0|CS3727802|2014-01-26 11:45:19|POMPILIU|ILIE||M|1977-01-16|BUCURESTI|BUCURESTI|VALEA OLTULUI|8|A5|1|1|4|0768095979||B_77JAF@YAHOO.COM|KTBL|KTBL|0 Winston XStyle Blue (6mg) Pack|Yes|Yes||BVR01784|ROMNIAL|Brasov|BVDTCBA48|189|CCC GFB Iarna 2014|121|Retail|0
0|CS3727808|2014-01-26 11:48:36|SERIAN|DANIEL||M|1983-07-10|BRASOV|BRASOV|OVIDIU|17|18|A|3|7|0731443766||SERIANDANIEL@YAHOO.COM|WICLH||0 Winston 100s Classic (10mg) Pack|Yes|Yes||20347333|PICCOLO|Brasov|BVDTCBA49|189|CCC GFB Iarna 2014|121|Retail|0
0|CS3727810|2014-01-26 11:49:23|GRAMADA|PETRONELA|2850616384797|F|1985-06-16|VALCEA|RAMNICU VALCEA|DACIA|7|15|A||7|0745523401||PETRONELA.RAMADA@GMAIL.COM|VOGDV||0 Winston SS Blue (5mg) Pack|Yes|Yes||BV004948|OMV PREDEAL|Brasov|BVDTCBA36|189|CCC GFB Iarna 2014|121|Retail|0
0|CS3727811|2014-01-26 11:49:26|PIETRIS|MARIUS|1850106430020|M|1985-01-06|BUCURESTI|BUCURESTI|DANUBIU|9|6F|1|4|17|0737093467||FOR_LIFE_TO@YAHOO.COM|SBKSBL||0 Sobranie KS Blue (6mg) Pack|Yes|Yes||BVR00724|SUSAI MONT SRL|Brasov|BVDTCBA46|189|CCC GFB Iarna 2014|121|Retail|0
0|CS3727818|2014-01-26 11:51:59|MIHAI|LUCIANA||F|1966-02-15|BUCURESTI|SECTOR 4|CIOCHINA|1|-||||0723540153||LUCIANAMIHAI@GMAIL.COM|KTNWH||0 Winston SS Silver (3mg) Pack|Yes|Yes||BV001621|ODIDESIGN CONSTRUCT CAZACU|Brasov|BVDTCBA34|189|CCC GFB Iarna 2014|121|Retail|0
0|CS3727824|2014-01-26 11:55:48|TURCU|LAURA||F|1980-02-06|BRASOV|PREDEAL|POIANA NARCISELOR|10|10||1|12|0726669539||LAZAROIU_LAURA@YAHOO.COM|LMRD||0 Winston Classic (10mg) Pack|Yes|Yes||BVR00724|SUSAI MONT SRL|Brasov|BVDTCBA46|189|CCC GFB Iarna 2014|121|Retail|0
0|CS3727825|2014-01-26 11:56:31|CARSTEA|OVIDIU||M|1984-11-22|PRAHOVA|BUSTENI|PRAHOVEI|13|||||0731941923||CIRSTEAOVIDIU@YAHOO.COM|PARRSSH||0 Sobranie SS Black (6mg) Pack|Yes|Yes||BV001621|ODIDESIGN CONSTRUCT CAZACU|Brasov|BVDTCBA34|189|CCC GFB Iarna 2014|121|Retail|0
0|CS3727826|2014-01-26 11:56:40|BADEA|VALENTIN|1850905210314|M|1985-09-05|BUCURESTI|BUCURESTI|BERCENI|8|ITM|1|5|501|0765487857||VALII_BADEA@YAHOO.COM|KTSV||1 Bricheta XST|Yes|Yes||BV004948|OMV PREDEAL|Brasov|BVDTCBA36|189|CCC GFB Iarna 2014|121|Retail|0
0|CS3727828|2014-01-26 11:56:44|SANGEORZAN|ANDREEA||F|1994-06-01|BRASOV|BRASOV|13DECEMBRIE|90A|5|B|0|2|0722766021||ANDREEASANGELRZAN@YAHOO.COM|KTSWIT|KTSWIT|0 Winston Fresh XSpression (5mg) Pack|Yes|Yes||BVR01784|ROMNIAL|Brasov|BVDTCBA48|189|CCC GFB Iarna 2014|121|Retail|0
0|CS3727836|2014-01-26 11:59:15|MOTRESCU|ANCA|2850712385628|F|1985-07-12|VALCEA|RAMNICU VALCEA|NEAGOE BASARAB|6|||||0725680019||ANCA.MOTRESCU@YAHOO.COM|VOGDV||0 Winston SS Blue (5mg) Pack|Yes|Yes||BV004948|OMV PREDEAL|Brasov|BVDTCBA36|189|CCC GFB Iarna 2014|121|Retail|0
0|CS3727835|2014-01-26 11:59:15|POPA|IOANA GABRIELA|2810703035358|F|1981-07-03|ARGES|PITESTI|PETRU RARES|1|P15|B|4|16|0745046353||LIANAPOPA@YAHOO.COM|GLMMNT|VOGM|0 Sobranie SS Menthol (5 mg) Pack|Yes|Yes||20362683|UNI-FIT 2000 (Apreski)|Brasov|BVDTCBA45|189|CCC GFB Iarna 2014|121|Retail|0
0|CS3727837|2014-01-26 11:59:30|PATRASCU|ANA MARIA||F|1982-02-06|PRAHOVA|SINAIA|M. KOGALNICEANU|79|||||0723795970||ANUNELLEN@GMAIL.COM|LMRD||0 Winston Classic (10mg) Pack|Yes|Yes||BVR00724|SUSAI MONT SRL|Brasov|BVDTCBA46|189|CCC GFB Iarna 2014|121|Retail|0
0|CS3727840|2014-01-26 12:01:43|GRIGORE|DORIN ALEXANDRU|1850801460067|M|1985-08-01|BUCURESTI|BUCURESTI|PADESUL|4|1|A|8|27|0726218660||DORINALEX2002@YAHOO.COM|SBKSBK||0 Sobranie KS Black (8mg) Pack|Yes|Yes||BVR00724|SUSAI MONT SRL|Brasov|BVDTCBA46|189|CCC GFB Iarna 2014|121|Retail|0
0|CS3727845|2014-01-26 12:04:33|URSU|GABI|1840904080139|M|1984-09-04|VASLUI|BARLAD|REPUBLICII|277|Z2|B|2|8|0748452324||ZATTARA4@YAHOO.COM|KTBL||0 Winston XStyle Blue (6mg) Pack|Yes|Yes||BV004948|OMV PREDEAL|Brasov|BVDTCBA36|189|CCC GFB Iarna 2014|121|Retail|0
0|CS3727847|2014-01-26 12:05:20|GAL|FERENC||M|1970-05-10|BRASOV|BRASOV|CONSTANTIN LACEA|36|-|-|-||0723664337||GALFERENC@GMAIL.COM|CHSTRDH|LMRDH|0 Winston 100s Classic (10mg) Pack|Yes|Yes||20362683|UNI-FIT 2000 (Apreski)|Brasov|BVDTCBA45|189|CCC GFB Iarna 2014|121|Retail|0
0|CS3727848|2014-01-26 12:05:46|GAL|MIHAI|1740612080131|M|1974-06-12|BRASOV|BRASOV|URZICENI|5|7|D|2|5|0724756721||GALMIHAI@YAHOO.COM|SBKSGD||0 Sobranie KS Gold  (4mg) Pack|Yes|Yes||20347333|PICCOLO|Brasov|BVDTCBA49|189|CCC GFB Iarna 2014|121|Retail|0
0|CS3727850|2014-01-26 12:06:27|GRADINARU|CORINA|2890720460082|F|1989-07-20|BUCURESTI|SECTOR 6|VALEA ROSIE|6|||0|0|0744432834||CORINAGRADINARU2002@YAHOO.COM|SBKSGD||0 Sobranie KS Gold  (4mg) Pack|Yes|Yes||BVR00724|SUSAI MONT SRL|Brasov|BVDTCBA46|189|CCC GFB Iarna 2014|121|Retail|0
0|CS3727851|2014-01-26 12:06:28|AROTARITEI|CRISTINA||F|1984-08-29|BRASOV|BRASOV|13 DECEMBRIE|121|0|0|0|0|0748691873||MICU_MICUTZA@YAHOO.COM|SBSSPK||0 Sobranie SS Pink (3mg) Pack|Yes|Yes||BVR02143|SABIDO SKY SRL|Brasov|BVDTCBA32|189|CCC GFB Iarna 2014|121|Retail|0
0|CS3727856|2014-01-26 12:11:30|CULAMET|ERGUN||M|1979-12-13|CONSTANTA|CONSTANTA|SOVEJA|100|64|C|0|40|0721764995||IORGU79@YAHOO.COM|SBKSBL||0 Sobranie KS Blue (6mg) Pack|Yes|Yes||BVR02143|SABIDO SKY SRL|Brasov|BVDTCBA32|189|CCC GFB Iarna 2014|121|Retail|0
0|CS3727857|2014-01-26 12:12:21|MAIDAN|ALIN||M|1987-05-16|PRAHOVA|PLOIESTK|PROGRESULUI|35|35|B|0|20|0747689756||ALINMAIDAN@YAHOO.COM|DAVGL|DAVGL|0 Sobranie KS Black (8mg) Pack|Yes|Yes||BVR01784|ROMNIAL|Brasov|BVDTCBA48|189|CCC GFB Iarna 2014|121|Retail|0
0|CS3727859|2014-01-26 12:13:15|POPESCU|BOGDAN||M|1986-11-04|BUCURESTI|SECTOR 1|CALEA DOROBANTILOR|11|B||0|0|0724532751||BP.POPESCU@YAHOO.COM|WIBL||0 Winston Blue (6mg) Pack|Yes|Yes||BVR00724|SUSAI MONT SRL|Brasov|BVDTCBA46|189|CCC GFB Iarna 2014|121|Retail|0
0|CS3727860|2014-01-26 12:14:25|SOFRAN|CRISTINA|2760122080030|F|1976-01-22|BRASOV|BRASOV|ELC BABES|3|4|A|7|28|0754624078||SOFRAN.CRISTINA@YAHOO.COM|WISSB||0 Winston SS Blue (5mg) Pack|Yes|Yes||20347333|PICCOLO|Brasov|BVDTCBA49|189|CCC GFB Iarna 2014|121|Retail|0
0|CS3727863|2014-01-26 12:16:46|NEAGU|ALEXANDRU|1920416080086|M|1992-04-16|BRASOV|BRASOV|DASCALU COSTEA|8|-|-|-||0772275994||ALEXN.BV@GMAIL.COM|MBRGLT|LSRD|0 Winston XStyle Blue (6mg) Pack|Yes|Yes||20362683|UNI-FIT 2000 (Apreski)|Brasov|BVDTCBA45|189|CCC GFB Iarna 2014|121|Retail|0
0|CS3727868|2014-01-26 12:21:09|FOLA|NICOLAE|1920627261969|M|1992-06-27|MURES|SOLOVASTRU|PRINCIPALA|154|-|-|-||0748929014||NICU_COLA@YAHOO.COM|LMBL|KTSV|0 Winston XStyle Blue (6mg) Pack|Yes|Yes||20362683|UNI-FIT 2000 (Apreski)|Brasov|BVDTCBA45|189|CCC GFB Iarna 2014|121|Retail|0
0|CS3727871|2014-01-26 12:23:57|ISCU|GEORGE|1820213460029|M|1982-02-13|BUCURESTI|BUCURESTI|IULIU MANIU|170|H|C|4|127|0724510944||IGEORGEMIHAITA@YAHOO.COM|DUNFCBB||0 Sobranie KS Gold  (4mg) Pack|Yes|No||BV004948|OMV PREDEAL|Brasov|BVDTCBA36|189|CCC GFB Iarna 2014|121|Retail|0
0|CS3727877|2014-01-26 12:28:18|DONCIU|OCTAVIAN|1860216170090|M|1986-02-16|GALATI|GALATI|ENERGIEI|5|10A|C|4|56|0758611080||NOEMITIT12@GMAIL.COM|PARAB||0 Sobranie KS Black (8mg) Pack|Yes|Yes||20347333|PICCOLO|Brasov|BVDTCBA49|189|CCC GFB Iarna 2014|121|Retail|0
0|CS3727879|2014-01-26 12:30:25|TEODORESCU|RUXANDRA||F|1988-07-12|ARGES|PITESTI|MATEI BASARAB|12|-|-|-||0732144768||RUXANDRAMARIATEODORESCU@GMAIL.COM|KTSWIT|MBRGLFT|0 Winston Fresh XSpression (5mg) Pack|Yes|No||20362683|UNI-FIT 2000 (Apreski)|Brasov|BVDTCBA45|189|CCC GFB Iarna 2014|121|Retail|0
0|CS3727882|2014-01-26 12:31:27|TOCITU|MIHAI|1681024290011|M|1968-10-24|PRAHOVA|AZUGA|VICTORIEI|81|0|0|0|0|0723387410|||PMECBK||0 Winston 100s Classic (10mg) Pack|Yes|Yes||BV004948|OMV PREDEAL|Brasov|BVDTCBA36|189|CCC GFB Iarna 2014|121|Retail|0
0|CS3727886|2014-01-26 12:32:31|BURLACU|BOGDAN|1851009297269|M|1985-10-09|PRAHOVA|PLOIESTI|CAMELIEI|8|41|E|1|87|0744633881||BOGDANB.ORANGE@YAHOO.COM|SBKSGD||0 Sobranie KS Gold  (4mg) Pack|Yes|Yes||BVR00724|SUSAI MONT SRL|Brasov|BVDTCBA46|189|CCC GFB Iarna 2014|121|Retail|0
0|CS3727887|2014-01-26 12:33:10|CSIKI|ZSUZSANNA|2840624082353|F|1984-06-24|BRASOV|SACELE|NOUA|18|0|0|0|0|0743928923||ZSUZSA_OZSVATH@YAHOO.COM|KTSWITH|KTSWITH|0 Winston Fresh XSpression (5mg) Pack|Yes|Yes||BVR01784|ROMNIAL|Brasov|BVDTCBA48|189|CCC GFB Iarna 2014|121|Retail|0
0|CS3727888|2014-01-26 12:33:11|TRUTULESCU|ANA-MARIA||F|1986-01-05|BUZAU|BUZAU|UNIRII|12F||||7|0747012706||ANAMARIATRUTULESCU@YAHOO.COM|PMECBL||1 Bricheta WIN|Yes|Yes||BVR02143|SABIDO SKY SRL|Brasov|BVDTCBA32|189|CCC GFB Iarna 2014|121|Retail|0
0|CS3727892|2014-01-26 12:35:03|PALER|RAMONA|2820913080110|F|1982-09-13|BRASOV|CODLEA|LUNGA|19|-|-|-||0766574044||MONA_PRIBOI@YAHOO.COM|DAVGLS||0 Sobranie SS Black (6mg) Pack|Yes|Yes||20347333|PICCOLO|Brasov|BVDTCBA49|189|CCC GFB Iarna 2014|121|Retail|0
0|CS3727896|2014-01-26 12:35:44|PREDA|MIHAI||M|1986-06-07|ARGES|PITESTI|FRATII GOLESTI|63|S6|A|4|17|0727362426||PREDAMIHAI@GMAIL.COM|KTBL|MBRGL|0 Winston XStyle Blue (6mg) Pack|Yes|No||20362683|UNI-FIT 2000 (Apreski)|Brasov|BVDTCBA45|189|CCC GFB Iarna 2014|121|Retail|0
0|CS3727899|2014-01-26 12:38:27|CHELARU|RADU|1860129385563|M|1986-01-29|BRASOV|BRASOV|TABLEI|16|-|-|-||0745122920||CHELARU.RADU@YAHOO.COM|CAFI||0 Sobranie KS Black (8mg) Pack|Yes|Yes||20347333|PICCOLO|Brasov|BVDTCBA49|189|CCC GFB Iarna 2014|121|Retail|0
0|CS3727904|2014-01-26 12:41:29|MUSAT|GABRIEL||M|1980-07-29|PRAHOVA|BUSTENI|BRUMARELELOR|3|0|0|0|0|0724549053||MFTGABI@YAHOO.COM|KTBL||0 Winston XStyle Blue (6mg) Pack|Yes|Yes||BV001621|ODIDESIGN CONSTRUCT CAZACU|Brasov|BVDTCBA34|189|CCC GFB Iarna 2014|121|Retail|0
0|CS3727909|2014-01-26 12:43:45|SIKO|ROBERT|1880109080111|M|1988-01-09|BRASOV|BRASOV|MIRCEA CEL BATRAN|49|36|C|10|43|0736358068||SIKO.ROBERT@YAHOO.COM|KTBL||0 Winston XStyle Blue (6mg) Pack|Yes|Yes||20347333|PICCOLO|Brasov|BVDTCBA49|189|CCC GFB Iarna 2014|121|Retail|0
0|CS3727917|2014-01-26 12:47:36|TUTUI|DORIN|1750128083403|M|1975-01-28|BRASOV|PREDEAL|PANDUR|6|0|0|0|0|0764494822||TUTUIDORU@YAHOO.COM|PMECBK||0 Winston 100s Classic (10mg) Pack|Yes|Yes||BVR02143|SABIDO SKY SRL|Brasov|BVDTCBA32|189|CCC GFB Iarna 2014|121|Retail|0
0|CS3727920|2014-01-26 12:49:46|BUZAIANU|OVIDIU||M|1979-04-12|BRASOV|PREDEAL|GEORGE COSBUC|24|||0|0|0768461878||INSTRUCTORSKI2008@YAHOO.COM|PMECBK||0 Winston 100s Classic (10mg) Pack|Yes|Yes||BVR02143|SABIDO SKY SRL|Brasov|BVDTCBA32|189|CCC GFB Iarna 2014|121|Retail|0
0|CS3727922|2014-01-26 12:50:17|POPESCU|CATALIN|1880517035264|M|1988-05-17|ARGES|PITESTI|ROMEO TUTA|24|-|-|-||0766695091||CATAPOPCATA@YAHOO.COM|SBKSGD||0 Sobranie KS Gold  (4mg) Pack|Yes|Yes||20347333|PICCOLO|Brasov|BVDTCBA49|189|CCC GFB Iarna 2014|121|Retail|0
0|CS3727929|2014-01-26 12:52:34|MICU|GEORGE ALIN|1830214296349|M|1983-02-14|BRASOV|PREDEAL|CAPRIOAREI|15|5|||5|0784803494||MIC_ALLIN@YAHOO.COM|KTSWIT||0 Winston Fresh XSpression (5mg) Pack|Yes|Yes||BVR00724|SUSAI MONT SRL|Brasov|BVDTCBA46|189|CCC GFB Iarna 2014|121|Retail|0
0|CS3727932|2014-01-26 12:53:12|ROMAN|MIRUNA|2860605100207|F|1986-06-05|BUZAU|BUZAU|BAZAR|1|B|0|0|8|0747011411||MIRUNA20012001@YAHOO.COM|SBSSWH||0 Sobranie SS White (1mg) Pack|Yes|Yes||BVR02143|SABIDO SKY SRL|Brasov|BVDTCBA32|189|CCC GFB Iarna 2014|121|Retail|0
0|CS3727941|2014-01-26 12:57:28|CORBU|ANDRADA||F|1987-11-11|BUCURESTI|SECTOR 5|IACOB ANDREI|31|||0|0|0769612568||CORBUANDRADAROXANA@YAHOO.COM|PMSSGR||0 Winston SS Menthol (3mg) Pack|Yes|Yes||BVR00724|SUSAI MONT SRL|Brasov|BVDTCBA46|189|CCC GFB Iarna 2014|121|Retail|0
0|CS3727949|2014-01-26 13:01:34|GOGA|ADRIAN|1850909420071|M|1985-09-09|BUCURESTI|BUCURESTI|HOBITA|8|303|1|1|5|0723144639||ADY_GOGA@YAHOO.COM|PMSSGR||0 Winston SS Menthol (3mg) Pack|Yes|Yes||BVR00724|SUSAI MONT SRL|Brasov|BVDTCBA46|189|CCC GFB Iarna 2014|121|Retail|0
0|CS3727951|2014-01-26 13:01:41|PATRONIC|CLAUDIU||M|1978-05-27|BRASOV|BRASOV|CETATII|29|0|0|8|36|0748188330||PATRONICCLSUDIU@YAHOO.COM|KTBLH|KTBLH|0 Winston XStyle Blue (6mg) Pack|Yes|Yes||BVR01784|ROMNIAL|Brasov|BVDTCBA48|189|CCC GFB Iarna 2014|121|Retail|0
0|CS3727955|2014-01-26 13:04:44|SANDU|MARIUS|1870629340924|M|1987-06-29|ILFOV|1DECEMBRIE|ARTISTILOR|61|PK3|2|3|21|0767080519||MARIUS_0112@YAHOO.COM|WISSM||0 Winston SS Menthol (3mg) Pack|Yes|Yes||BVR00724|SUSAI MONT SRL|Brasov|BVDTCBA46|189|CCC GFB Iarna 2014|121|Retail|0
0|CS3727961|2014-01-26 13:06:43|PALER|IONUT|1830802385599|M|1983-10-02|BRASOV|CODLEA|LUNGA|19|-|-|-||0766523548||EXTREM.ROUTE@YAHOO.COM|DUNFCMBB||0 Sobranie KS Black (8mg) Pack|Yes|Yes||20347333|PICCOLO|Brasov|BVDTCBA49|189|CCC GFB Iarna 2014|121|Retail|0
0|CS3727969|2014-01-26 13:11:30|PROFIR|FLORIN|1880428080055|M|1988-04-28|BRASOV|CODLEA|NORDULUI|10|10|A|1|8|0784204991||FLORIN70@YAHOO.COM|DAVGLS||0 Sobranie SS Black (6mg) Pack|Yes|Yes||20347333|PICCOLO|Brasov|BVDTCBA49|189|CCC GFB Iarna 2014|121|Retail|0
0|CS3727976|2014-01-26 13:17:17|MIHAI|IOANA||F|1992-12-28|BRASOV|BRASOV|MEMORANDUMULUI|15|1|1|2|220|0731032251||AV_DANUTZAMIHAI@YAHOO.COM|GLMBL|VOGLL|0 Sobranie SS Pink (3mg) Pack|Yes|Yes||20362683|UNI-FIT 2000 (Apreski)|Brasov|BVDTCBA45|189|CCC GFB Iarna 2014|121|Retail|0
0|CS3727977|2014-01-26 13:17:21|VATASERU|ALEXANDRU|1880324297295|M|1987-03-18|BRASOV|BRASOV|TAMPEI|8|A2|0|2|8|0767825269||VATASERU.ALEX@YAHOO.COM|LSRD|LSRD|0 Winston Classic (10mg) Pack|Yes|Yes||BVR01784|ROMNIAL|Brasov|BVDTCBA48|189|CCC GFB Iarna 2014|121|Retail|0
0|CS3727981|2014-01-26 13:19:15|VENCU|MIHAI||M|1980-11-27|BUCURESTI|SECTOR 1|ALEEA SOMESULUI RECE|2024|3|3|3|45|0722405881||MIHAIVENCU@YAHOO.COM|SBKSBL||0 Sobranie KS Blue (6mg) Pack|Yes|Yes||BV001621|ODIDESIGN CONSTRUCT CAZACU|Brasov|BVDTCBA34|189|CCC GFB Iarna 2014|121|Retail|0
0|CS3727991|2014-01-26 13:24:38|CRANGUS|CLAUDIA||F|1976-10-02|BRASOV|BRASOV|DEMIJLOC|91|||||0766477121||CRANGUSCLAUDIA@YAHOO.COM|PMECBL||0 Winston 100s Blue (6mg) Pack|Yes|Yes||BV001621|ODIDESIGN CONSTRUCT CAZACU|Brasov|BVDTCBA34|189|CCC GFB Iarna 2014|121|Retail|0
0|CS3727999|2014-01-26 13:29:27|TUREA|RADU||M|1992-03-13|PRAHOVA|AZUGA|PRAHOVEI|16|||||0720264213||SORYX92@YAHOO.COM|PMSSBL||0 Winston SS Blue (5mg) Pack|Yes|Yes||BV001621|ODIDESIGN CONSTRUCT CAZACU|Brasov|BVDTCBA34|189|CCC GFB Iarna 2014|121|Retail|0
0|CS3728000|2014-01-26 13:29:37|VISAN|CLAUDIU||M|1985-02-13|BRASOV|BRASOV|ALEEA MAGNOLIEI|16|101|B|O|4|0748622180||CAUFISHI@YAHOO.COM|PMBL|PMBL|0 Winston XStyle Blue (6mg) Pack|Yes|Yes||BVR01784|ROMNIAL|Brasov|BVDTCBA48|189|CCC GFB Iarna 2014|121|Retail|0
0|CS3728008|2014-01-26 13:35:11|AFRASINEI|IULIAN|1880304080051|M|1988-03-04|BRASOV|RASNOV|CAMPULUI|1|6|C|3|14|0743782513||OVIDIU_IULI@YAHOO.COM|PMBL||0 Winston XStyle Blue (6mg) Pack|Yes|Yes||20347333|PICCOLO|Brasov|BVDTCBA49|189|CCC GFB Iarna 2014|121|Retail|0
0|CS3728009|2014-01-26 13:35:12|ANDREI|MARIAN|1841008430033|M|1984-10-08|BUCURESTI|SECTOR 3|LABORATOR|141|S9|1|8|49|0747297239||PYT_ANDREI@YAHOO.COM|PMECBL||0 Winston 100s Blue (6mg) Pack|Yes|Yes||BVR02143|SABIDO SKY SRL|Brasov|BVDTCBA32|189|CCC GFB Iarna 2014|121|Retail|0
0|CS3728010|2014-01-26 13:36:20|CARP|CORINA||F|1976-08-24|CONSTANTA|CONSTANTA|PORCU.UI|15A|0|0|0|0|0727372735||CORINA_CARP76@YAHOO.COM|KTWH|KTWH|0 Winston XStyle Silver (4mg) Pack|Yes|Yes||BVR01784|ROMNIAL|Brasov|BVDTCBA48|189|CCC GFB Iarna 2014|121|Retail|0
0|CS3728013|2014-01-26 13:36:50|ZUGRAVU|ISABELA|2861003132804|F|1986-10-03|CONSTANTA|CONSTANTA|TOMIS|313|2A|A|9|40|0724150911||ZUGRAVU.ISABELA@YAHOO.COM|VIRSV||0 Winston SS Silver (3mg) Pack|Yes|Yes||BVR02143|SABIDO SKY SRL|Brasov|BVDTCBA32|189|CCC GFB Iarna 2014|121|Retail|0
0|CS3728015|2014-01-26 13:37:56|GRIGORE|MADALINA|2930813440022|F|1993-08-13|BUCURESTI|BUCURESTI|FERMEI|16F||||2|0731063113||MADALINA.GRIGORE@YAHOO.COM|VIRSM||0 Winston SS Menthol (3mg) Pack|Yes|Yes||BV004948|OMV PREDEAL|Brasov|BVDTCBA36|189|CCC GFB Iarna 2014|121|Retail|0
0|CS3728016|2014-01-26 13:39:30|CRANTEA|NICOLETA|2841126134185|M|1984-11-26|CONSTANTA|LAZU|GRIGORE MOISIL|36|0|0|0|0|0721692627||NICOLETA_2684@YAHOO.COM|VIRSV||0 Winston SS Silver (3mg) Pack|Yes|Yes||BVR02143|SABIDO SKY SRL|Brasov|BVDTCBA32|189|CCC GFB Iarna 2014|121|Retail|0
0|CS3728020|2014-01-26 13:41:23|POP|SERGIU|1720417080027|M|1972-04-17|BRASOV|BRASOV|COCORULUI|14|215|B|3|13|0743773639||POPSERGIU@YAHOO.COM|ROTH||0 Winston Classic (10mg) Pack|Yes|Yes||20347333|PICCOLO|Brasov|BVDTCBA49|189|CCC GFB Iarna 2014|121|Retail|0
0|CS3728026|2014-01-26 13:45:31|FARCAS|LUCIAN|1831221125833|M|1983-12-21|CLUJ|CLUJ NAPOCA|VANATORULUI|20|-|-|-||0745547451||LUCIFARCAS83@YAHOO.COM|KTSV||0 Winston XStyle Silver (4mg) Pack|Yes|Yes||20347333|PICCOLO|Brasov|BVDTCBA49|189|CCC GFB Iarna 2014|121|Retail|0
0|CS3728034|2014-01-26 13:51:07|CHISALITA-IGNAT|VIOLETA||F|1970-09-30|BRASOV|BRASOV|NEPTUN|13|0|A|4|20|0751985654||COK_BV@YAHOO.COM|DUNFCSB|DUNFCSB|0 Sobranie KS Black (8mg) Pack|Yes|Yes||BVR01784|ROMNIAL|Brasov|BVDTCBA48|189|CCC GFB Iarna 2014|121|Retail|0
0|CS3728035|2014-01-26 13:51:51|MOLDOVEANU|ROBERT|1850820430135|M|1985-08-20|BUCURESTI|BUCURESTI|VALEA BUZAULUI|14|G26BI|2|2|46|0766697880||MOLDOVEANUROBERT@GMAIL.COM|KTBL||0 Winston XStyle Blue (6mg) Pack|Yes|Yes||BV004948|OMV PREDEAL|Brasov|BVDTCBA36|189|CCC GFB Iarna 2014|121|Retail|0
0|CS3728037|2014-01-26 13:52:16|BURAC|MIHAI OVIDIU|1840119080067|M|1984-01-19|BRASOV|BRASOV|CREANGA|3|21|B|0|9|0767009797||OVIMUHAI10@YAHOO.COM|KTBL||0 Winston XStyle Blue (6mg) Pack|Yes|Yes||20347333|PICCOLO|Brasov|BVDTCBA49|189|CCC GFB Iarna 2014|121|Retail|0
0|CS3728041|2014-01-26 13:54:02|BOLDEANU|ALEXANDRU|1860904070121|M|1986-09-04|CONSTANTA|CONSTANTA|FERDINAND|94|F19B|B|4|45|0721559439||ALEX.BOLDEANU@GMAIL.COM|SBKSBL||0 Sobranie KS Blue (6mg) Pack|Yes|Yes||BVR00724|SUSAI MONT SRL|Brasov|BVDTCBA46|189|CCC GFB Iarna 2014|121|Retail|0
0|CS3728042|2014-01-26 13:55:51|STOICA|LIVIA|2740702100023|F|1974-07-02|BUCURESTI|BUCURESTI|ALEEA OPRESAN|5|OD52|C||91|0752222372||LIXSTOICA@YAHOO.COM|WISSB||1 Bricheta WIN|Yes|Yes||BV004948|OMV PREDEAL|Brasov|BVDTCBA36|189|CCC GFB Iarna 2014|121|Retail|0
0|CS3728043|2014-01-26 13:56:01|PARJOL|CORNELIA||F|1963-10-21|BUCURESTI|SECTOR 5|SEBASTIAN|11|S30||4||0723576220||CORNELIA_PARJOL@YAHOO.COM|GLMBL||0 Sobranie SS Pink (3mg) Pack|Yes|Yes||BV001621|ODIDESIGN CONSTRUCT CAZACU|Brasov|BVDTCBA34|189|CCC GFB Iarna 2014|121|Retail|0
0|CS3728046|2014-01-26 13:58:44|CAPRAROIU|MONICA|2601115400831|F|1960-11-15|BUCURESTI|BUCURESTI|NICOLAE TITULESCU|1|A7|B|7|53|0722501772||MONICA.CAPRAROIU@YAHOO.COM|DAVSVSS||0 Sobranie SS Pink (3mg) Pack|Yes|Yes||20347333|PICCOLO|Brasov|BVDTCBA49|189|CCC GFB Iarna 2014|121|Retail|0
0|CS3728048|2014-01-26 14:00:24|MARIAN|ANDRA||F|1987-02-06|BRASOV|BRASOV|TAMPEI|10|||||0724522266||MARIANANDRA@YAHOO.COM|WIBL||0 Winston Blue (6mg) Pack|Yes|Yes||BV001621|ODIDESIGN CONSTRUCT CAZACU|Brasov|BVDTCBA34|189|CCC GFB Iarna 2014|121|Retail|0
0|CS3728052|2014-01-26 14:01:32|POPAN|OVIDIU|1820126080092|M|1982-01-26|BRASOV|BRASOV|CONSTRUCTORILOR|16|10||2|227|0741605813||OVI.POPAN@YAHOO.COM|DUNFCMBB|KTSWIT|0 Sobranie KS Black (8mg) Pack|Yes|Yes||20362683|UNI-FIT 2000 (Apreski)|Brasov|BVDTCBA45|189|CCC GFB Iarna 2014|121|Retail|0
0|CS3728056|2014-01-26 14:03:59|OSLOBANU|CLAUDIA|2870218336371|F|1987-02-18|BRASOV|SACELE|EPISCOP POPEEA|6|6|A|2|11|0748968990||CLAUDIA.OSLOBANU@GMAIL.COM|WISSB||0 Winston SS Blue (5mg) Pack|Yes|Yes||BVR00724|SUSAI MONT SRL|Brasov|BVDTCBA46|189|CCC GFB Iarna 2014|121|Retail|0
0|CS3728057|2014-01-26 14:04:44|POPOVICIU|NICOLAID|1711101080019|M|1971-11-01|BRASOV|BRASOV|VRANCEI|4|0|0|0|0|0737375079||POPOVICIU-NICOLIE@YAHOO.COM|WIBLH|WIBLH|0 Winston 100s Blue (6mg) Pack|Yes|Yes||BVR01784|ROMNIAL|Brasov|BVDTCBA48|189|CCC GFB Iarna 2014|121|Retail|0
0|CS3728059|2014-01-26 14:05:35|PINTEA|SABINA|2870102080050|F|1987-01-02|BRASOV|BRASOV|COLONEL BUZOIANU|22BIS|-|-|-|2|0768636146||SABINAE31@GMAIL.COM|DAVIDBL|WIBLH|0 Sobranie KS Blue (6mg) Pack|Yes|Yes||20362683|UNI-FIT 2000 (Apreski)|Brasov|BVDTCBA45|189|CCC GFB Iarna 2014|121|Retail|0
0|CS3728061|2014-01-26 14:07:01|MUNTEANU|ANDREI|1881024080034|M|1988-10-24|BRASOV|PREDEAL|NATIONALA|73|0|0|0|0|0741462295||TB_GURITZU@YAHOO.COM|WIXSTSV||1 Bricheta XST|Yes|Yes||BVR02143|SABIDO SKY SRL|Brasov|BVDTCBA32|189|CCC GFB Iarna 2014|121|Retail|0
0|CS3728062|2014-01-26 14:07:16|TALEANU|ANAMARIA||F|1987-09-09|PRAHOVA|AZUGA|RONDULUI|13|||||0748873400||ANAMARIA20CURLY@YAHOO.COM|VIRSPR||0 Winston SS Blue (5mg) Pack|Yes|No||BV001621|ODIDESIGN CONSTRUCT CAZACU|Brasov|BVDTCBA34|189|CCC GFB Iarna 2014|121|Retail|0
0|CS3728065|2014-01-26 14:09:04|CREANGA|DANIEL|1630320084459|M|1963-03-20|BRASOV|SACELE|MIHAI EMINESCU|10|||||0730653717||CREANGADANIEL63@YAHOO.COM|WIBL||0 Winston Blue (6mg) Pack|Yes|Yes||BVR00724|SUSAI MONT SRL|Brasov|BVDTCBA46|189|CCC GFB Iarna 2014|121|Retail|0
0|CS3728066|2014-01-26 14:09:37|VINTER|GEORGETA|2751227080014|F|1975-12-27|BRASOV|BRASOV|DE MIJLOC|71|-|-|-||0745319873||VINTER@YAHOO.COM|VIRSM||0 Winston SS Menthol (3mg) Pack|Yes|Yes||20347333|PICCOLO|Brasov|BVDTCBA49|189|CCC GFB Iarna 2014|121|Retail|0
0|CS3728067|2014-01-26 14:10:17|PAS ARI|ALINA|2750821080107|F|1975-08-21|BRASOV|BRASOV|BISERICI SF NICOLAIE|18|0|0|0|0|0721653518||FLORINA_S21@YAHOO.COM|PMECBK|PMECBK|0 Winston 100s Classic (10mg) Pack|Yes|Yes||BVR01784|ROMNIAL|Brasov|BVDTCBA48|189|CCC GFB Iarna 2014|121|Retail|0
0|CS3728069|2014-01-26 14:13:06|PANTILIMON|NICOLETA||F|1978-12-05|ARGES|PITESTI|FRATII GOLESTI|102|S10|D|6|25|0724637579||MININICO1978@YAHOO.COM|KTBL||0 Winston XStyle Blue (6mg) Pack|Yes|Yes||BVR02143|SABIDO SKY SRL|Brasov|BVDTCBA32|189|CCC GFB Iarna 2014|121|Retail|0
0|CS3728072|2014-01-26 14:14:40|MOT|ION||M|1978-01-07|PRAHOVA|AZUGA|RITIVOIU|19|||||0723409973|||WIBLH||0 Winston 100s Blue (6mg) Pack|Yes|Yes||BV001621|ODIDESIGN CONSTRUCT CAZACU|Brasov|BVDTCBA34|189|CCC GFB Iarna 2014|121|Retail|0
0|CS3728073|2014-01-26 14:14:51|PARASCHIV|MIHAI|1870806080098|M|1987-08-06|BRASOV|BRASOV|LAMINOARELOR|7|7|A|3|21|0742874815||PISIKARDELU@YAHOO.COM|KTBL|PMBL|0 Winston XStyle Blue (6mg) Pack|Yes|Yes||20362683|UNI-FIT 2000 (Apreski)|Brasov|BVDTCBA45|189|CCC GFB Iarna 2014|121|Retail|0
0|CS3728075|2014-01-26 14:16:46|ANDREI|CATALINA||F|1983-09-01|GALATI|GALATI|GALATI|25|R6|B|0|22|0745203767||CATALINA_MARIO_DIDI@YAHOO.COM|PARRSSMH||0 Sobranie SS Menthol (5 mg) Pack|Yes|Yes||20347333|PICCOLO|Brasov|BVDTCBA49|189|CCC GFB Iarna 2014|121|Retail|0
0|CS3728076|2014-01-26 14:17:43|LUPINELLI|VANESSA|2690401080044|F|1969-04-01|BRASOV|BRASOV|LUNGA|89|.|.|.||0746375435||VANESSATLMK@GMAIL.COM|SBKSGD|SBKSGD|0 Sobranie KS Gold  (4mg) Pack|Yes|Yes||BVR01784|ROMNIAL|Brasov|BVDTCBA48|189|CCC GFB Iarna 2014|121|Retail|0
0|CS3728077|2014-01-26 14:18:22|NEAGOE|DANIEL||M|1974-01-03|PRAHOVA|AZUGA|INDEPENDENTEI|45|||||0727108125|||KTBL||0 Winston XStyle Blue (6mg) Pack|Yes|Yes||BV001621|ODIDESIGN CONSTRUCT CAZACU|Brasov|BVDTCBA34|189|CCC GFB Iarna 2014|121|Retail|0
0|CS3728079|2014-01-26 14:20:43|CRACIUN|BOGDAN||M|1993-04-06|PRAHOVA|AZUGA|VALEA AZUGII|3|13||2|9|0737420913||BUBU_SMIL3@YAHOO.COM|KTSWIT||0 Winston Fresh XSpression (5mg) Pack|Yes|Yes||BV001621|ODIDESIGN CONSTRUCT CAZACU|Brasov|BVDTCBA34|189|CCC GFB Iarna 2014|121|Retail|0
0|CS3728080|2014-01-26 14:21:15|ANDREI|GHEORGHITA||M|1976-08-18|GALATI|GALATI|GALATI|25|R6|B|0|22|0743587908||GHEORGHITAAND@YAHOO.COM|PARAB||0 Sobranie KS Black (8mg) Pack|Yes|Yes||20347333|PICCOLO|Brasov|BVDTCBA49|189|CCC GFB Iarna 2014|121|Retail|0
0|CS3728081|2014-01-26 14:22:08|LUPIMELLI|ROBERTO||M|1963-10-20|BRASOV|BRASOV|LUNGA|89|.|.|.||0744884168||DELUVASRL@GMAIL.COM|MBRRD|MBRRD|0 Winston Classic (10mg) Pack|Yes|Yes||BVR01784|ROMNIAL|Brasov|BVDTCBA48|189|CCC GFB Iarna 2014|121|Retail|0
0|CS3728091|2014-01-26 14:32:37|CONSTANTIN|DANA|2890915297243|F|1989-09-15|BRASOV|BRASOV|IL CATABIALE|6|19|A|3|9|0727039428||CONSTANTI_DANA_GABRIELA@YAHOO.COM|DUNFCBB|DUNFCBB|0 Sobranie KS Gold  (4mg) Pack|Yes|Yes||BVR01784|ROMNIAL|Brasov|BVDTCBA48|189|CCC GFB Iarna 2014|121|Retail|0
0|CS3728094|2014-01-26 14:35:36|LAZAROIU|VIORICA||M|1968-02-02|BRASOV|PREDEAL|EROIILOR|5|15||||0725911179|||WIBLH||0 Winston 100s Blue (6mg) Pack|Yes|Yes||BVR00724|SUSAI MONT SRL|Brasov|BVDTCBA46|189|CCC GFB Iarna 2014|121|Retail|0
0|CS3728098|2014-01-26 14:38:24|SERBAN|COSMIN|1681017290014|M|1968-10-17|PRAHOVA|AZUGA|POSTAVARIEI|7A|||||0766662480||MIHAICOSMIN_SERBAN@YAHOO.COM|PMECAFRD||0 Winston Classic (10mg) Pack|Yes|Yes||BV004948|OMV PREDEAL|Brasov|BVDTCBA36|189|CCC GFB Iarna 2014|121|Retail|0
0|CS3728101|2014-01-26 14:40:32|CAPRAROIU|SUZANS||F|1985-10-03|BUCURESTI|BUCURESTI|NICOLAIE TITULESCU|1|A7|0|0|0|0753094722||SUZANA.CAPRAROIU@GMAIL.COM|PMSV|PMSV|0 Winston XStyle Silver (4mg) Pack|Yes|Yes||BVR01784|ROMNIAL|Brasov|BVDTCBA48|189|CCC GFB Iarna 2014|121|Retail|0
0|CS3728102|2014-01-26 14:40:52|MLADIN|DENISA||F|1992-09-30|BRASOV|SANPETRU|TRAIAN VUIA|681|0|0|P|0|0754930459||MLADIN.DENISA30@YAHOO.COM|SBSSMN||0 Sobranie SS Menthol (5 mg) Pack|Yes|Yes||BVR02143|SABIDO SKY SRL|Brasov|BVDTCBA32|189|CCC GFB Iarna 2014|121|Retail|0
0|CS3728103|2014-01-26 14:41:38|PATRASCU|BOGDAN|1670830163322|M|1967-08-30|BUCURESTI|BUCURESTI|DINICU GOLESCU|23-25||C|3|30|0745467904|||WICL||0 Winston Classic (10mg) Pack|Yes|Yes||BV004948|OMV PREDEAL|Brasov|BVDTCBA36|189|CCC GFB Iarna 2014|121|Retail|0
0|CS3728108|2014-01-26 14:44:41|FALCA|ANTOANELA||F|1975-09-12|BUCURESTI|BUCURESTI|AVIATOR CARANDA|1|J|1|0|1|0745998546||ANTUANELA_F@YAHOO.COM|MBRGLFT|MBRGLFT|0 Winston XStyle Silver (4mg) Pack|Yes|Yes||BVR01784|ROMNIAL|Brasov|BVDTCBA48|189|CCC GFB Iarna 2014|121|Retail|0
0|CS3728109|2014-01-26 14:46:29|CARSTOI|DUMITRU IONITA||M|1968-03-16|BRASOV|PREDEAL|POIANA NARCISELOR|0|7|0|0|1|0723159901|||PMECBL||0 Winston 100s Blue (6mg) Pack|Yes|Yes||BVR02143|SABIDO SKY SRL|Brasov|BVDTCBA32|189|CCC GFB Iarna 2014|121|Retail|0
0|CS3728110|2014-01-26 14:46:33|MUNTEAN|MINODORA||F|1967-10-10|BRASOV|FAGARAS|DR. TITU PERTIA|6|6|A|-|1|0768080608||DORADURUS@YAHOO.COM|PMSSBL|VIRSV|0 Winston SS Blue (5mg) Pack|Yes|Yes||20362683|UNI-FIT 2000 (Apreski)|Brasov|BVDTCBA45|189|CCC GFB Iarna 2014|121|Retail|0
0|CS3728120|2014-01-26 14:49:41|FILIP|MIHAI|1840407460052|M|1984-04-07|BUCURESTI|BUCURESTI|FUIORULUI|2|Y3D|4|2|175|0724556024||FILIPMIHAI84@YAHOO.COM|SBSSWH||0 Sobranie SS White (1mg) Pack|Yes|Yes||BV004948|OMV PREDEAL|Brasov|BVDTCBA36|189|CCC GFB Iarna 2014|121|Retail|0
0|CS3728127|2014-01-26 14:57:24|BORVIZ|ALEXANDRU||M|1969-12-17|BRASOV|BRASOV|LAMAITEI|76|70|B|3|69|0743371923||ALEX7@YAHOO.COM|KTSWIT|WISSM|0 Winston Fresh XSpression (5mg) Pack|Yes|Yes||20362683|UNI-FIT 2000 (Apreski)|Brasov|BVDTCBA45|189|CCC GFB Iarna 2014|121|Retail|0
0|CS3728131|2014-01-26 14:59:50|BALTA|VERONICA||F|1986-06-10|BRAILA|BRAILA|DACIA|1|23||||0765529946||VERONICA_BALTA@YAHOO.COM|WISSS||0 Winston SS Silver (3mg) Pack|Yes|Yes||BV001621|ODIDESIGN CONSTRUCT CAZACU|Brasov|BVDTCBA34|189|CCC GFB Iarna 2014|121|Retail|0
0|FS1326399|2014-01-25 12:51:08||||M|||||||||||||KTBL||||||||||189|CCC GFB Iarna 2014|121|Retail|0
0|FS1326554|2014-01-25 13:15:30||||M|||||||||||||KTBL||||||||||189|CCC GFB Iarna 2014|121|Retail|0
0|FS1326636|2014-01-25 13:26:33||||M|||||||||||||MBRGLFT||||||||||189|CCC GFB Iarna 2014|121|Retail|0
0|FS1326642|2014-01-25 13:27:51||||M|||||||||||||MBRGL||||||||||189|CCC GFB Iarna 2014|121|Retail|0
0|FS1326764|2014-01-25 13:46:57||||F|||||||||||||KTBL||||||||||189|CCC GFB Iarna 2014|121|Retail|0
0|FS1326806|2014-01-25 13:54:08|||||||||||||||||DUNFCMBB||||||||||189|CCC GFB Iarna 2014|121|Retail|0
0|FS1326988|2014-01-25 14:26:05|||||||||||||||||KTBL||||||||||189|CCC GFB Iarna 2014|121|Retail|0
0|FS1327024|2014-01-25 14:33:19||||M|||||||||||||KTBL||||||||||189|CCC GFB Iarna 2014|121|Retail|0
0|FS1327026|2014-01-25 14:33:33||||M|||||||||||||VIRSM||||||||||189|CCC GFB Iarna 2014|121|Retail|0
0|FS1327119|2014-01-25 14:51:11||||M|||||||||||||LMRDH||||||||||189|CCC GFB Iarna 2014|121|Retail|0
0|FS1329341|2014-01-26 11:30:56|||||||||||||||||PMBL||||||||||189|CCC GFB Iarna 2014|121|Retail|0
0|FS1329422|2014-01-26 11:44:34|||||||||||||||||MBRGLH||||||||||189|CCC GFB Iarna 2014|121|Retail|0
0|FS1329561|2014-01-26 12:07:53||||M|||||||||||||KTSV||||||||||189|CCC GFB Iarna 2014|121|Retail|0
0|FS1329584|2014-01-26 12:11:05|||||||||||||||||LSRD||||||||||189|CCC GFB Iarna 2014|121|Retail|0
0|FS1329613|2014-01-26 12:15:50|||||||||||||||||MBRGLT||||||||||189|CCC GFB Iarna 2014|121|Retail|0
0|FS1329727|2014-01-26 12:34:33|||||||||||||||||MBRFP||||||||||189|CCC GFB Iarna 2014|121|Retail|0
0|FS1329797|2014-01-26 12:43:21||||F|||||||||||||VOGABP||||||||||189|CCC GFB Iarna 2014|121|Retail|0
0|FS1329857|2014-01-26 12:53:33|||||||||||||||||KTNWH||||||||||189|CCC GFB Iarna 2014|121|Retail|0
0|FS1329981|2014-01-26 13:16:58|||||||||||||||||KTBL6||||||||||189|CCC GFB Iarna 2014|121|Retail|0
0|FS1330133|2014-01-26 13:45:20|||||||||||||||||MBRGLT||||||||||189|CCC GFB Iarna 2014|121|Retail|0
0|FS1330256|2014-01-26 14:15:34|||||||||||||||||MBRGL||||||||||189|CCC GFB Iarna 2014|121|Retail|0
0|FS1330296|2014-01-26 14:28:01|||||||||||||||||DUNFCMBB||||||||||189|CCC GFB Iarna 2014|121|Retail|0
0|FS1330337|2014-01-26 14:45:26|||||||||||||||||DUNFCSB||||||||||189|CCC GFB Iarna 2014|121|Retail|0
