0|CS3191223|2012-12-10 12:38:40|Stirbu|Marian||M|1989-08-16|Bucuresti|3|Aleea ilioara|3|Pm27|D|6|134|0755029771||m.stirbu89@yahoo.com|KTSV||Bricheta Camel|Yes|Yes||BWR05229|MAGNUM TRADE 2000 SRL|Bucuresti|BWDTCBA61|89|CCC MULTI Regie 2012|121|Retail|0
0|CS3191255|2012-12-10 13:07:03|Bichir|Ionut||M|1985-06-09|Bucuresti|6|Splaiul independentei|290|P12|0|4|415|0764331599||jony_atr@yahoo.com|KTBLH||Winston 100s Blue (6 mg)  Pack|Yes|Yes||BWR05229|MAGNUM TRADE 2000 SRL|Bucuresti|BWDTCBA61|89|CCC MULTI Regie 2012|121|Retail|0
0|CS3191258|2012-12-10 13:08:03|Iancu|Daniel||M|1988-09-10|Bucuresti|6|Splaiul independentei|290|P21|0|0|23|0722445122||iancu_daniel@yahoo.com|KTBLH||Winston 100s Blue (6 mg)  Pack|Yes|Yes||BWR05229|MAGNUM TRADE 2000 SRL|Bucuresti|BWDTCBA61|89|CCC MULTI Regie 2012|121|Retail|0
0|CS3191260|2012-12-10 13:08:57|Radu|Virgil||M|1987-09-04|Bucuresti|6|Splaiul independentei|290|P22|0|3|310|0733491522||radu_1987@yahoo.com|KTBLH||Winston 100s Blue (6 mg)  Pack|Yes|Yes||BWR05229|MAGNUM TRADE 2000 SRL|Bucuresti|BWDTCBA61|89|CCC MULTI Regie 2012|121|Retail|0
0|CS3191283|2012-12-10 13:17:03|Gheorghe|Radu||M|1983-03-02|Bucuresti|6|Sp independentei|290|P12|1|1|112|0765181565||raducu_2383@yahoo.com|KTH||Winston 100s Clasic (10 mg)  Pack|Yes|Yes||BWR05229|MAGNUM TRADE 2000 SRL|Bucuresti|BWDTCBA61|89|CCC MULTI Regie 2012|121|Retail|0
0|CS3191286|2012-12-10 13:18:42|Cobzaru|Gabriela||F|1986-11-04|Bucuresti|6|Splaiul independentei|290|P23|0|3|323|0723330951||cobzaru_gabriela@yahoo.com|KTH||Winston 100s Clasic (10 mg)  Pack|Yes|Yes||BWR05229|MAGNUM TRADE 2000 SRL|Bucuresti|BWDTCBA61|89|CCC MULTI Regie 2012|121|Retail|0
0|CS3191289|2012-12-10 13:21:30|Iordache|Vasile||M|1980-09-25|Bucuresti|6|Splaiul independentei|290|P27|0|P|13|0784546875||vasile.098@yahoo.com|KTH||Winston 100s Clasic (10 mg)  Pack|Yes|Yes||BWR05229|MAGNUM TRADE 2000 SRL|Bucuresti|BWDTCBA61|89|CCC MULTI Regie 2012|121|Retail|0
0|CS3191292|2012-12-10 13:22:24|Niculae|Florentina||F|1965-10-13|Bucuresti|6|Splaiul independentei|290|P27|0|0|14|0767761771||niculaeflorentina@yahoo.com|KTH||Winston 100s Clasic (10 mg)  Pack|Yes|Yes||BWR05229|MAGNUM TRADE 2000 SRL|Bucuresti|BWDTCBA61|89|CCC MULTI Regie 2012|121|Retail|0
0|CS3191311|2012-12-10 13:37:34|Popa|Cosmin||M|1986-06-07|Bucuresti|1|Calea plevnei|92|10e|0|8|22|0730177241||cosmin.popa@coldwell-banker.ro|KTBL||Camel Black (6 mg) Pack|Yes|Yes||BWR05229|MAGNUM TRADE 2000 SRL|Bucuresti|BWDTCBA61|89|CCC MULTI Regie 2012|121|Retail|0
0|CS3191314|2012-12-10 13:40:41|Bucur|Gabriela||M|1989-02-21|Buzau|Buzau|Unirii|0|17B|A|1|8|0769684298||gabi_bucur@yahoo.com|KTBL||Camel Black (6 mg) Pack|Yes|Yes||BWR05229|MAGNUM TRADE 2000 SRL|Bucuresti|BWDTCBA61|89|CCC MULTI Regie 2012|121|Retail|0
0|CS3191326|2012-12-10 13:49:30|Crucianu|Ionut||M|1992-02-16|Bucuresti|1|Petofi sandor|3|0|0|0|0|0769818311||ionut.crucianu@eit.ro|DUNFCBB||Bricheta Camel|Yes|Yes||BWR05229|MAGNUM TRADE 2000 SRL|Bucuresti|BWDTCBA61|89|CCC MULTI Regie 2012|121|Retail|0
0|CS3191353|2012-12-10 14:14:23|Necula|Daniel||M|1988-01-31|Bucuresti|6|Splaiul independenti|290|P5|0|5|510|0763491522||nacula.daniel@yahoo.com|KTBLH||Mouse + Winston 100s Blue (6 mg)  Pack|Yes|Yes||BWR05229|MAGNUM TRADE 2000 SRL|Bucuresti|BWDTCBA61|89|CCC MULTI Regie 2012|121|Retail|0
0|CS3191356|2012-12-10 14:15:30|Cobzaru|Ionela||F|1990-03-20|Bucuresti|6|Splaiul independentei|290|P12|1|1|112|0765019493||creatza_ionela@yahoo.com|KTBLH||Winston 100s Blue (6 mg)  Pack|Yes|Yes||BWR05229|MAGNUM TRADE 2000 SRL|Bucuresti|BWDTCBA61|89|CCC MULTI Regie 2012|121|Retail|0
0|CS3191365|2012-12-10 14:23:26|Titere|Alexandru||M|1991-02-12|Vrancea|FOCSANI|Bd bucuresti|7|A1|1|4|18|0734426377||alexandrutitere@yahoo.com|DUNFCMBB||Camel Black (6 mg) Pack|Yes|Yes||BWR05229|MAGNUM TRADE 2000 SRL|Bucuresti|BWDTCBA61|89|CCC MULTI Regie 2012|121|Retail|0
0|CS3191379|2012-12-10 14:35:37|Burtan|Alina||F|1987-01-22|Bucuresti|6|Splaiul independentei|290|P27|0|0|15|0722332646||albinutza@yahoo.com|KTBLH||Winston 100s Blue (6 mg)  Pack|Yes|Yes||BWR05229|MAGNUM TRADE 2000 SRL|Bucuresti|BWDTCBA61|89|CCC MULTI Regie 2012|121|Retail|0
0|CS3191382|2012-12-10 14:36:48|Niculae|Sterian||M|1982-09-25|Bucuresti|6|Splaiul independentei|290|27|0|0|14|0784546875||sterian.niculae@yaho.com|KTBLH||Winston 100s Blue (6 mg)  Pack|Yes|Yes||BWR05229|MAGNUM TRADE 2000 SRL|Bucuresti|BWDTCBA61|89|CCC MULTI Regie 2012|121|Retail|0
0|CS3191391|2012-12-10 14:44:28|Manea|Florin||M|1991-11-20|Arges|MIOVENI|Soldat constantin Moga|0|A12|B|2|10|0734084498||florinmanea91@gmail.com|DUNFCMBB||Camel Black (6 mg) Pack|Yes|Yes||BWR05229|MAGNUM TRADE 2000 SRL|Bucuresti|BWDTCBA61|89|CCC MULTI Regie 2012|121|Retail|0
0|CS3191425|2012-12-10 15:06:17|Tudor|Teodor||M|1992-03-02|Teleorman|ALEXANDRIA|Bd bucuresti|5|3|2|2|2|0765918601||ttf_teo@yahoo.com|DUNFCMBB||Camel Black (6 mg) Pack|Yes|Yes||BWR05229|MAGNUM TRADE 2000 SRL|Bucuresti|BWDTCBA61|89|CCC MULTI Regie 2012|121|Retail|0
0|CS3191435|2012-12-10 15:12:42|Stanciu|Marian||M|1981-09-12|Bucuresti|6|Inginer teodorescu|11|0|0|0|0|0721170130||stanciumarian@yahoo.com|WICLH||Winston 100s Clasic (10 mg)  Pack|Yes|Yes||BWR05229|MAGNUM TRADE 2000 SRL|Bucuresti|BWDTCBA61|89|CCC MULTI Regie 2012|121|Retail|0
0|CS3191486|2012-12-10 15:35:50|Geanta|Cristina||F|1990-07-23|Arges|PITESTI|Traian|0|0|0|0|0|0761632534||cristinna.cristina@yahoo.com|PMBK||Bricheta Camel|No|Yes||BWR05229|MAGNUM TRADE 2000 SRL|Bucuresti|BWDTCBA61|89|CCC MULTI Regie 2012|121|Retail|0
0|CS3191504|2012-12-10 15:44:13|ilie|Victoria||F|1988-04-16|Bucuresti|5|Focsani|5|82|2|3|165|0766234288||gaby_vick@yahoo.com|VOGFLLL||Glamour Lilac (5mg) Pack|Yes|Yes||BWR05229|MAGNUM TRADE 2000 SRL|Bucuresti|BWDTCBA61|89|CCC MULTI Regie 2012|121|Retail|0
0|CS3191521|2012-12-10 15:52:08|Titere|Adrian||M|1990-12-01|Vrancea|FOCSANI|Iuliu maniu|2|V2|1|4|24|0760289159||titereadrian@gmail.com|CABK||Camel Black (6 mg) Pack|Yes|Yes||BWR05229|MAGNUM TRADE 2000 SRL|Bucuresti|BWDTCBA61|89|CCC MULTI Regie 2012|121|Retail|0
0|CS3191535|2012-12-10 15:57:38|Petcu|George||M|1988-04-03|Bucuresti|6|Splaiul independentei|290|P21|0|1|113|0722499522||petcu_george@yahoo.com|KTH||Winston 100s Clasic (10 mg)  Pack|Yes|Yes||BWR05229|MAGNUM TRADE 2000 SRL|Bucuresti|BWDTCBA61|89|CCC MULTI Regie 2012|121|Retail|0
0|CS3191540|2012-12-10 15:59:43|Dumitru|Ionut||M|1987-05-04|Bucuresti|6|Splaiul independentei|290|P21|0|3|314|0722383153||dumitru_ionut@yahoo.com|KTBLH||Winston 100s Blue (6 mg)  Pack|Yes|Yes||BWR05229|MAGNUM TRADE 2000 SRL|Bucuresti|BWDTCBA61|89|CCC MULTI Regie 2012|121|Retail|0
0|CS3191547|2012-12-10 16:02:24|Manole|Lucian||M|1983-04-21|Bucuresti|6|Barsanesti|0|0|0|0|0|0723169484||luciano_2120@yahoo.com|KTH||Winston 100s Clasic (10 mg)  Pack|Yes|Yes||BWR05229|MAGNUM TRADE 2000 SRL|Bucuresti|BWDTCBA61|89|CCC MULTI Regie 2012|121|Retail|0
0|CS3191713|2012-12-10 16:46:50|Gherghe|Cristina||F|1986-02-26|Bucuresti|SECTOR 3|Liviu Rebreanu|32A|PM70||0|38|0755352850||cristina6556@yahoo.com|KTCON|DUNFCMBB|Winston Fresh XSpression (5mg) Pack|Yes|Yes||BWR05229|MAGNUM TRADE 2000 SRL|Bucuresti|BWDTCBA80|89|CCC MULTI Regie 2012|121|Retail|0
0|CS3191722|2012-12-10 16:48:06|Gheorghe|Aurelia||F|1970-10-04|Bucuresti|SECTOR 6|Iacob andrei|1|19|1|4|20|0764710066||gheorghe.aurelia@yahoo.com|KTH||Winston 100s Clasic (10 mg)  Pack|Yes|Yes||BWR05229|MAGNUM TRADE 2000 SRL|Bucuresti|BWDTCBA80|89|CCC MULTI Regie 2012|121|Retail|0
0|CS3191732|2012-12-10 16:50:07|Ionita|Mariana||F|1976-02-21|Bucuresti|SECTOR 6|Splaiul independentei|290|P27|-|P|14|0720318620|||KTH|PMECBKH|Winston 100s Clasic (10 mg)  Pack|Yes|Yes||BWR05229|MAGNUM TRADE 2000 SRL|Bucuresti|BWDTCBA80|89|CCC MULTI Regie 2012|121|Retail|0
0|CS3191779|2012-12-10 17:00:39|Niculae|Robert||M|1989-08-23|Bucuresti|SECTOR 6|Splaiul independentei|290|P26||0|9|0768323991||ggrasuxxl@ymail.com|WICLH|PHMQBKH|Winston 100s Clasic (10 mg)  Pack|Yes|Yes||BWR05229|MAGNUM TRADE 2000 SRL|Bucuresti|BWDTCBA80|89|CCC MULTI Regie 2012|121|Retail|0
0|CS3191785|2012-12-10 17:02:14|Staicu|Petrut||M|1989-05-05|Bucuresti|SECTOR 6|Splaiul independentei|290|P4||0|15|0769187141||fasterunchiul@yahoo.com|KTH|MBRRDH|Winston 100s Clasic (10 mg)  Pack|Yes|Yes||BWR05229|MAGNUM TRADE 2000 SRL|Bucuresti|BWDTCBA80|89|CCC MULTI Regie 2012|121|Retail|0
0|CS3191818|2012-12-10 17:09:12|Iordache|Alexandru||M|1989-06-24|Bucuresti|Sector 6|Iuliu Maniu|1-3|A|A|4|42|0755883487||bogdaniordache@ahoo.com|KTBLH|MBRGL|Winston 100s Blue (6 mg)  Pack|Yes|Yes||BWR05229|MAGNUM TRADE 2000 SRL|Bucuresti|BWDTCBA80|89|CCC MULTI Regie 2012|121|Retail|0
0|CS3191824|2012-12-10 17:10:16|Udrea|Virgil||M|1981-11-20|Bucuresti|SECTOR 6|Splaiul independentei|290|P4||3|314|0729351440||udrea.virgil@yahoo.ro|KTBL|PMEBLH|Winston 100s Blue (6 mg)  Pack|Yes|Yes||BWR05229|MAGNUM TRADE 2000 SRL|Bucuresti|BWDTCBA80|89|CCC MULTI Regie 2012|121|Retail|0
0|CS3191830|2012-12-10 17:12:07|Apostol|Alexandra||F|1987-03-15|Ilfov|Popesti leordeni|Intrarea constantin mile|4b|0|0|0|0|0729135589||blueanda18@yahoo.com|KTCON|VOGDV|Winston Fresh XSpression (5mg) Pack|Yes|Yes||BWR05229|MAGNUM TRADE 2000 SRL|Bucuresti|BWDTCBA80|89|CCC MULTI Regie 2012|121|Retail|0
0|CS3191837|2012-12-10 17:14:09|Baloiu|Aurel||M|1980-04-20|Bucuresti|SECTOR 6|Splai independentei|290|P26|-|P|16|0785453321||baloiu.aurel@yahoo.com|KTBLH|MBRRD|Winston 100s Blue (6 mg)  Pack|Yes|Yes||BWR05229|MAGNUM TRADE 2000 SRL|Bucuresti|BWDTCBA80|89|CCC MULTI Regie 2012|121|Retail|0
0|CS3191893|2012-12-10 17:25:29|Marin|Cristian||M|1986-11-11|Ilfov|VOLUNTARI|Bd pipera|26|-|-|-||0742693741||winston@marincristian.ro|PMGR|WIXSTFX|Winston Fresh XSpression (5mg) Pack|Yes|Yes||BWR05229|MAGNUM TRADE 2000 SRL|Bucuresti|BWDTCBA80|89|CCC MULTI Regie 2012|121|Retail|0
0|CS3191947|2012-12-10 17:37:40|Ionut|Florin||M|1983-08-20|Bucuresti|SECTOR 5|Marin Constantin|2|Z1|1|2|12|0767089701|||MBRRDH|KTH|Winston 100s Clasic (10 mg)  Pack|Yes|Yes||BWR05229|MAGNUM TRADE 2000 SRL|Bucuresti|BWDTCBA80|89|CCC MULTI Regie 2012|121|Retail|0
0|CS3191959|2012-12-10 17:39:50|Dinu|Cristian||M|1987-10-10|Bucuresti|SECTOR 1|Marasesti|10|B3|1|0|11|0724253003||tzest4yu@yahoo.com|KTBL|DUNFCMBB|Winston Fresh XSpression (5mg) Pack|Yes|Yes||BWR05229|MAGNUM TRADE 2000 SRL|Bucuresti|BWDTCBA80|89|CCC MULTI Regie 2012|121|Retail|0
0|CS3192028|2012-12-10 17:53:49|Mantea|Octavian||M|1990-10-11|Bucuresti|SECTOR 6|Splaiul independentei|290|P11||0|413|0764908115||matntea_octavian@yahoo.com|KTH|PMECBKH|Mouse + Winston 100s Blue (6 mg)  Pack|Yes|Yes||BWR05229|MAGNUM TRADE 2000 SRL|Bucuresti|BWDTCBA80|89|CCC MULTI Regie 2012|121|Retail|0
0|CS3192039|2012-12-10 17:55:15|Radulescu|Cosmin||M|1986-09-04|Bucuresti|SECTOR 6|Splaiul independentei|290|P24|0|4|414|0729330452||radulescu_cosmin@yahoo.com|KTH|MBRGLH|Winston 100s Blue (6 mg)  Pack|Yes|Yes||BWR05229|MAGNUM TRADE 2000 SRL|Bucuresti|BWDTCBA80|89|CCC MULTI Regie 2012|121|Retail|0
0|CS3192045|2012-12-10 17:56:11|Marchidan|Alexandru||M|1985-09-04|Bucuresti|SECTOR 6|Splaiul independentei|290|P9|A|2|212|0723491520||marchidan_alexandru@yahoo.com|KTBLH||Winston 100s Blue (6 mg)  Pack|Yes|Yes||BWR05229|MAGNUM TRADE 2000 SRL|Bucuresti|BWDTCBA80|89|CCC MULTI Regie 2012|121|Retail|0
0|CS3192052|2012-12-10 17:57:04|Anton|Madalin||M|1988-08-22|Bucuresti|SECTOR 6|Splaiul independentei|290|P7||2|213|0729123540||anton_madalin@yahoo.com|PMBL|KTBL|Winston 100s Blue (6 mg)  Pack|Yes|Yes||BWR05229|MAGNUM TRADE 2000 SRL|Bucuresti|BWDTCBA80|89|CCC MULTI Regie 2012|121|Retail|0
0|CS3192062|2012-12-10 17:58:07|Soare|Adrian||M|1991-09-04|Bucuresti|SECTOR 6|Splaiul independentei|290|P18||0|125|0722594440||soare_adrian@yahoo.com|KTBL|PMBL|Winston 100s Blue (6 mg)  Pack|Yes|Yes||BWR05229|MAGNUM TRADE 2000 SRL|Bucuresti|BWDTCBA80|89|CCC MULTI Regie 2012|121|Retail|0
0|CS3192081|2012-12-10 18:02:35|Preda|Marian||M|1987-01-24|Bucuresti|SECTOR 6|Splaiul independentei|290|P26|-|P|16|0737189414|||WIBLH|KTBL|Winston 100s Blue (6 mg)  Pack|Yes|Yes||BWR05229|MAGNUM TRADE 2000 SRL|Bucuresti|BWDTCBA80|89|CCC MULTI Regie 2012|121|Retail|0
0|CS3192103|2012-12-10 18:06:53|Timis|Nicoara||M|1986-07-21|Bucuresti|SECTOR 6|Splai independentei|290|P26|-|P|15|0723038367|||KTH|WIBLH|Bricheta Winston|Yes|Yes||BWR05229|MAGNUM TRADE 2000 SRL|Bucuresti|BWDTCBA80|89|CCC MULTI Regie 2012|121|Retail|0
0|CS3192132|2012-12-10 18:15:36|Perete|Titi||M|1991-04-15|Teleorman|TURNU MAGURELE|Unirii|17|-|-|0|0|0761450715||titel1990@yahoo.com|KTBL|WIBL|Winston Blue (6mg) Pack|Yes|Yes||BWR05229|MAGNUM TRADE 2000 SRL|Bucuresti|BWDTCBA80|89|CCC MULTI Regie 2012|121|Retail|0
0|CS3192226|2012-12-10 18:35:29|Stanculescu|Claudiu||M|1980-08-04|Dolj|CRAIOVA|Bd. Dacia|139|18|1|3|16|0763607456||stanculescuclaudiu@yahoo.com|KTBL|KTSWIT|Winston Fresh XSpression (5mg) Pack|Yes|Yes||BWR05229|MAGNUM TRADE 2000 SRL|Bucuresti|BWDTCBA80|89|CCC MULTI Regie 2012|121|Retail|0
0|CS3192259|2012-12-10 18:41:32|Florea|Valentin||M|1984-08-20|Bucuresti|SECTOR 6|Splaiul independentei|290|P25|-|P|13|0768543452||valentin.florea@rocketmail.com|KTH|DUNFCMBR|Winston 100s Clasic (10 mg)  Pack|Yes|Yes||BWR05229|MAGNUM TRADE 2000 SRL|Bucuresti|BWDTCBA80|89|CCC MULTI Regie 2012|121|Retail|0
0|CS3192341|2012-12-10 19:00:07|Ivanov|Cristina||F|1978-08-20|Bucuresti|SECTOR 5|Triunghiului|11|-|-|0|0|0721802919||cryss_cryss43@yahoo.com|MBRGLT|KTSWIT|Winston Fresh XSpression (5mg) Pack|Yes|Yes||BWR05229|MAGNUM TRADE 2000 SRL|Bucuresti|BWDTCBA80|89|CCC MULTI Regie 2012|121|Retail|0
0|CS3192350|2012-12-10 19:02:39|Niculescu|Catalin||M|1973-05-06|Arges|CAMPULUNG|Zavoiului|14|0|0|0|0|0763713202||catalinniculeacu@yahoo.com|DAVGL|LSRD|Camel Blue (6 mg) Pack|Yes|Yes||BWR05229|MAGNUM TRADE 2000 SRL|Bucuresti|BWDTCBA80|89|CCC MULTI Regie 2012|121|Retail|0
0|CS3192364|2012-12-10 19:05:55|Dan|Andreea Madalina||F|1993-07-23|Vrancea|Focsani|Libertatii|230|0|0|0|0|0763261813||andreya_madalina@yahoo.com|DUNFCSV|KTNBK|Glamour Lilac (5mg) Pack|Yes|Yes||BWR05229|MAGNUM TRADE 2000 SRL|Bucuresti|BWDTCBA80|89|CCC MULTI Regie 2012|121|Retail|0
0|CS3192374|2012-12-10 19:07:36|Petre|Oana||F|1986-09-02|Dambovita|TARGOVISTE|Dr.dumitru oprescu|0|17|A|1|6|0722991185||oana_petre86@yahoo.com|MBRGLFT|KTCON|Winston Fresh XSpression (5mg) Pack|Yes|Yes||BWR05229|MAGNUM TRADE 2000 SRL|Bucuresti|BWDTCBA80|89|CCC MULTI Regie 2012|121|Retail|0
0|CS3192390|2012-12-10 19:12:53|Manole|Lucian||M|1983-04-21|Bucuresti|SECTOR 6|Barsanesti|8|157|2|10|85|0723169484||luciano_2120@yahoo.com|KTBL|MBRFP|Winston 100s Blue (6 mg)  Pack|Yes|Yes||BWR05229|MAGNUM TRADE 2000 SRL|Bucuresti|BWDTCBA80|89|CCC MULTI Regie 2012|121|Retail|0
0|CS3192400|2012-12-10 19:14:55|Manea|Anca||F|1986-07-05|Bucuresti|SECTOR 6|Grintiesului|2|6|6|2|84|0765180740||anca_manea84@yahoo.com|KTBLH|KTSV|Winston 100s Blue (6 mg)  Pack|Yes|Yes||BWR05229|MAGNUM TRADE 2000 SRL|Bucuresti|BWDTCBA80|89|CCC MULTI Regie 2012|121|Retail|0
0|CS3192430|2012-12-10 19:22:12|Boicescu|Teodora||F|1991-05-30|Braila|BRAILA|Aleea trandafirilor|5|E1|2|1|19|0755732765||teo.boicescu@yahoo.com|ROTH|WICL|Winston Classic Pack|Yes|Yes||BWR05229|MAGNUM TRADE 2000 SRL|Bucuresti|BWDTCBA80|89|CCC MULTI Regie 2012|121|Retail|0
0|CS3192466|2012-12-10 19:30:46|Mandoiu|Costin||M|1985-05-28|Dambovita|PUCIOASA|Republicii|75|0|0|0|0|0730857380||costin_mandoiu@yahoo.com|KTBL|WIBL|Winston Blue (6mg) Pack|Yes|Yes||BWR05229|MAGNUM TRADE 2000 SRL|Bucuresti|BWDTCBA80|89|CCC MULTI Regie 2012|121|Retail|0
0|CS3192475|2012-12-10 19:32:48|Ion|Claudia||F|1989-10-06|Bucuresti|SECTOR 4|Calea vacaresti|328|9c|A|0|2|0730694789||clauuudia_me@yahoo.com|KTBL|WIBL|Winston XStyle Blue (6mg) Pack|Yes|Yes||BWR05229|MAGNUM TRADE 2000 SRL|Bucuresti|BWDTCBA80|89|CCC MULTI Regie 2012|121|Retail|0
0|CS3192497|2012-12-10 19:37:31|Balasoiu|Eduard||M|1990-05-20|Bucuresti|SECTOR 4|Sos. Berceni|21|28|2|2|56|0760818733||king_eduard_2005@yahoo.com|MBRFP|KTBL|Bricheta Winston XST|Yes|Yes||BWR05229|MAGNUM TRADE 2000 SRL|Bucuresti|BWDTCBA80|89|CCC MULTI Regie 2012|121|Retail|0
0|CS3192586|2012-12-10 19:59:08|Danciu|Cristian||M|1987-01-07|Bucuresti|SECTOR 3|Prevederii|21|Gh15|1|3|15|0765441023||danciucristian88@yahoo.com|KTSWIT||Winston Fresh XSpression (5mg) Pack|Yes|Yes||BWR05229|MAGNUM TRADE 2000 SRL|Bucuresti|BWDTCBA80|89|CCC MULTI Regie 2012|121|Retail|0
0|CS3192616|2012-12-10 20:21:48|Boldinog|Razvan||M|1989-04-01|Bucuresti|SECTOR 5|Malcoci|26|0|0|0|0|0735551464||adi_razvan_11@yahoo.com|WIBL|KTBL|Winston Blue (6mg) Pack|Yes|Yes||BWR05229|MAGNUM TRADE 2000 SRL|Bucuresti|BWDTCBA80|89|CCC MULTI Regie 2012|121|Retail|0
0|CS3192624|2012-12-10 20:33:45|Ungureanu|Andrei||M|1988-05-17|Prahova|PODENII NOI|Podenii noi|281|-|-|0|0|0720391646||andreicristiungureanu@yahoo.com|KTBL|DAVGL|Winston XStyle Blue (6mg) Pack|Yes|Yes||BWR05229|MAGNUM TRADE 2000 SRL|Bucuresti|BWDTCBA80|89|CCC MULTI Regie 2012|121|Retail|0
0|CS3192627|2012-12-10 20:37:19|Stanciu|Oana||F|1990-05-13|Bucuresti|SECTOR 6|Splaiul independentei|290|P8||0|0|0766906264||onutza_in_luv@yahoo.com|KTSWIT|DUNFCMBB|Winston Fresh XSpression (5mg) Pack|Yes|Yes||BWR05229|MAGNUM TRADE 2000 SRL|Bucuresti|BWDTCBA80|89|CCC MULTI Regie 2012|121|Retail|0
0|CS3192634|2012-12-10 20:44:45|Stanescu|Alexandru||M|1990-06-17|Bucuresti|SECTOR 6|Splaiul independentei|290|P15||0|0|0721691080||aly4you24@yahoo.com|KTBL|DUNFCDB|Winston Fresh XSpression (5mg) Pack|Yes|Yes||BWR05229|MAGNUM TRADE 2000 SRL|Bucuresti|BWDTCBA80|89|CCC MULTI Regie 2012|121|Retail|0
0|CS3192637|2012-12-10 20:50:58|Cristian|Adrian||F|1989-10-31|Bucuresti|SECTOR 6|Splaiul independentei|210|P11|-|0|0|0751903182||pure_rockenrolla@yahoo.com|MBRGL|KTBL|Winston Fresh XSpression (5mg) Pack|Yes|Yes||BWR05229|MAGNUM TRADE 2000 SRL|Bucuresti|BWDTCBA80|89|CCC MULTI Regie 2012|121|Retail|0
0|CS3192733|2012-12-11 12:17:39|Ionescu|Roxana||F|1991-09-26|Arges|PITESTI|Targu din vale|64|5|A|0|8|0742101071||roxy_26_id@yahoo.com|KTBL||Bricheta Winston|Yes|Yes||BWR05229|MAGNUM TRADE 2000 SRL|Bucuresti|BWDTCBA61|89|CCC MULTI Regie 2012|121|Retail|0
0|CS3192741|2012-12-11 12:20:19|Zafiu|Alexandru||M|1991-11-19|Ialomita|URZICENI|Muncii|4|112|A|1|15|0764759616||alexandru_dark_boy@yahoo.com|KTBL||Winston Blue (6mg) Pack|Yes|Yes||BWR05229|MAGNUM TRADE 2000 SRL|Bucuresti|BWDTCBA61|89|CCC MULTI Regie 2012|121|Retail|0
0|CS3192745|2012-12-11 12:21:32|Stoica|Marius||M|1990-04-21|Ialomita|URZICENI|Principala|635|0|0|0|0|0768434077||antonio.bte@yahoo.com|KTBL||Winston Blue (6mg) Pack|Yes|Yes||BWR05229|MAGNUM TRADE 2000 SRL|Bucuresti|BWDTCBA61|89|CCC MULTI Regie 2012|121|Retail|0
0|CS3192748|2012-12-11 12:23:44|Gherase|Gheorghe||M|1962-05-05|Dambovita|PETRESTI|Petresti-ionesti|135|-|-|0|0|0728896584|||WIBL||Winston Blue (6mg) Pack|Yes|Yes||BWR05229|MAGNUM TRADE 2000 SRL|Bucuresti|BWDTCBA61|89|CCC MULTI Regie 2012|121|Retail|0
0|CS3192756|2012-12-11 12:29:09|Vasile|Dragos||M|1991-08-28|Bucuresti|6|Drumul la rosu|15|0|0|0|0|0723371570||phoenix_xyzq@yahoo.com|KTSV||Camel White (4 mg) Pack|Yes|Yes||BWR05229|MAGNUM TRADE 2000 SRL|Bucuresti|BWDTCBA61|89|CCC MULTI Regie 2012|121|Retail|0
0|CS3192759|2012-12-11 12:30:42|Ilie|Alexandru||M|1957-10-07|Teleorman|ORBEASCA DE SUS|Principala|0|0|0|0|0|0723324507|||WIBL||Winston Blue (6mg) Pack|Yes|Yes||BWR05229|MAGNUM TRADE 2000 SRL|Bucuresti|BWDTCBA61|89|CCC MULTI Regie 2012|121|Retail|0
0|CS3192763|2012-12-11 12:32:48|Ifrim|Valentin||M|1977-10-03|Bucuresti|6|Timisoara|29|B|A|9|37|0784066999||ifrimvalentin@yahoo.com|WIXSTBL||Winston XStyle Blue (6mg) Pack|Yes|Yes||BWR05229|MAGNUM TRADE 2000 SRL|Bucuresti|BWDTCBA61|89|CCC MULTI Regie 2012|121|Retail|0
0|CS3192777|2012-12-11 12:40:39|Gogonea|Stefan||M|1961-10-14|Ilfov|PERIS|Lastarului|1|0|0|0|0|0726975992|||WIBL||Winston Blue (6mg) Pack|Yes|Yes||BWR05229|MAGNUM TRADE 2000 SRL|Bucuresti|BWDTCBA61|89|CCC MULTI Regie 2012|121|Retail|0
0|CS3192781|2012-12-11 12:42:31|Petre|Paul laurentiu||M|1973-05-19|Bucuresti|5|Verigei|3|1|2|9|81|0767232298||laurentiupetre73@yahoo.com|KTBL||Winston Blue (6mg) Pack|Yes|Yes||BWR05229|MAGNUM TRADE 2000 SRL|Bucuresti|BWDTCBA61|89|CCC MULTI Regie 2012|121|Retail|0
0|CS3192791|2012-12-11 12:48:06|Mares|Nicoleta||F|1989-02-13|Buzau|Buzau|Mioritei|0|A6|0|3|15|0785450266||nicoletaalina13@yahoo.com|KTSV||Winston XStyle Silver (4mg) Pack|Yes|Yes||BWR05229|MAGNUM TRADE 2000 SRL|Bucuresti|BWDTCBA61|89|CCC MULTI Regie 2012|121|Retail|0
0|CS3192795|2012-12-11 12:51:40|Stoicescu|Alin||M|1990-01-25|Buzau|BUZAU|Vladimir maximilian|-|3|-|0|11|0761343926||alin_gigel@yahoo.com|KTBL||Winston Blue (6mg) Pack|Yes|Yes||BWR05229|MAGNUM TRADE 2000 SRL|Bucuresti|BWDTCBA61|89|CCC MULTI Regie 2012|121|Retail|0
0|CS3192799|2012-12-11 12:56:35|Radu|Marian||M|1969-04-19|Teleorman|VEDEA|Principala|0|0|0|0|0|0769178269||radumarian@yahoo.com|KTBL||Winston Blue (6mg) Pack|Yes|Yes||BWR05229|MAGNUM TRADE 2000 SRL|Bucuresti|BWDTCBA61|89|CCC MULTI Regie 2012|121|Retail|0
0|CS3192800|2012-12-11 12:57:56|Bucur|Gabriela||F|1989-02-21|Bucuresti|6|Splaiul indpendentei|290|U3|1|4|407|0769684298||gabbyo_gaby@yahoo.com|KTBL||Winston Blue (6mg) Pack|Yes|Yes||BWR05229|MAGNUM TRADE 2000 SRL|Bucuresti|BWDTCBA61|89|CCC MULTI Regie 2012|121|Retail|0
0|CS3192813|2012-12-11 13:03:40|Popescu|Tudor||M|1984-07-19|Valcea|RAMNICU VALCEA|Regina maria|4|C5|B|3|14|0757528580||tudor.popescu@yahoo.com|KTBL||Bricheta Winston XST|Yes|Yes||BWR05229|MAGNUM TRADE 2000 SRL|Bucuresti|BWDTCBA61|89|CCC MULTI Regie 2012|121|Retail|0
0|CS3192827|2012-12-11 13:10:12|Popu|Alexandra||F|1989-06-19|Hunedoara|PETROSANI|Venus|4|5|B|3|21|0724018863||popu.alexandra@gmail.com|KTBL||Bricheta Winston|Yes|Yes||BWR05229|MAGNUM TRADE 2000 SRL|Bucuresti|BWDTCBA61|89|CCC MULTI Regie 2012|121|Retail|0
0|CS3192828|2012-12-11 13:11:23|Rotaru|Lucian||M|1993-01-09|Buzau|BUZAU|Aleea constructorilor|-|29|B|1|21|0760914882||lucy_93_buzau@yahoo.com|KTBL||Winston Blue (6mg) Pack|Yes|Yes||BWR05229|MAGNUM TRADE 2000 SRL|Bucuresti|BWDTCBA61|89|CCC MULTI Regie 2012|121|Retail|0
0|CS3192839|2012-12-11 13:14:58|Zaroschi|Adrian||M|1992-04-01|Ialomita|URZICENI|Garii|0|Na|Na|0|0|0766971210||adi_zaro@yahoo.com|KTBL||Winston Blue (6mg) Pack|Yes|Yes||BWR05229|MAGNUM TRADE 2000 SRL|Bucuresti|BWDTCBA61|89|CCC MULTI Regie 2012|121|Retail|0
0|CS3192845|2012-12-11 13:17:12|Bratu|Alexandru||M|1967-03-05|Bucuresti|SECTOR 3|Vlad Dracu|11|0|0|0|0|0756301313|||KTBL||Winston Blue (6mg) Pack|Yes|Yes||BWR05229|MAGNUM TRADE 2000 SRL|Bucuresti|BWDTCBA61|89|CCC MULTI Regie 2012|121|Retail|0
0|CS3192857|2012-12-11 13:25:39|Marin|Sandel||M|1969-06-28|Teleorman|ORBEASCA DE SUS|Principala|-|-|-|0|0|0769749859|||KTBL||Winston Blue (6mg) Pack|Yes|Yes||BWR05229|MAGNUM TRADE 2000 SRL|Bucuresti|BWDTCBA61|89|CCC MULTI Regie 2012|121|Retail|0
0|CS3192872|2012-12-11 13:32:43|Banu|Marcel||M|1982-10-09|Dambovita|CIOCANESTI|Padureti|161|0|0|0|0|0730298376||banumarcel@yahoo.com|KTBL||Winston Blue (6mg) Pack|Yes|Yes||BWR05229|MAGNUM TRADE 2000 SRL|Bucuresti|BWDTCBA61|89|CCC MULTI Regie 2012|121|Retail|0
0|CS3192886|2012-12-11 13:39:14|Merlan|Georgica||M|1968-06-08|Teleorman|TURNU MAGURELE|Timpuri Noi|12|0|0|0|0|0727915821|||KTBL||Winston Blue (6mg) Pack|Yes|Yes||BWR05229|MAGNUM TRADE 2000 SRL|Bucuresti|BWDTCBA61|89|CCC MULTI Regie 2012|121|Retail|0
0|CS3192896|2012-12-11 13:42:05|Sarbu|Marius||M|1987-09-12|Bucuresti|6|Lates ghorghe|2|C58|1|4|28|0733850573||sarbu.marius_andrei@yahoo.com|DUNFCMBB||Camel Black (6 mg) Pack|Yes|Yes||BWR05229|MAGNUM TRADE 2000 SRL|Bucuresti|BWDTCBA61|89|CCC MULTI Regie 2012|121|Retail|0
0|CS3192908|2012-12-11 13:47:04|Petroi|Ionel||M|1956-11-22|Bucuresti|6|Vintila mihailcu|16|70|2|1|66|0764437795|||WIBLH||Winston 100s Blue (6 mg)  Pack|Yes|Yes||BWR05229|MAGNUM TRADE 2000 SRL|Bucuresti|BWDTCBA61|89|CCC MULTI Regie 2012|121|Retail|0
0|CS3192914|2012-12-11 13:48:54|Mihai|Catalin||M|1988-01-19|Bucuresti|6|Splaiul independentei|290|P13|1|1|123|0762966208||cata_catalin@yahoo.com|DUNFCMBB||Camel Black (6 mg) Pack|Yes|Yes||BWR05229|MAGNUM TRADE 2000 SRL|Bucuresti|BWDTCBA61|89|CCC MULTI Regie 2012|121|Retail|0
0|CS3192917|2012-12-11 13:50:50|Ghitulescu|Ana maria||M|1989-07-24|Bucuresti|6|Tufanelelor|0|36|2|10|86|0724331826||annayssa_ana@yahoo.com|KTBL||Camel Black (6 mg) Pack|Yes|Yes||BWR05229|MAGNUM TRADE 2000 SRL|Bucuresti|BWDTCBA61|89|CCC MULTI Regie 2012|121|Retail|0
0|CS3192923|2012-12-11 13:51:57|Spulber|Stefan||M|1990-01-05|Prahova|GURA VITIOAREI|Principala|2|0|0|0|0|0761331822||spuly_boy@yahoo.com|KTBL||Camel Black (6 mg) Pack|Yes|Yes||BWR05229|MAGNUM TRADE 2000 SRL|Bucuresti|BWDTCBA61|89|CCC MULTI Regie 2012|121|Retail|0
0|CS3192924|2012-12-11 13:52:40|Chivu|Cristina||F|1989-10-17|Buzau|BUZAU|Prieteniei|0|D|35|3|15|0761180156||cristinaalina@yahoo.com|KTBL||Camel Black (6 mg) Pack|Yes|Yes||BWR05229|MAGNUM TRADE 2000 SRL|Bucuresti|BWDTCBA61|89|CCC MULTI Regie 2012|121|Retail|0
0|CS3192926|2012-12-11 13:53:45|Constantinescu|Irinel||M|1988-10-26|Prahova|GURA VITIOAREI|Principala|178a|0|0|0|0|0751115525||yrry_b@yahoo.com|KTBL||Camel Black (6 mg) Pack|Yes|Yes||BWR05229|MAGNUM TRADE 2000 SRL|Bucuresti|BWDTCBA61|89|CCC MULTI Regie 2012|121|Retail|0
0|CS3192931|2012-12-11 13:56:56|Husu|Anca||F|1989-10-24|Buzau|BUZAU|Prieteniei|0|15b|1|3|7|0760133219||annk_annnk@yahoo.com|KTBL||Camel Black (6 mg) Pack|Yes|Yes||BWR05229|MAGNUM TRADE 2000 SRL|Bucuresti|BWDTCBA61|89|CCC MULTI Regie 2012|121|Retail|0
0|CS3192933|2012-12-11 13:58:25|Lalu|Cristian||M|1988-05-16|Buzau|DAMBROCA|Principala|4|0|0|0|0|0763539952||cristi88_lcm@yahoo.com|KTBL||Camel Black (6 mg) Pack|Yes|Yes||BWR05229|MAGNUM TRADE 2000 SRL|Bucuresti|BWDTCBA61|89|CCC MULTI Regie 2012|121|Retail|0
0|CS3192936|2012-12-11 13:59:21|Mocanu|Mihai||M|1990-06-08|Braila|Braila|Grivitei|34|||3|1|0741227191||mocanumihay@yahoo.com|KTBL||Camel Black (6 mg) Pack|Yes|Yes||BWR05229|MAGNUM TRADE 2000 SRL|Bucuresti|BWDTCBA61|89|CCC MULTI Regie 2012|121|Retail|0
0|CS3192938|2012-12-11 14:00:56|Potarniche|Georgiana||F|1989-04-10|Bucuresti|4|Stoica stefan|22|17b|1|5|29|0747382570||georgiana_potty@yahoo.com|KTBL||Camel Black (6 mg) Pack|Yes|Yes||BWR05229|MAGNUM TRADE 2000 SRL|Bucuresti|BWDTCBA61|89|CCC MULTI Regie 2012|121|Retail|0
0|CS3192965|2012-12-11 14:13:08|Stanciu|Mihaela||F|1992-11-05|Buzau|BUZAU|Cartier brosteni|0|B1|0|1|5|0746339944||h0us30fde4th@yahoo.com|GLMBL||Bricheta Glamour|Yes|Yes||BWR05229|MAGNUM TRADE 2000 SRL|Bucuresti|BWDTCBA61|89|CCC MULTI Regie 2012|121|Retail|0
0|CS3192985|2012-12-11 14:27:40|Barbu|Cristian||M|1965-01-11|Bucuresti|3|Jan steriadi|46|M13|1|3|10|0749664015|||KTBLH||Winston 100s Blue (6 mg)  Pack|Yes|Yes||BWR05229|MAGNUM TRADE 2000 SRL|Bucuresti|BWDTCBA61|89|CCC MULTI Regie 2012|121|Retail|0
0|CS3192988|2012-12-11 14:28:53|Petrisor|Cristian||M|1959-06-12|Bucuresti|1|Nicolae titulescu|92|13|A|9|158|0724071395|||KTBLH||Winston 100s Blue (6 mg)  Pack|Yes|Yes||BWR05229|MAGNUM TRADE 2000 SRL|Bucuresti|BWDTCBA61|89|CCC MULTI Regie 2012|121|Retail|0
0|CS3193008|2012-12-11 14:42:29|Gheorghe|Aurelia||F|1970-10-04|Bucuresti|6|Iacob andrei|1|19|1|4|20|0720318620|||KTH||Winston 100s Clasic (10 mg)  Pack|Yes|Yes||BWR05229|MAGNUM TRADE 2000 SRL|Bucuresti|BWDTCBA61|89|CCC MULTI Regie 2012|121|Retail|0
0|CS3193013|2012-12-11 14:44:54|Badoi|Aurel||M|1983-08-20|Bucuresti|6|Splaiul independentei|290|P26|0|P|13|0784543421||badoiaurel@yahoo.com|KTBLH||Winston 100s Blue (6 mg)  Pack|Yes|Yes||BWR05229|MAGNUM TRADE 2000 SRL|Bucuresti|BWDTCBA61|89|CCC MULTI Regie 2012|121|Retail|0
0|CS3193016|2012-12-11 14:47:19|Bodoran|George||M|1979-08-28|Teleorman|VEDEA|Principala|0|0|0|0|0|0785860467|||KTBLH||Winston 100s Blue (6 mg)  Pack|Yes|Yes||BWR05229|MAGNUM TRADE 2000 SRL|Bucuresti|BWDTCBA61|89|CCC MULTI Regie 2012|121|Retail|0
0|CS3193060|2012-12-11 15:11:48|Mureanu|Paul||M|1990-06-15|Valcea|BAILE OLANESTI|1 decembrie|6|C|B|3|7|0747924919||mureanu_paul@yahoo.com|CAWH||Bricheta Camel|Yes|Yes||BWR05229|MAGNUM TRADE 2000 SRL|Bucuresti|BWDTCBA61|89|CCC MULTI Regie 2012|121|Retail|0
0|CS3193063|2012-12-11 15:13:07|Popescu|Virgil||M|1982-11-13|Bucuresti|6|Spliul independentei|3|P21|0|3|324|0745888354||popescu.virgil@yahoo.com|KTBL||Winston Blue (6mg) Pack|Yes|Yes||BWR05229|MAGNUM TRADE 2000 SRL|Bucuresti|BWDTCBA61|89|CCC MULTI Regie 2012|121|Retail|0
0|CS3193065|2012-12-11 15:14:24|Bichir|Ionut||M|1985-06-09|Bucuresti|6|Splaiul independentei|290|P12|0|4|415|0764331599||jony_atr@yahoo.com|KTBLH||Winston 100s Blue (6 mg)  Pack|Yes|Yes||BWR05229|MAGNUM TRADE 2000 SRL|Bucuresti|BWDTCBA61|89|CCC MULTI Regie 2012|121|Retail|0
0|CS3193101|2012-12-11 15:29:29|Ciufu|Marin||M|1960-06-17|Bucuresti|6|Crainicului|5|Z10|2|4|40|0730724461|||KTBLH||Winston 100s Blue (6 mg)  Pack|Yes|Yes||BWR05229|MAGNUM TRADE 2000 SRL|Bucuresti|BWDTCBA61|89|CCC MULTI Regie 2012|121|Retail|0
0|CS3193139|2012-12-11 15:48:31|Niculae|Robert||M|1989-08-23|Bucuresti|6|Splaiul independentei|290|P26|0|0|9|0768323991||ggrasuxxl@ymail.com|KTBLH||Winston 100s Blue (6 mg)  Pack|Yes|Yes||BWR05229|MAGNUM TRADE 2000 SRL|Bucuresti|BWDTCBA61|89|CCC MULTI Regie 2012|121|Retail|0
0|CS3193146|2012-12-11 15:51:05|Ginga|Roxana||F|1987-04-10|Bucuresti|SECTOR 2|Ferdinand|127|0|0|4|4|0765470845||rocsana10_gm@yahoo.com|KTSV||Winston XStyle Silver (4mg) Pack|Yes|Yes||BWR05229|MAGNUM TRADE 2000 SRL|Bucuresti|BWDTCBA61|89|CCC MULTI Regie 2012|121|Retail|0
0|CS3193182|2012-12-11 16:05:04|Duta|Bogdan||M|1990-05-26|Bucuresti|SECTOR 6|Splaiul Independentei|290|P14|0|5|523|0720917782||bogdan.duta@lumina.org|WIBLH||Winston 100s Blue (6 mg)  Pack|Yes|Yes||BWR05229|MAGNUM TRADE 2000 SRL|Bucuresti|BWDTCBA40|89|CCC MULTI Regie 2012|121|Retail|0
0|CS3193323|2012-12-11 16:36:46|Stanica|Steluta||F|1993-06-17|Bucuresti|SECTOR 3|Aleea ianca|14|5|3|4|27|0742923134||stanicasteluta@yahoo.com|VIRSM||Winston Fresh XSpression (5mg) Pack|Yes|Yes||BWR05229|MAGNUM TRADE 2000 SRL|Bucuresti|BWDTCBA40|89|CCC MULTI Regie 2012|121|Retail|0
0|CS3193341|2012-12-11 16:40:33|Gheorghe|Radu||M|1983-03-03|Bucuresti|SECTOR 6|Splaiul Independentei|290|P12||1|112|0765181565||raducu_2383@yahoo.com|KTBL||Winston 100s Blue (6 mg)  Pack|Yes|Yes||BWR05229|MAGNUM TRADE 2000 SRL|Bucuresti|BWDTCBA40|89|CCC MULTI Regie 2012|121|Retail|0
0|CS3193389|2012-12-11 16:50:34|Staicu|Petrut||M|1989-05-05|Bucuresti|SECTOR 6|Splaiul independentei|290|P4||0|15|0769187141||fasterunchiul@yahoo.com|WICLH||Winston 100s Clasic (10 mg)  Pack|Yes|Yes||BWR05229|MAGNUM TRADE 2000 SRL|Bucuresti|BWDTCBA40|89|CCC MULTI Regie 2012|121|Retail|0
0|CS3193404|2012-12-11 16:53:06|Iordache|Vasile||M|1984-11-18|Bucuresti|SECTOR 6|Splaiul independentei|290|P16|A|0|23|0784546875||iordache_vasile@yahoo.com|KTBLH||Winston 100s Blue (6 mg)  Pack|Yes|Yes||BWR05229|MAGNUM TRADE 2000 SRL|Bucuresti|BWDTCBA40|89|CCC MULTI Regie 2012|121|Retail|0
0|CS3193509|2012-12-11 17:13:22|Manea|Anca||F|1986-07-05|Bucuresti|SECTOR 6|Crintiesului|2|6|6|2|84|0765180740||anca_manea86@yahoo.com|WIXSTSV|KTSV|Winston XStyle Silver (4mg) Pack|Yes|Yes||BWR05229|MAGNUM TRADE 2000 SRL|Bucuresti|BWDTCBA40|89|CCC MULTI Regie 2012|121|Retail|0
0|CS3193539|2012-12-11 17:18:27|Coman|Florian||M|1976-09-17|Bucuresti|SECTOR 5|Epigoniilor|51|||0|0|0760362970||pain_killer776@yahoo.com|CAFI|MBRRDH|Camel Filters (10mg) Pack|Yes|Yes||BWR05229|MAGNUM TRADE 2000 SRL|Bucuresti|BWDTCBA40|89|CCC MULTI Regie 2012|121|Retail|0
0|CS3193616|2012-12-11 17:33:18|Ichim|Alexandru||M|1992-04-29|Teleorman|ZIMNICEA|1907|0|29c|F|3|14|0762299741||alexs.allex@yahoo.com|CABK||Bricheta Camel|Yes|Yes||BWR05229|MAGNUM TRADE 2000 SRL|Bucuresti|BWDTCBA40|89|CCC MULTI Regie 2012|121|Retail|0
0|CS3193623|2012-12-11 17:36:25|Stefan|Liviu||M|1991-07-10|Teleorman|ROSIORI DE VEDE|Aleea 2 cfr|22|||0|0|0766409194||stefanliviumarian@yahoo.com|CAFI||Camel Filters (10mg) Pack|Yes|Yes||BWR05229|MAGNUM TRADE 2000 SRL|Bucuresti|BWDTCBA40|89|CCC MULTI Regie 2012|121|Retail|0
0|CS3193640|2012-12-11 17:38:56|Vaideceanu|Ana Maria||F|1988-04-30|Bucuresti|SECTOR 1|Tarafului|24|0|0|0|0|0764728394||ana_micuta88@yahoo.com|WIBL||Bricheta Winston XST|Yes|Yes||BWR05229|MAGNUM TRADE 2000 SRL|Bucuresti|BWDTCBA40|89|CCC MULTI Regie 2012|121|Retail|0
0|CS3193650|2012-12-11 17:40:32|Deaconu|Mihaita||M|1986-02-28|Calarasi|PERISORU|Principala|1|||0|0|0729977925||deco_mihai10@yahoo.com|KTBL||Camel White (4 mg) Pack|Yes|Yes||BWR05229|MAGNUM TRADE 2000 SRL|Bucuresti|BWDTCBA40|89|CCC MULTI Regie 2012|121|Retail|0
0|CS3193667|2012-12-11 17:43:45|Patrascu|Claudia||F|1977-06-01|Bucuresti|SECTOR 6|Splaiul independentei|P23|||0|1|0763743186||claudiaclau@yahoo.com|WIBL||Winston 100s Blue (6 mg)  Pack|Yes|Yes||BWR05229|MAGNUM TRADE 2000 SRL|Bucuresti|BWDTCBA40|89|CCC MULTI Regie 2012|121|Retail|0
0|CS3193676|2012-12-11 17:44:50|Niculae|Stelian||M|1985-09-25|Bucuresti|SECTOR 6|Splaiul independentei|290|P27|Na|0|14|0784546875|||KTBLH||Winston 100s Blue (6 mg)  Pack|Yes|Yes||BWR05229|MAGNUM TRADE 2000 SRL|Bucuresti|BWDTCBA40|89|CCC MULTI Regie 2012|121|Retail|0
0|CS3193712|2012-12-11 17:50:16|Mosulica|Elena Alexandra||F|1990-08-01|Arges|CAMPULUNG|General dragalina|6a|D1|B|1|3|0724116334||m_sandy_01@yahoo.com|KTBL|MBRGLA|Winston Fresh XSpression (5mg) Pack|Yes|Yes||BWR05229|MAGNUM TRADE 2000 SRL|Bucuresti|BWDTCBA40|89|CCC MULTI Regie 2012|121|Retail|0
0|CS3193759|2012-12-11 17:59:32|Alexandru|Florina||F|1989-01-11|Bucuresti|SECTOR 6|Migdalului|54|||0|0|0767332145||mona_nebuna11@yahoo.com|KTBL||Winston 100s Blue (6 mg)  Pack|Yes|Yes||BWR05229|MAGNUM TRADE 2000 SRL|Bucuresti|BWDTCBA40|89|CCC MULTI Regie 2012|121|Retail|0
0|CS3193771|2012-12-11 18:02:16|Radu|Andreea||F|1990-11-13|Ialomita|URZICENI|Calea Bucuresti|28b|0|0|0|0|0767269248||raduandreea_nicoleta@yahoo.com|PMBL||Winston Blue (6mg) Pack|Yes|Yes||BWR05229|MAGNUM TRADE 2000 SRL|Bucuresti|BWDTCBA40|89|CCC MULTI Regie 2012|121|Retail|0
0|CS3193808|2012-12-11 18:09:53|Pancescu|Carmen||F|1985-02-21|Bucuresti|SECTOR 6|Intrarea patrarului|1|||0|0|0763294256||aura_carmen_85@yahoo.com|KTSV||Casti|Yes|Yes||BWR05229|MAGNUM TRADE 2000 SRL|Bucuresti|BWDTCBA40|89|CCC MULTI Regie 2012|121|Retail|0
0|CS3193907|2012-12-11 18:33:59|Cobzaru|Ionela||F|1990-03-20|Bucuresti|SECTOR 6|Splaiul Independentei|290|P9||2|216|0724092043||creata_ionela@yahoo.com|KTBL||Winston 100s Blue (6 mg)  Pack|Yes|Yes||BWR05229|MAGNUM TRADE 2000 SRL|Bucuresti|BWDTCBA40|89|CCC MULTI Regie 2012|121|Retail|0
0|CS3193996|2012-12-11 18:54:26|Stamate|Marian||M|1992-05-31|Calarasi|CALARASI|Primaverii|75|0|0|0|0|0728268824||maryan_mar_31@yahoo.com|KTBL||Winston XStyle Blue (6mg) Pack|Yes|Yes||BWR05229|MAGNUM TRADE 2000 SRL|Bucuresti|BWDTCBA40|89|CCC MULTI Regie 2012|121|Retail|0
0|CS3194013|2012-12-11 18:57:35|Ciobanescu|Viorel||M|1992-05-26|Calarasi|CALARASI|Navodari|10|G8|2e|1|4|0720526703||manuel_mall@yahoo.com|DUNBL||Mouse + Winston XStyle Blue (6mg) Pack|Yes|Yes||BWR05229|MAGNUM TRADE 2000 SRL|Bucuresti|BWDTCBA40|89|CCC MULTI Regie 2012|121|Retail|0
0|CS3194076|2012-12-11 19:10:12|Barbu|Gabriel||M|1989-12-17|Constanta|CONSTANTA|Mangaliei|42|||0|0|0728954095||oxy_stuff@yahoo.com|KTBLH||Winston Classic Pack|Yes|Yes||BWR05229|MAGNUM TRADE 2000 SRL|Bucuresti|BWDTCBA40|89|CCC MULTI Regie 2012|121|Retail|0
0|CS3194275|2012-12-11 19:51:10|Rosca|Daniela||F|1991-11-18|Bucuresti|SECTOR 5|Sub.popa|1|||0|0|0755787203||roscadanielaoana@yahoo.com|KTCON||Bricheta Winston|Yes|Yes||BWR05229|MAGNUM TRADE 2000 SRL|Bucuresti|BWDTCBA40|89|CCC MULTI Regie 2012|121|Retail|0
0|CS3194286|2012-12-11 19:53:03|Vasilescu|Ruxandra||F|1987-11-29|Prahova|CAMPINA|Marului|9|0|0|0|0|0721167881||russky3000@yahoo.com|KTSV||Camel White (4 mg) Pack|Yes|Yes||BWR05229|MAGNUM TRADE 2000 SRL|Bucuresti|BWDTCBA40|89|CCC MULTI Regie 2012|121|Retail|0
0|CS3194344|2012-12-11 20:17:59|Perete|Titi||M|1991-04-15|Teleorman|SAELELE|Unirii|17||0|0|0|0761450715||titel1990@yahoo.com|KTBL||Winston 100s Blue (6 mg)  Pack|Yes|Yes||BWR05229|MAGNUM TRADE 2000 SRL|Bucuresti|BWDTCBA40|89|CCC MULTI Regie 2012|121|Retail|0
0|CS3194352|2012-12-11 20:25:47|David|Elena iulia||F|1986-07-30|Bucuresti|SECTOR 6|Ceahlau|21|67|2|7|98|0761506559|||GLMBL||Glamour Azure (3mg) Pack|Yes|Yes||BWR05229|MAGNUM TRADE 2000 SRL|Bucuresti|BWDTCBA40|89|CCC MULTI Regie 2012|121|Retail|0
0|CS3194353|2012-12-11 20:28:14|Dinu|Doru Andrei||M|1987-03-29|Bucuresti|SECTOR 3|Corneliu Coposu|41|B|0||1|0766541661||adica66andrei@yahoo.com|KTBL||Winston Blue (6mg) Pack|Yes|Yes||BWR05229|MAGNUM TRADE 2000 SRL|Bucuresti|BWDTCBA40|89|CCC MULTI Regie 2012|121|Retail|0
0|CS3194379|2012-12-11 20:52:59|Ciolacu|Mihail Valentin||M|1989-01-17|Ialomita|AMARA|Lacului|0|J1|1|P|1|0764146533||cyoly_nr1@yahoo.com|KTBL||Winston Fresh XSpression (5mg) Pack|Yes|Yes||BWR05229|MAGNUM TRADE 2000 SRL|Bucuresti|BWDTCBA40|89|CCC MULTI Regie 2012|121|Retail|0
0|CS3194828|2012-12-12 13:39:09|Gheorghe|Aurelia||F|1970-10-04|Bucuresti|SECTOR 6|Iacob andrei|1|19|1|4|20|0764710066||gheorghe.aurelia@yahoo.com|KTH||Winston 100s Blue (6 mg)  Pack|Yes|Yes||BWR05229|MAGNUM TRADE 2000 SRL|Bucuresti|BWDTCBA40|89|CCC MULTI Regie 2012|121|Retail|0
0|CS3194833|2012-12-12 13:41:42|Gheorghe|Radu||M|1983-03-02|Bucuresti|SECTOR 6|Splaiul independentei|290|P12|0|0|112|0765181565||raducu_2383@yahoo.com|KTBLH||Winston 100s Blue (6 mg)  Pack|Yes|Yes||BWR05229|MAGNUM TRADE 2000 SRL|Bucuresti|BWDTCBA40|89|CCC MULTI Regie 2012|121|Retail|0
0|CS3194834|2012-12-12 13:43:00|Cobzaru|Ionela||F|1990-03-20|Bucuresti|SECTOR 6|Splaiul Independentei|290|P9||2|216|0724092043||creata_ionela@yahoo.com|KTBLH||Winston 100s Blue (6 mg)  Pack|Yes|Yes||BWR05229|MAGNUM TRADE 2000 SRL|Bucuresti|BWDTCBA40|89|CCC MULTI Regie 2012|121|Retail|0
0|CS3194836|2012-12-12 13:44:22|Ionita|Mariana||F|1976-02-21|Bucuresti|SECTOR 6|Splaiul independentei|290|P27|-|0|14|0720318620|||KTBL||Winston 100s Blue (6 mg)  Pack|Yes|Yes||BWR05229|MAGNUM TRADE 2000 SRL|Bucuresti|BWDTCBA40|89|CCC MULTI Regie 2012|121|Retail|0
0|CS3194890|2012-12-12 14:16:37|Balan|Stefan Gabriel||M|1990-12-13|Bucuresti|SECTOR 1|Miron Costin|10|0|0|0|0|0726622830||gigelu_mu@yahoo.com|MBRRD||Camel Filters (10mg) Pack|Yes|Yes||BWR05229|MAGNUM TRADE 2000 SRL|Bucuresti|BWDTCBA40|89|CCC MULTI Regie 2012|121|Retail|0
0|CS3194909|2012-12-12 14:26:19|Duta|Bogdan||M|1990-05-26|Bucuresti|SECTOR 6|Splaiul Independentei|290|P14|0|5|523|0720917782||bogdan.duta@lumina.org|WIBLH||Winston 100s Blue (6 mg)  Pack|Yes|Yes||BWR05229|MAGNUM TRADE 2000 SRL|Bucuresti|BWDTCBA40|89|CCC MULTI Regie 2012|121|Retail|0
0|CS3194916|2012-12-12 14:28:56|Alexandru|Florina||F|1989-01-11|Bucuresti|SECTOR 6|Migdalului|54|||0|0|0767332145||mona_nebuna11@yahoo.com|PMBL||Winston Blue (6mg) Pack|Yes|Yes||BWR05229|MAGNUM TRADE 2000 SRL|Bucuresti|BWDTCBA40|89|CCC MULTI Regie 2012|121|Retail|0
0|CS3194924|2012-12-12 14:30:31|Sandu|Victor||M|1990-01-17|Bucuresti|Sector 2|Inginerilor Tei|29|C4|Na|4|404|0724172310||flash_vis@yahoo.com|MBRFPEX||Winston Silver (4 mg) Pack|Yes|Yes||BWR05229|MAGNUM TRADE 2000 SRL|Bucuresti|BWDTCBA40|89|CCC MULTI Regie 2012|121|Retail|0
0|CS3194987|2012-12-12 15:02:01|Iordache|Vasile||M|1982-09-25|Bucuresti|SECTOR 6|Splaiul independentei|290|P26||0|9|0768548329||vasiledache@yahoo.com|KTBL||Winston 100s Blue (6 mg)  Pack|Yes|Yes||BWR05229|MAGNUM TRADE 2000 SRL|Bucuresti|BWDTCBA40|89|CCC MULTI Regie 2012|121|Retail|0
0|CS3195034|2012-12-12 15:33:29|Baloiu|Aurel||M|1980-04-20|Bucuresti|SECTOR 6|Splai independentei|290|P26|-|0|16|0785453321||baloiu.aurel@yahoo.com|MBRRDH||Winston 100s Clasic (10 mg)  Pack|Yes|Yes||BWR05229|MAGNUM TRADE 2000 SRL|Bucuresti|BWDTCBA40|89|CCC MULTI Regie 2012|121|Retail|0
0|CS3195037|2012-12-12 15:34:44|Burtan|Alina||F|1987-01-22|Bucuresti|SECTOR 6|Splaiul independentei|290|P27|-|0|15|0720783646||albinuta90@yahoo.com|MBRRDH||Mouse + Winston 100s Clasic (10 mg)  Pack|Yes|Yes||BWR05229|MAGNUM TRADE 2000 SRL|Bucuresti|BWDTCBA40|89|CCC MULTI Regie 2012|121|Retail|0
0|CS3195050|2012-12-12 15:42:01|Spataru|Ana Claudia||F|1989-12-14|Bacau|BUHUSI|Libertatii|227||C|2|8|0743041366||plain_me000@yahoo.com|MBRFP||Bricheta Winston|Yes|Yes||BWR05229|MAGNUM TRADE 2000 SRL|Bucuresti|BWDTCBA40|89|CCC MULTI Regie 2012|121|Retail|0
0|CS3195051|2012-12-12 15:43:03|Alexie|AlinA||F|1994-03-02|Bucuresti|SECTOR 2|Barbat Voievod|17|0|0|0|0|0769234225||alinaalexie@yahoo.com|KTBL||Winston Blue (6mg) Pack|Yes|Yes||BWR05229|MAGNUM TRADE 2000 SRL|Bucuresti|BWDTCBA40|89|CCC MULTI Regie 2012|121|Retail|0
0|CS3195063|2012-12-12 15:45:39|Staicu|Petrut||M|1989-05-05|Bucuresti|SECTOR 6|Splaiul independentei|290|P4||0|15|0769187141||fasterunchiul@yahoo.com|WICLH||Winston 100s Clasic (10 mg)  Pack|Yes|Yes||BWR05229|MAGNUM TRADE 2000 SRL|Bucuresti|BWDTCBA40|89|CCC MULTI Regie 2012|121|Retail|0
0|CS3195135|2012-12-12 16:14:38|Dobre|Florentina||F|1980-02-20|Bucuresti|6|Splaiul independentei|290|P27|0|1|3|0721332279||dobre.florentina@yahoo.com|WICLH||Winston 100s Clasic (10 mg)  Pack|Yes|Yes||BWR05229|MAGNUM TRADE 2000 SRL|Bucuresti|BWDTCBA61|89|CCC MULTI Regie 2012|121|Retail|0
0|CS3195137|2012-12-12 16:15:42|Niculae|Sterian||M|1982-09-25|Bucuresti|6|Splaiul independentei|290|27|0|0|14|0784546875||sterian.niculae@yaho.com|KTH||Winston 100s Clasic (10 mg)  Pack|Yes|Yes||BWR05229|MAGNUM TRADE 2000 SRL|Bucuresti|BWDTCBA61|89|CCC MULTI Regie 2012|121|Retail|0
0|CS3195154|2012-12-12 16:18:22|Buta|Iuliana||F|1970-05-09|Bucuresti|5|Calea rahovei|286|1|1|0|7|0736343807||iuliana_buta@yahoo.com|KTBL||Winston Blue (6mg) Pack|Yes|Yes||BWR05229|MAGNUM TRADE 2000 SRL|Bucuresti|BWDTCBA61|89|CCC MULTI Regie 2012|121|Retail|0
0|CS3195163|2012-12-12 16:19:43|Bratucu|Laurentiu||M|1990-05-26|Bucuresti|6|Sp  Independentei|290|P14|0|4|417|0720917782||bratucu_laurentiu@yahoo.com|KTBLH||Winston 100s Blue (6 mg)  Pack|Yes|Yes||BWR05229|MAGNUM TRADE 2000 SRL|Bucuresti|BWDTCBA61|89|CCC MULTI Regie 2012|121|Retail|0
0|CS3195172|2012-12-12 16:21:41|Buta|Adela||F|1994-08-13|Bucuresti|SECTOR 5|Calea rahovei|286|1|1|0|7|0758462672||ellacrazy16@yahoo.com|KTBLH||Winston 100s Blue (6 mg)  Pack|Yes|Yes||BWR05229|MAGNUM TRADE 2000 SRL|Bucuresti|BWDTCBA61|89|CCC MULTI Regie 2012|121|Retail|0
0|CS3195245|2012-12-12 16:39:07|Paraschiv|Anca||F|1991-03-27|Olt|SLATINA|Libertatii|2|Fa15|C|0|4|0748694784||paraschiv_ank@yahoo.com|KTBL||Camel Black (6 mg) Pack|Yes|Yes||BWR05229|MAGNUM TRADE 2000 SRL|Bucuresti|BWDTCBA61|89|CCC MULTI Regie 2012|121|Retail|0
0|CS3195258|2012-12-12 16:41:41|Bichir|Ionut||M|1985-06-09|Bucuresti|6|Splaiul independentei|290|P12|0|4|415|0764331599||jony_atr@yahoo.com|KTBLH||Winston 100s Blue (6 mg)  Pack|Yes|Yes||BWR05229|MAGNUM TRADE 2000 SRL|Bucuresti|BWDTCBA61|89|CCC MULTI Regie 2012|121|Retail|0
0|CS3195263|2012-12-12 16:42:29|Radu|Virgil||M|1987-09-04|Bucuresti|6|Splaiul independentei|290|P22|0|3|310|0733491522||radu_1987@yahoo.com|KTBLH||Winston 100s Blue (6 mg)  Pack|Yes|Yes||BWR05229|MAGNUM TRADE 2000 SRL|Bucuresti|BWDTCBA61|89|CCC MULTI Regie 2012|121|Retail|0
0|CS3195290|2012-12-12 16:49:54|Mititelu|Ovidiu||M|1990-06-10|Bucuresti|Sector 2|Inginerilor Tei|29|C4|A|4|404|0720693965||mititelu90@yahoo.com|KTBLH||Winston 100s Blue (6 mg)  Pack|Yes|Yes||BWR05229|MAGNUM TRADE 2000 SRL|Bucuresti|BWDTCBA61|89|CCC MULTI Regie 2012|121|Retail|0
0|CS3195295|2012-12-12 16:52:02|Pintilie|Catalin||M|1990-05-26|Bucuresti|SECTOR 6|Splaiul independentei|290|P18|1|5|512|0747291125||pintiliecatalin90@yahoo.com|KTBLH||Winston 100s Blue (6 mg)  Pack|Yes|Yes||BWR05229|MAGNUM TRADE 2000 SRL|Bucuresti|BWDTCBA61|89|CCC MULTI Regie 2012|121|Retail|0
0|CS3195301|2012-12-12 16:53:25|Petcu|George||M|1988-04-03|Bucuresti|6|Splaiul independentei|290|P21|0|1|113|0722499522||petcu_george@yahoo.com|KTBLH||Winston 100s Blue (6 mg)  Pack|Yes|Yes||BWR05229|MAGNUM TRADE 2000 SRL|Bucuresti|BWDTCBA61|89|CCC MULTI Regie 2012|121|Retail|0
0|CS3195306|2012-12-12 16:54:19|Iancu|Daniel||M|1988-09-10|Bucuresti|6|Splaiul independentei|290|P21|0|0|23|0722445122||iancu_daniel@yahoo.com|KTBLH||Winston 100s Blue (6 mg)  Pack|Yes|Yes||BWR05229|MAGNUM TRADE 2000 SRL|Bucuresti|BWDTCBA61|89|CCC MULTI Regie 2012|121|Retail|0
0|CS3195321|2012-12-12 16:57:39|Roibu|Elena||F|1991-07-04|Arges|PITESTI|Negru voda|0|C4|A|3|20|0766339601||elena.roibu@yahoo.com|KTCON||Winston Fresh XSpression (5mg) Pack|Yes|Yes||BWR05229|MAGNUM TRADE 2000 SRL|Bucuresti|BWDTCBA61|89|CCC MULTI Regie 2012|121|Retail|0
0|CS3195343|2012-12-12 17:02:27|Ioanitescu|Ciprian||M|1980-01-18|Bucuresti|SECTOR 5|Sebastian|182|P14|2|8|24|0722124428||ciprian.ioanitescu@gmail.com|CABK||Camel Black (6 mg) Pack|Yes|Yes||BWR05229|MAGNUM TRADE 2000 SRL|Bucuresti|BWDTCBA61|89|CCC MULTI Regie 2012|121|Retail|0
0|CS3195360|2012-12-12 17:06:09|Patrascu|Claudia||F|1979-06-01|Bucuresti|6|Splaiul independentei|290|P23|0|0|1|0745468952||claudia.098@yahoo.com|KTH||Mouse + Winston 100s Clasic (10 mg)  Pack|Yes|Yes||BWR05229|MAGNUM TRADE 2000 SRL|Bucuresti|BWDTCBA61|89|CCC MULTI Regie 2012|121|Retail|0
0|CS3195363|2012-12-12 17:07:15|Niculae|Robert||M|1989-08-23|Bucuresti|6|Splaiul independentei|290|P26|0|0|9|0768323991||ggrasuxxl@ymail.com|KTH||Winston 100s Clasic (10 mg)  Pack|Yes|Yes||BWR05229|MAGNUM TRADE 2000 SRL|Bucuresti|BWDTCBA61|89|CCC MULTI Regie 2012|121|Retail|0
0|CS3195401|2012-12-12 17:16:51|Manu|Simona||F|1981-07-18|Bucuresti|6|Barsanesti|8|157|3|10|85|0765566618||manusimonaelena@yshoo.com|GLMMNT||Glamour Menthol (5mg) Pack|Yes|Yes||BWR05229|MAGNUM TRADE 2000 SRL|Bucuresti|BWDTCBA61|89|CCC MULTI Regie 2012|121|Retail|0
0|CS3195439|2012-12-12 17:24:57|Miron|Marian||M|1988-03-03|Bucuresti|5|Bobului|62|0|0|0|0|0721594846||marian_miron83@yahoo.com|MBRFP||Camel Blue (6 mg) Pack|Yes|Yes||BWR05229|MAGNUM TRADE 2000 SRL|Bucuresti|BWDTCBA61|89|CCC MULTI Regie 2012|121|Retail|0
0|CS3195501|2012-12-12 17:37:15|Grigorescu|Andreea||F|1992-09-21|Bucuresti|3|Aleea banuludrea|9|V104|A|6|72|0729812641||andreeagrigorescu@rocketmail.com|DUNFCMB||Bricheta Camel|No|Yes||BWR05229|MAGNUM TRADE 2000 SRL|Bucuresti|BWDTCBA61|89|CCC MULTI Regie 2012|121|Retail|0
0|CS3195516|2012-12-12 17:39:34|Sandu|Mihaela||F|1979-12-29|Bucuresti|SECTOR 6|Splaiul independentei|290|P27|0|0|16|0767176717||sandu.mihaela@yahoo.com|KTH||Winston 100s Clasic (10 mg)  Pack|Yes|Yes||BWR05229|MAGNUM TRADE 2000 SRL|Bucuresti|BWDTCBA61|89|CCC MULTI Regie 2012|121|Retail|0
0|CS3195522|2012-12-12 17:40:38|Niculae|Florentina||F|1965-10-13|Bucuresti|6|Splaiul independentei|290|P27|0|0|14|0767761771||niculaeflorentina@yahoo.com|KTH||Winston 100s Clasic (10 mg)  Pack|Yes|Yes||BWR05229|MAGNUM TRADE 2000 SRL|Bucuresti|BWDTCBA61|89|CCC MULTI Regie 2012|121|Retail|0
0|CS3195639|2012-12-12 18:06:38|Lovin|Bogdan||M|1984-07-02|Ilfov|VOLUNTARI|Buzaului|34|J|2|4|45|0720695631||bogdan.lovin@yahoo.com|KTBL||Bricheta Camel|Yes|Yes||BWR05229|MAGNUM TRADE 2000 SRL|Bucuresti|BWDTCBA61|89|CCC MULTI Regie 2012|121|Retail|0
0|CS3195657|2012-12-12 18:10:41|Rosu|Tiberiu||M|1992-02-18|Giurgiu|GIURGIU|Bd bucuresti|0|28|C|4|12|0786280146||naktael46@gmail.com|CABK||Bricheta Camel|Yes|Yes||BWR05229|MAGNUM TRADE 2000 SRL|Bucuresti|BWDTCBA61|89|CCC MULTI Regie 2012|121|Retail|0
0|CS3195672|2012-12-12 18:15:35|Balan|Simona||F|1993-01-12|Ialomita|URZICENI|Aleea gradinitei|4|A4|0|1|5|0766983183||b.simonaa@yahoo.com|DUNFCMBB||Bricheta Camel|Yes|Yes||BWR05229|MAGNUM TRADE 2000 SRL|Bucuresti|BWDTCBA61|89|CCC MULTI Regie 2012|121|Retail|0
0|CS3195696|2012-12-12 18:19:28|Bucur|Gabriela||F|1989-02-21|Bucuresti|6|Splaiul indpendentei|290|U3|1|4|407|0769684298||gabbyo_gaby@yahoo.com|KTBL||Camel Black (6 mg) Pack|Yes|Yes||BWR05229|MAGNUM TRADE 2000 SRL|Bucuresti|BWDTCBA61|89|CCC MULTI Regie 2012|121|Retail|0
0|CS3195792|2012-12-12 18:36:00|Niculescu|Catalin||M|1973-05-06|Arges|CAMPULUNG|Zavoiului|14|0|0|0|0|0763713202||catalinniculeacu@yahoo.com|DAVGL||Camel Blue (6 mg) Pack|Yes|Yes||BWR05229|MAGNUM TRADE 2000 SRL|Bucuresti|BWDTCBA61|89|CCC MULTI Regie 2012|121|Retail|0
0|CS3195829|2012-12-12 18:41:38|Novac|Ioan||M|1993-05-31|Vrancea|PAUNESTI|Bostanesti|Na|Na|Na|0|0|0763633130||novac_ioan@ymail.com|DUNFCMBB||Camel Black (6 mg) Pack|Yes|Yes||BWR05229|MAGNUM TRADE 2000 SRL|Bucuresti|BWDTCBA61|89|CCC MULTI Regie 2012|121|Retail|0
0|CS3195848|2012-12-12 18:45:12|Ilie|Cornel||M|1978-08-04|Bucuresti|SECTOR 6|Inghiner Nocolae Teodorescu|17|Na|Na|0|0|0784114586|||KTBL||Winston Blue (6mg) Pack|Yes|Yes||BWR05229|MAGNUM TRADE 2000 SRL|Bucuresti|BWDTCBA61|89|CCC MULTI Regie 2012|121|Retail|0
0|CS3195901|2012-12-12 18:55:25|Builescu|Adrian||M|1992-06-05|Valcea|RAMNICU VALCEA|Matei basarab|16|118|D|1|7|0751663699||ady13_bayern@yahoo.com|PMBL||Winston XStyle Blue (6mg) Pack|Yes|Yes||BWR05229|MAGNUM TRADE 2000 SRL|Bucuresti|BWDTCBA61|89|CCC MULTI Regie 2012|121|Retail|0
0|CS3195937|2012-12-12 19:00:00|Cojocaru|Ionut||M|1992-03-08|Giurgiu|GIURGIU|Bucuresti|1|||0|0|0769207057||ionut.florian.cojocaru@gmail.com|KTBL||Camel Black (6 mg) Pack|Yes|Yes||BWR05229|MAGNUM TRADE 2000 SRL|Bucuresti|BWDTCBA61|89|CCC MULTI Regie 2012|121|Retail|0
0|CS3195941|2012-12-12 19:01:23|Cobzaru|Gabriela||F|1986-11-04|Bucuresti|6|Splaiul independentei|290|P23|0|3|323|0723330951||cobzaru_gabriela@yahoo.com|KTBLH||Winston 100s Blue (6 mg)  Pack|Yes|Yes||BWR05229|MAGNUM TRADE 2000 SRL|Bucuresti|BWDTCBA61|89|CCC MULTI Regie 2012|121|Retail|0
0|CS3195949|2012-12-12 19:02:12|Necula|Daniel||M|1988-01-31|Bucuresti|6|Splaiul independenti|290|P5|0|5|510|0763491522||nacula.daniel@yahoo.com|KTBLH||Winston 100s Blue (6 mg)  Pack|Yes|Yes||BWR05229|MAGNUM TRADE 2000 SRL|Bucuresti|BWDTCBA61|89|CCC MULTI Regie 2012|121|Retail|0
0|CS3196070|2012-12-12 19:26:41|Mincea|Valentin||M|1991-07-05|Bucuresti|6|Splaiul independentei|290|P10|0|5|501|0755215284||valentinmincea@yahoo.com|KTCON||Winston Fresh XSpression (5mg) Pack|Yes|Yes||BWR05229|MAGNUM TRADE 2000 SRL|Bucuresti|BWDTCBA61|89|CCC MULTI Regie 2012|121|Retail|0
0|CS3196110|2012-12-12 19:32:12|Mistodie|Oana||F|1992-03-18|Bucuresti|SECTOR 4|Visana|3|44|2|7|82|0764616469||oana.mistodie@gmail.com|PHMQGR||Camel White (4 mg) Pack|No|Yes||BWR05229|MAGNUM TRADE 2000 SRL|Bucuresti|BWDTCBA61|89|CCC MULTI Regie 2012|121|Retail|0
0|CS3196149|2012-12-12 19:41:55|Ieseanu|Teodora||F|1985-11-29|Bucuresti|SECTOR 3|Aleea vergului|4|0|0|0|0|0765203977||teodora.ieseanu@yahoo.com|KTCON||Bricheta Winston XST|Yes|Yes||BWR05229|MAGNUM TRADE 2000 SRL|Bucuresti|BWDTCBA61|89|CCC MULTI Regie 2012|121|Retail|0
0|CS3196175|2012-12-12 19:47:35|Matache|Stefan||M|1983-08-27|Buzau|PIETROASELE|Mihai eminescu|120|0|0|0|0|0761087051||stefan.098@yahoo.com|KTSV||Bricheta Winston|Yes|Yes||BWR05229|MAGNUM TRADE 2000 SRL|Bucuresti|BWDTCBA61|89|CCC MULTI Regie 2012|121|Retail|0
0|CS3196199|2012-12-12 19:53:30|Chivu|Cristina||F|1989-10-17|Buzau|BUZAU|Prieteniei|0|D|35|3|15|0761180156||cristinaalina@yahoo.com|KTBL||Camel Black (6 mg) Pack|Yes|Yes||BWR05229|MAGNUM TRADE 2000 SRL|Bucuresti|BWDTCBA61|89|CCC MULTI Regie 2012|121|Retail|0
0|CS3196256|2012-12-12 20:07:20|Ginga|Roxana||F|1987-04-10|Bucuresti|SECTOR 2|Ferdinand|127|0|0|4|4|0765470845||rocsana10_gm@yahoo.com|KTSV||Winston XStyle Silver (4mg) Pack|Yes|Yes||BWR05229|MAGNUM TRADE 2000 SRL|Bucuresti|BWDTCBA61|89|CCC MULTI Regie 2012|121|Retail|0
0|CS3196890|2012-12-13 13:04:36|Gheorghe|Radu||M|1983-03-02|Bucuresti|SECTOR 6|Splaiul independentei|290|P12|0|0|112|0765181565||raducu_2383@yahoo.com|KTBLH||Winston 100s Blue (6 mg)  Pack|Yes|Yes||BWR05229|MAGNUM TRADE 2000 SRL|Bucuresti|BWDTCBA40|89|CCC MULTI Regie 2012|121|Retail|0
0|CS3196911|2012-12-13 13:17:13|Baloiu|Aurel||M|1980-04-20|Bucuresti|SECTOR 6|Splai independentei|290|P26|-|0|16|0785453321||baloiu.aurel@yahoo.com|KTBLH||Winston 100s Blue (6 mg)  Pack|Yes|Yes||BWR05229|MAGNUM TRADE 2000 SRL|Bucuresti|BWDTCBA40|89|CCC MULTI Regie 2012|121|Retail|0
0|CS3196919|2012-12-13 13:19:25|Iordache|Vasile||M|1982-09-25|Bucuresti|SECTOR 6|Splaiul independentei|290|P26||0|9|0768548329||vasiledache@yahoo.com|DUNBL||Winston 100s Blue (6 mg)  Pack|Yes|Yes||BWR05229|MAGNUM TRADE 2000 SRL|Bucuresti|BWDTCBA40|89|CCC MULTI Regie 2012|121|Retail|0
0|CS3196923|2012-12-13 13:21:13|Gheorghe|Aurelia||F|1970-10-04|Bucuresti|SECTOR 6|Iacob andrei|1|19|1|4|20|0764710066||gheorghe.aurelia@yahoo.com|KTBL||Winston 100s Blue (6 mg)  Pack|Yes|Yes||BWR05229|MAGNUM TRADE 2000 SRL|Bucuresti|BWDTCBA40|89|CCC MULTI Regie 2012|121|Retail|0
0|CS3196927|2012-12-13 13:23:27|Ionita|Mariana||F|1976-02-21|Bucuresti|SECTOR 6|Splaiul independentei|290|P27|-|0|14|0720318620|||KTBLH||Winston 100s Clasic (10 mg)  Pack|Yes|Yes||BWR05229|MAGNUM TRADE 2000 SRL|Bucuresti|BWDTCBA40|89|CCC MULTI Regie 2012|121|Retail|0
0|CS3196933|2012-12-13 13:27:20|Ciortan|Ovidiu||M|1978-09-02|Ilfov|PANTELIMON|Apusului|10|0|0|0|0|0732227055||ovidiuciortan@yahoo.com|KTWH||Camel White (4 mg) Pack|Yes|Yes||BWR05229|MAGNUM TRADE 2000 SRL|Bucuresti|BWDTCBA40|89|CCC MULTI Regie 2012|121|Retail|0
0|CS3196940|2012-12-13 13:30:39|Bercaru|Marian||M|1991-12-02|Ialomita|SLOBOZIA|Cuza Voda|10|14|B|4|13|0736925624||marian2468@yahoo.com|KTBLH||Bricheta Winston|Yes|Yes||BWR05229|MAGNUM TRADE 2000 SRL|Bucuresti|BWDTCBA40|89|CCC MULTI Regie 2012|121|Retail|0
0|CS3196991|2012-12-13 13:56:55|Soare|Rares||M|1982-10-30|Ilfov|PANTELIMON|Apusului|10|0|0|0|0|0744212323||soare.rares@yahoo.com|KTBL||Camel Black (6 mg) Pack|Yes|Yes||BWR05229|MAGNUM TRADE 2000 SRL|Bucuresti|BWDTCBA40|89|CCC MULTI Regie 2012|121|Retail|0
0|CS3197010|2012-12-13 14:07:01|Velcea|Marian||M|1968-04-29|Bucuresti|SECTOR 1|Lascar Catargiu|10|0|0|0|0|0762496690|||PMECBK||Winston 100s Clasic (10 mg)  Pack|Yes|Yes||BWR05229|MAGNUM TRADE 2000 SRL|Bucuresti|BWDTCBA40|89|CCC MULTI Regie 2012|121|Retail|0
0|CS3197034|2012-12-13 14:22:04|Dan|Geanina||F|1978-12-09|Bucuresti|SECTOR 6|Banat|18|Na|Na|0|0|0784546875||dangeanina@yahoo.com|MBRRDH||Winston 100s Clasic (10 mg)  Pack|Yes|Yes||BWR05229|MAGNUM TRADE 2000 SRL|Bucuresti|BWDTCBA40|89|CCC MULTI Regie 2012|121|Retail|0
0|CS3197040|2012-12-13 14:26:17|Nculae|Stelian||M|1982-09-25|Bucuresti|SECTOR 6|Spliul Independentei|290|P27||P|14|0784546875||niculae.steli@yahoo.com|MBRRDH||Winston 100s Clasic (10 mg)  Pack|Yes|Yes||BWR05229|MAGNUM TRADE 2000 SRL|Bucuresti|BWDTCBA40|89|CCC MULTI Regie 2012|121|Retail|0
0|CS3197048|2012-12-13 14:30:34|Alexandru|Florina||F|1989-01-11|Bucuresti|SECTOR 6|Migdalului|54|||0|0|0767332145||mona_nebuna11@yahoo.com|KTBL||Winston 100s Blue (6 mg)  Pack|Yes|Yes||BWR05229|MAGNUM TRADE 2000 SRL|Bucuresti|BWDTCBA40|89|CCC MULTI Regie 2012|121|Retail|0
0|CS3197060|2012-12-13 14:36:25|Tudor|Ionela||F|1989-03-30|Bucuresti|SECTOR 6|Iuliu Maniu|52|22b|1|6|23|0769580350||ionela_ti_89@yahoo.com|PMBL||Winston Blue (6mg) Pack|Yes|Yes||BWR05229|MAGNUM TRADE 2000 SRL|Bucuresti|BWDTCBA40|89|CCC MULTI Regie 2012|121|Retail|0
0|CS3197086|2012-12-13 14:51:14|Alexie|AlinA||F|1994-03-02|Bucuresti|SECTOR 2|Barbat Voievod|17|0|0|0|0|0769234225||alinaalexie@yahoo.com|KTBL||Winston Blue (6mg) Pack|Yes|Yes||BWR05229|MAGNUM TRADE 2000 SRL|Bucuresti|BWDTCBA40|89|CCC MULTI Regie 2012|121|Retail|0
0|CS3197094|2012-12-13 14:55:06|Alexie|Luminita||F|1970-12-02|Bucuresti|SECTOR 2|Barbat Voievod|17|||0|0|0740100613||luminitaalexie@yahoo.com|PMBL||Mouse + Winston Blue (6mg) Pack|Yes|Yes||BWR05229|MAGNUM TRADE 2000 SRL|Bucuresti|BWDTCBA40|89|CCC MULTI Regie 2012|121|Retail|0
0|CS3197170|2012-12-13 15:30:10|Popescu|Daniel||M|1985-01-15|Buzau|BUZAU|Mioritei|0|A2||3|12|0727800520||popi.danny.geo@gmail.com|KTSV||Bricheta Winston|Yes|Yes||BWR05229|MAGNUM TRADE 2000 SRL|Bucuresti|BWDTCBA40|89|CCC MULTI Regie 2012|121|Retail|0
0|CS3197176|2012-12-13 15:32:00|Cobzaru|Ionela||F|1990-03-20|Bucuresti|SECTOR 6|Splaiul Independentei|290|P9||2|216|0724092043||creata_ionela@yahoo.com|KTBL||Winston 100s Clasic (10 mg)  Pack|Yes|Yes||BWR05229|MAGNUM TRADE 2000 SRL|Bucuresti|BWDTCBA40|89|CCC MULTI Regie 2012|121|Retail|0
0|CS3197190|2012-12-13 15:36:31|Staicu|Petrut||M|1989-05-05|Bucuresti|SECTOR 6|Splaiul independentei|290|P4||0|15|0769187141||fasterunchiul@yahoo.com|WICL||Winston Classic Pack|Yes|Yes||BWR05229|MAGNUM TRADE 2000 SRL|Bucuresti|BWDTCBA40|89|CCC MULTI Regie 2012|121|Retail|0
0|CS3197192|2012-12-13 15:37:34|Anton|Mihai||M|1976-06-27|Bucuresti|SECTOR 6|Constantin titel petrescu|10|C40|A|1|6|0766357250||topoproiect@mail.com|WICL||Winston Classic Pack|Yes|Yes||BWR05229|MAGNUM TRADE 2000 SRL|Bucuresti|BWDTCBA40|89|CCC MULTI Regie 2012|121|Retail|0
0|CS3197266|2012-12-13 16:01:48|Tutulus|Elena||F|1984-07-17|Bucuresti|SECTOR 5|Rahovei|286|1|1|0|9|0726519538||telena84@yahoo.com|KTBL||Winston Blue (6mg) Pack|Yes|Yes||BWR05229|MAGNUM TRADE 2000 SRL|Bucuresti|BWDTCBA61|89|CCC MULTI Regie 2012|121|Retail|0
0|CS3197337|2012-12-13 16:18:26|Mata|Akexandru||M|1992-11-18|Bacau|Bacau|Principala|391|0|0|0|0|0745599780||alex_nek_1811@yahoo.com|DUNFCMBB||Camel Black (6 mg) Pack|Yes|Yes||BWR05229|MAGNUM TRADE 2000 SRL|Bucuresti|BWDTCBA61|89|CCC MULTI Regie 2012|121|Retail|0
0|CS3197357|2012-12-13 16:21:16|Mitru|Nicoleta||F|1991-03-23|Olt|SLATINA|Prelungirea tunari|4|S32|A|1|5|0785503087||mitru_nicoleta@yahoo.com|KTBL||Winston Blue (6mg) Pack|Yes|Yes||BWR05229|MAGNUM TRADE 2000 SRL|Bucuresti|BWDTCBA61|89|CCC MULTI Regie 2012|121|Retail|0
0|CS3197424|2012-12-13 16:35:29|Burtan|Alina||F|1987-01-22|Bucuresti|6|Splaiul independentei|290|P27|0|0|15|0722332646||albinutza@yahoo.com|KTH||Winston 100s Clasic (10 mg)  Pack|Yes|Yes||BWR05229|MAGNUM TRADE 2000 SRL|Bucuresti|BWDTCBA61|89|CCC MULTI Regie 2012|121|Retail|0
0|CS3197431|2012-12-13 16:36:32|Bidoi|Florin||M|1981-07-20|Bucuresti|SECTOR 5|Splaiul independentei|190|P27|1|0|14|0782549875|||KTH||Winston 100s Clasic (10 mg)  Pack|Yes|Yes||BWR05229|MAGNUM TRADE 2000 SRL|Bucuresti|BWDTCBA61|89|CCC MULTI Regie 2012|121|Retail|0
0|CS3197502|2012-12-13 16:48:07|Patrascu|Claudia||F|1979-06-01|Bucuresti|6|Splaiul independentei|290|P23|0|0|1|0745468952||claudia.098@yahoo.com|KTH||Winston 100s Clasic (10 mg)  Pack|Yes|Yes||BWR05229|MAGNUM TRADE 2000 SRL|Bucuresti|BWDTCBA61|89|CCC MULTI Regie 2012|121|Retail|0
0|CS3197513|2012-12-13 16:49:18|Niculae|Robert||M|1989-08-23|Bucuresti|6|Splaiul independentei|290|P26|0|0|9|0768323991||ggrasuxxl@ymail.com|KTH||Winston 100s Clasic (10 mg)  Pack|Yes|Yes||BWR05229|MAGNUM TRADE 2000 SRL|Bucuresti|BWDTCBA61|89|CCC MULTI Regie 2012|121|Retail|0
0|CS3197601|2012-12-13 17:06:31|Husu|Anca||F|1989-10-24|Buzau|BUZAU|Prieteniei|0|15b|1|3|7|0760133219||annk_annnk@yahoo.com|KTBL||Camel Black (6 mg) Pack|Yes|Yes||BWR05229|MAGNUM TRADE 2000 SRL|Bucuresti|BWDTCBA61|89|CCC MULTI Regie 2012|121|Retail|0
0|CS3197634|2012-12-13 17:11:13|Mihai|Catalin||M|1988-01-19|Bucuresti|6|Splaiul independentei|290|P13|1|1|123|0762966208||cata_catalin@yahoo.com|KTBL||Winston XStyle Blue (6mg) Pack|Yes|Yes||BWR05229|MAGNUM TRADE 2000 SRL|Bucuresti|BWDTCBA61|89|CCC MULTI Regie 2012|121|Retail|0
0|CS3197661|2012-12-13 17:15:41|Duta|Bogdan||M|1990-05-26|Bucuresti|6|Splaiul independentei|290|P14|0|5|523|0720917782||duta.bogdan90@yahoo.com|KTBLH||Winston 100s Blue (6 mg)  Pack|Yes|Yes||BWR05229|MAGNUM TRADE 2000 SRL|Bucuresti|BWDTCBA61|89|CCC MULTI Regie 2012|121|Retail|0
0|CS3197668|2012-12-13 17:17:15|Sandu|Victor||M|1990-01-17|Bucuresti|Sector 2|Inginerilor Tei|29|C4|Na|4|404|0724172310||flash_vis@yahoo.com|KTBLH||Winston 100s Blue (6 mg)  Pack|Yes|Yes||BWR05229|MAGNUM TRADE 2000 SRL|Bucuresti|BWDTCBA61|89|CCC MULTI Regie 2012|121|Retail|0
0|CS3197684|2012-12-13 17:22:07|Honciung|Marian||M|1970-08-01|Bucuresti|5|Aleeaplatanului|1|1|A|7|23|0727746173||hociungmarian@yahoo.com|WIBLH||Winston 100s Blue (6 mg)  Pack|Yes|Yes||BWR05229|MAGNUM TRADE 2000 SRL|Bucuresti|BWDTCBA61|89|CCC MULTI Regie 2012|121|Retail|0
0|CS3197713|2012-12-13 17:28:57|Alan|Lucian||M|1991-06-20|Teleorman|TURNU MAGURELE|Chimiei|0|O4|0|3|13|0768611074||lucian.alan@yahoo.com|KTBL||Camel Black (6 mg) Pack|Yes|Yes||BWR05229|MAGNUM TRADE 2000 SRL|Bucuresti|BWDTCBA61|89|CCC MULTI Regie 2012|121|Retail|0
0|CS3197810|2012-12-13 17:44:45|Pancescu|Dumitru||M|1986-09-28|Bucuresti|SECTOR 6|Prelungirea ghencea|100|A2|1|13|135|0765432145||micky2_cute@yahoo.com|KTBLH||Winston 100s Blue (6 mg)  Pack|Yes|Yes||BWR05229|MAGNUM TRADE 2000 SRL|Bucuresti|BWDTCBA61|89|CCC MULTI Regie 2012|121|Retail|0
0|CS3197835|2012-12-13 17:49:16|Comanescu|Alexandru||M|1991-10-18|Buzau|RAMNICU SARAT|Costieni|0|0|0|0|0|0784175666||alexcomanescu2003@yahoo.ca|KTBLH||Winston 100s Blue (6 mg)  Pack|Yes|Yes||BWR05229|MAGNUM TRADE 2000 SRL|Bucuresti|BWDTCBA61|89|CCC MULTI Regie 2012|121|Retail|0
0|CS3197869|2012-12-13 17:56:34|Darie|Vlad||M|1992-09-02|Bacau|Onesti|Stadionului|15|15|A|P|2|0740185050||vlad.darie92@yahoo.com|KTBL||Camel Black (6 mg) Pack|Yes|Yes||BWR05229|MAGNUM TRADE 2000 SRL|Bucuresti|BWDTCBA61|89|CCC MULTI Regie 2012|121|Retail|0
0|CS3197883|2012-12-13 17:59:18|Anghelescu|Marian||M|1989-08-08|Bacau|Onesti|Stadionului|1|1|A|4|14|0754800852||anghelescu_dan08@yahoo.com|KTBL||Camel Black (6 mg) Pack|Yes|Yes||BWR05229|MAGNUM TRADE 2000 SRL|Bucuresti|BWDTCBA61|89|CCC MULTI Regie 2012|121|Retail|0
0|CS3197899|2012-12-13 18:01:27|Mureanu|Paul||M|1990-06-15|Valcea|BAILE OLANESTI|1 decembrie|6|C|B|3|7|0747924919||mureanu_paul@yahoo.com|CABK||Bricheta Camel|Yes|Yes||BWR05229|MAGNUM TRADE 2000 SRL|Bucuresti|BWDTCBA61|89|CCC MULTI Regie 2012|121|Retail|0
0|CS3197914|2012-12-13 18:03:39|Lazar|Valentin||M|1987-01-28|Bucuresti|SECTOR 6|Pestera Scarisoara|2|M3|2|1|49|0762705967||valentin.lazar@pella.ro|KTCON||Mouse + Winston Fresh XSpression (5mg) Pack|Yes|Yes||BWR05229|MAGNUM TRADE 2000 SRL|Bucuresti|BWDTCBA61|89|CCC MULTI Regie 2012|121|Retail|0
0|CS3197922|2012-12-13 18:05:52|Petre|Alina||F|1988-03-16|Bucuresti|SECTOR 6|Splaiul independenei|290|0|0|0|0|0766363193||fish_baby03@yahoo.com|VIRSPR||Bricheta Glamour|Yes|Yes||BWR05229|MAGNUM TRADE 2000 SRL|Bucuresti|BWDTCBA61|89|CCC MULTI Regie 2012|121|Retail|0
0|CS3197930|2012-12-13 18:07:03|Chivu|Cristina||F|1989-10-17|Buzau|BUZAU|Prieteniei|0|D|35|3|15|0761180156||cristinaalina@yahoo.com|VIRSBL||Bricheta Glamour|Yes|Yes||BWR05229|MAGNUM TRADE 2000 SRL|Bucuresti|BWDTCBA61|89|CCC MULTI Regie 2012|121|Retail|0
0|CS3197938|2012-12-13 18:08:56|Mares|Nicoleta||F|1989-02-13|Buzau|Buzau|Mioritei|0|A6|0|3|15|0785450266||nicoletaalina13@yahoo.com|VIRSBL||Bricheta Glamour|Yes|Yes||BWR05229|MAGNUM TRADE 2000 SRL|Bucuresti|BWDTCBA61|89|CCC MULTI Regie 2012|121|Retail|0
0|CS3197942|2012-12-13 18:09:59|Berbecaru|Mihaela||F|1985-11-19|Bucuresti|6|Pestera scarisoara|2|M3|2|1|49|0765455024||berbecaru.mihaela@yahoo.com|VIRSBL||Bricheta Glamour|Yes|Yes||BWR05229|MAGNUM TRADE 2000 SRL|Bucuresti|BWDTCBA61|89|CCC MULTI Regie 2012|121|Retail|0
0|CS3197954|2012-12-13 18:12:17|Vlad|Adriana||F|1988-02-03|Bucuresti|6|Splaiul independentei|290|P21|0|3|301|0765432169||vlad.adriana88@gmail.com|GLMBL||Bricheta Glamour|Yes|Yes||BWR05229|MAGNUM TRADE 2000 SRL|Bucuresti|BWDTCBA61|89|CCC MULTI Regie 2012|121|Retail|0
0|CS3197993|2012-12-13 18:20:27|Burlacu|Simona||F|1989-12-16|Tulcea|Tulcea|Rosmarin|5|N2|B|3|15|0740998891||simonaburlacu2010@gmail.com|KTCON||Bricheta Winston XST|Yes|Yes||BWR05229|MAGNUM TRADE 2000 SRL|Bucuresti|BWDTCBA61|89|CCC MULTI Regie 2012|121|Retail|0
0|CS3198010|2012-12-13 18:23:17|Preda|Marian||M|1987-01-24|Bucuresti|SECTOR 6|Splaiul independentei|290|P26|-|0|16|0737189414|||KTBL||Winston Blue (6mg) Pack|Yes|Yes||BWR05229|MAGNUM TRADE 2000 SRL|Bucuresti|BWDTCBA61|89|CCC MULTI Regie 2012|121|Retail|0
0|CS3198021|2012-12-13 18:25:08|Timis|Nicoara||M|1986-07-21|Bucuresti|SECTOR 6|Splai independentei|290|P26|-|0|15|0723038367|||KTH||Winston 100s Clasic (10 mg)  Pack|Yes|Yes||BWR05229|MAGNUM TRADE 2000 SRL|Bucuresti|BWDTCBA61|89|CCC MULTI Regie 2012|121|Retail|0
0|CS3198040|2012-12-13 18:27:29|Bidoi|Costel||M|1983-08-20|Bucuresti|6|Splaiul independentei|290|P23|0|P|12|0721321354||bidoi.costel@yahoo.com|KTH||Winston 100s Clasic (10 mg)  Pack|Yes|Yes||BWR05229|MAGNUM TRADE 2000 SRL|Bucuresti|BWDTCBA61|89|CCC MULTI Regie 2012|121|Retail|0
0|CS3198142|2012-12-13 18:43:06|Creanga|Alina||F|1988-07-31|Bucuresti|SECTOR 6|Spl independentei|290|P1|A|5|521|0764711154||creanga.alina.ca@gmail.com|GLPBMNFT||Bricheta Glamour|Yes|Yes||BWR05229|MAGNUM TRADE 2000 SRL|Bucuresti|BWDTCBA61|89|CCC MULTI Regie 2012|121|Retail|0
0|CS3198233|2012-12-13 18:57:45|Curca|Stefan||M|1993-06-24|Prahova|PAULESTI|Principala|20|0|0|0|0|0727668502||bishop_of_war@yahoo.com|KTBL||Bricheta Camel|Yes|Yes||BWR05229|MAGNUM TRADE 2000 SRL|Bucuresti|BWDTCBA61|89|CCC MULTI Regie 2012|121|Retail|0
0|CS3198247|2012-12-13 19:01:11|Bichir|Ionut||M|1985-06-09|Bucuresti|6|Splaiul independentei|290|P12|0|4|415|0764331599||jony_atr@yahoo.com|KTBLH||Winston 100s Blue (6 mg)  Pack|Yes|Yes||BWR05229|MAGNUM TRADE 2000 SRL|Bucuresti|BWDTCBA61|89|CCC MULTI Regie 2012|121|Retail|0
0|CS3198252|2012-12-13 19:02:23|Cobzaru|Gabriela||F|1986-11-04|Bucuresti|6|Splaiul independentei|290|P23|0|3|323|0723330951||cobzaru_gabriela@yahoo.com|KTBLH||Winston 100s Blue (6 mg)  Pack|Yes|Yes||BWR05229|MAGNUM TRADE 2000 SRL|Bucuresti|BWDTCBA61|89|CCC MULTI Regie 2012|121|Retail|0
0|CS3198257|2012-12-13 19:03:11|Radu|Virgil||M|1987-09-04|Bucuresti|6|Splaiul independentei|290|P22|0|3|310|0733491522||radu_1987@yahoo.com|KTBLH||Winston 100s Blue (6 mg)  Pack|Yes|Yes||BWR05229|MAGNUM TRADE 2000 SRL|Bucuresti|BWDTCBA61|89|CCC MULTI Regie 2012|121|Retail|0
0|CS3198261|2012-12-13 19:04:06|Iancu|Daniel||M|1988-09-10|Bucuresti|6|Splaiul independentei|290|P21|0|0|23|0722445122||iancu_daniel@yahoo.com|KTBLH||Winston 100s Blue (6 mg)  Pack|Yes|Yes||BWR05229|MAGNUM TRADE 2000 SRL|Bucuresti|BWDTCBA61|89|CCC MULTI Regie 2012|121|Retail|0
0|CS3198290|2012-12-13 19:09:59|Soare|Mircea||M|1957-09-05|Bucuresti|SECTOR 4|Padesu|10|0|0|0|0|0723705143||soaremircea@yahoo.com|KTBL||Camel Black (6 mg) Pack|Yes|Yes||BWR05229|MAGNUM TRADE 2000 SRL|Bucuresti|BWDTCBA61|89|CCC MULTI Regie 2012|121|Retail|0
0|CS3198298|2012-12-13 19:11:32|Niculescu|Catalin||M|1973-05-06|Arges|CAMPULUNG|Zavoiului|14|0|0|0|0|0763713202||catalinniculeacu@yahoo.com|DAVGL||Camel Blue (6 mg) Pack|Yes|Yes||BWR05229|MAGNUM TRADE 2000 SRL|Bucuresti|BWDTCBA61|89|CCC MULTI Regie 2012|121|Retail|0
0|CS3198327|2012-12-13 19:16:25|Spirache|Rares||M|1990-03-15|Bucuresti|3|Calea vitan|231|6|2|P|135|0720101622||rares.spirache72737@yahoo.com|KTBL|DUNFCMBB|Camel Black (6 mg) Pack|Yes|Yes||BWR05229|MAGNUM TRADE 2000 SRL|Bucuresti|BWDTCBA61|89|CCC MULTI Regie 2012|121|Retail|0
0|CS3198420|2012-12-13 19:31:35|Oprea|Horatiu||M|1977-02-19|Gorj|Motru|Liliacului|3|A2|1|1|5|0743227055||horatiu.oprea@yahoo.com|KTSV||Camel White (4 mg) Pack|Yes|Yes||BWR05229|MAGNUM TRADE 2000 SRL|Bucuresti|BWDTCBA61|89|CCC MULTI Regie 2012|121|Retail|0
0|CS3198436|2012-12-13 19:34:30|Ginga|Roxana||F|1987-04-10|Bucuresti|SECTOR 2|Ferdinand|127|0|0|4|4|0765470845||rocsana10_gm@yahoo.com|KTSV||Winston XStyle Silver (4mg) Pack|Yes|Yes||BWR05229|MAGNUM TRADE 2000 SRL|Bucuresti|BWDTCBA61|89|CCC MULTI Regie 2012|121|Retail|0
0|CS3198464|2012-12-13 19:38:20|Voivozeanu|Dorelia||F|1990-06-17|Calarasi|CALARASI|I L caragiale|11|0|0|0|0|0720669691||doreliav90@yahoo.com|GLMLIL||Glamour Lilac (5mg) Pack|Yes|Yes||BWR05229|MAGNUM TRADE 2000 SRL|Bucuresti|BWDTCBA61|89|CCC MULTI Regie 2012|121|Retail|0
0|CS3198630|2012-12-13 20:11:15|Hantascu|Bogdan||M|1984-05-10|Botosani|BOTOSANI|Imparat traian|14|D5|A|0|5|0741773441||bogdan.hantascu@yahoo.com|KTSV||Bricheta Camel|Yes|Yes||BWR05229|MAGNUM TRADE 2000 SRL|Bucuresti|BWDTCBA61|89|CCC MULTI Regie 2012|121|Retail|0
0|CS3199425|2012-12-14 12:09:04|Joita|Alexandru||M|1987-11-02|Dambovita|Gaiesti|George Cosbuc|8|0||||0756051999||dan.alexandrujoitei@gmail.com|CAFI||Bricheta Camel|Yes|Yes||BWR05229|MAGNUM TRADE 2000 SRL|Bucuresti|BWDTCBA40|89|CCC MULTI Regie 2012|121|Retail|0
0|CS3199459|2012-12-14 12:23:55|Ghita|IsabelL||F|1993-09-18|Bucuresti|SECTOR 6|Spliul Independentei|290|P10||4|406|0762881513||isa_isuk@yahoo.com|KTBL||Bricheta Camel|Yes|Yes||BWR05229|MAGNUM TRADE 2000 SRL|Bucuresti|BWDTCBA40|89|CCC MULTI Regie 2012|121|Retail|0
0|CS3199483|2012-12-14 12:29:39|Idoras|Doru||M|1994-02-17|Arges|CAMPULUNG|Cruiului|74|P14|A|1|5|0746640787||idoras13@yahoo.com|KTBL||Camel Black (6 mg) Pack|Yes|Yes||BWR05229|MAGNUM TRADE 2000 SRL|Bucuresti|BWDTCBA40|89|CCC MULTI Regie 2012|121|Retail|0
0|CS3199488|2012-12-14 12:31:08|Stanciu|Mihaela||F|1992-11-05|Buzau|BUZAU|Cartier brosteni|0|B1|0|1|5|0746339944||h0us30fde4th@yahoo.com|VIRSBL||Glamour Azure (3mg) Pack|Yes|Yes||BWR05229|MAGNUM TRADE 2000 SRL|Bucuresti|BWDTCBA40|89|CCC MULTI Regie 2012|121|Retail|0
0|CS3199500|2012-12-14 12:35:22|Ilie|Alexandru||M|1957-10-07|Teleorman|ORBEASCA DE SUS|Principala|0|0|0|0|0|0723324507|||WIBL||Winston Blue (6mg) Pack|Yes|Yes||BWR05229|MAGNUM TRADE 2000 SRL|Bucuresti|BWDTCBA40|89|CCC MULTI Regie 2012|121|Retail|0
0|CS3199505|2012-12-14 12:36:28|Tanase|Liviu||M|1989-06-11|Bucuresti|SECTOR 1|Calea grivitei|212|J|E|3|13|0763668713||tanaseadrian50@yahoo.com|WIBL||Winston Blue (6mg) Pack|Yes|Yes||BWR05229|MAGNUM TRADE 2000 SRL|Bucuresti|BWDTCBA40|89|CCC MULTI Regie 2012|121|Retail|0
0|CS3199512|2012-12-14 12:39:20|Stoica|Marius||M|1990-04-21|Ialomita|URZICENI|Principala|635|0|0|0|0|0768434077||antonio.bte@yahoo.com|WIBL||Winston Blue (6mg) Pack|Yes|Yes||BWR05229|MAGNUM TRADE 2000 SRL|Bucuresti|BWDTCBA40|89|CCC MULTI Regie 2012|121|Retail|0
0|CS3199521|2012-12-14 12:41:43|Gherase|Gheorghe||M|1962-05-05|Dambovita|GAESTI|Garii|135|0|0|0|0|0728896584|||LMBLH||Winston Blue (6mg) Pack|Yes|Yes||BWR05229|MAGNUM TRADE 2000 SRL|Bucuresti|BWDTCBA40|89|CCC MULTI Regie 2012|121|Retail|0
0|CS3199528|2012-12-14 12:44:43|Marin|Sandel||M|1969-06-28|Teleorman|ORBEASCA DE SUS|Principala|-|-|-|0|0|0769749859|||WIBL||Winston Blue (6mg) Pack|Yes|Yes||BWR05229|MAGNUM TRADE 2000 SRL|Bucuresti|BWDTCBA40|89|CCC MULTI Regie 2012|121|Retail|0
0|CS3199541|2012-12-14 12:51:26|Ifrim|Valentin||M|1977-10-03|Bucuresti|SECTOR 6|Timisoara|29|B|A|9|37|0784066999||vali.ifrim@yahho.com|KTSV||Winston XStyle Blue (6mg) Pack|Yes|Yes||BWR05229|MAGNUM TRADE 2000 SRL|Bucuresti|BWDTCBA40|89|CCC MULTI Regie 2012|121|Retail|0
0|CS3199543|2012-12-14 12:53:07|Bratu|Aleandru||M|1957-03-05|Bucuresti|SECTOR 3|Vlad Dracul|11|C14|3|2|72|0756301314|||WIBL||Winston Blue (6mg) Pack|Yes|Yes||BWR05229|MAGNUM TRADE 2000 SRL|Bucuresti|BWDTCBA40|89|CCC MULTI Regie 2012|121|Retail|0
0|CS3199574|2012-12-14 13:07:46|Gogonea|Stefan||M|1961-10-14|Ilfov|PERIS|Lastarului|1|0|0|0|0|0726975992|||MBRGLH||Winston Blue (6mg) Pack|Yes|Yes||BWR05229|MAGNUM TRADE 2000 SRL|Bucuresti|BWDTCBA40|89|CCC MULTI Regie 2012|121|Retail|0
0|CS3199580|2012-12-14 13:09:40|Petre|Paul Laurentiu||M|1973-05-19|Bucuresti|SECTOR 5|Verigei|5|1|2|9|81|0767232298||laurentiupetre73@yahoo.com|MBRGL|KTBL|Winston Blue (6mg) Pack|Yes|Yes||BWR05229|MAGNUM TRADE 2000 SRL|Bucuresti|BWDTCBA40|89|CCC MULTI Regie 2012|121|Retail|0
0|CS3199625|2012-12-14 13:27:37|Zafiu|Mariu Alexandru||M|1991-11-19|Ialomita|URZICENI|Muncii|4|111|C|3|11|0785058144||alexandru_dark_boy@yahoo.com|KTBL||Mouse + Winston Blue (6mg) Pack|Yes|Yes||BWR05229|MAGNUM TRADE 2000 SRL|Bucuresti|BWDTCBA40|89|CCC MULTI Regie 2012|121|Retail|0
0|CS3199632|2012-12-14 13:29:38|Micu|Ion||M|1961-02-27|Dambovita|BILCIURESTI|Principala|170|0|0|0|0|0761762279|||WIBL||Winston Blue (6mg) Pack|Yes|Yes||BWR05229|MAGNUM TRADE 2000 SRL|Bucuresti|BWDTCBA40|89|CCC MULTI Regie 2012|121|Retail|0
0|CS3199636|2012-12-14 13:32:59|Constantinescu|Cristina||F|1992-01-30|Bucuresti|SECTOR 3|Liviu Rebreanu|5|52|2|1|50|0730667238||kitt_y15@yahoo.com|KTBL||Winston Blue (6mg) Pack|Yes|Yes||BWR05229|MAGNUM TRADE 2000 SRL|Bucuresti|BWDTCBA40|89|CCC MULTI Regie 2012|121|Retail|0
0|CS3199663|2012-12-14 13:42:45|Barbu|Remus Cristian||M|1965-01-11|Bucuresti|SECTOR 3|Jean steriadi|46|M13|1|3|10|0749664015|||KTBLH||Winston Classic Pack|Yes|Yes||BWR05229|MAGNUM TRADE 2000 SRL|Bucuresti|BWDTCBA40|89|CCC MULTI Regie 2012|121|Retail|0
0|CS3199676|2012-12-14 13:46:01|Burdusel|Diana||F|1991-07-07|Bucuresti|SECTOR 6|Splaiul independentei|290|P8|1|2|204|0766569957||burdusik_23@yahoo.com|DUNBL||Bricheta Glamour|Yes|Yes||BWR05229|MAGNUM TRADE 2000 SRL|Bucuresti|BWDTCBA40|89|CCC MULTI Regie 2012|121|Retail|0
0|CS3199691|2012-12-14 13:51:13|Petrisor|Cristian||M|1959-06-12|Bucuresti|SECTOR 1|Nicolae Titulescu|92|13|4|9|158|0724071395|||KTH||Winston Classic Pack|Yes|Yes||BWR05229|MAGNUM TRADE 2000 SRL|Bucuresti|BWDTCBA40|89|CCC MULTI Regie 2012|121|Retail|0
0|CS3199707|2012-12-14 13:56:34|Ciocan|Dorel Alexandru||M|1990-02-03|Bacau|ONESTI|Chimistului|3|3|A|3|16|0749679942||ciocanciocan1990@yahoo.se|KTBLH||Bricheta Camel|Yes|Yes||BWR05229|MAGNUM TRADE 2000 SRL|Bucuresti|BWDTCBA40|89|CCC MULTI Regie 2012|121|Retail|0
0|CS3199809|2012-12-14 14:44:59|Alexandru|Octavian||M|1993-09-07|Arges|CAMPULUNG|Lt Dumitru Laar|2|A2b|A|3|11|0743227220||octy4001@gmail.com|DUNBL||Bricheta Camel|Yes|Yes||BWR05229|MAGNUM TRADE 2000 SRL|Bucuresti|BWDTCBA40|89|CCC MULTI Regie 2012|121|Retail|0
0|CS3199843|2012-12-14 15:04:24|Neciu|Liviu||M|1987-08-03|Olt|BALS|Nicolae Balcescu|127|A|2|4|17|0742974924||neciuliviu@yahoo.com|KTH||Winston Classic Pack|Yes|Yes||BWR05229|MAGNUM TRADE 2000 SRL|Bucuresti|BWDTCBA40|89|CCC MULTI Regie 2012|121|Retail|0
0|CS3199861|2012-12-14 15:11:05|Gheorghe|Radu||M|1983-03-02|Bucuresti|SECTOR 6|Splaiul independentei|290|P12|0|0|112|0765181565||raducu_2383@yahoo.com|KTH||Winston Classic Pack|Yes|Yes||BWR05229|MAGNUM TRADE 2000 SRL|Bucuresti|BWDTCBA40|89|CCC MULTI Regie 2012|121|Retail|0
0|CS3199874|2012-12-14 15:14:39|Tutulus|Elena||F|1984-07-18|Bucuresti|SECTOR 5|Cal rahovei|286|1|1|0|9|0726519538||telena84@yahoo.com|MBRRD||Winston Classic Pack|Yes|Yes||BWR05229|MAGNUM TRADE 2000 SRL|Bucuresti|BWDTCBA40|89|CCC MULTI Regie 2012|121|Retail|0
0|CS3199900|2012-12-14 15:25:03|Cobzaru|Ionela||F|1990-03-20|Bucuresti|SECTOR 6|Splaiul Independentei|290|P9||2|216|0724092043||creata_ionela@yahoo.com|KTBL||Winston Classic Pack|Yes|Yes||BWR05229|MAGNUM TRADE 2000 SRL|Bucuresti|BWDTCBA40|89|CCC MULTI Regie 2012|121|Retail|0
0|CS3199946|2012-12-14 15:40:39|Staicu|Petrut||M|1989-05-05|Bucuresti|SECTOR 6|Splaiul independentei|290|P4||0|15|0769187141||fasterunchiul@yahoo.com|WICL||Winston Classic Pack|Yes|Yes||BWR05229|MAGNUM TRADE 2000 SRL|Bucuresti|BWDTCBA40|89|CCC MULTI Regie 2012|121|Retail|0
0|CS3199976|2012-12-14 15:48:04|Petroiu|Ionel||M|1956-11-22|Bucuresti|SECTOR 6|Mihailescu Vintila|16|70|2|1|66|0764437795|||WIBLH||Winston Classic Pack|Yes|Yes||BWR05229|MAGNUM TRADE 2000 SRL|Bucuresti|BWDTCBA40|89|CCC MULTI Regie 2012|121|Retail|0
0|CS3199998|2012-12-14 15:55:21|Panturu|Elena||F|1989-10-06|Bucuresti|SECTOR 6|Splaiul independentei|290|P2|0|1|112|0743078698||elena_panturu@yahoo.com|GLMLIL||Glamour Lilac (5mg) Pack|Yes|Yes||BWR05229|MAGNUM TRADE 2000 SRL|Bucuresti|BWDTCBA40|89|CCC MULTI Regie 2012|121|Retail|0
0|CS3200035|2012-12-14 16:05:43|Radu|George||M|1980-07-27|Teleorman|Vedea|Pincipala|23|0|0|0|0|0765860467||radu.george@yahoo.com|KTBLH||Winston 100s Blue (6 mg)  Pack|Yes|Yes||BWR05229|MAGNUM TRADE 2000 SRL|Bucuresti|BWDTCBA61|89|CCC MULTI Regie 2012|121|Retail|0
0|CS3200037|2012-12-14 16:06:41|Buta|Iuliana||F|1983-05-09|Bucuresti|SECTOR 5|Calea Rahovei|286|5|1|0|7|0736333807||iuliana_buta@yahoo.com|KTBL||Winston Blue (6mg) Pack|Yes|Yes||BWR05229|MAGNUM TRADE 2000 SRL|Bucuresti|BWDTCBA61|89|CCC MULTI Regie 2012|121|Retail|0
0|CS3200041|2012-12-14 16:07:29|Buta|Adela||F|1994-08-13|Bucuresti|SECTOR 5|Calea rahovei|286|1|1|0|7|0758462672||ellacrazy16@yahoo.com|KTBL||Winston Blue (6mg) Pack|Yes|Yes||BWR05229|MAGNUM TRADE 2000 SRL|Bucuresti|BWDTCBA61|89|CCC MULTI Regie 2012|121|Retail|0
0|CS3200074|2012-12-14 16:14:55|Mahmut|Rodica||F|1983-12-27|Bucuresti|4|Trestiana|2|0|0|0|0|0727257601||rodiukr@mail.ru|WISSB||Bricheta Winston|Yes|Yes||BWR05229|MAGNUM TRADE 2000 SRL|Bucuresti|BWDTCBA61|89|CCC MULTI Regie 2012|121|Retail|0
0|CS3200103|2012-12-14 16:21:35|Manea|Anca||F|1986-07-05|Bucuresti|SECTOR 6|Grintiesului|2|6|6|2|84|0765180740||anca_manea84@yahoo.com|KTBL||Winston XStyle Blue (6mg) Pack|Yes|Yes||BWR05229|MAGNUM TRADE 2000 SRL|Bucuresti|BWDTCBA61|89|CCC MULTI Regie 2012|121|Retail|0
0|CS3200124|2012-12-14 16:25:03|Merlan|Georgica||M|1968-06-08|Teleorman|TURNU MAGURELE|Timpuri Noi|12|0|0|0|0|0727915821|||KTBL||Winston Blue (6mg) Pack|Yes|Yes||BWR05229|MAGNUM TRADE 2000 SRL|Bucuresti|BWDTCBA61|89|CCC MULTI Regie 2012|121|Retail|0
0|CS3200145|2012-12-14 16:29:07|Zaroschi|Adrian||M|1992-04-01|Ialomita|URZICENI|Garii|0|Na|Na|0|0|0766971210||adi_zaro@yahoo.com|KTBL||Winston Blue (6mg) Pack|Yes|Yes||BWR05229|MAGNUM TRADE 2000 SRL|Bucuresti|BWDTCBA61|89|CCC MULTI Regie 2012|121|Retail|0
0|CS3200200|2012-12-14 16:39:10|Banu|Marcel||M|1982-10-09|Dambovita|CIOCANESTI|Padureti|161|0|0|0|0|0730298376||banumarcel@yahoo.com|KTBL||Winston Blue (6mg) Pack|Yes|Yes||BWR05229|MAGNUM TRADE 2000 SRL|Bucuresti|BWDTCBA61|89|CCC MULTI Regie 2012|121|Retail|0
0|CS3200221|2012-12-14 16:44:15|Patrascu|Claudia||F|1979-06-01|Bucuresti|6|Splaiul independentei|290|P23|0|0|1|0745468952||claudia.098@yahoo.com|KTH||Winston 100s Clasic (10 mg)  Pack|Yes|Yes||BWR05229|MAGNUM TRADE 2000 SRL|Bucuresti|BWDTCBA61|89|CCC MULTI Regie 2012|121|Retail|0
0|CS3200227|2012-12-14 16:45:16|Niculae|Robert||M|1989-08-23|Bucuresti|6|Splaiul independentei|290|P26|0|0|9|0768323991||ggrasuxxl@ymail.com|KTH||Winston 100s Clasic (10 mg)  Pack|Yes|Yes||BWR05229|MAGNUM TRADE 2000 SRL|Bucuresti|BWDTCBA61|89|CCC MULTI Regie 2012|121|Retail|0
0|CS3200259|2012-12-14 16:52:00|Boldinog|Razvan||M|1989-04-02|Bucuresti|5|Malcoci|26|0|0|0|0|0735551464||razvan.boldinog@yahoo.com|WIBL||Winston Blue (6mg) Pack|Yes|Yes||BWR05229|MAGNUM TRADE 2000 SRL|Bucuresti|BWDTCBA61|89|CCC MULTI Regie 2012|121|Retail|0
0|CS3200309|2012-12-14 17:01:15|Bichir|Ionut||M|1985-06-09|Bucuresti|6|Splaiul independentei|290|P12|0|4|415|0764331599||jony_atr@yahoo.com|KTBLH||Winston 100s Blue (6 mg)  Pack|Yes|Yes||BWR05229|MAGNUM TRADE 2000 SRL|Bucuresti|BWDTCBA61|89|CCC MULTI Regie 2012|121|Retail|0
0|CS3200317|2012-12-14 17:02:07|Radu|Virgil||M|1987-09-04|Bucuresti|6|Splaiul independentei|290|P22|0|3|310|0733491522||radu_1987@yahoo.com|KTBLH||Winston 100s Blue (6 mg)  Pack|Yes|Yes||BWR05229|MAGNUM TRADE 2000 SRL|Bucuresti|BWDTCBA61|89|CCC MULTI Regie 2012|121|Retail|0
0|CS3200449|2012-12-14 17:24:34|Ioana|Adela||F|1990-07-09|Bucuresti|5|Splaiul independentei|64|0|0|0|0|0745139974||ade_907@yahoo.com|WIBL||Mouse + Winston Blue (6mg) Pack|Yes|Yes||BWR05229|MAGNUM TRADE 2000 SRL|Bucuresti|BWDTCBA61|89|CCC MULTI Regie 2012|121|Retail|0
0|CS3200463|2012-12-14 17:27:16|Rotaru|Lucian||M|1993-01-09|Buzau|BUZAU|Aleea constructorilor|-|29|B|1|21|0760914882||lucy_93_buzau@yahoo.com|KTBL||Winston Blue (6mg) Pack|Yes|Yes||BWR05229|MAGNUM TRADE 2000 SRL|Bucuresti|BWDTCBA61|89|CCC MULTI Regie 2012|121|Retail|0
0|CS3200527|2012-12-14 17:40:15|Iancu|Daniel||M|1988-09-10|Bucuresti|6|Splaiul independentei|290|P21|0|0|23|0722445122||iancu_daniel@yahoo.com|KTH||Winston 100s Clasic (10 mg)  Pack|Yes|Yes||BWR05229|MAGNUM TRADE 2000 SRL|Bucuresti|BWDTCBA61|89|CCC MULTI Regie 2012|121|Retail|0
0|CS3200541|2012-12-14 17:41:38|Petcu|George||M|1988-04-03|Bucuresti|6|Splaiul independentei|290|P21|0|1|113|0722499522||petcu_george@yahoo.com|KTH||Winston 100s Clasic (10 mg)  Pack|Yes|Yes||BWR05229|MAGNUM TRADE 2000 SRL|Bucuresti|BWDTCBA61|89|CCC MULTI Regie 2012|121|Retail|0
0|CS3200567|2012-12-14 17:45:46|ionica|madalina||F|1990-08-06|Bucuresti|SECTOR 1|aviator vasile traian|23|14|3|3|24|0720236193||ionicamadalinarlena@yahoo.com|KTSWIT||Winston Fresh XSpression (5mg) Pack|Yes|Yes||BWR05229|MAGNUM TRADE 2000 SRL|Bucuresti|BWDTCBA61|89|CCC MULTI Regie 2012|121|Retail|0
0|CS3200597|2012-12-14 17:50:40|Jega|Ionel||M|1989-01-09|Gorj|TARGU JIU|Agriculturii|0|9|3|2|11|0760737256||lexfyre@yahoo.com|KTBL||Winston Blue (6mg) Pack|Yes|Yes||BWR05229|MAGNUM TRADE 2000 SRL|Bucuresti|BWDTCBA61|89|CCC MULTI Regie 2012|121|Retail|0
0|CS3200798|2012-12-14 18:27:23|Macovei|Daniela||F|1987-08-07|Bucuresti|3|Bld energiticienilor|90|0|0|0|0|0749763422||daniela_macovei19@yahoo.com|WISSM||Bricheta Winston|Yes|Yes||BWR05229|MAGNUM TRADE 2000 SRL|Bucuresti|BWDTCBA61|89|CCC MULTI Regie 2012|121|Retail|0
0|CS3200874|2012-12-14 18:39:53|Ilie|Alina||F|1991-11-29|Bucuresti|6|Splaiul independentei|290|P7|0|1|104|0760914882||alinaflorina.ilie@yahoo.com|WIBL||Winston Blue (6mg) Pack|Yes|Yes||BWR05229|MAGNUM TRADE 2000 SRL|Bucuresti|BWDTCBA61|89|CCC MULTI Regie 2012|121|Retail|0
0|CS3200911|2012-12-14 18:47:06|Perete|Titi||M|1991-04-15|Teleorman|SAELELE|Viitorului|17|0|0|0|0|0761450715||titel1990@yahoo.com|KTBL||Winston Blue (6mg) Pack|Yes|Yes||BWR05229|MAGNUM TRADE 2000 SRL|Bucuresti|BWDTCBA61|89|CCC MULTI Regie 2012|121|Retail|0
0|CS3200987|2012-12-14 18:56:19|Popovici|Ana||F|1986-09-07|Olt|SLATINA|Aleea Lamaitei|2|C14|A|1|18|0766500309||snow_kat21@yahoo.com|KTSWIT||Bricheta Winston XST|Yes|Yes||BWR05229|MAGNUM TRADE 2000 SRL|Bucuresti|BWDTCBA61|89|CCC MULTI Regie 2012|121|Retail|0
0|CS3201006|2012-12-14 18:59:27|Marin|Alexandru||M|1989-03-23|Bucuresti|5|Dumbrava noua|24|M206|A|2|9|0744327702||marin_l_alexandru@yahoo.co.uk|PMBL||Bricheta Winston|Yes|Yes||BWR05229|MAGNUM TRADE 2000 SRL|Bucuresti|BWDTCBA61|89|CCC MULTI Regie 2012|121|Retail|0
0|CS3201118|2012-12-14 19:19:41|Bucur|Gabriela||F|1989-02-21|Bucuresti|6|Splaiul indpendentei|290|U3|1|4|407|0769684298||gabbyo_gaby@yahoo.com|KTBL||Winston XStyle Blue (6mg) Pack|Yes|Yes||BWR05229|MAGNUM TRADE 2000 SRL|Bucuresti|BWDTCBA61|89|CCC MULTI Regie 2012|121|Retail|0
0|CS3201141|2012-12-14 19:23:45|Tita|Andrei||M|1993-01-28|Ialomita|URZICENI|Calea bucuresti|60|Od4|0|1|6|0767105476||tita.gabi93@yahoo.com|KTBL||Winston Blue (6mg) Pack|Yes|Yes||BWR05229|MAGNUM TRADE 2000 SRL|Bucuresti|BWDTCBA61|89|CCC MULTI Regie 2012|121|Retail|0
0|CS3201153|2012-12-14 19:27:02|Neagu|Ionela||F|1991-08-04|Buzau|BUZAU|Aurel vlaicu|69|||0|0|0764473207||naguionela91@yahoo.com|KTBL||Winston XStyle Blue (6mg) Pack|Yes|Yes||BWR05229|MAGNUM TRADE 2000 SRL|Bucuresti|BWDTCBA61|89|CCC MULTI Regie 2012|121|Retail|0
0|CS3201169|2012-12-14 19:29:10|Voiculet|Cristian||M|1985-06-04|Arges|CURTEA DE ARGES|1 decembrie|0|F11|B|2|24|0721509958||cristivoiculet@gmail.com|KTSV||Bricheta Winston XST|Yes|Yes||BWR05229|MAGNUM TRADE 2000 SRL|Bucuresti|BWDTCBA61|89|CCC MULTI Regie 2012|121|Retail|0
0|CS3201190|2012-12-14 19:32:31|Zamfir|Constantin||M|1991-02-12|Bucuresti|6|Splaiul independentei|290|P27|0|0|8|0725338221||cosmin_0891@yahoo.com|KTBL||Winston Blue (6mg) Pack|Yes|Yes||BWR05229|MAGNUM TRADE 2000 SRL|Bucuresti|BWDTCBA61|89|CCC MULTI Regie 2012|121|Retail|0
0|CS3201311|2012-12-14 19:52:44|Badoi|Ionut||M|1991-08-28|Bucuresti|6|Splaiul independentei|290|P18|0|3|310|0755175588||yonut_bogdan91@yahoo.com|KTH||Winston Classic Pack|Yes|Yes||BWR05229|MAGNUM TRADE 2000 SRL|Bucuresti|BWDTCBA61|89|CCC MULTI Regie 2012|121|Retail|0
0|CS3201324|2012-12-14 19:54:41|Coman|Valentin||M|1977-03-03|Bucuresti|6|Rosia montana|1|17|1|P|2|0767699114||coman_valentin2005@yahoo.com|WICL||Winston Classic Pack|Yes|Yes||BWR05229|MAGNUM TRADE 2000 SRL|Bucuresti|BWDTCBA61|89|CCC MULTI Regie 2012|121|Retail|0
0|CS3201335|2012-12-14 19:56:33|Maxim|Ovidiu||M|1990-05-26|Ialomita|URZICENI|Politiei|2|0|0|0|0|0760169003||dj_rise@yahoo.com|KTBL||Winston Blue (6mg) Pack|Yes|Yes||BWR05229|MAGNUM TRADE 2000 SRL|Bucuresti|BWDTCBA61|89|CCC MULTI Regie 2012|121|Retail|0
0|CS3201494|2012-12-14 20:34:26|Stanciu|Valeriu||M|1981-09-12|Bucuresti|6|Inginer teodorescu|11|0|0|0|0|0721170130||stanciuvaleriu@yahoo.com|LMRD||Winston Classic Pack|Yes|Yes||BWR05229|MAGNUM TRADE 2000 SRL|Bucuresti|BWDTCBA61|89|CCC MULTI Regie 2012|121|Retail|0
0|FS672753|2012-12-10 16:16:57||||F|||||||||||||DUNFCMBB||||||||||89|CCC MULTI Regie 2012|121|Retail|0
0|FS673129|2012-12-10 17:04:09||||M|||||||||||||KTH||||||||||89|CCC MULTI Regie 2012|121|Retail|0
0|FS673790|2012-12-10 18:34:14||||F|||||||||||||KTBL||||||||||89|CCC MULTI Regie 2012|121|Retail|0
0|FS674315|2012-12-10 20:18:32|||||||||||||||||KTBLH||||||||||89|CCC MULTI Regie 2012|121|Retail|0
0|FS675186|2012-12-11 16:29:10||||F|||||||||||||KTSV||||||||||89|CCC MULTI Regie 2012|121|Retail|0
0|FS675336|2012-12-11 16:46:13||||F|||||||||||||DUNBL||||||||||89|CCC MULTI Regie 2012|121|Retail|0
0|FS675422|2012-12-11 16:55:07||||F|||||||||||||VIRSBL||||||||||89|CCC MULTI Regie 2012|121|Retail|0
0|FS676178|2012-12-11 18:27:42||||M|||||||||||||DUNBL||||||||||89|CCC MULTI Regie 2012|121|Retail|0
0|FS676198|2012-12-11 18:31:02||||M|||||||||||||KTSWIT||||||||||89|CCC MULTI Regie 2012|121|Retail|0
0|FS676619|2012-12-11 19:26:05||||M|||||||||||||MBRFP||||||||||89|CCC MULTI Regie 2012|121|Retail|0
0|FS676656|2012-12-11 19:31:51||||M|||||||||||||KTH||||||||||89|CCC MULTI Regie 2012|121|Retail|0
0|FS677339|2012-12-12 12:22:17||||F|||||||||||||PMSSBL||||||||||89|CCC MULTI Regie 2012|121|Retail|0
0|FS677377|2012-12-12 12:40:45|||||||||||||||||KTH||||||||||89|CCC MULTI Regie 2012|121|Retail|0
0|FS677426|2012-12-12 12:58:31||||M|||||||||||||MBRFP||||||||||89|CCC MULTI Regie 2012|121|Retail|0
0|FS677438|2012-12-12 13:04:09||||M|||||||||||||SBKSGD||||||||||89|CCC MULTI Regie 2012|121|Retail|0
0|FS677440|2012-12-12 13:05:39||||M|||||||||||||KTBLH||||||||||89|CCC MULTI Regie 2012|121|Retail|0
0|FS677480|2012-12-12 13:23:58||||M|||||||||||||KTBL||||||||||89|CCC MULTI Regie 2012|121|Retail|0
0|FS677541|2012-12-12 13:53:52|||||||||||||||||KTBL6||||||||||89|CCC MULTI Regie 2012|121|Retail|0
0|FS677586|2012-12-12 14:20:55||||F|||||||||||||KTIAMP||||||||||89|CCC MULTI Regie 2012|121|Retail|0
0|FS677680|2012-12-12 15:06:49||||M|||||||||||||KTBL6||||||||||89|CCC MULTI Regie 2012|121|Retail|0
0|FS677746|2012-12-12 15:27:28||||F|||||||||||||MBRGLFT||||||||||89|CCC MULTI Regie 2012|121|Retail|0
0|FS680235|2012-12-13 12:27:52||||M|||||||||||||MBRGL||||||||||89|CCC MULTI Regie 2012|121|Retail|0
0|FS680237|2012-12-13 12:28:25|||||||||||||||||PHMQBK||||||||||89|CCC MULTI Regie 2012|121|Retail|0
0|FS680255|2012-12-13 12:37:59||||M|||||||||||||DUNFCMBB||||||||||89|CCC MULTI Regie 2012|121|Retail|0
0|FS680302|2012-12-13 12:58:54||||M|||||||||||||DUNFCBB||||||||||89|CCC MULTI Regie 2012|121|Retail|0
0|FS680315|2012-12-13 13:07:37||||M|||||||||||||KTH||||||||||89|CCC MULTI Regie 2012|121|Retail|0
0|FS680332|2012-12-13 13:14:35||||F|||||||||||||KTSWIT||||||||||89|CCC MULTI Regie 2012|121|Retail|0
0|FS680408|2012-12-13 13:52:37|||||||||||||||||DAVGLH||||||||||89|CCC MULTI Regie 2012|121|Retail|0
0|FS680443|2012-12-13 14:12:16||||M|||||||||||||PMBL||||||||||89|CCC MULTI Regie 2012|121|Retail|0
0|FS683382|2012-12-14 12:16:10||||M|||||||||||||DUNFCMBB||||||||||89|CCC MULTI Regie 2012|121|Retail|0
0|FS683613|2012-12-14 14:17:08||||M|||||||||||||DAVGLH||||||||||89|CCC MULTI Regie 2012|121|Retail|0
0|FS683636|2012-12-14 14:31:54||||M|||||||||||||DAVGLH||||||||||89|CCC MULTI Regie 2012|121|Retail|0
0|FS683638|2012-12-14 14:32:29||||M|||||||||||||KTBL||||||||||89|CCC MULTI Regie 2012|121|Retail|0
0|FS683707|2012-12-14 15:00:36||||F|||||||||||||KTBLH||||||||||89|CCC MULTI Regie 2012|121|Retail|0
