0|CS223812|2012-07-06 17:43:07|Voinescu|Radu||M|1973-05-19|Bucuresti|SECTOR 4|Turnul Magurele|1|C3|C|3|98|0722246682||radu.voinescu@yahoo.com|KTBLH|ROTH|Sobranie KS Blue (6 mg) Pack|Yes|Yes||CT000519|LUCSAR MAMAIA|Constanta|CTDTCBA16|40|CCC SOBR FAM Vara 2012|121|Retail|0
0|CS223827|2012-07-06 17:58:17|Petrescu|Marcel||M|1963-02-18|Bucuresti|SECTOR 4|Voala|2|0|0|0|0|0736461522||justconsult143@yahoo.com|KTNWH|DUNSV|Sobranie SS White (1 mg) Pack|Yes|Yes||CT004749|ICOM SERV|Constanta|CTDTCBA14|40|CCC SOBR FAM Vara 2012|121|Retail|0
0|CS223855|2012-07-06 18:16:22|Dumitru|Lavinia||F|1989-07-04|Bucuresti|SECTOR 5|Topliceanu Vasile|9|||||0721878721||gabriella_lavi@yahoo.com|GLMBL|MBRGLT|Sobranie SS Pink (3 mg) Pack|Yes|No||CT000519|LUCSAR MAMAIA|Constanta|CTDTCBA16|40|CCC SOBR FAM Vara 2012|121|Retail|0
0|CS223899|2012-07-06 18:39:28|Musat|Mircea||M|1971-03-06|Constanta|CONSTANTA|Ion lahovari|115|0|0|0|0|0727663573||musat_mircea@yahoo.com|KTH|CABK|Sobranie KS Black (8 mg) Pack|Yes|Yes||CT004749|ICOM SERV|Constanta|CTDTCBA14|40|CCC SOBR FAM Vara 2012|121|Retail|0
0|CS223935|2012-07-06 18:50:21|Petre georgescu|Georgiana||F|1979-07-17|Prahova|PLOIESTI|Andrei muresan|66|R3|A|6|24|0724506860||georgescu_georgyana@yahoo.com|KTBL|VIRSPR|Sobranie KS Black (8 mg) Pack|Yes|Yes||CT004749|ICOM SERV|Constanta|CTDTCBA14|40|CCC SOBR FAM Vara 2012|121|Retail|0
0|CS223995|2012-07-06 19:10:07|Vasile|Alexandra||F|1987-06-23|Constanta|POARTA ALBA|Laurei|2|||||0720114936||claraelena_05@yahoo.com|VIRSM|GLMMNT|Sobranie SS Pink (3 mg) Pack|Yes|Yes||CT000519|LUCSAR MAMAIA|Constanta|CTDTCBA16|40|CCC SOBR FAM Vara 2012|121|Retail|0
0|CS224005|2012-07-06 19:13:09|Cenusa|Florentina||F|1976-04-16|Constanta|NAVODARI|Albinelor|0|A1b|C|2|28|0766622019||alexeflorentina@yahoo.com|GLMBL|LMRD|Sobranie SS White (1 mg) Pack|Yes|Yes||CT004749|ICOM SERV|Constanta|CTDTCBA14|40|CCC SOBR FAM Vara 2012|121|Retail|0
0|CS224027|2012-07-06 19:17:16|Andrunache|Dan||M|1980-09-25|Galati|GALATI|Siderurgistilor|41|Sd1b|3|1|46|0729558612||danandrunache@gmail.com|MBRRD|SBKSBK|Sobranie KS Black (8 mg) Pack|Yes|Yes||CT004749|ICOM SERV|Constanta|CTDTCBA14|40|CCC SOBR FAM Vara 2012|121|Retail|0
0|CS224047|2012-07-06 19:20:31|Irimia|Eduard||M|1974-09-20|Prahova|BAICOI|Oituz|19|0|0|0|0|0722582275||cristiana200626@yahoo.com|KTH|WIBL|Sobranie KS Black (8 mg) Pack|Yes|Yes||CT004749|ICOM SERV|Constanta|CTDTCBA14|40|CCC SOBR FAM Vara 2012|121|Retail|0
0|CS224114|2012-07-06 19:40:28|Banu|Marcel||M|1984-05-18|Constanta|CONSTANTA|Mircea cel Batran|144|Md7b|A|2|5|0743137857||marcel_banu@yahoo.com|SBKSBK|CABK|Sobranie KS Black (8 mg) Pack|Yes|Yes||CT000519|LUCSAR MAMAIA|Constanta|CTDTCBA16|40|CCC SOBR FAM Vara 2012|121|Retail|0
0|CS224223|2012-07-06 20:06:13|Cristil|Maria||F|1962-07-14|Bucuresti|SECTOR 2|Carei|9|B32|A|8|53|0731838081||denisamfrancesca@yahoo.com|VIRSPR|KTNBK|Sobranie SS Black (6 mg) Pack|Yes|Yes||CT005132|EMI GRAND|Constanta|CTDTCBA14|40|CCC SOBR FAM Vara 2012|121|Retail|0
0|CS224239|2012-07-06 20:10:51|Zguma|Dumitru||M|1984-06-19|Constanta|CONSTANTA|Murelor|10|Bc1|A|10|41|0723217554||bebizguma@yahoo.com|KTBL|CABK| Sobranie KS Gold (4 mg) Pack|Yes|Yes||CT005132|EMI GRAND|Constanta|CTDTCBA14|40|CCC SOBR FAM Vara 2012|121|Retail|0
0|CS224287|2012-07-06 20:20:42|Vasile|Ancuta||F|1982-11-30|Constanta|CONSTANTA|Timonei|10|B1|A|2|208|0723009976||andreea_ank@yahoo.com|KTSV|SBKSGD| Sobranie KS Gold (4 mg) Pack|Yes|Yes||CT005132|EMI GRAND|Constanta|CTDTCBA14|40|CCC SOBR FAM Vara 2012|121|Retail|0
0|CS224301|2012-07-06 20:23:37|Cosa|Bogdan||M|1980-10-01|Bacau|BACAU|Marasesti|195|A5|A|1|5|0740795452||armando_als@yahoo.com|PARAB|DUNFCDB|Sobranie KS Blue (6 mg) Pack|Yes|Yes||CT000519|LUCSAR MAMAIA|Constanta|CTDTCBA16|40|CCC SOBR FAM Vara 2012|121|Retail|0
0|CS224321|2012-07-06 20:28:34|Dospin|Carmen||F|1977-01-05|Vaslui|BARLAD|Aleea parcului|33|C3|B|3|34|0743463503||dospincarmen@yahoo.com|MBRGLFT|KTBL| Sobranie KS Gold (4 mg) Pack|Yes|Yes||CT005132|EMI GRAND|Constanta|CTDTCBA14|40|CCC SOBR FAM Vara 2012|121|Retail|0
0|CS224524|2012-07-06 21:15:39|Tair|Levidan||F|1979-06-18|Constanta|NAVODARI|Delfinului|2|22est|E|P|42|0786976458|||DUNSV|KTBL| Sobranie KS Gold (4 mg) Pack|Yes|Yes||CT005132|EMI GRAND|Constanta|CTDTCBA14|40|CCC SOBR FAM Vara 2012|121|Retail|0
0|CS224534|2012-07-06 21:18:26|Man|Iulia||F|1985-12-25|Timis|TIMISOARA|Ecoului|18|18b|B|1|6|0745477371||manniulia@gmail.com|VOGFLLL|VIRSBL|Sobranie SS Pink (3 mg) Pack|Yes|Yes||CT000519|LUCSAR MAMAIA|Constanta|CTDTCBA16|40|CCC SOBR FAM Vara 2012|121|Retail|0
0|CS224548|2012-07-06 21:21:25|Balea|Nicoleta||F|1981-05-07|Constanta|Constanta|Egretei|17|C8|1|0|5|0724284329||nycoletha_2005@yahoo.com|KTCON|GLMMNT| Sobranie KS Gold (4 mg) Pack|Yes|Yes||CT005132|EMI GRAND|Constanta|CTDTCBA14|40|CCC SOBR FAM Vara 2012|121|Retail|0
0|CS224554|2012-07-06 21:22:58|Lazarescu|Delia||F|1981-09-05|Timis|TIMISOARA|Lugoj cuza voda |4|||||0731808509||delia.lazarescu@yahoo.com|DUNFCSV|SOBCOK| Sobranie KS Gold (4 mg) Pack|Yes|Yes||CT000519|LUCSAR MAMAIA|Constanta|CTDTCBA16|40|CCC SOBR FAM Vara 2012|121|Retail|0
0|CS224679|2012-07-06 21:46:46|Manole|Nicu||M|1975-11-21|Constanta|CONSTANTA|Bd 1Mai |62|Um4|A|4|18|0722296460||manexcompany@yahoo.com|KTNWH|KTNWH|Sobranie SS White (1 mg) Pack|Yes|Yes||CT000519|LUCSAR MAMAIA|Constanta|CTDTCBA16|40|CCC SOBR FAM Vara 2012|121|Retail|0
0|CS224681|2012-07-06 21:47:39|Dospin|Iulian||M|1980-03-23|Constanta|CONSTANTA|Topolog|25|F1|D|0|54|0768559587||iulynebunu@yahoo.com|KTH|MBRRD|Sobranie KS Black (8 mg) Pack|Yes|Yes||CT005132|EMI GRAND|Constanta|CTDTCBA14|40|CCC SOBR FAM Vara 2012|121|Retail|0
0|CS224720|2012-07-06 21:53:50|Vasile|Costel||M|1992-05-14|Constanta|CONSTANTA|Al Murelor|4|P1|A||4|0743267846||je_panterra_16@yahoo.com|DUNFCMB|KTH|Sobranie KS Black (8 mg) Pack|Yes|Yes||CT000519|LUCSAR MAMAIA|Constanta|CTDTCBA16|40|CCC SOBR FAM Vara 2012|121|Retail|0
0|CS224738|2012-07-06 21:55:58|Bogdan|Borascu||M|1986-02-19|Ilfov|1decembrie|Principala|0|Pk4|C|P|23|0752010060||bogdan.borascu@yahoo.com|DUNBL|PMBL|Sobranie KS Blue (6 mg) Pack|Yes|Yes||CT005132|EMI GRAND|Constanta|CTDTCBA14|40|CCC SOBR FAM Vara 2012|121|Retail|0
0|CS224811|2012-07-06 22:11:03|Rocariu|Dan||M|1958-06-08|Constanta|CONSTANTA|Tomis|340|C2|A|8|35|0721637508||rotariumioara@yahoo.com|WICLH|SBSSWH|Sobranie SS White (1 mg) Pack|Yes|Yes||CT005132|EMI GRAND|Constanta|CTDTCBA14|40|CCC SOBR FAM Vara 2012|121|Retail|0
0|CS224824|2012-07-06 22:13:59|Laura|Tapicu||F|1990-04-08|Constanta|CONSTANTA|Îl caragiale|20|G3|B|2|10|0734387530||laura_ellena@yahoo.com|VOGABP|VIRSPR|Sobranie SS Black (6 mg) Pack|Yes|Yes||CT005132|EMI GRAND|Constanta|CTDTCBA14|40|CCC SOBR FAM Vara 2012|121|Retail|0
0|CS226205|2012-07-07 17:51:29|Niculae|Florentina||F|1988-08-11|Bucuresti|SECTOR 5|Ion borcan|2|0|0|0|0|0762761882||floricik_11_88@yahoo.com|SBSSBK|KTNBK|Sobranie SS Black (6 mg) Pack|Yes|Yes||CT000519|LUCSAR MAMAIA|Constanta|CTDTCBA14|40|CCC SOBR FAM Vara 2012|121|Retail|0
0|CS226261|2012-07-07 18:12:19|Hotogan|Ionut||M|1986-03-09|Bucuresti|SECTOR 4|Obor|0|4|A|4|13|0755287630||robbert.quatro@yahoo.com|KTBL|SBSSBK|Sobranie SS Black (6 mg) Pack|Yes|Yes||CT000519|LUCSAR MAMAIA|Constanta|CTDTCBA14|40|CCC SOBR FAM Vara 2012|121|Retail|0
0|CS226296|2012-07-07 18:22:15|Balan|Alina||F|1983-10-18|Dolj|CRAIOVA|Decebal|67|70|1||2|0785622914||alina_eliza83@yahoo.com|SBSSWH|SBSSWH|Sobranie SS White (1 mg) Pack|Yes|Yes||CT004749|ICOM SERV|Constanta|CTDTCBA16|40|CCC SOBR FAM Vara 2012|121|Retail|0
0|CS226330|2012-07-07 18:32:59|Mohamad|Sakka||M|1979-11-15|Constanta|CONSTANTA|Wall str|32|||||0784671961||azoz28@hotmail.de|MBRRD|MBRRD|Sobranie KS Black (8 mg) Pack|Yes|Yes||CT004749|ICOM SERV|Constanta|CTDTCBA16|40|CCC SOBR FAM Vara 2012|121|Retail|0
0|CS226355|2012-07-07 18:37:16|Marin|Florin||M|1980-06-12|Bucuresti|SECTOR 1|Bacului|47|||||0721163504||rokochitila@yahoo.com|MBRFP|MBRFP|Sobranie KS Blue (6 mg) Pack|Yes|Yes||CT004749|ICOM SERV|Constanta|CTDTCBA16|40|CCC SOBR FAM Vara 2012|121|Retail|0
0|CS226396|2012-07-07 18:47:08|Caliman|Luciana Marinela||F|1982-02-27|Bucuresti|SECTOR 4|Brancoveanu|10|B3|4|2|124|0730462163||luciana.caliman@yahoo.com|VOGJSN|GLPBMN|Sobranie SS Black (6 mg) Pack|Yes|Yes||CT004749|ICOM SERV|Constanta|CTDTCBA16|40|CCC SOBR FAM Vara 2012|121|Retail|0
0|CS226405|2012-07-07 18:51:11|Timofte|Claudiu||M|1985-02-13|Iasi|IASI|Razboieni|5|0|0|0|0|0745023817||alex_massaggio@yahoo.com|KTBL|DUNFCMB|Sobranie KS Black (8 mg) Pack|Yes|Yes||CT000519|LUCSAR MAMAIA|Constanta|CTDTCBA14|40|CCC SOBR FAM Vara 2012|121|Retail|0
0|CS226461|2012-07-07 19:04:12|Urseanu|Bogdan||M|1968-08-08|Bucuresti|SECTOR 6|Iuliu Maniu|18|15 b|A|2|8|0744911772||burseanu@yahoo.com|KTH|KTH|Sobranie KS Black (8 mg) Pack|Yes|No||CT004749|ICOM SERV|Constanta|CTDTCBA16|40|CCC SOBR FAM Vara 2012|121|Retail|0
0|CS226479|2012-07-07 19:09:43|Mihaescu|Bogdan||M|1991-06-24|Constanta|CONSTANTA|Meduzei|5|22s|D|4|40|0731589146||mihaescubogdan19@yahoo.com|KTBL|PMBL|Sobranie KS Blue (6 mg) Pack|Yes|Yes||CT000519|LUCSAR MAMAIA|Constanta|CTDTCBA14|40|CCC SOBR FAM Vara 2012|121|Retail|0
0|CS226567|2012-07-07 19:34:30|Parvu|George||M|1984-01-24|Bucuresti|SECTOR 5|Stanciu George Cristian|1|V98|2|1|32|0742072913||geoparvu@yahoo.com|DUNFCDB|KTBL|Sobranie KS Black (8 mg) Pack|Yes|Yes||CT004749|ICOM SERV|Constanta|CTDTCBA16|40|CCC SOBR FAM Vara 2012|121|Retail|0
0|CS226606|2012-07-07 19:43:37|Gegea|Liviu||M|1967-05-05|Constanta|CONSTANTA|Unirii|72|||||0720773740|||MBRRDH|MBRRDH|Sobranie KS Black (8 mg) Pack|Yes|Yes||CT004749|ICOM SERV|Constanta|CTDTCBA16|40|CCC SOBR FAM Vara 2012|121|Retail|0
0|CS226730|2012-07-07 20:07:54|Grigore|Dan emil||M|1975-10-03|Galati|GALATI|Razboieni|152|||0|0|0744677261||emil003@gmail.com|WIBLH|KTH|Sobranie KS Black (8 mg) Pack|Yes|Yes||CT004749|ICOM SERV|Constanta|CTDTCBA16|40|CCC SOBR FAM Vara 2012|121|Retail|0
0|CS226902|2012-07-07 20:41:27|Feteanu|Simona||F|1981-03-02|Arges|STEFANESTI|Valea mare podgoria|164|0|0|0|0|0769697581||simonaiordache_03@yahoo.com|KTSV|VOGFLPL| Sobranie KS Gold (4 mg) Pack|Yes|Yes||CT000519|LUCSAR MAMAIA|Constanta|CTDTCBA14|40|CCC SOBR FAM Vara 2012|121|Retail|0
0|CS226930|2012-07-07 20:46:41|Vlaicu|Diana Maria||F|1991-09-17|Hunedoara|ORASTIE|Pricazului|62|62|B|1|14|0768862777||diana_vlaicu_91@yahoo.com|VOGABP|DUNFCDB|Sobranie SS Black (6 mg) Pack|Yes|Yes||CT000519|LUCSAR MAMAIA|Constanta|CTDTCBA14|40|CCC SOBR FAM Vara 2012|121|Retail|0
0|CS226964|2012-07-07 20:52:41|Nita|Maria||F|1975-07-29|Constanta|CONSTANTA|Aleea fragilor|5|R3|C|P|43|0745594321|||MBRFP|GLMMNT|Sobranie KS Blue (6 mg) Pack|Yes|Yes||CT000519|LUCSAR MAMAIA|Constanta|CTDTCBA14|40|CCC SOBR FAM Vara 2012|121|Retail|0
0|CS227097|2012-07-07 21:17:19|Catincu|Beniamin||M|1983-06-21|Ilfov|CORBEANCA|Sos unirii|455|0|0|0|0|0723456467||benyelefant@yahoo.com|KTBL|MBRFP|Sobranie KS Black (8 mg) Pack|Yes|Yes||CT000519|LUCSAR MAMAIA|Constanta|CTDTCBA14|40|CCC SOBR FAM Vara 2012|121|Retail|0
0|CS227245|2012-07-07 21:49:21|Onoleata|Ramona||F|1984-06-24|Valcea|BAILE OLANESTI|Ponor|6a|0|0|0|0|0743125884||onoleataramona@yahoo.com|SBSSWH|WISSB|Sobranie SS Pink (3 mg) Pack|Yes|Yes||CT000519|LUCSAR MAMAIA|Constanta|CTDTCBA14|40|CCC SOBR FAM Vara 2012|121|Retail|0
0|CS227247|2012-07-07 21:49:33|Ristea|Viorica||F|1975-05-02|Prahova|PLOIESTI|Rasnovenilor|1|54|F|1|108|0745053727||vioristea@yahoo.com|KTBL|KTBL|Sobranie KS Black (8 mg) Pack|Yes|Yes||CT004749|ICOM SERV|Constanta|CTDTCBA16|40|CCC SOBR FAM Vara 2012|121|Retail|0
0|CS227281|2012-07-07 21:55:36|Matuschi|Ana||F|1970-11-28|Iasi|IASI|Moara de Foc |1|595||5|13|0756384513||anamatoschi@yahoo.com|PMSSGR|VOGJSN|Sobranie SS Black (6 mg) Pack|Yes|Yes||CT004749|ICOM SERV|Constanta|CTDTCBA16|40|CCC SOBR FAM Vara 2012|121|Retail|0
0|CS227288|2012-07-07 21:56:58|Oana|Coman||F|1986-08-08|Ilfov|AFUMATI|Pinului|32|0|0|0|0|0768477110||oane_cc@yahoo.com|DUNBL|KTSV|Sobranie KS Black (8 mg) Pack|Yes|Yes||CT000519|LUCSAR MAMAIA|Constanta|CTDTCBA14|40|CCC SOBR FAM Vara 2012|121|Retail|0
0|CS227310|2012-07-07 22:01:28|Vornicu|Marian||M|1974-10-19|Buzau|BUZAU|Brosteni|-|N6|B|4|39|0744376199||marian.2007@yahoo.com|KTH|MBRRD|Sobranie KS Black (8 mg) Pack|Yes|Yes||CT004749|ICOM SERV|Constanta|CTDTCBA16|40|CCC SOBR FAM Vara 2012|121|Retail|0
0|CS227336|2012-07-07 22:05:22|BATRINU|ALEXANDRU||M|1988-09-16|Constanta|CONSTANTA|CLOPOTEI|3|||0|0|0728302855||batrinualexandru@gmail.com|DUNFCDB|MBRGLT|Sobranie KS Black (8 mg) Pack|Yes|Yes||CT004749|ICOM SERV|Constanta|CTDTCBA16|40|CCC SOBR FAM Vara 2012|121|Retail|0
0|CS227375|2012-07-07 22:12:47|Emanoil|Viorel||M|1982-01-07|Galati|Galati|Sf spiridon|2|||0|0|0757322242||dk_rolly2009@yahoo.com|DUNFCMB|SBKSBK|Sobranie KS Blue (6 mg) Pack|Yes|Yes||CT000519|LUCSAR MAMAIA|Constanta|CTDTCBA14|40|CCC SOBR FAM Vara 2012|121|Retail|0
0|CS227416|2012-07-07 22:21:22|Cutui|Adriana||F|1980-09-15|Gorj|MOTRU|Crinului|2|C5|2|1|6|0723585405||adrianacutui@yahoo.com|KTBL|VIRSPR|Sobranie KS Black (8 mg) Pack|Yes|Yes||CT000519|LUCSAR MAMAIA|Constanta|CTDTCBA14|40|CCC SOBR FAM Vara 2012|121|Retail|0
0|CS227447|2012-07-07 22:27:41|Dardac|Gabriela||F|1965-11-23|Constanta|CONSTANTA|Gheorghe Marinescu|60|||||0745009138||dardacgabriela@yahoo.com|VIRSPR|GLMLIL|Sobranie SS Black (6 mg) Pack|Yes|Yes||CT000519|LUCSAR MAMAIA|Constanta|CTDTCBA14|40|CCC SOBR FAM Vara 2012|121|Retail|0
0|CS227500|2012-07-07 22:38:31|Harasim|Ioana||F|1976-12-18|Constanta|CONSTANTA|Badea cartan|24|Bc4|F|4|113|0241652181|||CABK|MBRGL|Sobranie KS Blue (6 mg) Pack|Yes|Yes||CT000519|LUCSAR MAMAIA|Constanta|CTDTCBA14|40|CCC SOBR FAM Vara 2012|121|Retail|0
0|CS227536|2012-07-07 22:46:34|Nita|Danut||M|1969-10-16|Constanta|CONSTANTA|Aleea fragilor|5|R3|C|P|43|0721128766|||MBRFP|KTBL|Sobranie KS Blue (6 mg) Pack|Yes|Yes||CT000519|LUCSAR MAMAIA|Constanta|CTDTCBA14|40|CCC SOBR FAM Vara 2012|121|Retail|0
0|CS228922|2012-07-08 17:39:02|Aldea|Radu||M|1959-02-06|Constanta|CONSTANTA|Aleea zmeurei|16|U6|A|P|3|0727842164|||KTBL|PMBL|Sobranie KS Blue (6 mg) Pack|Yes|Yes||CT004749|ICOM SERV|Constanta|CTDTCBA14|40|CCC SOBR FAM Vara 2012|121|Retail|0
0|CS229077|2012-07-08 18:39:37|Stefan|Sorin||M|1961-02-03|Olt|BALS|Nicolae Bălcescu|21|0|0|0|0|0742417411|||KTBL|WIBL|Sobranie KS Black (8 mg) Pack|Yes|Yes||CT004749|ICOM SERV|Constanta|CTDTCBA14|40|CCC SOBR FAM Vara 2012|121|Retail|0
0|CS229148|2012-07-08 19:07:56|Cirjan|Magda||F|1975-07-02|Bucuresti|SECTOR 4|Huedin|15|B15|2|5|32|0724313265||magda_primo@yahoo.com|VOGJSN|VIRSM|Sobranie SS Black (6 mg) Pack|Yes|Yes||CT000519|LUCSAR MAMAIA|Constanta|CTDTCBA16|40|CCC SOBR FAM Vara 2012|121|Retail|0
0|CS229186|2012-07-08 19:21:07|Mihaescu|Bogdan||M|1991-06-24|Constanta|CONSTANTA|Meduzei|5|22s|D|4|40|0731589146||mihaescubogdan19@yahoo.com|KTBL|PMBL|Sobranie KS Black (8 mg) Pack|Yes|Yes||CT000519|LUCSAR MAMAIA|Constanta|CTDTCBA16|40|CCC SOBR FAM Vara 2012|121|Retail|0
0|CS229226|2012-07-08 19:33:50|Tanase|Catalin||M|1981-09-30|Dambovita|TARGOVISTE|Constantin Brancoveanu|180|0|0|0|0|0734654124||caterin26es@yahoo.es|KTH|LMRD|Sobranie KS Black (8 mg) Pack|Yes|Yes||CT000519|LUCSAR MAMAIA|Constanta|CTDTCBA16|40|CCC SOBR FAM Vara 2012|121|Retail|0
0|CS229337|2012-07-08 20:05:02|Hacin|Marius||M|1982-01-01|Constanta|CONSTANTA|Cantonului|25|||||0723223545||mariushacin@yahoo.com|DUNFCDB|SOBBR|Sobranie KS Blue (6 mg) Pack|Yes|Yes||CT000519|LUCSAR MAMAIA|Constanta|CTDTCBA16|40|CCC SOBR FAM Vara 2012|121|Retail|0
0|CS229370|2012-07-08 20:12:49|Popa|Cornelia||F|1982-03-16|Bucuresti|SECTOR 5|Sucevita|13|||||0761669316||corneliap32@yahoo.com|GLMLIL|PMSSBL|Sobranie SS Black (6 mg) Pack|Yes|Yes||CT000519|LUCSAR MAMAIA|Constanta|CTDTCBA16|40|CCC SOBR FAM Vara 2012|121|Retail|0
0|CS229412|2012-07-08 20:20:40|Al jbaili|Alexandra||F|1985-01-03|Constanta|CONSTANTA|Mesterul Manole|6a|||||0730104557||alexandra85ada@yahoo.com|KTWH|KTWH|Sobranie SS White (1 mg) Pack|Yes|Yes||CT000519|LUCSAR MAMAIA|Constanta|CTDTCBA16|40|CCC SOBR FAM Vara 2012|121|Retail|0
0|CS229499|2012-07-08 20:39:03|Temelie|Matilda||F|1977-09-05|Gorj|TARGU JIU|Dacia|0|2|1|P|1|0766577624|||KTH|GLMMNT|Sobranie KS Black (8 mg) Pack|Yes|Yes||CT004749|ICOM SERV|Constanta|CTDTCBA14|40|CCC SOBR FAM Vara 2012|121|Retail|0
0|CS229618|2012-07-08 20:57:36|MANEA |ADRIAN MIHAI||M|1987-04-13|Prahova|CAMPINA|CALEA DOFTANEi|104a|||0|0|0737164672||myhaytza_1387@yahoo.com|DUNFCMB|DUNFCMB|Sobranie KS Black (8 mg) Pack|Yes|Yes||CT000519|LUCSAR MAMAIA|Constanta|CTDTCBA16|40|CCC SOBR FAM Vara 2012|121|Retail|0
0|CS229651|2012-07-08 21:02:53|Larisa|Nielsen||F|1981-10-07|Constanta|CONSTANTA|Dispensarului|13|1|B|3|13|0722900382||gabrielal30@yahoo.com|KTBL|MBRGL|Sobranie KS Black (8 mg) Pack|Yes|Yes||CT004749|ICOM SERV|Constanta|CTDTCBA14|40|CCC SOBR FAM Vara 2012|121|Retail|0
0|CS229687|2012-07-08 21:09:51|Aldea|Diana||F|1974-03-30|Bacau|BACAU|Corinistea bistritei|21|21|A|1|6|0723583875||aldea.dianae@yahoo.com|SBSSWH||Sobranie SS White (1 mg) Pack|Yes|Yes||CT004749|ICOM SERV|Constanta|CTDTCBA14|40|CCC SOBR FAM Vara 2012|121|Retail|0
0|CS229725|2012-07-08 21:16:26|Nimerenco|Victoria||F|1977-03-19|Suceava|SUCEAVA|Vasile Bumbac |21|18|C|1|3|0745975150||viki201010@yahoo.com|DUNFCDB|SBKSBL|Sobranie KS Blue (6 mg) Pack|Yes|Yes||CT000519|LUCSAR MAMAIA|Constanta|CTDTCBA16|40|CCC SOBR FAM Vara 2012|121|Retail|0
0|CS229734|2012-07-08 21:18:32|Gradinaru|Stela||F|1968-03-10|Suceava|SUCEAVA|Ana Ipatescu|4|F|D|4|15|0745487579||stela.gradinaru@yahoo.it|DUNFCDB|PARABH|Sobranie KS Blue (6 mg) Pack|Yes|Yes||CT000519|LUCSAR MAMAIA|Constanta|CTDTCBA16|40|CCC SOBR FAM Vara 2012|121|Retail|0
0|CS229756|2012-07-08 21:23:49|Munteanu |Steliana||F|1976-05-19|Constanta|CONSTANTA|Tomis|271|L9c|A|3|15|0723364155||steliana.munteanu@yahoo.com|VIRSM|VIRSM|Sobranie SS Black (6 mg) Pack|Yes|Yes||CT000519|LUCSAR MAMAIA|Constanta|CTDTCBA16|40|CCC SOBR FAM Vara 2012|121|Retail|0
0|CS229785|2012-07-08 21:30:42|Dobre|Costin||M|1964-06-17|Constanta|CONSTANTA|Ferdinand|94|F19B|B|3|44|0723481548||spiceyware@gmail.com|CABL|WIBL| Sobranie KS Gold (4 mg) Pack|Yes|Yes||CT004749|ICOM SERV|Constanta|CTDTCBA14|40|CCC SOBR FAM Vara 2012|121|Retail|0
0|CS229809|2012-07-08 21:34:31|Banu|Marcel||M|1984-05-18|Constanta|CONSTANTA|Mircea cel Batran|144|Md7b|A|2|5|0743137857||marcel_banu@yahoo.com|MBRGLA|DUNFCDB|Sobranie KS Black (8 mg) Pack|Yes|Yes||CT000519|LUCSAR MAMAIA|Constanta|CTDTCBA16|40|CCC SOBR FAM Vara 2012|121|Retail|0
0|CS229826|2012-07-08 21:37:40|Damian|Alexandru||M|1959-06-20|Dolj|Craiova|Elena farago|5|123|1|0|1|0786322240||mioara_damian@yahoo.com|WICLH|KTH|Sobranie KS Black (8 mg) Pack|Yes|Yes||CT000519|LUCSAR MAMAIA|Constanta|CTDTCBA16|40|CCC SOBR FAM Vara 2012|121|Retail|0
0|CS229862|2012-07-08 21:42:50|Flaviu|Bobis||M|1981-04-17|Cluj|TURDA|Macilor|9|K4|A|4|20|0747475024||dany21banditu@yahoo.com|KTH|LSRD|Sobranie KS Black (8 mg) Pack|Yes|Yes||CT004749|ICOM SERV|Constanta|CTDTCBA14|40|CCC SOBR FAM Vara 2012|121|Retail|0
0|CS229876|2012-07-08 21:45:18|Bobis|Cristina||F|1982-01-28|Cluj|TURDA|Macilor|9|K4|A|4|20|0747475024||pitica_82@yahoo.com|KTH|CABK|Sobranie KS Black (8 mg) Pack|Yes|Yes||CT004749|ICOM SERV|Constanta|CTDTCBA14|40|CCC SOBR FAM Vara 2012|121|Retail|0
0|CS229896|2012-07-08 21:49:45|Girip|Stefan||M|1987-02-02|Brasov|BRASOV|Ion voda |4|||||0788657456||giripstefan@yahoo.com|DUNFCDB|DUNFCBK|Sobranie KS Blue (6 mg) Pack|Yes|Yes||CT000519|LUCSAR MAMAIA|Constanta|CTDTCBA16|40|CCC SOBR FAM Vara 2012|121|Retail|0
0|CS229928|2012-07-08 21:57:32|Dinca|Catalina||F|1987-10-10|Constanta|CONSTANTA|Amurgului|57|||0|0|0764872087||catalina_catalina60@yahoo.com|PMBL|KTBL|Sobranie KS Blue (6 mg) Pack|Yes|Yes||CT000519|LUCSAR MAMAIA|Constanta|CTDTCBA16|40|CCC SOBR FAM Vara 2012|121|Retail|0
0|CS229943|2012-07-08 22:02:25|Malciu|Dan||M|1979-07-31|Constanta|CONSTANTA|Tomis|229|Ts13b|A|4|18|0721356033||malciudan@gmail.com|SBKSBK|SOBBR|Sobranie KS Black (8 mg) Pack|Yes|Yes||CT000519|LUCSAR MAMAIA|Constanta|CTDTCBA16|40|CCC SOBR FAM Vara 2012|121|Retail|0
0|CS229955|2012-07-08 22:05:43|Leafu|Elena Alina||F|1978-05-20|Constanta|CONSTANTA|Cosmelei|8|B6|B|3|2|0722450601||alinaelenaleafu@yahoo.com|SBSSWH|SBSSWH|Sobranie SS White (1 mg) Pack|Yes|Yes||CT000519|LUCSAR MAMAIA|Constanta|CTDTCBA16|40|CCC SOBR FAM Vara 2012|121|Retail|0
0|CS229959|2012-07-08 22:06:25|Nita|Maria||F|1975-07-29|Constanta|CONSTANTA|Aleea fragilor|5|R3|C|0|43|0745594321|||KTBL|MBRFP|Sobranie KS Blue (6 mg) Pack|Yes|Yes||CT004749|ICOM SERV|Constanta|CTDTCBA14|40|CCC SOBR FAM Vara 2012|121|Retail|0
0|CS229967|2012-07-08 22:08:04|Dragota|Liliana||F|1985-01-26|Constanta|CONSTANTA|Progresului|9|M2|A|2|12|0722812932||liliana_dragota@yahoo.com|GLMBL|KTBL|Sobranie SS White (1 mg) Pack|Yes|Yes||CT004749|ICOM SERV|Constanta|CTDTCBA14|40|CCC SOBR FAM Vara 2012|121|Retail|0
0|CS230055|2012-07-08 22:31:17|Baltag |Monica||F|1987-05-04|Iasi|IASI|Tudor Vladimirescu|-|T4|-|4|403|0746064552||baltagmonica@yahoo.com|KTSV|KTCON| Sobranie KS Gold (4 mg) Pack|Yes|Yes||CT000519|LUCSAR MAMAIA|Constanta|CTDTCBA16|40|CCC SOBR FAM Vara 2012|121|Retail|0
0|CS230109|2012-07-08 22:41:08|Popa|Costel||M|1964-09-12|Neamt|BOZIENI DE JOS|Barvu de la vrancea |13|||||0745836151|||KTH|ROTH|Sobranie KS Black (8 mg) Pack|Yes|Yes||CT000519|LUCSAR MAMAIA|Constanta|CTDTCBA16|40|CCC SOBR FAM Vara 2012|121|Retail|0
0|CS230108|2012-07-08 22:44:29|Popa|Alexandru||M|1991-05-07|Hunedoara|DEVA|Nicolae Balcescu|-|B|B|4|28|0724168128||alexacln@yahoo.com|KTBL|KTBL|Sobranie KS Black (8 mg) Pack|Yes|Yes||CT000519|LUCSAR MAMAIA|Constanta|CTDTCBA16|40|CCC SOBR FAM Vara 2012|121|Retail|0
0|FS326324|2012-07-06 17:19:05|||||||||||||||||VIRSM||||||||||40|CCC SOBR FAM Vara 2012|121|Retail|0
0|FS326337|2012-07-06 17:24:58|||||||||||||||||VIRSPR||||||||||40|CCC SOBR FAM Vara 2012|121|Retail|0
0|FS326340|2012-07-06 17:25:34|||||||||||||||||DUNFCDB||||||||||40|CCC SOBR FAM Vara 2012|121|Retail|0
0|FS326352|2012-07-06 17:29:18|||||||||||||||||DUNFCBK||||||||||40|CCC SOBR FAM Vara 2012|121|Retail|0
0|FS326356|2012-07-06 17:31:18|||||||||||||||||VOGJSN||||||||||40|CCC SOBR FAM Vara 2012|121|Retail|0
0|FS326367|2012-07-06 17:36:10|||||||||||||||||MBRGLT||||||||||40|CCC SOBR FAM Vara 2012|121|Retail|0
0|FS326372|2012-07-06 17:38:15|||||||||||||||||PMBL||||||||||40|CCC SOBR FAM Vara 2012|121|Retail|0
0|FS326390|2012-07-06 17:50:43|||||||||||||||||KTBL||||||||||40|CCC SOBR FAM Vara 2012|121|Retail|0
0|FS326415|2012-07-06 18:00:53|||||||||||||||||PARAB||||||||||40|CCC SOBR FAM Vara 2012|121|Retail|0
0|FS326423|2012-07-06 18:03:40|||||||||||||||||KTBL||||||||||40|CCC SOBR FAM Vara 2012|121|Retail|0
0|FS326439|2012-07-06 18:08:48|||||||||||||||||PMSSBL||||||||||40|CCC SOBR FAM Vara 2012|121|Retail|0
0|FS326442|2012-07-06 18:11:33|||||||||||||||||VOGLL||||||||||40|CCC SOBR FAM Vara 2012|121|Retail|0
0|FS326470|2012-07-06 18:22:35|||||||||||||||||DUNBL||||||||||40|CCC SOBR FAM Vara 2012|121|Retail|0
0|FS326473|2012-07-06 18:23:21|||||||||||||||||WIBLH||||||||||40|CCC SOBR FAM Vara 2012|121|Retail|0
0|FS326526|2012-07-06 18:38:06|||||||||||||||||CAFI||||||||||40|CCC SOBR FAM Vara 2012|121|Retail|0
0|FS326527|2012-07-06 18:38:07|||||||||||||||||CAFI||||||||||40|CCC SOBR FAM Vara 2012|121|Retail|0
0|FS326552|2012-07-06 18:46:38|||||||||||||||||KTBL||||||||||40|CCC SOBR FAM Vara 2012|121|Retail|0
0|FS326556|2012-07-06 18:47:35|||||||||||||||||PMBL||||||||||40|CCC SOBR FAM Vara 2012|121|Retail|0
0|FS326593|2012-07-06 18:55:55|||||||||||||||||KTBLH||||||||||40|CCC SOBR FAM Vara 2012|121|Retail|0
0|FS326608|2012-07-06 18:58:52|||||||||||||||||WIBLH||||||||||40|CCC SOBR FAM Vara 2012|121|Retail|0
0|FS326613|2012-07-06 19:00:33|||||||||||||||||DUNBL||||||||||40|CCC SOBR FAM Vara 2012|121|Retail|0
0|FS326697|2012-07-06 19:24:15|||||||||||||||||SBSSWH||||||||||40|CCC SOBR FAM Vara 2012|121|Retail|0
0|FS326699|2012-07-06 19:25:47|||||||||||||||||KTH||||||||||40|CCC SOBR FAM Vara 2012|121|Retail|0
0|FS326710|2012-07-06 19:27:48|||||||||||||||||KTBL||||||||||40|CCC SOBR FAM Vara 2012|121|Retail|0
0|FS326802|2012-07-06 19:52:50|||||||||||||||||PMBK||||||||||40|CCC SOBR FAM Vara 2012|121|Retail|0
0|FS326827|2012-07-06 20:00:26|||||||||||||||||KTBL||||||||||40|CCC SOBR FAM Vara 2012|121|Retail|0
0|FS326865|2012-07-06 20:11:57|||||||||||||||||KTBL||||||||||40|CCC SOBR FAM Vara 2012|121|Retail|0
0|FS327366|2012-07-06 21:34:31|||||||||||||||||PMBK||||||||||40|CCC SOBR FAM Vara 2012|121|Retail|0
0|FS328634|2012-07-07 17:55:53|||||||||||||||||KTBL||||||||||40|CCC SOBR FAM Vara 2012|121|Retail|0
0|FS328637|2012-07-07 17:56:13|||||||||||||||||PMBL||||||||||40|CCC SOBR FAM Vara 2012|121|Retail|0
0|FS328648|2012-07-07 17:58:20|||||||||||||||||GLMBL||||||||||40|CCC SOBR FAM Vara 2012|121|Retail|0
0|FS328657|2012-07-07 18:00:13|||||||||||||||||LMRD||||||||||40|CCC SOBR FAM Vara 2012|121|Retail|0
0|FS328660|2012-07-07 18:00:47|||||||||||||||||DUNFCSV||||||||||40|CCC SOBR FAM Vara 2012|121|Retail|0
0|FS328673|2012-07-07 18:03:53|||||||||||||||||DUNBL||||||||||40|CCC SOBR FAM Vara 2012|121|Retail|0
0|FS328709|2012-07-07 18:09:53|||||||||||||||||VOGJSN||||||||||40|CCC SOBR FAM Vara 2012|121|Retail|0
0|FS328715|2012-07-07 18:11:09|||||||||||||||||WIBLH||||||||||40|CCC SOBR FAM Vara 2012|121|Retail|0
0|FS328738|2012-07-07 18:14:31|||||||||||||||||DUNFCDB||||||||||40|CCC SOBR FAM Vara 2012|121|Retail|0
0|FS328758|2012-07-07 18:17:58|||||||||||||||||KTCON||||||||||40|CCC SOBR FAM Vara 2012|121|Retail|0
0|FS328767|2012-07-07 18:20:20|||||||||||||||||KTSV||||||||||40|CCC SOBR FAM Vara 2012|121|Retail|0
0|FS328774|2012-07-07 18:21:32|||||||||||||||||DUNFCMB||||||||||40|CCC SOBR FAM Vara 2012|121|Retail|0
0|FS328812|2012-07-07 18:29:13|||||||||||||||||KTBL||||||||||40|CCC SOBR FAM Vara 2012|121|Retail|0
0|FS328832|2012-07-07 18:33:16|||||||||||||||||SBSSWH||||||||||40|CCC SOBR FAM Vara 2012|121|Retail|0
0|FS328851|2012-07-07 18:38:10|||||||||||||||||PHMQBL||||||||||40|CCC SOBR FAM Vara 2012|121|Retail|0
0|FS328892|2012-07-07 18:45:11|||||||||||||||||KTSV||||||||||40|CCC SOBR FAM Vara 2012|121|Retail|0
0|FS329003|2012-07-07 19:07:44|||||||||||||||||WIBLH||||||||||40|CCC SOBR FAM Vara 2012|121|Retail|0
0|FS329007|2012-07-07 19:09:05|||||||||||||||||WIBLH||||||||||40|CCC SOBR FAM Vara 2012|121|Retail|0
0|FS329020|2012-07-07 19:10:24|||||||||||||||||KTBL||||||||||40|CCC SOBR FAM Vara 2012|121|Retail|0
0|FS329039|2012-07-07 19:11:58|||||||||||||||||WIBLH||||||||||40|CCC SOBR FAM Vara 2012|121|Retail|0
0|FS329043|2012-07-07 19:12:26|||||||||||||||||PMSSGR||||||||||40|CCC SOBR FAM Vara 2012|121|Retail|0
0|FS329080|2012-07-07 19:17:14|||||||||||||||||MBRFP||||||||||40|CCC SOBR FAM Vara 2012|121|Retail|0
0|FS329114|2012-07-07 19:23:33|||||||||||||||||VIRSM||||||||||40|CCC SOBR FAM Vara 2012|121|Retail|0
0|FS329146|2012-07-07 19:28:14|||||||||||||||||WIBLH||||||||||40|CCC SOBR FAM Vara 2012|121|Retail|0
0|FS329359|2012-07-07 20:02:53|||||||||||||||||PMBL||||||||||40|CCC SOBR FAM Vara 2012|121|Retail|0
0|FS329405|2012-07-07 20:11:46|||||||||||||||||WIBLH||||||||||40|CCC SOBR FAM Vara 2012|121|Retail|0
0|FS329440|2012-07-07 20:14:59|||||||||||||||||KTBLH||||||||||40|CCC SOBR FAM Vara 2012|121|Retail|0
0|FS329500|2012-07-07 20:24:31|||||||||||||||||LMM||||||||||40|CCC SOBR FAM Vara 2012|121|Retail|0
0|FS329549|2012-07-07 20:35:07|||||||||||||||||KTH||||||||||40|CCC SOBR FAM Vara 2012|121|Retail|0
0|FS329654|2012-07-07 20:50:04|||||||||||||||||WIBLH||||||||||40|CCC SOBR FAM Vara 2012|121|Retail|0
0|FS329727|2012-07-07 20:58:17|||||||||||||||||WIBL||||||||||40|CCC SOBR FAM Vara 2012|121|Retail|0
0|FS329791|2012-07-07 21:06:50|||||||||||||||||LMRD||||||||||40|CCC SOBR FAM Vara 2012|121|Retail|0
0|FS329793|2012-07-07 21:07:10|||||||||||||||||WICL||||||||||40|CCC SOBR FAM Vara 2012|121|Retail|0
0|FS330219|2012-07-07 22:07:41|||||||||||||||||VCRRD||||||||||40|CCC SOBR FAM Vara 2012|121|Retail|0
0|FS330222|2012-07-07 22:07:56|||||||||||||||||PMBL||||||||||40|CCC SOBR FAM Vara 2012|121|Retail|0
0|FS331732|2012-07-08 17:48:17|||||||||||||||||KTH||||||||||40|CCC SOBR FAM Vara 2012|121|Retail|0
0|FS331736|2012-07-08 17:53:00|||||||||||||||||DUNFCMB||||||||||40|CCC SOBR FAM Vara 2012|121|Retail|0
0|FS331747|2012-07-08 17:56:01|||||||||||||||||WIBLH||||||||||40|CCC SOBR FAM Vara 2012|121|Retail|0
0|FS331757|2012-07-08 17:59:32|||||||||||||||||DUNFCRT||||||||||40|CCC SOBR FAM Vara 2012|121|Retail|0
0|FS331763|2012-07-08 18:01:20|||||||||||||||||VIRSM||||||||||40|CCC SOBR FAM Vara 2012|121|Retail|0
0|FS331779|2012-07-08 18:07:18|||||||||||||||||KTBL||||||||||40|CCC SOBR FAM Vara 2012|121|Retail|0
0|FS331795|2012-07-08 18:13:09|||||||||||||||||PMBL||||||||||40|CCC SOBR FAM Vara 2012|121|Retail|0
0|FS331809|2012-07-08 18:18:27|||||||||||||||||DUNFCDB||||||||||40|CCC SOBR FAM Vara 2012|121|Retail|0
0|FS331819|2012-07-08 18:21:10|||||||||||||||||VOGJSN||||||||||40|CCC SOBR FAM Vara 2012|121|Retail|0
0|FS331843|2012-07-08 18:28:03|||||||||||||||||GLMMNT||||||||||40|CCC SOBR FAM Vara 2012|121|Retail|0
0|FS331844|2012-07-08 18:28:13|||||||||||||||||PMBL||||||||||40|CCC SOBR FAM Vara 2012|121|Retail|0
0|FS331921|2012-07-08 18:44:37|||||||||||||||||KTBL||||||||||40|CCC SOBR FAM Vara 2012|121|Retail|0
0|FS332070|2012-07-08 19:14:33|||||||||||||||||WISV||||||||||40|CCC SOBR FAM Vara 2012|121|Retail|0
0|FS332102|2012-07-08 19:24:09|||||||||||||||||KTSV||||||||||40|CCC SOBR FAM Vara 2012|121|Retail|0
0|FS332196|2012-07-08 19:57:31|||||||||||||||||KTBL||||||||||40|CCC SOBR FAM Vara 2012|121|Retail|0
0|FS332350|2012-07-08 20:31:09|||||||||||||||||VIRSM||||||||||40|CCC SOBR FAM Vara 2012|121|Retail|0
0|FS332439|2012-07-08 20:46:40|||||||||||||||||DAVGL||||||||||40|CCC SOBR FAM Vara 2012|121|Retail|0
0|FS332535|2012-07-08 21:01:32|||||||||||||||||SBKSBL||||||||||40|CCC SOBR FAM Vara 2012|121|Retail|0
0|FS332543|2012-07-08 21:03:44|||||||||||||||||VCRRD||||||||||40|CCC SOBR FAM Vara 2012|121|Retail|0
0|FS332610|2012-07-08 21:12:31|||||||||||||||||KTCON||||||||||40|CCC SOBR FAM Vara 2012|121|Retail|0
0|FS332725|2012-07-08 21:36:48|||||||||||||||||PARAB||||||||||40|CCC SOBR FAM Vara 2012|121|Retail|0
0|FS332924|2012-07-08 22:18:22|||||||||||||||||LMRD||||||||||40|CCC SOBR FAM Vara 2012|121|Retail|0
0|FS332925|2012-07-08 22:18:22|||||||||||||||||LMRD||||||||||40|CCC SOBR FAM Vara 2012|121|Retail|0
0|FS332926|2012-07-08 22:18:34|||||||||||||||||LMRD||||||||||40|CCC SOBR FAM Vara 2012|121|Retail|0
