0|CS245297|2012-07-19 22:05:48|Cucolea|Octavian||M|1983-05-14|Bucuresti|SECTOR 3|Aleea barajul satului|1|N5|1|10|95|0740198867||octaviancucolea@yahoo.com|KTBL||Winston Fresh Xspresion (5mg) Pack|Yes|Yes||BWEVENT3|Palatul Bragadiru|Bucuresti|BWEVENTBA21|54|CCC EVENT WIN XST 2012|121|Horeca|0
0|CS245300|2012-07-19 22:05:59|Toma|Cristian||M|1984-04-17|Bucuresti|SECTOR 3|Plutonier petre ionescu|12|15|A|1|6|0727832431||cristiantoma1984@yahoo.com|KTBL|WIBL|Winston XStyle Blue (6mg) Pack|Yes|Yes||BWEVENT3|Palatul Bragadiru|Bucuresti|BWEVENTBA29|54|CCC EVENT WIN XST 2012|121|Horeca|0
0|CS245306|2012-07-19 22:07:13|Georgescu|Stefan||M|1987-04-23|Bucuresti|SECTOR 3|Dorneasca|8|P62|2|4|49|0743633047||stefan_doimai@yahoo.com|KTNBK|MBRGLT|Winston Fresh Xspresion (5mg) Pack|Yes|Yes||BWEVENT3|Palatul Bragadiru|Bucuresti|BWEVENTBA05|54|CCC EVENT WIN XST 2012|121|Horeca|0
0|CS245307|2012-07-19 22:07:33|Popa|Miruna||F|1991-04-20|Bucuresti|SECTOR 6|Splaiu independentei|290|P13|||22|0729928187||popamirunaandreea@gmail.com|DUNBL||Winston Fresh Xspresion (5mg) Pack|Yes|Yes||BWEVENT3|Palatul Bragadiru|Bucuresti|BWEVENTBA18|54|CCC EVENT WIN XST 2012|121|Horeca|0
0|CS245311|2012-07-19 22:08:17|Sirbu|Madalin||M|1991-06-07|Bucuresti|SECTOR 6|Splaiu independentei|290|P13||0|22|0737989655||m2ninn@yahoo.com|DUNFCBK||Winston XStyle Blue (6mg) Pack|Yes|Yes||BWEVENT3|Palatul Bragadiru|Bucuresti|BWEVENTBA21|54|CCC EVENT WIN XST 2012|121|Horeca|0
0|CS245312|2012-07-19 22:08:18|Dragomir|Adriana||F|1979-06-22|Bucuresti|SECTOR 3|Prevederii|5|Pm11a|3|4|89|0723174591||adi_dragomir08@yahoo.com|VOGLL||Winston XStyle Silver (4 mg) Pack|Yes|Yes||BWEVENT3|Palatul Bragadiru|Bucuresti|BWEVENTBA29|54|CCC EVENT WIN XST 2012|121|Horeca|0
0|CS245313|2012-07-19 22:08:41|Roventa|Irina||F|1988-03-01|Bucuresti|SECTOR 6|Spaiul independentei|204|A1||8|806|0765463950||irina.roventa@yahoo.com|WISV||Winston Fresh Xspresion (5mg) Pack|Yes|Yes||BWEVENT3|Palatul Bragadiru|Bucuresti|BWEVENTBA19|54|CCC EVENT WIN XST 2012|121|Horeca|0
0|CS245316|2012-07-19 22:08:55|Barcan|Ionut||M|1983-05-19|Bucuresti|SECTOR 4|Constantin Brancoveanu|13|B16|4|8|117|0752322515||barcan_ionut@yahoo.com|SBKSBL|SBKSBL|Winston XStyle Blue (6mg) Pack|Yes|Yes||BWEVENT3|Palatul Bragadiru|Bucuresti|BWEVENTBA48|54|CCC EVENT WIN XST 2012|121|Horeca|0
0|CS245320|2012-07-19 22:10:21|Tantareanu|Ana maria||F|1988-08-04|Bucuresti|SECTOR 5|Iatropol|8|||||0723152328||ana_tantareanu@yahoo.com|KTNBK||Winston XStyle Silver (4 mg) Pack|Yes|Yes||BWEVENT3|Palatul Bragadiru|Bucuresti|BWEVENTBA05|54|CCC EVENT WIN XST 2012|121|Horeca|0
0|CS245323|2012-07-19 22:10:58|Mihalache|Radu||M|1986-05-27|Bucuresti|SECTOR 6|Iuliu maniu|200d|||||0745019377||radu.mihalache@yahoo.com|DUNBL||Winston XStyle Blue (6mg) Pack|Yes|Yes||BWEVENT3|Palatul Bragadiru|Bucuresti|BWEVENTBA19|54|CCC EVENT WIN XST 2012|121|Horeca|0
0|CS245327|2012-07-19 22:12:14|Fedor |Ciprian||M|1976-09-30|Iasi|IASI|Cerna|6|||||0751283033||ciprian.fedor@jti.com|CABL|SBKSBL|Winston Fresh Xspresion (5mg) Pack|Yes|Yes||BWEVENT3|Palatul Bragadiru|Bucuresti|BWEVENTBA46|54|CCC EVENT WIN XST 2012|121|Horeca|0
0|CS245330|2012-07-19 22:12:54|Hulea|Adrian||M|1976-10-28|Bucuresti|SECTOR 1|Iancu de hunedoara|47|H||3|10|0751283041||huleaadrian@yahoo.com|WIBL|WISV|Winston Fresh Xspresion (5mg) Pack|Yes|Yes||BWEVENT3|Palatul Bragadiru|Bucuresti|BWEVENTBA29|54|CCC EVENT WIN XST 2012|121|Horeca|0
0|CS245334|2012-07-19 22:13:30|Fatu|Roxana||F|1982-10-23|Bucuresti|SECTOR 4|Rezonantei|6a|N26|7|0|61|0722134490||roxx_mail@yahoo.com|KTSV||Winston XStyle Silver (4 mg) Pack|Yes|Yes||BWEVENT3|Palatul Bragadiru|Bucuresti|BWEVENTBA18|54|CCC EVENT WIN XST 2012|121|Horeca|0
0|CS245336|2012-07-19 22:13:34|Raduta|Adrian||M|1989-09-07|Bucuresti|SECTOR 5|Margeanului|2|M71|1|1|5|0727092995||adrian.raduta@gmail.com|KTBL|PMBL|Winston XStyle Blue (6mg) Pack|Yes|Yes||BWEVENT3|Palatul Bragadiru|Bucuresti|BWEVENTBA48|54|CCC EVENT WIN XST 2012|121|Horeca|0
0|CS245339|2012-07-19 22:13:54|Petrea|Anca||F|1985-05-31|Braila|BRAILA|Dorobantilor|435|A1|4|6|119|0745311204||aipetrea@gmail.com|VOGFLLL||Winston XStyle Silver (4 mg) Pack|Yes|Yes||BWEVENT3|Palatul Bragadiru|Bucuresti|BWEVENTBA05|54|CCC EVENT WIN XST 2012|121|Horeca|0
0|CS245342|2012-07-19 22:14:33|Suciu|Andrei||M|1990-01-22|Bucuresti|SECTOR 6|Uverturii|84|O14|1||17|0754678830||andrei@oscarspub.ro|LSRD||Winston XStyle Blue (6mg) Pack|Yes|Yes||BWEVENT3|Palatul Bragadiru|Bucuresti|BWEVENTBA25|54|CCC EVENT WIN XST 2012|121|Horeca|0
0|CS245343|2012-07-19 22:15:01|Juhasz|Iulian||M|1986-05-20|Bihor|ORADEA|Aleea calinului|11|X4|B|2|12|0754051494||iulian.juhasz@gmail.com|DUNSV||Winston Fresh Xspresion (5mg) Pack|Yes|Yes||BWEVENT3|Palatul Bragadiru|Bucuresti|BWEVENTBA19|54|CCC EVENT WIN XST 2012|121|Horeca|0
0|CS245347|2012-07-19 22:15:22|Lapusneanu|Alecsandru||M|1987-07-11|Bucuresti|SECTOR 1|Calea grivitei|190|F|B|4|50|0727440988||a.lapusneanul@gmail.com|MBRFP||Winston XStyle Blue (6mg) Pack|Yes|Yes||BWEVENT3|Palatul Bragadiru|Bucuresti|BWEVENTBA18|54|CCC EVENT WIN XST 2012|121|Horeca|0
0|CS245350|2012-07-19 22:16:32|Balan|Vlad||M|1985-09-13|Bacau|BACAU|Danubiu|8|6d|2|2|22|0756657832||balanvlad_a@yahoo.com|KTBL|WIBLH|Winston XStyle Blue (6mg) Pack|Yes|Yes||BWEVENT3|Palatul Bragadiru|Bucuresti|BWEVENTBA05|54|CCC EVENT WIN XST 2012|121|Horeca|0
0|CS245351|2012-07-19 22:16:38|Furcoi|Mmihaiela||F|1989-05-17|Bucuresti|4|Emil racovita|16a|I11|2|8|56|0767840250||mihaela2189@yahoo.com|DUNFCMB||Winston XStyle Blue (6mg) Pack|Yes|Yes||BWEVENT3|Palatul Bragadiru|Bucuresti|BWEVENTBA21|54|CCC EVENT WIN XST 2012|121|Horeca|0
0|CS245355|2012-07-19 22:16:56|Balahura|Razvan||M|1986-11-18|Bucuresti|SECTOR 4|Baltita|9|B35|A||22|0765331887||razvan18111986@yahoo.com|MBRGLH||Winston XStyle Silver (4 mg) Pack|Yes|Yes||BWEVENT3|Palatul Bragadiru|Bucuresti|BWEVENTBA25|54|CCC EVENT WIN XST 2012|121|Horeca|0
0|CS245357|2012-07-19 22:16:58|Vladoiu|Mihaela||F|1975-10-11|Bucuresti|SECTOR 6|Splaiul independentei|210|C|1|2|202|0722239958|||KTBL|WIBL|Winston Fresh Xspresion (5mg) Pack|Yes|Yes||BWEVENT3|Palatul Bragadiru|Bucuresti|BWEVENTBA29|54|CCC EVENT WIN XST 2012|121|Horeca|0
0|CS245365|2012-07-19 22:18:15|Marcu|Adina||F|1987-11-11|Bucuresti|SECTOR 4|Emil racovita|4|C6|1|P|15|0761045636||ady_na2006@yahoo.com|VIRSPR||Winston XStyle Blue (6mg) Pack|Yes|Yes||BWEVENT3|Palatul Bragadiru|Bucuresti|BWEVENTBA21|54|CCC EVENT WIN XST 2012|121|Horeca|0
0|CS245377|2012-07-19 22:20:12|Ganta|Madalina||F|1983-08-16|Bucuresti|SECTOR 5|Dorneasca|16|P58|1|2|9|0728004833||oanamadalina.ganta@unicredit.ro|MBRGLFT|KTNSV|Winston XStyle Silver (4 mg) Pack|Yes|Yes||BWEVENT3|Palatul Bragadiru|Bucuresti|BWEVENTBA46|54|CCC EVENT WIN XST 2012|121|Horeca|0
0|CS245381|2012-07-19 22:20:58|Tudosa|Alfred cristian||M|1990-08-04|Bucuresti|5|Calea ferentari|23|129|3|8|93|0766273484||tudosa.alfred@yahoo.com|WIBLH|PMSSBL|Winston Fresh Xspresion (5mg) Pack|Yes|Yes||BWEVENT3|Palatul Bragadiru|Bucuresti|BWEVENTBA05|54|CCC EVENT WIN XST 2012|121|Horeca|0
0|CS245382|2012-07-19 22:21:10|Radu|Cristian||M|1983-11-26|Bucuresti|SECTOR 1|Calea mosilor|125|0|B|3|7|0720662127||cristian@cristianradu.ro|KTH||Winston Fresh Xspresion (5mg) Pack|Yes|Yes||BWEVENT3|Palatul Bragadiru|Bucuresti|BWEVENTBA19|54|CCC EVENT WIN XST 2012|121|Horeca|0
0|CS245384|2012-07-19 22:21:18|Szasz|Katalin||F|1977-03-29|Bucuresti|2|M bravu|90-96|D17|3|9|115|0745122842||katernika@yahoo.com|WIXSTBL||Winston XStyle Blue (6mg) Pack|Yes|Yes||BWEVENT3|Palatul Bragadiru|Bucuresti|BWEVENTBA50|54|CCC EVENT WIN XST 2012|121|Horeca|0
0|CS245387|2012-07-19 22:21:43|Cucolea|Elena||F|1983-08-17|Bucuresti|SECTOR 3|Alewa barajul satului|1|M5||10|95|0747052709||elenaapopii@yahoo.com|KTBL||Winston Fresh Xspresion (5mg) Pack|Yes|Yes||BWEVENT3|Palatul Bragadiru|Bucuresti|BWEVENTBA29|54|CCC EVENT WIN XST 2012|121|Horeca|0
0|CS245394|2012-07-19 22:23:09|Varzaru|Ionut||M|1992-12-14|Bucuresti|SECTOR 5|Doina|14|18|2|4|27|0766504991||pustyu_pustiulik@yahoo.com|KTCON|WIBLH|Winston Fresh Xspresion (5mg) Pack|Yes|Yes||BWEVENT3|Palatul Bragadiru|Bucuresti|BWEVENTBA05|54|CCC EVENT WIN XST 2012|121|Horeca|0
0|CS245398|2012-07-19 22:24:24|Bogdan|Rares||M|1988-08-19|Bucuresti|SECTOR 6|Splaiul independentei|290|P27|||40|0746030213||kter20032002@yahoo.com|KTH||Winston XStyle Blue (6mg) Pack|Yes|Yes||BWEVENT3|Palatul Bragadiru|Bucuresti|BWEVENTBA25|54|CCC EVENT WIN XST 2012|121|Horeca|0
0|CS245401|2012-07-19 22:25:25|Pavel|Silvia||F|1980-06-06|Bucuresti|3|C tin brancusi|11|D16|2|9|79|0723622997||silvianeloe@yahoo.com|VIRSUM|MBRBI|Winston XStyle Blue (6mg) Pack|Yes|No||BWEVENT3|Palatul Bragadiru|Bucuresti|BWEVENTBA50|54|CCC EVENT WIN XST 2012|121|Horeca|0
0|CS245405|2012-07-19 22:25:52|Vlasceanu|Ionut||M|1983-04-23|Bucuresti|SECTOR 3|Calarasilor|156|53bis|A|4|18|0726766778||ionut.vlasceanu@gmail.com|LSSV|DUNFCSV|Winston XStyle Blue (6mg) Pack|Yes|Yes||BWEVENT3|Palatul Bragadiru|Bucuresti|BWEVENTBA29|54|CCC EVENT WIN XST 2012|121|Horeca|0
0|CS245410|2012-07-19 22:26:32|Bargaoanu|Elena||F|1967-03-15|Bucuresti|6|Aleea istru|7|A3|A|4|14|0723569006||elenab@brd.ro|GLPBMN|VIRSM|Winston Fresh Xspresion (5mg) Pack|Yes|Yes||BWEVENT3|Palatul Bragadiru|Bucuresti|BWEVENTBA46|54|CCC EVENT WIN XST 2012|121|Horeca|0
0|CS245411|2012-07-19 22:26:54|Firaru|Florina||F|1983-04-15|Arges|PITESTI|Libertatii|24|D7|A|0|1|0741114999||florina_firaru@yahoo.com|SBKSGD||Winston Fresh Xspresion (5mg) Pack|Yes|Yes||BWEVENT3|Palatul Bragadiru|Bucuresti|BWEVENTBA19|54|CCC EVENT WIN XST 2012|121|Horeca|0
0|CS245413|2012-07-19 22:27:18|Badea|Victor||M|1993-12-29|Bucuresti|6|Calea ferentari|23|129b|A|6|23|0762287903||badea_victor231993@yahoo.com|DUNBL|WIXSB|Winston Fresh Xspresion (5mg) Pack|Yes|Yes||BWEVENT3|Palatul Bragadiru|Bucuresti|BWEVENTBA05|54|CCC EVENT WIN XST 2012|121|Horeca|0
0|CS245419|2012-07-19 22:28:28|Vlad|Roxana||F|1985-09-06|Bucuresti|SECTOR 2|Petre antonescu|13|||||0722243048||roxana.vlad@poblicist.ro|SBSSPK||Winston XStyle Silver (4 mg) Pack|Yes|Yes||BWEVENT3|Palatul Bragadiru|Bucuresti|BWEVENTBA08|54|CCC EVENT WIN XST 2012|121|Horeca|0
0|CS245429|2012-07-19 22:29:37|Preda|Ioana||F|1979-10-07|Bucuresti|SECTOR 6|Ceahlau|24|106|3|4|127|0765553353||ioanapredator@yahoo.com|VIRSM|SBSSPK|Winston XStyle Silver (4 mg) Pack|Yes|Yes||BWEVENT3|Palatul Bragadiru|Bucuresti|BWEVENTBA21|54|CCC EVENT WIN XST 2012|121|Horeca|0
0|CS245437|2012-07-19 22:30:47|Paculea|Adrian||M|1980-09-08|Constanta|CONSTANTA|Colentina|5|||||0722649060||adrian.paculea@mercury360.ro|WISV||Winston XStyle Silver (4 mg) Pack|Yes|Yes||BWEVENT3|Palatul Bragadiru|Bucuresti|BWEVENTBA08|54|CCC EVENT WIN XST 2012|121|Horeca|0
0|CS245438|2012-07-19 22:30:49|Pirvan|Andrea||F|1989-02-11|Arges|CURTEA DE ARGES|Valea iasului|1|P16|1|2|10|0728440239||andreea_drx@yahoo.com|KTNBL|DAVGLSS|Winston Fresh Xspresion (5mg) Pack|Yes|Yes||BWEVENT3|Palatul Bragadiru|Bucuresti|BWEVENTBA05|54|CCC EVENT WIN XST 2012|121|Horeca|0
0|CS245439|2012-07-19 22:30:52|Toader|Georgiana||F|1989-07-31|Bucuresti|SECTOR 6|Splaiul independentei|290|P11||2|13|0767256995||geo_denis1@yahoo.com|VIRSM||Winston Fresh Xspresion (5mg) Pack|Yes|Yes||BWEVENT3|Palatul Bragadiru|Bucuresti|BWEVENTBA25|54|CCC EVENT WIN XST 2012|121|Horeca|0
0|CS245441|2012-07-19 22:31:12|Ciucan|Marian||M|1970-08-20|Bucuresti|4|Giurgului|127|2b|5|3|172|0723268313||marian.ciucan@gmail.com|KTWH|KTSV|Winston XStyle Silver (4 mg) Pack|Yes|Yes||BWEVENT3|Palatul Bragadiru|Bucuresti|BWEVENTBA46|54|CCC EVENT WIN XST 2012|121|Horeca|0
0|CS245444|2012-07-19 22:32:32|Stroie|Paraschiv cosmin||M|1988-07-12|Bucuresti|SECTOR 6|Nicolae oncescu|6|114|3|6|112|0761660503||cosmin_viper@yahoo.com|WIBL||Winston XStyle Blue (6mg) Pack|Yes|Yes||BWEVENT3|Palatul Bragadiru|Bucuresti|BWEVENTBA19|54|CCC EVENT WIN XST 2012|121|Horeca|0
0|CS245445|2012-07-19 22:32:33|Simion|Gabriela||F|1979-04-20|Bucuresti|SECTOR 1|Brailita|5|P10|2|7|51|0757747922||gabysimion@yahoo.com|VIRSM|KTCON|Winston Fresh Xspresion (5mg) Pack|Yes|Yes||BWEVENT3|Palatul Bragadiru|Bucuresti|BWEVENTBA21|54|CCC EVENT WIN XST 2012|121|Horeca|0
0|CS245447|2012-07-19 22:32:48|Gavriloaia|Laura||F|1988-01-28|Bucuresti|SECTOR 6|Chilia veche|7|70|B||70|0732628912||laura_matza@yahoo.com|WIBL||Winston Fresh Xspresion (5mg) Pack|Yes|Yes||BWEVENT3|Palatul Bragadiru|Bucuresti|BWEVENTBA25|54|CCC EVENT WIN XST 2012|121|Horeca|0
0|CS245450|2012-07-19 22:33:35|Rogojina|Radu||M|1990-10-23|Bucuresti|SECTOR 1|Turda|127|||||0724071591||rs.2310@yahoo.com|DUNBL||Winston XStyle Blue (6mg) Pack|Yes|Yes||BWEVENT3|Palatul Bragadiru|Bucuresti|BWEVENTBA08|54|CCC EVENT WIN XST 2012|121|Horeca|0
0|CS245457|2012-07-19 22:34:39|Andreea|Grigorean||F|1977-10-16|Bucuresti|2|drobeta|1|||3|14|0749010320||andreeagrigorean@yahoo.com|VOGJSN|WISSS|Winston Fresh Xspresion (5mg) Pack|Yes|Yes||BWEVENT3|Palatul Bragadiru|Bucuresti|BWEVENTBA50|54|CCC EVENT WIN XST 2012|121|Horeca|0
0|CS245459|2012-07-19 22:35:15|Andronic|Radu||M|1982-07-27|Bucuresti|SECTOR 4|Calea vacaresti|280|57|1|9|52|0729080136||andronicradu@gmail.com|KTNBK|KTBLH|Winston XStyle Blue (6mg) Pack|Yes|Yes||BWEVENT3|Palatul Bragadiru|Bucuresti|BWEVENTBA46|54|CCC EVENT WIN XST 2012|121|Horeca|0
0|CS245530|2012-07-19 22:35:50|Serbu|Radu||M|1987-01-29|Bucuresti|SECTOR 3|Barajul uzului|14|Y14|3|P|3|0722213315||raduserbu@yahoo.com|MBRRD||Winston XStyle Silver (4 mg) Pack|Yes|Yes||BWEVENT3|Palatul Bragadiru|Bucuresti|BWEVENTBA29|54|CCC EVENT WIN XST 2012|121|Horeca|0
0|CS245466|2012-07-19 22:36:55|Cucos|Irina||F|1991-01-29|Vaslui|BARLAD|Mihail eminescu|16|||||0732409157||irina.cucos@yahoo.com|DUNFCSV||Winston XStyle Silver (4 mg) Pack|Yes|Yes||BWEVENT3|Palatul Bragadiru|Bucuresti|BWEVENTBA08|54|CCC EVENT WIN XST 2012|121|Horeca|0
0|CS245470|2012-07-19 22:37:49|Ungureanu|Elena bianca||F|1988-06-14|Arges|CURTEA DE ARGES|Valea iasului|9|A9|A|2|5|0725812419||bianca.ungureanu88@yahoo.com|DUNFCMB|VOGFLLL|Winston XStyle Silver (4 mg) Pack|Yes|Yes||BWEVENT3|Palatul Bragadiru|Bucuresti|BWEVENTBA05|54|CCC EVENT WIN XST 2012|121|Horeca|0
0|CS245472|2012-07-19 22:38:19|Lacatas|Cristina||F|1990-02-11|Bucuresti|SECTOR 6|Chilia veche|5|Td17|A|P|3|0722581553||danalacatas@yahoo.com|WISSS||Winston XStyle Silver (4 mg) Pack|Yes|Yes||BWEVENT3|Palatul Bragadiru|Bucuresti|BWEVENTBA21|54|CCC EVENT WIN XST 2012|121|Horeca|0
0|CS245476|2012-07-19 22:38:38|Gocea|Oana||F|1986-07-09|Bucuresti|SECTOR 6|Apele vii|1a|312|A|1|3|0764473961||oana_madalina45@yahoo.com|WIBL||Winston XStyle Blue (6mg) Pack|Yes|Yes||BWEVENT3|Palatul Bragadiru|Bucuresti|BWEVENTBA19|54|CCC EVENT WIN XST 2012|121|Horeca|0
0|CS245531|2012-07-19 22:39:52|Hodoiu|Georgian||M|1986-03-09|Prahova|PLOIESTI|Platosei|1|15e|B|P|21|0720638017||georgian.hodoiu@fashiondays.ro|MBRRD||Winston XStyle Blue (6mg) Pack|Yes|Yes||BWEVENT3|Palatul Bragadiru|Bucuresti|BWEVENTBA29|54|CCC EVENT WIN XST 2012|121|Horeca|0
0|CS245481|2012-07-19 22:39:55|Nicoara|Anca||F|1984-06-24|Constanta|CONSTANTA|Mugurului|61|||||0722558624||nicoara.anca@gmail.com|CAWH||Winston XStyle Silver (4 mg) Pack|Yes|Yes||BWEVENT3|Palatul Bragadiru|Bucuresti|BWEVENTBA08|54|CCC EVENT WIN XST 2012|121|Horeca|0
0|CS245486|2012-07-19 22:40:20|Catalin|Teodoresc||M|1980-12-09|Bucuresti|2|Pprebu|1|T9a|A|8|48|0726001727||cata_teodorescu@yahoo.com|KTH|MBRRDH|Winston XStyle Silver (4 mg) Pack|Yes|Yes||BWEVENT3|Palatul Bragadiru|Bucuresti|BWEVENTBA50|54|CCC EVENT WIN XST 2012|121|Horeca|0
0|CS245487|2012-07-19 22:40:30|Bogdan|Rares||M|1988-08-19|Bucuresti|6|Splaiul independentei|290||||47|0766679123||bogdanrares7@yahoo.com|KTH|PARABH|Winston Fresh Xspresion (5mg) Pack|Yes|Yes||BWEVENT3|Palatul Bragadiru|Bucuresti|BWEVENTBA46|54|CCC EVENT WIN XST 2012|121|Horeca|0
0|CS245489|2012-07-19 22:40:32|Pricopie|Elena||F|1985-04-30|Bacau|ONESTI|Buciumului|11||A||16|0722502573||elenapricopie@yahoo.com|WIBL||Winston XStyle Blue (6mg) Pack|Yes|Yes||BWEVENT3|Palatul Bragadiru|Bucuresti|BWEVENTBA25|54|CCC EVENT WIN XST 2012|121|Horeca|0
0|CS245490|2012-07-19 22:40:45|Ustinescu|Eduard||M|1987-09-30|Braila|BRAILA|Mantuleasa|30|||||0749337004||eduard.ustinescu@gmail.com|DUNSV||Winston XStyle Blue (6mg) Pack|Yes|Yes||BWEVENT3|Palatul Bragadiru|Bucuresti|BWEVENTBA18|54|CCC EVENT WIN XST 2012|121|Horeca|0
0|CS245495|2012-07-19 22:41:21|Olariu|Diana||F|1988-08-06|Bucuresti|Sector 6|Chilia Veche|5|TD17|A|0|2|0722580986||dianaolariu88@yahoo.com|WISV||Winston XStyle Silver (4 mg) Pack|Yes|Yes||BWEVENT3|Palatul Bragadiru|Bucuresti|BWEVENTBA21|54|CCC EVENT WIN XST 2012|121|Horeca|0
0|CS245496|2012-07-19 22:41:22|Dobrescuc|Claudiu||M|1986-09-11|Arges|CURTEA DE ARGES|Vlad tepes|0|E16|C|0|28|0767214204||claudiu_dobrescu@yahoo.com|KTBL|DUNSV|Winston XStyle Blue (6mg) Pack|Yes|Yes||BWEVENT3|Palatul Bragadiru|Bucuresti|BWEVENTBA05|54|CCC EVENT WIN XST 2012|121|Horeca|0
0|CS245502|2012-07-19 22:42:33|Lincu|Iulian ionut||M|1987-11-12|Bucuresti|SECTOR 5|Serbatori|6|P74|2|8|53|0724191589||iulian3d@gmail.com|WIBL||Winston Fresh Xspresion (5mg) Pack|Yes|Yes||BWEVENT3|Palatul Bragadiru|Bucuresti|BWEVENTBA25|54|CCC EVENT WIN XST 2012|121|Horeca|0
0|CS245503|2012-07-19 22:42:41|Gherasim|Catalin||M|1979-08-26|Bucuresti|SECTOR 6|Targu neamt|24|Td28|1|9|56|0723256556||sax@k.ro|KTBL|MBRGLA|Winston XStyle Blue (6mg) Pack|Yes|Yes||BWEVENT3|Palatul Bragadiru|Bucuresti|BWEVENTBA48|54|CCC EVENT WIN XST 2012|121|Horeca|0
0|CS245505|2012-07-19 22:42:59|Tuica|Razvan||M|1989-09-07|Valcea|RAMNICU VALCEA|Ion referendaru|2|18|A|2|7|0723397724||razvan_0072@yahoo.com|KTBL||Winston XStyle Blue (6mg) Pack|Yes|Yes||BWEVENT3|Palatul Bragadiru|Bucuresti|BWEVENTBA19|54|CCC EVENT WIN XST 2012|121|Horeca|0
0|CS245532|2012-07-19 22:43:19|Muca|Catalin||M|1991-08-02|Bucuresti|SECTOR 3|Revederii|23|G17|A|2|9|0766240473||catalin.muca@fashiondays.ro|DUNFCDB||Winston Fresh Xspresion (5mg) Pack|Yes|Yes||BWEVENT3|Palatul Bragadiru|Bucuresti|BWEVENTBA29|54|CCC EVENT WIN XST 2012|121|Horeca|0
0|CS245507|2012-07-19 22:43:32|Pietraru|Ionut||M|1989-09-22|Bucuresti|SECTOR 4|Lamotesti|8|12|1|7|43|0767624311||ionutz_pitic_2006@yahoo.ca|CAWH||Winston Fresh Xspresion (5mg) Pack|Yes|Yes||BWEVENT3|Palatul Bragadiru|Bucuresti|BWEVENTBA08|54|CCC EVENT WIN XST 2012|121|Horeca|0
0|CS245510|2012-07-19 22:43:57|Ionescu|Valentin||M|1980-09-01|Bucuresti|5|Barca|7|M90|1|1|17|0728990980||moscw_flyer4u@yahoo.com|MBRGLT|DUNFCBK|Winston XStyle Blue (6mg) Pack|Yes|Yes||BWEVENT3|Palatul Bragadiru|Bucuresti|BWEVENTBA46|54|CCC EVENT WIN XST 2012|121|Horeca|0
0|CS245513|2012-07-19 22:44:36|Viceanu|Dan||M|1987-07-16|Bucuresti|SECTOR 2|Stefan cel mare|46|33|A|1|1|0749786066||dan.vilceanu@yahoo.com|KTCON||Winston Fresh Xspresion (5mg) Pack|Yes|Yes||BWEVENT3|Palatul Bragadiru|Bucuresti|BWEVENTBA05|54|CCC EVENT WIN XST 2012|121|Horeca|0
0|CS245514|2012-07-19 22:45:14|Tataru|Daniel||M|1986-03-18|Bucuresti|SECTOR 3|Popa soare|13|||||0729418771||daniel.ltd98@gmail.com|KTBL||Winston XStyle Blue (6mg) Pack|Yes|Yes||BWEVENT3|Palatul Bragadiru|Bucuresti|BWEVENTBA21|54|CCC EVENT WIN XST 2012|121|Horeca|0
0|CS245515|2012-07-19 22:45:24|Craciun|Oana||F|1984-09-08|Bucuresti|SECTOR 6|Prel ghencea|45|||||0728643950||oanarox.craciun@yahoo.com|VOGLL||Winston XStyle Silver (4 mg) Pack|Yes|Yes||BWEVENT3|Palatul Bragadiru|Bucuresti|BWEVENTBA25|54|CCC EVENT WIN XST 2012|121|Horeca|0
0|CS245517|2012-07-19 22:46:30|Dima|Madalin||M|1987-08-25|Bucuresti|SECTOR 4|Baltita|4|B26|2|||0727575019||madalin_dima@yahoo.com|DUNFCDB||Winston XStyle Blue (6mg) Pack|Yes|Yes||BWEVENT3|Palatul Bragadiru|Bucuresti|BWEVENTBA08|54|CCC EVENT WIN XST 2012|121|Horeca|0
0|CS245519|2012-07-19 22:47:08|Metea|Eduard||M|1988-05-01|Prahova|PLOIESTI|Cuza voda|47|4|C|3|9|0742755630||eduardmetea@yahoo.com|KTBL|CABK|Winston XStyle Blue (6mg) Pack|Yes|Yes||BWEVENT3|Palatul Bragadiru|Bucuresti|BWEVENTBA48|54|CCC EVENT WIN XST 2012|121|Horeca|0
0|CS245520|2012-07-19 22:48:43|Trandafir|Madalina||F|1985-10-02|Bucuresti|SECTOR 4|Alexandru obregia|30|R4|2|8|78|0732307464||madylor2002@yahoo.com|VOGDV||Winston Fresh Xspresion (5mg) Pack|Yes|Yes||BWEVENT3|Palatul Bragadiru|Bucuresti|BWEVENTBA25|54|CCC EVENT WIN XST 2012|121|Horeca|0
0|CS245521|2012-07-19 22:48:45|Serban|Madalina||F|1984-02-28|Bucuresti|SECTOR 3|T popovici|91|B7|2|4|79|0723655642||madalina.serban@gmail.com|WIXSS||Winston Fresh Xspresion (5mg) Pack|Yes|Yes||BWEVENT3|Palatul Bragadiru|Bucuresti|BWEVENTBA19|54|CCC EVENT WIN XST 2012|121|Horeca|0
0|CS245522|2012-07-19 22:48:48|Dragoi |Gabriela||F|1990-07-07|Prahova|PLOIESTI|Marasesti|281|27|||20|0725495249||gabrieladragoi@ymail.com|KTCON|WICL|Winston Fresh Xspresion (5mg) Pack|Yes|Yes||BWEVENT3|Palatul Bragadiru|Bucuresti|BWEVENTBA46|54|CCC EVENT WIN XST 2012|121|Horeca|0
0|CS245523|2012-07-19 22:49:19|Floricica|Violeta||F|1984-08-13|Prahova|Sinaia|Bdul republicii|52|||||0732410785||vivi.floricica@gmail.com|VIRSM|GLPBMN|Winston Fresh Xspresion (5mg) Pack|Yes|No||BWEVENT3|Palatul Bragadiru|Bucuresti|BWEVENTBA50|54|CCC EVENT WIN XST 2012|121|Horeca|0
0|CS245524|2012-07-19 22:49:35|Dumitru|Cornel||M|1978-09-28|Bucuresti|SECTOR 5|Vicina|3|||||0765318109|||KTBL||Winston XStyle Blue (6mg) Pack|Yes|Yes||BWEVENT3|Palatul Bragadiru|Bucuresti|BWEVENTBA05|54|CCC EVENT WIN XST 2012|121|Horeca|0
0|CS245525|2012-07-19 22:49:36|Chiriac|Marius||M|1986-05-05|Bucuresti|SECTOR 4|Baltita|4|B26||||0724591152||marius.chiriac@ymail.com|PMBL||Winston XStyle Blue (6mg) Pack|Yes|Yes||BWEVENT3|Palatul Bragadiru|Bucuresti|BWEVENTBA08|54|CCC EVENT WIN XST 2012|121|Horeca|0
0|CS245526|2012-07-19 22:50:22|Boceanu|Sabina||F|1985-07-06|Bucuresti|SECTOR 1|Ion mihalache|98|44|A||10|0724509633||sabina.bocean@gmail.com|DUNBL||Winston XStyle Blue (6mg) Pack|Yes|Yes||BWEVENT3|Palatul Bragadiru|Bucuresti|BWEVENTBA25|54|CCC EVENT WIN XST 2012|121|Horeca|0
0|CS245529|2012-07-19 22:51:39|Stan|Anda||F|1991-10-29|Bucuresti|SECTOR 6|Bozieni|7|830|3|5|109|0764465494||anda.gs91@yahoo.com|WICL|CABL|Winston Fresh Xspresion (5mg) Pack|Yes|Yes||BWEVENT3|Palatul Bragadiru|Bucuresti|BWEVENTBA29|54|CCC EVENT WIN XST 2012|121|Horeca|0
0|CS245533|2012-07-19 22:52:05|Buliga|Marius||M|1982-07-06|Bucuresti|SECTOR 5|Croitoru vasile|5|3|1|8|151|0731036709||marius_alinus@yahoo.com|MBRGL|MBRGL|Winston XStyle Blue (6mg) Pack|Yes|Yes||BWEVENT3|Palatul Bragadiru|Bucuresti|BWEVENTBA48|54|CCC EVENT WIN XST 2012|121|Horeca|0
0|CS245535|2012-07-19 22:52:15|Leca|Bianca||F|1990-05-24|Bucuresti|6|1 mai|13|C2|A|8|36|0727387040||bibicuta2001@yahoo.com|KTBL6|WIBL|Winston XStyle Blue (6mg) Pack|Yes|Yes||BWEVENT3|Palatul Bragadiru|Bucuresti|BWEVENTBA46|54|CCC EVENT WIN XST 2012|121|Horeca|0
0|CS245538|2012-07-19 22:52:36|Trifan|Georgian||F|1991-09-29|Bucuresti|SECTOR 4|Caporal gheorghe ion|4|73|4|P|47|0784966692|||KTBL||Winston Fresh Xspresion (5mg) Pack|Yes|Yes||BWEVENT3|Palatul Bragadiru|Bucuresti|BWEVENTBA21|54|CCC EVENT WIN XST 2012|121|Horeca|0
0|CS245539|2012-07-19 22:53:20|Boga|Ruxandra||F|1989-12-31|Bucuresti|2|Aleea hobita|2|300|2|3|58|0724227079||venome66@yahoo.com|KTCON|PMNAMB|Winston Fresh Xspresion (5mg) Pack|Yes|Yes||BWEVENT3|Palatul Bragadiru|Bucuresti|BWEVENTBA05|54|CCC EVENT WIN XST 2012|121|Horeca|0
0|CS245540|2012-07-19 22:53:25|Petrescu|Roxana||F|1977-03-31|Bucuresti|2|Matei Coravu|31|P3a|A|3|11|0728114102||petrocksana@yahoo.com|VIRSM|DUNFCSV|Winston Fresh Xspresion (5mg) Pack|Yes|Yes||BWEVENT3|Palatul Bragadiru|Bucuresti|BWEVENTBA50|54|CCC EVENT WIN XST 2012|121|Horeca|0
0|CS245544|2012-07-19 22:54:07|Ungureanu |Bogdan||M|1991-05-07|Bucuresti|SECTOR 4|Oltenitei|115|||||0760294277||bogdan_mp4@yahoo.com|KTBL||Winston XStyle Blue (6mg) Pack|Yes|Yes||BWEVENT3|Palatul Bragadiru|Bucuresti|BWEVENTBA08|54|CCC EVENT WIN XST 2012|121|Horeca|0
0|CS245585|2012-07-19 22:54:14|Duilas|Cristian||M|1983-10-08|Bucuresti|SECTOR 3|Aleea lunguletu|3|D14|3|8|122|0735554502||cristian.duilas@gmail.com|MBRGLT||Winston XStyle Blue (6mg) Pack|Yes|Yes||BWEVENT3|Palatul Bragadiru|Bucuresti|BWEVENTBA18|54|CCC EVENT WIN XST 2012|121|Horeca|0
0|CS245545|2012-07-19 22:54:18|Ungureanu|Elena||F|1988-09-18|Bucuresti|SECTOR 6|Leaota|34||||308|0784255344||ungureanu_elena1@yahoo.com|WIBL||Winston XStyle Blue (6mg) Pack|Yes|Yes||BWEVENT3|Palatul Bragadiru|Bucuresti|BWEVENTBA29|54|CCC EVENT WIN XST 2012|121|Horeca|0
0|CS245546|2012-07-19 22:55:02|Voinea|Anca||F|1987-10-23|Calarasi|CALARASI|Baraganului|13|N30|3|3|52|0729937874||anca.voinea@gmail.com|WIBL||Winston Fresh Xspresion (5mg) Pack|Yes|Yes||BWEVENT3|Palatul Bragadiru|Bucuresti|BWEVENTBA19|54|CCC EVENT WIN XST 2012|121|Horeca|0
0|CS245548|2012-07-19 22:55:48|Pascu|Paula||M|1990-05-02|Bucuresti|SECTOR 6|Eremia grigorescu|6|89|D|3|57|0732607528||este_ora0@yahoo.com|KTCON|WICL|Winston Fresh Xspresion (5mg) Pack|Yes|Yes||BWEVENT3|Palatul Bragadiru|Bucuresti|BWEVENTBA48|54|CCC EVENT WIN XST 2012|121|Horeca|0
0|CS245549|2012-07-19 22:56:08|Moldovan|Andrea||F|1989-06-12|Bucuresti|SECTOR 1|Baia|10|||||0745158251||andreea_moldovan@yahoo.com|KTNSV||Winston XStyle Silver (4 mg) Pack|Yes|Yes||BWEVENT3|Palatul Bragadiru|Bucuresti|BWEVENTBA05|54|CCC EVENT WIN XST 2012|121|Horeca|0
0|CS245551|2012-07-19 22:56:13|Soare|Loredana||F|1989-07-09|Dambovita|GURA SUTII|Principala|0|0|0|||0764445759|||KTBL|WIBLH|Winston Fresh Xspresion (5mg) Pack|Yes|Yes||BWEVENT3|Palatul Bragadiru|Bucuresti|BWEVENTBA21|54|CCC EVENT WIN XST 2012|121|Horeca|0
0|CS245552|2012-07-19 22:56:28|Giura|Nicoleta||F|1984-01-02|Bucuresti|SECTOR 2|Grigore moisil|3|7|1|7|45|0723705032||giura.nicoleta@yahoo.com|KTNSV|WIXSTFX|Winston Fresh Xspresion (5mg) Pack|Yes|Yes||BWEVENT3|Palatul Bragadiru|Bucuresti|BWEVENTBA46|54|CCC EVENT WIN XST 2012|121|Horeca|0
0|CS245553|2012-07-19 22:56:59|Preda|Georgiana||F|1988-08-21|Bucuresti|SECTOR 6|Splaiul independentei|106|||||0740241918||georgik_09@yahoo.com|DUNFCSV||Winston Fresh Xspresion (5mg) Pack|Yes|Yes||BWEVENT3|Palatul Bragadiru|Bucuresti|BWEVENTBA25|54|CCC EVENT WIN XST 2012|121|Horeca|0
0|CS245555|2012-07-19 22:57:25|Florea |Petre alexandru||M|1990-06-01|Bucuresti|SECTOR 4|Cercetatorilor |2|24|1|1|5|0764444015||aalleexx_1990@yahoo.com|KTBL||Winston XStyle Blue (6mg) Pack|Yes|Yes||BWEVENT3|Palatul Bragadiru|Bucuresti|BWEVENTBA08|54|CCC EVENT WIN XST 2012|121|Horeca|0
0|CS245586|2012-07-19 22:57:30|Stoica|Ana Maria||F|1984-09-15|Bucuresti|SECTOR 2|Aleea lunguletu|6|D14|3|8|122|0722525559||stoica_anamaria@yahoo.com|MBRGLFT||Winston XStyle Silver (4 mg) Pack|Yes|Yes||BWEVENT3|Palatul Bragadiru|Bucuresti|BWEVENTBA18|54|CCC EVENT WIN XST 2012|121|Horeca|0
0|CS245558|2012-07-19 22:58:10|Gavriloaia|Bogdan||M|1984-10-28|Bucuresti|SECTOR 6|Calea crangasi|28|49|A|7|19|0726322959||bogdan.gavriloaia@gmail.com|WIBL||Winston XStyle Blue (6mg) Pack|Yes|Yes||BWEVENT3|Palatul Bragadiru|Bucuresti|BWEVENTBA19|54|CCC EVENT WIN XST 2012|121|Horeca|0
0|CS245561|2012-07-19 22:58:56|Andrei|Irina||F|1988-05-08|Bucuresti|SECTOR 4|Maria tanase|2|29|A||20|0766919001||irina.andrei88@yahoo.com|MBRFP||Winston XStyle Blue (6mg) Pack|Yes|Yes||BWEVENT3|Palatul Bragadiru|Bucuresti|BWEVENTBA25|54|CCC EVENT WIN XST 2012|121|Horeca|0
0|CS245587|2012-07-19 22:59:06|Marinescu|Andreea||F|1985-01-10|Bucuresti|SECTOR 1|Veronica micle|20|M6|B|0|60|0728612140||andreeamarinescu2002@gmail.com|GLMBL||Winston XStyle Silver (4 mg) Pack|Yes|Yes||BWEVENT3|Palatul Bragadiru|Bucuresti|BWEVENTBA18|54|CCC EVENT WIN XST 2012|121|Horeca|0
0|CS245562|2012-07-19 22:59:52|Dragos|Ometita||M|1984-03-21|Bucuresti|SECTOR 2|Orzari|55|||||0726802096||dragosometita@yahoo.com|CAWH||Winston Fresh Xspresion (5mg) Pack|Yes|Yes||BWEVENT3|Palatul Bragadiru|Bucuresti|BWEVENTBA05|54|CCC EVENT WIN XST 2012|121|Horeca|0
0|CS245563|2012-07-19 23:00:03|Niciu|Dana||F|1986-10-05|Bucuresti|SECTOR 5|Panduri|60|A|2|3|71|0722209761||dicolour@yahoo.com|KTCON|KTSV|Winston Fresh Xspresion (5mg) Pack|Yes|Yes||BWEVENT3|Palatul Bragadiru|Bucuresti|BWEVENTBA29|54|CCC EVENT WIN XST 2012|121|Horeca|0
0|CS245564|2012-07-19 23:00:28|Munteanu|Cosmin||M|1980-07-30|Bucuresti|SECTOR 3|Aleea fizicienilor|14|1g|1|3|20|0723672872||cosmin30@gmail.com|KTWH||Winston XStyle Silver (4 mg) Pack|Yes|Yes||BWEVENT3|Palatul Bragadiru|Bucuresti|BWEVENTBA21|54|CCC EVENT WIN XST 2012|121|Horeca|0
0|CS245565|2012-07-19 23:00:40|Giura|Gabriel||M|1980-04-26|Bucuresti|2|Grigore moisil|3|7|A|7|45|0726182636||giuragabriel@yahoo.com|WICLS|KTNSV|Winston XStyle Silver (4 mg) Pack|Yes|Yes||BWEVENT3|Palatul Bragadiru|Bucuresti|BWEVENTBA46|54|CCC EVENT WIN XST 2012|121|Horeca|0
0|CS245567|2012-07-19 23:01:35|Bogdan|Carmen||F|1988-09-13|Bucuresti|SECTOR 6|Splaiul independentei|204|A1|||806|0767743422||carmen_marina_bogdan@yahoo.com|DUNFCSV||Winston XStyle Silver (4 mg) Pack|Yes|Yes||BWEVENT3|Palatul Bragadiru|Bucuresti|BWEVENTBA25|54|CCC EVENT WIN XST 2012|121|Horeca|0
0|CS245569|2012-07-19 23:02:52|Oprea |Ionut||M|1987-10-20|Bucuresti|SECTOR 2|Grigore moisil|8|9|A|P|2|0726643894||opreaionutcatalin@gmail.com|KTSV||Winston XStyle Silver (4 mg) Pack|Yes|Yes||BWEVENT3|Palatul Bragadiru|Bucuresti|BWEVENTBA29|54|CCC EVENT WIN XST 2012|121|Horeca|0
0|CS245571|2012-07-19 23:03:58|Ciubotariu|Lucian||M|1974-08-23|Bucuresti|SECTOR 1|Iancu de hunedoara|47|||||0721322641||ciubotariulucian@yahoo.com|WIBL||Winston Fresh Xspresion (5mg) Pack|Yes|Yes||BWEVENT3|Palatul Bragadiru|Bucuresti|BWEVENTBA08|54|CCC EVENT WIN XST 2012|121|Horeca|0
0|CS245572|2012-07-19 23:04:08|Vlad|Bogdan||M|1981-03-24|Bucuresti|SECTOR 5|Humulesti|105-10|||||0768335281||vladbogdan2003@yahoo.com|PMBK||Winston XStyle Blue (6mg) Pack|Yes|Yes||BWEVENT3|Palatul Bragadiru|Bucuresti|BWEVENTBA05|54|CCC EVENT WIN XST 2012|121|Horeca|0
0|CS245573|2012-07-19 23:04:18|Lungu|Andrei||M|1977-03-05|Bucuresti|SECTOR 2|Mohai bravu|4|60c|1|2|6|0723659506||andreilungu@yahoo.com|WIBLH||Winston XStyle Blue (6mg) Pack|Yes|Yes||BWEVENT3|Palatul Bragadiru|Bucuresti|BWEVENTBA21|54|CCC EVENT WIN XST 2012|121|Horeca|0
0|CS245574|2012-07-19 23:04:29|Baboi|Daniela||F|1984-06-05|Bucuresti|4|Uioara|11|A12|D|1|49|0769535801||danille_eugen@yahoo.com|GLPBSN|VOGLL|Winston Fresh Xspresion (5mg) Pack|Yes|Yes||BWEVENT3|Palatul Bragadiru|Bucuresti|BWEVENTBA50|54|CCC EVENT WIN XST 2012|121|Horeca|0
0|CS245577|2012-07-19 23:06:23|Mihailescu|Andreea||F|1978-08-11|Bucuresti|SECTOR 6|Splaiul independentei|210|||||0723347778|||KTBL||Winston Fresh Xspresion (5mg) Pack|Yes|Yes||BWEVENT3|Palatul Bragadiru|Bucuresti|BWEVENTBA08|54|CCC EVENT WIN XST 2012|121|Horeca|0
0|CS245578|2012-07-19 23:06:57|Rotaru|Ioana||F|1991-05-01|Bucuresti|SECTOR 2|Soseaua pantelimon|352|3|2|10|80|0721111404||dark_angel@yahoo.com|KTSV||Winston XStyle Silver (4 mg) Pack|Yes|Yes||BWEVENT3|Palatul Bragadiru|Bucuresti|BWEVENTBA29|54|CCC EVENT WIN XST 2012|121|Horeca|0
0|CS245580|2012-07-19 23:06:59|Ureche|Cristian||M|1979-07-02|Bucuresti|SECTOR 6|Moinesti|8|202|B|4|83|0722721687||ureche.cristian@gmail.com|KTSV|KTBL|Winston XStyle Blue (6mg) Pack|Yes|Yes||BWEVENT3|Palatul Bragadiru|Bucuresti|BWEVENTBA48|54|CCC EVENT WIN XST 2012|121|Horeca|0
0|CS245582|2012-07-19 23:08:01|Niciu|Livia||F|1990-03-29|Bucuresti|SECTOR 5|Panduri|60|A|B|3|71|0768313836||princess_livia2006@yahoo.com|KTSV||Winston XStyle Silver (4 mg) Pack|Yes|Yes||BWEVENT3|Palatul Bragadiru|Bucuresti|BWEVENTBA18|54|CCC EVENT WIN XST 2012|121|Horeca|0
0|CS245581|2012-07-19 23:08:01|Nita|Bogdan||F|1989-07-23|Bucuresti|SECTOR 3|Vlaicu voda |23|V81a|3|0|30|0732519473||sohot_1989@yahoo.com|DAVGL||Winston XStyle Silver (4 mg) Pack|Yes|Yes||BWEVENT3|Palatul Bragadiru|Bucuresti|BWEVENTBA18|54|CCC EVENT WIN XST 2012|121|Horeca|0
0|CS245583|2012-07-19 23:08:02|Dinu|Andrada||F|1990-04-08|Bucuresti|SECTOR 2|Elev stefanescu 13|13|451|1|4|50|0742232999||andradaa.dinu@yahoo.com|KTSV||Winston XStyle Silver (4 mg) Pack|Yes|Yes||BWEVENT3|Palatul Bragadiru|Bucuresti|BWEVENTBA18|54|CCC EVENT WIN XST 2012|121|Horeca|0
0|CS245584|2012-07-19 23:08:03|Andrei|Daria||F|1992-03-04|Bucuresti|SECTOR 6|Aleea zorelelor|1|43|A|2|14|0763603503||daria_pcd@yahoo.com|KTNWH||Winston XStyle Silver (4 mg) Pack|Yes|Yes||BWEVENT3|Palatul Bragadiru|Bucuresti|BWEVENTBA18|54|CCC EVENT WIN XST 2012|121|Horeca|0
0|CS245588|2012-07-19 23:08:35|Chiritescu|Ciprian||M|1989-12-08|Bucuresti|SECTOR 3|Moise nicoara|38|C4|1|3|156|0766230868||chiritescu_ciprian@yahoo.com|DAVGL||Winston XStyle Blue (6mg) Pack|Yes|Yes||BWEVENT3|Palatul Bragadiru|Bucuresti|BWEVENTBA19|54|CCC EVENT WIN XST 2012|121|Horeca|0
0|CS245589|2012-07-19 23:09:02|Dima|Oana||F|1978-08-28|Bucuresti|SECTOR 6|Aleea cetatuia|8|312|4|10|12|0743597080||oanadima200@yahoo.com|KTCON||Winston Fresh Xspresion (5mg) Pack|Yes|Yes||BWEVENT3|Palatul Bragadiru|Bucuresti|BWEVENTBA25|54|CCC EVENT WIN XST 2012|121|Horeca|0
0|CS245590|2012-07-19 23:09:08|Cherciu|Bogdan||M|1981-07-27|Bucuresti|SECTOR 6|Dr taberei|30|Od3|5|1|152|0722249088||bogdan_cherciu@yahoo.com|MBRFP||Winston XStyle Blue (6mg) Pack|Yes|Yes||BWEVENT3|Palatul Bragadiru|Bucuresti|BWEVENTBA21|54|CCC EVENT WIN XST 2012|121|Horeca|0
0|CS245591|2012-07-19 23:09:16|Baboi|Marian George||M|1989-04-11|Bucuresti|4|Uioara|11|A12|D|1|49|0768024168||brezel89@yahoo.com|KTNWH|PMBL|Winston XStyle Silver (4 mg) Pack|Yes|Yes||BWEVENT3|Palatul Bragadiru|Bucuresti|BWEVENTBA50|54|CCC EVENT WIN XST 2012|121|Horeca|0
0|CS245592|2012-07-19 23:09:54|Corneanu|Anca||F|1990-06-20|Bucuresti|SECTOR 3|Foisorului|120d|||||0784742428||ancutzathecat@yahoo.com|WIBLH||Winston XStyle Blue (6mg) Pack|Yes|Yes||BWEVENT3|Palatul Bragadiru|Bucuresti|BWEVENTBA18|54|CCC EVENT WIN XST 2012|121|Horeca|0
0|CS245595|2012-07-19 23:10:53|Matura|Emanuel||M|1986-03-10|Bucuresti|SECTOR 4|Caramidarii de jos|1|76|A|1|6|0765260307||emanuel_matura@yahoo.com|WIBLH||Winston XStyle Blue (6mg) Pack|Yes|Yes||BWEVENT3|Palatul Bragadiru|Bucuresti|BWEVENTBA19|54|CCC EVENT WIN XST 2012|121|Horeca|0
0|CS245598|2012-07-19 23:11:05|Nita|Bogdan||M|1989-07-23|Bucuresti|SECTOR 3|Vlaicu voda|28|V81|3|P|30|0732519473||sohot_1@yahoo.com|DAVGL||Winston XStyle Blue (6mg) Pack|Yes|Yes||BWEVENT3|Palatul Bragadiru|Bucuresti|BWEVENTBA29|54|CCC EVENT WIN XST 2012|121|Horeca|0
0|CS245597|2012-07-19 23:11:05|Badea|Otilia||F|1984-11-17|Ilfov|VIDRA|Cretesti|191|||||0768820606||otilia_badea27@yahoo.com|KTBL6|DUNBL|Winston XStyle Blue (6mg) Pack|Yes|Yes||BWEVENT3|Palatul Bragadiru|Bucuresti|BWEVENTBA46|54|CCC EVENT WIN XST 2012|121|Horeca|0
0|CS245599|2012-07-19 23:11:10|Dima|Dragos||M|1994-04-13|Bucuresti|SECTOR 4|Balcita|4|B26|2|2|23|0727323019||dimadragos2000@yahoo.com|DUNFCDB|DUNFCDB|Winston XStyle Blue (6mg) Pack|Yes|Yes||BWEVENT3|Palatul Bragadiru|Bucuresti|BWEVENTBA48|54|CCC EVENT WIN XST 2012|121|Horeca|0
0|CS245600|2012-07-19 23:11:55|Oblu|Alina||F|1990-07-10|Prahova|PLOIESTI|Lacul balea|2|||||0720495249||sweetbaby_ally3@yahoo.com|KTCON||Winston Fresh Xspresion (5mg) Pack|Yes|Yes||BWEVENT3|Palatul Bragadiru|Bucuresti|BWEVENTBA08|54|CCC EVENT WIN XST 2012|121|Horeca|0
0|CS245601|2012-07-19 23:12:04|Goronescu|Stefan Radu||M|1986-04-28|Bucuresti|SECTOR 1|Amintirii|61|||||0751703086||goronescustefan@yahoo.com|MBRFPEX||Winston XStyle Silver (4 mg) Pack|Yes|Yes||BWEVENT3|Palatul Bragadiru|Bucuresti|BWEVENTBA18|54|CCC EVENT WIN XST 2012|121|Horeca|0
0|CS245602|2012-07-19 23:12:26|Hulea|Ovidiu||M|1979-09-02|Bucuresti|1|Virgiliu|16|||||0752322518||ovidiugelu.hulea@yahoo.com|WIBL|CABL|Winston Fresh Xspresion (5mg) Pack|Yes|No||BWEVENT3|Palatul Bragadiru|Bucuresti|BWEVENTBA50|54|CCC EVENT WIN XST 2012|121|Horeca|0
0|CS245603|2012-07-19 23:12:39|Istrate|Laura||F|1979-08-04|Arad|ARAD|Banu maracine|1|E||||0723137183||johndoe_son@yahoo.com|KTSV||Winston XStyle Blue (6mg) Pack|Yes|Yes||BWEVENT3|Palatul Bragadiru|Bucuresti|BWEVENTBA25|54|CCC EVENT WIN XST 2012|121|Horeca|0
0|CS245605|2012-07-19 23:13:24|Pirvan|Andreea||F|1989-02-11|Arges|CURTEA DE ARGES|Valea iasului|1|B16|A|2|10|0728440239||andreea_drx@yahoo.com|KTNBK||Winston Fresh Xspresion (5mg) Pack|Yes|Yes||BWEVENT3|Palatul Bragadiru|Bucuresti|BWEVENTBA21|54|CCC EVENT WIN XST 2012|121|Horeca|0
0|CS245607|2012-07-19 23:14:42|Curt-Nazar|Varol||M|1986-10-31|Bucuresti|SECTOR 1|Intrarea dr iacob felix|2|M4|B|10|170|0728242893||varol.gean@gmail.com|MBRGLFT||Winston XStyle Silver (4 mg) Pack|Yes|Yes||BWEVENT3|Palatul Bragadiru|Bucuresti|BWEVENTBA18|54|CCC EVENT WIN XST 2012|121|Horeca|0
0|CS245610|2012-07-19 23:15:35|Cioabla|Raluca||F|1989-12-31|Dolj|CRAIOVA|George fotino|7|3a|1|3|15|0748048917||rallucutj@yahoo.com|KTBL|MBRGLH|Winston XStyle Silver (4 mg) Pack|Yes|Yes||BWEVENT3|Palatul Bragadiru|Bucuresti|BWEVENTBA48|54|CCC EVENT WIN XST 2012|121|Horeca|0
0|CS245612|2012-07-19 23:15:45|Holeoleo|Oana||F|1988-07-19|Buzau|BUZAU|D.filipescu|83|||||0766156825||oanaholeoleo@yahoo.com|GLPBMN|VOGM|Winston Fresh Xspresion (5mg) Pack|Yes|Yes||BWEVENT3|Palatul Bragadiru|Bucuresti|BWEVENTBA46|54|CCC EVENT WIN XST 2012|121|Horeca|0
0|CS245614|2012-07-19 23:17:14|Gheorghe|Raluca||F|1984-04-03|Bucuresti|SECTOR 2|Stefan cel mare|240|59|59|8|186|0758024009||uca3484@yahoo.com|WISV|DUNFCSV|Winston XStyle Silver (4 mg) Pack|Yes|Yes||BWEVENT3|Palatul Bragadiru|Bucuresti|BWEVENTBA05|54|CCC EVENT WIN XST 2012|121|Horeca|0
0|CS245616|2012-07-19 23:18:00|Popescu|Gabriel||M|1989-09-04|Arges|CAMPULUNG|Buzoieni|11|M47|1|3|14|0748975740||popescu_tt@yahoo.com|MBRFP||Winston Fresh Xspresion (5mg) Pack|Yes|Yes||BWEVENT3|Palatul Bragadiru|Bucuresti|BWEVENTBA18|54|CCC EVENT WIN XST 2012|121|Horeca|0
0|CS245617|2012-07-19 23:18:59|Bontu|Alex||M|1981-01-16|Bucuresti|3|Fizicienilo|12|1b||||0724256119||andymesse@yahoo.com|KTSV||Winston XStyle Silver (4 mg) Pack|Yes|Yes||BWEVENT3|Palatul Bragadiru|Bucuresti|BWEVENTBA08|54|CCC EVENT WIN XST 2012|121|Horeca|0
0|CS245619|2012-07-19 23:19:04|Milos|Viorel||M|1986-04-03|Buzau|BUZAU|Crinului|18|||||0766550224||milos.viorel@yahoo.com|MBRRDH|WICL|Winston XStyle Blue (6mg) Pack|Yes|No||BWEVENT3|Palatul Bragadiru|Bucuresti|BWEVENTBA50|54|CCC EVENT WIN XST 2012|121|Horeca|0
0|CS245620|2012-07-19 23:19:15|Buzoiu|Cornelia||F|1969-12-03|Bucuresti|SECTOR 6|Azurului|5|118|B||105|0731555564||cornelia.buzoiu@bestvalue.ro|DUNSV||Winston XStyle Silver (4 mg) Pack|Yes|Yes||BWEVENT3|Palatul Bragadiru|Bucuresti|BWEVENTBA25|54|CCC EVENT WIN XST 2012|121|Horeca|0
0|CS245621|2012-07-19 23:19:21|Crevanos|Laura irina||F|1986-02-23|Bucuresti|SECTOR 3|Camil resu|9|58|2|3|57|0723223444||laura.crevanos@yahoo.com|KTH||Winston Fresh Xspresion (5mg) Pack|Yes|Yes||BWEVENT3|Palatul Bragadiru|Bucuresti|BWEVENTBA29|54|CCC EVENT WIN XST 2012|121|Horeca|0
0|CS245622|2012-07-19 23:19:43|Bara|Stefan||M|1993-07-18|Bucuresti|2|Popa nicolae|10|3|2|1|25|0762646255||xxx.getdown@yahoo.com|KTBL|KTNBK|Winston XStyle Blue (6mg) Pack|Yes|Yes||BWEVENT3|Palatul Bragadiru|Bucuresti|BWEVENTBA46|54|CCC EVENT WIN XST 2012|121|Horeca|0
0|CS245623|2012-07-19 23:19:46|Sanda|Catalina||F|1989-12-12|Giurgiu|GIURGIU|Splaiul independentei|291|B4|B|4|324|0761090847||kta_gr@yahoo.com|KTBL|DUNFCDB|Winston XStyle Blue (6mg) Pack|Yes|Yes||BWEVENT3|Palatul Bragadiru|Bucuresti|BWEVENTBA48|54|CCC EVENT WIN XST 2012|121|Horeca|0
0|CS245624|2012-07-19 23:20:47|Nedelschi|Laura||F|1978-02-06|Bucuresti|SECTOR 3|Luminei|8|||||0745086724||laura_nedelschi@yahoo.com|SBSSWH||Winston XStyle Silver (4 mg) Pack|Yes|Yes||BWEVENT3|Palatul Bragadiru|Bucuresti|BWEVENTBA05|54|CCC EVENT WIN XST 2012|121|Horeca|0
0|CS245625|2012-07-19 23:21:03|Micuta|Andrada||F|1989-03-24|Bucuresti|SECTOR 5|Pricopan|18|38|1|4|38|0725881943||andradalovelygirl@yahoo.com|WIBLH||Winston XStyle Blue (6mg) Pack|Yes|Yes||BWEVENT3|Palatul Bragadiru|Bucuresti|BWEVENTBA21|54|CCC EVENT WIN XST 2012|121|Horeca|0
0|CS245626|2012-07-19 23:22:04|Tudorica |Alexandru||M|1990-01-04|Bucuresti|SECTOR 3|Camil resu|9|58|3|8|121|0724833083||alex_t0401@yahoo.com|MBRFP||Winston XStyle Blue (6mg) Pack|Yes|Yes||BWEVENT3|Palatul Bragadiru|Bucuresti|BWEVENTBA29|54|CCC EVENT WIN XST 2012|121|Horeca|0
0|CS245627|2012-07-19 23:22:10|Rosu|Cristina||F|1988-02-15|Arges|PITESTI|Petrochimistilor|4|B|A||4|0766234384||cristinutza_lips@yahoo.com|GLPBSN||Winston Fresh Xspresion (5mg) Pack|Yes|Yes||BWEVENT3|Palatul Bragadiru|Bucuresti|BWEVENTBA25|54|CCC EVENT WIN XST 2012|121|Horeca|0
0|CS245628|2012-07-19 23:22:28|Goicea|Dumitru||M|1986-01-23|Bucuresti|SECTOR 5|Topolnita|3|M54|1|8|53|0721611285||grecu_dumi@yahoo.com|PMBL||Winston XStyle Blue (6mg) Pack|Yes|Yes||BWEVENT3|Palatul Bragadiru|Bucuresti|BWEVENTBA18|54|CCC EVENT WIN XST 2012|121|Horeca|0
0|CS245629|2012-07-19 23:22:42|Ionascu|Florentina||F|1988-04-17|Bucuresti|SECTOR 6|Apusului|32||A|3|308|0769248277||flori_cnm@yahoo.com|WIBL||Winston XStyle Blue (6mg) Pack|Yes|Yes||BWEVENT3|Palatul Bragadiru|Bucuresti|BWEVENTBA08|54|CCC EVENT WIN XST 2012|121|Horeca|0
0|CS245630|2012-07-19 23:24:03|Dobrea|Valentin||M|1990-12-02|Bucuresti|1|Mitropolit Andrei Saguna|74|||||0763945374||valy_boboc2007@yahoo.com|KTBL|DUNFCRT|Winston XStyle Blue (6mg) Pack|Yes|Yes||BWEVENT3|Palatul Bragadiru|Bucuresti|BWEVENTBA46|54|CCC EVENT WIN XST 2012|121|Horeca|0
0|CS245631|2012-07-19 23:24:12|Niciu|Daniela||F|1989-12-04|Bucuresti|SECTOR 5|Panduri|62|B|D|4|70|0729590997||princess_livia89@yahoo.com|KTCON|VOGLL|Winston Fresh Xspresion (5mg) Pack|Yes|Yes||BWEVENT3|Palatul Bragadiru|Bucuresti|BWEVENTBA48|54|CCC EVENT WIN XST 2012|121|Horeca|0
0|CS245632|2012-07-19 23:24:13|Ghioc|Antoaneta||F|1977-01-12|Bucuresti|5|Dumbrava noua|21|M133|A|3|19|0729005080||ghiocantoaneta@yahoo.com|GLMBL|WISV|Winston XStyle Silver (4 mg) Pack|Yes|Yes||BWEVENT3|Palatul Bragadiru|Bucuresti|BWEVENTBA50|54|CCC EVENT WIN XST 2012|121|Horeca|0
0|CS245633|2012-07-19 23:24:42|Olaru|Adrian||M|1987-09-20|Bucuresti|SECTOR 5|Pricopea|18|38|1|4|38|0767324708||adrian.olaru.87@yahoo.com|WIBL||Winston XStyle Blue (6mg) Pack|Yes|Yes||BWEVENT3|Palatul Bragadiru|Bucuresti|BWEVENTBA21|54|CCC EVENT WIN XST 2012|121|Horeca|0
0|CS245634|2012-07-19 23:25:28|Barba|Alice||F|1992-07-20|Bucuresti|SECTOR 6|Bozieni|7|830|2|1|95|0769583385||alice_sersel@yahoo.com|WIBL||Winston XStyle Blue (6mg) Pack|Yes|Yes||BWEVENT3|Palatul Bragadiru|Bucuresti|BWEVENTBA08|54|CCC EVENT WIN XST 2012|121|Horeca|0
0|CS245635|2012-07-19 23:25:38|Stan|Elena||F|1976-12-20|Bucuresti|SECTOR 6|Sibiu|6|C5|5|3|162|0722587483||madalinastan@ymail.com|PARSS||Winston XStyle Silver (4 mg) Pack|Yes|Yes||BWEVENT3|Palatul Bragadiru|Bucuresti|BWEVENTBA19|54|CCC EVENT WIN XST 2012|121|Horeca|0
0|CS245636|2012-07-19 23:26:10|Bara|Ciprian||M|1976-03-17|Bucuresti|SECTOR 5|Buzoieni|00|111|2|3|14|0763040486||cipi_boss1@yahoo.com|KTBL||Winston Fresh Xspresion (5mg) Pack|Yes|Yes||BWEVENT3|Palatul Bragadiru|Bucuresti|BWEVENTBA18|54|CCC EVENT WIN XST 2012|121|Horeca|0
0|CS245637|2012-07-19 23:26:29|Ciurea|Carmen||F|1973-01-06|Bucuresti|SECTOR 5|Ghe.donici|3|65|B|7|71|0724348555||bscount@gmail.com|LMM|PMGR|Winston Fresh Xspresion (5mg) Pack|Yes|Yes||BWEVENT3|Palatul Bragadiru|Bucuresti|BWEVENTBA05|54|CCC EVENT WIN XST 2012|121|Horeca|0
0|CS245638|2012-07-19 23:26:56|Neamtu|Diana||F|1986-12-27|Bucuresti|SECTOR 1|Ion mihalache|98|44|A||14|0745023592||diana.neamtu@hidrotica.ro|KTSV||Winston XStyle Silver (4 mg) Pack|Yes|Yes||BWEVENT3|Palatul Bragadiru|Bucuresti|BWEVENTBA25|54|CCC EVENT WIN XST 2012|121|Horeca|0
0|CS245639|2012-07-19 23:28:26|Niciu|Livia||F|1990-03-29|Bucuresti|SECTOR 5|Panduri|60|A|B|3|71|0768313836||princess_livia2006@yahoo.com|KTSV||Winston XStyle Silver (4 mg) Pack|Yes|Yes||BWEVENT3|Palatul Bragadiru|Bucuresti|BWEVENTBA18|54|CCC EVENT WIN XST 2012|121|Horeca|0
0|CS245640|2012-07-19 23:28:32|Mihaela|Tudora||F|1984-11-01|Bucuresti|6|Latea Gheorghe|8|C52|B|9|75|0765663892|0733107824|TudoraMihaela_ro@yahoo.com|WIBL|VOGM|Winston Fresh Xspresion (5mg) Pack|Yes|Yes||BWEVENT3|Palatul Bragadiru|Bucuresti|BWEVENTBA50|54|CCC EVENT WIN XST 2012|121|Horeca|0
0|CS245641|2012-07-19 23:28:37|Manolescu|Radu||M|1988-05-23|Bucuresti|SECTOR 3|Eroilor|3|4|5|6|7|0785291158|||KTBL||Winston XStyle Blue (6mg) Pack|Yes|Yes||BWEVENT3|Palatul Bragadiru|Bucuresti|BWEVENTBA21|54|CCC EVENT WIN XST 2012|121|Horeca|0
0|CS245642|2012-07-19 23:28:38|Daniluc|Marina||F|1989-09-29|Bucuresti|SECTOR 3|Calea vitan|117|||||0720672289||marina.daniluc@yahoo.com|DUNFCSV||Winston Fresh Xspresion (5mg) Pack|Yes|Yes||BWEVENT3|Palatul Bragadiru|Bucuresti|BWEVENTBA08|54|CCC EVENT WIN XST 2012|121|Horeca|0
0|CS245643|2012-07-19 23:29:49|Amuraritei|Constantin||M|1987-06-13|Bucuresti|SECTOR 3|Caloian judetul|2|D21b|1|P|2|0767843018||iguana19872001@yahoo.com|DUNFCDB||Winston XStyle Blue (6mg) Pack|Yes|Yes||BWEVENT3|Palatul Bragadiru|Bucuresti|BWEVENTBA29|54|CCC EVENT WIN XST 2012|121|Horeca|0
0|CS245644|2012-07-19 23:30:09|Drinceanu|Ana Maria||F|1991-10-05|Bucuresti|1|Barlogeni|82|||||0766277054||anna_lesko1992@yahoo.com|KTBL|DUNFCRT|Winston Fresh Xspresion (5mg) Pack|Yes|Yes||BWEVENT3|Palatul Bragadiru|Bucuresti|BWEVENTBA46|54|CCC EVENT WIN XST 2012|121|Horeca|0
0|CS245646|2012-07-19 23:30:46|Szolga|Alexandra||F|1985-08-09|Bucuresti|SECTOR 2|Bulevardul chisinau|17|A2|2|9|101|0720654800||blondutza_p@yahoo.com|KTBL|KTBL|Winston XStyle Blue (6mg) Pack|Yes|Yes||BWEVENT3|Palatul Bragadiru|Bucuresti|BWEVENTBA48|54|CCC EVENT WIN XST 2012|121|Horeca|0
0|CS245647|2012-07-19 23:31:27|Puican|Adrian||M|1989-02-02|Valcea|RAMNICU VALCEA|Regina maria|3|8|A|7|14|0723433977||puicanicolae@yahoo.com|KTBL||Winston XStyle Blue (6mg) Pack|Yes|Yes||BWEVENT3|Palatul Bragadiru|Bucuresti|BWEVENTBA05|54|CCC EVENT WIN XST 2012|121|Horeca|0
0|CS245648|2012-07-19 23:31:29|Petrescu|Oana||F|1975-07-05|Bucuresti|SECTOR 1|Berzei|11|||0|0|0752322572||oana.petrescu@jti.com|WISSB||Winston Fresh Xspresion (5mg) Pack|Yes|Yes||BWEVENT3|Palatul Bragadiru|Bucuresti|BWEVENTBA19|54|CCC EVENT WIN XST 2012|121|Horeca|0
0|CS245649|2012-07-19 23:31:45|Neacsu|Adrian||M|1986-05-02|Bucuresti|SECTOR 6|Piscul crasani|10|||||0723797589||neacsuadrianconstantin@yahoo.com|MBRFP||Winston XStyle Silver (4 mg) Pack|Yes|Yes||BWEVENT3|Palatul Bragadiru|Bucuresti|BWEVENTBA08|54|CCC EVENT WIN XST 2012|121|Horeca|0
0|CS245650|2012-07-19 23:32:32|Stanciu|Arius||M|1987-10-17|Bucuresti|SECTOR 3|Laborator|124|40|1|5|64|0730354129||arius.stanciu@yahoo.com|KTBL||Winston XStyle Blue (6mg) Pack|Yes|Yes||BWEVENT3|Palatul Bragadiru|Bucuresti|BWEVENTBA18|54|CCC EVENT WIN XST 2012|121|Horeca|0
0|CS245652|2012-07-19 23:33:08|Lazar|Loredana Beatrice||F|1988-06-14|Bucuresti|4|Almasu Mare|12|51|1|3|8|0762563028||real_sugar_lori@yahoo.com|MBRBI|WISSM|Winston Fresh Xspresion (5mg) Pack|Yes|Yes||BWEVENT3|Palatul Bragadiru|Bucuresti|BWEVENTBA50|54|CCC EVENT WIN XST 2012|121|Horeca|0
0|CS245653|2012-07-19 23:33:36|Soare|Alexandru||M|1988-11-03|Dambovita|TARGOVISTE|Maior spirescu|2|12|B|2|7|0722769286||sola_tdi@yahoo.com|WIBL|KTCON|Winston Fresh Xspresion (5mg) Pack|Yes|Yes||BWEVENT3|Palatul Bragadiru|Bucuresti|BWEVENTBA21|54|CCC EVENT WIN XST 2012|121|Horeca|0
0|CS245654|2012-07-19 23:33:40|Visan |Victor||M|1981-09-26|Ialomita|URZICENI|Garilor|21|15|A|1|4|0724508121||auwissto@yahoo.com|WIXSTFX|WIXSS|Winston Fresh Xspresion (5mg) Pack|Yes|Yes||BWEVENT3|Palatul Bragadiru|Bucuresti|BWEVENTBA46|54|CCC EVENT WIN XST 2012|121|Horeca|0
0|CS245655|2012-07-19 23:33:50|Tomulet|Bogdan||M|1989-02-25|Dambovita|TARGOVISTE|Constantin brancoveanu|71|B5|A||6|0721572960||bughy_tom@yahoo.com|WIBL||Winston XStyle Blue (6mg) Pack|Yes|Yes||BWEVENT3|Palatul Bragadiru|Bucuresti|BWEVENTBA25|54|CCC EVENT WIN XST 2012|121|Horeca|0
0|CS245656|2012-07-19 23:34:15|Maria|Andra||F|1990-05-18|Bucuresti|SECTOR 4|Moldovita|8|||||0724341562||aandra.maria@yahoo.com|MBRFP||Winston XStyle Silver (4 mg) Pack|Yes|Yes||BWEVENT3|Palatul Bragadiru|Bucuresti|BWEVENTBA08|54|CCC EVENT WIN XST 2012|121|Horeca|0
0|CS245667|2012-07-19 23:34:29|Perian|Claydiu||M|1987-08-01|Bucuresti|SECTOR 4|Pades|14|14|1|3|13|0733204158||perian_claudiu@yahoo.com|VOGM||Winston Fresh Xspresion (5mg) Pack|Yes|Yes||BWEVENT3|Palatul Bragadiru|Bucuresti|BWEVENTBA29|54|CCC EVENT WIN XST 2012|121|Horeca|0
0|CS245657|2012-07-19 23:34:39|Tudosa|Cristian||M|1990-08-04|Bucuresti|SECTOR 5|Calea ferentari|23|129B|3|8|93|0766273484||tudosa.alfred@yahoo.com|WIBLH|PMBL|Winston XStyle Blue (6mg) Pack|Yes|Yes||BWEVENT3|Palatul Bragadiru|Bucuresti|BWEVENTBA48|54|CCC EVENT WIN XST 2012|121|Horeca|0
0|CS245658|2012-07-19 23:35:24|Oprea|Andreea||F|1979-06-22|Bucuresti|SECTOR 3|Stelian mihale|13|Pm93|||2|0745135048||andreeaaxb@yahoo.com|GLMMNT||Winston Fresh Xspresion (5mg) Pack|Yes|Yes||BWEVENT3|Palatul Bragadiru|Bucuresti|BWEVENTBA18|54|CCC EVENT WIN XST 2012|121|Horeca|0
0|CS245661|2012-07-19 23:36:27|Bira|George||M|1985-12-20|Bucuresti|SECTOR 2|Popa nicolae|10|3|2|1|25|0765167774||soulrever_george@yahoo.com|KTBL|CABL|Winston XStyle Blue (6mg) Pack|Yes|Yes||BWEVENT3|Palatul Bragadiru|Bucuresti|BWEVENTBA05|54|CCC EVENT WIN XST 2012|121|Horeca|0
0|CS245662|2012-07-19 23:37:09|Stanciu|Mihai paul||M|1982-06-29|Bucuresti|SECTOR 5|Calea rahovei|336|||||0724055726||stanciu.mp@gmail.com|WIBL||Winston Fresh Xspresion (5mg) Pack|Yes|Yes||BWEVENT3|Palatul Bragadiru|Bucuresti|BWEVENTBA08|54|CCC EVENT WIN XST 2012|121|Horeca|0
0|CS245663|2012-07-19 23:37:27|Borascu|Bogdan||M|1986-02-19|Bucuresti|SECTOR 1|Iancu de hunedoara|37|37|C|3|14|0752010060||bogdan.borascu@yahoo.com|CABL|PMBL|Winston Fresh Xspresion (5mg) Pack|Yes|Yes||BWEVENT3|Palatul Bragadiru|Bucuresti|BWEVENTBA21|54|CCC EVENT WIN XST 2012|121|Horeca|0
0|CS245665|2012-07-19 23:37:35|Ciupag|Costin||M|1977-12-15|Bucuresti|SECTOR 6|Pravat|6|P4|8|2|1411|0724221146||costinciupag@yahoo.com|KTH||Winston Fresh Xspresion (5mg) Pack|Yes|Yes||BWEVENT3|Palatul Bragadiru|Bucuresti|BWEVENTBA19|54|CCC EVENT WIN XST 2012|121|Horeca|0
0|CS245666|2012-07-19 23:37:51|Oprea|Marian||M|1982-03-13|Bucuresti|SECTOR 3|Stelian mihale|13|PM93|||2|0745013023||gocqul_2peu@yahoo.com|KTBL||Winston XStyle Blue (6mg) Pack|Yes|Yes||BWEVENT3|Palatul Bragadiru|Bucuresti|BWEVENTBA18|54|CCC EVENT WIN XST 2012|121|Horeca|0
0|CS245668|2012-07-19 23:37:56|Gramma|Mihaela||F|1975-04-07|Bucuresti|6|Petre Popovat|17|||||0761924738||miha_miha_75@yahoo.com|GLPBBS|WISV|Winston Fresh Xspresion (5mg) Pack|Yes|Yes||BWEVENT3|Palatul Bragadiru|Bucuresti|BWEVENTBA50|54|CCC EVENT WIN XST 2012|121|Horeca|0
0|CS245671|2012-07-19 23:38:37|Tanase|Armand||M|1982-06-13|Bucuresti|SECTOR 6|Buzoieni|8|M41|1||32|0752350738||armandradu.tanase@jti.com|WIBL||Winston Fresh Xspresion (5mg) Pack|Yes|Yes||BWEVENT3|Palatul Bragadiru|Bucuresti|BWEVENTBA25|54|CCC EVENT WIN XST 2012|121|Horeca|0
0|CS245673|2012-07-19 23:39:31|Trifan|Georgiana||F|1991-09-29|Bucuresti|SECTOR 4|Caporal gheorghe ion|4|73|4|0|46|0725467897|||KTBL|KTSV|Winston XStyle Blue (6mg) Pack|Yes|Yes||BWEVENT3|Palatul Bragadiru|Bucuresti|BWEVENTBA46|54|CCC EVENT WIN XST 2012|121|Horeca|0
0|CS245674|2012-07-19 23:39:33|Rahira|Stefan||M|1974-12-20|Bucuresti|SECTOR 6|Aleea campul cu florii|5|M41|B|8|120|0760236858||razvanell86@yahoo.com|WICLSH|VCRRD|Winston XStyle Blue (6mg) Pack|Yes|Yes||BWEVENT3|Palatul Bragadiru|Bucuresti|BWEVENTBA48|54|CCC EVENT WIN XST 2012|121|Horeca|0
0|CS245675|2012-07-19 23:40:09|Vizireanu|Dan||M|1980-11-26|Bucuresti|SECTOR 2|Grigore moise|10|||||0731778523||dan@email.ro|PMBL||Winston XStyle Blue (6mg) Pack|Yes|Yes||BWEVENT3|Palatul Bragadiru|Bucuresti|BWEVENTBA08|54|CCC EVENT WIN XST 2012|121|Horeca|0
0|CS245676|2012-07-19 23:40:40|Nita|Bogdan||M|1989-07-23|Bucuresti|SECTOR 3|Vlaicu voda|28|V81|3||30|0732519473||sohot_1989@yahoo.com|DAVGL||Winston XStyle Silver (4 mg) Pack|Yes|Yes||BWEVENT3|Palatul Bragadiru|Bucuresti|BWEVENTBA18|54|CCC EVENT WIN XST 2012|121|Horeca|0
0|CS245678|2012-07-19 23:41:05|Ghencea|Cristi||M|1986-10-23|Bucuresti|SECTOR 5|Barca|6|190|1||3|0786224614||steaua86@yahoo.com|KTBL||Winston XStyle Silver (4 mg) Pack|Yes|Yes||BWEVENT3|Palatul Bragadiru|Bucuresti|BWEVENTBA29|54|CCC EVENT WIN XST 2012|121|Horeca|0
0|CS245681|2012-07-19 23:42:00|Matei|Adrian||M|1968-09-07|Bucuresti|SECTOR 1|Renasteriii|92|0|0|0|0|0722832874||ady@octagon.ro|SOBBR||Winston XStyle Blue (6mg) Pack|Yes|Yes||BWEVENT3|Palatul Bragadiru|Bucuresti|BWEVENTBA19|54|CCC EVENT WIN XST 2012|121|Horeca|0
0|CS245683|2012-07-19 23:42:34|Fagarasan|Roxana||F|1987-11-13|Bucuresti|SECTOR 3|Teodor paladi|11|R5|5|9|192|0785338687||roxana.fagarasan@gmail.com|WISSB||Winston XStyle Blue (6mg) Pack|Yes|Yes||BWEVENT3|Palatul Bragadiru|Bucuresti|BWEVENTBA05|54|CCC EVENT WIN XST 2012|121|Horeca|0
0|CS245682|2012-07-19 23:42:34|Dinu|Andrada||F|1990-04-08|Bucuresti|SECTOR 2|Elev stefanescu|13|451|1|4|50|0742232999||andradaa.dinu@yahoo.com|KTSV||Winston XStyle Silver (4 mg) Pack|Yes|Yes||BWEVENT3|Palatul Bragadiru|Bucuresti|BWEVENTBA18|54|CCC EVENT WIN XST 2012|121|Horeca|0
0|CS245684|2012-07-19 23:42:46|Dumitrescu |Andrei||M|1991-05-07|Bucuresti|4|Oltenitei|115|28|1|9|36|0762222015||bogdanmp4@yahoo.com|KTBL|PMBK|Winston XStyle Blue (6mg) Pack|Yes|Yes||BWEVENT3|Palatul Bragadiru|Bucuresti|BWEVENTBA46|54|CCC EVENT WIN XST 2012|121|Horeca|0
0|CS245685|2012-07-19 23:43:11|Bran|Madalina||F|1990-09-05|Ilfov|PANTELIMON|Viilor|55|||1|7|0723448692||madalina.bran@yahoo.com|GLPBBS||Winston XStyle Silver (4 mg) Pack|Yes|Yes||BWEVENT3|Palatul Bragadiru|Bucuresti|BWEVENTBA08|54|CCC EVENT WIN XST 2012|121|Horeca|0
0|CS245686|2012-07-19 23:43:23|Miu|Daniel||M|1991-12-31|Bucuresti|SECTOR 3|Prevederii|21|G15|B|4|24|0722155691||miu.daniel@gmail.com|DUNFCDB|KTSV|Winston XStyle Blue (6mg) Pack|Yes|Yes||BWEVENT3|Palatul Bragadiru|Bucuresti|BWEVENTBA48|54|CCC EVENT WIN XST 2012|121|Horeca|0
0|CS245687|2012-07-19 23:43:32|Cristescu|Alexandru||M|1984-09-18|Bucuresti|6|Valea Calugareasca|5|A5|4|2|71|0765528620||merlin_boy2000@yahoo.com|KTWH|MBRGLFT|Winston XStyle Silver (4 mg) Pack|Yes|Yes||BWEVENT3|Palatul Bragadiru|Bucuresti|BWEVENTBA50|54|CCC EVENT WIN XST 2012|121|Horeca|0
0|CS245688|2012-07-19 23:43:34|Moga|Catalina||F|1988-10-04|Dambovita|TARGOVISTE|Duiliu zamfirescu|1|||||0729120255||catalina_moga88@yahoo.com|WISSS||Winston XStyle Silver (4 mg) Pack|Yes|Yes||BWEVENT3|Palatul Bragadiru|Bucuresti|BWEVENTBA25|54|CCC EVENT WIN XST 2012|121|Horeca|0
0|CS245692|2012-07-19 23:44:43|Calugareanu|Ioana||F|1990-01-01|Bucuresti|SECTOR 6|Aleea zorelelor|1|43|A|2|14|0763603503||i.o4nna@yahoo.com|KTCON||Winston Fresh Xspresion (5mg) Pack|Yes|Yes||BWEVENT3|Palatul Bragadiru|Bucuresti|BWEVENTBA18|54|CCC EVENT WIN XST 2012|121|Horeca|0
0|CS245693|2012-07-19 23:44:54|Clej|Calin||M|1976-03-03|Bucuresti|SECTOR 5|Buzoieni|111|3|2|3|48|0760304861|||KTBL|DAVGL|Winston XStyle Blue (6mg) Pack|Yes|Yes||BWEVENT3|Palatul Bragadiru|Bucuresti|BWEVENTBA29|54|CCC EVENT WIN XST 2012|121|Horeca|0
0|CS245694|2012-07-19 23:45:22|Duta|Vicentiu||M|1964-07-10|Bucuresti|SECTOR 2|Vitejiei|2|1|3|1|70|0722273863||vucentiuduta@gmail.com|DUNFCBK||Winston Fresh Xspresion (5mg) Pack|Yes|Yes||BWEVENT3|Palatul Bragadiru|Bucuresti|BWEVENTBA19|54|CCC EVENT WIN XST 2012|121|Horeca|0
0|CS245695|2012-07-19 23:46:15|Florea |Robert||M|1990-06-01|Bucuresti|SECTOR 4|Cercetatorilor|2|24|1|1|5|0721211669||robert_1990_1@yahoo.com|KTBL|WIBLH|Winston Fresh Xspresion (5mg) Pack|Yes|Yes||BWEVENT3|Palatul Bragadiru|Bucuresti|BWEVENTBA46|54|CCC EVENT WIN XST 2012|121|Horeca|0
0|CS245696|2012-07-19 23:46:34|Rus|Alexandru||M|1981-07-20|Bucuresti|6|Chilia veche|3|Td16|1|P|1|0724888853||alexrus112@yahoo.com|SBKSBL||Winston XStyle Blue (6mg) Pack|Yes|Yes||BWEVENT3|Palatul Bragadiru|Bucuresti|BWEVENTBA21|54|CCC EVENT WIN XST 2012|121|Horeca|0
0|CS245697|2012-07-19 23:46:41|Ifrim|Dona||F|1986-03-23|Bucuresti|SECTOR 1|B dul luptatorilor|69|||||0765461360||dona_barbieru@yahoo.com|KTSV||Winston Fresh Xspresion (5mg) Pack|Yes|Yes||BWEVENT3|Palatul Bragadiru|Bucuresti|BWEVENTBA08|54|CCC EVENT WIN XST 2012|121|Horeca|0
0|CS245698|2012-07-19 23:46:53|Vlad|Bogdan||M|1981-04-24|Bucuresti|SECTOR 5|Pomulesti|105-10|||||0768335980||vladbogdan2003@yahoo.com|PMBK||Winston XStyle Blue (6mg) Pack|Yes|Yes||BWEVENT3|Palatul Bragadiru|Bucuresti|BWEVENTBA18|54|CCC EVENT WIN XST 2012|121|Horeca|0
0|CS245699|2012-07-19 23:47:00|Ionescu|Valentin||M|1983-05-27|Bucuresti|5|Barca|7|M90|1|1|17|0728852019||valy_ionescu_83@yahoo.com|DUNSV|MBRGLT|Winston XStyle Silver (4 mg) Pack|Yes|Yes||BWEVENT3|Palatul Bragadiru|Bucuresti|BWEVENTBA50|54|CCC EVENT WIN XST 2012|121|Horeca|0
0|CS245701|2012-07-19 23:47:21|Avram|Maria||F|1977-05-21|Bucuresti|SECTOR 1|Calea floreasca|57|||||0740985347||mihai_maria_alexandru@yahoo.com|WIBL||Winston XStyle Blue (6mg) Pack|Yes|Yes||BWEVENT3|Palatul Bragadiru|Bucuresti|BWEVENTBA25|54|CCC EVENT WIN XST 2012|121|Horeca|0
0|CS245703|2012-07-19 23:48:11|Irina|Ifrim||F|1982-05-01|Bucuresti|SECTOR 3|Aleea barajulul sadului|7c|M4a3|A|9|40|0723847117||irinifrim@gmail.com|DUNFCSV|WISV|Winston XStyle Silver (4 mg) Pack|Yes|Yes||BWEVENT3|Palatul Bragadiru|Bucuresti|BWEVENTBA48|54|CCC EVENT WIN XST 2012|121|Horeca|0
0|CS245705|2012-07-19 23:48:41|Ghenu |Calin||M|1986-02-05|Bucuresti|SECTOR 1|Atena|2||||1|0723262496||calin.ghenu@yahoo.com|KTCON|KTNBK|Winston Fresh Xspresion (5mg) Pack|Yes|Yes||BWEVENT3|Palatul Bragadiru|Bucuresti|BWEVENTBA46|54|CCC EVENT WIN XST 2012|121|Horeca|0
0|CS245707|2012-07-19 23:49:03|Popescu|Sorin||M|1987-09-04|Bucuresti|SECTOR 4|Alunisului|11|M40|1|4|65|0765533919||popescusorin87@yahoo.com|KTBL||Winston XStyle Blue (6mg) Pack|Yes|Yes||BWEVENT3|Palatul Bragadiru|Bucuresti|BWEVENTBA29|54|CCC EVENT WIN XST 2012|121|Horeca|0
0|CS245706|2012-07-19 23:50:06|Petreanu|Catalin||M|1975-09-24|Bucuresti|SECTOR 5|Barca|8|||||0769250010||offoce@soultosoul.ro|PARAB||Winston XStyle Blue (6mg) Pack|Yes|Yes||BWEVENT3|Palatul Bragadiru|Bucuresti|BWEVENTBA08|54|CCC EVENT WIN XST 2012|121|Horeca|0
0|CS245708|2012-07-19 23:50:37|Popescu|Daniel||M|1987-11-15|Bucuresti|SECTOR 3|Teodor paladi|11|R5|5|9|192|0721847637||danielpopescu87@gmail.com|KTBL||Winston XStyle Blue (6mg) Pack|Yes|Yes||BWEVENT3|Palatul Bragadiru|Bucuresti|BWEVENTBA05|54|CCC EVENT WIN XST 2012|121|Horeca|0
0|CS245709|2012-07-19 23:52:10|Vasile|Cezar||M|1988-12-01|Bucuresti|SECTOR 5|Daisoara|5|||||0731986984||cezarlvasile@gmail.con|PMBK||Winston XStyle Blue (6mg) Pack|Yes|Yes||BWEVENT3|Palatul Bragadiru|Bucuresti|BWEVENTBA25|54|CCC EVENT WIN XST 2012|121|Horeca|0
0|CS245710|2012-07-19 23:52:32|Sornea|Iuliana||F|1980-01-07|Bucuresti|SECTOR 4|Emil racovita|16a|I11|2|8|56|0729837307||mihaela@hilserv.ro|DUNFCBK||Winston XStyle Blue (6mg) Pack|Yes|Yes||BWEVENT3|Palatul Bragadiru|Bucuresti|BWEVENTBA18|54|CCC EVENT WIN XST 2012|121|Horeca|0
0|CS245711|2012-07-19 23:52:43|Sandu |Razvan||M|1992-08-13|Bucuresti|6|Porumbacu|44|||||0769484620|||KTBL|WIXSTBL|Winston Fresh Xspresion (5mg) Pack|Yes|Yes||BWEVENT3|Palatul Bragadiru|Bucuresti|BWEVENTBA46|54|CCC EVENT WIN XST 2012|121|Horeca|0
0|CS245712|2012-07-19 23:52:55|Sandulescu|Miruna||F|1981-12-14|Bucuresti|SECTOR 6|Bulevardul magheru|6a|||||0724500612||mirina_sandulescu@yahoo.com|KTBL||Winston XStyle Silver (4 mg) Pack|Yes|Yes||BWEVENT3|Palatul Bragadiru|Bucuresti|BWEVENTBA19|54|CCC EVENT WIN XST 2012|121|Horeca|0
0|CS245713|2012-07-19 23:52:57|Sofron|Corina||F|1990-03-08|Bucuresti|SECTOR 1|Calea dorobantilor|135-14|10|B|1|62|0743053033||corinasofron@yahoo.com|VOGFLLL||Winston Fresh Xspresion (5mg) Pack|Yes|Yes||BWEVENT3|Palatul Bragadiru|Bucuresti|BWEVENTBA21|54|CCC EVENT WIN XST 2012|121|Horeca|0
0|CS245714|2012-07-19 23:53:02|Adina|Weiner||F|1981-11-17|Bucuresti|SECTOR 2|Vasile lascar|62|||3|9|0721222463||adinapw@gmail.com|WISSS|PARSB|Winston XStyle Silver (4 mg) Pack|Yes|Yes||BWEVENT3|Palatul Bragadiru|Bucuresti|BWEVENTBA48|54|CCC EVENT WIN XST 2012|121|Horeca|0
0|CS245716|2012-07-19 23:53:24|Negreanu|Liliana||F|1987-04-29|Prahova|CAMPINA|Calea dooftanei|12|||||0724863641||lylyanna2005@yahoo.com|KTSV||Winston XStyle Blue (6mg) Pack|Yes|Yes||BWEVENT3|Palatul Bragadiru|Bucuresti|BWEVENTBA08|54|CCC EVENT WIN XST 2012|121|Horeca|0
0|CS245717|2012-07-19 23:53:24|Cocea|Carmen||F|1990-04-24|Bucuresti|SECTOR 6|Apele vii|1a|312|1|1|3|0764473961||lory_gocea@yahoo.com|PMBL||Winston Fresh Xspresion (5mg) Pack|Yes|Yes||BWEVENT3|Palatul Bragadiru|Bucuresti|BWEVENTBA29|54|CCC EVENT WIN XST 2012|121|Horeca|0
0|CS245718|2012-07-19 23:53:38|Preda|Constantin||M|1988-06-01|Bucuresti|3|Sold piridon|2|T|2|||0723453213|||DUNFCDB|KTNRD|Winston XStyle Blue (6mg) Pack|Yes|Yes||BWEVENT3|Palatul Bragadiru|Bucuresti|BWEVENTBA50|54|CCC EVENT WIN XST 2012|121|Horeca|0
0|CS245719|2012-07-19 23:54:29|Ripschi |Ana||F|1987-11-15|Bucuresti|SECTOR 4|Emil racovita|4|C6|1|0|15|0762168883|||VIRSPR||Winston XStyle Blue (6mg) Pack|Yes|Yes||BWEVENT3|Palatul Bragadiru|Bucuresti|BWEVENTBA18|54|CCC EVENT WIN XST 2012|121|Horeca|0
0|CS245720|2012-07-19 23:54:34|Zaharia|Nicolae||M|1974-12-07|Bucuresti|SECTOR 6|Simion mehedinti|7|99|2|4|77|0723595809|||MBRRDH||Winston Fresh Xspresion (5mg) Pack|Yes|Yes||BWEVENT3|Palatul Bragadiru|Bucuresti|BWEVENTBA05|54|CCC EVENT WIN XST 2012|121|Horeca|0
0|CS245721|2012-07-19 23:55:03|Varzaru|Ctistian||M|1991-04-06|Brasov|FAGARAS|Bujorului|13|||||0764520500||varzaruc66@yahoo.com|MBRFP||Winston Fresh Xspresion (5mg) Pack|Yes|Yes||BWEVENT3|Palatul Bragadiru|Bucuresti|BWEVENTBA25|54|CCC EVENT WIN XST 2012|121|Horeca|0
0|CS245722|2012-07-19 23:55:40|Kisescu|Bogdan||M|1975-10-31|Bucuresti|SECTOR 1|Hrisovului|6|||||0742214441||bogdan@meninblack.ro|PARAB||Winston XStyle Blue (6mg) Pack|Yes|Yes||BWEVENT3|Palatul Bragadiru|Bucuresti|BWEVENTBA19|54|CCC EVENT WIN XST 2012|121|Horeca|0
0|CS245723|2012-07-19 23:56:10|Avram|Mihai||M|1974-06-26|Bucuresti|SECTOR 1|Calea floreasca|57|0|0|0|0|0744649882||mihai_maria_alexandru@yahoo.com|WIBLH||Winston Fresh Xspresion (5mg) Pack|Yes|Yes||BWEVENT3|Palatul Bragadiru|Bucuresti|BWEVENTBA21|54|CCC EVENT WIN XST 2012|121|Horeca|0
0|CS245724|2012-07-19 23:56:24|Enescu|Florinel||M|1982-11-20|Bucuresti|SECTOR 5|Valea ialomitei|12|C6|5|3|41|0765528621||merlinboy2000@gmail.com|KTBL||Winston XStyle Blue (6mg) Pack|Yes|Yes||BWEVENT3|Palatul Bragadiru|Bucuresti|BWEVENTBA18|54|CCC EVENT WIN XST 2012|121|Horeca|0
0|CS245725|2012-07-19 23:56:39|Grama|Cristin||M|1986-09-19|Prahova|CAMPINA|Carol 1|41|||||0725697450||costin@evomag.ro|KTCON||Winston Fresh Xspresion (5mg) Pack|Yes|Yes||BWEVENT3|Palatul Bragadiru|Bucuresti|BWEVENTBA08|54|CCC EVENT WIN XST 2012|121|Horeca|0
0|CS245726|2012-07-19 23:56:53|Weiner|George||M|1968-02-28|Bucuresti|SECTOR 2|Vasile lascar|68|||3|9|0722382561||gweiner@me.com|DUNFCDB|WIBLH|Winston XStyle Blue (6mg) Pack|Yes|Yes||BWEVENT3|Palatul Bragadiru|Bucuresti|BWEVENTBA48|54|CCC EVENT WIN XST 2012|121|Horeca|0
0|CS245727|2012-07-19 23:56:59|Iovan|Anca||F|1986-06-13|Bucuresti|SECTOR 6|Aleeacalea crangasi|18|42|1|8|31|0728122940||anka_iovan@yahoo.com|VOGJSN||Winston XStyle Silver (4 mg) Pack|Yes|Yes||BWEVENT3|Palatul Bragadiru|Bucuresti|BWEVENTBA29|54|CCC EVENT WIN XST 2012|121|Horeca|0
0|CS245728|2012-07-19 23:57:37|Perian|Mihai||M|1987-08-01|Bucuresti|SECTOR 4|Padesu|14|14|1|3|13|0721631072||perian_mihai@yahoo.com|VOGM|KTCON|Winston Fresh Xspresion (5mg) Pack|Yes|Yes||BWEVENT3|Palatul Bragadiru|Bucuresti|BWEVENTBA46|54|CCC EVENT WIN XST 2012|121|Horeca|0
0|CS245729|2012-07-19 23:58:27|Stoica|Ana Maria||F|1984-09-15|Bucuresti|SECTOR 2|Aleea lunguletu|6|D14|3|8|122|0722525559||stoica_anamaria@yahoo.com|MBRGLFT||Winston XStyle Silver (4 mg) Pack|Yes|Yes||BWEVENT3|Palatul Bragadiru|Bucuresti|BWEVENTBA18|54|CCC EVENT WIN XST 2012|121|Horeca|0
0|CS245730|2012-07-19 23:59:47|Buxar|Anisia||F|1991-01-28|Ilfov|TUNARI| Mihail sadoveanu|41|||||0764237737||nissia777@yahoo.com|DAVGL||Winston XStyle Blue (6mg) Pack|Yes|Yes||BWEVENT3|Palatul Bragadiru|Bucuresti|BWEVENTBA08|54|CCC EVENT WIN XST 2012|121|Horeca|0
0|CS245731|2012-07-20 00:00:16|Avram|Maria||F|1977-05-21|Bucuresti|SECTOR 1|Calea floreasca|57|||||0740985347||mihai_maria_alexandru@yahoo.com|WIBL||Winston XStyle Blue (6mg) Pack|Yes|Yes||BWEVENT3|Palatul Bragadiru|Bucuresti|BWEVENTBA29|54|CCC EVENT WIN XST 2012|121|Horeca|0
0|CS245732|2012-07-20 00:01:27|Pribon|Albert||M|1990-08-28|Bucuresti|SECTOR 3|Stefan nicolau|4|S1|1|9|90|0766471996||alb3rto90@yahoo.com|DUNBL|WICL|Winston XStyle Blue (6mg) Pack|Yes|Yes||BWEVENT3|Palatul Bragadiru|Bucuresti|BWEVENTBA48|54|CCC EVENT WIN XST 2012|121|Horeca|0
0|CS245733|2012-07-20 00:01:52|Andrei|Nistor||M|1985-09-09|Suceava|PAISENI|Apostol margarit|1|109|A|8|92|0741560679||andrei.nistor@yahoo.com|SBSSBK|CAWH|Winston XStyle Blue (6mg) Pack|Yes|Yes||BWEVENT3|Palatul Bragadiru|Bucuresti|BWEVENTBA05|54|CCC EVENT WIN XST 2012|121|Horeca|0
0|CS245734|2012-07-20 00:02:08|Bucau|Gabriel||M|1989-02-18|Bucuresti|SECTOR 2|Bd lacul tei|119|5a2|A|8|26|0720827310||piticu_12005@yahoo.com|KTBL|SBSSBK|Winston XStyle Blue (6mg) Pack|Yes|Yes||BWEVENT3|Palatul Bragadiru|Bucuresti|BWEVENTBA46|54|CCC EVENT WIN XST 2012|121|Horeca|0
0|CS245735|2012-07-20 00:02:46|Dinescu|Tiberiu||M|1983-07-04|Bucuresti|SECTOR 4|Calea vacaresti|230|70|B|4|44|0724553825||tiberiu.dinescu@yahoo.com|DUNFCSV||Winston Fresh Xspresion (5mg) Pack|Yes|Yes||BWEVENT3|Palatul Bragadiru|Bucuresti|BWEVENTBA21|54|CCC EVENT WIN XST 2012|121|Horeca|0
0|CS245736|2012-07-20 00:03:23|Avram|Mihai||M|1974-06-26|Bucuresti|SECTOR 1|Calea floreasca |57|||||0744649882||mihai.maria.alexandru@gmail.com|WIBLH||Winston XStyle Blue (6mg) Pack|Yes|Yes||BWEVENT3|Palatul Bragadiru|Bucuresti|BWEVENTBA29|54|CCC EVENT WIN XST 2012|121|Horeca|0
0|CS245737|2012-07-20 00:04:27|Balan|Dan||M|1979-07-30|Bucuresti|SECTOR 6|Nicolae Filimon|69|||0|0|0764867797||dan_bmd@yahoo.com|WIXSB|KTSV|Winston XStyle Blue (6mg) Pack|Yes|Yes||BWEVENT3|Palatul Bragadiru|Bucuresti|BWEVENTBA46|54|CCC EVENT WIN XST 2012|121|Horeca|0
0|CS245738|2012-07-20 00:08:05|Bodor|Radu||M|1981-03-03|Bucuresti|SECTOR 2|Vasile lascar|209|31a|A|6|26|0727732345||bodor_radu2000@yahoo.com|WIXSTSV|KTSV|Winston XStyle Silver (4 mg) Pack|Yes|Yes||BWEVENT3|Palatul Bragadiru|Bucuresti|BWEVENTBA46|54|CCC EVENT WIN XST 2012|121|Horeca|0
0|CS245739|2012-07-20 00:08:59|Madalina |Radu||F|1985-03-31|Bucuresti|4|Alexandru Obregia|3|G|4|||0768300472||madalina_teo@yahoo.com|DUNFCBK|KTNBK|Winston XStyle Silver (4 mg) Pack|Yes|Yes||BWEVENT3|Palatul Bragadiru|Bucuresti|BWEVENTBA50|54|CCC EVENT WIN XST 2012|121|Horeca|0
0|CS245745|2012-07-20 00:12:18|Nistor |Andra||F|1986-02-04|Bucuresti|SECTOR 2|Apostol margarit|1|106|1|8|92|0766575486||andra.tanase@ymail.com|CAWH|VIRSPR|Winston XStyle Silver (4 mg) Pack|Yes|Yes||BWEVENT3|Palatul Bragadiru|Bucuresti|BWEVENTBA46|54|CCC EVENT WIN XST 2012|121|Horeca|0
0|CS245746|2012-07-20 00:12:33|Avram|Maria||F|1977-04-21|Bucuresti|SECTOR 1|Calea floreasca|57|||||0740985347||mihai_maria_alexandru@yahoo.com|WIBL||Winston XStyle Blue (6mg) Pack|Yes|Yes||BWEVENT3|Palatul Bragadiru|Bucuresti|BWEVENTBA19|54|CCC EVENT WIN XST 2012|121|Horeca|0
0|CS245747|2012-07-20 00:12:51|Rotaru|Razvan||M|1987-01-20|Buzau|BUZAU|Brasteni|124|30|2|2|20|0747702150||razvan.rotaru@yahoo.com|KTBL||Winston XStyle Blue (6mg) Pack|Yes|Yes||BWEVENT3|Palatul Bragadiru|Bucuresti|BWEVENTBA29|54|CCC EVENT WIN XST 2012|121|Horeca|0
0|CS245749|2012-07-20 00:12:59|Tomescu|Bogdan||M|1984-01-16|Bucuresti|SECTOR 6|Splaiul independentei|290|P1|1|3|307|0765265488||tomescu.bogdan@yahoo.com|KTBL||Winston Fresh Xspresion (5mg) Pack|Yes|Yes||BWEVENT3|Palatul Bragadiru|Bucuresti|BWEVENTBA08|54|CCC EVENT WIN XST 2012|121|Horeca|0
0|CS245750|2012-07-20 00:13:07|Radu|Catalin||M|1978-09-19|Bucuresti|SECTOR 2|Laptari tei|14|4|3||137|0751177270||catalin.vx@gmail.com|KTSV||Winston XStyle Blue (6mg) Pack|Yes|Yes||BWEVENT3|Palatul Bragadiru|Bucuresti|BWEVENTBA48|54|CCC EVENT WIN XST 2012|121|Horeca|0
0|CS245751|2012-07-20 00:13:26|Stanciu|Mihai||M|1982-06-29|Bucuresti|SECTOR 5|Calea rahovei|336|43a|A|1|3|0724055726||stanciu.mp@gmail.com|WIBLH||Winston XStyle Blue (6mg) Pack|Yes|Yes||BWEVENT3|Palatul Bragadiru|Bucuresti|BWEVENTBA05|54|CCC EVENT WIN XST 2012|121|Horeca|0
0|CS245752|2012-07-20 00:13:29|Vacut|Bogdan||M|1979-10-22|Bucuresti|SECTOR 4|Pomarla|2|P20|5|5|134|0741094674||vacutb@gmail.com|MBRFP||Winston XStyle Blue (6mg) Pack|Yes|Yes||BWEVENT3|Palatul Bragadiru|Bucuresti|BWEVENTBA18|54|CCC EVENT WIN XST 2012|121|Horeca|0
0|CS245754|2012-07-20 00:13:52|Tudoran|Elena||F|1991-08-28|Bucuresti|SECTOR 6|Nicolae oncescu|2|104a|A|1|6|0768345515||elena tudorans@yahoo.com|DUNFCBK||Winston XStyle Blue (6mg) Pack|Yes|Yes||BWEVENT3|Palatul Bragadiru|Bucuresti|BWEVENTBA21|54|CCC EVENT WIN XST 2012|121|Horeca|0
0|CS245756|2012-07-20 00:14:13|Iorgulescu|Alexandru||M|1982-01-04|Bucuresti|SECTOR 2|Ion berindei|12|16||0|0|0751032626||alexandru_iorgulescu@yahoo.com|MBRGL|WIXSTBL|Winston XStyle Blue (6mg) Pack|Yes|Yes||BWEVENT3|Palatul Bragadiru|Bucuresti|BWEVENTBA25|54|CCC EVENT WIN XST 2012|121|Horeca|0
0|CS245757|2012-07-20 00:14:36|Avram|Mihai||M|1974-06-26|Bucuresti|SECTOR 1|Calea floreasca |57|||||0744649882||mihai.maria.alexandru@gmail.com|WIBL||Winston XStyle Blue (6mg) Pack|Yes|Yes||BWEVENT3|Palatul Bragadiru|Bucuresti|BWEVENTBA19|54|CCC EVENT WIN XST 2012|121|Horeca|0
0|CS245758|2012-07-20 00:15:06|Tanase |Elia||F|1990-10-31|Dambovita|PIETRARI|Principala|524|||||0769672109||elia.tanase@yahoo.com|KTBL|MBRGLT|Winston XStyle Blue (6mg) Pack|Yes|Yes||BWEVENT3|Palatul Bragadiru|Bucuresti|BWEVENTBA46|54|CCC EVENT WIN XST 2012|121|Horeca|0
0|CS245761|2012-07-20 00:16:12|Burlan|Octavian||M|1986-11-28|Bucuresti|2|M.Bacila|33|33|1|3|12|0748131271||burlanoctavian@yahoo.com|KTH|CANFF|Winston XStyle Silver (4 mg) Pack|Yes|Yes||BWEVENT3|Palatul Bragadiru|Bucuresti|BWEVENTBA50|54|CCC EVENT WIN XST 2012|121|Horeca|0
0|CS245762|2012-07-20 00:16:32|Goicea|Dumitru||M|1986-01-23|Bucuresti|SECTOR 5|Topolnita|3|M54|1|8|53|0721611285||grecu_dumi@yahoo.com|PMBL||Winston XStyle Blue (6mg) Pack|Yes|Yes||BWEVENT3|Palatul Bragadiru|Bucuresti|BWEVENTBA29|54|CCC EVENT WIN XST 2012|121|Horeca|0
0|CS245763|2012-07-20 00:16:35|Lorincz|Amalia||F|1991-07-02|Bucuresti|1|Magura florilor|13|||||0766311079||amy_ice2006@yahoo.com|KTBL||Winston XStyle Blue (6mg) Pack|Yes|Yes||BWEVENT3|Palatul Bragadiru|Bucuresti|BWEVENTBA21|54|CCC EVENT WIN XST 2012|121|Horeca|0
0|CS245764|2012-07-20 00:16:41|Lefter|Costin||M|1988-08-07|Bucuresti|SECTOR 4|Novaci|3|S23||1|12|0731080897||ovb.costin@gmail.com|KTH|PMBK|Winston XStyle Blue (6mg) Pack|Yes|Yes||BWEVENT3|Palatul Bragadiru|Bucuresti|BWEVENTBA05|54|CCC EVENT WIN XST 2012|121|Horeca|0
0|CS245765|2012-07-20 00:16:42|Bucalau|Ioana||F|1990-01-10|Bucuresti|SECTOR 1|Ghitescu|15|||||0743124898||ioana.bucalau@gmail.com|VOGM||Winston Fresh Xspresion (5mg) Pack|Yes|No||BWEVENT3|Palatul Bragadiru|Bucuresti|BWEVENTBA08|54|CCC EVENT WIN XST 2012|121|Horeca|0
0|CS245766|2012-07-20 00:17:59|Vulpe|Ana Flavia||F|1989-07-22|Bucuresti|SECTOR 4|Stoian militaru|18||||34|0727360070||flaviana2229@yahoo.com|CAWH|GLMMNT|Winston Fresh Xspresion (5mg) Pack|Yes|Yes||BWEVENT3|Palatul Bragadiru|Bucuresti|BWEVENTBA46|54|CCC EVENT WIN XST 2012|121|Horeca|0
0|CS245767|2012-07-20 00:18:02|Teodoru|Oana||F|1981-01-15|Prahova|PLOIESTI|Mihai bravu|9|||||0744344001||teodoru_oana@yahoo.com|PARSB||Winston XStyle Blue (6mg) Pack|Yes|Yes||BWEVENT3|Palatul Bragadiru|Bucuresti|BWEVENTBA48|54|CCC EVENT WIN XST 2012|121|Horeca|0
0|CS245769|2012-07-20 00:18:05|Toader|Georgiana||F|1989-07-31|Bucuresti|SECTOR 6|Splaiu independentei|290|P11||2|13|0767256995||geo_denis1@yahoo.com|VIRSM||Winston Fresh Xspresion (5mg) Pack|Yes|Yes||BWEVENT3|Palatul Bragadiru|Bucuresti|BWEVENTBA18|54|CCC EVENT WIN XST 2012|121|Horeca|0
0|CS245770|2012-07-20 00:19:18|Ciarec|Luiza||F|1991-08-21|Bucuresti|SECTOR 6|Constructorilor|20|20a|B|2|46|0768859637||looie_me@yahoo.com|KTNBK||Winston Fresh Xspresion (5mg) Pack|Yes|Yes||BWEVENT3|Palatul Bragadiru|Bucuresti|BWEVENTBA21|54|CCC EVENT WIN XST 2012|121|Horeca|0
0|CS245771|2012-07-20 00:19:38|Stoica|Serban||M|1988-07-13|Bucuresti|SECTOR 4|Doctor staicovici|60|||||0726555755||serban.stoica@gmail.com|KTCON||Winston Fresh Xspresion (5mg) Pack|Yes|Yes||BWEVENT3|Palatul Bragadiru|Bucuresti|BWEVENTBA08|54|CCC EVENT WIN XST 2012|121|Horeca|0
0|CS245772|2012-07-20 00:20:12|Tomescu|Ana||F|1988-10-09|Bucuresti|3|Lipanesti|1|M1|A|1|4|0722346877||tomescu.ana.maria@gmail.com|CAWH|MBRGLFT|Winston XStyle Silver (4 mg) Pack|Yes|No||BWEVENT3|Palatul Bragadiru|Bucuresti|BWEVENTBA50|54|CCC EVENT WIN XST 2012|121|Horeca|0
0|CS245773|2012-07-20 00:20:16|Duilas|Cristian||M|1983-10-08|Calarasi|CALARASI|Pietii|8|0|0|0|0|0735454502||duilas.cristian@gmail.com|MBRGLT|WIBL|Winston Fresh Xspresion (5mg) Pack|Yes|Yes||BWEVENT3|Palatul Bragadiru|Bucuresti|BWEVENTBA25|54|CCC EVENT WIN XST 2012|121|Horeca|0
0|CS245774|2012-07-20 00:20:21|Buliga|Marius||M|1982-07-06|Bucuresti|SECTOR 5|Croitoru vasile|5|3|1|8|151|0731036709||marius_alinus@yahoo.com|MBRGL||Winston Fresh Xspresion (5mg) Pack|Yes|Yes||BWEVENT3|Palatul Bragadiru|Bucuresti|BWEVENTBA29|54|CCC EVENT WIN XST 2012|121|Horeca|0
0|CS245775|2012-07-20 00:20:31|Avram|Maria||F|1977-05-21|Bucuresti|SECTOR 1|Calea floreasca|57|||||0740985347||mihai_maria_alexandru@yahoo.com|WIBLH|CAWH|Winston XStyle Blue (6mg) Pack|Yes|Yes||BWEVENT3|Palatul Bragadiru|Bucuresti|BWEVENTBA05|54|CCC EVENT WIN XST 2012|121|Horeca|0
0|CS245776|2012-07-20 00:20:48|Badoi|Marian||M|1989-04-11|Bucuresti|SECTOR 4|Uioara|11|A12|D|1|49|0768024168||brezel89@yahoo.com|KTNSV||Winston XStyle Silver (4 mg) Pack|Yes|Yes||BWEVENT3|Palatul Bragadiru|Bucuresti|BWEVENTBA18|54|CCC EVENT WIN XST 2012|121|Horeca|0
0|CS245778|2012-07-20 00:20:57|Dinu|Mihaela||F|1990-04-08|Bucuresti|SECTOR 2|Sos pantelimon|352|3|2|10|80|0745046915||mihaela.dinu@yahoo.com|KTSV||Winston XStyle Silver (4 mg) Pack|Yes|Yes||BWEVENT3|Palatul Bragadiru|Bucuresti|BWEVENTBA48|54|CCC EVENT WIN XST 2012|121|Horeca|0
0|CS245779|2012-07-20 00:22:24|Lucescu|Carmen||F|1987-07-15|Ilfov|PANTELIMON|Livezilor|22|||||0727072551|||KTSV||Winston XStyle Blue (6mg) Pack|Yes|Yes||BWEVENT3|Palatul Bragadiru|Bucuresti|BWEVENTBA08|54|CCC EVENT WIN XST 2012|121|Horeca|0
0|CS245780|2012-07-20 00:22:36|Ciobanu|Monica||F|1985-07-31|Bucuresti|SECTOR 4|Enachita vacarescu|19|||0|0|0723608463||lion.moni@gmail.com|VOGLL||Winston Fresh Xspresion (5mg) Pack|Yes|Yes||BWEVENT3|Palatul Bragadiru|Bucuresti|BWEVENTBA21|54|CCC EVENT WIN XST 2012|121|Horeca|0
0|CS245781|2012-07-20 00:22:57|Miciu|Lidia||F|1990-03-29|Bucuresti|SECTOR 5|Panduri|60|A|B||71|0768313836||princess_2006@yahoo.com|KTSV||Winston XStyle Silver (4 mg) Pack|Yes|Yes||BWEVENT3|Palatul Bragadiru|Bucuresti|BWEVENTBA48|54|CCC EVENT WIN XST 2012|121|Horeca|0
0|CS245782|2012-07-20 00:23:16|Avram|Mihai||M|1974-06-26|Bucuresti|SECTOR 1|Calea floreasca|57|||||0744649882||mihai.maria.alexandru@gmail.com|WIBLH||Winston Fresh Xspresion (5mg) Pack|Yes|Yes||BWEVENT3|Palatul Bragadiru|Bucuresti|BWEVENTBA05|54|CCC EVENT WIN XST 2012|121|Horeca|0
0|CS245783|2012-07-20 00:23:17|Gaviloaia|Laura||F|1988-01-28|Bucuresti|SECTOR 6|Chilia veche|7|70|B|7|70|0732628912||laura_matza28@yahoo.com|DUNBL||Winston Fresh Xspresion (5mg) Pack|Yes|Yes||BWEVENT3|Palatul Bragadiru|Bucuresti|BWEVENTBA18|54|CCC EVENT WIN XST 2012|121|Horeca|0
0|CS245784|2012-07-20 00:24:17|Moise|George||M|1987-10-12|Bucuresti|SECTOR 6|Splaiul independentei|120|B2|||312|0749055751||moise.alexandru.george@gmail.com|LSRD|LSSV|Winston XStyle Blue (6mg) Pack|Yes|Yes||BWEVENT3|Palatul Bragadiru|Bucuresti|BWEVENTBA46|54|CCC EVENT WIN XST 2012|121|Horeca|0
0|CS245785|2012-07-20 00:24:33|Lovin|Bogdan valentin||M|1989-10-17|Bucuresti|SECTOR 2|Maria rosetti|43|||||0752404232||m42linn@gmail.com|DUNFCMB||Winston XStyle Blue (6mg) Pack|Yes|Yes||BWEVENT3|Palatul Bragadiru|Bucuresti|BWEVENTBA29|54|CCC EVENT WIN XST 2012|121|Horeca|0
0|CS245786|2012-07-20 00:24:37|Ionescu|Mihaela||F|1978-08-29|Bucuresti|SECTOR 6|Brasov|8|321|4|9|260|0744597080||ionescu.mihaela@gmail.com|KTCON|PMBL|Winston Fresh Xspresion (5mg) Pack|Yes|Yes||BWEVENT3|Palatul Bragadiru|Bucuresti|BWEVENTBA25|54|CCC EVENT WIN XST 2012|121|Horeca|0
0|CS245788|2012-07-20 00:24:59|Gabriel|Iancu||M|1987-06-16|Bucuresti|6|Bl 1 mai|29|C9|B|1|51|0734071775||iancu_gabriel_laurentiu@yahoo.ro|DUNFCMB|KTNRD|Winston XStyle Blue (6mg) Pack|Yes|Yes||BWEVENT3|Palatul Bragadiru|Bucuresti|BWEVENTBA50|54|CCC EVENT WIN XST 2012|121|Horeca|0
0|CS245789|2012-07-20 00:25:06|Delcian|Iulia||F|1978-08-04|Bucuresti|SECTOR 3|Alexandru iivasiuc|32|||||0723122589||johndoe_son@yahoo.com|KTSV||Winston XStyle Silver (4 mg) Pack|Yes|Yes||BWEVENT3|Palatul Bragadiru|Bucuresti|BWEVENTBA19|54|CCC EVENT WIN XST 2012|121|Horeca|0
0|CS245790|2012-07-20 00:25:22|Sprintu|Cristina||F|1984-03-02|Bucuresti|SECTOR 4|Soseaua oltenitei|56|11c|1|5|19|0741218858||cristinasprintu@yahoo.com|KTNBK||Winston XStyle Blue (6mg) Pack|Yes|Yes||BWEVENT3|Palatul Bragadiru|Bucuresti|BWEVENTBA21|54|CCC EVENT WIN XST 2012|121|Horeca|0
0|CS245791|2012-07-20 00:26:04|Nita|Ionut||M|1989-07-23|Bucuresti|SECTOR 3|Vlaicu voda|21|V81||||0732519473||sohot_1@yahoo.com|DAVGL||Winston XStyle Blue (6mg) Pack|Yes|Yes||BWEVENT3|Palatul Bragadiru|Bucuresti|BWEVENTBA48|54|CCC EVENT WIN XST 2012|121|Horeca|0
0|CS245792|2012-07-20 00:26:27|Baboi|Daniela||F|1984-06-05|Bucuresti|SECTOR 4|Uioara|11|A12|D|1|49|0769535801||danielle_eugen@yahoo.com|VOGLL||Winston XStyle Silver (4 mg) Pack|Yes|Yes||BWEVENT3|Palatul Bragadiru|Bucuresti|BWEVENTBA18|54|CCC EVENT WIN XST 2012|121|Horeca|0
0|CS245793|2012-07-20 00:26:36|Iosif|Anca||F|1989-04-14|Bucuresti|2|Reactorului|15|||||0766300840||iosif.alexandra@ymail.com|DUNFCDB||Winston XStyle Blue (6mg) Pack|Yes|Yes||BWEVENT3|Palatul Bragadiru|Bucuresti|BWEVENTBA08|54|CCC EVENT WIN XST 2012|121|Horeca|0
0|CS245794|2012-07-20 00:27:31|Istrate|Bogdan||M|1986-07-16|Constanta|MANGALIA|George murnu|9|E|A|3|15|0745264889||berilaz21@gmail.com|DUNFCSV||Winston XStyle Silver (4 mg) Pack|Yes|Yes||BWEVENT3|Palatul Bragadiru|Bucuresti|BWEVENTBA05|54|CCC EVENT WIN XST 2012|121|Horeca|0
0|CS245795|2012-07-20 00:27:49|Serghei|Adrian||M|1988-02-02|Valcea|RAMNICU VALCEA|Libertatii|4|18|A|2|15|0723472019||sergheiadrian@yahoo.com|KTBL||Winston XStyle Blue (6mg) Pack|Yes|Yes||BWEVENT3|Palatul Bragadiru|Bucuresti|BWEVENTBA29|54|CCC EVENT WIN XST 2012|121|Horeca|0
0|CS245796|2012-07-20 00:27:57|Adrian|Radu||M|1987-02-28|Dambovita|TARGOVISTE|Campulung|68|||||0721883845||radu_adrian@yahoo.com|KTBL|DUNFCDB|Winston XStyle Blue (6mg) Pack|Yes|No||BWEVENT3|Palatul Bragadiru|Bucuresti|BWEVENTBA46|54|CCC EVENT WIN XST 2012|121|Horeca|0
0|CS245797|2012-07-20 00:28:03|Dediu|Andreea||F|1983-03-17|Bucuresti|SECTOR 6|Calea giulesti|123|A|B|0|21|0766585215||andreeatuti@yahoo.com|KTSV||Winston Fresh Xspresion (5mg) Pack|Yes|Yes||BWEVENT3|Palatul Bragadiru|Bucuresti|BWEVENTBA21|54|CCC EVENT WIN XST 2012|121|Horeca|0
0|CS245798|2012-07-20 00:28:06|Enache|Irina||F|1986-07-09|Bucuresti|SECTOR 2|Ritmului|16|431||||0729336936||irina.enache@yahoo.com|VIRSPR||Winston XStyle Silver (4 mg) Pack|Yes|Yes||BWEVENT3|Palatul Bragadiru|Bucuresti|BWEVENTBA19|54|CCC EVENT WIN XST 2012|121|Horeca|0
0|CS245800|2012-07-20 00:28:37|Popescu|Matei||M|1984-12-04|Bucuresti|SECTOR 2|Tudor arghezi|26|||||0766365974||matei.baran@yahoo.com|WICL|WICLH|Winston XStyle Blue (6mg) Pack|Yes|Yes||BWEVENT3|Palatul Bragadiru|Bucuresti|BWEVENTBA25|54|CCC EVENT WIN XST 2012|121|Horeca|0
0|CS245801|2012-07-20 00:28:39|Nica|Teodora Cristiana||F|1993-03-08|Bucuresti|SECTOR 3|Calea vitan|119|V21b|2|5|54|0741942219||teo.nicaa@yahoo.com|MBRFP||Winston XStyle Silver (4 mg) Pack|Yes|Yes||BWEVENT3|Palatul Bragadiru|Bucuresti|BWEVENTBA18|54|CCC EVENT WIN XST 2012|121|Horeca|0
0|CS245802|2012-07-20 00:29:09|Iancu|Gabriel||M|1987-06-16|Bucuresti|SECTOR 6|Bd 1mai|29|C9|B||58|0734071775||iancu_gabriel_laurentiu@yahoo.ro|DUNFCDB||Winston XStyle Blue (6mg) Pack|Yes|Yes||BWEVENT3|Palatul Bragadiru|Bucuresti|BWEVENTBA48|54|CCC EVENT WIN XST 2012|121|Horeca|0
0|CS245803|2012-07-20 00:30:25|Emil|Ancoreanu||M|1965-05-10|Bucuresti|SECTOR 2|Mihai bravu|182|||||0722458993||deltafishing2000@yahoo.com|WISV||Winston XStyle Silver (4 mg) Pack|Yes|Yes||BWEVENT3|Palatul Bragadiru|Bucuresti|BWEVENTBA19|54|CCC EVENT WIN XST 2012|121|Horeca|0
0|CS245804|2012-07-20 00:30:43|Baluta|Claudia||F|1987-03-20|Constanta|CONSTANTA|Viilor|11|||||0761801885|||WIBL||Winston Fresh Xspresion (5mg) Pack|Yes|Yes||BWEVENT3|Palatul Bragadiru|Bucuresti|BWEVENTBA08|54|CCC EVENT WIN XST 2012|121|Horeca|0
0|CS245805|2012-07-20 00:31:00|Avram|Maria||F|1977-05-21|Bucuresti|SECTOR 1|Calea floreasca|57|||||0740985347||mihai_maria_alexandru@yahoo.com|WIBL||Winston XStyle Silver (4 mg) Pack|Yes|Yes||BWEVENT3|Palatul Bragadiru|Bucuresti|BWEVENTBA48|54|CCC EVENT WIN XST 2012|121|Horeca|0
0|CS245806|2012-07-20 00:32:01|Poescu |Florin||M|1988-05-23|Dambovita|TARGOVISTE|Eroilor|11|11|C|3|18|0785291159||florin.popescu@yahoo.com|KTBL|WIXSTBL|Winston XStyle Blue (6mg) Pack|Yes|Yes||BWEVENT3|Palatul Bragadiru|Bucuresti|BWEVENTBA46|54|CCC EVENT WIN XST 2012|121|Horeca|0
0|CS245807|2012-07-20 00:33:15|Roman|Sorin||M|1981-02-16|Bucuresti|SECTOR 5|Dobrun|3|M67||||0742014202||sorin2022@yahoo.com|WIBLH||Winston XStyle Blue (6mg) Pack|Yes|Yes||BWEVENT3|Palatul Bragadiru|Bucuresti|BWEVENTBA19|54|CCC EVENT WIN XST 2012|121|Horeca|0
0|CS245808|2012-07-20 00:33:39|Butnariu|Andrei||M|1985-10-22|Bucuresti|SECTOR 6|Valea calugareasca |2|8|A|2|8|0740256544||andrei_butnariu@yahoo.com|PMBL||Winston XStyle Blue (6mg) Pack|Yes|Yes||BWEVENT3|Palatul Bragadiru|Bucuresti|BWEVENTBA29|54|CCC EVENT WIN XST 2012|121|Horeca|0
0|CS245809|2012-07-20 00:33:52|Ene|George||M|1983-06-13|Bucuresti|SECTOR 5|Lacul plopului|10|V7|1|5|23|0726793411||ene_george_andrei@yahoo.com|KTSV||Winston XStyle Blue (6mg) Pack|Yes|Yes||BWEVENT3|Palatul Bragadiru|Bucuresti|BWEVENTBA48|54|CCC EVENT WIN XST 2012|121|Horeca|0
0|CS245810|2012-07-20 00:33:54|Avram|Maria||F|1977-05-21|Bucuresti|SECTOR 1|Calea floreasca|57|||||0740985347||mihai_maria_alexandra@yahoo.com|WIBL||Winston XStyle Silver (4 mg) Pack|Yes|Yes||BWEVENT3|Palatul Bragadiru|Bucuresti|BWEVENTBA18|54|CCC EVENT WIN XST 2012|121|Horeca|0
0|CS245811|2012-07-20 00:34:29|Micu|Oana||F|1988-02-13|Bucuresti|SECTOR 6|Anul 1864|3|P11|2|2|15|0733566211||oana.mmicu@yahoo.com|WIXSB||Winston Fresh Xspresion (5mg) Pack|Yes|Yes||BWEVENT3|Palatul Bragadiru|Bucuresti|BWEVENTBA05|54|CCC EVENT WIN XST 2012|121|Horeca|0
0|CS245812|2012-07-20 00:34:53|Moga|Alexandra||F|1985-05-30|Dambovita|TARGOVISTE|Eroilor|6|12|A|3|6|0723120232||alexandra_moga85@yahoo.com|WISSS|KTSV|Winston XStyle Silver (4 mg) Pack|Yes|Yes||BWEVENT3|Palatul Bragadiru|Bucuresti|BWEVENTBA46|54|CCC EVENT WIN XST 2012|121|Horeca|0
0|CS245813|2012-07-20 00:34:57|Petrescu |Mihai||M|1986-01-30|Arges|CURTEA DE ARGES|Teilor|1|D11|A|4|10|0724045254||petrescumihaii@yahoo.com|PMBL||Winston Fresh Xspresion (5mg) Pack|Yes|Yes||BWEVENT3|Palatul Bragadiru|Bucuresti|BWEVENTBA21|54|CCC EVENT WIN XST 2012|121|Horeca|0
0|CS245814|2012-07-20 00:35:19|Ciurea|Robert||M|1987-06-21|Buzau|BUZAU|Emil garleanu|4|V53|D|||0741118314||robert_ciurea@yahoo.com|DAVCL||Winston XStyle Blue (6mg) Pack|Yes|Yes||BWEVENT3|Palatul Bragadiru|Bucuresti|BWEVENTBA08|54|CCC EVENT WIN XST 2012|121|Horeca|0
0|CS245815|2012-07-20 00:35:38|Avram|Mihai||M|1974-06-26|Bucuresti|SECTOR 1|Calea floreasca|57|||||0744649882||mihai.maria.alexandru@gmail.com|WIBL||Winston Fresh Xspresion (5mg) Pack|Yes|Yes||BWEVENT3|Palatul Bragadiru|Bucuresti|BWEVENTBA18|54|CCC EVENT WIN XST 2012|121|Horeca|0
0|CS245816|2012-07-20 00:36:48|Tinu|Angela||F|1990-04-23|Bucuresti|2|Elev stefanescu |15|452|1|2|33|0745046915||angela.tinu@yahoo.com|KTBL|DUNFCSV|Winston Fresh Xspresion (5mg) Pack|Yes|Yes||BWEVENT3|Palatul Bragadiru|Bucuresti|BWEVENTBA50|54|CCC EVENT WIN XST 2012|121|Horeca|0
0|CS245817|2012-07-20 00:36:58|Voiculet|Cristina||F|1989-12-14|Bucuresti|SECTOR 4|Calea vacaresti|186|||||0766187243||cristina_v@yahoo.com|KTBL||Winston Fresh Xspresion (5mg) Pack|Yes|Yes||BWEVENT3|Palatul Bragadiru|Bucuresti|BWEVENTBA48|54|CCC EVENT WIN XST 2012|121|Horeca|0
0|CS245818|2012-07-20 00:38:51|Vasile|Ovidiu||M|1989-05-17|Bucuresti|SECTOR 5|Regina elisabeta|25|-|-|7|34|0766406042||cz_ovidiu@yahoo.com|DUNFCSV|WIBLH|Winston XStyle Silver (4 mg) Pack|Yes|Yes||BWEVENT3|Palatul Bragadiru|Bucuresti|BWEVENTBA05|54|CCC EVENT WIN XST 2012|121|Horeca|0
0|CS245819|2012-07-20 00:38:52|Hergelegiu|Florin||M|1983-05-26|Bucuresti|SECTOR 3|Unirii|70|||||0726090186||herghe83@yahoo.com|KTBL||Winston XStyle Blue (6mg) Pack|Yes|Yes||BWEVENT3|Palatul Bragadiru|Bucuresti|BWEVENTBA08|54|CCC EVENT WIN XST 2012|121|Horeca|0
0|CS245820|2012-07-20 00:39:00|Costache|Lavinia||F|1981-01-18|Bucuresti|SECTOR 6|Inginerilor tei|8|||||0745271314||laviniacostche@yahoo.com|KTBL||Winston Fresh Xspresion (5mg) Pack|Yes|Yes||BWEVENT3|Palatul Bragadiru|Bucuresti|BWEVENTBA48|54|CCC EVENT WIN XST 2012|121|Horeca|0
0|CS245822|2012-07-20 00:39:31|Coseraru|Iarina||F|1986-03-04|Constanta|CONSTANTA|Ceairului|13|N2 |A|1|4|0727286683||iarina_coseraru@yahoo.com|KTBL|WISSS|Winston Fresh Xspresion (5mg) Pack|Yes|Yes||BWEVENT3|Palatul Bragadiru|Bucuresti|BWEVENTBA46|54|CCC EVENT WIN XST 2012|121|Horeca|0
0|CS245823|2012-07-20 00:39:32|Seitab|Mihnea||M|1987-01-21|Bucuresti|SECTOR 2|Calinului|22|||||0731304903||mihneaseitan2005@yahoo.com|DUNFCDB||Winston XStyle Blue (6mg) Pack|Yes|Yes||BWEVENT3|Palatul Bragadiru|Bucuresti|BWEVENTBA29|54|CCC EVENT WIN XST 2012|121|Horeca|0
0|CS245824|2012-07-20 00:39:58|Dodoc|Cristi||M|1986-03-24|Bucuresti|SECTOR 5|Barca|6|N190|1|0|3|0768677701||cristi86@yahoo.com|KTBL|KTBL|Winston XStyle Blue (6mg) Pack|Yes|Yes||BWEVENT3|Palatul Bragadiru|Bucuresti|BWEVENTBA25|54|CCC EVENT WIN XST 2012|121|Horeca|0
0|CS245825|2012-07-20 00:40:53|Cutescu |Corina||F|1988-11-28|Bucuresti|6|Cuppolei|5|2b|A|5|30|0763029188||kiss_cor@yahoo.com|KTBL|KENTSRD|Winston XStyle Silver (4 mg) Pack|Yes|Yes||BWEVENT3|Palatul Bragadiru|Bucuresti|BWEVENTBA50|54|CCC EVENT WIN XST 2012|121|Horeca|0
0|CS245826|2012-07-20 00:41:20|Vlascianu|Florin||M|1989-09-05|Bucuresti|SECTOR 5|Dumbrav noua|14|A7|1|7|89|0749587853||mecflorin@yahoo.com|KTBL||Winston XStyle Blue (6mg) Pack|Yes|Yes||BWEVENT3|Palatul Bragadiru|Bucuresti|BWEVENTBA21|54|CCC EVENT WIN XST 2012|121|Horeca|0
0|CS245827|2012-07-20 00:41:35|Constantin|George||M|1986-09-04|Bucuresti|SECTOR 5|Giurgiului|105|||||0763517737||george8620032004@yahoo.com|KTBL||Winston XStyle Blue (6mg) Pack|Yes|Yes||BWEVENT3|Palatul Bragadiru|Bucuresti|BWEVENTBA48|54|CCC EVENT WIN XST 2012|121|Horeca|0
0|CS245828|2012-07-20 00:42:51|Toader|Georgiana||F|1989-07-31|Bucuresti|SECTOR 6|Splaiu independentei|290|P11||2|13|0767256995||geo_denis1@yahoo.com|VIRSM||Winston XStyle Blue (6mg) Pack|Yes|Yes||BWEVENT3|Palatul Bragadiru|Bucuresti|BWEVENTBA29|54|CCC EVENT WIN XST 2012|121|Horeca|0
0|CS245829|2012-07-20 00:43:23|Teodoru|Valentina||F|1982-03-02|Prahova|PLOIESTI|Mihai bravu|9|||||0727869006||v_teodoru@yahoo.com|PARSB||Winston XStyle Silver (4 mg) Pack|Yes|Yes||BWEVENT3|Palatul Bragadiru|Bucuresti|BWEVENTBA08|54|CCC EVENT WIN XST 2012|121|Horeca|0
0|CS245830|2012-07-20 00:43:30|Varzaru|Ionut||M|1992-12-14|Bucuresti|SECTOR 5|Doina|14|18|2|4|27|0766504991||pustyu_pustiulik@yahoo.com|KTSV||Winston XStyle Blue (6mg) Pack|Yes|Yes||BWEVENT3|Palatul Bragadiru|Bucuresti|BWEVENTBA21|54|CCC EVENT WIN XST 2012|121|Horeca|0
0|CS245831|2012-07-20 00:43:31|Apetrei|Mihaela||F|1985-11-07|Bucuresti|SECTOR 1|Dimitrie cantemir|20||||144|0742154205||m.apetrie@yahoo.com|DUNFCSV|KTSV|Winston Fresh Xspresion (5mg) Pack|Yes|Yes||BWEVENT3|Palatul Bragadiru|Bucuresti|BWEVENTBA46|54|CCC EVENT WIN XST 2012|121|Horeca|0
0|CS245832|2012-07-20 00:43:40|Zamfir|Alin||M|1986-10-03|Bucuresti|SECTOR 6|Timisoara|63|OD8|F|9|240|0769744335||y0y0_y0@yahoo.com|MBRBI||Winston Fresh Xspresion (5mg) Pack|Yes|Yes||BWEVENT3|Palatul Bragadiru|Bucuresti|BWEVENTBA18|54|CCC EVENT WIN XST 2012|121|Horeca|0
0|CS245833|2012-07-20 00:44:52|Milea|Ana maria||F|1989-06-29|Bucuresti|SECTOR 6|Chibzuintei|2|A6|1|2|221|0728521330||milea.anamaria@yahoo.com|KTCON|DUNFCSV|Winston Fresh Xspresion (5mg) Pack|Yes|Yes||BWEVENT3|Palatul Bragadiru|Bucuresti|BWEVENTBA25|54|CCC EVENT WIN XST 2012|121|Horeca|0
0|CS245834|2012-07-20 00:46:02|Stan|Liviu||M|1987-10-14|Bucuresti|SECTOR 6|Timisoara|63|63|C|0|82|0765791248||iuli_ki3c18@yahoo.com|KTBL||Winston XStyle Blue (6mg) Pack|Yes|Yes||BWEVENT3|Palatul Bragadiru|Bucuresti|BWEVENTBA18|54|CCC EVENT WIN XST 2012|121|Horeca|0
0|CS245835|2012-07-20 00:46:34|Constantin|Costin||M|1982-07-06|Bucuresti|SECTOR 2|Fantanica|5|||||0731036709||costin.constantin@uti.ro|MBRGL||Winston XStyle Blue (6mg) Pack|Yes|Yes||BWEVENT3|Palatul Bragadiru|Bucuresti|BWEVENTBA08|54|CCC EVENT WIN XST 2012|121|Horeca|0
0|CS245836|2012-07-20 00:47:35|Valciu |Gabriel||M|1991-05-05|Bucuresti|SECTOR 4|Oltenitei|111|28|1|28|36|0764444015|||KTBL||Winston XStyle Blue (6mg) Pack|Yes|Yes||BWEVENT3|Palatul Bragadiru|Bucuresti|BWEVENTBA05|54|CCC EVENT WIN XST 2012|121|Horeca|0
0|CS245837|2012-07-20 00:47:50|Raducioiu|Daniel||M|1984-06-27|Bucuresti|SECTOR 4|Lamotesti|8|12|2|5|99|0721969670||danraducioiu@yahoo.com|DUNBL||Winston XStyle Blue (6mg) Pack|Yes|Yes||BWEVENT3|Palatul Bragadiru|Bucuresti|BWEVENTBA48|54|CCC EVENT WIN XST 2012|121|Horeca|0
0|CS245838|2012-07-20 00:48:25|Popovici|Ana||F|1992-01-21|Bucuresti|SECTOR 5|Draghiescu|13|||||0743073965||sylvester_ana@yahoo.com|WISSM||Winston Fresh Xspresion (5mg) Pack|Yes|Yes||BWEVENT3|Palatul Bragadiru|Bucuresti|BWEVENTBA29|54|CCC EVENT WIN XST 2012|121|Horeca|0
0|CS245839|2012-07-20 00:50:12|Constandache|Lucian||M|1982-12-15|Bucuresti|SECTOR 2|Mihai bravu|39|||||0720919461||lucian_constandache@yahoo.com|KTBL||Winston XStyle Blue (6mg) Pack|Yes|Yes||BWEVENT3|Palatul Bragadiru|Bucuresti|BWEVENTBA08|54|CCC EVENT WIN XST 2012|121|Horeca|0
0|CS245840|2012-07-20 00:50:57|Floraru|Simona||F|1979-11-04|Bucuresti|SECTOR 4|Bulevardul unirii|20|15||5|39|0724318979||simonaelenamoraru@gmail.com|VIRSM|GLMMNT|Winston Fresh Xspresion (5mg) Pack|Yes|Yes||BWEVENT3|Palatul Bragadiru|Bucuresti|BWEVENTBA25|54|CCC EVENT WIN XST 2012|121|Horeca|0
0|CS245841|2012-07-20 00:51:11|Boriga|Gabriel||M|1988-11-01|Dambovita|TARGOVISTE|Bd Unirii|56|||||0722788986||gabriel_boriga88@yahoo.com|WIBL|KTBL|Winston XStyle Silver (4 mg) Pack|Yes|Yes||BWEVENT3|Palatul Bragadiru|Bucuresti|BWEVENTBA46|54|CCC EVENT WIN XST 2012|121|Horeca|0
0|CS245842|2012-07-20 00:51:50|Ifrim|Adrian||M|1986-12-03|Bucuresti|SECTOR 1|Luptatorilor|69|-|-|2|12|0727392718||adi003@gmail.com|KTSV||Winston XStyle Blue (6mg) Pack|Yes|Yes||BWEVENT3|Palatul Bragadiru|Bucuresti|BWEVENTBA05|54|CCC EVENT WIN XST 2012|121|Horeca|0
0|CS245843|2012-07-20 00:51:58|Vamesu|Adrian||M|1978-08-29|Bucuresti|SECTOR 6|Porumnacu|9|31|2|6|91|0728882831||vamesua@yahoo.co.uk|DUNSV||Winston XStyle Silver (4 mg) Pack|Yes|Yes||BWEVENT3|Palatul Bragadiru|Bucuresti|BWEVENTBA21|54|CCC EVENT WIN XST 2012|121|Horeca|0
0|CS245844|2012-07-20 00:52:44|Andrei |Nistor||M|1985-09-09|Suceava|PAISENI|Apostol margarit|1|106|1||92|0741560679||andrei.niztor@yahoo.com|SOBCOK||Winston XStyle Blue (6mg) Pack|Yes|Yes||BWEVENT3|Palatul Bragadiru|Bucuresti|BWEVENTBA48|54|CCC EVENT WIN XST 2012|121|Horeca|0
0|CS245845|2012-07-20 00:54:01|Ivanescu|Ana||F|1986-09-13|Bucuresti|SECTOR 6|Splaiul independentei|204|||||0727393558||anaivanescu@yahoo.com|VOGLL||Winston XStyle Silver (4 mg) Pack|Yes|Yes||BWEVENT3|Palatul Bragadiru|Bucuresti|BWEVENTBA08|54|CCC EVENT WIN XST 2012|121|Horeca|0
0|CS245846|2012-07-20 00:54:04|Vlad|Marius||M|1986-05-01|Braila|BRAILA|Calea calarasilor|360|||||0764517737||george8620032004@yahoo.com|KTBL||Winston XStyle Blue (6mg) Pack|Yes|Yes||BWEVENT3|Palatul Bragadiru|Bucuresti|BWEVENTBA21|54|CCC EVENT WIN XST 2012|121|Horeca|0
0|CS245847|2012-07-20 00:54:21|Chisor|Irina||F|1988-05-05|Bucuresti|6|Spl Independentei|204|A1||||0742355249|||DUNFCSV|MBRGLFT|Winston XStyle Silver (4 mg) Pack|Yes|Yes||BWEVENT3|Palatul Bragadiru|Bucuresti|BWEVENTBA50|54|CCC EVENT WIN XST 2012|121|Horeca|0
0|CS245848|2012-07-20 00:54:54|Ispas|Dumitrita||F|1992-05-29|Bucuresti|SECTOR 6|Splaiul independentei|240|P9|||115|0731840410||dumitrita.ispas@yahoo.com|MBRFP||Winston XStyle Blue (6mg) Pack|Yes|Yes||BWEVENT3|Palatul Bragadiru|Bucuresti|BWEVENTBA29|54|CCC EVENT WIN XST 2012|121|Horeca|0
0|CS245849|2012-07-20 00:55:15|Badilas|Anca||F|1986-07-16|Tulcea|TULCEA|Frasin|12|3|B|2|15|0745185195||ancabadilas@yahoo.com|PMECBL|KTBL|Winston XStyle Blue (6mg) Pack|Yes|Yes||BWEVENT3|Palatul Bragadiru|Bucuresti|BWEVENTBA46|54|CCC EVENT WIN XST 2012|121|Horeca|0
0|CS245850|2012-07-20 00:56:11|Vlad |Oana||F|1986-01-02|Bucuresti|SECTOR 6|Apusului|45|||||0765345765||oanaonutza@yahoo.com|KTBL||Winston XStyle Blue (6mg) Pack|Yes|Yes||BWEVENT3|Palatul Bragadiru|Bucuresti|BWEVENTBA21|54|CCC EVENT WIN XST 2012|121|Horeca|0
0|CS245851|2012-07-20 00:56:51|Raluca|Gheorghe||F|1984-04-03|Bucuresti|SECTOR 2|Soseaua stefan cel mare|240|59|1|6|186|0758024099||uca3484@yahoo.com|WISV|DUNFCSV|Winston Fresh Xspresion (5mg) Pack|Yes|Yes||BWEVENT3|Palatul Bragadiru|Bucuresti|BWEVENTBA25|54|CCC EVENT WIN XST 2012|121|Horeca|0
0|CS245852|2012-07-20 00:58:35|Radu|Catalin||M|1978-09-19|Bucuresti|SECTOR 2|Laptari Tei|14|4|3|1|137|0751177270||catalin.vx@gmail.com|KTSV|WIXSS|Winston XStyle Blue (6mg) Pack|Yes|Yes||BWEVENT3|Palatul Bragadiru|Bucuresti|BWEVENTBA46|54|CCC EVENT WIN XST 2012|121|Horeca|0
0|CS245854|2012-07-20 01:02:31|Negrila |Alexandru||M|1989-06-03|Brasov|FAGARAS|Doamna Stanca|1|1|C|2|3|0743177700||alexandru.negrila@intertel.com|WIXSTBL|CAFI|Winston XStyle Blue (6mg) Pack|Yes|Yes||BWEVENT3|Palatul Bragadiru|Bucuresti|BWEVENTBA46|54|CCC EVENT WIN XST 2012|121|Horeca|0
