0|CS3680152|2013-11-28 20:03:48|MIHAI|RAZVAN||M|1986-07-16|BUCURESTI|SECTOR 4|CRICOVUL DULCE|5|||||0724083083||RAZVAN.MIHAI@VODAFONE.COM|DUNFCMBB||0 Scrumiera SOBR|Yes|Yes||EVENT121|NECONVENTIONAL|Bucuresti|BWEVENTBA206|177|CCC EVENT SOBR LAUBE 2013|121|Horeca|0
0|CS3680153|2013-11-28 20:04:27|HOTEA|IOAN||M|1990-01-18|BUCURESTI|SECTOR 3|ION BRATIANU|3|||||0735711638||AUGUSTIN.HOTEA@YAHOO.COM|DUNFCBB||0 Scrumiera SOBR|Yes|Yes||EVENT121|NECONVENTIONAL|Bucuresti|BWEVENTBA207|177|CCC EVENT SOBR LAUBE 2013|121|Horeca|0
0|CS3680154|2013-11-28 20:04:37|COSMA|STEFAN||M|1977-01-24|BUCURESTI|SECTOR 3|UNIRII|30|||||0746488170|||DUNFCMBB||0 Scrumiera SOBR|Yes|Yes||EVENT121|NECONVENTIONAL|Bucuresti|BWEVENTBA205|177|CCC EVENT SOBR LAUBE 2013|121|Horeca|0
0|CS3680156|2013-11-28 20:06:06|VISAN|ANITA||F|1971-09-24|BUCURESTI|SECTOR 5|PANDURI|21|||||0722419754|||SBSSWH||0 Scrumiera SOBR|Yes|Yes||EVENT121|NECONVENTIONAL|Bucuresti|BWEVENTBA206|177|CCC EVENT SOBR LAUBE 2013|121|Horeca|0
0|CS3680158|2013-11-28 20:06:27|MAZARE|FLORENTINA||F|1974-09-01|BUCURESTI|SECTOR 3|CIUCEA|7|L20|A|10|43|0724100938||FLORYMAZARE@GMAIL.COM|VOGABP||0 Scrumiera SOBR|Yes|Yes||EVENT121|NECONVENTIONAL|Bucuresti|BWEVENTBA207|177|CCC EVENT SOBR LAUBE 2013|121|Horeca|0
0|CS3680160|2013-11-28 20:07:53|TROFIN|CRISTIAN||M|1965-04-25|BUCURESTI|SECTOR 3|FABRICA DE CHIBRITURI|27|||||0724261575||CRISCRISTROFIN@GMAIL.COM|PMSSOR||0 Scrumiera SOBR|Yes|Yes||EVENT121|NECONVENTIONAL|Bucuresti|BWEVENTBA205|177|CCC EVENT SOBR LAUBE 2013|121|Horeca|0
0|CS3680162|2013-11-28 20:09:56|ROXANA|PRICOP||F|1983-10-10|BUCURESTI|SECTOR 4|CALEA VACARESTI|242|||||0727892639||ROXANA.PRICOP@ZF.RO|DUNFCMBB||0 Scrumiera SOBR|Yes|Yes||EVENT121|NECONVENTIONAL|Bucuresti|BWEVENTBA206|177|CCC EVENT SOBR LAUBE 2013|121|Horeca|0
0|CS3680166|2013-11-28 20:10:08|BADUCU|ANDREEA||F|1967-12-14|BUCURESTI|SECTOR 2|PERIS|2E|||||0729015571||WEIDLE@CLICKNET.RO|DAVGL||0 Scrumiera SOBR|Yes|Yes||EVENT121|NECONVENTIONAL|Bucuresti|BWEVENTBA207|177|CCC EVENT SOBR LAUBE 2013|121|Horeca|0
0|CS3680169|2013-11-28 20:10:41|TROFIN|CRISTINA||F|1973-05-22|BUCURESTI|SECTOR 5|FABRICA DE CHIBRITURI|27|||||0722600199||CRISTINA.TROFIN@OMNIASIG.RO|VOGABP||0 Scrumiera SOBR|Yes|Yes||EVENT121|NECONVENTIONAL|Bucuresti|BWEVENTBA205|177|CCC EVENT SOBR LAUBE 2013|121|Horeca|0
0|CS3680174|2013-11-28 20:12:08|SALAGEANU|CRINUTA||F|1973-09-22|BUCURESTI|SECTOR 1|NAVODARI|28-36|||||0761631480||SALAGEAN_CRINA@YAHOO.COM|SBSSWH||0 Scrumiera SOBR|Yes|Yes||EVENT121|NECONVENTIONAL|Bucuresti|BWEVENTBA206|177|CCC EVENT SOBR LAUBE 2013|121|Horeca|0
0|CS3680175|2013-11-28 20:12:09|BERGER|ANA||F|1978-07-04|BUCURESTI|SECTOR 1|CALEA FLOREASCA|128|B||3|121|0722307786||AMOCRO@YAHOO.COM|DUNFCBB||0 Scrumiera SOBR|Yes|Yes||EVENT121|NECONVENTIONAL|Bucuresti|BWEVENTBA207|177|CCC EVENT SOBR LAUBE 2013|121|Horeca|0
0|CS3680178|2013-11-28 20:13:12|DE FREIGE|ANDREEA||F|1979-11-18|BUCURESTI|SECTOR 2|CALEA FLOREASCA|188|||||0740200700||ANDREEA.DE FREIGE@GMAIL.COM|VIRSPR||0 Scrumiera SOBR|Yes|Yes||EVENT121|NECONVENTIONAL|Bucuresti|BWEVENTBA205|177|CCC EVENT SOBR LAUBE 2013|121|Horeca|0
0|CS3680180|2013-11-28 20:13:31|BINDER|ALINA||F|1988-01-26|BUCURESTI|SECTOR 1|DRUMUL AGATULUI|100|||||0742081988||ALINA.BINDER@GMAIL.COM|SBSSWH||0 Scrumiera SOBR|Yes|Yes||EVENT121|NECONVENTIONAL|Bucuresti|BWEVENTBA206|177|CCC EVENT SOBR LAUBE 2013|121|Horeca|0
0|CS3680182|2013-11-28 20:14:14|POTOLEA|RADU||M|1973-05-22|BUCURESTI|SECTOR 1|GEORGE CALINESCU|12|||||0722528815||RADU.POTOLEA@MADISONPERFUMERY.COM|SBKSGD||0 Scrumiera SOBR|Yes|Yes||EVENT121|NECONVENTIONAL|Bucuresti|BWEVENTBA207|177|CCC EVENT SOBR LAUBE 2013|121|Horeca|0
0|CS3680184|2013-11-28 20:14:47|BECHERU|EGLANTINA||F|1991-12-31|BUCURESTI|SECTOR 2|SEMILUNEI|6|||0|0|0767863245||EGLANTINA.ART@GMAIL.COM|SBKSGD||0 Scrumiera SOBR|Yes|Yes||EVENT121|NECONVENTIONAL|Bucuresti|BWEVENTBA206|177|CCC EVENT SOBR LAUBE 2013|121|Horeca|0
0|CS3680190|2013-11-28 20:18:50|RADU|RALUCA||F|1970-02-15|BUCURESTI|SECTOR 1|BUCEGI|80A|||||0723301913||RADU_RALUCA2@YAHOO.COM|SBSSWH||0 Scrumiera SOBR|Yes|Yes||EVENT121|NECONVENTIONAL|Bucuresti|BWEVENTBA205|177|CCC EVENT SOBR LAUBE 2013|121|Horeca|0
0|CS3680196|2013-11-28 20:21:29|ILIESCU|ANDREEA||F|1976-05-09|BUCURESTI|SECTOR 6|CETATEA DE BALTA|1|M24|2|6|64|0722274765||ANDREEA.ILIESCU@YAHOO.COM|SBSSWH||0 Scrumiera SOBR|Yes|Yes||EVENT121|NECONVENTIONAL|Bucuresti|BWEVENTBA207|177|CCC EVENT SOBR LAUBE 2013|121|Horeca|0
0|CS3680201|2013-11-28 20:27:10|FLAMAND|IULIA||F|1983-01-15|BUCURESTI|SECTOR 1|BORSA|24|||||0723385931||IULIA.FLAMAND@GMAIL.COM|KTBL||0 Scrumiera SOBR|Yes|Yes||EVENT121|NECONVENTIONAL|Bucuresti|BWEVENTBA205|177|CCC EVENT SOBR LAUBE 2013|121|Horeca|0
0|CS3680202|2013-11-28 20:27:47|STEFANOPOL|IOANA||F|1975-10-02|BUCURESTI|SECTOR 1|MIHALACHE|95|||||0744779076|||DAVGLS||0 Scrumiera SOBR|Yes|Yes||EVENT121|NECONVENTIONAL|Bucuresti|BWEVENTBA206|177|CCC EVENT SOBR LAUBE 2013|121|Horeca|0
0|CS3680205|2013-11-28 20:30:14|PUIU|IULIAN||M|1968-09-10|BUCURESTI|SECTOR 3|ALEEA PERISORUL|5|||||0740139001||IULIAN@REPLY.RO|DUNFCMBB||0 Scrumiera SOBR|Yes|Yes||EVENT121|NECONVENTIONAL|Bucuresti|BWEVENTBA206|177|CCC EVENT SOBR LAUBE 2013|121|Horeca|0
0|CS3680209|2013-11-28 20:32:41|GRIGORESCU|OLIVIA||F|1974-09-08|BUCURESTI|SECTOR 1|LONDRA|18A|||||0722528884||OLIVIA@NEXT.ADVERTISTING.RO|PARRSSMH||0 Scrumiera SOBR|Yes|Yes||EVENT121|NECONVENTIONAL|Bucuresti|BWEVENTBA205|177|CCC EVENT SOBR LAUBE 2013|121|Horeca|0
0|CS3680213|2013-11-28 20:34:22|BRIGHILA|ALEXANDRA||F|1986-09-22|BUCURESTI|SECTOR 6|VLADEASA|11|||||0724893404||ALEXBRIGHY@YAHOO.COM|DUNFCMBB||0 Scrumiera SOBR|Yes|Yes||EVENT121|NECONVENTIONAL|Bucuresti|BWEVENTBA206|177|CCC EVENT SOBR LAUBE 2013|121|Horeca|0
0|CS3680217|2013-11-28 20:35:40|VASILE|OVIDIU||M|1977-01-05|BUCURESTI|SECTOR 1|FELEACU|23|||||0742231132||OVI.VASILE@GMAIL.COM|MBRFPEX||0 Scrumiera SOBR|Yes|Yes||EVENT121|NECONVENTIONAL|Bucuresti|BWEVENTBA205|177|CCC EVENT SOBR LAUBE 2013|121|Horeca|0
0|CS3680244|2013-11-28 20:51:59|COMPOTECRAS|VIVIANA||F|1983-01-01|BUCURESTI|SECTOR 1|ION CAMPINEANU|22|||||0736339782||VIVIANA@TUDOR-TAILOR.COM|SBSSBK||0 Scrumiera SOBR|Yes|Yes||EVENT121|NECONVENTIONAL|Bucuresti|BWEVENTBA205|177|CCC EVENT SOBR LAUBE 2013|121|Horeca|0
0|CS3680253|2013-11-28 20:53:11|POPESCU|ANDREI|1891017420056|M|1989-10-17|BUCURESTI|SECTOR 2|COLENTINA|16|B3||1|11|0723835370||ANDREI_PTR@YAHOO.COM|DUNFCMBB||0 Scrumiera SOBR|Yes|Yes||EVENT121|NECONVENTIONAL|Bucuresti|BWEVENTBA205|177|CCC EVENT SOBR LAUBE 2013|121|Horeca|0
0|CS3680254|2013-11-28 20:53:17|SERPOIANU|DIANA||F|1984-07-24|BUCURESTI|SECTOR 3|AUREL BOTEA|1B|22|1||1|0742108066||DIANA_SERPOIANU@YAHOO.COM|VOGLL||0 Scrumiera SOBR|Yes|Yes||EVENT121|NECONVENTIONAL|Bucuresti|BWEVENTBA207|177|CCC EVENT SOBR LAUBE 2013|121|Horeca|0
0|CS3680256|2013-11-28 20:53:37|TALIAN|ALEXANDRU||M|1990-03-28|BUCURESTI|SECTOR 5|VICINA|3|||||0768668008||TALIAN.ALEX@YAHOO.COM|DUNFCMBB||0 Scrumiera SOBR|Yes|Yes||EVENT121|NECONVENTIONAL|Bucuresti|BWEVENTBA206|177|CCC EVENT SOBR LAUBE 2013|121|Horeca|0
0|CS3680258|2013-11-28 20:55:30|RADU|DENIS||M|1980-10-24|BUCURESTI|SECTOR 1|MIHAIL KOGALNICEANU|55|55|A|1|8|0722661994||RADUDENISPR@GMAIL.COM|SBKSGD||0 Scrumiera SOBR|Yes|Yes||EVENT121|NECONVENTIONAL|Bucuresti|BWEVENTBA207|177|CCC EVENT SOBR LAUBE 2013|121|Horeca|0
0|CS3680260|2013-11-28 20:57:35|BULUGIOIU|ALINA||F|1984-10-02|BUCURESTI|SECTOR 1|ZELETIN|18-20|||||0722254488||ALINA.BULUGIOIU@YAHOO.DE|VIRSPR||0 Scrumiera SOBR|Yes|Yes||EVENT121|NECONVENTIONAL|Bucuresti|BWEVENTBA205|177|CCC EVENT SOBR LAUBE 2013|121|Horeca|0
0|CS3680262|2013-11-28 20:57:50|NEAGU|ADRIANA||F|1986-12-14|BUCURESTI|SECTOR 3|PARULUI|32|||||0742222005||ADRIANA.NEAGU@MTR.RO|DUNFCBB||0 Scrumiera SOBR|Yes|Yes||EVENT121|NECONVENTIONAL|Bucuresti|BWEVENTBA207|177|CCC EVENT SOBR LAUBE 2013|121|Horeca|0
0|CS3680264|2013-11-28 20:59:13|GURAU|MIHAELA||F|1992-01-07|BUCURESTI|SECTOR 4|MARASESTI|42|1|1|1|3|0751283145||MIHAELA_GI@YAHOO.COM|SBSSPK||0 Scrumiera SOBR|Yes|Yes||EVENT121|NECONVENTIONAL|Bucuresti|BWEVENTBA205|177|CCC EVENT SOBR LAUBE 2013|121|Horeca|0
0|CS3680269|2013-11-28 21:00:52|DIANA|VUCICOVICI||F|1978-08-04|ILFOV|PIPERA|PIPERA|72|||||0723129696||DIANAVUCICOVICI@YAHOO.COM|SBKSGD||0 Scrumiera SOBR|Yes|Yes||EVENT121|NECONVENTIONAL|Bucuresti|BWEVENTBA206|177|CCC EVENT SOBR LAUBE 2013|121|Horeca|0
0|CS3680270|2013-11-28 21:01:51|BURSUC|IONUT||M|1989-04-07|BUCURESTI|SECTOR 5|KOGALNICEANU|35|||||0740797759||IONUT.BURSUC@YAHOO.COM|MBRGLT||0 Scrumiera SOBR|Yes|Yes||EVENT121|NECONVENTIONAL|Bucuresti|BWEVENTBA205|177|CCC EVENT SOBR LAUBE 2013|121|Horeca|0
0|CS3680271|2013-11-28 21:02:05|DRAGHICESCU|DAN||M|1978-08-17|BUCURESTI|SECTOR 1|MOZART|25|||||0722243006||DAN@PINKSTRIPE.RO|VOGLL||0 Scrumiera SOBR|Yes|Yes||EVENT121|NECONVENTIONAL|Bucuresti|BWEVENTBA207|177|CCC EVENT SOBR LAUBE 2013|121|Horeca|0
0|CS3680274|2013-11-28 21:02:48|VELISAR|BOGDAN||M|1983-07-06|BUCURESTI|SECTOR 5|CUPIDON|20|||||0766313181||VELISARBOGDAN@YAHOO.COM|DUNFCMBB||0 Scrumiera SOBR|Yes|Yes||EVENT121|NECONVENTIONAL|Bucuresti|BWEVENTBA206|177|CCC EVENT SOBR LAUBE 2013|121|Horeca|0
0|CS3680276|2013-11-28 21:03:03|STATACHE|OANA||F|1990-01-06|BUCURESTI|SECTOR 5|MIHAIL KOGALNICEANU|35||A|5|30|0746393072||OANA.STATACHE@GMAIL.COM|MBRGLT||0 Scrumiera SOBR|Yes|Yes||EVENT121|NECONVENTIONAL|Bucuresti|BWEVENTBA205|177|CCC EVENT SOBR LAUBE 2013|121|Horeca|0
0|CS3680278|2013-11-28 21:04:01|CONSTANTINESCU|RALUCA||F|1989-12-11|BUCURESTI|SECTOR 4|TACHE GHEORGHE|4|B41|2|2|24|0727361303||RALUCA.C@LABRASSERIE.RO|VOGABP||0 Scrumiera SOBR|Yes|Yes||EVENT121|NECONVENTIONAL|Bucuresti|BWEVENTBA207|177|CCC EVENT SOBR LAUBE 2013|121|Horeca|0
0|CS3680265|2013-11-28 21:04:35|GEORGESCU|CRISTINA|2820120410044|F|1982-01-20|BUCURESTI|SECTOR 2|FREDERIC CHOPIN|20A|||0|0|0722280253||CRISS.GEORGESCU@GMAIL.COM|DUNFCMBB||0 Scrumiera SOBR|Yes|Yes||EVENT121|NECONVENTIONAL|Bucuresti|BWEVENTBA207|177|CCC EVENT SOBR LAUBE 2013|121|Horeca|0
0|CS3680282|2013-11-28 21:05:22|PASEASCU|NICOLETA||F|1962-02-21|BUCURESTI|SECTOR 4|SERBAN VODA|43|2|5|3|140|0744634201||NICOLETAPASESCU@YAHOO.COM|KTSWITH||0 Scrumiera SOBR|Yes|Yes||EVENT121|NECONVENTIONAL|Bucuresti|BWEVENTBA205|177|CCC EVENT SOBR LAUBE 2013|121|Horeca|0
0|CS3680285|2013-11-28 21:06:52|ARDELEAN|MARIA||F|1967-07-24|BUCURESTI|SECTOR 3|AGRICULTORI|117|81|2|5|53|0744475033||MARINAA@INTRAROM.RO|KTBL||0 Scrumiera SOBR|Yes|Yes||EVENT121|NECONVENTIONAL|Bucuresti|BWEVENTBA205|177|CCC EVENT SOBR LAUBE 2013|121|Horeca|0
0|CS3680286|2013-11-28 21:08:08|DUMITRU|MIHAI||M|1985-02-02|BUCURESTI|SECTOR 3|NEGRU VODA|2A|C3|1|4|18|0723660330||MIHAICD@GMAIL.COM|KTBL||0 Scrumiera SOBR|Yes|Yes||EVENT121|NECONVENTIONAL|Bucuresti|BWEVENTBA207|177|CCC EVENT SOBR LAUBE 2013|121|Horeca|0
0|CS3680289|2013-11-28 21:09:32|DAVID|GHEORGHE||M|1958-04-04|BUCURESTI|SECTOR 1|STIRBEI VODA|80|||||0733558684|||KTAPBK||0 Scrumiera SOBR|Yes|Yes||EVENT121|NECONVENTIONAL|Bucuresti|BWEVENTBA205|177|CCC EVENT SOBR LAUBE 2013|121|Horeca|0
0|CS3680299|2013-11-28 21:12:07|RASADEAN|RALUCA||F|1978-07-19|BUCURESTI|SECTOR 1|UNIRII|54|||||0726233812|||SBSSWH||0 Scrumiera SOBR|Yes|Yes||EVENT121|NECONVENTIONAL|Bucuresti|BWEVENTBA205|177|CCC EVENT SOBR LAUBE 2013|121|Horeca|0
0|CS3680306|2013-11-28 21:14:20|BALEA|GEORGIANA||F|1988-03-19|BUCURESTI|SECTOR 2|CEAIKOVSKI|8|||||0733685987||GEORGIANA.BALEA88@GMAIL.COM|KTSWIT||0 Scrumiera SOBR|Yes|Yes||EVENT121|NECONVENTIONAL|Bucuresti|BWEVENTBA206|177|CCC EVENT SOBR LAUBE 2013|121|Horeca|0
0|CS3680307|2013-11-28 21:14:23|MOLDOVEANU|ADINA||F|1986-01-01|BUCURESTI|SECTOR 5|IOANA TANASIU|38|||||0734033033||MOLDOVEANU.ADINA@GMAIL.COM|SOBCOK||0 Scrumiera SOBR|Yes|Yes||EVENT121|NECONVENTIONAL|Bucuresti|BWEVENTBA205|177|CCC EVENT SOBR LAUBE 2013|121|Horeca|0
0|CS3680313|2013-11-28 21:17:23|COJOCARU|MIHAI||M|1979-09-05|BUCURESTI|SECTOR 1|HORIA MACELARIU|1-3|||||0745003830||MIHAIULUI@YAHOO.COM|DAVGL||0 Scrumiera SOBR|Yes|Yes||EVENT121|NECONVENTIONAL|Bucuresti|BWEVENTBA207|177|CCC EVENT SOBR LAUBE 2013|121|Horeca|0
0|CS3680315|2013-11-28 21:17:50|IOANA|GRAMA||F|1985-06-06|BUCURESTI|SECTOR 3|MIRCEA VODA|42|||||0722690685||IOANA.GRAMA@HOTMAIL.COM|VOGLL||0 Scrumiera SOBR|Yes|Yes||EVENT121|NECONVENTIONAL|Bucuresti|BWEVENTBA206|177|CCC EVENT SOBR LAUBE 2013|121|Horeca|0
0|CS3680317|2013-11-28 21:19:41|ION|ALEXANDRA||F|1991-10-09|BUCURESTI|SECTOR 3|RM VALCEA|1|||||0722825736||ION.IULIAALEXANDRA@YAHOO.RO|DAVSVSS||0 Scrumiera SOBR|Yes|Yes||EVENT121|NECONVENTIONAL|Bucuresti|BWEVENTBA206|177|CCC EVENT SOBR LAUBE 2013|121|Horeca|0
0|CS3680321|2013-11-28 21:20:59|CHERMENSCHI|ILEANA||F|1982-07-18|BUCURESTI|SECTOR 1|FINLANDA|2|||||0752094988||ILEANA.GHEMENSCHI@GMAIL.COM|MBRFP||0 Scrumiera SOBR|Yes|Yes||EVENT121|NECONVENTIONAL|Bucuresti|BWEVENTBA207|177|CCC EVENT SOBR LAUBE 2013|121|Horeca|0
0|CS3680332|2013-11-28 21:26:39|SLAVU|SIMONA||F|1987-07-16|BUCURESTI|SECTOR 4|LUICA|41|61|1|2|16|0754022781||TALIANSIMONA@YAHOO.COM|DAVGLS||0 Scrumiera SOBR|Yes|Yes||EVENT121|NECONVENTIONAL|Bucuresti|BWEVENTBA207|177|CCC EVENT SOBR LAUBE 2013|121|Horeca|0
0|CS3680334|2013-11-28 21:27:19|VARDIE|DANIELA||F|1985-04-01|BUCURESTI|SECTOR 3|FLORILOR|34|||||0756432098||DANIELA_VARDIE@YAHOO.COM|SOBBR||0 Scrumiera SOBR|Yes|Yes||EVENT121|NECONVENTIONAL|Bucuresti|BWEVENTBA205|177|CCC EVENT SOBR LAUBE 2013|121|Horeca|0
0|CS3680337|2013-11-28 21:28:33|SLABU|CRISTIAN||M|1980-07-09|BUCURESTI|SECTOR 4|LUICA|41|61|1|2|16|0767288301||SLABU_CRISTIAN@YAHOO.COM|DUNFCBB||0 Scrumiera SOBR|Yes|Yes||EVENT121|NECONVENTIONAL|Bucuresti|BWEVENTBA207|177|CCC EVENT SOBR LAUBE 2013|121|Horeca|0
0|CS3680341|2013-11-28 21:31:35|DRACEA|LAURA||F|1962-08-13|BRASOV|BRASOV|GARII NOUA|15|||||0723241924||DRACEA.LAURA@YAHOO.COM|DUNFCBB||0 Scrumiera SOBR|Yes|Yes||EVENT121|NECONVENTIONAL|Bucuresti|BWEVENTBA205|177|CCC EVENT SOBR LAUBE 2013|121|Horeca|0
0|CS3680362|2013-11-28 21:45:05|VRANCEANU|VALENTIN||M|1982-01-01|BUCURESTI|SECTOR 5|DOCTOR GHIULAMILA|12|||||0745655569||VALENTINVRANCEANU@YAHOO.COM|SBKSBK||0 Scrumiera SOBR|Yes|Yes||EVENT121|NECONVENTIONAL|Bucuresti|BWEVENTBA205|177|CCC EVENT SOBR LAUBE 2013|121|Horeca|0
