0|CS76628|2012-04-11 13:05:47|Olteanu|Bogdan||M|1979-04-08|Dolj|CRAIOVA|N. coculescu|12|68b2|3||7|0769699538||bogumil_bog@yahoo.com|WISSS||Masa laptop cu ventilator|Yes|Yes||DJ006690|REBONIS CORP SRL|Craiova|DJHRKBA09|10|CCC HRK WIN FAM Campus 2012|121|Horeca|0
0|CS76630|2012-04-11 13:08:46|Paraschivu|Luiza||F|1980-07-17|Dolj|CRAIOVA|Anul 1848|4|A|4||3|0741088395||luisittaa@yahoo.com|WISSB||Masa laptop cu ventilator|Yes|Yes||DJ006690|REBONIS CORP SRL|Craiova|DJHRKBA09|10|CCC HRK WIN FAM Campus 2012|121|Horeca|0
0|CS76640|2012-04-11 13:09:56|Dumitru|Cornel||M|1978-09-28|Bucuresti|SECTOR 5|Vicina|2|29|1|3|21|0765318109|||WICL|SBSSBK|Boxe (Campus)|Yes|Yes||BW014101|RTI GROUP TRADING SRL|Bucuresti|BWHRKBA31|10|CCC HRK WIN FAM Campus 2012|121|Horeca|0
0|CS76641|2012-04-11 13:11:59|Cruceru|Ion||M|1961-04-05|Dolj|CRAIOVA|Campia islaz|107|||0|0|0763144322|||WISSS||Masa laptop cu ventilator|Yes|Yes||DJ006690|REBONIS CORP SRL|Craiova|DJHRKBA09|10|CCC HRK WIN FAM Campus 2012|121|Horeca|0
0|CS76642|2012-04-11 13:15:43|Papakoca|Velako||M|1983-02-17|Bucuresti|SECTOR 6|Splaiul independentei|204|B1|3|3|308|0762142360||velko83@yahoo.com|WIBLH||Cooler (Campus)|Yes|Yes||BW014101|RTI GROUP TRADING SRL|Bucuresti|BWHRKBA31|10|CCC HRK WIN FAM Campus 2012|121|Horeca|0
0|CS76643|2012-04-11 13:17:06|Micu|Oana sorina||F|1969-11-24|Dolj|CRAIOVA|Arhitect duilu marcu||14|1||12|0764388352|||WIBL||Masa laptop cu ventilator|Yes|Yes||DJ006690|REBONIS CORP SRL|Craiova|DJHRKBA09|10|CCC HRK WIN FAM Campus 2012|121|Horeca|0
0|CS76644|2012-04-11 13:19:45|Nicola|Alin||M|1978-07-04|Dolj|CRAIOVA|Anul 1848|6|B|1|3|7|0735009105||alin.nicola@aquila.ro|WIBL||Masa laptop cu ventilator|Yes|Yes||DJ006690|REBONIS CORP SRL|Craiova|DJHRKBA09|10|CCC HRK WIN FAM Campus 2012|121|Horeca|0
0|CS76645|2012-04-11 13:20:02|Trcoska|Tatjana||F|1983-08-31|Bucuresti|SECTOR 6|Splaiul independentei|204|B1|7|7|714|0765206499||tajtush@yahoo.com|WIBL||Cooler (Campus)|Yes|Yes||BW014101|RTI GROUP TRADING SRL|Bucuresti|BWHRKBA31|10|CCC HRK WIN FAM Campus 2012|121|Horeca|0
0|CS76646|2012-04-11 13:23:04|Diaconescu|Dumitru||M|1971-12-18|Dolj|CRAIOVA|Aleea teatrului|6|T3A|1|0|18|0764470418||fanediaconescu@yahoo.com|WISSB||Rucsac (Campus)|Yes|Yes||DJ006690|REBONIS CORP SRL|Craiova|DJHRKBA09|10|CCC HRK WIN FAM Campus 2012|121|Horeca|0
0|CS76647|2012-04-11 13:24:56|Stan |Elena-andreea||F|1989-01-04|Arges|CURTEA DE ARGES|Valera danului|161|||||0769277731||elenaandreeastan@yahoo.com|WIBLH|KTBLH|Masa laptop fara ventilator|Yes|Yes||BW014101|RTI GROUP TRADING SRL|Bucuresti|BWHRKBA31|10|CCC HRK WIN FAM Campus 2012|121|Horeca|0
0|CS76648|2012-04-11 13:37:48|Boldu|Marian||M|1975-02-20|Dolj|CRAIOVA|Elena farago|1a|125b|1||8|0766762817|||WIBL||Rucsac (Campus)|Yes|Yes||DJ006690|REBONIS CORP SRL|Craiova|DJHRKBA09|10|CCC HRK WIN FAM Campus 2012|121|Horeca|0
0|CS76649|2012-04-11 13:39:29|Roman|Eugen||M|1978-11-09|Dolj|CRAIOVA|Madona dudu|2|2|1||8|0764033116|||WIBL||Rucsac (Campus)|Yes|Yes||DJ006690|REBONIS CORP SRL|Craiova|DJHRKBA09|10|CCC HRK WIN FAM Campus 2012|121|Horeca|0
0|CS76650|2012-04-11 13:40:26|Popina|Carmen-andreea||F|1990-11-20|Buzau|Buzau|Stadionului||39|A|Pa|4|0761708078||nasty_angel_deea@yahoo.com|WIBL|KTBL|Masa laptop fara ventilator|Yes|Yes||BW014101|RTI GROUP TRADING SRL|Bucuresti|BWHRKBA31|10|CCC HRK WIN FAM Campus 2012|121|Horeca|0
0|CS76651|2012-04-11 13:42:48|Ceausu|Adriana||F|1974-03-09|Dolj|CRAIOVA|Dr ion cernatescu|9|79|1|0|7|0724009374|||WIXSB||Masa laptop cu ventilator|Yes|Yes||DJ006690|REBONIS CORP SRL|Craiova|DJHRKBA09|10|CCC HRK WIN FAM Campus 2012|121|Horeca|0
0|CS76652|2012-04-11 13:48:36|Serban|Alexandru stefanita||M|1987-06-19|Buzau|BUZAU|Unirii||39A||2|10|0765434566||steff1@windowslive.com|WIBLH|KTBL|Masa laptop fara ventilator|Yes|Yes||BW014101|RTI GROUP TRADING SRL|Bucuresti|BWHRKBA31|10|CCC HRK WIN FAM Campus 2012|121|Horeca|0
0|CS76653|2012-04-11 13:55:54|Pops|Florentina-cristina||F|1991-01-24|Buzau|BUZAU|Unirii||18d||5|20|0764440171||kristinick_loveu@yahoo.com|WIBL||Cooler (Campus)|Yes|Yes||BW014101|RTI GROUP TRADING SRL|Bucuresti|BWHRKBA31|10|CCC HRK WIN FAM Campus 2012|121|Horeca|0
0|CS76654|2012-04-11 14:02:20|Stuparu|Alin||M|1984-10-22|Dolj|CRAIOVA|Electroputere||K6|1|3|13|0751167801||marius.stuparu@daj.rowater.ro|WISV||Rucsac (Campus)|Yes|Yes||DJ006690|REBONIS CORP SRL|Craiova|DJHRKBA09|10|CCC HRK WIN FAM Campus 2012|121|Horeca|0
0|CS76655|2012-04-11 14:05:00|Stuparu|Corina||F|1986-05-11|Dolj|CRAIOVA|Electroputere||K6|1|3|13|0727778339||cooryna_21@yahoo.com|WISV||Rucsac (Campus)|Yes|Yes||DJ006690|REBONIS CORP SRL|Craiova|DJHRKBA09|10|CCC HRK WIN FAM Campus 2012|121|Horeca|0
0|CS76656|2012-04-11 14:16:24|Ivancu|Cosmin florin||M|1987-06-27|Teleorman|ROSIORI DE VEDE|Alea c.f.r||Pm2|B|2|30|0722350868||kapital_200@yahoo.com|WIBLH||Cooler (Campus)|Yes|Yes||BW014101|RTI GROUP TRADING SRL|Bucuresti|BWHRKBA31|10|CCC HRK WIN FAM Campus 2012|121|Horeca|0
0|CS76657|2012-04-11 14:29:17|Ispas |Bianca||F|1985-03-03|Dolj|CRAIOVA|Oltenia|19|110b|1||2|0741675427||just_bianca@yahoo.com|KTBL|WIBL|Rucsac (Campus)|Yes|Yes||DJ006690|REBONIS CORP SRL|Craiova|DJHRKBA09|10|CCC HRK WIN FAM Campus 2012|121|Horeca|0
0|CS76658|2012-04-11 14:31:53|Ispas|Marius Catalin||M|1980-02-08|Dolj|CRAIOVA|Oltenia|19|110b|1||2|0741675427||catalin_ipsa@yahoo.com|KTBL|WIBLH|Rucsac (Campus)|Yes|Yes||DJ006690|REBONIS CORP SRL|Craiova|DJHRKBA09|10|CCC HRK WIN FAM Campus 2012|121|Horeca|0
0|CS76659|2012-04-11 14:34:22|Ispas|Marieta||F|1956-09-05|Dolj|CRAIOVA|Olteniei|19|110b|1||2|0741675427|||WICLH||Masa laptop cu ventilator|Yes|Yes||DJ006690|REBONIS CORP SRL|Craiova|DJHRKBA09|10|CCC HRK WIN FAM Campus 2012|121|Horeca|0
0|CS76660|2012-04-11 14:37:28|Gherasim|Catalin||M|1976-08-20|Bucuresti|SECTOR 6|Tirgu neamt|24|Td28|1|9|56|0723256556||sax@k.ro|WIBL||Cooler (Campus)|Yes|Yes||BW014101|RTI GROUP TRADING SRL|Bucuresti|BWHRKBA31|10|CCC HRK WIN FAM Campus 2012|121|Horeca|0
0|CS76661|2012-04-11 14:37:29|OPREA|Marius claudiu||M|1975-08-11|Dolj|CRAIOVA|Oltet|15|||0|0|0764492801|||WICL||Rucsac (Campus)|Yes|Yes||DJ006690|REBONIS CORP SRL|Craiova|DJHRKBA09|10|CCC HRK WIN FAM Campus 2012|121|Horeca|0
0|CS76662|2012-04-11 14:43:46|Gunache|Nicusor||M|1984-02-28|Braila|BRAILA|Rosiorilor|19|B18|3|Pa|41|0765564904||tzoci2005@yahoo.com|WIBLH||Cooler (Campus)|Yes|Yes||BW014101|RTI GROUP TRADING SRL|Bucuresti|BWHRKBA31|10|CCC HRK WIN FAM Campus 2012|121|Horeca|0
0|CS76663|2012-04-11 14:46:48|Preda|Silviu marian||M|1980-04-25|Calarasi|OLTENITA|Republicii|64|G|A|3|15|0742745848||silviu.preda@rune.ro|WIBL||Masa laptop fara ventilator|Yes|Yes||BW014101|RTI GROUP TRADING SRL|Bucuresti|BWHRKBA31|10|CCC HRK WIN FAM Campus 2012|121|Horeca|0
0|CS76664|2012-04-11 14:51:32|Bucur|Iulian||M|1989-11-19|Ialomita|SLOBOZIA|Ronda||44|C|4|20|0769670854||iulianxbucur@gmail.com|WISV||Cooler (Campus)|Yes|Yes||BW014101|RTI GROUP TRADING SRL|Bucuresti|BWHRKBA31|10|CCC HRK WIN FAM Campus 2012|121|Horeca|0
0|CS76665|2012-04-11 14:56:43|Grumazescu|Alexandru ||M|1990-05-18|Neamt|TARGU NEAMT|Mihai eminescu||M8|C|2|31|0743997481||alexandru.grumazescu@yahoo.com|WICL|MBRRDH|Masa laptop fara ventilator|Yes|Yes||BW014101|RTI GROUP TRADING SRL|Bucuresti|BWHRKBA31|10|CCC HRK WIN FAM Campus 2012|121|Horeca|0
0|CS76666|2012-04-11 15:03:43|Jernea|Daniel||M|1983-10-06|Buzau|RAMNICU SARAT|Lalelelor|H5|A|1|3|3|0727372560|||WIBL|KTBL|Cooler (Campus)|Yes|Yes||BW014101|RTI GROUP TRADING SRL|Bucuresti|BWHRKBA31|10|CCC HRK WIN FAM Campus 2012|121|Horeca|0
0|CS76667|2012-04-11 15:06:30|Serban|Stefan||M|1985-03-14|Bucuresti|SECTOR 6|Cetatuia|4|M22|2|5|95|0764807456||serbanstefan@yahoo.com|WIBL||Cooler (Campus)|Yes|Yes||BW014101|RTI GROUP TRADING SRL|Bucuresti|BWHRKBA31|10|CCC HRK WIN FAM Campus 2012|121|Horeca|0
0|CS76668|2012-04-11 15:12:18|Vaduva|George-dragos||M|1987-01-16|Buzau|RAMNICU SARAT|Jideni|0|||||0762857014||vaduva_dragos3000@yahoo.com|WIBL||Boxe (Campus)|Yes|Yes||BW014101|RTI GROUP TRADING SRL|Bucuresti|BWHRKBA31|10|CCC HRK WIN FAM Campus 2012|121|Horeca|0
0|CS76670|2012-04-11 15:17:38|Didu|Catalin||M|1977-11-16|Dolj|CRAIOVA|Dacia|90|M4|1|2|10|0763663525||diducatalin@yahoo.com|MBRFP|WIBLH|Rucsac (Campus)|Yes|Yes||DJ006690|REBONIS CORP SRL|Craiova|DJHRKBA09|10|CCC HRK WIN FAM Campus 2012|121|Horeca|0
0|CS76671|2012-04-11 15:18:37|Macsim|Gabriel||M|1989-04-26|Iasi|TOMESTI|Tomesti||11||||0774709082|||WICL||Boxe (Campus)|Yes|Yes||IS005057|CORSO TERASA SA|Iasi|ISHRKBA15|10|CCC HRK WIN FAM Campus 2012|121|Horeca|0
0|CS76672|2012-04-11 15:19:42|DiduCatalin|Alina||F|1972-12-21|Dolj|CRAIOVA|Dacia|90|M4|1|2|10|0744511921|||WISSS||Boxe (Campus)|Yes|Yes||DJ006690|REBONIS CORP SRL|Craiova|DJHRKBA09|10|CCC HRK WIN FAM Campus 2012|121|Horeca|0
0|CS76675|2012-04-11 15:22:03|Chirila|Andrei||M|1986-11-17|Iasi|IASI|Tomesti||14|B|2|9|0740498434|||WICLH||Boxe (Campus)|Yes|Yes||IS005057|CORSO TERASA SA|Iasi|ISHRKBA15|10|CCC HRK WIN FAM Campus 2012|121|Horeca|0
0|CS76676|2012-04-11 15:22:24|Brindusoiu|Gabriela||F|1938-08-19|Timis|TIMISOARA|Bv eroilor|7d||||7||0256495499||WIBLH||Rucsac (Campus)|Yes|Yes||TM003185|CAFE ATU GRUP SRL|Timisoara|TMHRKBA11|10|CCC HRK WIN FAM Campus 2012|121|Horeca|0
0|CS77386|2012-04-11 15:22:24|Brindusoiu|Gabriela||F|1938-08-19|Timis|TIMISOARA|Bv eroilor|7d||||7||0256495499||WIBLH||Rucsac (Campus)|Yes|Yes||TM003185|CAFE ATU GRUP SRL|Timisoara|TMHRKBA11|10|CCC HRK WIN FAM Campus 2012|121|Horeca|0
0|CS76673|2012-04-11 15:22:24|Brindusoiu|Gabriela||F|1938-08-19|Timis|TIMISOARA|Bv eroilor|7d||||7||0256495499||WIBLH||Rucsac (Campus)|Yes|Yes||TM003185|CAFE ATU GRUP SRL|Timisoara|TMHRKBA11|10|CCC HRK WIN FAM Campus 2012|121|Horeca|0
0|CS76677|2012-04-11 15:26:39|Pascu|Andrei daniel||M|1985-11-06|Iasi|IASI|Tudor vladimirescu||||||0741235970||pascu_ei@yahoo.com|WIBL||Masa laptop cu ventilator|Yes|Yes||IS005057|CORSO TERASA SA|Iasi|ISHRKBA15|10|CCC HRK WIN FAM Campus 2012|121|Horeca|0
0|CS76678|2012-04-11 15:31:51|Barbieru|Constantin||M|1969-11-27|Iasi|IASI|Sucidava|13|||||0740082034|||WIBL||Masa laptop cu ventilator|Yes|Yes||IS005057|CORSO TERASA SA|Iasi|ISHRKBA15|10|CCC HRK WIN FAM Campus 2012|121|Horeca|0
0|CS76679|2012-04-11 15:35:31|Tanasie|Roxana||F|1981-08-08|Dolj|CRAIOVA|Potelu|165|R5||0|6|0735527152||tanasieancaroxana@yahoo.com|WISSB||Boxe (Campus)|Yes|Yes||DJ006690|REBONIS CORP SRL|Craiova|DJHRKBA09|10|CCC HRK WIN FAM Campus 2012|121|Horeca|0
0|CS76680|2012-04-11 15:35:55|Burtica|Nicu||M|1967-08-01|Timis|TIMISOARA|Fedrea|11|||0|0|0726257405|||WIBLH||Masa laptop cu ventilator|Yes|Yes||TM003185|CAFE ATU GRUP SRL|Timisoara|TMHRKBA11|10|CCC HRK WIN FAM Campus 2012|121|Horeca|0
0|CS76681|2012-04-11 15:36:24|Bugeac|Teodor||M|1986-05-13|Iasi|IASI|Moara de foc|17|597|C|1|6|0742883662||teodor_bugeac@yahoo.com|WISV|MBRFP|Rucsac (Campus)|Yes|Yes||IS004867|BEER GARDEN SRL|Iasi|ISHRKBA14|10|CCC HRK WIN FAM Campus 2012|121|Horeca|0
0|CS76683|2012-04-11 15:36:25|Bejan|Rodica||F|1972-01-04|Iasi|IASI|Aleea basarsbi|1|||||0747387230|||WIBL||Masa laptop cu ventilator|Yes|Yes||IS005057|CORSO TERASA SA|Iasi|ISHRKBA15|10|CCC HRK WIN FAM Campus 2012|121|Horeca|0
0|CS76684|2012-04-11 15:37:10|Tanasie|Sorin||M|1980-12-09|Dolj|CRAIOVA|Potelu|165|R5|1|2|6|0741166646||sorin_tanasie@yahoo.com|WICLH||Boxe (Campus)|Yes|Yes||DJ006690|REBONIS CORP SRL|Craiova|DJHRKBA09|10|CCC HRK WIN FAM Campus 2012|121|Horeca|0
0|CS76685|2012-04-11 15:39:24|Bustea agha al nimer|Emir||M|1979-05-06|Timis|TIMISOARA|Aurelianus|2||B||6|0721927532|||WIBLH||Rucsac (Campus)|Yes|Yes||TM003185|CAFE ATU GRUP SRL|Timisoara|TMHRKBA11|10|CCC HRK WIN FAM Campus 2012|121|Horeca|0
0|CS76686|2012-04-11 15:39:47|Toma|Ana maria||F|1988-04-17|Iasi|Iasi|Socola|8|C2|E|3|14|0743611246||mariuca_eu@yahoo.com|WIBL||Boxe (Campus)|Yes|Yes||IS005057|CORSO TERASA SA|Iasi|ISHRKBA15|10|CCC HRK WIN FAM Campus 2012|121|Horeca|0
0|CS76688|2012-04-11 15:45:51|Postolache|Mihai||M|1985-11-06|Vaslui|VASLUI|Aleea rozelor|17|X13|A|3|16|0748998745||mihai22000044@yahoo.com|WIBL|KTBL|Rucsac (Campus)|Yes|Yes||IS004867|BEER GARDEN SRL|Iasi|ISHRKBA14|10|CCC HRK WIN FAM Campus 2012|121|Horeca|0
0|CS76690|2012-04-11 15:47:24|Kotzur|Eugen||M|1949-10-05|Iasi|IASI|Vasile lupu|104|D5|A|||0721220785|||WIBL||Masa laptop cu ventilator|Yes|Yes||IS005057|CORSO TERASA SA|Iasi|ISHRKBA15|10|CCC HRK WIN FAM Campus 2012|121|Horeca|0
0|CS76691|2012-04-11 15:50:19|Groza|Paul||M|1992-03-01|Timis|TIMISOARA|Daliei|9|||||0723024780|||WISSB||Boxe (Campus)|Yes|Yes||TM003185|CAFE ATU GRUP SRL|Timisoara|TMHRKBA11|10|CCC HRK WIN FAM Campus 2012|121|Horeca|0
0|CS76693|2012-04-11 15:57:46|Sima|Laurentiu-florentin||M|1981-02-14|Bucuresti|SECTOR 3|Iuliu maniu|192|B|1|10|48|0728367511||smlaurentiu@yahoo.com|WIBL||Boxe (Campus)|Yes|Yes||BW014101|RTI GROUP TRADING SRL|Bucuresti|BWHRKBA31|10|CCC HRK WIN FAM Campus 2012|121|Horeca|0
0|CS76696|2012-04-11 16:00:59|Dumitrescu|Mirela nicoleta||F|1987-09-03|Bucuresti|SECTOR 6|Dreptatii|10|O3|1|3|20|0766625472||pantelimon.mirela@gmail.com|WISSM||Boxe (Campus)|Yes|Yes||BW014101|RTI GROUP TRADING SRL|Bucuresti|BWHRKBA31|10|CCC HRK WIN FAM Campus 2012|121|Horeca|0
0|CS76699|2012-04-11 16:09:10|Caramasiu|Aura nicoleta||F|1976-06-29|Timis|TIMISOARA|Martir c varcus|3||C||8|0723354845||aura_carabosiu@yahoo.com|WIBLH||Boxe (Campus)|Yes|Yes||TM003185|CAFE ATU GRUP SRL|Timisoara|TMHRKBA11|10|CCC HRK WIN FAM Campus 2012|121|Horeca|0
0|CS76700|2012-04-11 16:11:09|Carabasiu|Octavian||M|1974-11-01|Timis|TIMISOARA|Martir c varcus|3||C|0|8|0723912204||carabasiu_nelu@yahoo.com|WIBLH||Rucsac (Campus)|Yes|Yes||TM003185|CAFE ATU GRUP SRL|Timisoara|TMHRKBA11|10|CCC HRK WIN FAM Campus 2012|121|Horeca|0
0|CS76702|2012-04-11 16:14:56|Bucos|Andreea||F|1988-11-19|Iasi|IASI|Alexandru giugaru|4|5|C|4|48|0769331539||andreea.bucos@yahoo.com|WIBL|DUNFCDB|Masa laptop cu ventilator|Yes|Yes||IS004867|BEER GARDEN SRL|Iasi|ISHRKBA14|10|CCC HRK WIN FAM Campus 2012|121|Horeca|0
0|CS76704|2012-04-11 16:15:37|Bejan|Vasile||M|1969-12-20|Iasi|IASI|Aleea basarabi|1|M1|B||2|0753117575|||WIBL||Boxe (Campus)|Yes|Yes||IS005057|CORSO TERASA SA|Iasi|ISHRKBA15|10|CCC HRK WIN FAM Campus 2012|121|Horeca|0
0|CS76705|2012-04-11 16:19:48|Donose|Andrei||M|1988-01-19|Iasi|IASI|Tudor vladimirescu||T4||0|221|0762649310||andreydonose_88@yahoo.com|WIBL|KTBL|Masa laptop cu ventilator|Yes|Yes||IS004867|BEER GARDEN SRL|Iasi|ISHRKBA14|10|CCC HRK WIN FAM Campus 2012|121|Horeca|0
0|CS76709|2012-04-11 16:25:23|Ganea|Petru||M|1958-06-06|Iasi|DANCU|Danci||C4|A|2|9|0332453236|0332453236||WIBL||Boxe (Campus)|Yes|Yes||IS005057|CORSO TERASA SA|Iasi|ISHRKBA15|10|CCC HRK WIN FAM Campus 2012|121|Horeca|0
0|CS76710|2012-04-11 16:27:03|Paraschiv|Doris-alina||F|1990-04-02|Ialomita|SLOBOZIA|Mateo basarab|64|G|C|4|17|0732878124||doris_paraschiv@yahoo.com|WISSM|PARRSSHMN|Boxe (Campus)|Yes|Yes||BW014101|RTI GROUP TRADING SRL|Bucuresti|BWHRKBA31|10|CCC HRK WIN FAM Campus 2012|121|Horeca|0
0|CS76712|2012-04-11 16:27:52|Rusu|George adrian||M|1991-06-12|Timis|TIMISOARA|1decembrie|47|||||0725497663|||WICLH||Masa laptop cu ventilator|Yes|Yes||TM003185|CAFE ATU GRUP SRL|Timisoara|TMHRKBA11|10|CCC HRK WIN FAM Campus 2012|121|Horeca|0
0|CS76716|2012-04-11 16:36:05|Obogeanu|George||M|1988-12-18|Galati|GALATI|General eremia grigorescu|3|D5d|1|2|9|0762989972||georgeobogeanu@gmail.com|WIBL||Boxe (Campus)|Yes|Yes||BW014101|RTI GROUP TRADING SRL|Bucuresti|BWHRKBA31|10|CCC HRK WIN FAM Campus 2012|121|Horeca|0
0|CS76717|2012-04-11 16:38:59|Barca|Codrut||M|1970-08-19|Iasi|Iasi|Tomesti||28|D|3|15|0753071805||amedeo.codrut@yahoo.com|WIBLH||Masa laptop cu ventilator|Yes|Yes||IS005057|CORSO TERASA SA|Iasi|ISHRKBA15|10|CCC HRK WIN FAM Campus 2012|121|Horeca|0
0|CS76718|2012-04-11 16:42:53|Alexandroniu|Irina||F|1989-06-07|Iasi|IASI|Stejar|55|M1|C|2|10|0755783701||btk_psychotic_doll@yahoo.com|WIBL||Rucsac (Campus)|Yes|Yes||IS004867|BEER GARDEN SRL|Iasi|ISHRKBA14|10|CCC HRK WIN FAM Campus 2012|121|Horeca|0
0|CS76722|2012-04-11 16:49:00|Lazar|Daniel||M|1974-10-29|Bucuresti|SECTOR 3|Mircea voda|37|M29|B|8|65|0730587731||dan29_74@yahoo.com|WISV||Cooler (Campus)|Yes|Yes||BW007819|DON OVIDIU SRL|Bucuresti|BWHRKBA32|10|CCC HRK WIN FAM Campus 2012|121|Horeca|0
0|CS76725|2012-04-11 16:52:49|Bolocan|Alina-valentina||F|1991-04-18|Giurgiu|GIURGIU|1decembrie 1918||312|A|5|23|0760900890||toki_princess_alintutza@yahoo.ro|WIBL||Cooler (Campus)|Yes|Yes||BW014101|RTI GROUP TRADING SRL|Bucuresti|BWHRKBA31|10|CCC HRK WIN FAM Campus 2012|121|Horeca|0
0|CS76728|2012-04-11 17:03:24|Lupu|Marius||M|1989-08-10|Iasi|Iasi|Simion barnutiu|90|||0|0|0741452069||tipul_05@yahoo.com|WIBL||Boxe (Campus)|Yes|Yes||IS005057|CORSO TERASA SA|Iasi|ISHRKBA15|10|CCC HRK WIN FAM Campus 2012|121|Horeca|0
0|CS76729|2012-04-11 17:05:54|Alamaru|Roxana||F|1993-10-04|Iasi|IASI|Simion barnutiu|90|||||0754357193||alamaruroxanaekena@yahoo.com|WIBL||Rucsac (Campus)|Yes|Yes||IS005057|CORSO TERASA SA|Iasi|ISHRKBA15|10|CCC HRK WIN FAM Campus 2012|121|Horeca|0
0|CS76730|2012-04-11 17:10:26|Dumitrescu|Bogdan||M|1986-05-01|Bucuresti|SECTOR 6|Dreptatii|10|O3|1|3|20|0766721709||bogdan_dumitrescu@gmail.com|WIBL||Cooler (Campus)|Yes|Yes||BW014101|RTI GROUP TRADING SRL|Bucuresti|BWHRKBA31|10|CCC HRK WIN FAM Campus 2012|121|Horeca|0
0|CS76731|2012-04-11 17:10:51|Mircea|Emanuela Dana||F|1987-10-18|Timis|TIMISOARA|Martir Angela Sava|2|||||0729414635||emanuella_dana@yahoo.com|WISSB||Masa laptop cu ventilator|Yes|Yes||TM003185|CAFE ATU GRUP SRL|Timisoara|TMHRKBA11|10|CCC HRK WIN FAM Campus 2012|121|Horeca|0
0|CS76732|2012-04-11 17:13:50|Chiriac|Mihail cosmin||M|1987-09-21|Iasi|RADUCANENI|Principala|1342|B1-2|A|1|1|0741607372||cosmin_chiriac87@yahoo.com|WIBL|KTBL|Masa laptop cu ventilator|Yes|Yes||IS004867|BEER GARDEN SRL|Iasi|ISHRKBA14|10|CCC HRK WIN FAM Campus 2012|121|Horeca|0
0|CS76733|2012-04-11 17:14:09|Antonesei|Bogdan||M|1987-05-08|Iasi|IASI|Dezrobirii|3|||0|0|0754256690||body0587@yahoo.com|WIBL||Rucsac (Campus)|Yes|Yes||IS005057|CORSO TERASA SA|Iasi|ISHRKBA15|10|CCC HRK WIN FAM Campus 2012|121|Horeca|0
0|CS76735|2012-04-11 17:18:06|Darie|Gabriel||M|1986-12-23|Iasi|IASI|Scaricica|14|||0|0|0747798198||gabi_scumpelul@yahoo.com|WIBLH||Rucsac (Campus)|Yes|Yes||IS005057|CORSO TERASA SA|Iasi|ISHRKBA15|10|CCC HRK WIN FAM Campus 2012|121|Horeca|0
0|CS76739|2012-04-11 17:25:22|Jusca|Adela-ancuta||F|1992-10-02|Teleorman|ALEXANDRIA|Dunarii|220|Bm1|E|10|198|0763655804||angelgirl.0070@yahoo.com|WISSM||Cooler (Campus)|Yes|Yes||BW014101|RTI GROUP TRADING SRL|Bucuresti|BWHRKBA31|10|CCC HRK WIN FAM Campus 2012|121|Horeca|0
0|CS76745|2012-04-11 17:55:30|Tiurea|Emil||M|1990-08-24|Timis|TIMISOARA|Nicolae Titulescu|31||||15|0746785685||emil_king24@yahoo.com|WICL||Rucsac (Campus)|Yes|Yes||TM003185|CAFE ATU GRUP SRL|Timisoara|TMHRKBA11|10|CCC HRK WIN FAM Campus 2012|121|Horeca|0
0|CS76746|2012-04-11 17:55:37|Slavoiu|Mihai Dan||M|1963-01-16|Dolj|CRAIOVA|Dacia|136|G|3|0|4|0742866484||dan_slavoiu@yahoo.com|WICLH|WICL|Rucsac (Campus)|Yes|Yes||DJ006690|REBONIS CORP SRL|Craiova|DJHRKBA09|10|CCC HRK WIN FAM Campus 2012|121|Horeca|0
0|CS76748|2012-04-11 17:58:23|Slavoiu|Emilia madalina||F|1968-06-12|Dolj|CRAIOVA|Dacia|136|G|3|0|4|0751379483||madalina_slavoiu@yahoo.com|WISSS|WISV|Boxe (Campus)|Yes|Yes||DJ006690|REBONIS CORP SRL|Craiova|DJHRKBA09|10|CCC HRK WIN FAM Campus 2012|121|Horeca|0
0|CS76750|2012-04-11 18:01:45|Serban|Petru||M|1954-07-27|Iasi|IASI|Buznea|10|||0|0|0741598859|||WIBL||Masa laptop cu ventilator|Yes|Yes||IS005057|CORSO TERASA SA|Iasi|ISHRKBA15|10|CCC HRK WIN FAM Campus 2012|121|Horeca|0
0|CS76753|2012-04-11 18:08:08|Costica|Dorina||F|1959-06-26|Iasi|IASI|Brates|5|||0|0|0752589376|||WIBL||Boxe (Campus)|Yes|Yes||IS005057|CORSO TERASA SA|Iasi|ISHRKBA15|10|CCC HRK WIN FAM Campus 2012|121|Horeca|0
0|CS76754|2012-04-11 18:09:41|Costica |Stefan||M|1987-08-01|Iasi|IASI|Brates|5|||||0742475123|||WIBL||Rucsac (Campus)|Yes|Yes||IS005057|CORSO TERASA SA|Iasi|ISHRKBA15|10|CCC HRK WIN FAM Campus 2012|121|Horeca|0
0|CS76755|2012-04-11 18:13:34|Lupusoru|Razvan ioan||M|1978-10-27|Iasi|IASI|Vasile lupu|104|||0|0|0721311117||razzzvanel@yahoo.ca|WICLH||Masa laptop cu ventilator|Yes|Yes||IS005057|CORSO TERASA SA|Iasi|ISHRKBA15|10|CCC HRK WIN FAM Campus 2012|121|Horeca|0
0|CS76756|2012-04-11 18:16:49|Dron|Danut||M|1988-04-28|Iasi|IASI|Strapungerii sivestru|36|||||0756589500||dronmircea@yahoo.com|WIBL||Rucsac (Campus)|Yes|Yes||IS005057|CORSO TERASA SA|Iasi|ISHRKBA15|10|CCC HRK WIN FAM Campus 2012|121|Horeca|0
0|CS76757|2012-04-11 18:19:40|Coman|Gabriel||M|1980-10-03|Iasi|Iasi|Sarmisegetuza|2a|||0|0|0723132118||gabriel.coman@yahoo.com|WIBL||Rucsac (Campus)|Yes|Yes||IS005057|CORSO TERASA SA|Iasi|ISHRKBA15|10|CCC HRK WIN FAM Campus 2012|121|Horeca|0
0|CS76760|2012-04-11 18:36:36|Lungu|Florin||M|1989-11-03|Bacau|BACAU|Oituz|95|95|A|1|6|0742791649||florinas31989@yahoo.com|KTBL|WIBL|Rucsac (Campus)|Yes|Yes||IS004867|BEER GARDEN SRL|Iasi|ISHRKBA14|10|CCC HRK WIN FAM Campus 2012|121|Horeca|0
0|CS76762|2012-04-11 18:44:57|Costache|Petru||M|1966-06-27|Iasi|Iasi|Lotrului|9|||0|0|0740956366|||WIBL||Rucsac (Campus)|Yes|Yes||IS005057|CORSO TERASA SA|Iasi|ISHRKBA15|10|CCC HRK WIN FAM Campus 2012|121|Horeca|0
0|CS76764|2012-04-11 18:47:39|Costache|Paulina||F|1968-07-05|Iasi|Iasi|Lotrului|9|||||0751895094|||WIBL||Rucsac (Campus)|Yes|Yes||IS005057|CORSO TERASA SA|Iasi|ISHRKBA15|10|CCC HRK WIN FAM Campus 2012|121|Horeca|0
0|CS76767|2012-04-11 18:52:08|Pelipeschi|Elena||F|1951-11-01|Iasi|IASI|Stefan cel mare|4|||0|0|0753743610|||WIBL||Masa laptop cu ventilator|Yes|Yes||IS005057|CORSO TERASA SA|Iasi|ISHRKBA15|10|CCC HRK WIN FAM Campus 2012|121|Horeca|0
0|CS76768|2012-04-11 18:54:19|Pelipeschi|Ioan||M|1950-06-24|Iasi|IASI|Stefan cel mare|4|||0|0|0746610535|||WIBL||Rucsac (Campus)|Yes|Yes||IS005057|CORSO TERASA SA|Iasi|ISHRKBA15|10|CCC HRK WIN FAM Campus 2012|121|Horeca|0
0|CS76773|2012-04-11 19:17:44|Dulceanu|Ionut||M|1983-12-30|Iasi|IASI|Tudor neculai|47|966|A|0|1|0720550848|||WIBL|CAWH|Rucsac (Campus)|Yes|Yes||IS004867|BEER GARDEN SRL|Iasi|ISHRKBA14|10|CCC HRK WIN FAM Campus 2012|121|Horeca|0
0|CS76801|2012-04-11 19:54:37|Chiorean|Simion||M|1959-12-17|Cluj|CLUJ NAPOCA|Iosiv Vulcan|45|||||0747775397|||WIBLH||Rucsac (Campus)|Yes|Yes||CJ001907|Corvinus PUB|Cluj-Napoca|CJHRKBA14|10|CCC HRK WIN FAM Campus 2012|121|Horeca|0
0|CS76783|2012-04-11 19:55:38|Poraicu|Anca marina||F|1987-08-25|Iasi|IASI|Prof. Ion inculet|1|675|B|3|15|0745601881||anca_poraicu@yahoo.com|WIBL|CABK|Rucsac (Campus)|Yes|Yes||IS004867|BEER GARDEN SRL|Iasi|ISHRKBA14|10|CCC HRK WIN FAM Campus 2012|121|Horeca|0
0|CS76802|2012-04-11 19:56:21|Chiorean|Angela||F|1966-02-09|Cluj|CLUJ NAPOCA|Zorilla|37||||16|0740077632|||WIBL||Rucsac (Campus)|Yes|Yes||CJ001907|Corvinus PUB|Cluj-Napoca|CJHRKBA14|10|CCC HRK WIN FAM Campus 2012|121|Horeca|0
0|CS76792|2012-04-11 20:00:09|Napau|Cosmin||M|1986-01-12|Alba|ABRUD|Republicii|12|B|2|3|27|0745848943||pitt_bul_toto@yahoo.com|WIBLH||Rucsac (Campus)|Yes|Yes||CJ001907|Corvinus PUB|Cluj-Napoca|CJHRKBA14|10|CCC HRK WIN FAM Campus 2012|121|Horeca|0
0|CS76793|2012-04-11 20:00:09|Tecar|Florin||M|1993-06-25|Salaj|ILEANDA|Simon barnutiu|33||||2|0729476726||alextecar@gmail.com|KTBL|WIBLH|Rucsac (Campus)|Yes|Yes||CJ001907|Corvinus PUB|Cluj-Napoca|CJHRKBA14|10|CCC HRK WIN FAM Campus 2012|121|Horeca|0
0|CS76794|2012-04-11 20:00:09|Lazar|Gianina||F|1967-07-04|Cluj|CLUJ NAPOCA|Viilor|982||||3|0740819277||gianina.redeanu@yahoo.com|WICLH||Rucsac (Campus)|Yes|Yes||CJ001907|Corvinus PUB|Cluj-Napoca|CJHRKBA14|10|CCC HRK WIN FAM Campus 2012|121|Horeca|0
0|CS76795|2012-04-11 20:00:10|Gorog|Imre||M|1956-08-12|Cluj|CLUJ NAPOCA|Dragalina|72||||2|0747527635|||WICL||Rucsac (Campus)|Yes|Yes||CJ001907|Corvinus PUB|Cluj-Napoca|CJHRKBA14|10|CCC HRK WIN FAM Campus 2012|121|Horeca|0
0|CS76796|2012-04-11 20:00:10|Sabau|Razvan||M|1986-07-07|Cluj|CLUJ NAPOCA|Observatorului|7|Os4|1|2|6|0740186099||sabau.razvan@yahoo.ro|KTBL|WIBL|Rucsac (Campus)|Yes|Yes||CJ001907|Corvinus PUB|Cluj-Napoca|CJHRKBA14|10|CCC HRK WIN FAM Campus 2012|121|Horeca|0
0|CS76797|2012-04-11 20:00:11|Falu|Andrei||M|1985-05-28|Cluj|CLUJ NAPOCA|Jupiter|2||2|4|28|0740428897||cia_andrei@yahoo.com|DUNFCSV|WIBLH|Boxe (Campus)|Yes|Yes||CJ001907|Corvinus PUB|Cluj-Napoca|CJHRKBA14|10|CCC HRK WIN FAM Campus 2012|121|Horeca|0
0|CS76798|2012-04-11 20:00:11|Hulpea|Carmen||F|1989-10-14|Cluj|CLUJ NAPOCA|Dunarii|71|V9|1|1|3|0761975869||hulpeacarmen@yahoo.com|WIBLH||Rucsac (Campus)|Yes|Yes||CJ001907|Corvinus PUB|Cluj-Napoca|CJHRKBA14|10|CCC HRK WIN FAM Campus 2012|121|Horeca|0
0|CS76799|2012-04-11 20:00:12|Hulpea|Andrei||M|1985-09-26|Cluj|CLUJ NAPOCA|Dunarii|71|V9|1|1|3|0749806222||hulpea.andrei@yahoo.com|WIBLH||Rucsac (Campus)|Yes|Yes||CJ001907|Corvinus PUB|Cluj-Napoca|CJHRKBA14|10|CCC HRK WIN FAM Campus 2012|121|Horeca|0
0|CS76800|2012-04-11 20:00:13|Stoica|Marcel||M|1990-06-25|Cluj|CLUJ NAPOCA|Avram iancu|14||||1|0754881269|||WIBLH||Masa laptop cu ventilator|Yes|Yes||CJ001907|Corvinus PUB|Cluj-Napoca|CJHRKBA14|10|CCC HRK WIN FAM Campus 2012|121|Horeca|0
0|CS76814|2012-04-11 20:02:24|Runcanu|Tudor||M|1973-07-23|Cluj|CLUJ NAPOCA|Reteganu|19|||||0722641662||tudor.runcanu@yahoo.com|WISSM|PMSSGR|Boxe (Campus)|Yes|Yes||CJ001892|SC LA SOLAS SRL|Cluj-Napoca|CJHRKBA06|10|CCC HRK WIN FAM Campus 2012|121|Horeca|0
0|CS76815|2012-04-11 20:02:24|Dancu|Mihaela||F|1978-11-02|Cluj|CLUJ NAPOCA|Mehedinti|26|D12|1|1|6|0740018081||eugenmiha@yahoo.com|WIBL|KTBL|Rucsac (Campus)|Yes|Yes||CJ001892|SC LA SOLAS SRL|Cluj-Napoca|CJHRKBA06|10|CCC HRK WIN FAM Campus 2012|121|Horeca|0
0|CS76816|2012-04-11 20:02:25|Goga|Florin||M|1986-11-23|Cluj|CLUJ NAPOCA|Tribune Andrega|13|||||0749152622||goga_flo@yahoo.com|WIBL|KTBL|Rucsac (Campus)|Yes|Yes||CJ001892|SC LA SOLAS SRL|Cluj-Napoca|CJHRKBA06|10|CCC HRK WIN FAM Campus 2012|121|Horeca|0
0|CS76817|2012-04-11 20:02:25|Crisan|Adriana Victoria||F|1970-11-14|Cluj|CLUJ NAPOCA|Gheorghe Marinescu|22|||||0746093537||cleverjack22@yahoo.com|WISV||Masa laptop cu ventilator|Yes|Yes||CJ001892|SC LA SOLAS SRL|Cluj-Napoca|CJHRKBA06|10|CCC HRK WIN FAM Campus 2012|121|Horeca|0
0|CS76818|2012-04-11 20:02:25|Ivan|Alin||M|1986-05-31|Bistrita Nasaud|BISTRITA|Principals|197|||||0751697960||ivanalin31@yahoo.com|WIBL||Rucsac (Campus)|Yes|Yes||CJ001892|SC LA SOLAS SRL|Cluj-Napoca|CJHRKBA06|10|CCC HRK WIN FAM Campus 2012|121|Horeca|0
0|CS76819|2012-04-11 20:02:26|Zoicas|Vlad||M|1990-10-26|Salaj|AGHIRES|Principala|13|||||0743384270||zoicas_vlad@yahoo.com|WICL|WIBL|Masa laptop cu ventilator|Yes|Yes||CJ001892|SC LA SOLAS SRL|Cluj-Napoca|CJHRKBA06|10|CCC HRK WIN FAM Campus 2012|121|Horeca|0
0|CS76820|2012-04-11 20:02:26|Nistea|Sergiu||M|1991-01-18|Cluj|CLUJ NAPOCA|BP Hasdeu|90|||||0722984850||sergiunistea@yahoo.com|WIBL||Boxe (Campus)|Yes|Yes||CJ001892|SC LA SOLAS SRL|Cluj-Napoca|CJHRKBA06|10|CCC HRK WIN FAM Campus 2012|121|Horeca|0
0|CS76821|2012-04-11 20:02:26|Puia|Sabin||M|1993-09-27|Mures|TARGU MURES|Principala|162|||||0751652109||puyapitbull@yahoo.com|WIBLH|WICLH|Masa laptop cu ventilator|Yes|Yes||CJ001892|SC LA SOLAS SRL|Cluj-Napoca|CJHRKBA06|10|CCC HRK WIN FAM Campus 2012|121|Horeca|0
0|CS76822|2012-04-11 20:02:26|Sas|Lidia||F|1989-12-25|Cluj|CLUJ NAPOCA|Observatorului|34|||||0751390608||blondy_15_2006@yahoo.com|WIBL||Boxe (Campus)|Yes|Yes||CJ001892|SC LA SOLAS SRL|Cluj-Napoca|CJHRKBA06|10|CCC HRK WIN FAM Campus 2012|121|Horeca|0
0|CS76823|2012-04-11 20:02:26|Precup|Sebastian||M|1991-04-22|Cluj|CLUJ NAPOCA|Tecuci|25|||2|2|0742961416||sb_precup1991@yahoo.com|WIBL|KTBL|Rucsac (Campus)|Yes|Yes||CJ001892|SC LA SOLAS SRL|Cluj-Napoca|CJHRKBA06|10|CCC HRK WIN FAM Campus 2012|121|Horeca|0
0|CS76824|2012-04-11 20:02:30|Precup|Dorel||M|1955-12-25|Cluj|CLUJ NAPOCA|Tecuci|25|||2|2||0264584004|sb_precup1991@yahoo.com|WIBL||Masa laptop cu ventilator|Yes|Yes||CJ001892|SC LA SOLAS SRL|Cluj-Napoca|CJHRKBA06|10|CCC HRK WIN FAM Campus 2012|121|Horeca|0
0|CS76825|2012-04-11 20:02:30|Buculei |Diana||F|1992-05-13|Suceava|SUCEAVA|Tineretului|9|129|B|4|12|0751608353||dydiduu@yahoo.com|WIBL|WIBLH|Rucsac (Campus)|Yes|Yes||CJ001892|SC LA SOLAS SRL|Cluj-Napoca|CJHRKBA06|10|CCC HRK WIN FAM Campus 2012|121|Horeca|0
0|CS76934|2012-04-13 13:01:19|Timofte|Viorel||M|1976-04-02|Tulcea|TULCEA|Alexandru cel Bun|94|||||0753543338||timviorel@yahoo.com|WIXSB||Cooler (Campus)|Yes|Yes||BW014101|RTI GROUP TRADING SRL|Bucuresti|BWHRKBA32|10|CCC HRK WIN FAM Campus 2012|121|Horeca|0
0|CS76935|2012-04-13 13:07:04|Popa|Emil Constantin||M|1977-10-11|Ilfov|DOMNESTI|||||||0723601737||emil_constantin_popa@yahoo.com|WIBL||Boxe (Campus)|Yes|Yes||BW014101|RTI GROUP TRADING SRL|Bucuresti|BWHRKBA32|10|CCC HRK WIN FAM Campus 2012|121|Horeca|0
0|CS76936|2012-04-13 13:12:09|Nastase|Petre||M|1976-11-02|Bucuresti|SECTOR 1|Castanului|2|||||0734205279|||WIBLH||Boxe (Campus)|Yes|Yes||BW014101|RTI GROUP TRADING SRL|Bucuresti|BWHRKBA32|10|CCC HRK WIN FAM Campus 2012|121|Horeca|0
0|CS76937|2012-04-13 13:33:07|Roman|Eugen||M|1978-11-09|Dolj|CRAIOVA|Madona dudu|2|2|1|0|8|0764033116|||WIBL||Rucsac (Campus)|Yes|Yes||DJ006690|REBONIS CORP SRL|Craiova|DJHRKBA09|10|CCC HRK WIN FAM Campus 2012|121|Horeca|0
0|CS76938|2012-04-13 13:40:28|Ciocoiu|Stefanita razvan||M|1990-04-22|Dolj|CRAIOVA|Mihail strajan||A3|4|0|2|0763699532|||WIBL||Masa laptop cu ventilator|Yes|Yes||DJ006690|REBONIS CORP SRL|Craiova|DJHRKBA09|10|CCC HRK WIN FAM Campus 2012|121|Horeca|0
0|CS76939|2012-04-13 13:41:00|Constantin|Teodor Ionut||M|1987-11-21|Calarasi|CALARASI|Dropia|34|||||0722228587||teodorcti@yahoo.com|WIBLH||Masa laptop fara ventilator|Yes|Yes||BW014101|RTI GROUP TRADING SRL|Bucuresti|BWHRKBA32|10|CCC HRK WIN FAM Campus 2012|121|Horeca|0
0|CS76940|2012-04-13 13:45:37|Purcarea|Marian Sorin||M|1967-03-22|Bucuresti|SECTOR 6|Iuliu Maniu|11a|D3|5|1|44|0742010633||sorin.purcarea@yahoo.com|WIBL||Masa laptop fara ventilator|Yes|Yes||BW014101|RTI GROUP TRADING SRL|Bucuresti|BWHRKBA32|10|CCC HRK WIN FAM Campus 2012|121|Horeca|0
0|CS76942|2012-04-13 14:00:55|Bratosin|Adrian||M|1975-07-22|Bucuresti|SECTOR 5|Sardinelor|108|113|A|0|3|0722683333||adibratosin@yahoo.com|WIBL||Masa laptop fara ventilator|Yes|Yes||BW014101|RTI GROUP TRADING SRL|Bucuresti|BWHRKBA32|10|CCC HRK WIN FAM Campus 2012|121|Horeca|0
0|CS76943|2012-04-13 14:01:27|Deliu|Gabriela||F|1975-06-24|Dolj|CRAIOVA|George Enescu|86|38|1|0|1|0769685168||gabifugaru2004@yahoo.com|WIBL||Boxe (Campus)|Yes|Yes||DJ006690|REBONIS CORP SRL|Craiova|DJHRKBA09|10|CCC HRK WIN FAM Campus 2012|121|Horeca|0
0|CS76944|2012-04-13 14:04:31|Deliu|Alin||M|1977-04-04|Dolj|CRAIOVA|George enescu|86|38|1|0|1|0768277140||deliualin77@yahoo.com|WIBLH||Rucsac (Campus)|Yes|Yes||DJ006690|REBONIS CORP SRL|Craiova|DJHRKBA09|10|CCC HRK WIN FAM Campus 2012|121|Horeca|0
0|CS76945|2012-04-13 14:09:41|Ricu|Maria||F|1967-05-15|Dolj|CRAIOVA ok|CALEA UNIRII||M1|1||18|0749238866|||WIBL||Boxe (Campus)|Yes|Yes||DJ006690|REBONIS CORP SRL|Craiova|DJHRKBA09|10|CCC HRK WIN FAM Campus 2012|121|Horeca|0
0|CS76946|2012-04-13 14:15:10|Tanasie|Sorin||M|1980-12-09|Dolj|CRAIOVA|Potelu|165|R5|1|2|6|0741166646||sorin_tanasie@yahoo.com|WICLH||Rucsac (Campus)|Yes|Yes||DJ006690|REBONIS CORP SRL|Craiova|DJHRKBA09|10|CCC HRK WIN FAM Campus 2012|121|Horeca|0
0|CS76947|2012-04-13 14:17:46|Tanasie|Roxana||F|1981-08-08|Dolj|CRAIOVA|Potelu|165|R5||0|6|0735527152||tanasieancaroxana@yahoo.com|WIBLH||Rucsac (Campus)|Yes|Yes||DJ006690|REBONIS CORP SRL|Craiova|DJHRKBA09|10|CCC HRK WIN FAM Campus 2012|121|Horeca|0
0|CS76948|2012-04-13 14:24:01|Iancu|Corina||F|1969-12-01|Dolj|CRAIOVA|CALEA UNIRII||M1|1||18|0723559223|||WICL||Rucsac (Campus)|Yes|Yes||DJ006690|REBONIS CORP SRL|Craiova|DJHRKBA09|10|CCC HRK WIN FAM Campus 2012|121|Horeca|0
0|CS76949|2012-04-13 14:38:09|Abdu Khalil|Sara||F|1991-03-07|Dolj|CRAIOVA|Victor papilian||E3|1||6|0744663794|||WISSB||Rucsac (Campus)|Yes|Yes||DJ006690|REBONIS CORP SRL|Craiova|DJHRKBA09|10|CCC HRK WIN FAM Campus 2012|121|Horeca|0
0|CS76950|2012-04-13 14:53:04|Tanasuica|Ion||M|1975-07-13|Bucuresti|SECTOR 1|Grivitei|337a||B||2|0785165555||tanasuica.ionut@yahoo.com|WICL||Masa laptop fara ventilator|Yes|Yes||BW014101|RTI GROUP TRADING SRL|Bucuresti|BWHRKBA32|10|CCC HRK WIN FAM Campus 2012|121|Horeca|0
0|CS76951|2012-04-13 15:01:00|Draghia|Dan-George||M|1982-02-05|Arges|PITESTI|Bradet|1|20|D|4|18|0723233185||izecson_rsl@yahoo.com|WISV||Masa laptop fara ventilator|Yes|Yes||BW007819|DON OVIDIU SRL|Bucuresti|BWHRKBA31|10|CCC HRK WIN FAM Campus 2012|121|Horeca|0
0|CS76952|2012-04-13 15:06:28|Popa|Catalin Viorel||M|1975-12-02|Bucuresti|SECTOR 2|Sinaia|18|84a|2|2|78|0764211448||catalinpopa_v@ysahoo.com|WIBL||Boxe (Campus)|Yes|Yes||BW014101|RTI GROUP TRADING SRL|Bucuresti|BWHRKBA32|10|CCC HRK WIN FAM Campus 2012|121|Horeca|0
0|CS76953|2012-04-13 15:24:59|Didu|Catalin||M|1977-11-16|Dolj|CRAIOVA|Dacia|90|M4|1|2|10|0763663525||diducatalin@yahoo.com|MBRFP|WIBL|Masa laptop cu ventilator|Yes|Yes||DJ006690|REBONIS CORP SRL|Craiova|DJHRKBA09|10|CCC HRK WIN FAM Campus 2012|121|Horeca|0
0|CS76954|2012-04-13 15:27:24|Paraschivu|Dan||M|1970-12-30|Dolj|CRAIOVA|Anul 1848|4|A|4|1|3|0723261053||danparaschivu@gmail.com|WISSB||Boxe (Campus)|Yes|Yes||DJ006690|REBONIS CORP SRL|Craiova|DJHRKBA09|10|CCC HRK WIN FAM Campus 2012|121|Horeca|0
0|CS76955|2012-04-13 15:39:04|Tapu|Florin claudiu||M|1987-05-10|Dolj|Bals|1decembrie|23|||||0769758203||tapu.florin@yahoo.com|WISV||Rucsac (Campus)|Yes|Yes||DJ006690|REBONIS CORP SRL|Craiova|DJHRKBA09|10|CCC HRK WIN FAM Campus 2012|121|Horeca|0
0|CS76956|2012-04-13 16:01:58|Gheorghe|Mihaela Corina||F|1967-10-01|Bucuresti|SECTOR 6|Iuliu maniu|11a|D3|4|2|35|0735906770||corina.gheorghe@gmail.com|WIBL||Boxe (Campus)|Yes|Yes||BW014101|RTI GROUP TRADING SRL|Bucuresti|BWHRKBA32|10|CCC HRK WIN FAM Campus 2012|121|Horeca|0
0|CS76965|2012-04-13 16:34:30|Iliescu|Irina||F|1949-04-29|Bucuresti|SECTOR 6|Armata Poporuluo|11a|D3|4|2|35|0724504049|||WIBL||Cooler (Campus)|Yes|No||BW014101|RTI GROUP TRADING SRL|Bucuresti|BWHRKBA32|10|CCC HRK WIN FAM Campus 2012|121|Horeca|0
0|CS76968|2012-04-13 16:37:16|JimeneZ|Luis miguel||M|1987-04-29|Bucuresti|SECTOR 6|Splaiul Independentei|204|E||5|538|0766730920||migueljimp2005@hotmail.com|WIBL||Boxe (Campus)|Yes|Yes||BW014101|RTI GROUP TRADING SRL|Bucuresti|BWHRKBA32|10|CCC HRK WIN FAM Campus 2012|121|Horeca|0
0|CS76971|2012-04-13 16:39:43|Gardiwasam|Tharindu||M|1988-07-10|Bucuresti|SECTOR 6|Splaiul Independentei|204|E||5|538|0749111463||tdulanjaya@yahoo.com|WIBL||Cooler (Campus)|Yes|Yes||BW014101|RTI GROUP TRADING SRL|Bucuresti|BWHRKBA32|10|CCC HRK WIN FAM Campus 2012|121|Horeca|0
0|CS76976|2012-04-13 17:05:16|Dragu|Alexandru||M|1974-12-06|Bucuresti|SECTOR 6|Masa tacerii||A|||34|0723373076||doctoralex6@yahoo.com|WIBL||Cooler (Campus)|Yes|Yes||BW014101|RTI GROUP TRADING SRL|Bucuresti|BWHRKBA32|10|CCC HRK WIN FAM Campus 2012|121|Horeca|0
0|CS76981|2012-04-13 17:41:34|DIDU|ALINA||F|1986-05-01|Dolj|CRAIOVA|SPANIEI||O12|1|0|3|0766317830|||WISSS||Boxe (Campus)|Yes|Yes||DJ006690|REBONIS CORP SRL|Craiova|DJHRKBA09|10|CCC HRK WIN FAM Campus 2012|121|Horeca|0
0|CS76984|2012-04-13 17:49:47|Ilie|Lavinia||F|1989-12-01|Dolj|CRAIOVA|Fratii golesti||K23|1|3|11|0761127682||lavy_love89@yahoo.com|MBRFPEX|WISV|Rucsac (Campus)|Yes|Yes||DJ006690|REBONIS CORP SRL|Craiova|DJHRKBA09|10|CCC HRK WIN FAM Campus 2012|121|Horeca|0
0|CS76985|2012-04-13 17:51:29|Lazar|Felicia-narcisa||F|1974-06-07|Vrancea|FOCSANI|Mircea voda|37|M29|B|8|65|0730587732|||WIBL||Boxe (Campus)|Yes|Yes||BW007819|DON OVIDIU SRL|Bucuresti|BWHRKBA31|10|CCC HRK WIN FAM Campus 2012|121|Horeca|0
0|CS76987|2012-04-13 17:54:32|Lazar|Daniel||M|1974-10-29|Bucuresti|SECTOR 4|Mircea voda|37|M29|B|8|65|0730587731||dan29_74@yahoo.com|WISV||Masa laptop fara ventilator|Yes|Yes||BW007819|DON OVIDIU SRL|Bucuresti|BWHRKBA31|10|CCC HRK WIN FAM Campus 2012|121|Horeca|0
