0|CS3194322|2012-12-11 20:03:56|Borcea|Cristiana||F|1989-12-24|Cluj|CLUJ NAPOCA|Calea manastur|74|||0|23|0761697575||borcea.cristiana@yahoo.com|KTBL||Tricou|Yes|Yes||CJ006078|SISTERS CAFÉ |Cluj-Napoca|CJHRKBA32|87|CCC HRK CAMEL BW 2012|121|Horeca|0
0|CS3194325|2012-12-11 20:05:34|Nicula|Marius||M|1988-08-20|Cluj|CLUJ NAPOCA|Zorilor|38||||30|0745359567||marius_nicula2002@yahoo.com|MBRGLFT||Camel White (4 mg) Pack|Yes|Yes||CJ006078|SISTERS CAFÉ |Cluj-Napoca|CJHRKBA34|87|CCC HRK CAMEL BW 2012|121|Horeca|0
0|CS3194347|2012-12-11 20:19:00|Mastan|Alin||M|1976-04-24|Cluj|CLUJ NAPOCA|Tautului|44|||0|0|0749834810||mastanalin@yahoo.com|CABK||Camel Black (6 mg) Pack|Yes|Yes||CJ006128|TIFF EVENTS UNIVERSITATI|Cluj-Napoca|CJHRKBA32|87|CCC HRK CAMEL BW 2012|121|Horeca|0
0|CS3194362|2012-12-11 20:39:27|Muraru|Rada||F|1984-11-29|Cluj|CLUJ NAPOCA|Nicolae iorga|38||||2|0747047578||radamuraruasdf@yahoo.com|KTBL||Camel Black (6 mg) Pack|Yes|Yes||CJ001895|ANTILAG SRL|Cluj-Napoca|CJHRKBA08|87|CCC HRK CAMEL BW 2012|121|Horeca|0
0|CS3194367|2012-12-11 20:45:11|Marginean|Corina||F|1986-09-06|Cluj|CLUJ NAPOCA|Ipe boitesti|1/3|||0|9|0742933646||corina_mg07@yahoo.com|CABK||Tricou|Yes|Yes||CJ001895|ANTILAG SRL|Cluj-Napoca|CJHRKBA08|87|CCC HRK CAMEL BW 2012|121|Horeca|0
0|CS3194369|2012-12-11 20:45:31|Marginean|Codruta ioana||F|1987-01-30|Cluj|CLUJ NAPOCA|Ip voitesti|3|||0|9|0751893276||margineancodruta@yahoo.com|CABK||Camel Black (6 mg) Pack|Yes|Yes||CJ001895|ANTILAG SRL|Cluj-Napoca|CJHRKBA32|87|CCC HRK CAMEL BW 2012|121|Horeca|0
0|CS3194374|2012-12-11 20:48:07|Cherbezan|Marius||M|1985-03-16|Cluj|CLUJ NAPOCA|Hateg|10||||16|0756285583||dodobiba@yahoo.com|CABK||Camel Black (6 mg) Pack|Yes|Yes||CJ001895|ANTILAG SRL|Cluj-Napoca|CJHRKBA08|87|CCC HRK CAMEL BW 2012|121|Horeca|0
0|CS3194376|2012-12-11 20:48:45|Mihai|Calin||M|1983-12-23|Cluj|CLUJ NAPOCA|Ipe valtesti|11|||||0744574905|||KTBL||Tricou|Yes|Yes||CJ001895|ANTILAG SRL|Cluj-Napoca|CJHRKBA32|87|CCC HRK CAMEL BW 2012|121|Horeca|0
0|CS3194377|2012-12-11 20:50:01|Pogacian|Rares||M|1988-07-13|Cluj|CLUJ NAPOCA|Caea floresti|6|||0|72|0742591334||rarau77@yahoo.com|CABK||Camel Black (6 mg) Pack|Yes|Yes||CJ001895|ANTILAG SRL|Cluj-Napoca|CJHRKBA08|87|CCC HRK CAMEL BW 2012|121|Horeca|0
0|CS3194382|2012-12-11 20:56:17|Chesauan|Gabriela||F|1987-03-09|Cluj|CLUJ NAPOCA|Aleea tazlau|5|||0|26|0740235501||pisy_mia@yahoo.com|CAWH||Camel White (4 mg) Pack|Yes|Yes||CJ001895|ANTILAG SRL|Cluj-Napoca|CJHRKBA32|87|CCC HRK CAMEL BW 2012|121|Horeca|0
0|CS3194389|2012-12-11 21:25:32|Tamas|Wagner||M|1989-09-19|Bihor|ORADEA|Decebal|2||||24|0745518262|||CAWH||Camel White (4 mg) Pack|Yes|Yes||CJ006013|GALERIA REPUBLIC SRL|Cluj-Napoca|CJHRKBA32|87|CCC HRK CAMEL BW 2012|121|Horeca|0
0|CS3194390|2012-12-11 21:26:35|Eqbal|Mehmood||M|1988-05-28|Cluj|CLUJ NAPOCA|Hasdeu|90|||0|186|0753208937||simplymehmood@yahoo.com|MBRGLH||Camel Black (6 mg) Pack|Yes|Yes||CJ006013|GALERIA REPUBLIC SRL|Cluj-Napoca|CJHRKBA08|87|CCC HRK CAMEL BW 2012|121|Horeca|0
0|CS3194393|2012-12-11 21:46:10|Mezei|Norbert||M|1991-08-11|Cluj|CLUJ NAPOCA|Dorobantilor|89|X2||0|45|0756809226||norby_alex2006@yahoo.com|CABK||Tricou|Yes|Yes||CJ006013|GALERIA REPUBLIC SRL|Cluj-Napoca|CJHRKBA08|87|CCC HRK CAMEL BW 2012|121|Horeca|0
0|CS3194394|2012-12-11 21:46:26|Berbecar|Andrei||M|1990-01-05|Cluj|CLUJ NAPOCA|Alba iulia|6|||0|0|0744646178||berbecar.andrei@gmail.com|LSBL||Tricou|Yes|Yes||CJ006013|GALERIA REPUBLIC SRL|Cluj-Napoca|CJHRKBA21|87|CCC HRK CAMEL BW 2012|121|Horeca|0
0|CS3194395|2012-12-11 21:47:17|Varialle zoltan|Antonio||M|1983-12-16|Cluj|CLUJ NAPOCA|Plopilor|68|||0|120|0745561213|||CAWH||Tricou|Yes|Yes||CJ006013|GALERIA REPUBLIC SRL|Cluj-Napoca|CJHRKBA32|87|CCC HRK CAMEL BW 2012|121|Horeca|0
0|CS3194396|2012-12-11 21:48:50|Topai|Tibor||M|1990-08-24|Cluj|CLUJ NAPOCA|Hateg|2|||0|1|0740395184||topai_robert@yahoo.com|CABK||Camel Black (6 mg) Pack|Yes|Yes||CJ006013|GALERIA REPUBLIC SRL|Cluj-Napoca|CJHRKBA08|87|CCC HRK CAMEL BW 2012|121|Horeca|0
0|CS3194397|2012-12-11 21:49:23|Grigoras|Calin||M|1970-06-30|Cluj|CLUJ NAPOCA|Plopilor|67|||0|7|0745561214|||CABK||Camel Black (6 mg) Pack|Yes|Yes||CJ006013|GALERIA REPUBLIC SRL|Cluj-Napoca|CJHRKBA32|87|CCC HRK CAMEL BW 2012|121|Horeca|0
0|CS3194398|2012-12-11 21:49:55|Dumitrescu|Tudor||M|1990-05-06|Cluj|CLUJ NAPOCA|Liviu Rebreanu|4|P20|1|3|20|0742642789||tsake2005@yahoo.com|PMBL||Camel Black (6 mg) Pack|Yes|Yes||CJ006013|GALERIA REPUBLIC SRL|Cluj-Napoca|CJHRKBA21|87|CCC HRK CAMEL BW 2012|121|Horeca|0
0|CS3194399|2012-12-11 21:50:11|Saratean|Bogdan||M|1991-01-07|Cluj|CLUJ NAPOCA|Teodor mihail|58|2||0|0|0744683020||bogda_s91@yahoo.com|CABK||Camel Black (6 mg) Pack|Yes|Yes||CJ006013|GALERIA REPUBLIC SRL|Cluj-Napoca|CJHRKBA08|87|CCC HRK CAMEL BW 2012|121|Horeca|0
0|CS3194400|2012-12-11 21:50:31|Hudrea|Mihai||M|1986-05-20|Cluj|CLUJ NAPOCA|M. Veliciu|45|||||0745688810||hudrea.mihai@yahoo.com|PMBL||Tricou|Yes|Yes||CJ006013|GALERIA REPUBLIC SRL|Cluj-Napoca|CJHRKBA34|87|CCC HRK CAMEL BW 2012|121|Horeca|0
0|CS3194401|2012-12-11 21:51:28|Deac|Crista||F|1993-08-29|Cluj|CLUJ NAPOCA|Lombului|3|||||0751820360|||CABK||Camel Black (6 mg) Pack|Yes|Yes||CJ006013|GALERIA REPUBLIC SRL|Cluj-Napoca|CJHRKBA32|87|CCC HRK CAMEL BW 2012|121|Horeca|0
0|CS3194402|2012-12-11 21:54:23|Ocolisan|Rodica||F|1967-05-08|Cluj|CLUJ NAPOCA|Ice bratianu|48|||0|0|0747599997|||CAWH||Camel White (4 mg) Pack|Yes|Yes||CJ006013|GALERIA REPUBLIC SRL|Cluj-Napoca|CJHRKBA32|87|CCC HRK CAMEL BW 2012|121|Horeca|0
0|CS3194403|2012-12-11 21:56:50|Radu|Anda||F|1989-05-22|Cluj|CLUJ NAPOCA|Cernei|10|||0|25|0743208710||radu_anda@yahoo.com|CABK||Camel Black (6 mg) Pack|Yes|Yes||CJ006013|GALERIA REPUBLIC SRL|Cluj-Napoca|CJHRKBA32|87|CCC HRK CAMEL BW 2012|121|Horeca|0
0|CS3194404|2012-12-11 21:58:41|Arciudean|Alexandru||M|1987-12-07|Cluj|CLUJ NAPOCA|Constantin broancusi|202|||0|52|0745789432||alex.arciudean@yahoo.com|CAWH||Camel White (4 mg) Pack|Yes|Yes||CJ006013|GALERIA REPUBLIC SRL|Cluj-Napoca|CJHRKBA08|87|CCC HRK CAMEL BW 2012|121|Horeca|0
0|CS3194405|2012-12-11 22:00:33|Covaci|Emanuela||F|1991-12-13|Cluj|CLUJ NAPOCA|Bistritei|21|||0|0|0754390263|||CAWH||Camel White (4 mg) Pack|Yes|Yes||CJ006013|GALERIA REPUBLIC SRL|Cluj-Napoca|CJHRKBA08|87|CCC HRK CAMEL BW 2012|121|Horeca|0
0|CS3194406|2012-12-11 22:10:29|Biciila|Cosmin paul||M|1976-07-07|Cluj|CLUJ NAPOCA|Brancusi|162|||0|2|0740091101|||CAWH||Camel White (4 mg) Pack|Yes|Yes||CJ001741|EUPHORIA PUB SRL|Cluj-Napoca|CJHRKBA32|87|CCC HRK CAMEL BW 2012|121|Horeca|0
0|CS3194407|2012-12-11 22:13:43|Niculita|Laur||F|1990-09-24|Suceava|Suceava|Viitorului|10|||0|9|0746878371||niculita.lur@yahoo.com|CABK||Tricou|Yes|Yes||CJ001741|EUPHORIA PUB SRL|Cluj-Napoca|CJHRKBA32|87|CCC HRK CAMEL BW 2012|121|Horeca|0
0|CS3194408|2012-12-11 22:16:23|Popescu|Nicoleta||F|1978-01-19|Cluj|FLORESTI|Floriilor|318|C6|2|1|34|0741055466||nanapop_78@yahoo.com|CABK||Camel Black (6 mg) Pack|Yes|Yes||CJ001741|EUPHORIA PUB SRL|Cluj-Napoca|CJHRKBA21|87|CCC HRK CAMEL BW 2012|121|Horeca|0
0|CS3194409|2012-12-11 22:16:46|Baciu|Raluca||F|1986-03-02|Cluj|CLUJ NAPOCA|Observator|11|||0|0|0752574248||baciuralucaandreea@yahoo.com|DUNBL||Tricou|Yes|Yes||CJ003636|EUPHORIA PUB SRL URSUS|Cluj-Napoca|CJHRKBA34|87|CCC HRK CAMEL BW 2012|121|Horeca|0
0|CS3194410|2012-12-11 22:17:21|Man|David||M|1989-03-16|Hunedoara|HUNEDOARA|Bulevardul traian|14|||0|89|0730608167||durzy_hd@yahoo.com|DUNBL||Tricou|Yes|Yes||CJ001741|EUPHORIA PUB SRL|Cluj-Napoca|CJHRKBA21|87|CCC HRK CAMEL BW 2012|121|Horeca|0
0|CS3194411|2012-12-11 22:26:12|Carceie|Mihai||M|1989-10-06|Cluj|CLUJ NAPOCA|G eremia grigoresc|110|||||0762257971|||DUNBL||Camel Black (6 mg) Pack|Yes|Yes||CJ001741|EUPHORIA PUB SRL|Cluj-Napoca|CJHRKBA32|87|CCC HRK CAMEL BW 2012|121|Horeca|0
0|CS3194412|2012-12-11 22:27:24|Timonea|Mircea||M|1989-06-08|Alba|Alba Iulia|Valea bistrei|12|||0|0|0752565799||godzy17@yahoo.com|PMBL||Tricou|Yes|Yes||CJ003636|EUPHORIA PUB SRL URSUS|Cluj-Napoca|CJHRKBA34|87|CCC HRK CAMEL BW 2012|121|Horeca|0
0|CS3194413|2012-12-11 22:29:57|Sarlea|Nicoleta||M|1989-10-01|Cluj|CLUJ NAPOCA|21decembrie|17|||0|0|0757708943|||CABK||Tricou|Yes|Yes||CJ001741|EUPHORIA PUB SRL|Cluj-Napoca|CJHRKBA08|87|CCC HRK CAMEL BW 2012|121|Horeca|0
0|CS3194424|2012-12-11 22:55:11|Urcan|Ciprian||M|1975-06-07|Cluj|FLORESTI|Rasaritului|4|||||0723230954||urcan_ciprian@yahoo.com|MBRGLFT||Camel White (4 mg) Pack|Yes|Yes||CJ003636|EUPHORIA PUB SRL URSUS|Cluj-Napoca|CJHRKBA08|87|CCC HRK CAMEL BW 2012|121|Horeca|0
0|CS3194430|2012-12-11 23:04:15|Dan|Mita||M|1975-06-02|Cluj|CLUJ NAPOCA|Fantanele|32||||61|0753333560||mirceas2005@yahoo.com|CABK||Tricou|Yes|Yes||CJ003636|EUPHORIA PUB SRL URSUS|Cluj-Napoca|CJHRKBA08|87|CCC HRK CAMEL BW 2012|121|Horeca|0
0|CS3194431|2012-12-11 23:06:07|Filip|Traian Nicolae||M|1957-03-03|Hunedoara|BRAD|Libertatii|1|||||0723424173|||MBRFP||Camel Black (6 mg) Pack|Yes|Yes||CJ003636|EUPHORIA PUB SRL URSUS|Cluj-Napoca|CJHRKBA34|87|CCC HRK CAMEL BW 2012|121|Horeca|0
0|CS3194436|2012-12-11 23:11:13|Pirjol|Cristian||M|1979-04-29|Dolj|CRAIOVA|1 mai|56|||||0740890001||drcriastianp@yahoo.com|CAFI||Camel Filters (10mg) Pack|Yes|Yes||CJ003636|EUPHORIA PUB SRL URSUS|Cluj-Napoca|CJHRKBA21|87|CCC HRK CAMEL BW 2012|121|Horeca|0
0|CS3194437|2012-12-11 23:11:38|Cardos|Bogdan||M|1985-05-11|Cluj|CLUJ NAPOCA|Scolii|19-23|2|||3|0745777140||bogdan@cbmdesign.eu|DUNBL||Camel Filters (10mg) Pack|Yes|Yes||CJ003636|EUPHORIA PUB SRL URSUS|Cluj-Napoca|CJHRKBA34|87|CCC HRK CAMEL BW 2012|121|Horeca|0
0|CS3194440|2012-12-11 23:14:05|Pintea|Bianca||F|1989-01-28|Cluj|CLUJ NAPOCA|Dorobantilor|89|||0|16|0758709241||bianca.pintea@yahoo.com|CAFI||Tricou|Yes|Yes||CJ003636|EUPHORIA PUB SRL URSUS|Cluj-Napoca|CJHRKBA21|87|CCC HRK CAMEL BW 2012|121|Horeca|0
0|CS3194442|2012-12-11 23:14:19|Olah|Gabor||M|1989-10-13|Cluj|CLUJ NAPOCA|Rovine|2|0|0|0|23|0726790504||gabor_batsi@yahoo.com|KTBL||Tricou|Yes|Yes||CJ003636|EUPHORIA PUB SRL URSUS|Cluj-Napoca|CJHRKBA08|87|CCC HRK CAMEL BW 2012|121|Horeca|0
0|CS3194453|2012-12-11 23:23:38|Bolidizsar|Razvan||M|1986-03-03|Cluj|CLUJ NAPOCA|Calea manastur|72|||||0745548236||boldyyce@yahoo.com|CABK||Camel Black (6 mg) Pack|Yes|Yes||CJ003636|EUPHORIA PUB SRL URSUS|Cluj-Napoca|CJHRKBA21|87|CCC HRK CAMEL BW 2012|121|Horeca|0
0|CS3194457|2012-12-11 23:25:27|Szepessy|Katalin||F|1988-01-12|Mures|TARGU MURES|Livezi|16|||||0746502030|||CAWH||Camel White (4 mg) Pack|Yes|Yes||CJ003636|EUPHORIA PUB SRL URSUS|Cluj-Napoca|CJHRKBA32|87|CCC HRK CAMEL BW 2012|121|Horeca|0
0|CS3194460|2012-12-11 23:27:18|Bradu|Ovidiu||M|1974-10-24|Bucuresti|2|Ceaikovski|14|14|1|2|6|0751261667||bradu.ovidiu@gmail.com|CABK||Camel Black (6 mg) Pack|Yes|Yes||CJ003636|EUPHORIA PUB SRL URSUS|Cluj-Napoca|CJHRKBA34|87|CCC HRK CAMEL BW 2012|121|Horeca|0
0|CS3194475|2012-12-11 23:40:02|Ocolisan|Andreea||F|1991-03-19|Cluj|CLUJ NAPOCA|I.C Bratianu|43|||0|0|0740235501||deutzaaa@yahoo.com|CABK||Tricou|Yes|Yes||CJ003636|EUPHORIA PUB SRL URSUS|Cluj-Napoca|CJHRKBA32|87|CCC HRK CAMEL BW 2012|121|Horeca|0
0|CS3194483|2012-12-11 23:48:03|Katona|Andrei||M|1974-04-30|Cluj|CLUJ NAPOCA|Vlahuta|5|||||0752313035|||CABK||Tricou|Yes|Yes||CJ003636|EUPHORIA PUB SRL URSUS|Cluj-Napoca|CJHRKBA32|87|CCC HRK CAMEL BW 2012|121|Horeca|0
0|CS3194485|2012-12-11 23:51:24|Veres|Zsolt||M|1989-05-11|Bihor|Oradea|Calea aradului|42|D5|-|3|12|0741626467||v.zsolt1989@yahoo.com|CABK||Camel White (4 mg) Pack|Yes|Yes||CJ003636|EUPHORIA PUB SRL URSUS|Cluj-Napoca|CJHRKBA21|87|CCC HRK CAMEL BW 2012|121|Horeca|0
0|CS3194487|2012-12-11 23:52:38|Rasinar|Marius||M|1992-05-09|Salaj|ZALAU|Gh doja|28|||0|2|0749207809||rasinarmarius@yahoo.com|PMBL||Tricou|Yes|Yes||CJ003636|EUPHORIA PUB SRL URSUS|Cluj-Napoca|CJHRKBA34|87|CCC HRK CAMEL BW 2012|121|Horeca|0
0|CS3194490|2012-12-11 23:54:14|Blaga|Alin||M|1973-11-29|Cluj|CLUJ NAPOCA|Feleacul|539|||||0745027186|||CAFI||Camel Filters (10mg) Pack|Yes|Yes||CJ003636|EUPHORIA PUB SRL URSUS|Cluj-Napoca|CJHRKBA32|87|CCC HRK CAMEL BW 2012|121|Horeca|0
0|CS3194491|2012-12-11 23:55:29|Somesfalean|Teodora||F|1989-01-18|Cluj|CLUJ NAPOCA|Emil racovita|7a|||0|0|0743337480||thdr_18@yahoo.com|CABK||Tricou|Yes|Yes||CJ003636|EUPHORIA PUB SRL URSUS|Cluj-Napoca|CJHRKBA21|87|CCC HRK CAMEL BW 2012|121|Horeca|0
0|CS3194494|2012-12-11 23:58:55|Ferencz|Szabolcs||M|1986-04-07|Cluj|CLUJ NAPOCA|Fabricii|19|||0|41|0742137756||fdie86@yahoo.com|CABK||Camel Black (6 mg) Pack|Yes|Yes||CJ003636|EUPHORIA PUB SRL URSUS|Cluj-Napoca|CJHRKBA21|87|CCC HRK CAMEL BW 2012|121|Horeca|0
0|CS3194497|2012-12-12 00:01:29|Romascan|Roxana||F|1987-11-03|Cluj|CLUJ NAPOCA|Trascaului|10|||0|33|0743527544||pitika03@yahoo.com|CABK||Camel Black (6 mg) Pack|Yes|Yes||CJ003636|EUPHORIA PUB SRL URSUS|Cluj-Napoca|CJHRKBA32|87|CCC HRK CAMEL BW 2012|121|Horeca|0
0|CS3194499|2012-12-12 00:01:43|Botas|Oana||F|1988-11-04|Cluj|CLUJ NAPOCA|I cosanzeana|8|||0|9|0751326386||pysicutza88@yahoo.com|CABK||Tricou|Yes|Yes||CJ003636|EUPHORIA PUB SRL URSUS|Cluj-Napoca|CJHRKBA34|87|CCC HRK CAMEL BW 2012|121|Horeca|0
0|CS3194500|2012-12-12 00:03:36|Porumb|Ioana||F|1988-06-10|Cluj|CLUJ NAPOCA|Oasului|30|||0|0|0743645226||ioana234@yahoo.com|CABK||Camel Black (6 mg) Pack|Yes|Yes||CJ003636|EUPHORIA PUB SRL URSUS|Cluj-Napoca|CJHRKBA32|87|CCC HRK CAMEL BW 2012|121|Horeca|0
0|CS3194522|2012-12-12 00:29:34|Damian|Liviu||M|1986-05-25|Cluj|CLUJ NAPOCA|Marian preda|2|||0|0|0722257757||liviu@layershift.com|CABK||Tricou|Yes|Yes||CJ002003|LEGENERAL SRL|Cluj-Napoca|CJHRKBA21|87|CCC HRK CAMEL BW 2012|121|Horeca|0
0|CS3194524|2012-12-12 00:30:57|Cranson|Andrew||M|1985-10-01|Cluj|CLUJ NAPOCA|Constantin brancovean|28|||||0732987160|||DUNBL||Camel Black (6 mg) Pack|Yes|Yes||CJ002003|LEGENERAL SRL|Cluj-Napoca|CJHRKBA32|87|CCC HRK CAMEL BW 2012|121|Horeca|0
0|CS3194527|2012-12-12 00:36:18|Popovici|Mihai||M|1992-03-01|Suceava|VATRA DORNEI|Malinilor|26|||0|5|0747502455||misuvd92@yahoo.com|PMBL||Camel White (4 mg) Pack|Yes|Yes||CJ002003|LEGENERAL SRL|Cluj-Napoca|CJHRKBA08|87|CCC HRK CAMEL BW 2012|121|Horeca|0
0|CS3194533|2012-12-12 00:46:56|Popa|Cezara||F|1990-05-18|Cluj|CLUJ NAPOCA|Predeal|30|||0|8|0742063232||cezara_popa1@yahoo.com|CABK||Camel Black (6 mg) Pack|Yes|Yes||CJ002003|LEGENERAL SRL|Cluj-Napoca|CJHRKBA21|87|CCC HRK CAMEL BW 2012|121|Horeca|0
0|CS3194534|2012-12-12 00:47:39|Popescu|Florin||M|1989-11-22|Cluj|CLUJ NAPOCA|Oasului|826|||0|0|0745565799|||CABK||Tricou|Yes|Yes||CJ002003|LEGENERAL SRL|Cluj-Napoca|CJHRKBA34|87|CCC HRK CAMEL BW 2012|121|Horeca|0
0|CS3194535|2012-12-12 00:47:48|Cotisel|Alina||F|1993-07-22|Cluj|CLUJ NAPOCA|Ciresilor|49|||0|0|0754695098||alina.cotisel@yahoo.com|CAWH||Camel White (4 mg) Pack|Yes|Yes||CJ002003|LEGENERAL SRL|Cluj-Napoca|CJHRKBA08|87|CCC HRK CAMEL BW 2012|121|Horeca|0
0|CS3194536|2012-12-12 00:47:53|Pop|Iulia||F|1971-06-21|Cluj|CLUJ NAPOCA|Tepes|26|||0|0|0745925691||iuliapop@personal.ro|KTBL||Camel Black (6 mg) Pack|Yes|Yes||CJ002003|LEGENERAL SRL|Cluj-Napoca|CJHRKBA21|87|CCC HRK CAMEL BW 2012|121|Horeca|0
0|CS3194537|2012-12-12 00:48:02|Has|Calin||M|1990-07-15|Cluj|CLUJ NAPOCA|Aurel Vlaicu|27|V17|2|2|38|0725086961||figo1919@yahoo.com|DUNBL||Tricou|Yes|Yes||CJ002003|LEGENERAL SRL|Cluj-Napoca|CJHRKBA32|87|CCC HRK CAMEL BW 2012|121|Horeca|0
0|CS3194540|2012-12-12 00:51:21|Nagy|Zsofia||F|1992-05-05|Cluj|TURDA|Dr. I. Ratiu|82|||0|0|0728927697||nagy_zso92@yahoo.com|MBRFP||Camel Black (6 mg) Pack|Yes|Yes||CJ002003|LEGENERAL SRL|Cluj-Napoca|CJHRKBA34|87|CCC HRK CAMEL BW 2012|121|Horeca|0
0|CS3194541|2012-12-12 00:52:31|Jurcutiu|Flavia||F|1992-02-25|Cluj|CLUJ NAPOCA|Mucus|3|||0|14|0744729147||fla02fla@yahoo.com|CABK||Tricou|Yes|Yes||CJ002003|LEGENERAL SRL|Cluj-Napoca|CJHRKBA08|87|CCC HRK CAMEL BW 2012|121|Horeca|0
0|FS676861|2012-12-11 20:08:35|||||||||||||||||DUNBL||||||||||87|CCC HRK CAMEL BW 2012|121|Horeca|0
0|FS676867|2012-12-11 20:09:57|||||||||||||||||LSBL||||||||||87|CCC HRK CAMEL BW 2012|121|Horeca|0
0|FS676902|2012-12-11 20:17:36|||||||||||||||||KTBL||||||||||87|CCC HRK CAMEL BW 2012|121|Horeca|0
0|FS676903|2012-12-11 20:17:37||||M|||||||||||||MBRFP||||||||||87|CCC HRK CAMEL BW 2012|121|Horeca|0
0|FS676905|2012-12-11 20:18:10||||F|||||||||||||KTCON||||||||||87|CCC HRK CAMEL BW 2012|121|Horeca|0
0|FS676949|2012-12-11 20:44:31||||M|||||||||||||DAVCL||||||||||87|CCC HRK CAMEL BW 2012|121|Horeca|0
0|FS676952|2012-12-11 20:48:15|||||||||||||||||KTNBK||||||||||87|CCC HRK CAMEL BW 2012|121|Horeca|0
0|FS676954|2012-12-11 20:48:34||||M|||||||||||||KTBLH||||||||||87|CCC HRK CAMEL BW 2012|121|Horeca|0
0|FS676957|2012-12-11 20:52:52|||||||||||||||||KTBL||||||||||87|CCC HRK CAMEL BW 2012|121|Horeca|0
0|FS676967|2012-12-11 21:00:34|||||||||||||||||DUNBL||||||||||87|CCC HRK CAMEL BW 2012|121|Horeca|0
0|FS676969|2012-12-11 21:00:38||||M|||||||||||||PMBL||||||||||87|CCC HRK CAMEL BW 2012|121|Horeca|0
0|FS676975|2012-12-11 21:05:28||||F|||||||||||||VOGLL||||||||||87|CCC HRK CAMEL BW 2012|121|Horeca|0
0|FS676998|2012-12-11 21:41:04||||M|||||||||||||PARAB||||||||||87|CCC HRK CAMEL BW 2012|121|Horeca|0
0|FS677000|2012-12-11 21:41:30|||||||||||||||||MBRRD||||||||||87|CCC HRK CAMEL BW 2012|121|Horeca|0
0|FS677033|2012-12-11 22:26:57|||||||||||||||||KTBL||||||||||87|CCC HRK CAMEL BW 2012|121|Horeca|0
0|FS677035|2012-12-11 22:30:58|||||||||||||||||KTH||||||||||87|CCC HRK CAMEL BW 2012|121|Horeca|0
0|FS677040|2012-12-11 22:33:41||||M|||||||||||||KTSV||||||||||87|CCC HRK CAMEL BW 2012|121|Horeca|0
0|FS677074|2012-12-11 23:41:52|||||||||||||||||MBRRD||||||||||87|CCC HRK CAMEL BW 2012|121|Horeca|0
0|FS677116|2012-12-12 00:34:58|||||||||||||||||LSRD||||||||||87|CCC HRK CAMEL BW 2012|121|Horeca|0
