0|CS317840|2012-08-18 12:08:31|Vizinteanu|Iulia||F|1982-08-17|Galati|Galati|Nae leonard|25|0|0|0|0|0753669876||iuliajlo@hotmail.com|KTBL||Cocktail|Yes|Yes||CT004823|Club Crush|Constanta|CTHRKBA43|58|CCC HRK WIN XST Vara 2012|121|Horeca|0
0|CS317896|2012-08-18 12:18:02|Parvu|Ioana Daniela||F|1987-04-29|Bucuresti|5|Tunsu Petre|11||||0|0748384378||dana_nico_forever@yahoo.com|KTCON|KTCON|Cocktail|Yes|Yes||CT004822|Event Club Crush|Constanta|CTHRKBA40|58|CCC HRK WIN XST Vara 2012|121|Horeca|0
0|CS317909|2012-08-18 12:19:47|Masalschi|Mariana Alina||F|1986-01-01|Bucuresti|5|Tunsu Petre|11||||0|0768215555||alina_alitza540@yahoo.com|KTCON|KTCON|Cocktail|Yes|Yes||CT004822|Event Club Crush|Constanta|CTHRKBA40|58|CCC HRK WIN XST Vara 2012|121|Horeca|0
0|CS317914|2012-08-18 12:21:39|Cucu|Mircea Teodor||M|1988-11-03|Bucuresti|4|Strajan|12||||0|0747133840||teodor.cm@ygmail.ro|KTCON|KTCON|Cocktail|Yes|Yes||CT004822|Event Club Crush|Constanta|CTHRKBA40|58|CCC HRK WIN XST Vara 2012|121|Horeca|0
0|CS317921|2012-08-18 12:23:07|Garcea|Valentin||M|1986-03-01|Bucuresti|5|Petre Paun|35||||0|0767828571||ingerul_tau55@yahoo.com|KTCON|KTCON|Cocktail|Yes|Yes||CT004822|Event Club Crush|Constanta|CTHRKBA40|58|CCC HRK WIN XST Vara 2012|121|Horeca|0
0|CS317959|2012-08-18 12:29:21|Muresan|Veronicw||F|1982-05-07|Galati|Galati|Nufarului|3|S13|2|4|33|0745321678||st.veronik@live.it|WIXSTFX||Cocktail|Yes|Yes||CT004823|Club Crush|Constanta|CTHRKBA43|58|CCC HRK WIN XST Vara 2012|121|Horeca|0
0|CS318092|2012-08-18 12:52:00|Chindrus|Ionut||M|1984-03-18|Bacau|Bacau|Marasesti|98|Vc27|C|7|27|0745099733||ionutchindrus@yahoo.com|WIBL||Cocktail|Yes|Yes||CT004823|Club Crush|Constanta|CTHRKBA43|58|CCC HRK WIN XST Vara 2012|121|Horeca|0
0|CS318114|2012-08-18 12:55:28|Radu|Marian||M|1979-03-01|Prahova|PLOIESTI|Craiasi|37||||0|0730754235||radumarian@yahoo.com|KTCON|KTCON|Cocktail|Yes|Yes||CT004822|Event Club Crush|Constanta|CTHRKBA40|58|CCC HRK WIN XST Vara 2012|121|Horeca|0
0|CS318144|2012-08-18 13:00:01|Craiveanu|Andreea||F|1989-05-04|Brasov|Brasov|Libera|21|0|0|0|0|0756432167||andreeutza_craive@yahoo.com|KTBL||Cocktail|Yes|Yes||CT004823|Club Crush|Constanta|CTHRKBA43|58|CCC HRK WIN XST Vara 2012|121|Horeca|0
0|CS318167|2012-08-18 13:03:22|Vanca|Roxana||F|1985-06-01|Constanta|CONSTANTA|Unirii|4|||0|0|0732568543|||KTBL||Cocktail|Yes|Yes||CT004823|Club Crush|Constanta|CTHRKBA43|58|CCC HRK WIN XST Vara 2012|121|Horeca|0
0|CS318237|2012-08-18 13:13:33|Popetru|Mihai||M|1984-04-03|Braila|Braila|Lutrei|21|8|A|4|12|0746325643||ionutzz_hug@yahoo.com|KTBL||Cocktail|Yes|Yes||CT004823|Club Crush|Constanta|CTHRKBA43|58|CCC HRK WIN XST Vara 2012|121|Horeca|0
0|CS318306|2012-08-18 13:24:28|Labes|Elena||F|1986-02-22|Constanta|Constanta|Oborului|15|0|0|0|0|0724925656||labes.elena@gmail.com|KTBL||Cocktail|Yes|Yes||CT004823|Club Crush|Constanta|CTHRKBA43|58|CCC HRK WIN XST Vara 2012|121|Horeca|0
0|CS318450|2012-08-18 13:46:14|Stroie|Andra||F|1985-11-05|Bucuresti|3|Mircea Voda|38||||0|0730753579||andra48@yahoo.com|KTBL|KTBL|Cocktail|Yes|Yes||CT004822|Event Club Crush|Constanta|CTHRKBA40|58|CCC HRK WIN XST Vara 2012|121|Horeca|0
0|CS318468|2012-08-18 13:49:31|Popescu|Catalin||M|1987-04-29|Bucuresti|4|Roseti|74||||0|0767852452||catalinpopescu@yahoo.com|KTWH|KTWH|Cocktail|Yes|Yes||CT004822|Event Club Crush|Constanta|CTHRKBA40|58|CCC HRK WIN XST Vara 2012|121|Horeca|0
0|CS318492|2012-08-18 13:53:51|Pedro|Marin||M|1981-04-29|Constanta|CONSTANTA|Sergiu Nicolaescu|57||||0|0730864468||marinpedro@yahoo.com|KTCON|KTCON|Cocktail|Yes|Yes||CT004822|Event Club Crush|Constanta|CTHRKBA40|58|CCC HRK WIN XST Vara 2012|121|Horeca|0
0|CS318510|2012-08-18 13:57:24|Antemir|Mihai||M|1988-04-01|Brasov|Brasov|Libert|234|||||0745324566|||KTBL||Cocktail|Yes|Yes||CT004823|Club Crush|Constanta|CTHRKBA43|58|CCC HRK WIN XST Vara 2012|121|Horeca|0
0|CS318511|2012-08-18 13:58:00|Zmarandescu|Gabriel||M|1983-11-29|Arges|Pitesti|Armn Zcamescu|2||||0|0732007585||office@iecenter.ro|KTCON|KTCON|Cocktail|Yes|Yes||CT004822|Event Club Crush|Constanta|CTHRKBA40|58|CCC HRK WIN XST Vara 2012|121|Horeca|0
0|CS318525|2012-08-18 14:02:39|Rosca|Sorin||M|1984-09-16|Olt|Slatina|Aleea tineretului|6|Fb25a|C|3|12|0761981891||manywella@yahoo.com|KTBL||Cocktail|Yes|Yes||CT004823|Club Crush|Constanta|CTHRKBA43|58|CCC HRK WIN XST Vara 2012|121|Horeca|0
0|CS318533|2012-08-18 14:04:40|Puscasu|George marian||M|1983-12-12|Olt|SLATINA|Marasti|1|P4|A||2|0765770869||pgm_george@yahoo.com|KTBL||Cocktail|Yes|Yes||CT004823|Club Crush|Constanta|CTHRKBA43|58|CCC HRK WIN XST Vara 2012|121|Horeca|0
0|CS318543|2012-08-18 14:06:32|Neacsu|Cosmin||M|1983-05-28|Olt|Slatina|Pitesti|76|||||0767668715||raccu_slatina@yahoo.com|KTBL||Cocktail|Yes|Yes||CT004823|Club Crush|Constanta|CTHRKBA43|58|CCC HRK WIN XST Vara 2012|121|Horeca|0
0|CS318607|2012-08-18 14:26:49|Catana|Sebastian||M|1983-04-29|Bucuresti|4|Perisoru|47||||0|0730753578||sebastian47@yahoo.com|KTCON|KTCON|Cocktail|Yes|Yes||CT004822|Event Club Crush|Constanta|CTHRKBA40|58|CCC HRK WIN XST Vara 2012|121|Horeca|0
0|CS318647|2012-08-18 14:41:45|Tega|Ionut||M|1992-01-14|Constanta|CONSTANTA|Badea Cartan|7|K3|A|3|15|0733802197||ionut.tega@yahoo.com|KTCON|KTCON|Cocktail|Yes|Yes||CT004822|Event Club Crush|Constanta|CTHRKBA40|58|CCC HRK WIN XST Vara 2012|121|Horeca|0
0|CS318653|2012-08-18 14:44:33|Tanase|Mihai||M|1988-04-01|Bucuresti|4|Universitatii|12|6|A|3|12|0745324567||sto.yoyoyo@yahoo.com|KTBL||Cocktail|Yes|Yes||CT004823|Club Crush|Constanta|CTHRKBA43|58|CCC HRK WIN XST Vara 2012|121|Horeca|0
0|CS318674|2012-08-18 14:53:14|Mares|Iuliana||F|1989-04-05|Constanta|Constanta|Tomis|13|7|A|4|12|0745326765||iuly_mares@yahoo.com|KTSV||Cocktail|Yes|Yes||CT004823|Club Crush|Constanta|CTHRKBA43|58|CCC HRK WIN XST Vara 2012|121|Horeca|0
0|CS318677|2012-08-18 14:53:44|Petrisor|Ana||F|1983-11-06|Constanta|CONSTANTA|Petru vulcan|45|0|0|0|0|0731675676||anitza_60@yahoo.com|KTCON|KTCON|Cocktail|Yes|Yes||CT004822|Event Club Crush|Constanta|CTHRKBA40|58|CCC HRK WIN XST Vara 2012|121|Horeca|0
0|CS318681|2012-08-18 14:55:20|Nedelcu|Elena||M|1984-05-05|Constanta|CONSTANTA|Bld tomis|314|Lt5a|A|2|5|0721238838||ned.elena@yahoo.com|KTCON|KTCON|Cocktail|Yes|Yes||CT004822|Event Club Crush|Constanta|CTHRKBA40|58|CCC HRK WIN XST Vara 2012|121|Horeca|0
0|CS318699|2012-08-18 15:04:56|Flaviu|Daniel||M|1989-04-04|Bucuresti|3|Uirii|13|7|A|3|12|0745327898||dany_flv@yahoo.com|KTBL||Cocktail|Yes|Yes||CT004823|Club Crush|Constanta|CTHRKBA43|58|CCC HRK WIN XST Vara 2012|121|Horeca|0
0|CS318702|2012-08-18 15:06:29|Seretean|Ruxandra||F|1990-03-03|Bucuresti|1|Zablovschi|75||||0|0764024111||ruxy_ruxy2000@yahoo.com|KTCON||Cocktail|Yes|Yes||CT004822|Event Club Crush|Constanta|CTHRKBA40|58|CCC HRK WIN XST Vara 2012|121|Horeca|0
0|CS318706|2012-08-18 15:07:55|Robu|Alina||F|1989-11-17|Bucuresti|5|Dorneasca|11||||0|0727156725||alina_171989@yahoo.com|KTCON||Cocktail|Yes|Yes||CT004822|Event Club Crush|Constanta|CTHRKBA40|58|CCC HRK WIN XST Vara 2012|121|Horeca|0
0|CS318719|2012-08-18 15:16:28|Andrei|Adriana||F|1989-05-04|Braila|Braila|Mihai viteazu|347|||||0745326765||adry_annna@yahoo.com|KTBL||Cocktail|Yes|Yes||CT004823|Club Crush|Constanta|CTHRKBA43|58|CCC HRK WIN XST Vara 2012|121|Horeca|0
0|CS318725|2012-08-18 15:20:32|Plesa|Stelian||M|1985-05-29|Bucuresti|4|Gradinitei|68||||0|0767531468||stelian_stelik@yahoo.com|KTCON||Cocktail|Yes|Yes||CT004822|Event Club Crush|Constanta|CTHRKBA40|58|CCC HRK WIN XST Vara 2012|121|Horeca|0
0|CS318742|2012-08-18 15:33:28|Mitu|Maria Madalina||F|1986-03-01|Valcea|RAMNICU VALCEA|Eapsodiei|11||||0|0745814554||syndy_16_kiss@yahoo.com|KTCON||Cocktail|Yes|Yes||CT004822|Event Club Crush|Constanta|CTHRKBA40|58|CCC HRK WIN XST Vara 2012|121|Horeca|0
0|CS318747|2012-08-18 15:35:19|Ocheana|Andreea||F|1989-03-04|Galati|GALATI|Feroviarilor|16||||58|0760613490||andreea18_2o1o@yahoo.com|KTCON||Cocktail|Yes|Yes||CT004822|Event Club Crush|Constanta|CTHRKBA40|58|CCC HRK WIN XST Vara 2012|121|Horeca|0
0|CS318749|2012-08-18 15:36:21|Bobocea|Cosmin||M|1989-04-04|Braila|Braila|Ploiri|368|||||0745378987||cosmi_bob@yahoo.com|PMBL||Cocktail|Yes|Yes||CT004823|Club Crush|Constanta|CTHRKBA43|58|CCC HRK WIN XST Vara 2012|121|Horeca|0
0|CS318752|2012-08-18 15:38:44|Vladu|Razvan||M|1985-11-01|Dolj|CRAIOVA|Bidescu|74||||0|0760958639||spider2077@yahoo.com|KTCON||Cocktail|Yes|Yes||CT004822|Event Club Crush|Constanta|CTHRKBA40|58|CCC HRK WIN XST Vara 2012|121|Horeca|0
0|CS318783|2012-08-18 16:00:53|Ispas|Miruna||F|1989-01-01|Botosani|BOTOSANI|Pevnei|12|6|A|5|12|0756432189||miruna_jjj@yahoo.com|KTBL||Cocktail|Yes|Yes||CT004823|Club Crush|Constanta|CTHRKBA43|58|CCC HRK WIN XST Vara 2012|121|Horeca|0
0|CS318786|2012-08-18 16:02:25|Ivanov|Tia||F|1987-10-30|Constanta|CONSTANTA|Tulcei|8||||0|0726978711||nebunicaforyou@yahoo.com|KTCON||Cocktail|Yes|Yes||CT004822|Event Club Crush|Constanta|CTHRKBA40|58|CCC HRK WIN XST Vara 2012|121|Horeca|0
0|CS318844|2012-08-18 16:31:12|Mari|Antonia||M|1984-04-01|Constanta|CONSTANTA|Petresti|38||||0|0730864258||antonio75@yahoo.com|KTCON||Cocktail|Yes|Yes||CT004822|Event Club Crush|Constanta|CTHRKBA40|58|CCC HRK WIN XST Vara 2012|121|Horeca|0
0|CS318845|2012-08-18 16:31:54|Puia|Luiza||F|1990-05-23|Constanta|CONSTANTA|Dezrobirii|167|0|0|0|0|0766564567||luiza_4u@yahoo.com|KTCON||Cocktail|Yes|Yes||CT004822|Event Club Crush|Constanta|CTHRKBA40|58|CCC HRK WIN XST Vara 2012|121|Horeca|0
0|CS318848|2012-08-18 16:32:27|Ciricliu|M adalina||F|1988-04-22|Sibiu|Sibiu|Scoala de inot|2b|2b|B|4|20|0754393271||ciricliu_madalina@yahoo.com|PMBL||Cocktail|Yes|Yes||CT004823|Club Crush|Constanta|CTHRKBA43|58|CCC HRK WIN XST Vara 2012|121|Horeca|0
0|CS318852|2012-08-18 16:34:19|Zentin|Claudia||F|1985-04-30|Bucuresti|4|Lebedei|85||||0|0730752579||clauditza47@yahoo.com|KTCON||Cocktail|Yes|Yes||CT004822|Event Club Crush|Constanta|CTHRKBA40|58|CCC HRK WIN XST Vara 2012|121|Horeca|0
0|CS318870|2012-08-18 16:41:39|Dinu|Mihaela||F|1978-09-10|Bucuresti|6|Zorelelor|3|44|B|1|75|0726381555||myhacarmen@yahoo.com|KTCON|KTCON|Cocktail|Yes|Yes||CT004822|Event Club Crush|Constanta|CTHRKBA40|58|CCC HRK WIN XST Vara 2012|121|Horeca|0
0|CS318986|2012-08-18 17:20:36|Ciuraru|Gigel||M|1985-04-30|Calarasi|LEHLIU GARA|Mircea Cel Batran|83||||0|0730865086||ciurarugigi@yahoo.com|KTCON|KTCON|Cocktail|Yes|Yes||CT004822|Event Club Crush|Constanta|CTHRKBA40|58|CCC HRK WIN XST Vara 2012|121|Horeca|0
0|CS322881|2012-08-19 11:45:42|Manea|Cosmin||M|1987-04-29|Bucuresti|4|Rozelor|37||||0|0766368076||cosminma@yahoo.com|KTCON||Cocktail|Yes|Yes||CT004823|Club Crush|Constanta|CTHRKBA40|58|CCC HRK WIN XST Vara 2012|121|Horeca|0
0|CS322886|2012-08-19 11:47:13|Balaban|Romario||M|1990-03-15|Giurgiu|GIURGIU|Bvd 1907|67||||0|0728673090||romario_kvl@yahoo.com|KTCON||Cocktail|Yes|Yes||CT004823|Club Crush|Constanta|CTHRKBA40|58|CCC HRK WIN XST Vara 2012|121|Horeca|0
0|CS322887|2012-08-19 11:47:18|Spataroiu|Eugen||M|1991-08-03|Brasov|Brasov|Jupiter|2|24a|A|2|9|0746123725||eugentech@gmail.com|KTBL||Cocktail|Yes|Yes||CT004822|Event Club Crush|Constanta|CTHRKBA43|58|CCC HRK WIN XST Vara 2012|121|Horeca|0
0|CS322902|2012-08-19 11:52:11|Petrisor|Alexandru||M|1985-04-04|Neamt|PIATRA NEAMT|Dimitrie Cantemir|47||||0|0755872987||alexandrupetisor@yahoo.com|KTCON||Cocktail|Yes|Yes||CT004823|Club Crush|Constanta|CTHRKBA40|58|CCC HRK WIN XST Vara 2012|121|Horeca|0
0|CS322905|2012-08-19 11:53:50|Eseanu|Roxana||F|1987-09-29|Neamt|PIATRA NEAMT|Anton Pan|36||||0|0768789933||roxanae@yahoo.com|KTCON||Cocktail|Yes|Yes||CT004823|Club Crush|Constanta|CTHRKBA40|58|CCC HRK WIN XST Vara 2012|121|Horeca|0
0|CS322919|2012-08-19 11:59:38|Zaharia|Ciprian||M|1985-02-18|Constanta|CONSTANTA|Arhiescopiei|14||||0|0769812222|||KTCON||Cocktail|Yes|Yes||CT004823|Club Crush|Constanta|CTHRKBA40|58|CCC HRK WIN XST Vara 2012|121|Horeca|0
0|CS322926|2012-08-19 12:01:45|Turcan|Ciprian||M|1983-11-10|Bucuresti|6|Vintila mihailescu|14|80|A|2|16|0784616374||ciprian_turcanu193@yahoo.com|PMBL||Cocktail|Yes|Yes||CT004822|Event Club Crush|Constanta|CTHRKBA43|58|CCC HRK WIN XST Vara 2012|121|Horeca|0
0|CS323020|2012-08-19 12:28:46|Surdu|Horatiu||M|1987-09-04|Cluj|CLUJ NAPOCA|Ana Ipatescu|8||||0|0745820251||horatiyir@yahoo.com|KTCON||Cocktail|Yes|Yes||CT004823|Club Crush|Constanta|CTHRKBA40|58|CCC HRK WIN XST Vara 2012|121|Horeca|0
0|CS323032|2012-08-19 12:31:06|Tudor|Ionut||M|1993-05-21|Constanta|Constanta|Anghelescu temelie|6|||||0766638935||kocol1no_93@yahoo.com|PMBL||Cocktail|Yes|Yes||CT004822|Event Club Crush|Constanta|CTHRKBA43|58|CCC HRK WIN XST Vara 2012|121|Horeca|0
0|CS323037|2012-08-19 12:32:22|Constantin|Alin||M|1987-10-04|Neamt|PIATRA SOIMULUI|Panselutelor|36||||0|0765432896||alinconstantin@yahoo.com|KTCON||Cocktail|Yes|Yes||CT004823|Club Crush|Constanta|CTHRKBA40|58|CCC HRK WIN XST Vara 2012|121|Horeca|0
0|CS323054|2012-08-19 12:39:56|Amzu|Mihaela||F|1987-04-04|Satu Mare|SATU MARE|Aleea Mercesti|4||||0|0730864984||mickelahairdresser@gmail.com|KTCON||Cocktail|Yes|Yes||CT004823|Club Crush|Constanta|CTHRKBA40|58|CCC HRK WIN XST Vara 2012|121|Horeca|0
0|CS323062|2012-08-19 12:41:34|Alradei|Ionut||M|1983-04-04|Vrancea|FOCSANI|Alexandru Vlahuta|51||||0|0730753148||alradeiionut@yahoo.com|KTCON||Cocktail|Yes|Yes||CT004823|Club Crush|Constanta|CTHRKBA40|58|CCC HRK WIN XST Vara 2012|121|Horeca|0
0|CS323065|2012-08-19 12:41:53|Pinti.ie|Madalina||F|1994-01-14|Iasi|Iasi|Tudoor vladimirescu|24|331|A|0|2|0728990035||twist.raindrop@yahoo.com|KTBL||Cocktail|Yes|Yes||CT004822|Event Club Crush|Constanta|CTHRKBA43|58|CCC HRK WIN XST Vara 2012|121|Horeca|0
0|CS323093|2012-08-19 12:48:56|Filimon|Adrian||M|1981-04-05|Bucuresti|6|Mohorulii|4|145|A|8|21|0761926651||cos_cool81@yahoo.com|KTBL||Cocktail|Yes|Yes||CT004822|Event Club Crush|Constanta|CTHRKBA43|58|CCC HRK WIN XST Vara 2012|121|Horeca|0
0|CS323094|2012-08-19 12:49:00|Ciobanu|Ionut||M|1987-04-18|Brasov|BRASOV|Mureului|2||||0|0751404357||jhony_boy00@yahoo.com|KTCON||Cocktail|Yes|Yes||CT004823|Club Crush|Constanta|CTHRKBA40|58|CCC HRK WIN XST Vara 2012|121|Horeca|0
0|CS323101|2012-08-19 12:51:21|Podgoreanu|Mihai||M|1987-05-29|Braila|BRAILA|Muzeului|73||||0|0730754258||podgoreanucatalin@yahoo.com|KTCON||Cocktail|Yes|Yes||CT004823|Club Crush|Constanta|CTHRKBA40|58|CCC HRK WIN XST Vara 2012|121|Horeca|0
0|CS323115|2012-08-19 12:54:59|Hurezanu|Otilia||F|1988-11-14|Gorj|Tirgu jiu|Piata rosia montana|0|M16|O|6|25|0760607181||otilia_hurezanu@yahoo.com|KTBL||Cocktail|Yes|Yes||CT004822|Event Club Crush|Constanta|CTHRKBA43|58|CCC HRK WIN XST Vara 2012|121|Horeca|0
0|CS323129|2012-08-19 12:59:01|Crisan|Mihaela||M|1989-05-05|Brasov|Brasov|Liberarii|23|7|A|4|12|0734564321||mihaela_brv@yahoo.com|KTBL||Cocktail|Yes|Yes||CT004822|Event Club Crush|Constanta|CTHRKBA43|58|CCC HRK WIN XST Vara 2012|121|Horeca|0
0|CS323134|2012-08-19 13:00:25|Petiu|Stefania||F|1989-04-04|Braila|Braila|Universitatii|45|0|0|0|0|0723896534||stefania_vsrr@yahoo.com|KTCON||Cocktail|Yes|Yes||CT004822|Event Club Crush|Constanta|CTHRKBA43|58|CCC HRK WIN XST Vara 2012|121|Horeca|0
0|CS323140|2012-08-19 13:02:31|Popescu|Alexandru||M|1985-05-29|Constanta|CONSTANTA|Ion ratiu|39||||0|0730864147||popescualexandru@yhoo.com|KTCON||Cocktail|Yes|Yes||CT004823|Club Crush|Constanta|CTHRKBA40|58|CCC HRK WIN XST Vara 2012|121|Horeca|0
0|CS323159|2012-08-19 13:07:35|Miron|Cornelia||F|1989-12-22|Galati|Galati|Drumul viilor|23|||||0743519141||viky_39b@yahoo.com|KTBL||Cocktail|Yes|Yes||CT004822|Event Club Crush|Constanta|CTHRKBA43|58|CCC HRK WIN XST Vara 2012|121|Horeca|0
0|CS323243|2012-08-19 13:32:24|Tanase|Aurora||F|1964-12-01|Prahova|Ploiesti|Infratiri|9|0|0|0|0|0744365818||mrsauroran@yahoo.com|KTBL||Cocktail|Yes|Yes||CT004822|Event Club Crush|Constanta|CTHRKBA43|58|CCC HRK WIN XST Vara 2012|121|Horeca|0
0|CS323384|2012-08-19 14:04:01|Trandafir|Iulian||M|1988-04-03|Botosani|BOTOSANI|Viteazului|14|7|A|4|12|0734267543|||KTBL||Cocktail|Yes|Yes||CT004822|Event Club Crush|Constanta|CTHRKBA43|58|CCC HRK WIN XST Vara 2012|121|Horeca|0
0|CS323433|2012-08-19 14:15:13|Bologan|Alina||F|1991-04-18|Bucuresti|6|Economu cezarescu|47|A|A|6|603|0760900890||tokio_princess_alintutza@yahoo.com|WIBL||Cocktail|Yes|Yes||CT004822|Event Club Crush|Constanta|CTHRKBA43|58|CCC HRK WIN XST Vara 2012|121|Horeca|0
0|CS323463|2012-08-19 14:24:39|Dumitru|Adrian||M|1986-01-14|Bucuresti|6|Apusului|8|C48|C|6|148|0734556765||abelaide_mario@yahoo.com|WISV||Cocktail|Yes|Yes||CT004822|Event Club Crush|Constanta|CTHRKBA43|58|CCC HRK WIN XST Vara 2012|121|Horeca|0
0|CS323476|2012-08-19 14:27:43|Fodor|Robert||M|1990-08-03|Brasov|Brasov|Grivitei|48|17|0|8|25|0726780745||fodorr@ymail.com|KTBL||Cocktail|Yes|Yes||CT004822|Event Club Crush|Constanta|CTHRKBA43|58|CCC HRK WIN XST Vara 2012|121|Horeca|0
0|CS323563|2012-08-19 14:57:55|Bercaru|Mircea||M|1988-02-07|Bucuresti|2|Popanan|2|||||0733716569||buzillla@yahoo.com|KTBL||Cocktail|Yes|Yes||CT004822|Event Club Crush|Constanta|CTHRKBA43|58|CCC HRK WIN XST Vara 2012|121|Horeca|0
0|CS323573|2012-08-19 15:03:20|Ion|Mihaela||F|1972-01-14|Constanta|Constanta|Portului|0|D48|A|4|17|0734565443|||PMBL||Cocktail|Yes|Yes||CT004822|Event Club Crush|Constanta|CTHRKBA43|58|CCC HRK WIN XST Vara 2012|121|Horeca|0
0|CS323581|2012-08-19 15:05:38|Talmacel|Maria||F|1971-05-16|Constanta|Mangalia|Sirenei|H10a|H10a|A|0|3|0768443328||queen_didiux@yahoo.com|KTBL||Cocktail|Yes|Yes||CT004822|Event Club Crush|Constanta|CTHRKBA43|58|CCC HRK WIN XST Vara 2012|121|Horeca|0
0|CS323590|2012-08-19 15:08:11|Ion|Alin||M|1991-03-01|Constanta|Mangalia|Portului|0|D48|A|4|17|0757420913||alyn_2005_raul@yahoo.com|KTBL||Cocktail|Yes|Yes||CT004822|Event Club Crush|Constanta|CTHRKBA43|58|CCC HRK WIN XST Vara 2012|121|Horeca|0
0|CS323598|2012-08-19 15:11:54|Perdelea|Stefan||M|1989-04-04|Bucuresti|3|Viotorului|23|7|A3|3|12|0745336765||stefan_ftju@yahoo.com|KTBL||Cocktail|Yes|Yes||CT004822|Event Club Crush|Constanta|CTHRKBA43|58|CCC HRK WIN XST Vara 2012|121|Horeca|0
0|CS323621|2012-08-19 15:25:09|Petrovici|Sorin Antonio||M|1973-03-12|Bucuresti|SECTOR 5|Libertati|3|||0|0|0724500593||antonio19732000@yahoo.com|KTBL||Cocktail|Yes|Yes||CT004822|Event Club Crush|Constanta|CTHRKBA43|58|CCC HRK WIN XST Vara 2012|121|Horeca|0
0|CS323625|2012-08-19 15:26:32|Ocheana|Andreea||F|1989-03-04|Galati|GALATI|Feroviarilor|16|||0|58|0760613490||andreea18_2o1o@yahoo.com|KTBL||Cocktail|Yes|Yes||CT004822|Event Club Crush|Constanta|CTHRKBA43|58|CCC HRK WIN XST Vara 2012|121|Horeca|0
0|CS323627|2012-08-19 15:27:29|Mitu|Maria||F|1970-05-29|Ilfov|BRANESTI|Petre Ionel|206|||0|0|0728556376|||KTBL||Cocktail|Yes|Yes||CT004822|Event Club Crush|Constanta|CTHRKBA43|58|CCC HRK WIN XST Vara 2012|121|Horeca|0
0|CS323630|2012-08-19 15:28:33|Zmarandescu|Gabriel||M|1983-11-29|Arges|Pitesti|Armn Zcamescu|2|||0|0|0732007585||office@iecenter.ro|KTBL||Cocktail|Yes|Yes||CT004822|Event Club Crush|Constanta|CTHRKBA43|58|CCC HRK WIN XST Vara 2012|121|Horeca|0
0|CS323662|2012-08-19 15:47:06|Dicineanu|Gabriel||M|1971-10-10|Constanta|Constanta|Rasurii|53|||||0730707296||gabydicianu@yahoo.com|PMBL||Cocktail|Yes|Yes||CT004822|Event Club Crush|Constanta|CTHRKBA43|58|CCC HRK WIN XST Vara 2012|121|Horeca|0
0|CS323665|2012-08-19 15:50:36|Barbiru|Marian||M|1987-05-11|Vrancea|Dumbraveni|Principala|51|0|0|0|0|0742293926||marianbarbieru@gmail.com|KTBL||Cocktail|Yes|Yes||CT004822|Event Club Crush|Constanta|CTHRKBA43|58|CCC HRK WIN XST Vara 2012|121|Horeca|0
0|CS323695|2012-08-19 16:18:59|Seretean|Ruxandra||F|1990-03-03|Bucuresti|1|Zablovschi|75|||0|0|0764024111||ruxy_ruxy2000@yahoo.com|KTBL||Cocktail|Yes|Yes||CT004822|Event Club Crush|Constanta|CTHRKBA43|58|CCC HRK WIN XST Vara 2012|121|Horeca|0
0|CS323699|2012-08-19 16:19:49|Robu|Alina||F|1989-11-17|Bucuresti|5|Dorneasca|11|||0|0|0727156725||alina_171989@yahoo.com|KTBL||Cocktail|Yes|Yes||CT004822|Event Club Crush|Constanta|CTHRKBA43|58|CCC HRK WIN XST Vara 2012|121|Horeca|0
0|CS323705|2012-08-19 16:22:47|Nicolaescu|Liviu||M|1989-05-01|Sibiu|SIBIU|Nicolae iorga|51b|0|0|0|0|0766852944||liviu_nicolaescu@yahoo.com|KTBL||Cocktail|Yes|Yes||CT004822|Event Club Crush|Constanta|CTHRKBA43|58|CCC HRK WIN XST Vara 2012|121|Horeca|0
0|CS323709|2012-08-19 16:24:52|Dragan|Serban||M|1988-04-04|Bucuresti|2|Fetesti|23|5|A|2|12|0734221345||serban_drg@yahoo.com|KTBL||Cocktail|Yes|Yes||CT004822|Event Club Crush|Constanta|CTHRKBA43|58|CCC HRK WIN XST Vara 2012|121|Horeca|0
0|CS323756|2012-08-19 16:50:00|Serban|Mihai||M|1990-01-01|Bucuresti|4|Belvedere|54|0|0|0|0|0745326754||mihai_serb@yahoo.com|KTBL||Cocktail|Yes|Yes||CT004822|Event Club Crush|Constanta|CTHRKBA43|58|CCC HRK WIN XST Vara 2012|121|Horeca|0
0|CS323758|2012-08-19 16:50:55|Solomon|Monica||F|1987-05-28|Constanta|CONSTANTA|Randunelelor|84||||0|0730865247||monica_solomon_69@yahoo.com|KTCON||Cocktail|Yes|Yes||CT004823|Club Crush|Constanta|CTHRKBA40|58|CCC HRK WIN XST Vara 2012|121|Horeca|0
