0|CS81854|2012-04-20 20:32:23|Itu|Adrian||M|1978-05-05|Constanta|CONSTANTA|Aleea daliei|24|||||0723337659||adrian_itu78@yahoo.com|KTSV||Sobranie KS Gold (4 mg) Pack|Yes|Yes||CT004932|Toscana SRL |Constanta|CTHRKBA01|17|CCC HRK SOBR FAM 2012|121|Horeca|0
0|CS81857|2012-04-20 20:33:25|Alexandru|Marincoi||M|1983-04-21|Constanta|CONSTANTA|||||||0722568356||alexandru.marincoi@verbio.ro|DUNFCDB||Sobranie KS Black (8 mg) Pack|Yes|Yes||CT004932|Toscana SRL |Constanta|CTHRKBA06|17|CCC HRK SOBR FAM 2012|121|Horeca|0
0|CS81868|2012-04-20 20:38:32|Aleea|Nadina||F|1973-06-21|Constanta|CONSTANTA|Zefirului|26|||||0731729839||nadina_aldea@yahoo.com|VOGM||Sobranie SS Pink (3mg) Pack|Yes|Yes||CT004932|Toscana SRL |Constanta|CTHRKBA01|17|CCC HRK SOBR FAM 2012|121|Horeca|0
0|CS81899|2012-04-20 20:52:12|Michel|Hamm||M|1969-01-15|Constanta|CONSTANTA|||||||0735199118||mihai.sunca@gmail.com|MBRGL||Sobranie KS Blue (6 mg) Pack|Yes|Yes||CT004932|Toscana SRL |Constanta|CTHRKBA06|17|CCC HRK SOBR FAM 2012|121|Horeca|0
0|CS81901|2012-04-20 20:52:31|Bogdan|Laura||F|1973-08-28|Constanta|CONSTANTA|Mircea cel batran|150|||||0721375588||laura_bgdn@yahoo.com|SBSSPK||Sobranie SS Pink (3mg) Pack|No|Yes||CT004932|Toscana SRL |Constanta|CTHRKBA01|17|CCC HRK SOBR FAM 2012|121|Horeca|0
0|CS81911|2012-04-20 20:57:15|Stefan |Monica||F|1975-01-15|Constanta|CONSTANTA|Sarmisegetuza|09||||3|0736100200||monastefan75@gmail.com|SBSSWH||Sobranie SS White (1 mg) Pack|No|Yes||CT004932|Toscana SRL |Constanta|CTHRKBA01|17|CCC HRK SOBR FAM 2012|121|Horeca|0
0|CS81916|2012-04-20 21:01:37|Bogdan|Ionica||M|1973-12-22|Constanta|CONSTANTA|Mircea cel bat ran|150|||||0722383480||laura_bgdn@yahoo.com|SBSSPK||Sobranie SS Pink (3mg) Pack|No|Yes||CT004932|Toscana SRL |Constanta|CTHRKBA01|17|CCC HRK SOBR FAM 2012|121|Horeca|0
0|CS81959|2012-04-20 21:09:45|Stefan|Valentin||M|1974-07-07|Constanta|CONSTANTA|Sarmisegetuza|09||||3|0736100200||monastefan75@gmail.com|SBSSWH||Sobranie SS Pink (3mg) Pack|No|Yes||CT004932|Toscana SRL |Constanta|CTHRKBA01|17|CCC HRK SOBR FAM 2012|121|Horeca|0
0|CS82000|2012-04-20 21:46:37|Vera|Augustin||M|1968-08-17|Constanta|CONSTANTA|Noua |10|||||0742022765||augustyni@yahoo.com|KTNRD||Sobranie SS Black (6mg) Pack|Yes|Yes||CT000708|AMI COM SRL|Constanta|CTHRKBA01|17|CCC HRK SOBR FAM 2012|121|Horeca|0
0|CS82016|2012-04-20 21:54:09|Uricec|Anca||F|1990-05-07|Constanta|CONSTANTA|B.dul tomis|221|Ts11b|A|2|11|0749836476||anca.uricec@yahoo.com|VOGLL||Sobranie SS Pink (3mg) Pack|Yes|Yes||CT000708|AMI COM SRL|Constanta|CTHRKBA01|17|CCC HRK SOBR FAM 2012|121|Horeca|0
0|CS82023|2012-04-20 21:58:51|Zuda|Catalina||F|1988-11-19|Constanta|CONSTANTA|||||||0729350125||zuda.catalina@yahoo.com|SBSSWH||Sobranie SS White (1 mg) Pack|No|Yes||CT000708|AMI COM SRL|Constanta|CTHRKBA06|17|CCC HRK SOBR FAM 2012|121|Horeca|0
0|CS82028|2012-04-20 22:03:51|Caraban|Bogdan||M|1974-03-09|Constanta|CONSTANTA|||||||0722322476||bcaraban@yahoo.com|SBKSBK||Sobranie KS Black (8 mg) Pack|Yes|Yes||CT000708|AMI COM SRL|Constanta|CTHRKBA06|17|CCC HRK SOBR FAM 2012|121|Horeca|0
0|CS82051|2012-04-20 22:09:54|Neamtu|Sorin||M|1982-07-24|Constanta|CONSTANTA|||||||0728182183||sorin_neamtu24@yahoo.com|KTNSV||Sobranie SS White (1 mg) Pack|Yes|Yes||CT000708|AMI COM SRL|Constanta|CTHRKBA01|17|CCC HRK SOBR FAM 2012|121|Horeca|0
0|CS82052|2012-04-20 22:10:44|Borcea|Andrea||F|1984-10-28|Constanta|CONSTANTA|Ion ratiu|1|Pa6a|||1|0731368343||reea_a5@hotmail.com|SBSSPK||Sobranie SS Pink (3mg) Pack|No|Yes||CT000708|AMI COM SRL|Constanta|CTHRKBA06|17|CCC HRK SOBR FAM 2012|121|Horeca|0
0|CS82054|2012-04-20 22:15:24|Pantelimon|Irina||F|1975-02-12|Constanta|CONSTANTA|||||||0732301611||irina.pantelimon@yahoo.com|VOGLL||Sobranie SS Black (6mg) Pack|Yes|Yes||CT000708|AMI COM SRL|Constanta|CTHRKBA06|17|CCC HRK SOBR FAM 2012|121|Horeca|0
0|CS82055|2012-04-20 22:15:47|Bucur|Andreea||F|1987-01-31|Constanta|NAVODARI|Ocorului|19|27|E|1|65|0737644775||mititelu_andreea@yahoo.com|KTBL||Sobranie KS Black (8 mg) Pack + parfum|Yes|Yes||CT000708|AMI COM SRL|Constanta|CTHRKBA01|17|CCC HRK SOBR FAM 2012|121|Horeca|0
0|CS82066|2012-04-20 22:20:45|Iancu|Elena||F|1987-03-03|Constanta|NAVODARI|Cabanei|1|57|A|4|9|0730017184||bambucha@yahoo.com|VOGLL|SBSSPK|Sobranie SS Pink (3mg) Pack|Yes|Yes||CT000708|AMI COM SRL|Constanta|CTHRKBA01|17|CCC HRK SOBR FAM 2012|121|Horeca|0
0|CS82067|2012-04-20 22:21:03|Stoica|Ioana||F|1989-10-04|Constanta|CONSTANTA|Soveja|100|54|E||76|0720850234|||VOGFLPL||Sobranie SS Pink (3mg) Pack|Yes|Yes||CT000708|AMI COM SRL|Constanta|CTHRKBA06|17|CCC HRK SOBR FAM 2012|121|Horeca|0
0|CS82073|2012-04-20 22:24:29|Bucur|Florin||M|1984-09-10|Constanta|NAVODARI|Ogorului|19|O7|E|1|65|0766458835||florin_bcr@yahoo.com|KTBL||Sobranie KS Black (8 mg) Pack|Yes|Yes||CT000708|AMI COM SRL|Constanta|CTHRKBA01|17|CCC HRK SOBR FAM 2012|121|Horeca|0
0|CS82075|2012-04-20 22:25:50|Anton|Bianca||F|1992-02-05|Constanta|CONSTANTA|||||||0734380159||anton.biancaa@yahoo.com|VOGLL||Sobranie SS Pink (3mg) Pack|Yes|Yes||CT000708|AMI COM SRL|Constanta|CTHRKBA06|17|CCC HRK SOBR FAM 2012|121|Horeca|0
0|CS82078|2012-04-20 22:28:52|Pescu|Elena||F|1991-03-18|Constanta|CONSTANTA|||||||0733948656||elena_pescu@yahoo.com|DAVGLS||Sobranie SS Black (6mg) Pack|Yes|Yes||CT000708|AMI COM SRL|Constanta|CTHRKBA06|17|CCC HRK SOBR FAM 2012|121|Horeca|0
0|CS82121|2012-04-20 22:45:22|Claudiu|Cezar||M|1972-10-04|Constanta|CONSTANTA|||||||0744523098||claudiu.cezar@yahoo.com|CAWH||Sobranie KS Gold (4 mg) Pack + parfum|Yes|Yes||CT000708|AMI COM SRL|Constanta|CTHRKBA06|17|CCC HRK SOBR FAM 2012|121|Horeca|0
0|CS82122|2012-04-20 22:49:46|Istrat|Victor||M|1981-09-26|Constanta|CONSTANTA|||||||0726756266||victor_istrat@yahoo.com|DUNSV||Sobranie KS Gold (4 mg) Pack|Yes|Yes||CT000708|AMI COM SRL|Constanta|CTHRKBA01|17|CCC HRK SOBR FAM 2012|121|Horeca|0
0|CS82123|2012-04-20 22:52:54|Manea|Andreea||F|1989-01-11|Constanta|EFORIE NORD|Mesteacanului|38|||||0745887681||andreea22and@yahoo.com|VIRSPR||Sobranie SS Pink (3mg) Pack|Yes|Yes||CT000708|AMI COM SRL|Constanta|CTHRKBA01|17|CCC HRK SOBR FAM 2012|121|Horeca|0
0|CS82129|2012-04-20 23:02:18|Petu|Mihai||M|1987-11-21|Constanta|CONSTANTA|||||||0722235816||petru.mihai@yahoo.com|KTSV||Sobranie KS Gold (4 mg) Pack|Yes|Yes||CT000708|AMI COM SRL|Constanta|CTHRKBA06|17|CCC HRK SOBR FAM 2012|121|Horeca|0
0|CS82210|2012-04-20 23:28:58|Stoenescu|Denisa||F|1989-01-06|Constanta|CONSTANTA|Tomis|99|||||0763601078||de.luza@yahoo.com|KTNBK||Sobranie SS Pink (3mg) Pack|No|Yes||CT004056|Restaurant Mediteranean SRL |Constanta|CTHRKBA06|17|CCC HRK SOBR FAM 2012|121|Horeca|0
0|CS82211|2012-04-20 23:29:12|Diacon|Daniel||M|1978-11-05|Constanta|CONSTANTA|Aleea nalbei|5|L117||||0766564650||diacondaniel@yahoo.com|KTBL|SBKSBK|Sobranie KS Black (8 mg) Pack|Yes|Yes||CT004056|Restaurant Mediteranean SRL |Constanta|CTHRKBA01|17|CCC HRK SOBR FAM 2012|121|Horeca|0
0|CS82217|2012-04-20 23:38:03|Ceachir|Stefan||M|1983-03-04|Constanta|CONSTANTA|Rachitasi|31|||||0720848539||stefanlex@yahoo.com|SBKSBL||Sobranie KS Blue (6 mg) Pack|Yes|Yes||CT004056|Restaurant Mediteranean SRL |Constanta|CTHRKBA01|17|CCC HRK SOBR FAM 2012|121|Horeca|0
0|CS82218|2012-04-20 23:38:09|Muzafat|Elis||F|1986-12-29|Constanta|MEDGIDIA|||||||0763773947||ellys_muzafar23@yahoo.com|VOGABP||Sobranie KS Black (8 mg) Pack|Yes|Yes||CT004056|Restaurant Mediteranean SRL |Constanta|CTHRKBA06|17|CCC HRK SOBR FAM 2012|121|Horeca|0
0|CS82220|2012-04-20 23:40:26|Rusu|Flaviu||M|1983-06-06|Constanta|CONSTANTA|||||||0724197018||flaviu983@yahoo.com|SBKSBL||Sobranie KS Blue (6 mg) Pack|Yes|Yes||CT004056|Restaurant Mediteranean SRL |Constanta|CTHRKBA01|17|CCC HRK SOBR FAM 2012|121|Horeca|0
0|CS82222|2012-04-20 23:42:22|Cartofi|Mihai||M|1984-03-25|Constanta|CONSTANTA|||||||0724316745||mihai.cartoafa@yahoo.com|SBKSBL||Sobranie KS Blue (6 mg) Pack|Yes|Yes||CT004056|Restaurant Mediteranean SRL |Constanta|CTHRKBA01|17|CCC HRK SOBR FAM 2012|121|Horeca|0
0|CS82223|2012-04-20 23:43:47|Iosif|Indrid iolanda||F|1988-01-03|Constanta|NAVODARI|Nuferilor|11|B|C||40|0727074919||andaiosif@yahoo.com|SBKSGD||Sobranie KS Gold (4 mg) Pack|Yes|Yes||CT004056|Restaurant Mediteranean SRL |Constanta|CTHRKBA06|17|CCC HRK SOBR FAM 2012|121|Horeca|0
0|CS82224|2012-04-20 23:47:34|Chiru|Aida||F|1982-12-17|Constanta|CONSTANTA|||||||0736047608||chiruaida@yahoo.com|DUNFCDB||Sobranie KS Blue (6 mg) Pack|Yes|Yes||CT004056|Restaurant Mediteranean SRL |Constanta|CTHRKBA06|17|CCC HRK SOBR FAM 2012|121|Horeca|0
0|CS82226|2012-04-20 23:50:00|Stoina|Alina||F|1993-08-25|Constanta|CONSTANTA|Aurel vlaicu|25|||||0764642357|||DUNFCDB||Sobranie KS Black (8 mg) Pack|Yes|Yes||CT004056|Restaurant Mediteranean SRL |Constanta|CTHRKBA01|17|CCC HRK SOBR FAM 2012|121|Horeca|0
0|CS82227|2012-04-20 23:52:13|Stoica|Ioana||F|1984-12-28|Constanta|CONSTANTA|||||||0789607900||ioana.nn@yahoo.com|KTSV||Sobranie KS Gold (4 mg) Pack|Yes|Yes||CT004056|Restaurant Mediteranean SRL |Constanta|CTHRKBA06|17|CCC HRK SOBR FAM 2012|121|Horeca|0
0|CS82235|2012-04-20 23:57:09|Dumitru|Radu||M|1990-11-25|Constanta|CONSTANTA|||||||0727147708||rbdumitru90@yahoo.com|SBSSWH||Sobranie SS White (1 mg) Pack|No|Yes||CT004056|Restaurant Mediteranean SRL |Constanta|CTHRKBA06|17|CCC HRK SOBR FAM 2012|121|Horeca|0
0|CS82236|2012-04-21 00:01:02|Stoian|Monica||F|1985-11-28|Constanta|CONSTANTA|||||||0745329006||mona.st@yahoo.com|KTSV||Sobranie KS Gold (4 mg) Pack|Yes|No||CT004056|Restaurant Mediteranean SRL |Constanta|CTHRKBA06|17|CCC HRK SOBR FAM 2012|121|Horeca|0
0|CS82237|2012-04-21 00:03:15|Sariga|Teodora||F|1987-03-19|Constanta|CONSTANTA|||||||0723577280||reginutza_87@yahoo.com|SBSSPK||Sobranie SS Pink (3mg) Pack|No|Yes||CT004056|Restaurant Mediteranean SRL |Constanta|CTHRKBA06|17|CCC HRK SOBR FAM 2012|121|Horeca|0
0|CS82238|2012-04-21 00:08:38|Graur|Camelia||F|1986-04-12|Constanta|CONSTANTA|Bd tomis|334|St6|A|3|8|0726969760||kamy _elia@yahoo.com|VOGBL||Sobranie SS Pink (3mg) + parfum|Yes|Yes||CT004056|Restaurant Mediteranean SRL |Constanta|CTHRKBA01|17|CCC HRK SOBR FAM 2012|121|Horeca|0
0|CS82239|2012-04-21 00:09:59|Coman|Georgiana||F|1982-01-06|Constanta|CONSTANTA|Dreptatii|1|O|E||45|0722887942||georgiana_coman@yahoo.com|SBSSWH||Sobranie SS White (1 mg) + parfum|No|Yes||CT004056|Restaurant Mediteranean SRL |Constanta|CTHRKBA06|17|CCC HRK SOBR FAM 2012|121|Horeca|0
0|CS82240|2012-04-21 00:13:47|Marin|Laurentiu||M|1987-07-29|Constanta|CONSTANTA|Eroilor|68|4|C|3|71|0728121901||laursmarin@yahoo.com|SBKSBK||Sobranie KS Black (8 mg) Pack|Yes|Yes||CT004056|Restaurant Mediteranean SRL |Constanta|CTHRKBA01|17|CCC HRK SOBR FAM 2012|121|Horeca|0
0|CS82241|2012-04-21 00:16:50|Ciobanu|Andrei||M|1984-12-19|Constanta|CONSTANTA|Izvorului|4|||||0727797423||andreis_exe@yahoo.com|DUNSV||Sobranie KS Gold (4 mg) Pack|Yes|Yes||CT004056|Restaurant Mediteranean SRL |Constanta|CTHRKBA01|17|CCC HRK SOBR FAM 2012|121|Horeca|0
0|CS83256|2012-04-21 20:40:56|Bucur|Bogdan||M|1980-06-21|Constanta|CONSTANTA|Soveja|7|||||0723304486||bogdanbucur@ymail.com|SOBBR||Sobranie KS Gold (4 mg) Pack|Yes|Yes||CT004932|Toscana SRL |Constanta|CTHRKBA01|17|CCC HRK SOBR FAM 2012|121|Horeca|0
0|CS83259|2012-04-21 20:43:07|Totolos |Romulus||M|1974-09-23|Constanta|CONSTANTA|||||||0733052969||totolos_romulus@yahoo.com|VOGLL||Sobranie SS White (1 mg) Pack|Yes|Yes||CT004932|Toscana SRL |Constanta|CTHRKBA05|17|CCC HRK SOBR FAM 2012|121|Horeca|0
0|CS83285|2012-04-21 20:46:07|Dobrescu|Cristian||M|1981-01-28|Constanta|CONSTANTA|||||||0722435622||ristian.dobrescu@yahoo.com|DUNBL||Sobranie KS Blue (6 mg) Pack|Yes|No||CT004932|Toscana SRL |Constanta|CTHRKBA05|17|CCC HRK SOBR FAM 2012|121|Horeca|0
0|CS83297|2012-04-21 20:51:47|Dumbrava|Sergiu||M|1984-10-28|Constanta|CONSTANTA|Dionisie cel mic|52b|||||0758990651||serggy_junior@ymail.com|KTBL||Sobranie KS Blue (6 mg) Pack|Yes|No||CT004932|Toscana SRL |Constanta|CTHRKBA01|17|CCC HRK SOBR FAM 2012|121|Horeca|0
0|CS83299|2012-04-21 20:52:10|Maftei|Nina||M|1984-12-03|Constanta|CONSTANTA|||||||0728009708||nina.maftei@yahoo.com|KTSV||Sobranie KS Gold (4 mg) Pack|Yes|Yes||CT004932|Toscana SRL |Constanta|CTHRKBA06|17|CCC HRK SOBR FAM 2012|121|Horeca|0
0|CS83303|2012-04-21 20:53:50|Rasteanu|Anca||F|1985-11-21|Constanta|CONSTANTA|Str albinelor|18|A7|A|3|14|0726145120||c_alessanco@yahoo.com|VIRSBL||Sobranie SS Black (6mg) Pack|Yes|Yes||CT004932|Toscana SRL |Constanta|CTHRKBA05|17|CCC HRK SOBR FAM 2012|121|Horeca|0
0|CS83331|2012-04-21 20:59:02|Prisacaru|Alexandru||M|1978-10-02|Constanta|MEDGIDIA|Floral or|44|||||0766312214||alexandru_prisacaru@yahoo.com|DUNBL||Sobranie KS Blue (6 mg) Pack|Yes|No||CT004932|Toscana SRL |Constanta|CTHRKBA05|17|CCC HRK SOBR FAM 2012|121|Horeca|0
0|CS83373|2012-04-21 20:59:21|Ureche|Cosmin||M|1981-10-25|Constanta|CONSTANTA|Soveja|07|||||0760881468||urechecosminn@gmail.com|KTBL||Sobranie KS Blue (6 mg) Pack|Yes|No||CT004932|Toscana SRL |Constanta|CTHRKBA01|17|CCC HRK SOBR FAM 2012|121|Horeca|0
0|CS83335|2012-04-21 21:00:58|Badea|Loredana||F|1990-08-13|Constanta|CONSTANTA|Ion ratiu|15|||||||lorry_badea@yahoo.com|MBRFPEX||Sobranie KS Gold (4 mg) Pack|Yes|Yes||CT004932|Toscana SRL |Constanta|CTHRKBA06|17|CCC HRK SOBR FAM 2012|121|Horeca|0
0|CS83415|2012-04-21 21:14:28|Stoiceanu|Loredana||F|1977-01-06|Constanta|CONSTANTA|||||||0752265275||om_bogat_om_sarac@yahoo.com|VOGABP||Sobranie SS Black (6mg) Pack|Yes|Yes||CT004932|Toscana SRL |Constanta|CTHRKBA06|17|CCC HRK SOBR FAM 2012|121|Horeca|0
0|CS83452|2012-04-21 21:42:02|Caldura |Dinca||M|1980-02-25|Constanta|CONSTANTA|||||||0724884361||calura_dani@yahoo.com|MBRGL||Sobranie KS Blue (6 mg) Pack|Yes|Yes||CT000708|AMI COM SRL|Constanta|CTHRKBA06|17|CCC HRK SOBR FAM 2012|121|Horeca|0
0|CS83454|2012-04-21 21:42:31|Vasile|Ioana Alexandra||F|1991-07-02|Constanta|CONSTANTA|Dreptatii|3|Q|C||31|0721639164||ioana.alexandrav91@yahoo.com|WIBL||Sobranie SS Pink (3mg) Pack|No|Yes||CT000708|AMI COM SRL|Constanta|CTHRKBA01|17|CCC HRK SOBR FAM 2012|121|Horeca|0
0|CS83455|2012-04-21 21:42:38|Raicu|Diana||F|1990-02-11|Constanta|CONSTANTA|||||||0731216846||rai_cu_diana@yahoo.com|VIRSPR||Sobranie SS Black (6mg) Pack|Yes|Yes||CT000708|AMI COM SRL|Constanta|CTHRKBA05|17|CCC HRK SOBR FAM 2012|121|Horeca|0
0|CS83464|2012-04-21 21:49:43|Manea|Sebastian||M|1984-02-13|Constanta|CONSTANTA|||||||0745514908||sebastian.manea@live.com|KTBL||Sobranie KS Blue (6 mg) Pack|Yes|Yes||CT000708|AMI COM SRL|Constanta|CTHRKBA05|17|CCC HRK SOBR FAM 2012|121|Horeca|0
0|CS83465|2012-04-21 21:49:59|Stoica|Oana||F|1985-05-05|Constanta|CONSTANTA|||||||0721877750||stoica.oana1@yahoo.com|KTWH||Sobranie SS White (1 mg) Pack|Yes|Yes||CT000708|AMI COM SRL|Constanta|CTHRKBA06|17|CCC HRK SOBR FAM 2012|121|Horeca|0
0|CS83467|2012-04-21 21:50:45|Bratosin|Laurentiu||M|1979-07-23|Constanta|CONSTANTA|Tulcei|10|Tm3|A|||0721982682||llaur_bbra@yahoo.com|MBRGLFT||Sobranie KS Blue (6 mg) Pack|Yes|Yes||CT000708|AMI COM SRL|Constanta|CTHRKBA01|17|CCC HRK SOBR FAM 2012|121|Horeca|0
0|CS83480|2012-04-21 21:59:30|Badescu|Adrian||M|1983-11-27|Constanta|CONSTANTA|||||||0752177721||a.badescu@yahoo.com|DUNFCDB||Sobranie KS Blue (6 mg) Pack|Yes|Yes||CT000708|AMI COM SRL|Constanta|CTHRKBA06|17|CCC HRK SOBR FAM 2012|121|Horeca|0
0|CS83486|2012-04-21 22:01:25|Moldovan|Mariana||F|1962-09-02|Iasi|IASI|Cazarmilor|5A|||||0720020420|||VOGBL||Sobranie SS Black (6mg) Pack|Yes|Yes||CT000708|AMI COM SRL|Constanta|CTHRKBA01|17|CCC HRK SOBR FAM 2012|121|Horeca|0
0|CS83488|2012-04-21 22:02:42|Ainur|Ibram||M|1980-04-11|Constanta|CONSTANTA|||||||0724799311||ainur_ibram@yahoo.com|KTSV||Sobranie KS Gold (4 mg) Pack|Yes|Yes||CT000708|AMI COM SRL|Constanta|CTHRKBA05|17|CCC HRK SOBR FAM 2012|121|Horeca|0
0|CS83494|2012-04-21 22:04:49|Deliorga|Cristina||F|1987-09-08|Constanta|CONSTANTA|||||||0742229777||guv_maria_cristina@yahoo.com|KTNSV||Sobranie SS White (1 mg) Pack|Yes|Yes||CT000708|AMI COM SRL|Constanta|CTHRKBA06|17|CCC HRK SOBR FAM 2012|121|Horeca|0
0|CS83499|2012-04-21 22:06:55|Dobrescu|Simina eleonora||F|1989-04-15|Tulcea|TULCEA|Garii|10||||15|0736025376||eleonora.simina@yahoo.com|DAVGL||Sobranie SS Black (6mg) Pack|Yes|Yes||CT000708|AMI COM SRL|Constanta|CTHRKBA01|17|CCC HRK SOBR FAM 2012|121|Horeca|0
0|CS83503|2012-04-21 22:09:58|Timofei|Daniel||M|1965-07-09|Bucuresti|Bucuresti|||||||0722200612||daniel.timofei@gmail.com|SBKSBL||Sobranie KS Blue (6 mg) Pack|Yes|Yes||CT000708|AMI COM SRL|Constanta|CTHRKBA06|17|CCC HRK SOBR FAM 2012|121|Horeca|0
0|CS83504|2012-04-21 22:10:01|Vlasceanu|Lucian||M|1981-05-18|Constanta|CONSTANTA|Aurel vlaicu|99|Av2|C||40|0745142474||lucian.vlasceanu@yahoo.com|MBRFP||Sobranie KS Black (8 mg) Pack|Yes|Yes||CT000708|AMI COM SRL|Constanta|CTHRKBA01|17|CCC HRK SOBR FAM 2012|121|Horeca|0
0|CS83507|2012-04-21 22:12:05|Saraev|Octavian||M|1980-07-08|Constanta|CONSTANTA|Dezrobirii|118|Is5|||40|0721023025||saraev.octavian@yahoo.com|SOBBR||Sobranie KS Black (8 mg) Pack|Yes|Yes||CT000708|AMI COM SRL|Constanta|CTHRKBA01|17|CCC HRK SOBR FAM 2012|121|Horeca|0
0|CS83511|2012-04-21 22:13:01|Afanasios|Dimitiu||M|1967-02-13|Constanta|CONSTANTA|Calarasi|6a|||||0757032031||evromex@yahoo.com|CAWH||Sobranie KS Gold (4 mg) Pack|Yes|No||CT000708|AMI COM SRL|Constanta|CTHRKBA05|17|CCC HRK SOBR FAM 2012|121|Horeca|0
0|CS83514|2012-04-21 22:14:54|Dan|Marius||M|1988-09-19|Constanta|CONSTANTA|||||||0744690012||roshu_h3r3@yahoo.com|KTSV||Sobranie KS Gold (4 mg) Pack|Yes|Yes||CT000708|AMI COM SRL|Constanta|CTHRKBA06|17|CCC HRK SOBR FAM 2012|121|Horeca|0
0|CS83516|2012-04-21 22:19:16|Tudose|Ionela||F|1984-12-24|Constanta|CONSTANTA|||||||0744589077||ionela.tudose@yahoo.com|KTSV||Sobranie KS Gold (4 mg) Pack + parfum|Yes|No||CT000708|AMI COM SRL|Constanta|CTHRKBA06|17|CCC HRK SOBR FAM 2012|121|Horeca|0
0|CS83526|2012-04-21 22:22:41|Tincuta|Nula||F|1987-06-26|Constanta|CONSTANTA|Eliberarii|37|Ae5a|A|1|5|0757752867||tincuta.nula@gmail.com|KTBL||Sobranie KS Gold (4 mg) Pack|Yes|Yes||CT000708|AMI COM SRL|Constanta|CTHRKBA05|17|CCC HRK SOBR FAM 2012|121|Horeca|0
0|CS83527|2012-04-21 22:25:40|Lica|Eden||M|1983-10-05|Constanta|CONSTANTA|Stejarului|71|||||0767998368||eden.lica@yahoo.com|DUNFCDB||Sobranie KS Blue (6 mg) Pack + parfum|Yes|No||CT000708|AMI COM SRL|Constanta|CTHRKBA01|17|CCC HRK SOBR FAM 2012|121|Horeca|0
0|CS83531|2012-04-21 22:27:29|Georgescu|Cristian||M|1979-06-02|Constanta|CONSTANTA|Do tomis254||||||0728565433||motopelo@yahoo.com|KTCON||Sobranie KS Gold (4 mg) Pack + parfum|Yes|Yes||CT000708|AMI COM SRL|Constanta|CTHRKBA05|17|CCC HRK SOBR FAM 2012|121|Horeca|0
0|CS83534|2012-04-21 22:28:41|Lungu|Mihaela||F|1984-10-29|Constanta|CONSTANTA|Aleea margaritarelor|15|||||0754955332||miha.ellajic@gmail.com|DUNBL||Sobranie KS Blue (6 mg) Pack|Yes|No||CT000708|AMI COM SRL|Constanta|CTHRKBA01|17|CCC HRK SOBR FAM 2012|121|Horeca|0
0|CS83548|2012-04-21 22:33:47|Adamopol|Laurentiu||M|1978-03-13|Constanta|CONSTANTA|||||||0722526948||adams_laur@yahoo.com|MBRGL||Sobranie KS Gold (4 mg) Pack|Yes|Yes||CT000708|AMI COM SRL|Constanta|CTHRKBA06|17|CCC HRK SOBR FAM 2012|121|Horeca|0
0|CS83551|2012-04-21 22:34:42|Chicheanu nicu|Nicu||M|1986-07-01|Constanta|CONSTANTA|Eliberării|9|Iv39|B|2|15|0724343805|||KTSV||Sobranie KS Gold (4 mg) Pack|Yes|Yes||CT000708|AMI COM SRL|Constanta|CTHRKBA01|17|CCC HRK SOBR FAM 2012|121|Horeca|0
0|CS83568|2012-04-21 22:39:27|Popescu|Andreea||F|1988-08-21|Constanta|CONSTANTA|Berzei|2|S|A|2|9|0732349791||andreiutza_scumpik88@yahoo.com|VOGLL||Sobranie SS Pink (3mg) Pack|Yes|Yes||CT000708|AMI COM SRL|Constanta|CTHRKBA01|17|CCC HRK SOBR FAM 2012|121|Horeca|0
0|CS83570|2012-04-21 22:40:47|Cristea|Adelina||F|1989-02-23|Constanta|CONSTANTA|Soveja|24|||||0722652133||adelina_criss@yahoo.com|DUNBL||Sobranie KS Blue (6 mg) Pack|Yes|No||CT000708|AMI COM SRL|Constanta|CTHRKBA05|17|CCC HRK SOBR FAM 2012|121|Horeca|0
0|CS83575|2012-04-21 22:44:34|Chiru|Catalin||M|1983-05-24|Constanta|CONSTANTA|Mamaia|246|V|D|2|64|||chiru_catalin@yahoo.com|DUNBL||Sobranie KS Blue (6 mg) Pack|Yes|Yes||CT000708|AMI COM SRL|Constanta|CTHRKBA05|17|CCC HRK SOBR FAM 2012|121|Horeca|0
0|CS83608|2012-04-21 22:50:34|Cretu|Iuliana||F|1984-02-22|Constanta|CONSTANTA|||||||0734579008||iuliana.cretu@yahoo.com|KTSV||Sobranie KS Gold (4 mg) Pack|Yes|No||CT000708|AMI COM SRL|Constanta|CTHRKBA06|17|CCC HRK SOBR FAM 2012|121|Horeca|0
0|CS83612|2012-04-21 22:51:57|Lupu|Cristian||M|1989-10-07|Constanta|CONSTANTA|Al lapusneanu||Le33|1|7|20|0755874601||lupucprn@yahoo.com|DUNBL||Sobranie KS Black (8 mg) Pack|Yes|Yes||CT000708|AMI COM SRL|Constanta|CTHRKBA05|17|CCC HRK SOBR FAM 2012|121|Horeca|0
0|CS83647|2012-04-21 23:17:00|Chirata|Stefana||F|1989-06-01|Constanta|CONSTANTA|||||||0761634274||stefy_creata@yahoo.com|KTSV||Sobranie KS Gold (4 mg) Pack|Yes|Yes||CT004056|Restaurant Mediteranean SRL |Constanta|CTHRKBA06|17|CCC HRK SOBR FAM 2012|121|Horeca|0
0|CS83652|2012-04-21 23:19:52|Iliseu|Anca||F|1987-06-03|Constanta|CONSTANTA|Bl 1decembrie| 29|L29|D|4|68|0723769696||ank_bubbles_87@yahoo.com|VOGLL||Sobranie SS Black (6mg) Pack|Yes|Yes||CT004056|Restaurant Mediteranean SRL |Constanta|CTHRKBA05|17|CCC HRK SOBR FAM 2012|121|Horeca|0
0|CS83656|2012-04-21 23:21:18|Scurtu|Elena||F|1987-02-09|Constanta|CONSTANTA|||||||0745007153||ela.elena@yahoo.com|KTSV||Sobranie KS Gold (4 mg) Pack|Yes|Yes||CT004056|Restaurant Mediteranean SRL |Constanta|CTHRKBA06|17|CCC HRK SOBR FAM 2012|121|Horeca|0
0|CS83657|2012-04-21 23:21:24|Eftimie|Raluca||F|1987-03-09|Tulcea|TULCEA|Aurel vlaicu|70|||||0766001880|||DUNBL||Sobranie KS Blue (6 mg) Pack|Yes|No||CT004056|Restaurant Mediteranean SRL |Constanta|CTHRKBA01|17|CCC HRK SOBR FAM 2012|121|Horeca|0
0|CS83665|2012-04-21 23:26:24|Moraru|Camelia||F|1987-11-25|Constanta|CONSTANTA|1mai|17b|||||0724627833||cami.moraru@yahoo.com|VOGLL||Sobranie SS White (1 mg) Pack|Yes|Yes||CT004056|Restaurant Mediteranean SRL |Constanta|CTHRKBA05|17|CCC HRK SOBR FAM 2012|121|Horeca|0
0|CS83670|2012-04-21 23:29:51|Isabela dumbrava|Dumbrava||F|1985-08-07|Constanta|CONSTANTA|Rasuri|31|||||0722841633||isabeladumbrava@ymail.com|VOGLL||Sobranie SS Black (6mg) Pack|Yes|Yes||CT004056|Restaurant Mediteranean SRL |Constanta|CTHRKBA05|17|CCC HRK SOBR FAM 2012|121|Horeca|0
0|CS83674|2012-04-21 23:32:51|Sucri|Enise||F|1986-10-23|Constanta|CONSTANTA|Dobrila eugeniu||||||0729069186||yildiz_enise@yahoo.com|VOGFLLL||Sobranie SS Pink (3mg) Pack|Yes|Yes||CT004056|Restaurant Mediteranean SRL |Constanta|CTHRKBA01|17|CCC HRK SOBR FAM 2012|121|Horeca|0
0|CS83683|2012-04-21 23:35:35|Dobre|Ana Maria||F|1980-03-19|Constanta|CONSTANTA|Tabla Butii|6a|||||0733355442||dobre.anamaria@yahoo.com|VIRSPR||Sobranie SS Black (6mg) Pack|Yes|Yes||CT004056|Restaurant Mediteranean SRL |Constanta|CTHRKBA05|17|CCC HRK SOBR FAM 2012|121|Horeca|0
0|CS83684|2012-04-21 23:35:44|Ali|Ertan||M|1988-06-10|Constanta|CONSTANTA|Ion Adam |29|||||0721543566|||DUNBL||Sobranie KS Blue (6 mg) Pack|Yes|Yes||CT004056|Restaurant Mediteranean SRL |Constanta|CTHRKBA01|17|CCC HRK SOBR FAM 2012|121|Horeca|0
0|CS83693|2012-04-21 23:37:36|Stoinea|Alinw||F|1993-08-25|Constanta|CONSTANTA|Aurel vlaicu|25|4|A||1|0764642357|||DUNFCDB||Sobranie KS Black (8 mg) Pack|Yes|Yes||CT004056|Restaurant Mediteranean SRL |Constanta|CTHRKBA06|17|CCC HRK SOBR FAM 2012|121|Horeca|0
0|CS83697|2012-04-21 23:38:51|Postica|Corina||F|1983-10-22|Constanta|CONSTANTA|||||||0766458870||corina_ryna@yahoo.com|DUNBL||Sobranie KS Blue (6 mg) Pack|Yes|Yes||CT004056|Restaurant Mediteranean SRL |Constanta|CTHRKBA05|17|CCC HRK SOBR FAM 2012|121|Horeca|0
0|CS83705|2012-04-21 23:41:08|Stingheru|Iulia||M|1987-03-22|Constanta|CONSTANTA|||||||0745233900||iulia.stingheru@yahoo.com|MBRGL||Sobranie KS Gold (4 mg) Pack|Yes|Yes||CT004056|Restaurant Mediteranean SRL |Constanta|CTHRKBA06|17|CCC HRK SOBR FAM 2012|121|Horeca|0
0|CS83716|2012-04-21 23:47:19|Anghel|Elena Cristina||F|1989-08-21|Constanta|CONSTANTA|Bulk Tomis|348|Tav2||2|11|0727441304||anghel.elenacristina@yahoo.com|VOGLL||Sobranie SS Pink (3mg) Pack|Yes|Yes||CT004056|Restaurant Mediteranean SRL |Constanta|CTHRKBA05|17|CCC HRK SOBR FAM 2012|121|Horeca|0
0|CS83717|2012-04-21 23:48:25|Casandra|Ioana||F|1981-06-10|Constanta|CONSTANTA|Alexandru lapusneanu|84|||||0722288911||ioana10681@yahoo.com|SBKSBL||Sobranie KS Blue (6 mg) Pack|Yes|Yes||CT004056|Restaurant Mediteranean SRL |Constanta|CTHRKBA01|17|CCC HRK SOBR FAM 2012|121|Horeca|0
0|CS83721|2012-04-21 23:53:18|Mandrescu|Adelina||F|1982-09-26|Constanta|CONSTANTA|Zorelelor|65|||||0758007446||addelle.lore@gmail.com|DUNBL||Sobranie KS Blue (6 mg) Pack|Yes|No||CT004056|Restaurant Mediteranean SRL |Constanta|CTHRKBA01|17|CCC HRK SOBR FAM 2012|121|Horeca|0
0|CS83722|2012-04-21 23:57:39|Tobosaru|Ioana||F|1984-10-19|Constanta|CONSTANTA|||||||0734518900||tobosaru.iona@yahoo.com|KTBL||Sobranie KS Gold (4 mg) Pack|Yes|No||CT004056|Restaurant Mediteranean SRL |Constanta|CTHRKBA06|17|CCC HRK SOBR FAM 2012|121|Horeca|0
0|CS83732|2012-04-21 23:59:59|Zainea|Diana||F|1987-08-10|Constanta|CONSTANTA|Bravilor|4|H1|C|4|59|0726471505||zainea_diana@yahoo.com|VOGLL||Sobranie SS White (1 mg) + parfum|Yes|Yes||CT004056|Restaurant Mediteranean SRL |Constanta|CTHRKBA05|17|CCC HRK SOBR FAM 2012|121|Horeca|0
0|CS83742|2012-04-22 00:05:18|Mihaila|Daniel||M|1985-06-11|Constanta|CONSTANTA|Unirii|64|||||0745323312||daniel_mihai@yahoo.com|DUNBL||Sobranie KS Blue (6 mg) Pack|Yes|No||CT004056|Restaurant Mediteranean SRL |Constanta|CTHRKBA05|17|CCC HRK SOBR FAM 2012|121|Horeca|0
0|FS167937|2012-04-20 20:30:37|||||||||||||||||KTNSV||||||||||17|CCC HRK SOBR FAM 2012|121|Horeca|0
0|FS168002|2012-04-20 20:44:03||||F|||||||||||||DUNBL||||||||||17|CCC HRK SOBR FAM 2012|121|Horeca|0
0|FS168003|2012-04-20 20:44:21||||F||Constanta|CONSTANTA||||||||||KTBL||||||||||17|CCC HRK SOBR FAM 2012|121|Horeca|0
0|FS168004|2012-04-20 20:44:31||||M|||||||||||||KTH||||||||||17|CCC HRK SOBR FAM 2012|121|Horeca|0
0|FS168005|2012-04-20 20:44:46||||F|||||||||||||DUNBL||||||||||17|CCC HRK SOBR FAM 2012|121|Horeca|0
0|FS168006|2012-04-20 20:45:03||||M|||||||||||||KTNSV||||||||||17|CCC HRK SOBR FAM 2012|121|Horeca|0
0|FS168009|2012-04-20 20:45:39||||F|||||||||||||KTCON||||||||||17|CCC HRK SOBR FAM 2012|121|Horeca|0
0|FS168013|2012-04-20 20:47:00||||M|||||||||||||PARRSS||||||||||17|CCC HRK SOBR FAM 2012|121|Horeca|0
0|FS168017|2012-04-20 20:47:26||||F|||||||||||||PARRSSH||||||||||17|CCC HRK SOBR FAM 2012|121|Horeca|0
0|FS168018|2012-04-20 20:47:40||||F|||||||||||||KTBL||||||||||17|CCC HRK SOBR FAM 2012|121|Horeca|0
0|FS168145|2012-04-20 21:42:45||||M|||||||||||||DAVGLH||||||||||17|CCC HRK SOBR FAM 2012|121|Horeca|0
0|FS168146|2012-04-20 21:44:36||||F|||||||||||||PARRSS||||||||||17|CCC HRK SOBR FAM 2012|121|Horeca|0
0|FS168147|2012-04-20 21:44:58||||M|||||||||||||MBRGLA||||||||||17|CCC HRK SOBR FAM 2012|121|Horeca|0
0|FS168151|2012-04-20 21:48:49||||M|||||||||||||DUNBL||||||||||17|CCC HRK SOBR FAM 2012|121|Horeca|0
0|FS168159|2012-04-20 21:52:40||||F|||||||||||||VOGLL||||||||||17|CCC HRK SOBR FAM 2012|121|Horeca|0
0|FS168250|2012-04-20 22:44:33||||M|||||||||||||DAVGL||||||||||17|CCC HRK SOBR FAM 2012|121|Horeca|0
0|FS168252|2012-04-20 22:44:47||||M|||||||||||||DAVGLS||||||||||17|CCC HRK SOBR FAM 2012|121|Horeca|0
0|FS168254|2012-04-20 22:45:14||||M|||||||||||||KTBL||||||||||17|CCC HRK SOBR FAM 2012|121|Horeca|0
0|FS168256|2012-04-20 22:45:34||||M|||||||||||||DUNFCDB||||||||||17|CCC HRK SOBR FAM 2012|121|Horeca|0
0|FS168257|2012-04-20 22:46:13||||M|||||||||||||DUNFCDB||||||||||17|CCC HRK SOBR FAM 2012|121|Horeca|0
0|FS168261|2012-04-20 22:56:20||||F|||||||||||||KTBL||||||||||17|CCC HRK SOBR FAM 2012|121|Horeca|0
0|FS168264|2012-04-20 22:57:34||||M|||||||||||||DAVGL||||||||||17|CCC HRK SOBR FAM 2012|121|Horeca|0
0|FS168266|2012-04-20 22:58:10||||M|||||||||||||DUNFCSV||||||||||17|CCC HRK SOBR FAM 2012|121|Horeca|0
0|FS168267|2012-04-20 22:58:51||||F|||||||||||||DUNFF||||||||||17|CCC HRK SOBR FAM 2012|121|Horeca|0
0|FS168270|2012-04-20 22:59:25||||F|||||||||||||MBRGL||||||||||17|CCC HRK SOBR FAM 2012|121|Horeca|0
0|FS168379|2012-04-20 23:27:10|Stoenescu|Denisa||F|1989-01-16|Constanta|CONSTANTA||||||||||KTNBK||||||||||17|CCC HRK SOBR FAM 2012|121|Horeca|0
0|FS168391|2012-04-20 23:31:18|||||||||||||||||KTNBK||||||||||17|CCC HRK SOBR FAM 2012|121|Horeca|0
0|FS168392|2012-04-20 23:31:19|||||||||||||||||KTNBK||||||||||17|CCC HRK SOBR FAM 2012|121|Horeca|0
0|FS168394|2012-04-20 23:31:34|||||||||||||||||KENTSRD||||||||||17|CCC HRK SOBR FAM 2012|121|Horeca|0
0|FS168397|2012-04-20 23:31:59|||||||||||||||||KTSV||||||||||17|CCC HRK SOBR FAM 2012|121|Horeca|0
0|FS168398|2012-04-20 23:32:21||||M|||||||||||||DUNBL||||||||||17|CCC HRK SOBR FAM 2012|121|Horeca|0
0|FS168403|2012-04-20 23:41:45||||F|||||||||||||SBKSGD||||||||||17|CCC HRK SOBR FAM 2012|121|Horeca|0
0|FS168448|2012-04-20 23:59:11||||M|||||||||||||SBKSGD||||||||||17|CCC HRK SOBR FAM 2012|121|Horeca|0
0|FS168449|2012-04-20 23:59:30||||F|||||||||||||SBSSPK||||||||||17|CCC HRK SOBR FAM 2012|121|Horeca|0
0|FS168450|2012-04-21 00:01:37||||F|||||||||||||KTBL||||||||||17|CCC HRK SOBR FAM 2012|121|Horeca|0
0|FS168456|2012-04-21 00:05:57||||M|||||||||||||WIBL||||||||||17|CCC HRK SOBR FAM 2012|121|Horeca|0
0|FS168457|2012-04-21 00:15:04||||F|||||||||||||SBSSPK||||||||||17|CCC HRK SOBR FAM 2012|121|Horeca|0
0|FS168458|2012-04-21 00:15:25||||M|||||||||||||SBKSBL||||||||||17|CCC HRK SOBR FAM 2012|121|Horeca|0
0|FS168461|2012-04-21 00:16:23||||M|||||||||||||KTBL||||||||||17|CCC HRK SOBR FAM 2012|121|Horeca|0
0|FS168476|2012-04-21 00:19:11|||||||||||||||||DAVGLH||||||||||17|CCC HRK SOBR FAM 2012|121|Horeca|0
0|FS168477|2012-04-21 00:20:10||||M|||||||||||||DUNFF||||||||||17|CCC HRK SOBR FAM 2012|121|Horeca|0
0|FS169318|2012-04-21 20:44:22||||F|||||||||||||VOGLL||||||||||17|CCC HRK SOBR FAM 2012|121|Horeca|0
0|FS169335|2012-04-21 20:53:34|||||||||||||||||DUNFCRT||||||||||17|CCC HRK SOBR FAM 2012|121|Horeca|0
0|FS169336|2012-04-21 20:54:28|||||||||||||||||DUNFCRT||||||||||17|CCC HRK SOBR FAM 2012|121|Horeca|0
0|FS169380|2012-04-21 20:57:12||||F|||||||||||||SBSSBK||||||||||17|CCC HRK SOBR FAM 2012|121|Horeca|0
0|FS169410|2012-04-21 21:02:24||||F|||||||||||||KTWH||||||||||17|CCC HRK SOBR FAM 2012|121|Horeca|0
0|FS169411|2012-04-21 21:03:32||||F||Constanta|CONSTANTA||||||||||DUNFF||||||||||17|CCC HRK SOBR FAM 2012|121|Horeca|0
0|FS169470|2012-04-21 21:05:55||||F|||||||||||||PARAB||||||||||17|CCC HRK SOBR FAM 2012|121|Horeca|0
0|FS169541|2012-04-21 21:39:37||||F|||||||||||||VIRSPR||||||||||17|CCC HRK SOBR FAM 2012|121|Horeca|0
0|FS169549|2012-04-21 21:44:00||||F|||||||||||||VOGABP||||||||||17|CCC HRK SOBR FAM 2012|121|Horeca|0
0|FS169552|2012-04-21 21:44:54||||F||Constanta|CONSTANTA||||||||||KTNBK||||||||||17|CCC HRK SOBR FAM 2012|121|Horeca|0
0|FS169559|2012-04-21 21:46:17||||F|||||||||||||VIRSPR||||||||||17|CCC HRK SOBR FAM 2012|121|Horeca|0
0|FS169560|2012-04-21 21:46:19||||F|||||||||||||KTSV||||||||||17|CCC HRK SOBR FAM 2012|121|Horeca|0
0|FS169561|2012-04-21 21:46:46||||F|||||||||||||DAVGLSS||||||||||17|CCC HRK SOBR FAM 2012|121|Horeca|0
0|FS169564|2012-04-21 21:51:28||||F|||||||||||||VOGBL||||||||||17|CCC HRK SOBR FAM 2012|121|Horeca|0
0|FS169565|2012-04-21 21:52:20||||F|||||||||||||DAVGLSS||||||||||17|CCC HRK SOBR FAM 2012|121|Horeca|0
0|FS169591|2012-04-21 21:53:52||||F|||||||||||||VOGABP||||||||||17|CCC HRK SOBR FAM 2012|121|Horeca|0
0|FS169601|2012-04-21 21:56:01||||M|||||||||||||MBRFP||||||||||17|CCC HRK SOBR FAM 2012|121|Horeca|0
0|FS169602|2012-04-21 21:57:22||||M|||||||||||||DUNBL||||||||||17|CCC HRK SOBR FAM 2012|121|Horeca|0
0|FS169603|2012-04-21 21:57:42||||F|||||||||||||MBRGL||||||||||17|CCC HRK SOBR FAM 2012|121|Horeca|0
0|FS169611|2012-04-21 22:01:31||||F|||||||||||||VOGLL||||||||||17|CCC HRK SOBR FAM 2012|121|Horeca|0
0|FS169612|2012-04-21 22:01:56||||M|||||||||||||VOGLL||||||||||17|CCC HRK SOBR FAM 2012|121|Horeca|0
0|FS169627|2012-04-21 22:18:32||||F|||||||||||||MBRFPEX||||||||||17|CCC HRK SOBR FAM 2012|121|Horeca|0
0|FS169629|2012-04-21 22:21:09||||M|||||||||||||DUNBL||||||||||17|CCC HRK SOBR FAM 2012|121|Horeca|0
0|FS169634|2012-04-21 22:22:41||||M|||||||||||||DUNBL||||||||||17|CCC HRK SOBR FAM 2012|121|Horeca|0
0|FS169659|2012-04-21 22:33:58||||M||Constanta|CONSTANTA||||||||||DUNSV||||||||||17|CCC HRK SOBR FAM 2012|121|Horeca|0
0|FS169668|2012-04-21 22:38:55||||F||Constanta|CONSTANTA||||||||||VOGFLPL||||||||||17|CCC HRK SOBR FAM 2012|121|Horeca|0
0|FS169674|2012-04-21 22:43:05||||M|||||||||||||KTBL||||||||||17|CCC HRK SOBR FAM 2012|121|Horeca|0
0|FS169680|2012-04-21 22:45:09||||M|||||||||||||DAVGL||||||||||17|CCC HRK SOBR FAM 2012|121|Horeca|0
0|FS169683|2012-04-21 22:45:59||||M|||||||||||||DUNFCRT||||||||||17|CCC HRK SOBR FAM 2012|121|Horeca|0
0|FS169687|2012-04-21 22:46:17||||M|||||||||||||DUNBL||||||||||17|CCC HRK SOBR FAM 2012|121|Horeca|0
0|FS169759|2012-04-21 23:16:11||||F|||||||||||||VOGABP||||||||||17|CCC HRK SOBR FAM 2012|121|Horeca|0
0|FS169763|2012-04-21 23:18:10||||F|||||||||||||GLMMNT||||||||||17|CCC HRK SOBR FAM 2012|121|Horeca|0
0|FS169764|2012-04-21 23:18:51||||F|||||||||||||VOGM||||||||||17|CCC HRK SOBR FAM 2012|121|Horeca|0
0|FS169765|2012-04-21 23:21:35||||F|||||||||||||SBSSBK||||||||||17|CCC HRK SOBR FAM 2012|121|Horeca|0
0|FS169772|2012-04-21 23:25:06||||F|||||||||||||VOGLL||||||||||17|CCC HRK SOBR FAM 2012|121|Horeca|0
0|FS169775|2012-04-21 23:25:27||||F|||||||||||||VOGLL||||||||||17|CCC HRK SOBR FAM 2012|121|Horeca|0
0|FS169776|2012-04-21 23:25:44||||F|||||||||||||KTNBK||||||||||17|CCC HRK SOBR FAM 2012|121|Horeca|0
0|FS169779|2012-04-21 23:25:58|||||||||||||||||KTCON||||||||||17|CCC HRK SOBR FAM 2012|121|Horeca|0
0|FS169780|2012-04-21 23:26:06||||M|||||||||||||DUNSV||||||||||17|CCC HRK SOBR FAM 2012|121|Horeca|0
0|FS169814|2012-04-21 23:38:32|||||||||||||||||DAVSVSS||||||||||17|CCC HRK SOBR FAM 2012|121|Horeca|0
0|FS169828|2012-04-21 23:40:13||||F|||||||||||||DUNFF||||||||||17|CCC HRK SOBR FAM 2012|121|Horeca|0
0|FS169830|2012-04-21 23:40:57||||F|||||||||||||DAVGLSS||||||||||17|CCC HRK SOBR FAM 2012|121|Horeca|0
0|FS169831|2012-04-21 23:41:04||||F||Constanta|CONSTANTA||||||||||GLMLIL||||||||||17|CCC HRK SOBR FAM 2012|121|Horeca|0
0|FS169833|2012-04-21 23:41:24||||F|||||||||||||DUNSV||||||||||17|CCC HRK SOBR FAM 2012|121|Horeca|0
0|FS169835|2012-04-21 23:41:43||||M|||||||||||||KTNBK||||||||||17|CCC HRK SOBR FAM 2012|121|Horeca|0
0|FS169839|2012-04-21 23:41:52||||M|||||||||||||DUNSV||||||||||17|CCC HRK SOBR FAM 2012|121|Horeca|0
0|FS169851|2012-04-21 23:44:47||||F|||||||||||||SBSSPK||||||||||17|CCC HRK SOBR FAM 2012|121|Horeca|0
0|FS169853|2012-04-21 23:45:19||||F|||||||||||||SBSSBK||||||||||17|CCC HRK SOBR FAM 2012|121|Horeca|0
0|FS169861|2012-04-21 23:47:34||||F|||||||||||||DAVGLH||||||||||17|CCC HRK SOBR FAM 2012|121|Horeca|0
0|FS169862|2012-04-21 23:48:02||||F|||||||||||||VOGLL||||||||||17|CCC HRK SOBR FAM 2012|121|Horeca|0
0|FS169863|2012-04-21 23:49:27||||M|||||||||||||SOBBR||||||||||17|CCC HRK SOBR FAM 2012|121|Horeca|0
0|FS169865|2012-04-21 23:51:42||||F||Constanta|CONSTANTA||||||||||VOGLL||||||||||17|CCC HRK SOBR FAM 2012|121|Horeca|0
0|FS169866|2012-04-21 23:52:47||||F|||||||||||||VOGBL||||||||||17|CCC HRK SOBR FAM 2012|121|Horeca|0
0|FS169867|2012-04-21 23:52:48||||F|||||||||||||VOGBL||||||||||17|CCC HRK SOBR FAM 2012|121|Horeca|0
0|FS169868|2012-04-21 23:52:54||||F|||||||||||||SBSSPK||||||||||17|CCC HRK SOBR FAM 2012|121|Horeca|0
0|FS169869|2012-04-21 23:53:31||||F|||||||||||||VOGFLLL||||||||||17|CCC HRK SOBR FAM 2012|121|Horeca|0
0|FS169871|2012-04-21 23:54:59||||F|||||||||||||KTBL||||||||||17|CCC HRK SOBR FAM 2012|121|Horeca|0
0|FS169872|2012-04-21 23:55:27||||F|||||||||||||VOGDV||||||||||17|CCC HRK SOBR FAM 2012|121|Horeca|0
0|FS169873|2012-04-21 23:55:52||||F|||||||||||||DUNFCSV||||||||||17|CCC HRK SOBR FAM 2012|121|Horeca|0
0|FS169874|2012-04-21 23:56:07||||F|||||||||||||VIRSPR||||||||||17|CCC HRK SOBR FAM 2012|121|Horeca|0
0|FS169875|2012-04-21 23:57:50||||F|||||||||||||VOGLL||||||||||17|CCC HRK SOBR FAM 2012|121|Horeca|0
0|FS170016|2012-04-22 00:18:34||||F|||||||||||||CABK||||||||||17|CCC HRK SOBR FAM 2012|121|Horeca|0
0|FS170017|2012-04-22 00:19:17||||F|||||||||||||DAVGL||||||||||17|CCC HRK SOBR FAM 2012|121|Horeca|0
