0|CS3502256|2013-07-26 19:58:43|Paralel|Marian||M|1984-09-28|Constanta|VALU LUI TRAIAN|Soveja|20|||||0726109871|||KTSWIT||1 Sobranie KS Blue (6mg) Pack|Yes|Yes||CT004058|Abi Grup SRL|Constanta|CTHRKBA84|156|CCC HRK SOBR FAM Vara 2013|121|Horeca|0
0|CS3502270|2013-07-26 19:59:48|Paraschiv|Alexandru||M|1988-09-29|Constanta|CONSTANTA|Sirdan|2|C|2||22|0741891722|||KTBL||1 Sobranie KS Black (8mg) Pack|Yes|No||CT004058|Abi Grup SRL|Constanta|CTHRKBA87|156|CCC HRK SOBR FAM Vara 2013|121|Horeca|0
0|CS3502277|2013-07-26 20:00:35|Stefanescu|Iulia||F|1987-10-30|Bucuresti|SECTOR 3|Lapusneanu|21|||||0730918710|||KTNBK||1 Sobranie SS Pink (3mg) Pack|Yes|Yes||CT004058|Abi Grup SRL|Constanta|CTHRKBA84|156|CCC HRK SOBR FAM Vara 2013|121|Horeca|0
0|CS3502279|2013-07-26 20:00:40|Branza|Sorin||M|1983-09-24|Constanta|CONSTANTA|Mamaia|24|||||0789456321|||MBRFP||1 Sobranie KS Blue (6mg) Pack|Yes|Yes||CT004058|Abi Grup SRL|Constanta|CTHRKBA94|156|CCC HRK SOBR FAM Vara 2013|121|Horeca|0
0|CS3502288|2013-07-26 20:01:50|Patrascu|Catalin|1901016134171|M|1989-01-01|Constanta|Contanta|Aleea garofitei|8|L73|B|2|32|0765274982||silver_touch1990@yahoo.com|KTBL||1 Sobranie KS Black (8mg) Pack|Yes|Yes||CT004058|Abi Grup SRL|Constanta|CTHRKBA96|156|CCC HRK SOBR FAM Vara 2013|121|Horeca|0
0|CS3502307|2013-07-26 20:04:12|Malciu|Ionel||M|1984-11-24|Satu Mare|SATU MARE|Nicolae iorga|32|||||0743120987|||KTNBK||1 Sobranie KS Gold  (4mg) Pack|Yes|Yes||CT004058|Abi Grup SRL|Constanta|CTHRKBA84|156|CCC HRK SOBR FAM Vara 2013|121|Horeca|0
0|CS3502310|2013-07-26 20:04:13|Rotaru|Florin||M|1980-04-28|Constanta|CONSTANTA|Mangaliei|67|||||0768789432||Florinrotaru3489@yahoo.com|KTBL||1 Sobranie KS Black (8mg) Pack|Yes|Yes||CT004058|Abi Grup SRL|Constanta|CTHRKBA94|156|CCC HRK SOBR FAM Vara 2013|121|Horeca|0
0|CS3502341|2013-07-26 20:06:55|Ciupina|Cristian||M|1984-11-29|Constanta|Constanta|Grozesti|2|V2|||55|0733109418|||DUNFCMBB||1 Sobranie KS Black (8mg) Pack|Yes|No||CT004058|Abi Grup SRL|Constanta|CTHRKBA87|156|CCC HRK SOBR FAM Vara 2013|121|Horeca|0
0|CS3502342|2013-07-26 20:07:02|Bisinicu|Nicolae|1865716134171|M|1986-01-01|Constanta|CONSTANTA|Aleea brizei|3|L 73|A|3|21|0766345485||an5w3r_ro@yahoo.ro|KTH||1 Sobranie KS Black (8mg) Pack|Yes|Yes||CT004058|Abi Grup SRL|Constanta|CTHRKBA96|156|CCC HRK SOBR FAM Vara 2013|121|Horeca|0
0|CS3502367|2013-07-26 20:09:54|Ionel|Marius||M|1984-08-28|Constanta|CONSTANTA|Unirii|51|Aa|3||55|0728119031|||MBRFP||1 Sobranie KS Blue (6mg) Pack|Yes|No||CT004058|Abi Grup SRL|Constanta|CTHRKBA87|156|CCC HRK SOBR FAM Vara 2013|121|Horeca|0
0|CS3502451|2013-07-26 20:22:14|Faida|Oana||F|1987-09-13|Constanta|COBADIN|E|12a|||||0724334411|||KTNWH||1 Sobranie SS White (1mg) Pack|Yes|Yes||CT005185|Filozofie Urbana SRL|Constanta|CTHRKBA84|156|CCC HRK SOBR FAM Vara 2013|121|Horeca|0
0|CS3502485|2013-07-26 20:26:28|Ionescu|Cristian||F|1988-04-28|Braila|BRAILA|Dunarii|10|||||0722206098|||GLMMNT||1 Sobranie SS Menthol (5 mg) Pack|Yes|Yes||CT005185|Filozofie Urbana SRL|Constanta|CTHRKBA84|156|CCC HRK SOBR FAM Vara 2013|121|Horeca|0
0|CS3502496|2013-07-26 20:28:00|Tiganila|Camelia||F|1970-10-25|Constanta|CONSTANTA|Ion ratiu|35|||||0756431890||Cameliacamy@yahoo.com|DAVGLS||1 Sobranie SS Black (6mg) Pack|Yes|Yes||CT005185|Filozofie Urbana SRL|Constanta|CTHRKBA94|156|CCC HRK SOBR FAM Vara 2013|121|Horeca|0
0|CS3502498|2013-07-26 20:28:10|Sirbu|Adrian||M|1985-08-29|Constanta|CONSTANTA|Soveja|9|G11|1||7|0740067145|||KTNBK||1 Sobranie KS Gold  (4mg) Pack|Yes|Yes||CT005185|Filozofie Urbana SRL|Constanta|CTHRKBA87|156|CCC HRK SOBR FAM Vara 2013|121|Horeca|0
0|CS3502518|2013-07-26 20:30:45|Gojnete|Iulian|1901016134171|M|1992-01-01|Constanta|CONSTANTA|Aleea rozelor|3|L34|A|1|11|0763109321||Cezar_iulius92@yahoo.com|CAFI||1 Sobranie KS Gold  (4mg) Pack|Yes|No||CT005185|Filozofie Urbana SRL|Constanta|CTHRKBA96|156|CCC HRK SOBR FAM Vara 2013|121|Horeca|0
0|CS3502521|2013-07-26 20:31:06|Marin|Ionela||F|1988-03-04|Bucuresti|SECTOR 4|Sare|190|||||0756091800|||GLMLIL||1 Sobranie SS Pink (3mg) Pack|Yes|Yes||CT005185|Filozofie Urbana SRL|Constanta|CTHRKBA84|156|CCC HRK SOBR FAM Vara 2013|121|Horeca|0
0|CS3502525|2013-07-26 20:31:32|Encica|Sandu||M|1961-03-24|Constanta|TECHIRGHIOL|Cuza voda|16|||||0764327808|||MBRRD||1 Sobranie KS Black (8mg) Pack|Yes|Yes||CT005185|Filozofie Urbana SRL|Constanta|CTHRKBA94|156|CCC HRK SOBR FAM Vara 2013|121|Horeca|0
0|CS3502532|2013-07-26 20:32:47|Caragiu|Valeria||F|1988-04-08|Constanta|CONSTANTA|Ferdinand|20|||||0721098710|||DUNFCMBB||1 Sobranie KS Blue (6mg) Pack|Yes|Yes||CT005185|Filozofie Urbana SRL|Constanta|CTHRKBA84|156|CCC HRK SOBR FAM Vara 2013|121|Horeca|0
0|CS3502533|2013-07-26 20:32:47|Toma|Cristian||M|1992-10-29|Constanta|MEDGIDIA|Stefan cel mare|4|B|1||15|0766091871||Toma.cristian@yahoo.com|PARAB||1 Sobranie KS Blue (6mg) Pack|Yes|No||CT005185|Filozofie Urbana SRL|Constanta|CTHRKBA87|156|CCC HRK SOBR FAM Vara 2013|121|Horeca|0
0|CS3502545|2013-07-26 20:34:41|Ioncila|Doru||M|1980-04-25|Constanta|Constanta|Negru voda|46|||||0756433467||Dorudoriandor345@yahoo.com|DUNFCMBB||1 Sobranie KS Blue (6mg) Pack|Yes|Yes||CT005185|Filozofie Urbana SRL|Constanta|CTHRKBA94|156|CCC HRK SOBR FAM Vara 2013|121|Horeca|0
0|CS3502544|2013-07-26 20:34:41|Iordache|Silvia|1723417654171|F|1986-12-01|Constanta|Constanta|Aleea rozelor|2|L56|B|5|21|0724548612||Just_foryou@yahoo.com|DUNFCBB|DUNBL|1 Sobranie KS Gold  (4mg) Pack|Yes|No||CT005185|Filozofie Urbana SRL|Constanta|CTHRKBA96|156|CCC HRK SOBR FAM Vara 2013|121|Horeca|0
0|CS3502558|2013-07-26 20:35:42|Lungu|Gheorghe||M|1984-10-28|Braila|BRAILA|Calea galati|331|18|7||18|0722004100|||KTSV||1 Sobranie KS Gold  (4mg) Pack|Yes|Yes||CT005185|Filozofie Urbana SRL|Constanta|CTHRKBA87|156|CCC HRK SOBR FAM Vara 2013|121|Horeca|0
0|CS3502574|2013-07-26 20:37:55|Carovin|Corina|2901016134171|F|1986-11-01|Constanta|Constanta|Aleea garofitei|5|L53|B|6|31|0766134521||Lovers_ro@yahoo.com|DUNFF||1 Sobranie SS Black (6mg) Pack|Yes|Yes||CT005185|Filozofie Urbana SRL|Constanta|CTHRKBA96|156|CCC HRK SOBR FAM Vara 2013|121|Horeca|0
0|CS3502648|2013-07-26 20:47:38|Virgil|Ioana||F|1988-03-29|Bucuresti|SECTOR 3|Mircea|32|||||0732190876|||DUNFCBB||1 Sobranie KS Gold  (4mg) Pack|Yes|Yes||CT003789|SCAPINO SRL|Constanta|CTHRKBA84|156|CCC HRK SOBR FAM Vara 2013|121|Horeca|0
0|CS3502654|2013-07-26 20:48:15|Platicw|Adrian||M|1985-10-30|Constanta|CONSTANTA|Corneliu copos|12|||||0729002455|||DUNFCBB||1 Sobranie KS Gold  (4mg) Pack|Yes|Yes||CT003789|SCAPINO SRL|Constanta|CTHRKBA87|156|CCC HRK SOBR FAM Vara 2013|121|Horeca|0
0|CS3502660|2013-07-26 20:48:44|Tudorica|Costel||M|1981-02-23|Constanta|CONSTANTA|Poporului|35|||||0745678904|||KTBL6||1 Sobranie KS Blue (6mg) Pack|Yes|Yes||CT003789|SCAPINO SRL|Constanta|CTHRKBA94|156|CCC HRK SOBR FAM Vara 2013|121|Horeca|0
0|CS3502674|2013-07-26 20:50:43|Iordache|Silvia||F|1980-01-01|Constanta|Constanta|Aleea brizei|1|L21|B|2|41|0765274192||Tonight_go@yahoo.com|GLMMNT|LSBL|1 Sobranie SS Menthol (5 mg) Pack|Yes|No||CT003789|SCAPINO SRL|Constanta|CTHRKBA96|156|CCC HRK SOBR FAM Vara 2013|121|Horeca|0
0|CS3502676|2013-07-26 20:50:46|Vrajescu|Valentin||M|1984-11-29|Constanta|CONSTANTA|Abatorului|59|C3|2||28|0722109431|||DAVGL||1 Sobranie KS Black (8mg) Pack|Yes|No||CT003789|SCAPINO SRL|Constanta|CTHRKBA87|156|CCC HRK SOBR FAM Vara 2013|121|Horeca|0
0|CS3502702|2013-07-26 20:54:50|Vernic|Nicolae||M|1985-05-29|Braila|BRAILA|Morilor|35a|||||0729018723|||KTNBL||1 Sobranie KS Blue (6mg) Pack|Yes|Yes||CT003789|SCAPINO SRL|Constanta|CTHRKBA84|156|CCC HRK SOBR FAM Vara 2013|121|Horeca|0
0|CS3502709|2013-07-26 20:56:19|Apetroaie|Elena||F|1980-11-20|Constanta|CONSTANTA|Cuza voda|14|||||0746890325|||KTSV||1 Sobranie KS Gold  (4mg) Pack|Yes|Yes||CT003789|SCAPINO SRL|Constanta|CTHRKBA94|156|CCC HRK SOBR FAM Vara 2013|121|Horeca|0
0|CS3502713|2013-07-26 20:56:52|Zainea|Iuliana||M|1988-03-04|Constanta|CERNAVODA|Linistii|108|5|||13|0729018009|||MBRGL||1 Sobranie KS Black (8mg) Pack|Yes|No||CT003789|SCAPINO SRL|Constanta|CTHRKBA87|156|CCC HRK SOBR FAM Vara 2013|121|Horeca|0
0|CS3502722|2013-07-26 20:58:07|Popescu|Iulian||M|1986-11-20|Constanta|Constanta|Bvd lapusneanu|L21|L21|B|4|34|0766123451|||GLMLIL||1 Sobranie SS Black (6mg) Pack|Yes|No||CT003789|SCAPINO SRL|Constanta|CTHRKBA96|156|CCC HRK SOBR FAM Vara 2013|121|Horeca|0
0|CS3502725|2013-07-26 20:58:36|Eustachi|Dorel||M|1976-11-24|Constanta|CONSTANTA|Ghimbirului|15|||||0756899043|||DAVGLSS||1 Sobranie KS Blue (6mg) Pack|Yes|Yes||CT003789|SCAPINO SRL|Constanta|CTHRKBA94|156|CCC HRK SOBR FAM Vara 2013|121|Horeca|0
0|CS3502726|2013-07-26 20:58:37|Musca|Bogdan||M|1984-10-29|Constanta|CONACU|Valea regilor|76|||||0729071670|||GLMMNT||1 Sobranie SS Menthol (5 mg) Pack|Yes|Yes||CT003789|SCAPINO SRL|Constanta|CTHRKBA84|156|CCC HRK SOBR FAM Vara 2013|121|Horeca|0
0|CS3502738|2013-07-26 20:59:42|Strambeanu|Mihaela||F|1989-11-04|Constanta|CONSTANTA|Mamaia|299|||||0755100950|||VIRSPR||1 Sobranie SS Black (6mg) Pack|Yes|No||CT003789|SCAPINO SRL|Constanta|CTHRKBA87|156|CCC HRK SOBR FAM Vara 2013|121|Horeca|0
0|CS3502743|2013-07-26 21:01:00|Ioan|Nicu||M|1980-11-28|Constanta|CONSTANTA|Aleea murelor|34|||||0723109818|||GLMMNT||1 Sobranie SS Menthol (5 mg) Pack|Yes|Yes||CT003789|SCAPINO SRL|Constanta|CTHRKBA84|156|CCC HRK SOBR FAM Vara 2013|121|Horeca|0
0|CS3502744|2013-07-26 21:01:29|Tudorache|Cristian||M|1985-06-25|Constanta|EFORIE SUD|Rascoalei|24|||||0747678990|||DUNFCMBR||1 Sobranie KS Black (8mg) Pack|Yes|Yes||CT003789|SCAPINO SRL|Constanta|CTHRKBA94|156|CCC HRK SOBR FAM Vara 2013|121|Horeca|0
0|CS3502746|2013-07-26 21:01:45|Crivan|Alina||F|1990-04-15|Constanta|CONSTANTA|Bucuresti|21|L31|B|3|21|0724173121|||GLMLIL||1 Sobranie SS Black (6mg) Pack|Yes|No||CT003789|SCAPINO SRL|Constanta|CTHRKBA96|156|CCC HRK SOBR FAM Vara 2013|121|Horeca|0
0|CS3502894|2013-07-26 21:23:32|Bebe|Andrei||M|1984-09-23|Brasov|BRASOV|Pescarilor|5|||||0736109821|||DUNFCBB||1 Sobranie KS Gold  (4mg) Pack|Yes|Yes||CT002023|Trinagria SRL |Constanta|CTHRKBA84|156|CCC HRK SOBR FAM Vara 2013|121|Horeca|0
0|CS3502903|2013-07-26 21:24:52|Coman|Alin||M|1984-10-19|Constanta|CONSTANTA|Tabla butii|19|||||0734109810|||DUNFCMBB||1 Sobranie KS Black (8mg) Pack|Yes|Yes||CT002023|Trinagria SRL |Constanta|CTHRKBA84|156|CCC HRK SOBR FAM Vara 2013|121|Horeca|0
0|CS3502906|2013-07-26 21:25:06|Traian|Raluca||F|1988-11-30|Constanta|CONSTANTA|Banu mihalcea|77|||||0729816134|||DAVSVSS||1 Sobranie SS Pink (3mg) Pack|Yes|Yes||CT002023|Trinagria SRL |Constanta|CTHRKBA87|156|CCC HRK SOBR FAM Vara 2013|121|Horeca|0
0|CS3502909|2013-07-26 21:25:12|Fideluta|Irina||F|1990-03-21|Constanta|Constanta|Bvd mamaia|4|L21|D|3|21|0724532144|||GLMLIL||1 Sobranie SS Black (6mg) Pack|Yes|No||CT002023|Trinagria SRL |Constanta|CTHRKBA96|156|CCC HRK SOBR FAM Vara 2013|121|Horeca|0
0|CS3502916|2013-07-26 21:25:27|Opinca|Claudia||F|1986-04-24|Bucuresti|Bucuresti|Mihai eminescu|56|||||0746789904|||DUNFCBB||1 Sobranie KS Gold  (4mg) Pack|Yes|Yes||CT002023|Trinagria SRL |Constanta|CTHRKBA94|156|CCC HRK SOBR FAM Vara 2013|121|Horeca|0
0|CS3502934|2013-07-26 21:27:23|Trusca|Roxana||F|1989-02-22|Constanta|TECHIRGHIOL|Unirii|25|||||0760956311||Roxytrusca@yahoo.com|VIRSPR||1 Sobranie SS Black (6mg) Pack|Yes|Yes||CT002023|Trinagria SRL |Constanta|CTHRKBA94|156|CCC HRK SOBR FAM Vara 2013|121|Horeca|0
0|CS3502935|2013-07-26 21:27:25|Andronic|Florentina||F|1984-10-19|Constanta|CONSTANTA|Plopilor|98|||||0732109809|||DAVCL||1 Sobranie KS Blue (6mg) Pack|Yes|Yes||CT002023|Trinagria SRL |Constanta|CTHRKBA84|156|CCC HRK SOBR FAM Vara 2013|121|Horeca|0
0|CS3502938|2013-07-26 21:27:49|Cosmotin|Razvan||M|1990-11-22|Constanta|Constanta|Bvd mamaia|4|L21|B|6|35|0721345621|||CAFI||1 Sobranie KS Black (8mg) Pack|Yes|No||CT002023|Trinagria SRL |Constanta|CTHRKBA96|156|CCC HRK SOBR FAM Vara 2013|121|Horeca|0
0|CS3502940|2013-07-26 21:28:10|Popa|Andreea||F|1985-05-01|Bucuresti|2|Toma caragiu|10|C|2||41|0720511841|||KTBL||1 Sobranie KS Black (8mg) Pack|Yes|Yes||CT002023|Trinagria SRL |Constanta|CTHRKBA87|156|CCC HRK SOBR FAM Vara 2013|121|Horeca|0
0|CS3502954|2013-07-26 21:29:17|Rimiscu|Iulian||M|1977-12-22|Constanta|Constanta|Ion creanga|24|||||0746789032|||KTBL||1 Sobranie KS Black (8mg) Pack|Yes|Yes||CT002023|Trinagria SRL |Constanta|CTHRKBA94|156|CCC HRK SOBR FAM Vara 2013|121|Horeca|0
0|CS3502962|2013-07-26 21:29:47|Iostin|Laura||F|1992-03-20|Arges|Arges|Vulturilor|3|L21|A|1|31|0744561321|||DAVGLS||1 Sobranie SS Black (6mg) Pack|Yes|No||CT002023|Trinagria SRL |Constanta|CTHRKBA96|156|CCC HRK SOBR FAM Vara 2013|121|Horeca|0
0|CS3502971|2013-07-26 21:30:50|Buzea|Lidia||F|1984-08-29|Constanta|CONSTANTA|Mihaineminescu|16|G17|6||109|0762210913|||MBRGL||1 Sobranie KS Blue (6mg) Pack|Yes|No||CT002023|Trinagria SRL |Constanta|CTHRKBA87|156|CCC HRK SOBR FAM Vara 2013|121|Horeca|0
0|CS3503037|2013-07-26 21:39:38|Ion|Ruxandra||F|1987-01-28|Constanta|CONSTANTA|Ion lahovari|49|||||0746748374|||VOGLL||1 Sobranie SS Black (6mg) Pack|Yes|Yes||CT004056|Restaurant Mediteranean SRL |Constanta|CTHRKBA84|156|CCC HRK SOBR FAM Vara 2013|121|Horeca|0
0|CS3503052|2013-07-26 21:41:53|Fasola|Alina||F|1990-09-10|Constanta|CONSTANTA|Dafinului|15|||||0728730782||Gors_alina@yahoo.com|SBSSWH||1 Sobranie SS White (1mg) Pack|Yes|Yes||CT004056|Restaurant Mediteranean SRL |Constanta|CTHRKBA87|156|CCC HRK SOBR FAM Vara 2013|121|Horeca|0
0|CS3503061|2013-07-26 21:43:45|Barselovici|Mihai||M|1985-10-27|Bucuresti|Bucuresti|Prelungirea ghencea|91f|1|1|3|28|0726353165|||SBKSBL||1 Sobranie KS Blue (6mg) Pack|Yes|Yes||CT004056|Restaurant Mediteranean SRL |Constanta|CTHRKBA94|156|CCC HRK SOBR FAM Vara 2013|121|Horeca|0
0|CS3503082|2013-07-26 21:46:35|Grizea|Laura||F|1986-06-04|Bucuresti|Bucuresti|Viorele|4|22|3|3|86|0765484192||Laurici-04@yahoo.com|SBSSMN||1 Sobranie SS Menthol (5 mg) Pack|Yes|Yes||CT004056|Restaurant Mediteranean SRL |Constanta|CTHRKBA94|156|CCC HRK SOBR FAM Vara 2013|121|Horeca|0
0|CS3503124|2013-07-26 21:50:43|Cerchia|Alina||F|1989-05-20|Constanta|Constanta|Malinului|1|||0|0|0727596286||alina_cerchia@yahoo.com|VOGBL||1 Sobranie SS Black (6mg) Pack|Yes|Yes||CT004056|Restaurant Mediteranean SRL |Constanta|CTHRKBA87|156|CCC HRK SOBR FAM Vara 2013|121|Horeca|0
0|CS3503127|2013-07-26 21:51:18|Ungureanu|Elena||F|1987-06-04|Bucuresti|Bucuresti|Calea calarasilor|173|42|3|3|47|0723356002||Elena.ungureanu04@yahoo.com|SBSSMN||1 Sobranie SS Menthol (5 mg) Pack|Yes|Yes||CT004056|Restaurant Mediteranean SRL |Constanta|CTHRKBA94|156|CCC HRK SOBR FAM Vara 2013|121|Horeca|0
0|CS3503133|2013-07-26 21:51:52|Zaif|Alexandra||F|1989-09-07|Constanta|Constanta|Libertatii|36|||0|0|0720037575||andra_zaif@yahoo.com|VOGLL||1 Sobranie SS Pink (3mg) Pack|Yes|Yes||CT004056|Restaurant Mediteranean SRL |Constanta|CTHRKBA87|156|CCC HRK SOBR FAM Vara 2013|121|Horeca|0
0|CS3503244|2013-07-26 22:16:06|Micu|Ana maria||F|1985-12-29|Bucuresti|6|Valea viilor|1|||||0724608618|||PARRSSMH||1 Sobranie SS Menthol (5 mg) Pack|Yes|Yes||CT000708|AMI COM SRL|Constanta|CTHRKBA87|156|CCC HRK SOBR FAM Vara 2013|121|Horeca|0
0|CS3503253|2013-07-26 22:18:34|Belcischi|Ruxandra||F|1988-11-04|Constanta|CONSTANTA|Lombadescu|11|||||0745387373||Rux-88@yahoo.com|SBSSPK||1 Sobranie SS Pink (3mg) Pack|Yes|Yes||CT000708|AMI COM SRL|Constanta|CTHRKBA94|156|CCC HRK SOBR FAM Vara 2013|121|Horeca|0
0|CS3503258|2013-07-26 22:19:29|Constantinescu|Luiza||M|1980-02-01|Bucuresti|SECTOR 6|Delinesti|1|||0|0|0748881854||luiza.constantinescu@yahoo.com|KTNBK|KTSWIT|1 Sobranie SS Pink (3mg) Pack|Yes|No||CT000708|AMI COM SRL|Constanta|CTHRKBA96|156|CCC HRK SOBR FAM Vara 2013|121|Horeca|0
0|CS3503322|2013-07-26 22:30:17|Petru|Florin||M|1983-10-28|Constanta|CONSTANTA|Zorilor|65|||||0745098712|||PARABH||1 Sobranie KS Black (8mg) Pack|Yes|Yes||CT000708|AMI COM SRL|Constanta|CTHRKBA84|156|CCC HRK SOBR FAM Vara 2013|121|Horeca|0
0|CS3503337|2013-07-26 22:31:37|Spinu|Alina||F|1989-11-30|Constanta|CONSTANTA|1907|31|Z6|3||45|0728815700|||DUNFCMBB||1 Sobranie KS Blue (6mg) Pack|Yes|No||CT000708|AMI COM SRL|Constanta|CTHRKBA87|156|CCC HRK SOBR FAM Vara 2013|121|Horeca|0
0|CS3503340|2013-07-26 22:31:58|Forminge|Iulian||M|1988-06-01|Brasov|BRASOV|1907|6|||||0766091287|||KTBLH||1 Sobranie KS Black (8mg) Pack|Yes|Yes||CT000708|AMI COM SRL|Constanta|CTHRKBA84|156|CCC HRK SOBR FAM Vara 2013|121|Horeca|0
0|CS3503341|2013-07-26 22:32:02|Croitoru|Ana||F|1990-06-01|Constanta|CONSTANTA|Bvd lapusneanu|3|L21|A|2|21|0754321567|||GLMMNT||1 Sobranie KS Gold  (4mg) Pack|Yes|No||CT000708|AMI COM SRL|Constanta|CTHRKBA96|156|CCC HRK SOBR FAM Vara 2013|121|Horeca|0
0|CS3503342|2013-07-26 22:32:07|Botez|Ciprian||M|1980-10-25|Constanta|CONSTANTA|Lapusneanu|24|||||0745789907|||PARAB||1 Sobranie KS Black (8mg) Pack|Yes|Yes||CT000708|AMI COM SRL|Constanta|CTHRKBA94|156|CCC HRK SOBR FAM Vara 2013|121|Horeca|0
0|CS3503355|2013-07-26 22:33:52|Constantin|Lucian||M|1977-07-18|Constanta|CONSTANTA|Primaverii|97|||||0732190876|||DUNFCSB||1 Sobranie KS Black (8mg) Pack|Yes|Yes||CT000708|AMI COM SRL|Constanta|CTHRKBA84|156|CCC HRK SOBR FAM Vara 2013|121|Horeca|0
0|CS3503357|2013-07-26 22:34:15|Bere|Simona||F|1994-10-27|Constanta|CONSTANTA|Ferdinand|29|Aa|4||85|0746081991|||PARABH||1 Sobranie SS Black (6mg) Pack|Yes|No||CT000708|AMI COM SRL|Constanta|CTHRKBA87|156|CCC HRK SOBR FAM Vara 2013|121|Horeca|0
0|CS3503360|2013-07-26 22:34:26|Oprescu|Razvan||M|1983-04-22|Constanta|CONSTANTA|Mihai viteazu|57|||||0745678802|||KTSV||1 Sobranie KS Gold  (4mg) Pack|Yes|Yes||CT000708|AMI COM SRL|Constanta|CTHRKBA94|156|CCC HRK SOBR FAM Vara 2013|121|Horeca|0
0|CS3503362|2013-07-26 22:34:36|Caracusa|Ioana||F|1988-11-01|Constanta|CONSTANTA|FrunzeLor|6|L23|D|7|76|0721351288|||KTNWH||1 Sobranie SS White (1mg) Pack|Yes|No||CT000708|AMI COM SRL|Constanta|CTHRKBA96|156|CCC HRK SOBR FAM Vara 2013|121|Horeca|0
0|CS3503376|2013-07-26 22:36:50|Buliga|Laurentiu||M|1980-10-28|Constanta|CONSTANTA|Bdv 2mai|15|D|1||10|0733109921||Laurentiu.buliga@yahoo.com|DAVGL||1 Sobranie KS Blue (6mg) Pack|Yes|Yes||CT000708|AMI COM SRL|Constanta|CTHRKBA87|156|CCC HRK SOBR FAM Vara 2013|121|Horeca|0
0|CS3503386|2013-07-26 22:38:32|Ionescu|Carina||F|1987-11-01|Constanta|CONSTANTA|Aleea frunzelor|34|L21|A|2|12|0754321567|||GLPBMNFT||1 Sobranie SS Menthol (5 mg) Pack|Yes|No||CT000708|AMI COM SRL|Constanta|CTHRKBA96|156|CCC HRK SOBR FAM Vara 2013|121|Horeca|0
0|CS3503387|2013-07-26 22:38:36|Macovei|Sorin||M|1980-04-25|Constanta|CONSTANTA|Toscani|25|||||0743789085|||DUNFCMBB||1 Sobranie KS Blue (6mg) Pack|Yes|Yes||CT000708|AMI COM SRL|Constanta|CTHRKBA94|156|CCC HRK SOBR FAM Vara 2013|121|Horeca|0
0|CS3503436|2013-07-26 22:47:12|Mircica|Ion||M|1983-01-29|Constanta|CONSTANTA|Poporului|11|||||0786541123|||DAVGL||1 Sobranie KS Blue (6mg) Pack|Yes|Yes||CT000708|AMI COM SRL|Constanta|CTHRKBA84|156|CCC HRK SOBR FAM Vara 2013|121|Horeca|0
0|CS3503444|2013-07-26 22:48:06|Ilicea|Cristina||F|1990-06-23|Constanta|CONSTANTA|Badea cartan|19|C|||63|0731100940|||MBRGLFT||1 Sobranie KS Gold  (4mg) Pack|Yes|Yes||CT000708|AMI COM SRL|Constanta|CTHRKBA87|156|CCC HRK SOBR FAM Vara 2013|121|Horeca|0
0|CS3503551|2013-07-26 23:13:26|Siberiu|Ionut||M|1984-11-29|Constanta|CONSTANTA|National|71|||||0737407005|||DUNFCMBB||1 Sobranie KS Blue (6mg) Pack|Yes|Yes||CT005099|Lascu-Bros|Constanta|CTHRKBA84|156|CCC HRK SOBR FAM Vara 2013|121|Horeca|0
0|CS3503553|2013-07-26 23:13:46|Ciopeica|Felicia||F|1977-01-01|Bucuresti|Bucuresti|Postavaru|3|1|1|1|8|0721308268|||KTSV||1 Sobranie SS White (1mg) Pack|Yes|No||CT005099|Lascu-Bros|Constanta|CTHRKBA96|156|CCC HRK SOBR FAM Vara 2013|121|Horeca|0
0|CS3503556|2013-07-26 23:14:09|Poariu|Aurelia||F|1988-12-18|Constanta|Constanta|Ion alexandrescu|1bis|||||0784517740||Boariuaurelia@yahoo.com|GLMBL||1 Sobranie SS Pink (3mg) Pack|Yes|Yes||CT005099|Lascu-Bros|Constanta|CTHRKBA94|156|CCC HRK SOBR FAM Vara 2013|121|Horeca|0
0|CS3503564|2013-07-26 23:15:28|Avram|Ionut||M|1985-09-30|Constanta|CONSTANTA|Pescarilor|2|||||0735162010|||KTSV||1 Sobranie KS Gold  (4mg) Pack|Yes|Yes||CT005099|Lascu-Bros|Constanta|CTHRKBA87|156|CCC HRK SOBR FAM Vara 2013|121|Horeca|0
0|CS3503588|2013-07-26 23:21:02|Raceala|Ioana||F|1989-01-01|Constanta|CONSTANTA|Fagetului|30|||||0724316132|||PARRSSH||1 Sobranie SS Black (6mg) Pack|Yes|Yes||CT005099|Lascu-Bros|Constanta|CTHRKBA84|156|CCC HRK SOBR FAM Vara 2013|121|Horeca|0
0|CS3503594|2013-07-26 23:22:28|Dorin|Ignat||M|1970-02-06|Constanta|CONSTANTA|I c bratianu|100|||||0722324464|||SBKSGD||1 Sobranie KS Gold  (4mg) Pack|Yes|Yes||CT005099|Lascu-Bros|Constanta|CTHRKBA84|156|CCC HRK SOBR FAM Vara 2013|121|Horeca|0
0|CS3503616|2013-07-26 23:30:12|Pulpa|George||M|1986-10-24|Constanta|CONSTANTA|Cismelei|51|||||0726818461|||KTBL||1 Sobranie KS Gold  (4mg) Pack|Yes|Yes||CT005099|Lascu-Bros|Constanta|CTHRKBA84|156|CCC HRK SOBR FAM Vara 2013|121|Horeca|0
0|CS3503618|2013-07-26 23:30:38|Guda|Iulian||M|1984-04-07|Constanta|CONSTANTA|Bisericii|13|||||0724262905|||MBRFP||1 Sobranie KS Blue (6mg) Pack|Yes|Yes||CT005099|Lascu-Bros|Constanta|CTHRKBA87|156|CCC HRK SOBR FAM Vara 2013|121|Horeca|0
0|CS3503621|2013-07-26 23:31:50|Guda|Costin||M|1983-11-30|Constanta|Constanta|Medgidiei|21|||||0733230281|||MBRBI||1 Sobranie KS Black (8mg) Pack|Yes|Yes||CT005099|Lascu-Bros|Constanta|CTHRKBA87|156|CCC HRK SOBR FAM Vara 2013|121|Horeca|0
0|CS3503622|2013-07-26 23:31:56|Rarofil|Georgiana||F|1986-05-15|Constanta|Constanta|Soveja|90|Dr 25|B|3|11|0724316759|||KTSV||1 Sobranie SS Black (6mg) Pack|Yes|No||CT005099|Lascu-Bros|Constanta|CTHRKBA96|156|CCC HRK SOBR FAM Vara 2013|121|Horeca|0
0|CS3503629|2013-07-26 23:33:18|Tivoran|Nicoleta||F|1979-01-01|Constanta|CONSTANTA|Razoare|13|||||0786870976|||KTBL||1 Sobranie KS Black (8mg) Pack|Yes|Yes||CT005099|Lascu-Bros|Constanta|CTHRKBA84|156|CCC HRK SOBR FAM Vara 2013|121|Horeca|0
0|CS3503655|2013-07-26 23:38:24|Ferin|Paul||M|1983-08-05|Bucuresti|SECTOR 3|Florilor|30|||||0735109876|||KTNBK||1 Sobranie KS Gold  (4mg) Pack|Yes|Yes||CT005099|Lascu-Bros|Constanta|CTHRKBA84|156|CCC HRK SOBR FAM Vara 2013|121|Horeca|0
0|CS3503659|2013-07-26 23:39:26|Caracuda|Valentina||F|1980-09-01|Constanta|COGEALAC|Mare|61|||||0733121456|||GLPBMNFT||1 Sobranie SS Menthol (5 mg) Pack|Yes|No||CT005099|Lascu-Bros|Constanta|CTHRKBA96|156|CCC HRK SOBR FAM Vara 2013|121|Horeca|0
0|CS3503663|2013-07-26 23:39:48|Barzulea|Aurelian||M|1984-11-25|Calarasi|Unirea|Pacii|33|||||0762110093|||DAVGL||1 Sobranie KS Blue (6mg) Pack|Yes|No||CT005099|Lascu-Bros|Constanta|CTHRKBA87|156|CCC HRK SOBR FAM Vara 2013|121|Horeca|0
0|CS3503666|2013-07-26 23:40:04|Pestritu|Paula||F|1988-08-01|Constanta|CONSTANTA|Fagetului|40|||||0726091876|||GLMMNT||1 Sobranie SS Menthol (5 mg) Pack|Yes|Yes||CT005099|Lascu-Bros|Constanta|CTHRKBA84|156|CCC HRK SOBR FAM Vara 2013|121|Horeca|0
0|CS3503667|2013-07-26 23:40:09|Ionescu|Mihai||M|1983-06-28|Constanta|CONSTANTA|Eliade|45|||||0734567890|||KTSV||1 Sobranie KS Gold  (4mg) Pack|Yes|Yes||CT005099|Lascu-Bros|Constanta|CTHRKBA94|156|CCC HRK SOBR FAM Vara 2013|121|Horeca|0
0|CS3503672|2013-07-26 23:41:02|Bosnea|Cami||F|1983-10-29|Constanta|CONSTANTA|Tulcei|1|||||0726109876|||GLMBL||1 Sobranie SS Pink (3mg) Pack|Yes|Yes||CT005099|Lascu-Bros|Constanta|CTHRKBA84|156|CCC HRK SOBR FAM Vara 2013|121|Horeca|0
0|CS3503677|2013-07-26 23:41:57|Fudulea|Robert||M|1985-11-29|Constanta|CONSTANTA|Orhideelor|66|||||0732100941||Fundulea.robert@yaho.com|PARAB||1 Sobranie KS Black (8mg) Pack|Yes|Yes||CT005099|Lascu-Bros|Constanta|CTHRKBA87|156|CCC HRK SOBR FAM Vara 2013|121|Horeca|0
0|CS3503678|2013-07-26 23:41:57|Costileni|Mihai||M|1979-01-01|Constanta|Constanta|Aprodul purice|5|L32|A|1|41|0765342563|||KTH||1 Sobranie KS Black (8mg) Pack|Yes|No||CT005099|Lascu-Bros|Constanta|CTHRKBA96|156|CCC HRK SOBR FAM Vara 2013|121|Horeca|0
0|CS3503681|2013-07-26 23:42:33|Duhnea|Lavinia||F|1984-10-29|Cluj|CLUJ NAPOCA|Barca albastra|11|||||0732109080|||KTBL||1 Sobranie KS Blue (6mg) Pack|Yes|Yes||CT005099|Lascu-Bros|Constanta|CTHRKBA84|156|CCC HRK SOBR FAM Vara 2013|121|Horeca|0
0|CS3503682|2013-07-26 23:42:49|Lupu|Daniel||M|1989-08-25|Constanta|EFORIE NORD|Soarelui|17|||||0734224569|||DAVGL||1 Sobranie KS Blue (6mg) Pack|Yes|Yes||CT005099|Lascu-Bros|Constanta|CTHRKBA94|156|CCC HRK SOBR FAM Vara 2013|121|Horeca|0
0|CS3503687|2013-07-26 23:43:58|Constandache|Loredana||F|1984-11-29|Constanta|CONSTANTA|Adamclisi|31|D|1||2|0722854277|||KTBL||1 Sobranie KS Blue (6mg) Pack|Yes|Yes||CT005099|Lascu-Bros|Constanta|CTHRKBA87|156|CCC HRK SOBR FAM Vara 2013|121|Horeca|0
0|CS3503688|2013-07-26 23:44:01|Iridon|Corina||F|1982-10-01|Constanta|COGEALAC|Postei|32|||||0745672321|||GLMMNT||1 Sobranie SS Menthol (5 mg) Pack|Yes|No||CT005099|Lascu-Bros|Constanta|CTHRKBA96|156|CCC HRK SOBR FAM Vara 2013|121|Horeca|0
0|CS3503692|2013-07-26 23:44:34|Movila|Andrei||M|1982-03-22|Constanta|Constanta|Facultatii|37|||||0760990321|||MBRFP||1 Sobranie KS Gold  (4mg) Pack|Yes|Yes||CT005099|Lascu-Bros|Constanta|CTHRKBA94|156|CCC HRK SOBR FAM Vara 2013|121|Horeca|0
0|CS3503704|2013-07-26 23:46:32|Mihaila|Andrei||M|1979-11-30|Dolj|CRAIOVA|Tudor vladimirescu|1|||||0751900410|||MBRGLFT||1 Sobranie KS Gold  (4mg) Pack|Yes|No||CT005099|Lascu-Bros|Constanta|CTHRKBA87|156|CCC HRK SOBR FAM Vara 2013|121|Horeca|0
0|CS3503707|2013-07-26 23:46:57|Cordeni|Alexandra||F|1990-10-19|Constanta|Tariverde|Verdelui|21|||||0745346751|||DUNFCBB||1 Sobranie KS Gold  (4mg) Pack|Yes|No||CT005099|Lascu-Bros|Constanta|CTHRKBA96|156|CCC HRK SOBR FAM Vara 2013|121|Horeca|0
0|CS3503711|2013-07-26 23:47:16|Artiom|Luminita||F|1977-05-27|Constanta|CONSTANTA|Dumbravei|25|||||0765431789|||DUNFCMBB||1 Sobranie KS Black (8mg) Pack|Yes|Yes||CT005099|Lascu-Bros|Constanta|CTHRKBA94|156|CCC HRK SOBR FAM Vara 2013|121|Horeca|0
0|CS3503744|2013-07-26 23:54:51|Neculai|Nicolae||M|1984-10-29|Constanta|CONSTANTA|Ion ratiu|17|||||0735109276|||DUNFCBB||1 Sobranie KS Gold  (4mg) Pack|Yes|Yes||CT004932|Toscana SRL |Constanta|CTHRKBA84|156|CCC HRK SOBR FAM Vara 2013|121|Horeca|0
0|CS3503746|2013-07-26 23:55:12|Vasiluta|Aurelian||M|1980-03-24|Constanta|CONSTANTA|Dimitrie cantemir|56|||||0726900062|||KTBL||1 Sobranie KS Black (8mg) Pack|Yes|Yes||CT004932|Toscana SRL |Constanta|CTHRKBA94|156|CCC HRK SOBR FAM Vara 2013|121|Horeca|0
0|CS3503749|2013-07-26 23:55:59|Gorun|Emilia||F|1990-04-03|Constanta|Tariverde|Verdelui|42|||||0754672213|||DUNFF||1 Sobranie KS Black (8mg) Pack|Yes|No||CT004932|Toscana SRL |Constanta|CTHRKBA96|156|CCC HRK SOBR FAM Vara 2013|121|Horeca|0
0|CS3503753|2013-07-26 23:56:32|Danaila|Roxana||F|1984-11-29|Tulcea|TULCEA|Ferdinand|21|||||0765170981|||DUNFCMBB||1 Sobranie KS Blue (6mg) Pack|Yes|No||CT004932|Toscana SRL |Constanta|CTHRKBA87|156|CCC HRK SOBR FAM Vara 2013|121|Horeca|0
0|CS3503754|2013-07-26 23:56:35|Pestisor|Iulian||M|1986-11-29|Bucuresti|SECTOR 3|Zorele|51|||||0722760918|||KTSV||1 Sobranie KS Gold  (4mg) Pack|Yes|Yes||CT004932|Toscana SRL |Constanta|CTHRKBA84|156|CCC HRK SOBR FAM Vara 2013|121|Horeca|0
0|CS3503756|2013-07-26 23:57:24|Fricu|Camelia||F|1982-05-22|Constanta|CONSTANTA|Bucuresti|25|||||0735789031|||PARNBH||1 Sobranie KS Black (8mg) Pack|Yes|Yes||CT004932|Toscana SRL |Constanta|CTHRKBA94|156|CCC HRK SOBR FAM Vara 2013|121|Horeca|0
0|CS3503760|2013-07-26 23:58:38|Boitos|Florin||M|1984-10-23|Constanta|CONSTANTA|Soveja|21|||||0734410027|||KTBL||1 Sobranie KS Blue (6mg) Pack|Yes|No||CT004932|Toscana SRL |Constanta|CTHRKBA87|156|CCC HRK SOBR FAM Vara 2013|121|Horeca|0
0|CS3503761|2013-07-26 23:58:50|Undita|Mihaela||F|1988-12-26|Constanta|Constanta|Aleea brizei|45|L21|A|6|23|0765431522|||GLPBPKFT||1 Sobranie SS Black (6mg) Pack|Yes|No||CT004932|Toscana SRL |Constanta|CTHRKBA96|156|CCC HRK SOBR FAM Vara 2013|121|Horeca|0
0|CS3507111|2013-07-27 18:53:46|Mocanu|Ivona||F|1985-04-28|Constanta|CONSTANTA|Lapusneanu|24|||||0743156098|||GLMMNT||1 Sobranie SS Menthol (5 mg) Pack|Yes|Yes||CT004058|Abi Grup SRL|Constanta|CTHRKBA84|156|CCC HRK SOBR FAM Vara 2013|121|Horeca|0
0|CS3507112|2013-07-27 18:53:51|Valerica|Cosmina||F|1989-09-17|Constanta|CONSTANTA|Bucuresti|4|L54|A|2|21|0733451231|||GLPBPKFT||1 Sobranie SS Black (6mg) Pack|Yes|No||CT004058|Abi Grup SRL|Constanta|CTHRKBA96|156|CCC HRK SOBR FAM Vara 2013|121|Horeca|0
0|CS3507116|2013-07-27 18:54:10|Pana|Alexandra||F|1988-10-26|Constanta|CONSTANTA|Bucuresti|25|||||0732678942|||CABK||1 Sobranie KS Blue (6mg) Pack|Yes|Yes||CT004058|Abi Grup SRL|Constanta|CTHRKBA94|156|CCC HRK SOBR FAM Vara 2013|121|Horeca|0
0|CS3507125|2013-07-27 18:56:00|Stanciu|Cosmina||F|1984-11-29|Constanta|CONSTANTA|Soveja|314|C|2||14|0766210993|||DAVGL||1 Sobranie KS Blue (6mg) Pack|Yes|No||CT004058|Abi Grup SRL|Constanta|CTHRKBA87|156|CCC HRK SOBR FAM Vara 2013|121|Horeca|0
0|CS3507128|2013-07-27 18:56:11|Ilie|Laura||F|1984-11-02|Constanta|CONSTANTA|Poporului|55|||||0721560098|||DUNFCBB||1 Sobranie KS Gold  (4mg) Pack|Yes|Yes||CT004058|Abi Grup SRL|Constanta|CTHRKBA84|156|CCC HRK SOBR FAM Vara 2013|121|Horeca|0
0|CS3507140|2013-07-27 18:57:11|Chirita|Marius||M|1982-09-25|Constanta|CONSTANTA|Cuza voda|67|||||0760990542|||KTSV||1 Sobranie KS Gold  (4mg) Pack|Yes|Yes||CT004058|Abi Grup SRL|Constanta|CTHRKBA94|156|CCC HRK SOBR FAM Vara 2013|121|Horeca|0
0|CS3507142|2013-07-27 18:57:37|Constantin|Valeriu||M|1985-01-26|Constanta|Constanta|Dobrila eugeniu|2|L25|A|2|21|0721345671|||CABL||1 Sobranie KS Blue (6mg) Pack|Yes|No||CT004058|Abi Grup SRL|Constanta|CTHRKBA96|156|CCC HRK SOBR FAM Vara 2013|121|Horeca|0
0|CS3507148|2013-07-27 18:58:14|Otrogan|Valentin||M|1989-06-07|Constanta|MEDGIDIA|Ali kemal|19|||||0744910317|||CAFI||1 Sobranie KS Black (8mg) Pack|Yes|Yes||CT004058|Abi Grup SRL|Constanta|CTHRKBA87|156|CCC HRK SOBR FAM Vara 2013|121|Horeca|0
0|CS3507198|2013-07-27 19:04:51|Nortel|Alexandru||M|1984-06-25|Bucuresti|SECTOR 6|Decebal|80|||||0723109821|||DAVGLS||1 Sobranie KS Blue (6mg) Pack|Yes|Yes||CT004058|Abi Grup SRL|Constanta|CTHRKBA84|156|CCC HRK SOBR FAM Vara 2013|121|Horeca|0
0|CS3507273|2013-07-27 19:13:16|Riculet|Claudiu||M|1981-02-18|Constanta|CONSTANTA|Mihai viteazu|57|||||0725887356|||PARSB||1 Sobranie KS Gold  (4mg) Pack|Yes|Yes||CT004058|Abi Grup SRL|Constanta|CTHRKBA94|156|CCC HRK SOBR FAM Vara 2013|121|Horeca|0
0|CS3507277|2013-07-27 19:13:37|Filimon|Valentin||M|1989-11-26|Constanta|CONSTANTA|Unirii|3|62|B|2|11|0723451991|||DAVIDBL||1 Sobranie KS Blue (6mg) Pack|Yes|No||CT004058|Abi Grup SRL|Constanta|CTHRKBA96|156|CCC HRK SOBR FAM Vara 2013|121|Horeca|0
0|CS3507466|2013-07-27 19:31:53|Constantin|Ileana||F|1978-11-28|Constanta|CONSTANTA|Pescarus|87|||||0722609187|||KTSV||1 Sobranie KS Gold  (4mg) Pack|Yes|Yes||CT005185|Filozofie Urbana SRL|Constanta|CTHRKBA84|156|CCC HRK SOBR FAM Vara 2013|121|Horeca|0
0|CS3507476|2013-07-27 19:32:57|Antonescu|Cristina||F|1986-07-01|Constanta|CONSTANTA|Mihaileanu|3|H43|C|2|22|0733124567|||GLPBPKFT||1 Sobranie SS Black (6mg) Pack|Yes|No||CT005185|Filozofie Urbana SRL|Constanta|CTHRKBA96|156|CCC HRK SOBR FAM Vara 2013|121|Horeca|0
0|CS3507478|2013-07-27 19:33:01|Tutulea|Iulian||M|1978-06-24|Constanta|CONSTANTA|Unirii|79|||||0720752779|||DAVGL||1 Sobranie KS Blue (6mg) Pack|Yes|Yes||CT005185|Filozofie Urbana SRL|Constanta|CTHRKBA94|156|CCC HRK SOBR FAM Vara 2013|121|Horeca|0
0|CS3507483|2013-07-27 19:33:26|Radu|Simona||F|1988-10-26|Constanta|CONSTANTA|Adamclisi|78|F|||41|0720191211|||PARAB||1 Sobranie KS Black (8mg) Pack|Yes|No||CT005185|Filozofie Urbana SRL|Constanta|CTHRKBA87|156|CCC HRK SOBR FAM Vara 2013|121|Horeca|0
0|CS3507485|2013-07-27 19:33:40|Peles|Ioana||F|1986-01-01|Calarasi|CALARASI|Zmeu|32|||||0726098123|||GLMMNT||1 Sobranie SS Menthol (5 mg) Pack|Yes|Yes||CT005185|Filozofie Urbana SRL|Constanta|CTHRKBA84|156|CCC HRK SOBR FAM Vara 2013|121|Horeca|0
0|CS3507497|2013-07-27 19:34:57|Niculicioiu|Liliana||F|1982-05-30|Constanta|COGEALAC|Postei|14|||||0722343556|||KTNWH||1 Sobranie SS White (1mg) Pack|Yes|No||CT005185|Filozofie Urbana SRL|Constanta|CTHRKBA96|156|CCC HRK SOBR FAM Vara 2013|121|Horeca|0
0|CS3507500|2013-07-27 19:35:17|Rizea|Cristi||M|1980-04-29|Constanta|CONSTANTA|Mihai viteazu|36|||||0745941490|||SBKSGD||1 Sobranie KS Gold  (4mg) Pack|Yes|Yes||CT005185|Filozofie Urbana SRL|Constanta|CTHRKBA94|156|CCC HRK SOBR FAM Vara 2013|121|Horeca|0
0|CS3507504|2013-07-27 19:35:40|Calinderi|Laura||F|1989-02-23|Constanta|CONSTANTA|Fragilor23|23|||||0766098123|||KTWH||1 Sobranie SS White (1mg) Pack|Yes|Yes||CT005185|Filozofie Urbana SRL|Constanta|CTHRKBA84|156|CCC HRK SOBR FAM Vara 2013|121|Horeca|0
0|CS3507513|2013-07-27 19:36:39|Barza|Adrian||M|1982-01-29|Constanta|CONSTANTA|Tomis|61|A|||88|0729051872|||MBRGLFT||1 Sobranie KS Gold  (4mg) Pack|Yes|Yes||CT005185|Filozofie Urbana SRL|Constanta|CTHRKBA87|156|CCC HRK SOBR FAM Vara 2013|121|Horeca|0
0|CS3507518|2013-07-27 19:37:13|Eftimie|Valentin||M|1978-01-01|Constanta|Constanta|Coiciu|22|||||0755643567|||DUNFF||1 Sobranie KS Black (8mg) Pack|Yes|No||CT005185|Filozofie Urbana SRL|Constanta|CTHRKBA96|156|CCC HRK SOBR FAM Vara 2013|121|Horeca|0
0|CS3507530|2013-07-27 19:38:44|Bunea|Silviu||M|1990-10-30|Constanta|CONSTANTA|Smirdan|4|||||0726917011|||KTSV||1 Sobranie KS Gold  (4mg) Pack|Yes|Yes||CT005185|Filozofie Urbana SRL|Constanta|CTHRKBA87|156|CCC HRK SOBR FAM Vara 2013|121|Horeca|0
0|CS3507591|2013-07-27 19:46:12|Moldoveanu|Ana maria||F|1986-08-14|Constanta|CONSTANTA|Constantin bobescu|2|||||0766493082|||KTNBL||1 Sobranie SS Black (6mg) Pack|Yes|Yes||CT003789|SCAPINO SRL|Constanta|CTHRKBA84|156|CCC HRK SOBR FAM Vara 2013|121|Horeca|0
0|CS3507623|2013-07-27 19:50:30|Olivu|Andrei||M|1984-06-20|Constanta|CONSTANTA|Plopilor|4|||||0746109827|||DUNFCMBB||1 Sobranie KS Blue (6mg) Pack|Yes|Yes||CT003789|SCAPINO SRL|Constanta|CTHRKBA84|156|CCC HRK SOBR FAM Vara 2013|121|Horeca|0
0|CS3507630|2013-07-27 19:51:20|Dori|Alina||F|1980-07-01|Constanta|CONSTANTA|Soveja|44|||||0766234521|||CAWH||1 Sobranie KS Gold  (4mg) Pack|Yes|No||CT003789|SCAPINO SRL|Constanta|CTHRKBA96|156|CCC HRK SOBR FAM Vara 2013|121|Horeca|0
0|CS3507631|2013-07-27 19:51:21|Danulescu|Marian||M|1985-11-29|Braila|BRAILA|Fericirii|60|3|||73|0722109311|||PARAB||1 Sobranie KS Black (8mg) Pack|Yes|No||CT003789|SCAPINO SRL|Constanta|CTHRKBA87|156|CCC HRK SOBR FAM Vara 2013|121|Horeca|0
0|CS3507633|2013-07-27 19:51:44|David|Eugen||M|1990-02-19|Constanta|CONSTANTA|TrandafiriLor|35|||||0746890324|||DAVCL||1 Sobranie KS Black (8mg) Pack|Yes|Yes||CT003789|SCAPINO SRL|Constanta|CTHRKBA94|156|CCC HRK SOBR FAM Vara 2013|121|Horeca|0
0|CS3507639|2013-07-27 19:52:14|Caracoti|Marian||M|1984-11-30|Dolj|CRAIOVA|Olanesti|101|||||0730987098|||KTBL||1 Sobranie KS Black (8mg) Pack|Yes|Yes||CT003789|SCAPINO SRL|Constanta|CTHRKBA84|156|CCC HRK SOBR FAM Vara 2013|121|Horeca|0
0|CS3507652|2013-07-27 19:53:33|Indigan|Florentina||F|1988-02-01|Constanta|CONSTANTA|Lapusneanu|55|||||0733441234|||GLMBL||1 Sobranie SS Pink (3mg) Pack|Yes|No||CT003789|SCAPINO SRL|Constanta|CTHRKBA96|156|CCC HRK SOBR FAM Vara 2013|121|Horeca|0
0|CS3507654|2013-07-27 19:53:39|Bitlan|Roxana||F|1975-11-21|Constanta|CONSTANTA|Poporului|13|||||0740198122||Bitlan.roxana@yahoo.com|MBRGLH||1 Sobranie KS Blue (6mg) Pack|Yes|Yes||CT003789|SCAPINO SRL|Constanta|CTHRKBA87|156|CCC HRK SOBR FAM Vara 2013|121|Horeca|0
0|CS3507656|2013-07-27 19:53:42|Enache|Ana||F|1984-10-26|Constanta|CONSTANTA|Cuza voda|14|||||0720981765|||KTBL||1 Sobranie KS Blue (6mg) Pack|Yes|Yes||CT003789|SCAPINO SRL|Constanta|CTHRKBA84|156|CCC HRK SOBR FAM Vara 2013|121|Horeca|0
0|CS3507657|2013-07-27 19:53:53|Grigore|Nicolae||M|1974-02-16|Constanta|AGIGEA|Emil palade|26a|||||0760000631|||DUNFCSB||1 Sobranie KS Black (8mg) Pack|Yes|Yes||CT003789|SCAPINO SRL|Constanta|CTHRKBA94|156|CCC HRK SOBR FAM Vara 2013|121|Horeca|0
0|CS3507669|2013-07-27 19:56:05|Dobre|Marian||M|1984-10-28|Constanta|CONSTANTA|Unirii|31|2|||31|0733109843|||PARABH||1 Sobranie KS Blue (6mg) Pack|Yes|Yes||CT003789|SCAPINO SRL|Constanta|CTHRKBA87|156|CCC HRK SOBR FAM Vara 2013|121|Horeca|0
0|CS3507670|2013-07-27 19:56:21|Apitiol|Cristina||F|1978-09-22|Bucuresti|Bucuresti|Mihai eminescu|157|||||0743778333|||GLMLIL||1 Sobranie SS Black (6mg) Pack|Yes|Yes||CT003789|SCAPINO SRL|Constanta|CTHRKBA94|156|CCC HRK SOBR FAM Vara 2013|121|Horeca|0
0|CS3507679|2013-07-27 19:57:59|Noman|Alev||F|1985-11-29|Constanta|CONSTANTA|Mamaia|124|C|1||309|0766109831|||VOGBL||1 Sobranie SS Black (6mg) Pack|Yes|No||CT003789|SCAPINO SRL|Constanta|CTHRKBA87|156|CCC HRK SOBR FAM Vara 2013|121|Horeca|0
0|CS3507839|2013-07-27 20:13:46|Hasoti|Alex||M|1979-02-01|Constanta|Constanta|Bvd 1 mai|54|||||0722453651|||DAVGLSS||1 Sobranie SS Black (6mg) Pack|Yes|No||CT004932|Toscana SRL |Constanta|CTHRKBA96|156|CCC HRK SOBR FAM Vara 2013|121|Horeca|0
0|CS3507843|2013-07-27 20:14:02|Rohan|Catalin||M|1992-10-28|Constanta|CONSTANTA|Decebal|2|||||0722100981|||KTBL||1 Sobranie KS Black (8mg) Pack|Yes|Yes||CT004932|Toscana SRL |Constanta|CTHRKBA87|156|CCC HRK SOBR FAM Vara 2013|121|Horeca|0
0|CS3507848|2013-07-27 20:14:31|Pas u|Raluca||F|1984-10-01|Constanta|CONSTANTA|1907|91|||||0720981876|||KTSV||1 Sobranie SS Pink (3mg) Pack|Yes|Yes||CT004932|Toscana SRL |Constanta|CTHRKBA84|156|CCC HRK SOBR FAM Vara 2013|121|Horeca|0
0|CS3507853|2013-07-27 20:14:49|Grabovetski|Stefan||M|1989-06-19|Constanta|CONSTANTA|Gribovita|35|||||0735690333|||PARAB||1 Sobranie KS Black (8mg) Pack|Yes|Yes||CT004932|Toscana SRL |Constanta|CTHRKBA94|156|CCC HRK SOBR FAM Vara 2013|121|Horeca|0
0|CS3507869|2013-07-27 20:16:00|Nicolescu|Andrada||F|1986-05-22|Bistrita Nasaud|BISTRITA|Rascoalei|15|A|||6|0782109210|||DAVGL||1 Sobranie KS Blue (6mg) Pack|Yes|Yes||CT004932|Toscana SRL |Constanta|CTHRKBA87|156|CCC HRK SOBR FAM Vara 2013|121|Horeca|0
0|CS3507871|2013-07-27 20:16:01|Jodiniu|Sebastian||M|1992-09-30|Constanta|Constanta|Coiciu|44|||||0754377898|||CABL||1 Sobranie KS Blue (6mg) Pack|Yes|No||CT004932|Toscana SRL |Constanta|CTHRKBA96|156|CCC HRK SOBR FAM Vara 2013|121|Horeca|0
0|CS3507874|2013-07-27 20:16:08|Samson|Alexandru||M|1984-09-29|Bucuresti|SECTOR 4|Palatelor|19|||||0729108717|||KTNBK||1 Sobranie KS Gold  (4mg) Pack|Yes|Yes||CT004932|Toscana SRL |Constanta|CTHRKBA84|156|CCC HRK SOBR FAM Vara 2013|121|Horeca|0
0|CS3507882|2013-07-27 20:16:56|Postasu|Marian||M|1973-01-20|Constanta|CONSTANTA|Cismigiu|25|||||0735118525|||DAVGL||1 Sobranie KS Blue (6mg) Pack|Yes|Yes||CT004932|Toscana SRL |Constanta|CTHRKBA94|156|CCC HRK SOBR FAM Vara 2013|121|Horeca|0
0|CS3507887|2013-07-27 20:17:27|Maleas|Ioana||F|1988-10-29|Constanta|CONSTANTA|Ferdinand|5a|||||0729108716|||GLMMNT||1 Sobranie SS Menthol (5 mg) Pack|Yes|Yes||CT004932|Toscana SRL |Constanta|CTHRKBA84|156|CCC HRK SOBR FAM Vara 2013|121|Horeca|0
0|CS3507892|2013-07-27 20:17:39|Busuioc|Nadia||F|1974-10-28|Constanta|CONSTANTA|Mircea cel batran|28|C2|1||3|0721097131|||VIRSM||1 Sobranie SS Menthol (5 mg) Pack|Yes|Yes||CT004932|Toscana SRL |Constanta|CTHRKBA87|156|CCC HRK SOBR FAM Vara 2013|121|Horeca|0
0|CS3507896|2013-07-27 20:18:15|Andosie|Cristian||M|1976-06-26|Constanta|Constanta|Frunzelor|68|||||0722455671|||DAVCL||1 Sobranie KS Blue (6mg) Pack|Yes|No||CT004932|Toscana SRL |Constanta|CTHRKBA96|156|CCC HRK SOBR FAM Vara 2013|121|Horeca|0
0|CS3507898|2013-07-27 20:18:31|Cucu|Sorina||F|1979-05-19|Tulcea|Tulcea|Ion creanga|35|||||0738904821|||VIRSV||1 Sobranie SS Pink (3mg) Pack|Yes|Yes||CT004932|Toscana SRL |Constanta|CTHRKBA94|156|CCC HRK SOBR FAM Vara 2013|121|Horeca|0
0|CS3507907|2013-07-27 20:19:10|Gavaneanu|Ionel||M|1986-06-23|Brasov|BRASOV|Linistii|187|||||0719810030|||DUNFCSB||1 Sobranie KS Black (8mg) Pack|Yes|No||CT004932|Toscana SRL |Constanta|CTHRKBA87|156|CCC HRK SOBR FAM Vara 2013|121|Horeca|0
0|CS3508043|2013-07-27 20:31:45|Dragusin|Fusinica||F|1958-01-01|Constanta|Constanta|Unirii|114|U4|A||35|0721962736|||KTH||1 Sobranie KS Blue (6mg) Pack|Yes|No||CT002023|Trinagria SRL |Constanta|CTHRKBA96|156|CCC HRK SOBR FAM Vara 2013|121|Horeca|0
0|CS3508114|2013-07-27 20:39:53|Pepenica|Bogdan||M|1985-10-30|Constanta|CONSTANTA|Sarmisegetuza|67|||||0721314176|||DAVCL||1 Sobranie KS Black (8mg) Pack|Yes|Yes||CT002023|Trinagria SRL |Constanta|CTHRKBA84|156|CCC HRK SOBR FAM Vara 2013|121|Horeca|0
0|CS3508125|2013-07-27 20:40:39|Vosloban|Bogdan||M|1986-05-07|Constanta|CONSTANTA|Soveja|89|||||0735218555||Bogdanvosloban@gmail.com|MBRRD||1 Sobranie KS Black (8mg) Pack|Yes|Yes||CT002023|Trinagria SRL |Constanta|CTHRKBA94|156|CCC HRK SOBR FAM Vara 2013|121|Horeca|0
0|CS3508128|2013-07-27 20:41:08|Vlasiliu|Corneliu||M|1972-01-01|Constanta|Constanta|Brizei|55|||||0722123451|||DUNBL||1 Sobranie KS Blue (6mg) Pack|Yes|No||CT002023|Trinagria SRL |Constanta|CTHRKBA96|156|CCC HRK SOBR FAM Vara 2013|121|Horeca|0
0|CS3508133|2013-07-27 20:41:22|Ciuca|Alexandra||M|1986-01-01|Constanta|CONSTANTA|Pacurii|35|||||0722091876|||KTNBK||1 Sobranie KS Blue (6mg) Pack|Yes|Yes||CT002023|Trinagria SRL |Constanta|CTHRKBA84|156|CCC HRK SOBR FAM Vara 2013|121|Horeca|0
0|CS3508135|2013-07-27 20:41:22|Tavaluc|Adelina||F|1987-05-06|Constanta|CONSTANTA|Ferdinand|21|||||0720916891|||VOGABP||1 Sobranie SS Black (6mg) Pack|Yes|No||CT002023|Trinagria SRL |Constanta|CTHRKBA87|156|CCC HRK SOBR FAM Vara 2013|121|Horeca|0
0|CS3508148|2013-07-27 20:42:44|Pop|Alina||F|1984-08-24|Constanta|CONSTANTA|Banu mihalcea|13|||||0722019812|||SBKSBK||1 Sobranie KS Black (8mg) Pack|Yes|Yes||CT002023|Trinagria SRL |Constanta|CTHRKBA84|156|CCC HRK SOBR FAM Vara 2013|121|Horeca|0
0|CS3508152|2013-07-27 20:42:57|Tonciu|Vasile||M|1970-08-01|Constanta|CONSTANTA|Crinilor|11|||||0766555423|||DUNFCBB||1 Sobranie KS Gold  (4mg) Pack|Yes|No||CT002023|Trinagria SRL |Constanta|CTHRKBA96|156|CCC HRK SOBR FAM Vara 2013|121|Horeca|0
0|CS3508158|2013-07-27 20:43:16|Rizea|Claudiu||M|1984-10-28|Ialomita|SLOBOZIA|Imp traian|3|||||0722198100||Rizea.claudiu@yahoo.com|DUNBL||1 Sobranie KS Blue (6mg) Pack|Yes|Yes||CT002023|Trinagria SRL |Constanta|CTHRKBA87|156|CCC HRK SOBR FAM Vara 2013|121|Horeca|0
0|CS3508159|2013-07-27 20:43:21|Craiu|Jenica||F|1990-04-17|Constanta|CONSTANTA|Dumitru voda|37|||||0768942900||Jenycraiu@yahoo.com|GLMLIL||1 Sobranie SS Black (6mg) Pack|Yes|Yes||CT002023|Trinagria SRL |Constanta|CTHRKBA94|156|CCC HRK SOBR FAM Vara 2013|121|Horeca|0
0|CS3508172|2013-07-27 20:44:29|Sava|Victoria||F|1986-11-29|Constanta|CONSTANTA|Tomis|55|||||0722109419|||MBRGLT||1 Sobranie SS Black (6mg) Pack|Yes|No||CT002023|Trinagria SRL |Constanta|CTHRKBA87|156|CCC HRK SOBR FAM Vara 2013|121|Horeca|0
0|CS3508177|2013-07-27 20:45:07|Gavrila|Emilia||F|1985-04-01|Constanta|Constanta|Frunzelor|66|||||0744561234|||GLMBL||1 Sobranie SS Pink (3mg) Pack|Yes|No||CT002023|Trinagria SRL |Constanta|CTHRKBA96|156|CCC HRK SOBR FAM Vara 2013|121|Horeca|0
0|CS3508187|2013-07-27 20:45:38|Sifirica|Costin||M|1989-08-28|Constanta|CONSTANTA|Mangaliei|18|||||0723890322||Costin.sifiriga@yahoo.com|KTSV||1 Sobranie KS Gold  (4mg) Pack|Yes|Yes||CT002023|Trinagria SRL |Constanta|CTHRKBA94|156|CCC HRK SOBR FAM Vara 2013|121|Horeca|0
0|CS3508548|2013-07-27 21:21:11|Hangan|Alexandra||F|1987-09-28|Constanta|Constanta|Soveja|71|41|B|1|14|0723152420|||SBKSBL||1 Sobranie KS Blue (6mg) Pack|Yes|No||CT000708|AMI COM SRL|Constanta|CTHRKBA96|156|CCC HRK SOBR FAM Vara 2013|121|Horeca|0
0|CS3508549|2013-07-27 21:21:12|Zolta|Alexandra||F|1984-01-01|Bucuresti|6|Intrarea pinului|31|||||0720486709|||SBSSWH||1 Sobranie SS White (1mg) Pack|Yes|Yes||CT000708|AMI COM SRL|Constanta|CTHRKBA87|156|CCC HRK SOBR FAM Vara 2013|121|Horeca|0
0|CS3508553|2013-07-27 21:21:51|Cerchia|Alina||F|1989-05-20|Constanta|Constanta|Malinului|1|||0|0|0727596286||alina_cerchia@yahoo.com|VOGBL||1 Sobranie SS Black (6mg) Pack|Yes|Yes||CT000708|AMI COM SRL|Constanta|CTHRKBA84|156|CCC HRK SOBR FAM Vara 2013|121|Horeca|0
0|CS3508554|2013-07-27 21:21:54|Olteanu|Daniela||F|1965-05-13|Constanta|Constanta|Siutghiol|56|||||0724340434||Danaolteanu13@yahoo.com|SBSSWH||1 Sobranie SS White (1mg) Pack|Yes|Yes||CT000708|AMI COM SRL|Constanta|CTHRKBA94|156|CCC HRK SOBR FAM Vara 2013|121|Horeca|0
0|CS3508572|2013-07-27 21:23:57|Forminte|Eugen||M|1983-10-01|Constanta|CONSTANTA|Papadiei|92|||||0732140987|||DUNFCMBB||1 Sobranie KS Blue (6mg) Pack|Yes|Yes||CT000708|AMI COM SRL|Constanta|CTHRKBA84|156|CCC HRK SOBR FAM Vara 2013|121|Horeca|0
0|CS3508580|2013-07-27 21:24:34|Caraolan|Ionut||M|1991-10-16|Constanta|CONSTANTA|Grivitei|32|||||0722341527|||SBKSGD||1 Sobranie KS Gold  (4mg) Pack|Yes|No||CT000708|AMI COM SRL|Constanta|CTHRKBA96|156|CCC HRK SOBR FAM Vara 2013|121|Horeca|0
0|CS3508581|2013-07-27 21:24:36|Strateanu|Marian||M|1989-09-23|Constanta|Constanta|Cismelei|36|||||0745789555|||KTSV||1 Sobranie KS Gold  (4mg) Pack|Yes|Yes||CT000708|AMI COM SRL|Constanta|CTHRKBA94|156|CCC HRK SOBR FAM Vara 2013|121|Horeca|0
0|CS3508588|2013-07-27 21:25:30|Caranicola|Adrian||M|1984-11-29|Constanta|CONSTANTA|Pescarilor|70|||||0732109080|||KTNBK||1 Sobranie SS Black (6mg) Pack|Yes|Yes||CT000708|AMI COM SRL|Constanta|CTHRKBA84|156|CCC HRK SOBR FAM Vara 2013|121|Horeca|0
0|CS3508593|2013-07-27 21:26:07|Plop|Crina||F|1977-01-20|Constanta|Constanta|Unirii|46|||||0766905479|||DUNFCMBB||1 Sobranie KS Blue (6mg) Pack|Yes|Yes||CT000708|AMI COM SRL|Constanta|CTHRKBA94|156|CCC HRK SOBR FAM Vara 2013|121|Horeca|0
0|CS3508594|2013-07-27 21:26:08|Veronet|Corina||F|1986-04-24|Constanta|Constanta|Bucuresti|8|||||0721345485|||KTH||1 Sobranie KS Black (8mg) Pack|Yes|No||CT000708|AMI COM SRL|Constanta|CTHRKBA96|156|CCC HRK SOBR FAM Vara 2013|121|Horeca|0
0|CS3508595|2013-07-27 21:26:10|Lacurezeanu|Nicoleta||F|1988-03-04|Cluj|CLUJ NAPOCA|Dezrobirii|30b|||||0731890041|||VIRSPR||1 Sobranie SS Black (6mg) Pack|Yes|No||CT000708|AMI COM SRL|Constanta|CTHRKBA87|156|CCC HRK SOBR FAM Vara 2013|121|Horeca|0
0|CS3508601|2013-07-27 21:26:53|Marin|Alina||F|1989-05-06|Constanta|CONSTANTA|Murelor|3|||||0744120971|||GLMMNT||1 Sobranie SS Menthol (5 mg) Pack|Yes|Yes||CT000708|AMI COM SRL|Constanta|CTHRKBA84|156|CCC HRK SOBR FAM Vara 2013|121|Horeca|0
0|CS3508612|2013-07-27 21:27:41|Bocata|Mihai||M|1979-02-19|Constanta|CONSTANTA|Liliecilor|27|||||0746327898|||DAVCL||1 Sobranie KS Blue (6mg) Pack|Yes|Yes||CT000708|AMI COM SRL|Constanta|CTHRKBA94|156|CCC HRK SOBR FAM Vara 2013|121|Horeca|0
0|CS3508613|2013-07-27 21:27:45|Panait|Stefan||M|1984-10-28|Calarasi|CALARASI|Bucurestilor|31|Ah2|4||19|0721093189|||MBRRD||1 Sobranie KS Black (8mg) Pack|Yes|No||CT000708|AMI COM SRL|Constanta|CTHRKBA87|156|CCC HRK SOBR FAM Vara 2013|121|Horeca|0
0|CS3508615|2013-07-27 21:27:56|Damian|Radu||M|1984-06-28|Constanta|CONSTANTA|Gamalia|1|||||0721709809|||DUNFCMBB||1 Sobranie KS Blue (6mg) Pack|Yes|Yes||CT000708|AMI COM SRL|Constanta|CTHRKBA84|156|CCC HRK SOBR FAM Vara 2013|121|Horeca|0
0|CS3508618|2013-07-27 21:28:06|Garefin|Bianca||F|1978-03-19|Constanta|Constanta|Coiciu|41|||||0733454555|||GLPBPKFT||1 Sobranie SS Black (6mg) Pack|Yes|No||CT000708|AMI COM SRL|Constanta|CTHRKBA96|156|CCC HRK SOBR FAM Vara 2013|121|Horeca|0
0|CS3508631|2013-07-27 21:29:17|Sandu|Angel||M|1994-10-28|Constanta|COBADIN|Silistra|2|||||0776109421|||PARNBH||1 Sobranie KS Black (8mg) Pack|Yes|No||CT000708|AMI COM SRL|Constanta|CTHRKBA87|156|CCC HRK SOBR FAM Vara 2013|121|Horeca|0
0|CS3508697|2013-07-27 21:35:49|Cojocaru|Alexandra||F|1986-05-31|Bucuresti|Bucuresti|Adrian carstea|1|30b|3||95|0723366008||Alexandra-cojocaru31@yahoo.com|GLMMNT||1 Sobranie SS Menthol (5 mg) Pack|Yes|Yes||CT004056|Restaurant Mediteranean SRL |Constanta|CTHRKBA94|156|CCC HRK SOBR FAM Vara 2013|121|Horeca|0
0|CS3508719|2013-07-27 21:37:16|Caprari|Eduard Gabriel||M|1994-09-03|Constanta|CONSTANTA|Dezrobirii|153|Id3b|||39|0747041047|||SBKSGD||1 Sobranie KS Gold  (4mg) Pack|Yes|Yes||CT004056|Restaurant Mediteranean SRL |Constanta|CTHRKBA87|156|CCC HRK SOBR FAM Vara 2013|121|Horeca|0
0|CS3508731|2013-07-27 21:38:03|Papanicol|Veronica||F|1983-04-01|Constanta|CONSTANTA|Macilor|22|||||0729101918|||GLMLIL||1 Sobranie SS Pink (3mg) Pack|Yes|Yes||CT004056|Restaurant Mediteranean SRL |Constanta|CTHRKBA84|156|CCC HRK SOBR FAM Vara 2013|121|Horeca|0
0|CS3508745|2013-07-27 21:39:19|Niculescu|Mara||F|1987-09-06|Bucuresti|Bucuresti|Nicolae titulescu|89|||||0721232761||Mara.niculescu@gmail.ro|VOGABP||1 Sobranie SS Pink (3mg) Pack|Yes|No||CT004056|Restaurant Mediteranean SRL |Constanta|CTHRKBA94|156|CCC HRK SOBR FAM Vara 2013|121|Horeca|0
0|CS3508826|2013-07-27 21:47:18|Vladescu|Sorin||M|1988-01-28|Constanta|CONSTANTA|Lucaciu vasile|4|3|||33|0720918900|||DAVGL||1 Sobranie KS Blue (6mg) Pack|Yes|Yes||CT004056|Restaurant Mediteranean SRL |Constanta|CTHRKBA87|156|CCC HRK SOBR FAM Vara 2013|121|Horeca|0
0|CS3508827|2013-07-27 21:47:18|Cioraia|Ion||M|1989-04-22|Constanta|CONSTANTA|Mircea cel batran|56|||||0746539999|||MBRFP||1 Sobranie KS Blue (6mg) Pack|Yes|Yes||CT004056|Restaurant Mediteranean SRL |Constanta|CTHRKBA94|156|CCC HRK SOBR FAM Vara 2013|121|Horeca|0
0|CS3508830|2013-07-27 21:47:27|Basca|Razvan||M|1988-02-29|Constanta|Constanta|Rovinari|11|||||0765345654|||SBSSPK||1 Sobranie SS Pink (3mg) Pack|Yes|No||CT004056|Restaurant Mediteranean SRL |Constanta|CTHRKBA96|156|CCC HRK SOBR FAM Vara 2013|121|Horeca|0
0|CS3508851|2013-07-27 21:49:15|Partel|Viviana||F|1984-05-24|Constanta|CONSTANTA|Cuza voda|23|||||0732109087|||GLMMNT||1 Sobranie SS Menthol (5 mg) Pack|Yes|Yes||CT004056|Restaurant Mediteranean SRL |Constanta|CTHRKBA84|156|CCC HRK SOBR FAM Vara 2013|121|Horeca|0
0|CS3508854|2013-07-27 21:49:19|Broasca|Livia||F|1976-08-31|Constanta|Constanta|Vladimirescu|33|||||0734567423|||GLMBL||1 Sobranie SS White (1mg) Pack|Yes|No||CT004056|Restaurant Mediteranean SRL |Constanta|CTHRKBA96|156|CCC HRK SOBR FAM Vara 2013|121|Horeca|0
0|CS3508857|2013-07-27 21:49:26|Cizmaru|Elena||F|1982-10-30|Constanta|CONSTANTA|Livezilor|8|19|A||19|0722195134|||DAVGL||1 Sobranie KS Blue (6mg) Pack|Yes|Yes||CT004056|Restaurant Mediteranean SRL |Constanta|CTHRKBA87|156|CCC HRK SOBR FAM Vara 2013|121|Horeca|0
0|CS3508864|2013-07-27 21:49:44|Mitrache|Cosmin||M|1979-03-20|Constanta|CONSTANTA|Lapusneanu|56|||||0737532889|||KTSV||1 Sobranie KS Gold  (4mg) Pack|Yes|Yes||CT004056|Restaurant Mediteranean SRL |Constanta|CTHRKBA94|156|CCC HRK SOBR FAM Vara 2013|121|Horeca|0
0|CS3508873|2013-07-27 21:50:40|Urse|Bogdan||M|1982-04-25|Constanta|CONSTANTA|Tulcei|98|||||0721398733|||KTBL||1 Sobranie KS Black (8mg) Pack|Yes|Yes||CT004056|Restaurant Mediteranean SRL |Constanta|CTHRKBA84|156|CCC HRK SOBR FAM Vara 2013|121|Horeca|0
0|CS3508879|2013-07-27 21:51:21|Nisipeni|Claudia||F|1990-04-01|Constanta|Constanta|Frunzelor|44|||||0765456789|||KTNBL||1 Sobranie SS Black (6mg) Pack|Yes|No||CT004056|Restaurant Mediteranean SRL |Constanta|CTHRKBA96|156|CCC HRK SOBR FAM Vara 2013|121|Horeca|0
0|CS3508880|2013-07-27 21:51:28|Cristea|Ionut||M|1982-10-29|Constanta|CONSTANTA|Limanului|105|H4|2||50|0754198167|||KTBL||1 Sobranie KS Black (8mg) Pack|Yes|Yes||CT004056|Restaurant Mediteranean SRL |Constanta|CTHRKBA87|156|CCC HRK SOBR FAM Vara 2013|121|Horeca|0
0|CS3508881|2013-07-27 21:51:30|Istrate|Mirela||F|1979-11-20|Constanta|Constanta|Traian|37|||||0735680042|||VIRSPR||1 Sobranie SS Black (6mg) Pack|Yes|Yes||CT004056|Restaurant Mediteranean SRL |Constanta|CTHRKBA94|156|CCC HRK SOBR FAM Vara 2013|121|Horeca|0
0|CS3508894|2013-07-27 21:52:27|Iacon|Patricia||F|1985-10-06|Constanta|CONSTANTA|Pescarus|12|||||0733981290|||GLMLIL||1 Sobranie SS Pink (3mg) Pack|Yes|Yes||CT004056|Restaurant Mediteranean SRL |Constanta|CTHRKBA84|156|CCC HRK SOBR FAM Vara 2013|121|Horeca|0
0|CS3508997|2013-07-27 22:04:27|Marioara|Maria||F|1982-09-29|Cluj|CLUJ NAPOCA|Sulmona|32|||||0766521560|||KTBL||1 Sobranie KS Blue (6mg) Pack|Yes|Yes||CT005099|Lascu-Bros|Constanta|CTHRKBA84|156|CCC HRK SOBR FAM Vara 2013|121|Horeca|0
0|CS3509003|2013-07-27 22:04:50|Surdu|Violeta||F|1988-04-04|Constanta|CONACU|Emil racovita|10|||||0744109771|||MBRGLFT||1 Sobranie SS Pink (3mg) Pack|Yes|Yes||CT005099|Lascu-Bros|Constanta|CTHRKBA87|156|CCC HRK SOBR FAM Vara 2013|121|Horeca|0
0|CS3509004|2013-07-27 22:04:51|Harild|Ioan||M|1972-01-22|Constanta|CONSTANTA|Vladimirescu|45|||||0743598674|||SBKSBK||1 Sobranie SS Black (6mg) Pack|Yes|No||CT005099|Lascu-Bros|Constanta|CTHRKBA96|156|CCC HRK SOBR FAM Vara 2013|121|Horeca|0
0|CS3509005|2013-07-27 22:05:00|Ripichi|Lucian||M|1990-06-21|Constanta|CONSTANTA|Ion ratiu|36|||||0732786422|||DAVGL||1 Sobranie KS Blue (6mg) Pack|Yes|Yes||CT005099|Lascu-Bros|Constanta|CTHRKBA94|156|CCC HRK SOBR FAM Vara 2013|121|Horeca|0
0|CS3509019|2013-07-27 22:06:45|Sabangeanu|Sorin||M|1984-10-29|Bucuresti|SECTOR 2|Curcubeului|20|||||0722098765|||SBKSBK||1 Sobranie KS Black (8mg) Pack|Yes|Yes||CT005099|Lascu-Bros|Constanta|CTHRKBA84|156|CCC HRK SOBR FAM Vara 2013|121|Horeca|0
0|CS3509021|2013-07-27 22:06:47|Trisculet|Claudia||F|1980-01-21|Constanta|CONSTANTA|Soarelui|37|||||0732789042|||PARSB||1 Sobranie KS Gold  (4mg) Pack|Yes|Yes||CT005099|Lascu-Bros|Constanta|CTHRKBA94|156|CCC HRK SOBR FAM Vara 2013|121|Horeca|0
0|CS3509022|2013-07-27 22:06:56|Chiper|Nutica||F|1985-11-29|Constanta|CONSTANTA|Enachita vacarescu|2|C2|||14|0766103318|||VIRSV||1 Sobranie SS Pink (3mg) Pack|Yes|Yes||CT005099|Lascu-Bros|Constanta|CTHRKBA87|156|CCC HRK SOBR FAM Vara 2013|121|Horeca|0
0|CS3509023|2013-07-27 22:06:57|Tutuianu|Veronica||F|1980-06-23|Constanta|Constanta|Florilor|11|||||0766567666|||GLPBPKFT||1 Sobranie SS Black (6mg) Pack|Yes|No||CT005099|Lascu-Bros|Constanta|CTHRKBA96|156|CCC HRK SOBR FAM Vara 2013|121|Horeca|0
0|CS3509036|2013-07-27 22:09:59|Valeriu|Ion||M|1961-11-28|Constanta|CONSTANTA|Primaverii|23|||||0723146809|||KTNBL||1 Sobranie SS Black (6mg) Pack|Yes|Yes||CT005099|Lascu-Bros|Constanta|CTHRKBA84|156|CCC HRK SOBR FAM Vara 2013|121|Horeca|0
0|CS3509037|2013-07-27 22:10:10|Paduche|Catalin||M|1990-05-22|Constanta|EFORIE NORD|Ion creanga|8|||||0726890148|||PARAB||1 Sobranie KS Black (8mg) Pack|Yes|Yes||CT005099|Lascu-Bros|Constanta|CTHRKBA94|156|CCC HRK SOBR FAM Vara 2013|121|Horeca|0
0|CS3509038|2013-07-27 22:10:13|Totolan|Ecaterina||F|1987-10-28|Constanta|CONSTANTA|Eugen tanta|100|B|2||21|0744100975|||KTSWIT||1 Sobranie SS Menthol (5 mg) Pack|Yes|Yes||CT005099|Lascu-Bros|Constanta|CTHRKBA87|156|CCC HRK SOBR FAM Vara 2013|121|Horeca|0
0|CS3509039|2013-07-27 22:10:30|Timisan|Monica||F|1993-06-01|Constanta|Constanta|Sulmona|15|||||0766789000|||SBSSMN||1 Sobranie SS Menthol (5 mg) Pack|Yes|No||CT005099|Lascu-Bros|Constanta|CTHRKBA96|156|CCC HRK SOBR FAM Vara 2013|121|Horeca|0
0|CS3509045|2013-07-27 22:11:50|Bob|Tiberiu||M|1989-03-04|Constanta|CONSTANTA|Aries|2|||||0751094235|||PARAB||1 Sobranie KS Blue (6mg) Pack|Yes|Yes||CT005099|Lascu-Bros|Constanta|CTHRKBA87|156|CCC HRK SOBR FAM Vara 2013|121|Horeca|0
0|CS3509053|2013-07-27 22:13:29|Pitulice|Petrica||F|1990-11-29|Constanta|CONSTANTA|Abatorului|29|5||||0771009432|||DUNFCMBB||1 Sobranie KS Blue (6mg) Pack|Yes|Yes||CT005099|Lascu-Bros|Constanta|CTHRKBA87|156|CCC HRK SOBR FAM Vara 2013|121|Horeca|0
0|CS3512738|2013-07-28 20:01:57|Chiriac|Eugen||M|1985-10-29|Constanta|CONSTANTA|Fazanului|25|||||0720981078|||KTSV||1 Sobranie KS Gold  (4mg) Pack|Yes|Yes||CT004657|ETROMARE SRL|Constanta|CTHRKBA84|156|CCC HRK SOBR FAM Vara 2013|121|Horeca|0
0|CS3512743|2013-07-28 20:02:42|Popescu|Adrian||M|1981-06-25|Constanta|CONSTANTA|Rascoalei|25|||||0734678902|||KTSV||1 Sobranie KS Gold  (4mg) Pack|Yes|No||CT004657|ETROMARE SRL|Constanta|CTHRKBA94|156|CCC HRK SOBR FAM Vara 2013|121|Horeca|0
0|CS3512746|2013-07-28 20:03:00|Bunea|Crina||F|1986-01-01|Brasov|Brasov|Aleea pinilor|31|Ca|4||19|0731678943|||DUNFCMBB||1 Sobranie KS Blue (6mg) Pack|Yes|Yes||CT004657|ETROMARE SRL|Constanta|CTHRKBA87|156|CCC HRK SOBR FAM Vara 2013|121|Horeca|0
0|CS3512749|2013-07-28 20:03:17|Frujinoiu|Catalina||F|1989-05-30|Constanta|Fantanele|Principala|22|||||0720577888|||GLMLIL||1 Sobranie SS Black (6mg) Pack|Yes|No||CT004657|ETROMARE SRL|Constanta|CTHRKBA96|156|CCC HRK SOBR FAM Vara 2013|121|Horeca|0
0|CS3512761|2013-07-28 20:04:22|Righica|Claudiu||M|1985-02-21|Bucuresti|Bucuresti|Ion creanga|69|||||0743568925|||DAVGL||1 Sobranie KS Blue (6mg) Pack|Yes|Yes||CT004657|ETROMARE SRL|Constanta|CTHRKBA94|156|CCC HRK SOBR FAM Vara 2013|121|Horeca|0
0|CS3512766|2013-07-28 20:05:07|Alexie|Marin||M|1979-06-21|Bucuresti|SECTOR 3|Trandafirului|20|||||0720987610|||DUNFCBB||1 Sobranie KS Gold  (4mg) Pack|Yes|Yes||CT004657|ETROMARE SRL|Constanta|CTHRKBA84|156|CCC HRK SOBR FAM Vara 2013|121|Horeca|0
0|CS3512768|2013-07-28 20:05:17|Acsinte|Aurelian||M|1984-09-29|Constanta|Constanta|1 mai|33|||||0733456900|||KTH||1 Sobranie SS Black (6mg) Pack|Yes|No||CT004657|ETROMARE SRL|Constanta|CTHRKBA96|156|CCC HRK SOBR FAM Vara 2013|121|Horeca|0
0|CS3512770|2013-07-28 20:05:20|Sica|Marina||F|1990-10-28|Calarasi|CALARASI|Bucuresti|3|||||0721897531|||KTNBL||1 Sobranie SS Black (6mg) Pack|Yes|Yes||CT004657|ETROMARE SRL|Constanta|CTHRKBA87|156|CCC HRK SOBR FAM Vara 2013|121|Horeca|0
0|CS3512786|2013-07-28 20:06:50|Chirila|Cristina||M|1978-05-22|Constanta|CONSTANTA|Plopeni|76|||||0742780919|||PARABH||1 Sobranie KS Black (8mg) Pack|Yes|Yes||CT004657|ETROMARE SRL|Constanta|CTHRKBA84|156|CCC HRK SOBR FAM Vara 2013|121|Horeca|0
0|CS3512788|2013-07-28 20:06:58|Juninca|Alexandra||F|1980-03-30|Constanta|Constanta|Dobrila|33|||||0766557667|||DAVIDOR||1 Sobranie KS Blue (6mg) Pack|Yes|No||CT004657|ETROMARE SRL|Constanta|CTHRKBA96|156|CCC HRK SOBR FAM Vara 2013|121|Horeca|0
0|CS3512790|2013-07-28 20:07:19|Nedelcu|Florin||M|1986-08-29|Braila|BRAILA|Libertatii|31|5|||59|0744167995|||PARABH||1 Sobranie KS Black (8mg) Pack|Yes|No||CT004657|ETROMARE SRL|Constanta|CTHRKBA87|156|CCC HRK SOBR FAM Vara 2013|121|Horeca|0
0|CS3512796|2013-07-28 20:07:56|Floren|Cornel||M|1982-05-22|Bucuresti|SECTOR 3|Zmeului|3|||||0742161098|||KTBL||1 Sobranie KS Black (8mg) Pack|Yes|Yes||CT004657|ETROMARE SRL|Constanta|CTHRKBA84|156|CCC HRK SOBR FAM Vara 2013|121|Horeca|0
0|CS3513060|2013-07-28 20:38:41|Gheorghe|Maria||F|1981-01-18|Bucuresti|Bucuresti|Gheorghe titeica|27|||||0721642996||Maria.gheorghe@gmail.com|SBSSWH||1 Sobranie SS White (1mg) Pack|Yes|Yes||CT001910|Amalfi Inc|Constanta|CTHRKBA94|156|CCC HRK SOBR FAM Vara 2013|121|Horeca|0
0|CS3513115|2013-07-28 20:45:54|Voiculescu|Ioana||F|1981-05-26|Bucuresti|SECTOR 3|Faleza|6|||||0725109876|||GLMMNT||1 Sobranie SS Menthol (5 mg) Pack|Yes|Yes||CT001910|Amalfi Inc|Constanta|CTHRKBA84|156|CCC HRK SOBR FAM Vara 2013|121|Horeca|0
0|CS3513116|2013-07-28 20:46:05|Ghinea|Raluca||F|1984-06-15|Constanta|CONSTANTA|Ulitei|38|||||0736789043|||DAVSVSS||1 Sobranie SS Pink (3mg) Pack|Yes|Yes||CT001910|Amalfi Inc|Constanta|CTHRKBA94|156|CCC HRK SOBR FAM Vara 2013|121|Horeca|0
0|CS3513119|2013-07-28 20:46:39|Sorinescu|Antonel||M|1983-07-01|Constanta|Constanta|Laurilor|21|||||0722345112|||KTH||1 Sobranie KS Black (8mg) Pack|Yes|No||CT001910|Amalfi Inc|Constanta|CTHRKBA96|156|CCC HRK SOBR FAM Vara 2013|121|Horeca|0
0|CS3513120|2013-07-28 20:46:41|Stamate|Daniela||F|1993-03-04|Bistrita Nasaud|BISTRITA|Ecaterina teodoroiu|4|V|6||13|0737100641|||DAVGL||1 Sobranie KS Blue (6mg) Pack|Yes|Yes||CT001910|Amalfi Inc|Constanta|CTHRKBA87|156|CCC HRK SOBR FAM Vara 2013|121|Horeca|0
0|CS3513142|2013-07-28 20:48:00|Emichi|Bogdan||M|1990-04-23|Constanta|Constanta|Mihai viteazu|28|||||0735272829|||DUNFCMBB||1 Sobranie KS Blue (6mg) Pack|Yes|Yes||CT001910|Amalfi Inc|Constanta|CTHRKBA94|156|CCC HRK SOBR FAM Vara 2013|121|Horeca|0
0|CS3513148|2013-07-28 20:48:27|Popa|Stelian||M|1981-09-05|Bucuresti|SECTOR 3|Foamei|6|||||0734609909|||KTNBK||1 Sobranie KS Gold  (4mg) Pack|Yes|Yes||CT001910|Amalfi Inc|Constanta|CTHRKBA84|156|CCC HRK SOBR FAM Vara 2013|121|Horeca|0
0|CS3513154|2013-07-28 20:49:24|Aciobanitei|Ioana||F|1989-04-30|Calarasi|CALARASI|Unirii|81|||||0729257742|||DUNFCBB||1 Sobranie KS Gold  (4mg) Pack|Yes|Yes||CT001910|Amalfi Inc|Constanta|CTHRKBA87|156|CCC HRK SOBR FAM Vara 2013|121|Horeca|0
0|CS3513161|2013-07-28 20:49:54|Undita|Virgil||M|1984-09-01|Constanta|Constanta|Berzelor|55|||||0744567890|||KTH||1 Sobranie KS Black (8mg) Pack|Yes|No||CT001910|Amalfi Inc|Constanta|CTHRKBA96|156|CCC HRK SOBR FAM Vara 2013|121|Horeca|0
0|CS3513164|2013-07-28 20:50:15|Doroftei|Laura||M|1984-09-17|Constanta|Constanta|Bucuresti|76|||||0732456789|||GLMLIL||1 Sobranie SS Black (6mg) Pack|Yes|No||CT001910|Amalfi Inc|Constanta|CTHRKBA96|156|CCC HRK SOBR FAM Vara 2013|121|Horeca|0
0|CS3513176|2013-07-28 20:51:40|Petrescu|Marius||M|1988-10-19|Constanta|CONSTANTA|Tomis|449|||||0771574555|||SBKSBL||1 Sobranie KS Blue (6mg) Pack|Yes|No||CT001910|Amalfi Inc|Constanta|CTHRKBA87|156|CCC HRK SOBR FAM Vara 2013|121|Horeca|0
0|CS3513202|2013-07-28 20:53:54|Mormeci|Adrian||M|1986-05-01|Constanta|CONSTANTA|Frunzelor|76|||||0722098187|||DUNFCMBB||1 Sobranie KS Blue (6mg) Pack|Yes|Yes||CT001910|Amalfi Inc|Constanta|CTHRKBA84|156|CCC HRK SOBR FAM Vara 2013|121|Horeca|0
0|CS3513316|2013-07-28 21:04:56|Morar|Catalin||M|1982-08-26|Bucuresti|SECTOR 1|Nufarului|45|||||0721090987|||KTBL||1 Sobranie KS Black (8mg) Pack|Yes|Yes||CT004822|Event Club Crush|Constanta|CTHRKBA84|156|CCC HRK SOBR FAM Vara 2013|121|Horeca|0
0|CS3513318|2013-07-28 21:05:08|Oprica|Claudiu||M|1977-02-19|Constanta|CONSTANTA|Emil palade|27|||||0746273828|||KTBL||1 Sobranie KS Black (8mg) Pack|Yes|Yes||CT004822|Event Club Crush|Constanta|CTHRKBA94|156|CCC HRK SOBR FAM Vara 2013|121|Horeca|0
0|CS3513319|2013-07-28 21:05:34|Plopeanu|Gabriel||M|1983-07-31|Constanta|Constanta|Dobrila|44|||||0743567999|||DUNFCBB||1 Sobranie KS Gold  (4mg) Pack|Yes|No||CT004822|Event Club Crush|Constanta|CTHRKBA96|156|CCC HRK SOBR FAM Vara 2013|121|Horeca|0
0|CS3513321|2013-07-28 21:05:41|Oprea|Daniel||M|1988-03-04|Bucuresti|2|Iuliunmaniu|66|||||0756178887|||DUNFCSB||1 Sobranie KS Black (8mg) Pack|Yes|No||CT004822|Event Club Crush|Constanta|CTHRKBA87|156|CCC HRK SOBR FAM Vara 2013|121|Horeca|0
0|CS3513327|2013-07-28 21:06:17|Ungureanu|Flavia||F|1983-10-30|Bucuresti|SECTOR 6|Fedeles|9|||||0745098098|||KTSWIT||1 Sobranie SS Menthol (5 mg) Pack|Yes|Yes||CT004822|Event Club Crush|Constanta|CTHRKBA84|156|CCC HRK SOBR FAM Vara 2013|121|Horeca|0
0|CS3513328|2013-07-28 21:06:34|Ciugureanu|Ana maria||F|1990-07-26|Constanta|CONSTANTA|Ion ratiu|38|||||0730927738|||VIRSPR||1 Sobranie KS Blue (6mg) Pack|Yes|Yes||CT004822|Event Club Crush|Constanta|CTHRKBA94|156|CCC HRK SOBR FAM Vara 2013|121|Horeca|0
0|CS3513338|2013-07-28 21:07:38|Berete|Alina||F|1981-07-26|Constanta|Constanta|Avram iancu|44|||||0734567890|||GLPBPKFT||1 Sobranie SS Pink (3mg) Pack|Yes|No||CT004822|Event Club Crush|Constanta|CTHRKBA96|156|CCC HRK SOBR FAM Vara 2013|121|Horeca|0
0|CS3513339|2013-07-28 21:07:57|Ilicea|Cristina||F|1982-11-28|Constanta|CONSTANTA|Grozesti|15|Aa|||9|0722109532|||MBRGLFT||1 Sobranie SS Pink (3mg) Pack|Yes|No||CT004822|Event Club Crush|Constanta|CTHRKBA87|156|CCC HRK SOBR FAM Vara 2013|121|Horeca|0
0|CS3513347|2013-07-28 21:08:31|Apetroiu|Ionel||M|1982-05-23|Bucuresti|Bucuresti|Dorobanti|38|||||0738992884|||DUNFF||1 Sobranie KS Black (8mg) Pack|Yes|Yes||CT004822|Event Club Crush|Constanta|CTHRKBA94|156|CCC HRK SOBR FAM Vara 2013|121|Horeca|0
0|CS3513351|2013-07-28 21:08:39|Niculici|Paula||F|1984-01-30|Constanta|CONSTANTA|Curcubeului|4|||||0722098178|||GLMLIL||1 Sobranie KS Blue (6mg) Pack|Yes|Yes||CT004822|Event Club Crush|Constanta|CTHRKBA84|156|CCC HRK SOBR FAM Vara 2013|121|Horeca|0
0|CS3513364|2013-07-28 21:09:46|Lovinte|Petrica||M|1977-12-31|Bucuresti|3|Biruintei|44|||||0766567788|||PARNBH||1 Sobranie KS Black (8mg) Pack|Yes|No||CT004822|Event Club Crush|Constanta|CTHRKBA96|156|CCC HRK SOBR FAM Vara 2013|121|Horeca|0
0|CS3513368|2013-07-28 21:10:21|Cristea|Laura||F|1994-01-01|Cluj|CLUJ NAPOCA|Mamaia|125|||||0762108755|||VIRSV||1 Sobranie SS Pink (3mg) Pack|Yes|No||CT004822|Event Club Crush|Constanta|CTHRKBA87|156|CCC HRK SOBR FAM Vara 2013|121|Horeca|0
0|CS3513379|2013-07-28 21:12:53|Banica|Andrada||F|1985-11-28|Ialomita|SLOBOZIA|Mihai eminescu|22|Da|1||18|0721478532|||VOGJSN||1 Sobranie SS Menthol (5 mg) Pack|Yes|No||CT004822|Event Club Crush|Constanta|CTHRKBA87|156|CCC HRK SOBR FAM Vara 2013|121|Horeca|0
0|CS3513538|2013-07-28 21:57:44|Bacoica|Catalin||M|1984-10-02|Gorj|TARGU JIU|Nicolae titulescu|9|||||0765850077|||KTBL||1 Sobranie KS Blue (6mg) Pack|Yes|Yes||CT004093|CRICOROM TURISM SRL TERASA AZA|Constanta|CTHRKBA84|156|CCC HRK SOBR FAM Vara 2013|121|Horeca|0
0|CS3513541|2013-07-28 21:58:40|Ciupoeru|Mihai||M|1984-10-22|Bucuresti|Bucuresti|Florilor|36|||||0745674367|||DUNFCMBB||1 Sobranie KS Blue (6mg) Pack|Yes|Yes||CT004093|CRICOROM TURISM SRL TERASA AZA|Constanta|CTHRKBA94|156|CCC HRK SOBR FAM Vara 2013|121|Horeca|0
0|CS3513542|2013-07-28 21:58:49|Purdel|Ionut||M|1988-08-24|Buzau|RAMNICU SARAT|Digului|2|17|E||41|0768413745|||KTBL||1 Sobranie KS Black (8mg) Pack|Yes|Yes||CT004093|CRICOROM TURISM SRL TERASA AZA|Constanta|CTHRKBA87|156|CCC HRK SOBR FAM Vara 2013|121|Horeca|0
0|CS3513548|2013-07-28 21:59:25|Nelson|Dumitru||M|1988-12-07|Iasi|IASI|Anghel salgny|38|||||0744756333|||KTBL||1 Sobranie KS Gold  (4mg) Pack|Yes|No||CT004093|CRICOROM TURISM SRL TERASA AZA|Constanta|CTHRKBA96|156|CCC HRK SOBR FAM Vara 2013|121|Horeca|0
0|CS3513553|2013-07-28 22:00:41|Tudor|Sorin||M|1979-05-25|Bucuresti|Bucuresti|Rascoalei|37|||||0746786545|||KTSV||1 Sobranie KS Gold  (4mg) Pack|Yes|Yes||CT004093|CRICOROM TURISM SRL TERASA AZA|Constanta|CTHRKBA94|156|CCC HRK SOBR FAM Vara 2013|121|Horeca|0
0|CS3513558|2013-07-28 22:01:48|Catargiu|Giorgian||M|1986-01-01|Buzau|RAMNICU SARAT|Pasjului|9|||||0767543211|||DUNFCMBB||1 Sobranie KS Blue (6mg) Pack|Yes|No||CT004093|CRICOROM TURISM SRL TERASA AZA|Constanta|CTHRKBA87|156|CCC HRK SOBR FAM Vara 2013|121|Horeca|0
0|CS3513560|2013-07-28 22:02:04|Petran|Maria||F|1974-10-01|Prahova|CAMPINA|Fabricii|41|||||0730534531|||KTBL6||1 Sobranie KS Gold  (4mg) Pack|Yes|Yes||CT004093|CRICOROM TURISM SRL TERASA AZA|Constanta|CTHRKBA84|156|CCC HRK SOBR FAM Vara 2013|121|Horeca|0
0|CS3513563|2013-07-28 22:02:51|Tudor|Eduard||M|1976-09-21|Arges|Pitesti|Vasile lupu|23|||||0722297005|||KTNWH||1 Sobranie SS White (1mg) Pack|Yes|Yes||CT004093|CRICOROM TURISM SRL TERASA AZA|Constanta|CTHRKBA96|156|CCC HRK SOBR FAM Vara 2013|121|Horeca|0
0|CS3513568|2013-07-28 22:03:31|Ghita|Mariana||F|1981-04-28|Bacau|FRUNTESTI|Paltinului|47|||||0746797436|||VIRSPR||1 Sobranie SS Black (6mg) Pack|Yes|Yes||CT004093|CRICOROM TURISM SRL TERASA AZA|Constanta|CTHRKBA94|156|CCC HRK SOBR FAM Vara 2013|121|Horeca|0
0|CS3513569|2013-07-28 22:03:46|Petru|Viorel||M|1984-11-30|Bucuresti|SECTOR 3|Plopeni|51|||||0743145609|||SBKSBK||1 Sobranie KS Black (8mg) Pack|Yes|Yes||CT004093|CRICOROM TURISM SRL TERASA AZA|Constanta|CTHRKBA84|156|CCC HRK SOBR FAM Vara 2013|121|Horeca|0
0|CS3513570|2013-07-28 22:04:24|Davidescu|Catalin||M|1988-10-03|Buzau|RAMNICU SARAT|Calea sperantei|77|||||0731907532|||CABL||1 Sobranie KS Blue (6mg) Pack|Yes|Yes||CT004093|CRICOROM TURISM SRL TERASA AZA|Constanta|CTHRKBA87|156|CCC HRK SOBR FAM Vara 2013|121|Horeca|0
0|CS3513575|2013-07-28 22:05:15|Mert|Viorel||M|1962-06-26|Prahova|PLOIESTI|Ion creanga|2|||||0744670980|||KTBL||1 Sobranie KS Black (8mg) Pack|Yes|Yes||CT004093|CRICOROM TURISM SRL TERASA AZA|Constanta|CTHRKBA84|156|CCC HRK SOBR FAM Vara 2013|121|Horeca|0
0|CS3513576|2013-07-28 22:05:41|Caraian|Dumitru||M|1982-10-25|Constanta|Constanta|Berzei|33|||||0733456777|||KTH||1 Sobranie KS Black (8mg) Pack|Yes|No||CT004093|CRICOROM TURISM SRL TERASA AZA|Constanta|CTHRKBA96|156|CCC HRK SOBR FAM Vara 2013|121|Horeca|0
0|CS3513577|2013-07-28 22:06:06|Rosu|Cristian||F|1987-03-05|Arad|ARAD|Dezrobirii|20|Ah|||31|0751675433|||MBRFP||1 Sobranie KS Black (8mg) Pack|Yes|No||CT004093|CRICOROM TURISM SRL TERASA AZA|Constanta|CTHRKBA87|156|CCC HRK SOBR FAM Vara 2013|121|Horeca|0
0|CS3513580|2013-07-28 22:07:10|Iftimie|Daniel||M|1979-11-30|Braila|Braila|Garii|13|||||0722976536|||DAVGL||1 Sobranie KS Gold  (4mg) Pack|Yes|Yes||CT004093|CRICOROM TURISM SRL TERASA AZA|Constanta|CTHRKBA87|156|CCC HRK SOBR FAM Vara 2013|121|Horeca|0
0|CS3513581|2013-07-28 22:07:16|Viriani|Sorin||M|1980-04-30|Constanta|Constanta|Bucuresti|13|||||0766456899|||GLMLIL||1 Sobranie SS Black (6mg) Pack|Yes|No||CT004093|CRICOROM TURISM SRL TERASA AZA|Constanta|CTHRKBA96|156|CCC HRK SOBR FAM Vara 2013|121|Horeca|0
0|CS3513583|2013-07-28 22:07:32|Mocanu|Miruna||F|1973-04-29|Bucuresti|SECTOR 4|M eminescu|76|||||0723409876|||PARABH||1 Sobranie KS Black (8mg) Pack|Yes|Yes||CT004093|CRICOROM TURISM SRL TERASA AZA|Constanta|CTHRKBA84|156|CCC HRK SOBR FAM Vara 2013|121|Horeca|0
0|CS3513585|2013-07-28 22:08:27|Varanu|Andrei||M|1982-06-30|Bacau|Arieni|Berzei|22|||||0733456777|||KTH||1 Sobranie KS Black (8mg) Pack|Yes|No||CT004093|CRICOROM TURISM SRL TERASA AZA|Constanta|CTHRKBA96|156|CCC HRK SOBR FAM Vara 2013|121|Horeca|0
0|CS3513593|2013-07-28 22:15:37|George|Lupu||M|1986-03-07|Dambovita|TITU|I c visari|17|||||0721098908|||KTBL||1 Sobranie KS Black (8mg) Pack|Yes|Yes||CT003940|CRICOROM TURISM SRL TERASA MOTOR|Constanta|CTHRKBA84|156|CCC HRK SOBR FAM Vara 2013|121|Horeca|0
0|CS3513595|2013-07-28 22:16:44|Constantinescu|Rodica||F|1967-12-25|Dolj|CRAIOVA|Maramures|11|||||0769236718|||KTNWH||1 Sobranie SS White (1mg) Pack|Yes|Yes||CT003940|CRICOROM TURISM SRL TERASA MOTOR|Constanta|CTHRKBA94|156|CCC HRK SOBR FAM Vara 2013|121|Horeca|0
0|CS3513596|2013-07-28 22:17:10|Roadevin|Bucur||M|1980-09-30|Braila|Braila|Scolilor|42|B|3|3|45|0753259434|||DUNFCMBB||1 Sobranie KS Black (8mg) Pack|Yes|Yes||CT003940|CRICOROM TURISM SRL TERASA MOTOR|Constanta|CTHRKBA96|156|CCC HRK SOBR FAM Vara 2013|121|Horeca|0
0|CS3513598|2013-07-28 22:18:14|Efteme|Iuliana||F|1989-03-29|Alba|ALBA IULIA|Stefan cel mare|22b|||||0761009721||Efteme.iuliana@yahoo.com|VIRSM||1 Sobranie SS Menthol (5 mg) Pack|Yes|No||CT003940|CRICOROM TURISM SRL TERASA MOTOR|Constanta|CTHRKBA87|156|CCC HRK SOBR FAM Vara 2013|121|Horeca|0
0|CS3513599|2013-07-28 22:19:39|Baciu|Alexandra||F|1985-10-02|Dolj|Craiova|Maramures|33|||||0726233195|||KTSV||1 Sobranie KS Gold  (4mg) Pack|Yes|Yes||CT003940|CRICOROM TURISM SRL TERASA MOTOR|Constanta|CTHRKBA94|156|CCC HRK SOBR FAM Vara 2013|121|Horeca|0
0|CS3513602|2013-07-28 22:21:17|Popa|Monica||F|1984-09-29|Botosani|BOTOSANI|Mihai viteazu|3|C5|A||27|0730986443|||DAVGLS||1 Sobranie SS Black (6mg) Pack|Yes|Yes||CT003940|CRICOROM TURISM SRL TERASA MOTOR|Constanta|CTHRKBA87|156|CCC HRK SOBR FAM Vara 2013|121|Horeca|0
0|CS3513605|2013-07-28 22:22:21|Daniela|Alexandra||F|1977-06-28|Bucuresti|SECTOR 4|Sos giurgiului|103-10|||||0734908767|||ROTH||1 Sobranie KS Black (8mg) Pack|Yes|Yes||CT003940|CRICOROM TURISM SRL TERASA MOTOR|Constanta|CTHRKBA84|156|CCC HRK SOBR FAM Vara 2013|121|Horeca|0
0|CS3513606|2013-07-28 22:22:34|Dumitrache|Daniela||F|1989-01-03|Bucuresti|3|Bvd camil ressu|12|||||0762447543|||SBSSBK||1 Sobranie SS Black (6mg) Pack|Yes|Yes||CT003940|CRICOROM TURISM SRL TERASA MOTOR|Constanta|CTHRKBA96|156|CCC HRK SOBR FAM Vara 2013|121|Horeca|0
0|CS3513607|2013-07-28 22:22:48|Cipotan|Marius||M|1988-10-24|Bacau|BAIMAC|Dumbravei|37|||||0745678765|||PARSB||1 Sobranie KS Gold  (4mg) Pack|Yes|Yes||CT003940|CRICOROM TURISM SRL TERASA MOTOR|Constanta|CTHRKBA94|156|CCC HRK SOBR FAM Vara 2013|121|Horeca|0
0|CS3513608|2013-07-28 22:23:12|Diaconu|Roxana||F|1988-10-29|Bucuresti|3|Kiselef|83|||||0738653221|||MBRFP||1 Sobranie SS Black (6mg) Pack|Yes|No||CT003940|CRICOROM TURISM SRL TERASA MOTOR|Constanta|CTHRKBA87|156|CCC HRK SOBR FAM Vara 2013|121|Horeca|0
0|CS3513612|2013-07-28 22:24:53|Opinca|Mirela||F|1978-05-20|Bucuresti|Bucuresti|Mihai eminescu|79|||||0757853367|||SBSSWH||1 Sobranie SS White (1mg) Pack|Yes|Yes||CT003940|CRICOROM TURISM SRL TERASA MOTOR|Constanta|CTHRKBA94|156|CCC HRK SOBR FAM Vara 2013|121|Horeca|0
0|CS3513614|2013-07-28 22:25:59|Franeru|Alex||M|1986-03-30|Bacau|Bacau|Darieni|11|||||0744567899|||KTBL||1 Sobranie SS Black (6mg) Pack|Yes|No||CT003940|CRICOROM TURISM SRL TERASA MOTOR|Constanta|CTHRKBA96|156|CCC HRK SOBR FAM Vara 2013|121|Horeca|0
0|CS3513617|2013-07-28 22:26:29|Popovici|Diana||F|1980-03-24|Covasna|COVASNA|Ion creanga|37|||||0730867882|||GLMBL||1 Sobranie SS Pink (3mg) Pack|Yes|Yes||CT003940|CRICOROM TURISM SRL TERASA MOTOR|Constanta|CTHRKBA94|156|CCC HRK SOBR FAM Vara 2013|121|Horeca|0
0|CS3513618|2013-07-28 22:26:59|Pelmes|Camelia||F|1985-04-03|Dambovita|Titu|Libertatii|17|||||0763883836|||SBKSBK||1 Sobranie KS Black (8mg) Pack|Yes|Yes||CT003940|CRICOROM TURISM SRL TERASA MOTOR|Constanta|CTHRKBA84|156|CCC HRK SOBR FAM Vara 2013|121|Horeca|0
0|CS3513619|2013-07-28 22:27:25|Generalu|Francisc||M|1982-05-30|Bistrita Nasaud|BISTRITA|Macesului|1|||||0733444567|||CABK||1 Sobranie KS Black (8mg) Pack|Yes|No||CT003940|CRICOROM TURISM SRL TERASA MOTOR|Constanta|CTHRKBA96|156|CCC HRK SOBR FAM Vara 2013|121|Horeca|0
0|CS3513621|2013-07-28 22:29:22|Palas|Ioan||F|1984-12-16|Bucuresti|SECTOR 4|Palas|2|||||0723567098|||SBKSBK||1 Sobranie KS Black (8mg) Pack|Yes|Yes||CT003940|CRICOROM TURISM SRL TERASA MOTOR|Constanta|CTHRKBA84|156|CCC HRK SOBR FAM Vara 2013|121|Horeca|0
0|CS3513623|2013-07-28 22:30:36|Coret|Florin||M|1984-06-29|Constanta|CONSTANTA|Horia maestru|8|||||0744509876|||KTBL6||1 Sobranie KS Blue (6mg) Pack|Yes|Yes||CT003940|CRICOROM TURISM SRL TERASA MOTOR|Constanta|CTHRKBA84|156|CCC HRK SOBR FAM Vara 2013|121|Horeca|0
0|CS3513626|2013-07-28 22:31:02|Garun|Corina||F|1984-06-26|Buzau|Buzau|Farueni|2|||||0733455678|||GLPBMNFT||1 Sobranie SS Menthol (5 mg) Pack|Yes|No||CT003940|CRICOROM TURISM SRL TERASA MOTOR|Constanta|CTHRKBA96|156|CCC HRK SOBR FAM Vara 2013|121|Horeca|0
0|CS3513628|2013-07-28 22:31:46|Petreut|Marin||M|1979-01-30|Brasov|BRASOV|1 mai|2|||||0744670987|||KTNBK||1 Sobranie KS Gold  (4mg) Pack|Yes|Yes||CT003940|CRICOROM TURISM SRL TERASA MOTOR|Constanta|CTHRKBA84|156|CCC HRK SOBR FAM Vara 2013|121|Horeca|0
0|CS3513638|2013-07-28 22:41:17|Enesoaie|Simona||F|1987-08-26|Bucuresti|Bucuresti|Pancota|3|||||0751579174||Simona_enasoaie@yahoo.com|SBSSBK||1 Sobranie SS Black (6mg) Pack|Yes|Yes||CT002735|CRICOROM TURISM SRL|Constanta|CTHRKBA94|156|CCC HRK SOBR FAM Vara 2013|121|Horeca|0
0|CS3513640|2013-07-28 22:42:31|Azis|Erin||M|1986-01-25|Constanta|CONSTANTA|Constantei|3|A|4||105|0723851390|||PARABH||1 Sobranie KS Black (8mg) Pack|Yes|Yes||CT002735|CRICOROM TURISM SRL|Constanta|CTHRKBA87|156|CCC HRK SOBR FAM Vara 2013|121|Horeca|0
0|CS3513642|2013-07-28 22:42:54|Dragomir|Paul||M|1991-04-20|Sibiu|SIBIU|Ogorului|34|||||0734567098|||SBKSGD||1 Sobranie KS Gold  (4mg) Pack|Yes|Yes||CT002735|CRICOROM TURISM SRL|Constanta|CTHRKBA84|156|CCC HRK SOBR FAM Vara 2013|121|Horeca|0
0|CS3513643|2013-07-28 22:42:55|Voicu|Marian||M|1990-03-09|Giurgiu|MARSA|Curcubeului|32|||||0764715052|||DAVGLS||1 Sobranie KS Black (8mg) Pack|Yes|No||CT002735|CRICOROM TURISM SRL|Constanta|CTHRKBA96|156|CCC HRK SOBR FAM Vara 2013|121|Horeca|0
0|CS3513647|2013-07-28 22:44:34|Popescu|Andrei||M|1990-11-10|Sibiu|SIBIU|Talajului|6|||||0755216602|||KTBL||1 Sobranie KS Black (8mg) Pack|Yes|Yes||CT002735|CRICOROM TURISM SRL|Constanta|CTHRKBA84|156|CCC HRK SOBR FAM Vara 2013|121|Horeca|0
0|CS3513663|2013-07-28 22:55:02|Tarau|Ioana||M|1983-11-30|Constanta|Constanta|Trandafirilor|21|||||0733111455|||GLPBPKFT||1 Sobranie SS Black (6mg) Pack|Yes|No||CT002735|CRICOROM TURISM SRL|Constanta|CTHRKBA96|156|CCC HRK SOBR FAM Vara 2013|121|Horeca|0
0|CS3513667|2013-07-28 22:55:37|URuc|Madalina||F|1986-11-29|Neamt|PIATRA NEAMT|Locomotivei|55|AN|5||71|0756163637|||VIRSAC||1 Sobranie SS Black (6mg) Pack|Yes|No||CT002735|CRICOROM TURISM SRL|Constanta|CTHRKBA87|156|CCC HRK SOBR FAM Vara 2013|121|Horeca|0
0|CS3513669|2013-07-28 22:55:55|Nicolev|Monica||F|1981-08-24|Bucuresti|SECTOR 4|Ozana|1|||||0734091098|||GLMLIL||1 Sobranie SS Black (6mg) Pack|Yes|Yes||CT002735|CRICOROM TURISM SRL|Constanta|CTHRKBA84|156|CCC HRK SOBR FAM Vara 2013|121|Horeca|0
0|CS3513670|2013-07-28 22:55:55|Dumachi|Bogdan||M|1981-02-25|Brasov|BRASOV|Emil palade|38|||||0746789479|||KTSV||1 Sobranie KS Gold  (4mg) Pack|Yes|Yes||CT002735|CRICOROM TURISM SRL|Constanta|CTHRKBA94|156|CCC HRK SOBR FAM Vara 2013|121|Horeca|0
0|CS3513671|2013-07-28 22:56:50|Lauseni|Laura||F|1980-09-17|Brasov|Brasov|Urleni|11|||||0755678909|||DUNBL||1 Sobranie KS Blue (6mg) Pack|Yes|No||CT002735|CRICOROM TURISM SRL|Constanta|CTHRKBA96|156|CCC HRK SOBR FAM Vara 2013|121|Horeca|0
0|CS3513672|2013-07-28 22:57:34|Vivie|Marcu||M|1986-01-01|Constanta|CONSTANTA|Morilor|6|||||0728091876|||KTBLH||1 Sobranie KS Black (8mg) Pack|Yes|Yes||CT002735|CRICOROM TURISM SRL|Constanta|CTHRKBA84|156|CCC HRK SOBR FAM Vara 2013|121|Horeca|0
0|CS3513674|2013-07-28 22:58:39|Macovei|Dumitru||M|1981-05-24|Constanta|Constanta|Ion ratiu|48|||||0731245678|||DAVGL||1 Sobranie KS Blue (6mg) Pack|Yes|Yes||CT002735|CRICOROM TURISM SRL|Constanta|CTHRKBA94|156|CCC HRK SOBR FAM Vara 2013|121|Horeca|0
0|CS3513676|2013-07-28 22:59:04|Androne|Florina||F|1986-01-01|Braila|Dudesti|Padurarilor|5|||||0774321346|||KTBL||1 Sobranie KS Black (8mg) Pack|Yes|Yes||CT002735|CRICOROM TURISM SRL|Constanta|CTHRKBA87|156|CCC HRK SOBR FAM Vara 2013|121|Horeca|0
0|CS3513677|2013-07-28 22:59:11|Hasau|Petrica||M|1974-07-30|Calarasi|CALARETI|Postei|22|||||0765444890|||CAWH||1 Sobranie KS Gold  (4mg) Pack|Yes|No||CT002735|CRICOROM TURISM SRL|Constanta|CTHRKBA96|156|CCC HRK SOBR FAM Vara 2013|121|Horeca|0
0|CS3513678|2013-07-28 22:59:22|Caracor|Emilia||F|1979-03-13|Bucuresti|SECTOR 3|Molidului|4|||||0735109876|||GLMBL||1 Sobranie SS Pink (3mg) Pack|Yes|Yes||CT002735|CRICOROM TURISM SRL|Constanta|CTHRKBA84|156|CCC HRK SOBR FAM Vara 2013|121|Horeca|0
0|CS3513679|2013-07-28 23:00:15|Victoret|Claudia||F|1980-05-21|Galati|GALATI|Cismigiu|47|||||0760962145|||DUNFCMBB||1 Sobranie KS Blue (6mg) Pack|Yes|Yes||CT002735|CRICOROM TURISM SRL|Constanta|CTHRKBA94|156|CCC HRK SOBR FAM Vara 2013|121|Horeca|0
0|CS3513682|2013-07-28 23:02:56|Lorin|Ionel||M|1978-05-24|Constanta|CONSTANTA|Cocor|20|||||0734101099|||DUNFCBB||1 Sobranie KS Gold  (4mg) Pack|Yes|Yes||CT002935|Trotter Restaurant|Constanta|CTHRKBA84|156|CCC HRK SOBR FAM Vara 2013|121|Horeca|0
0|CS3513685|2013-07-28 23:04:13|Matei|Costina||F|1983-09-01|Bacau|BAHNA|Hozeni|22|||||0766340555|||DUNFCSB||1 Sobranie KS Black (8mg) Pack|Yes|No||CT002935|Trotter Restaurant|Constanta|CTHRKBA96|156|CCC HRK SOBR FAM Vara 2013|121|Horeca|0
0|CS3513686|2013-07-28 23:04:15|Ivanov|Florin||M|1983-11-29|Constanta|CONSTANTA|Soveja|152|H3|E||1|0748665433|||DAVGL||1 Sobranie KS Black (8mg) Pack|Yes|Yes||CT002935|Trotter Restaurant|Constanta|CTHRKBA87|156|CCC HRK SOBR FAM Vara 2013|121|Horeca|0
0|CS3513687|2013-07-28 23:04:17|Florea|Alexandru||M|1982-04-22|Bucuresti|Bucuresti|Ion creanga|49|||||0728736800|||DUNFF||1 Sobranie KS Black (8mg) Pack|Yes|Yes||CT002935|Trotter Restaurant|Constanta|CTHRKBA94|156|CCC HRK SOBR FAM Vara 2013|121|Horeca|0
0|CS3513688|2013-07-28 23:04:23|Lorin|Marian||M|1982-06-24|Bucuresti|SECTOR 4|Lalea|7|||||0734120987|||KTSV||1 Sobranie KS Gold  (4mg) Pack|Yes|Yes||CT002935|Trotter Restaurant|Constanta|CTHRKBA84|156|CCC HRK SOBR FAM Vara 2013|121|Horeca|0
0|CS3513689|2013-07-28 23:05:53|Popescu|Amalia||F|1982-09-30|Bucuresti|SECTOR 3|Aviatorilor|8|||||0732090987|||KTNBL||1 Sobranie SS Pink (3mg) Pack|Yes|Yes||CT002935|Trotter Restaurant|Constanta|CTHRKBA84|156|CCC HRK SOBR FAM Vara 2013|121|Horeca|0
0|CS3513690|2013-07-28 23:06:08|Lacat|Mirela||F|1980-03-11|Brasov|Brasov|Gheorghe asachi|27|||||0765267904|||GLMLIL||1 Sobranie SS Black (6mg) Pack|Yes|Yes||CT002935|Trotter Restaurant|Constanta|CTHRKBA94|156|CCC HRK SOBR FAM Vara 2013|121|Horeca|0
0|CS3513691|2013-07-28 23:06:43|Toreni|Flori||F|1984-04-24|Constanta|COBADIN|Florilor|33|||||0766555908|||GLMBL||1 Sobranie SS White (1mg) Pack|Yes|No||CT002935|Trotter Restaurant|Constanta|CTHRKBA96|156|CCC HRK SOBR FAM Vara 2013|121|Horeca|0
0|CS3513692|2013-07-28 23:06:57|Tanasescu|Adelina||F|1987-03-29|Constanta|CONSTANTA|Baba novac|36|4|1||11|0768332357|||PARRSSH||1 Sobranie SS Black (6mg) Pack|Yes|No||CT002935|Trotter Restaurant|Constanta|CTHRKBA87|156|CCC HRK SOBR FAM Vara 2013|121|Horeca|0
0|CS3513693|2013-07-28 23:07:39|Dima|Mihai||M|1976-09-21|Calarasi|CALARASI|Gheorghe duca|48|||||0721679534|||PARAB||1 Sobranie KS Black (8mg) Pack|Yes|Yes||CT002935|Trotter Restaurant|Constanta|CTHRKBA94|156|CCC HRK SOBR FAM Vara 2013|121|Horeca|0
0|CS3513694|2013-07-28 23:08:17|Ieftimoaie|Andrei||M|1981-01-01|Calarasi|Calarasi|Laurilor|2|||||0765444888|||CABK||1 Sobranie KS Blue (6mg) Pack|Yes|No||CT002935|Trotter Restaurant|Constanta|CTHRKBA96|156|CCC HRK SOBR FAM Vara 2013|121|Horeca|0
0|CS3513696|2013-07-28 23:09:04|Tatu|Ioana||F|1991-11-28|Arges|RACOVITA|Plopenilor|4|||||0751359087|||VIRSM||1 Sobranie SS Menthol (5 mg) Pack|Yes|No||CT002935|Trotter Restaurant|Constanta|CTHRKBA87|156|CCC HRK SOBR FAM Vara 2013|121|Horeca|0
0|CS3513699|2013-07-28 23:11:42|Romicut|Victor||M|1979-04-24|Braila|OPRISENESTI|Dumbravei|37|||||0727897667|||PARABH||1 Sobranie KS Black (8mg) Pack|Yes|Yes||CT002935|Trotter Restaurant|Constanta|CTHRKBA94|156|CCC HRK SOBR FAM Vara 2013|121|Horeca|0
0|FS1064603|2013-07-27 19:07:54||||M|||||||||||||KTBL||||||||||156|CCC HRK SOBR FAM Vara 2013|121|Horeca|0
0|FS1064702|2013-07-27 19:28:25|||||||||||||||||DUNFCBB||||||||||156|CCC HRK SOBR FAM Vara 2013|121|Horeca|0
0|FS1065156|2013-07-27 20:25:05|||||||||||||||||KTBL||||||||||156|CCC HRK SOBR FAM Vara 2013|121|Horeca|0
0|FS1066098|2013-07-27 22:21:45|||||||||||||||||MBRRD||||||||||156|CCC HRK SOBR FAM Vara 2013|121|Horeca|0
0|FS1066099|2013-07-27 22:21:46|||||||||||||||||MBRRD||||||||||156|CCC HRK SOBR FAM Vara 2013|121|Horeca|0
0|FS1069604|2013-07-28 23:38:52|||||||||||||||||MBRRD||||||||||156|CCC HRK SOBR FAM Vara 2013|121|Horeca|0
