0|CS3310996|2013-03-29 23:15:55|Barna|Lucian||M|1979-04-21|Sibiu|SIBIU|Munteniei|16|||||0722988315||lucian.barna@gmail.com|MBRFP||0 Sobranie KS Gold (4 mg) Pack|Yes|No||SB001663|BIERHAUS HERMANNSTADT SRL|Sibiu|SBEVENTBA02|117|CCC EVENT SOBR FAM 2013|121|Horeca|0
0|CS3310998|2013-03-29 23:16:59|Pascu|Ionel||M|1964-11-29|Sibiu|SIBIU|Gheorghe dima|27|||||0741194441||ionel94@yahoo.com|MBRRD||0 Sobranie KS Black (8 mg) Pack|Yes|Yes||SB001663|BIERHAUS HERMANNSTADT SRL|Sibiu|SBEVENTBA04|117|CCC EVENT SOBR FAM 2013|121|Horeca|0
0|CS3310999|2013-03-29 23:17:07|Precup|Claudia||F|1979-04-16|Sibiu|SIBIU|Rusciorului|19|||||0741538935||clauprecup@yahoo.com|VIRSV||0 Sobranie KS Blue (6 mg) Pack|Yes|Yes||SB001663|BIERHAUS HERMANNSTADT SRL|Sibiu|SBEVENTBA03|117|CCC EVENT SOBR FAM 2013|121|Horeca|0
0|CS3311000|2013-03-29 23:17:23|Barna|Sorana||F|1978-09-14|Sibiu|SIBIU|Munteniei|16|||||0730867245||soranabarna@yahoo.ro|VOGBL||0 Sobranie SS Black (6 mg) Pack|Yes|Yes||SB001663|BIERHAUS HERMANNSTADT SRL|Sibiu|SBEVENTBA02|117|CCC EVENT SOBR FAM 2013|121|Horeca|0
0|CS3311001|2013-03-29 23:17:49|Popescu|Cosmin||M|1977-04-04|Arad|Arad|Doctor Ioan Suciu|18|||||0740000399||cosmin.popescu@yahoo.vom|KTBL6||0 Sobranie KS Gold (4 mg) Pack|Yes|Yes||SB001663|BIERHAUS HERMANNSTADT SRL|Sibiu|SBEVENTBA01|117|CCC EVENT SOBR FAM 2013|121|Horeca|0
0|CS3311002|2013-03-29 23:19:27|Herman|Dany||F|1974-06-13|Sibiu|SIBIU|Mihail Sebastian|24|||||0724838775||bogdanstoienescu1@yahoo.com|KTSV||0 Sobranie KS Gold (4 mg) Pack|Yes|Yes||SB001663|BIERHAUS HERMANNSTADT SRL|Sibiu|SBEVENTBA02|117|CCC EVENT SOBR FAM 2013|121|Horeca|0
0|CS3311004|2013-03-29 23:20:32|Albu|Iulia||F|1986-01-09|Sibiu|SIBIU|Bieltz|41|||||0752209171|||VIRSPR||0 Sobranie SS Black (6 mg) Pack|Yes|Yes||SB001663|BIERHAUS HERMANNSTADT SRL|Sibiu|SBEVENTBA03|117|CCC EVENT SOBR FAM 2013|121|Horeca|0
0|CS3311005|2013-03-29 23:21:22|Konig|Carmen||F|1973-03-16|Sibiu|SIBIU|Mihai viteazu|20|||||0743191321||koniggabriela@yahoo.com|KTNWH||0 Sobranie SS White (1 mg) Pack|Yes|No||SB001663|BIERHAUS HERMANNSTADT SRL|Sibiu|SBEVENTBA04|117|CCC EVENT SOBR FAM 2013|121|Horeca|0
0|CS3311006|2013-03-29 23:22:58|Horhat|Ioan||M|1989-08-14|Sibiu|Sibiu|Vasile Aaron|4|||||0744900041||aalians@yahoo.com|PARRSSMH||0 Sobranie SS White (1 mg) Pack|Yes|Yes||SB001663|BIERHAUS HERMANNSTADT SRL|Sibiu|SBEVENTBA01|117|CCC EVENT SOBR FAM 2013|121|Horeca|0
0|CS3311008|2013-03-29 23:23:40|Precup|Ciprian||M|1973-07-31|Sibiu|SIBIU|Rusciorului|19|||||0735210447||ciprian.precup@peijerref.ro|KTH||0 Sobranie KS Black (8 mg) Pack|Yes|Yes||SB001663|BIERHAUS HERMANNSTADT SRL|Sibiu|SBEVENTBA03|117|CCC EVENT SOBR FAM 2013|121|Horeca|0
0|CS3311012|2013-03-29 23:26:09|Cretu|Paula||F|1989-12-21|Sibiu|Sibiu|Bv Victoriei|6|||||0748201721||cretzupaula@yahoo.com|VIRSM||0 Sobranie SS White (1 mg) Pack|Yes|Yes||SB001663|BIERHAUS HERMANNSTADT SRL|Sibiu|SBEVENTBA01|117|CCC EVENT SOBR FAM 2013|121|Horeca|0
0|CS3311013|2013-03-29 23:26:19|Cristio|Adrian||M|1984-01-28|Sibiu|SIBIU|Siretului|7|||||0742134631||nistor_adi@yahoo.com|KTBL6||0 Sobranie KS Blue (6 mg) Pack|Yes|Yes||SB001663|BIERHAUS HERMANNSTADT SRL|Sibiu|SBEVENTBA03|117|CCC EVENT SOBR FAM 2013|121|Horeca|0
0|CS3311018|2013-03-29 23:29:18|Muntean|Marius||M|1987-01-11|Sibiu|Sibiu|Stavilarului|10|||||0749826162||nicusormunteanu33@yahoo.com|KTSV||0 Sobranie KS Gold (4 mg) Pack|Yes|Yes||SB001663|BIERHAUS HERMANNSTADT SRL|Sibiu|SBEVENTBA01|117|CCC EVENT SOBR FAM 2013|121|Horeca|0
0|CS3311027|2013-03-29 23:32:02|Cojoc|Tomina||F|1985-09-29|Sibiu|SIBIU|Porumbacului|33|||||0752984213||tominacojoc@yahoo.com|KTH||0 Sobranie KS Black (8 mg) Pack|Yes|Yes||SB001663|BIERHAUS HERMANNSTADT SRL|Sibiu|SBEVENTBA02|117|CCC EVENT SOBR FAM 2013|121|Horeca|0
0|CS3311032|2013-03-29 23:33:25|Seghedin|Remus||M|1973-01-31|Sibiu|Sibiu|Mihai Viteazu|19|V9|||23|0740116747||seghedin_remus@yahoo.com|DUNFCBB||0 Sobranie KS Gold (4 mg) Pack|Yes|Yes||SB001663|BIERHAUS HERMANNSTADT SRL|Sibiu|SBEVENTBA01|117|CCC EVENT SOBR FAM 2013|121|Horeca|0
0|CS3311035|2013-03-29 23:34:06|Rosu|Bogdan||M|1989-09-28|Sibiu|SIBIU|Poplacii|28|||||0755436755||rosu30@yahoo.com|SBKSGD||0 Sobranie KS Gold (4 mg) Pack|Yes|Yes||SB001663|BIERHAUS HERMANNSTADT SRL|Sibiu|SBEVENTBA03|117|CCC EVENT SOBR FAM 2013|121|Horeca|0
0|CS3311049|2013-03-29 23:38:17|Borcan|Razvan||M|1986-01-01|Sibiu|Sibiu|Podului|5|||||0752682714|||KTSWIT||0 Sobranie KS Black (8 mg) Pack|Yes|Yes||SB001663|BIERHAUS HERMANNSTADT SRL|Sibiu|SBEVENTBA03|117|CCC EVENT SOBR FAM 2013|121|Horeca|0
0|CS3311050|2013-03-29 23:38:55|Arcas|Ovidiu||M|1993-11-02|Sibiu|Sibiu|Henri Coanda|53|||||0754305314||arcas_ovidiu@yahoo.com|KTBL||0 Sobranie KS Black (8 mg) Pack|Yes|Yes||SB001663|BIERHAUS HERMANNSTADT SRL|Sibiu|SBEVENTBA01|117|CCC EVENT SOBR FAM 2013|121|Horeca|0
0|CS3311073|2013-03-29 23:44:58|Ioan|Curtean||M|1980-04-04|Sibiu|Sibiu|Bihorului|12|||||0742330604||ionut_curtean@yahoo.com|SBKSGD||0 Sobranie KS Gold (4 mg) Pack|Yes|Yes||SB001663|BIERHAUS HERMANNSTADT SRL|Sibiu|SBEVENTBA01|117|CCC EVENT SOBR FAM 2013|121|Horeca|0
0|CS3311081|2013-03-29 23:45:50|Simona|Carneala||F|1982-12-04|Sibiu|SIBIU|Hipodromului|6|||||0721555771||simonique111@yahoo.com|SBSSWH||0 Sobranie SS White (1 mg) Pack|Yes|Yes||SB001663|BIERHAUS HERMANNSTADT SRL|Sibiu|SBEVENTBA02|117|CCC EVENT SOBR FAM 2013|121|Horeca|0
0|CS3311087|2013-03-29 23:46:52|Raicu|Bogdan||M|1982-06-04|Sibiu|Sibiu|Negoi|28|||||0722122506|||DUNFCMBB||0 Sobranie KS Blue (6 mg) Pack|Yes|Yes||SB001663|BIERHAUS HERMANNSTADT SRL|Sibiu|SBEVENTBA03|117|CCC EVENT SOBR FAM 2013|121|Horeca|0
0|CS3311091|2013-03-29 23:47:07|Bihorean|Alexandru||M|1984-12-10|Sibiu|SIBIU|Siretului|1|||||0740426294||alexbihorean@yahoo.com|KTBL||0 Sobranie KS Black (8 mg) Pack|Yes|Yes||SB001663|BIERHAUS HERMANNSTADT SRL|Sibiu|SBEVENTBA04|117|CCC EVENT SOBR FAM 2013|121|Horeca|0
0|CS3311096|2013-03-29 23:48:53|Bratu|Bettina||F|1980-02-17|Sibiu|SURA MARE|Vaii|180|||||0733988101||brt_bettina@yahoo.com|SBSSPK||0 Sobranie SS Pink (3 mg) Pack|Yes|Yes||SB001663|BIERHAUS HERMANNSTADT SRL|Sibiu|SBEVENTBA02|117|CCC EVENT SOBR FAM 2013|121|Horeca|0
0|CS3311100|2013-03-29 23:50:06|Bucurenciu|Adriana||F|1981-07-29|Sibiu|SIBIU|Nicolae Iorga|49|||||0724947585||adrianatomus@yahoo.com|DUNBL||0 Sobranie KS Blue (6 mg) Pack|Yes|Yes||SB001663|BIERHAUS HERMANNSTADT SRL|Sibiu|SBEVENTBA03|117|CCC EVENT SOBR FAM 2013|121|Horeca|0
0|CS3311114|2013-03-29 23:53:15|Olteanu|Ioan||M|1984-04-18|Sibiu|SIBIU|Cristian|22|||||0733662362||utzuolteanu@yahoo.com|KTBL||0 Sobranie KS Black (8 mg) Pack|Yes|Yes||SB001663|BIERHAUS HERMANNSTADT SRL|Sibiu|SBEVENTBA04|117|CCC EVENT SOBR FAM 2013|121|Horeca|0
0|CS3311115|2013-03-29 23:53:33|Bucurenciu|Adrian||M|1976-10-28|Sibiu|SIBIU|Nicolae iorga|69|||||0724525267|||DUNFCMBB||0 Sobranie KS Black (8 mg) Pack|Yes|Yes||SB001663|BIERHAUS HERMANNSTADT SRL|Sibiu|SBEVENTBA03|117|CCC EVENT SOBR FAM 2013|121|Horeca|0
0|CS3311120|2013-03-29 23:53:56|Ionita|Andra||F|1989-04-11|Sibiu|Sibiu|Mihai viteazu|12|||||0767065789||andra.ionita@yahoo.com|SBSSMN||0 Sobranie SS White (1 mg) Pack|Yes|Yes||SB001663|BIERHAUS HERMANNSTADT SRL|Sibiu|SBEVENTBA01|117|CCC EVENT SOBR FAM 2013|121|Horeca|0
0|CS3311130|2013-03-29 23:56:42|Bagiu|Alina||F|1981-07-02|Sibiu|SIBIU|Blaga|1|||||0721243034||alina_bagiu@yahoo.com|VIRSM||0 Sobranie SS Black (6 mg) Pack|Yes|Yes||SB001663|BIERHAUS HERMANNSTADT SRL|Sibiu|SBEVENTBA02|117|CCC EVENT SOBR FAM 2013|121|Horeca|0
0|CS3311133|2013-03-29 23:57:19|Echimescu|Andrei||M|1989-06-24|Constanta|CONSTANTA|Republicii|1|||||0745767524||tesel.1989@yahoo.com|SBKSBL||0 Sobranie KS Blue (6 mg) Pack|Yes|Yes||SB001663|BIERHAUS HERMANNSTADT SRL|Sibiu|SBEVENTBA03|117|CCC EVENT SOBR FAM 2013|121|Horeca|0
0|CS3311141|2013-03-29 23:59:51|Ispas|Laura||F|1982-05-10|Sibiu|Sibiu|Mihai viteazu|14|||||0745041520||laura87@yahoo.com|SBSSWH||0 Sobranie SS White (1 mg) Pack|Yes|Yes||SB001663|BIERHAUS HERMANNSTADT SRL|Sibiu|SBEVENTBA01|117|CCC EVENT SOBR FAM 2013|121|Horeca|0
0|CS3311144|2013-03-30 00:00:16|Munteanu|Nicolae||M|1974-09-03|Sibiu|SIBIU|Rahova|33|||||0723441774||nicumuntean@gmail.com|VIRSV||0 Sobranie SS Pink (3 mg) Pack|Yes|Yes||SB001663|BIERHAUS HERMANNSTADT SRL|Sibiu|SBEVENTBA02|117|CCC EVENT SOBR FAM 2013|121|Horeca|0
0|CS3311145|2013-03-30 00:01:01|Cindrea|Ileana||F|1983-05-21|Sibiu|SIBIU|Sureanu|4|||||0744927140||ileana_cindrea@yahoo.com|SBSSWH||0 Sobranie SS White (1 mg) Pack|Yes|Yes||SB001663|BIERHAUS HERMANNSTADT SRL|Sibiu|SBEVENTBA03|117|CCC EVENT SOBR FAM 2013|121|Horeca|0
0|CS3311147|2013-03-30 00:01:27|Bacila|Lidia||F|1969-08-11|Sibiu|SIBIU|Lomonosov|2a|||||0722451793||lbacila@alphabank.ro|SBSSMN||0 Sobranie SS White (1 mg) Pack|Yes|No||SB001663|BIERHAUS HERMANNSTADT SRL|Sibiu|SBEVENTBA04|117|CCC EVENT SOBR FAM 2013|121|Horeca|0
0|CS3311149|2013-03-30 00:02:08|Iliescu|Monica||F|1971-06-09|Sibiu|SIBIU|Tilisca|46|||||0730612161||monica_iliescu_9@yahoo.com|DAVGLSS||0 Sobranie KS Black (8 mg) Pack|Yes|Yes||SB001663|BIERHAUS HERMANNSTADT SRL|Sibiu|SBEVENTBA02|117|CCC EVENT SOBR FAM 2013|121|Horeca|0
0|CS3311152|2013-03-30 00:03:35|Sinka|Antoniu||M|1971-02-01|Sibiu|Sibiu|Stefan cel mare|5|||||0754356765||atti.62@yahoo.com|CABL||0 Sobranie KS Blue (6 mg) Pack|Yes|Yes||SB001663|BIERHAUS HERMANNSTADT SRL|Sibiu|SBEVENTBA01|117|CCC EVENT SOBR FAM 2013|121|Horeca|0
0|CS3311158|2013-03-30 00:05:28|Scuta|Ana maria||F|1986-05-31|Sibiu|SIBIU|Dealului|14|||||0742937724||anutza_volei@yahoo.com|SBSSWH||0 Sobranie SS White (1 mg) Pack|Yes|Yes||SB001663|BIERHAUS HERMANNSTADT SRL|Sibiu|SBEVENTBA03|117|CCC EVENT SOBR FAM 2013|121|Horeca|0
0|CS3311159|2013-03-30 00:05:38|Munteanu|Oana||F|1980-04-05|Sibiu|SIBIU|Ocnei|10|||||0729061030||oanamuntean80@yahoo.com|VIRSV||0 Sobranie SS Pink (3 mg) Pack|Yes|Yes||SB001663|BIERHAUS HERMANNSTADT SRL|Sibiu|SBEVENTBA02|117|CCC EVENT SOBR FAM 2013|121|Horeca|0
0|CS3311164|2013-03-30 00:07:47|Sas|Dan||M|1975-01-02|Sibiu|Sibiu|Oasa|2|||||0745529626||sas.dan@yahoo.com|DUNGL||0 Sobranie KS Gold (4 mg) Pack|Yes|Yes||SB001663|BIERHAUS HERMANNSTADT SRL|Sibiu|SBEVENTBA01|117|CCC EVENT SOBR FAM 2013|121|Horeca|0
0|CS3311165|2013-03-30 00:08:23|Scheau|Mihaela elena||F|1985-05-24|Sibiu|SIBIU|Dealului|14|||||0742937724||miky_xl@yahoo.com|SBSSWH||0 Sobranie SS White (1 mg) Pack|Yes|Yes||SB001663|BIERHAUS HERMANNSTADT SRL|Sibiu|SBEVENTBA03|117|CCC EVENT SOBR FAM 2013|121|Horeca|0
0|CS3311171|2013-03-30 00:10:47|Mihai|Mihai||M|1968-04-01|Sibiu|SIBIU|Stefan Cel Mare|5|||||0777772277||mihai.mihai@yahoo.com|DUNFCBB||0 Sobranie KS Gold (4 mg) Pack|Yes|Yes||SB001663|BIERHAUS HERMANNSTADT SRL|Sibiu|SBEVENTBA02|117|CCC EVENT SOBR FAM 2013|121|Horeca|0
0|CS3311174|2013-03-30 00:11:06|Bacila|Roxana||F|1979-06-01|Sibiu|SIBIU|Padurea Dumbrava|14|||||0751262411||roxana_firescu@yahoo.com|SBSSWH||0 Sobranie SS White (1 mg) Pack|Yes|Yes||SB001663|BIERHAUS HERMANNSTADT SRL|Sibiu|SBEVENTBA03|117|CCC EVENT SOBR FAM 2013|121|Horeca|0
0|CS3311175|2013-03-30 00:11:23|Veronica|Duca||F|1977-12-14|Sibiu|Sibiu|Anatole france|144|||||0741299179||veronicaduca@yahoo.com|VOGLL||0 Sobranie SS Pink (3 mg) Pack|Yes|Yes||SB001663|BIERHAUS HERMANNSTADT SRL|Sibiu|SBEVENTBA01|117|CCC EVENT SOBR FAM 2013|121|Horeca|0
0|CS3311168|2013-03-30 00:11:55|Teodorescu|Viorel||M|1968-02-09|Sibiu|SIBIU|Strandului|14|||||0723799351||theonius@yaho.com|KTBL6||0 Sobranie KS Gold (4 mg) Pack|Yes|Yes||SB001663|BIERHAUS HERMANNSTADT SRL|Sibiu|SBEVENTBA04|117|CCC EVENT SOBR FAM 2013|121|Horeca|0
0|CS3311180|2013-03-30 00:12:17|Neagu|Mircea||M|1983-08-17|Sibiu|SIBIU|Siretului|6|||||0744195525||neagu83mircea@yahoo.com|DUNFCMBB||0 Sobranie KS Blue (6 mg) Pack|Yes|Yes||SB001663|BIERHAUS HERMANNSTADT SRL|Sibiu|SBEVENTBA02|117|CCC EVENT SOBR FAM 2013|121|Horeca|0
0|CS3311190|2013-03-30 00:13:40|Mitea|Andrei||M|1979-02-17|Sibiu|SIBIU|Zidarilor|3|||||0740705603||andrei.mitea@yahoo.com|KTBL6||0 Sobranie KS Blue (6 mg) Pack|Yes|Yes||SB001663|BIERHAUS HERMANNSTADT SRL|Sibiu|SBEVENTBA04|117|CCC EVENT SOBR FAM 2013|121|Horeca|0
0|CS3311191|2013-03-30 00:13:50|Cozac|Adela||F|1978-09-14|Sibiu|SIBIU|Calea Poplacii|27|||||0745604000||adelasabinacozac@gmail.com|SBSSWH||0 Sobranie SS White (1 mg) Pack|Yes|Yes||SB001663|BIERHAUS HERMANNSTADT SRL|Sibiu|SBEVENTBA03|117|CCC EVENT SOBR FAM 2013|121|Horeca|0
0|CS3311193|2013-03-30 00:14:17|Crajmariu|Alexandra||F|1984-09-20|Sibiu|SIBIU|Aleea Taberei|7|||||0743282129||alexandra_c822000@yahoo.com|KTNWH||0 Sobranie SS White (1 mg) Pack|Yes|Yes||SB001663|BIERHAUS HERMANNSTADT SRL|Sibiu|SBEVENTBA02|117|CCC EVENT SOBR FAM 2013|121|Horeca|0
0|CS3311206|2013-03-30 00:17:10|Rogojan|Andrada||F|1990-05-14|Maramures|BAIA MARE|Graniterilor|105|||||0744339500|||SBKSBL||0 Sobranie SS Pink (3 mg) Pack|Yes|Yes||SB001663|BIERHAUS HERMANNSTADT SRL|Sibiu|SBEVENTBA03|117|CCC EVENT SOBR FAM 2013|121|Horeca|0
0|CS3311216|2013-03-30 00:19:08|Popa|Claudia||F|1978-08-08|Sibiu|Sibiu|Regele ferdinand|12|||||0765678432||alexe26@yahoo.com|GLMLIL||0 Sobranie SS Pink (3 mg) Pack|Yes|Yes||SB001663|BIERHAUS HERMANNSTADT SRL|Sibiu|SBEVENTBA01|117|CCC EVENT SOBR FAM 2013|121|Horeca|0
0|CS3311221|2013-03-30 00:22:06|Rebegel|Ovidiu||M|1975-11-20|Sibiu|SIBIU|Livezii|88|||||0722504818||ovidiurebegel@yahoo.com|DAVGLS||0 Sobranie SS Black (6 mg) Pack|Yes|Yes||SB001663|BIERHAUS HERMANNSTADT SRL|Sibiu|SBEVENTBA03|117|CCC EVENT SOBR FAM 2013|121|Horeca|0
0|CS3311224|2013-03-30 00:22:32|Sas|Alina||F|1988-03-12|Sibiu|Sibiu|Siretului|4|||||0744702632||alina_branea@yahoo.com|GLMBL||0 Sobranie SS Black (6 mg) Pack|Yes|Yes||SB001663|BIERHAUS HERMANNSTADT SRL|Sibiu|SBEVENTBA01|117|CCC EVENT SOBR FAM 2013|121|Horeca|0
0|CS3311226|2013-03-30 00:23:54|Boborodea|Constantin||M|1975-10-01|Sibiu|SIBIU|Stefan Cel Mare|42|||||0727888609||bobyboborodea@yahoo.com|DAVGL||0 Sobranie KS Black (8 mg) Pack|Yes|Yes||SB001663|BIERHAUS HERMANNSTADT SRL|Sibiu|SBEVENTBA02|117|CCC EVENT SOBR FAM 2013|121|Horeca|0
0|CS3311232|2013-03-30 00:25:23|Sopa|Mihaela||F|1980-10-22|Sibiu|SIBIU|Moga|4|||||0745175989||mihaelasopa@gmail.com|DUNFCBB||0 Sobranie KS Gold (4 mg) Pack|Yes|Yes||SB001663|BIERHAUS HERMANNSTADT SRL|Sibiu|SBEVENTBA03|117|CCC EVENT SOBR FAM 2013|121|Horeca|0
0|CS3311236|2013-03-30 00:25:59|Tabacaru|Dragos||M|1985-10-28|Sibiu|Sibiu|Piata armelor|2|||||0752103436||dragosh_theo@yahoo.com|SBKSBK||0 Sobranie KS Black (8 mg) Pack|Yes|Yes||SB001663|BIERHAUS HERMANNSTADT SRL|Sibiu|SBEVENTBA01|117|CCC EVENT SOBR FAM 2013|121|Horeca|0
0|CS3311243|2013-03-30 00:27:09|Carbunar|Vlad||M|1982-04-23|Sibiu|SIBIU|Aleea Fratii Buzesti|1|||||0745325916||carbunarvlad@yahoo.com|KTBL6||0 Sobranie KS Gold (4 mg) Pack|Yes|Yes||SB001663|BIERHAUS HERMANNSTADT SRL|Sibiu|SBEVENTBA02|117|CCC EVENT SOBR FAM 2013|121|Horeca|0
0|CS3311247|2013-03-30 00:28:03|Baciu|Consuela||F|1978-05-26|Sibiu|SIBIU|Calea Gusteritei|47|||||0721772282||baciu consuela@yahoo.com|KTSV||0 Sobranie SS Pink (3 mg) Pack|Yes|Yes||SB001663|BIERHAUS HERMANNSTADT SRL|Sibiu|SBEVENTBA03|117|CCC EVENT SOBR FAM 2013|121|Horeca|0
0|CS3311263|2013-03-30 00:30:17|Cristina|Michaela||F|1992-11-09|Sibiu|Sibiu|Somesului|2|||||0752007548||big.service19@yahoo.com|GLMLIL||0 Sobranie SS Black (6 mg) Pack|Yes|Yes||SB001663|BIERHAUS HERMANNSTADT SRL|Sibiu|SBEVENTBA01|117|CCC EVENT SOBR FAM 2013|121|Horeca|0
0|CS3311268|2013-03-30 00:31:04|Buta|Cristian||M|1976-03-17|Sibiu|Sibiu|Aleea Turnu Rosu|2|||||0728914950||cristian.buta@yahoo.com|MBRGL||0 Sobranie KS Blue (6 mg) Pack|Yes|Yes||SB001663|BIERHAUS HERMANNSTADT SRL|Sibiu|SBEVENTBA02|117|CCC EVENT SOBR FAM 2013|121|Horeca|0
0|CS3311290|2013-03-30 00:31:06|Pitu|Cosmin||M|1988-02-29|Sibiu|SIBIU|Smighelschi|15|||||0726496874||pitucosmin@yahoo.com|SBKSGD||0 Sobranie KS Gold (4 mg) Pack|Yes|Yes||SB001663|BIERHAUS HERMANNSTADT SRL|Sibiu|SBEVENTBA04|117|CCC EVENT SOBR FAM 2013|121|Horeca|0
0|CS3311271|2013-03-30 00:31:09|Scutea|Radu||M|1968-10-10|Sibiu|SIBIU|Dealului|14|||||0745373933||radu.scutea@clicknet.ro|SBSSWH||0 Sobranie KS Black (8 mg) Pack|Yes|Yes||SB001663|BIERHAUS HERMANNSTADT SRL|Sibiu|SBEVENTBA03|117|CCC EVENT SOBR FAM 2013|121|Horeca|0
0|CS3311286|2013-03-30 00:34:06|Ghita|Marius||M|1983-01-03|Sibiu|SIBIU|Fochistilor|7|||||0743695945||mmariussica@yahoo.com|DUNFCMBB||0 Sobranie KS Blue (6 mg) Pack|Yes|Yes||SB001663|BIERHAUS HERMANNSTADT SRL|Sibiu|SBEVENTBA02|117|CCC EVENT SOBR FAM 2013|121|Horeca|0
0|CS3311287|2013-03-30 00:34:15|Managache|Vast||M|1973-12-20|Sibiu|Sibiu|Mihai viteazu|3|||||0049174315||vasy_marlene@gmx.de|KTBL||0 Sobranie KS Blue (6 mg) Pack|Yes|Yes||SB001663|BIERHAUS HERMANNSTADT SRL|Sibiu|SBEVENTBA01|117|CCC EVENT SOBR FAM 2013|121|Horeca|0
0|CS3311291|2013-03-30 00:34:42|Mitroi|Remus||M|1980-10-31|Sibiu|Sibiu|Aleea sevis|2|||||0728325123||remusmitroi@yahoo.com|MBRRD||0 Sobranie KS Black (8 mg) Pack|Yes|Yes||SB001663|BIERHAUS HERMANNSTADT SRL|Sibiu|SBEVENTBA04|117|CCC EVENT SOBR FAM 2013|121|Horeca|0
0|CS3311296|2013-03-30 00:35:33|Sopa|Adriana||M|1967-03-21|Sibiu|SIBIU|Moga|4|||||0745175231||adrianasopa@yahoo.ro|VIRSPR||0 Sobranie SS Pink (3 mg) Pack|Yes|Yes||SB001663|BIERHAUS HERMANNSTADT SRL|Sibiu|SBEVENTBA03|117|CCC EVENT SOBR FAM 2013|121|Horeca|0
0|CS3311298|2013-03-30 00:36:15|Achim|Victor||M|1989-12-25|Sibiu|SIBIU|Siretului|2|||||0744888578||victorachim89@yahoo.de|DUNFCMBB||0 Sobranie KS Blue (6 mg) Pack|Yes|Yes||SB001663|BIERHAUS HERMANNSTADT SRL|Sibiu|SBEVENTBA02|117|CCC EVENT SOBR FAM 2013|121|Horeca|0
0|CS3311303|2013-03-30 00:37:26|Sandu|Bianca||F|1989-09-16|Sibiu|Sibiu|Aleea calaretilor|27|||||0751206170||bianca.sandu@yahoo.com|SBSSPK||0 Sobranie SS Pink (3 mg) Pack|Yes|Yes||SB001663|BIERHAUS HERMANNSTADT SRL|Sibiu|SBEVENTBA01|117|CCC EVENT SOBR FAM 2013|121|Horeca|0
0|CS3311306|2013-03-30 00:39:11|Horodinca|Roland||M|1979-12-13|Brasov|FAGARAS|Stejarului|37|||||0723185826||rolandhorodinca@yahoo.com|CAWH||0 Sobranie KS Gold (4 mg) Pack|Yes|Yes||SB001663|BIERHAUS HERMANNSTADT SRL|Sibiu|SBEVENTBA03|117|CCC EVENT SOBR FAM 2013|121|Horeca|0
0|CS3311313|2013-03-30 00:39:18|David|Ilie||M|1976-02-08|Sibiu|SIBIU|Muncel|13|||||0745223798||davidilie@yahoo.com|VIRSPR||0 Sobranie SS Black (6 mg) Pack|Yes|Yes||SB001663|BIERHAUS HERMANNSTADT SRL|Sibiu|SBEVENTBA02|117|CCC EVENT SOBR FAM 2013|121|Horeca|0
0|CS3311314|2013-03-30 00:40:51|Bacila|Andrei||M|1988-11-26|Sibiu|SIBIU|Urlea|23|||||0747334586||mrbacila@gmail.com|KTBL||0 Sobranie KS Blue (6 mg) Pack|Yes|Yes||SB001663|BIERHAUS HERMANNSTADT SRL|Sibiu|SBEVENTBA02|117|CCC EVENT SOBR FAM 2013|121|Horeca|0
0|CS3311320|2013-03-30 00:42:32|Dancanet|Marius||M|1963-07-28|Sibiu|Sibiu|V aaron|22|||||0722285760||irene@yahoo.com|KTWH||0 Sobranie SS White (1 mg) Pack|Yes|Yes||SB001663|BIERHAUS HERMANNSTADT SRL|Sibiu|SBEVENTBA01|117|CCC EVENT SOBR FAM 2013|121|Horeca|0
0|CS3311375|2013-03-30 00:43:20|Ungar|Katharina||F|1965-08-03|Sibiu|Sibiu|Paltinul|14|||||0722275170||kathi.ungar@web.de|SBSSBK||0 Sobranie KS Black (8 mg) Pack|Yes|Yes||SB001663|BIERHAUS HERMANNSTADT SRL|Sibiu|SBEVENTBA04|117|CCC EVENT SOBR FAM 2013|121|Horeca|0
0|CS3311324|2013-03-30 00:43:35|Tacacsi|Nadia||F|1976-09-26|Sibiu|SIBIU|9 mai|65|||||0723872852||nadiatacacsi@yahoo.co.in|SBKSBL||0 Sobranie SS Black (6 mg) Pack|Yes|Yes||SB001663|BIERHAUS HERMANNSTADT SRL|Sibiu|SBEVENTBA03|117|CCC EVENT SOBR FAM 2013|121|Horeca|0
0|CS3311376|2013-03-30 00:46:36|Dancanet|Delia||F|1969-02-27|Sibiu|Sibiu|Vasile aaron|22|||||0722605805||dancanetdelia@yahoo.com|KTWH||0 Sobranie SS White (1 mg) Pack|Yes|No||SB001663|BIERHAUS HERMANNSTADT SRL|Sibiu|SBEVENTBA04|117|CCC EVENT SOBR FAM 2013|121|Horeca|0
0|CS3311338|2013-03-30 00:46:47|Ban|Claudiu||M|1985-03-06|Sibiu|Sibiu|Negoi|41|||||0754345678||banalexandru@yahoo.com|KTNBK||0 Sobranie KS Blue (6 mg) Pack|Yes|Yes||SB001663|BIERHAUS HERMANNSTADT SRL|Sibiu|SBEVENTBA01|117|CCC EVENT SOBR FAM 2013|121|Horeca|0
0|CS3311345|2013-03-30 00:47:15|Prund|Iulia||F|1986-09-29|Sibiu|SIBIU|Poplacii|23|||||0756554345||ddd.op@yahoo.com|VIRSV||0 Sobranie SS Pink (3 mg) Pack|Yes|Yes||SB001663|BIERHAUS HERMANNSTADT SRL|Sibiu|SBEVENTBA03|117|CCC EVENT SOBR FAM 2013|121|Horeca|0
0|CS3311346|2013-03-30 00:48:25|Avram|Silviu||M|1990-09-25|Sibiu|Si|Lunga|6|||||0744589436||av_slv@yahoo.com|KTBLH||0 Sobranie KS Black (8 mg) Pack|Yes|Yes||SB001663|BIERHAUS HERMANNSTADT SRL|Sibiu|SBEVENTBA03|117|CCC EVENT SOBR FAM 2013|121|Horeca|0
0|CS3311351|2013-03-30 00:50:07|Stan|Mirela||F|1981-10-15|Sibiu|Sibiu|Sureanu|1|||||0744842272||mrl_stn@yahoo.com|VIRSV||0 Sobranie SS Pink (3 mg) Pack|Yes|Yes||SB001663|BIERHAUS HERMANNSTADT SRL|Sibiu|SBEVENTBA01|117|CCC EVENT SOBR FAM 2013|121|Horeca|0
0|CS3311377|2013-03-30 00:50:26|Graur|Corina||F|1970-06-13|Sibiu|Sibiu|Gen. Balan|49|||||0722439980||corina.graur@yahoo.com|SBSSWH||0 Sobranie SS White (1 mg) Pack|Yes|No||SB001663|BIERHAUS HERMANNSTADT SRL|Sibiu|SBEVENTBA04|117|CCC EVENT SOBR FAM 2013|121|Horeca|0
0|CS3311358|2013-03-30 00:53:52|Mihailescu|Crina||F|1984-12-01|Valcea|Rm valcea|Privighetorii|4|||||0743404538||rubimiki@yahoo.com|GLMLIL||0 Sobranie SS Black (6 mg) Pack|Yes|Yes||SB001663|BIERHAUS HERMANNSTADT SRL|Sibiu|SBEVENTBA01|117|CCC EVENT SOBR FAM 2013|121|Horeca|0
0|CS3311378|2013-03-30 00:53:56|Ardelean|Simona||F|1979-06-25|Sibiu|Sibiu|Gimnasticii|19|||||0740422911||ardeleansimo@yahoo.com|SBSSWH||0 Sobranie SS White (1 mg) Pack|Yes|Yes||SB001663|BIERHAUS HERMANNSTADT SRL|Sibiu|SBEVENTBA04|117|CCC EVENT SOBR FAM 2013|121|Horeca|0
0|CS3311362|2013-03-30 00:54:15|Radu|Graur||M|1967-01-08|Sibiu|SIBIU|General Balan|49|||||0729033333||radu.graur@yahoo.com|SBSSPK||0 Sobranie SS Pink (3 mg) Pack|Yes|Yes||SB001663|BIERHAUS HERMANNSTADT SRL|Sibiu|SBEVENTBA02|117|CCC EVENT SOBR FAM 2013|121|Horeca|0
0|CS3311390|2013-03-30 00:56:14|Tudor|Anca||F|1985-06-03|Sibiu|SIBIU|Teclu|17|||||0756334867||tudorancah@yahoo.com|KTSV||0 Sobranie KS Gold (4 mg) Pack|Yes|Yes||SB001663|BIERHAUS HERMANNSTADT SRL|Sibiu|SBEVENTBA02|117|CCC EVENT SOBR FAM 2013|121|Horeca|0
0|CS3311374|2013-03-30 00:56:42|Herman|Walter||M|1961-10-31|Sibiu|Sibiu|Paltinului|14|||||0722275170||info@housepaltinul.ro|KTBL6||0 Sobranie KS Gold (4 mg) Pack|Yes|Yes||SB001663|BIERHAUS HERMANNSTADT SRL|Sibiu|SBEVENTBA04|117|CCC EVENT SOBR FAM 2013|121|Horeca|0
0|CS3311379|2013-03-30 00:57:59|Ionescu|Marcel||M|1976-03-24|Sibiu|SIBIU|Paris|2|||||0745188781||marcel2003@gmail.com|KTBL6||0 Sobranie KS Gold (4 mg) Pack|Yes|Yes||SB001663|BIERHAUS HERMANNSTADT SRL|Sibiu|SBEVENTBA04|117|CCC EVENT SOBR FAM 2013|121|Horeca|0
0|CS3311391|2013-03-30 01:00:28|Iliescu|Maria||F|1985-03-02|Sibiu|SIBIU|Mihai Viteazu|5|||||0745227645||iliescumary@yahoo.com|VOGM||0 Sobranie KS Black (8 mg) Pack|Yes|Yes||SB001663|BIERHAUS HERMANNSTADT SRL|Sibiu|SBEVENTBA02|117|CCC EVENT SOBR FAM 2013|121|Horeca|0
0|CS3311405|2013-03-30 01:05:34|Vlad|Gina||F|1983-09-28|Sibiu|Sibiu|Gorjului|15|||||0752236458||ggina@yahoo.com|KTBL6||0 Sobranie KS Gold (4 mg) Pack|Yes|Yes||SB001663|BIERHAUS HERMANNSTADT SRL|Sibiu|SBEVENTBA04|117|CCC EVENT SOBR FAM 2013|121|Horeca|0
0|CS3311406|2013-03-30 01:07:02|Tat|Marius||M|1961-07-26|Sibiu|Sibiu|Bucegi|7|||||0723566789||tat.marius@yahoo.com|DUNFCMBB||0 Sobranie KS Blue (6 mg) Pack|Yes|No||SB001663|BIERHAUS HERMANNSTADT SRL|Sibiu|SBEVENTBA04|117|CCC EVENT SOBR FAM 2013|121|Horeca|0
0|CS3311421|2013-03-30 01:08:57|Tatoiu|Denisa||F|1989-08-07|Sibiu|Sibiu|Stefan cel mare|3|||||0754673217||tato_iu@yahoo.com|DUNFCMBB||0 Sobranie KS Black (8 mg) Pack|Yes|Yes||SB001663|BIERHAUS HERMANNSTADT SRL|Sibiu|SBEVENTBA01|117|CCC EVENT SOBR FAM 2013|121|Horeca|0
0|CS3311460|2013-03-30 01:17:45|Popescu|Ovidiu||M|1990-09-12|Sibiu|SIBIU|Stefan cel Mare|13|||||0745448976||noname@yahoo.com|DUNFCMBR||0 Sobranie KS Gold (4 mg) Pack|Yes|Yes||SB001663|BIERHAUS HERMANNSTADT SRL|Sibiu|SBEVENTBA03|117|CCC EVENT SOBR FAM 2013|121|Horeca|0
0|CS3311463|2013-03-30 01:17:53|Banciu|Dan||M|1989-03-03|Sibiu|Sibiu|Nicolae Balcescu|2|||||0768456280||banciu34@yahoo.com|CABK||0 Sobranie KS Blue (6 mg) Pack|Yes|Yes||SB001663|BIERHAUS HERMANNSTADT SRL|Sibiu|SBEVENTBA01|117|CCC EVENT SOBR FAM 2013|121|Horeca|0
0|CS3311453|2013-03-30 01:18:03|Baltador|Tudora||F|1975-11-26|Sibiu|SIBIU|Miron Costin|26|||||0758502200||tudorabaltador@yahoo.com|KTSV||0 Sobranie KS Black (8 mg) Pack|Yes|Yes||SB001663|BIERHAUS HERMANNSTADT SRL|Sibiu|SBEVENTBA02|117|CCC EVENT SOBR FAM 2013|121|Horeca|0
0|CS3311456|2013-03-30 01:18:41|Birsan|Anca||F|1969-05-18|Sibiu|Sibiu|Noica constantin|2|||||0728855615||anka_birsan@yahoo.com|DUNFCBB||0 Sobranie KS Blue (6 mg) Pack|Yes|Yes||SB001663|BIERHAUS HERMANNSTADT SRL|Sibiu|SBEVENTBA04|117|CCC EVENT SOBR FAM 2013|121|Horeca|0
0|CS3311461|2013-03-30 01:19:19|Rucarean|Sonia||F|1990-10-24|Sibiu|SIBIU|Lunga|26|||||0744452345||rcr.sonya@yahoo.com|KTSV||0 Sobranie KS Gold (4 mg) Pack|Yes|Yes||SB001663|BIERHAUS HERMANNSTADT SRL|Sibiu|SBEVENTBA03|117|CCC EVENT SOBR FAM 2013|121|Horeca|0
0|CS3311464|2013-03-30 01:20:10|Spetcu|Florin||M|1992-11-06|Sibiu|Sibiu|Pedagogilor|5|||||0743678967||spectu_gg@yahoo.com|MBRRD||0 Sobranie KS Black (8 mg) Pack|Yes|Yes||SB001663|BIERHAUS HERMANNSTADT SRL|Sibiu|SBEVENTBA01|117|CCC EVENT SOBR FAM 2013|121|Horeca|0
0|CS3311466|2013-03-30 01:21:23|Oprisor|Rodica||F|1979-07-17|Sibiu|SIBIU|General Mosoiu|12|||||0744306555||rodica.oprisor@gmail.com|VIRSPR||0 Sobranie SS Black (6 mg) Pack|Yes|Yes||SB001663|BIERHAUS HERMANNSTADT SRL|Sibiu|SBEVENTBA02|117|CCC EVENT SOBR FAM 2013|121|Horeca|0
0|CS3311467|2013-03-30 01:21:33|Borcan|Bianca||F|1981-03-28|Sibiu|Sibiu|Podului|15|||||0749860341||antiniebianca@yahoo.com|DUNFCBB||0 Sobranie SS Pink (3 mg) Pack|Yes|No||SB001663|BIERHAUS HERMANNSTADT SRL|Sibiu|SBEVENTBA04|117|CCC EVENT SOBR FAM 2013|121|Horeca|0
0|CS3311475|2013-03-30 01:23:00|Barbu|Monica||F|1968-01-10|Sibiu|SIBIU|Frunzei|4|||||0772718851||monibar11@yahoo.es|VIRSPR||0 Sobranie SS Black (6 mg) Pack|Yes|Yes||SB001663|BIERHAUS HERMANNSTADT SRL|Sibiu|SBEVENTBA02|117|CCC EVENT SOBR FAM 2013|121|Horeca|0
0|CS3311491|2013-03-30 01:28:21|Glont|Dorina||F|1987-03-02|Sibiu|SIBIU|Uzinei|7|||||0745331596||glontdory@yahoo.com|VOGLL||0 Sobranie SS Pink (3 mg) Pack|Yes|Yes||SB001663|BIERHAUS HERMANNSTADT SRL|Sibiu|SBEVENTBA04|117|CCC EVENT SOBR FAM 2013|121|Horeca|0
0|CS3311492|2013-03-30 01:29:24|Bleahu|Dan||M|1985-12-30|Sibiu|SIBIU|Noua Mai|9|||||0742175426||bleahu.dan@yahoo.com|KTBL6||0 Sobranie KS Blue (6 mg) Pack|Yes|Yes||SB001663|BIERHAUS HERMANNSTADT SRL|Sibiu|SBEVENTBA04|117|CCC EVENT SOBR FAM 2013|121|Horeca|0
0|CS3311507|2013-03-30 01:38:46|Barbu|Alin||M|1978-06-12|Sibiu|Sibiu|Rahovei|5|||||0754789345||barbu.ioam@yahoo.com|CABL||0 Sobranie KS Blue (6 mg) Pack|Yes|Yes||SB001663|BIERHAUS HERMANNSTADT SRL|Sibiu|SBEVENTBA01|117|CCC EVENT SOBR FAM 2013|121|Horeca|0
0|CS3311511|2013-03-30 01:38:50|Manciu|Cristian||F|1988-02-06|Sibiu|SIBIU|Marasti|23|||||0742367234||manciu.cristy@gmail.com|VOGLL||0 Sobranie SS Pink (3 mg) Pack|Yes|Yes||SB001663|BIERHAUS HERMANNSTADT SRL|Sibiu|SBEVENTBA02|117|CCC EVENT SOBR FAM 2013|121|Horeca|0
0|CS3311509|2013-03-30 01:39:09|Vecerdea|Andrei||M|1989-01-22|Sibiu|SIBIU|Turnisorului|12|||||0744386176||vecerdeaandrei@yahoo.com|SBKSGD||0 Sobranie SS Pink (3 mg) Pack|Yes|Yes||SB001663|BIERHAUS HERMANNSTADT SRL|Sibiu|SBEVENTBA03|117|CCC EVENT SOBR FAM 2013|121|Horeca|0
0|CS3311508|2013-03-30 01:40:18|Barbulescu|Mihai||M|1993-01-01|Sibiu|Sibiu|Cetatii|3|||||0762345990||babr.mih@yahoo.com|KTBLH||0 Sobranie KS Black (8 mg) Pack|Yes|Yes||SB001663|BIERHAUS HERMANNSTADT SRL|Sibiu|SBEVENTBA01|117|CCC EVENT SOBR FAM 2013|121|Horeca|0
0|CS3311512|2013-03-30 01:40:52|Danciu|Doriana||F|1985-10-30|Sibiu|SIBIU|Nicolae Iorga|59|||||0742386156||danciu.girl@yahoo.com|SBSSWH||0 Sobranie SS White (1 mg) Pack|Yes|Yes||SB001663|BIERHAUS HERMANNSTADT SRL|Sibiu|SBEVENTBA02|117|CCC EVENT SOBR FAM 2013|121|Horeca|0
0|CS3311510|2013-03-30 01:40:56|Dobrila|Andreea||F|1988-02-16|Sibiu|SIBIU|Ceferistilor|4|||||0722145467||andredobrila@yahoo.com|VIRSPR||0 Sobranie SS Black (6 mg) Pack|Yes|Yes||SB001663|BIERHAUS HERMANNSTADT SRL|Sibiu|SBEVENTBA03|117|CCC EVENT SOBR FAM 2013|121|Horeca|0
0|CS3311514|2013-03-30 01:41:18|Bizadea|Camelia||F|1972-05-12|Sibiu|SIBIU|Banatului|3|||||0754533451||bizadeacami@yahoo.com|KTBL6||0 Sobranie KS Blue (6 mg) Pack|Yes|Yes||SB001663|BIERHAUS HERMANNSTADT SRL|Sibiu|SBEVENTBA04|117|CCC EVENT SOBR FAM 2013|121|Horeca|0
0|CS3311515|2013-03-30 01:44:06|Cenciu|Florina||F|1973-08-20|Sibiu|Sibiu|Ocnei|7|||||0756881245||cenciuflo@yahoo.com|MBRRD||0 Sobranie SS Black (6 mg) Pack|Yes|Yes||SB001663|BIERHAUS HERMANNSTADT SRL|Sibiu|SBEVENTBA04|117|CCC EVENT SOBR FAM 2013|121|Horeca|0
