0|CS3388925|2013-05-24 20:04:54|Filipescu|Roxana||F|1987-04-08|Constanta|CONSTANTA|Regina elizabeta|25|||||0725684278||roxyka_life@yahoo.com|SBSSPK||1 Sobranie SS Pink (3mg) Pack|Yes|Yes||CT003789|SCAPINO SRL|Constanta|CTHRKBA54|137|CCC HRK SOBR FAM 2013|121|Horeca|0
0|CS3388927|2013-05-24 20:05:39|TUDOSA|GEANINA||F|1991-05-22|Constanta|CONSTANTA|ALBASTEELELOR|6|F|3|0|1|0761145403||syr0na@yahoo.com|SBSSPK||1 Sobranie SS Pink (3mg) Pack|Yes|Yes||CT003789|SCAPINO SRL|Constanta|CTHRKBA52|137|CCC HRK SOBR FAM 2013|121|Horeca|0
0|CS3388932|2013-05-24 20:07:35|Borcan|Andrei||M|1987-05-20|Constanta|CONSTANTA|Cuza voda|79b|||0|0|0766522037|||DUNFCMBB||1 Sobranie KS Blue (6mg) Pack|Yes|Yes||CT003789|SCAPINO SRL|Constanta|CTHRKBA54|137|CCC HRK SOBR FAM 2013|121|Horeca|0
0|CS3388937|2013-05-24 20:09:59|Stoica|Laura||F|1986-11-27|Constanta|MANGALIA|Basarabi|12|||0|0|0725066655||stoica.laura@yahoo.com|DUNFCMBB||1 Sobranie KS Blue (6mg) Pack|Yes|Yes||CT003789|SCAPINO SRL|Constanta|CTHRKBA52|137|CCC HRK SOBR FAM 2013|121|Horeca|0
0|CS3388938|2013-05-24 20:10:00|Cananau|Dragos||M|1990-03-30|Constanta|CONSTANTA|I c bratianu|92|||||0721679442|||MBRGL||1 Sobranie KS Gold  (4mg) Pack|Yes|Yes||CT003789|SCAPINO SRL|Constanta|CTHRKBA54|137|CCC HRK SOBR FAM 2013|121|Horeca|0
0|CS3388940|2013-05-24 20:10:26|Costache|Sebastian||M|1992-09-18|Constanta|CONSTANTA|Timisana|19|||||0726407229||costache.sebastian@yahoo.com|DUNFCMBB||1 Sobranie KS Black (8mg) Pack|Yes|Yes||CT003789|SCAPINO SRL|Constanta|CTHRKBA53|137|CCC HRK SOBR FAM 2013|121|Horeca|0
0|CS3388958|2013-05-24 20:18:01|Coiciu|Mihai||M|1985-05-16|Constanta|CONSTANTA|Stefan cel mare|57|||0|0|0721054403||coiciu.mihai@yahoo.com|KTBL6||1 Sobranie KS Blue (6mg) Pack|Yes|Yes||CT003789|SCAPINO SRL|Constanta|CTHRKBA53|137|CCC HRK SOBR FAM 2013|121|Horeca|0
0|CS3388962|2013-05-24 20:19:24|Motroc|Zoia||F|1988-03-08|Constanta|CONSTANTA|Bucuresti|56|||0|0|0749999754||motroc_zoia@yahoo.com|DUNFCMBB||1 Sobranie KS Blue (6mg) Pack|Yes|Yes||CT003789|SCAPINO SRL|Constanta|CTHRKBA52|137|CCC HRK SOBR FAM 2013|121|Horeca|0
0|CS3388963|2013-05-24 20:20:05|Craciun|Anca||F|1985-06-06|Constanta|CONSTANTA|Unirii|114|||0|0|0751456564||craciunanca@yahoo.com|SBSSPK||1 Sobranie SS Pink (3mg) Pack|Yes|Yes||CT003789|SCAPINO SRL|Constanta|CTHRKBA53|137|CCC HRK SOBR FAM 2013|121|Horeca|0
0|CS3389019|2013-05-24 20:48:58|Radu|Diana||F|1990-04-25|Constanta|CONSTANTA|Mircea cel batran|84|Mf1|A|3|11|0726797216||diana_elena_90@yahoo.com|DAVGLS||1 Sobranie SS Black (6mg) Pack|Yes|Yes||CT004932|Toscana SRL |Constanta|CTHRKBA52|137|CCC HRK SOBR FAM 2013|121|Horeca|0
0|CS3389022|2013-05-24 20:50:29|Matei|Cosmin||M|1987-05-23|Constanta|CONSTANTA|Baba novac|181|Bn12|A|0|47|0742614562||cosmin.matei87@yahoo.com|KTSV||1 Sobranie KS Gold  (4mg) Pack|Yes|No||CT004932|Toscana SRL |Constanta|CTHRKBA54|137|CCC HRK SOBR FAM 2013|121|Horeca|0
0|CS3389024|2013-05-24 20:51:03|Asan|Ruhana||F|1988-07-01|Constanta|CONSTANTA|Albastrelelor|11|||||0735794288|||SBSSWH||1 Sobranie SS White (1mg) Pack|Yes|Yes||CT004932|Toscana SRL |Constanta|CTHRKBA52|137|CCC HRK SOBR FAM 2013|121|Horeca|0
0|CS3389029|2013-05-24 20:54:55|Branza|Robert||M|1993-08-17|Constanta|CONSTANTA|Dezrobirii|30|Dr12|C|0|32|0735474401||romania_attitude@yahoo.com|SBKSBL||1 Sobranie KS Blue (6mg) Pack|Yes|Yes||CT004932|Toscana SRL |Constanta|CTHRKBA54|137|CCC HRK SOBR FAM 2013|121|Horeca|0
0|CS3389033|2013-05-24 20:56:42|Pricop|Oana||F|1984-10-18|Iasi|IASI|Constantin mavrocordat|57a|||||0746223582||oana_and_2006@yahoo.com|KTSV||1 Sobranie KS Gold  (4mg) Pack|Yes|Yes||CT004932|Toscana SRL |Constanta|CTHRKBA53|137|CCC HRK SOBR FAM 2013|121|Horeca|0
0|CS3389034|2013-05-24 20:56:52|Aristene|Bogdan||M|1984-06-05|Constanta|CONSTANTA|Tulcea|11|||||0727894257||bogdan.aristene@gmail.com|KTBL||1 Sobranie KS Black (8mg) Pack|Yes|Yes||CT004932|Toscana SRL |Constanta|CTHRKBA54|137|CCC HRK SOBR FAM 2013|121|Horeca|0
0|CS3389038|2013-05-24 20:58:37|Coof|Alexandru||M|1986-08-15|Constanta|CONSTANTA|Dezrobirii|135|||0|0|0742454276||alexandru.coof@yahoo.com|VOGLL||1 Sobranie SS Pink (3mg) Pack|Yes|Yes||CT004932|Toscana SRL |Constanta|CTHRKBA52|137|CCC HRK SOBR FAM 2013|121|Horeca|0
0|CS3389042|2013-05-24 21:00:33|Nicoara|Laura||F|1980-10-25|Constanta|CONSTANTA|Curcubeului|10|Fd35|C|4|30|0724371786||laurateo2005@yahoo.com|GLMLIL||1 Sobranie SS Black (6mg) Pack|Yes|Yes||CT004932|Toscana SRL |Constanta|CTHRKBA53|137|CCC HRK SOBR FAM 2013|121|Horeca|0
0|CS3389047|2013-05-24 21:01:46|Petrila|Mihaita||M|1992-01-30|Constanta|CONSTANTA|Zefirului|12b|Fb10b|B|1|17|0766278990|||SBSSWH||1 Sobranie SS White (1mg) Pack|Yes|Yes||CT004932|Toscana SRL |Constanta|CTHRKBA52|137|CCC HRK SOBR FAM 2013|121|Horeca|0
0|CS3389048|2013-05-24 21:02:23|Stancu|Alin||M|1992-07-22|Constanta|Constanta|Zefirulu|12b|Fb10b|B|0|12|0784745765||alyn_brt@yahoo.com|DUNFCMBB||1 Sobranie KS Blue (6mg) Pack|Yes|Yes||CT004932|Toscana SRL |Constanta|CTHRKBA54|137|CCC HRK SOBR FAM 2013|121|Horeca|0
0|CS3389055|2013-05-24 21:05:39|Iorgu|Paul||M|1982-08-31|Constanta|CONSTANTA|Bd tomis|232|||||0728947362||iorgu.paul.adrian@gmail.com|DUNGL||1 Sobranie KS Gold  (4mg) Pack|Yes|No||CT004932|Toscana SRL |Constanta|CTHRKBA54|137|CCC HRK SOBR FAM 2013|121|Horeca|0
0|CS3389057|2013-05-24 21:06:01|Bumbac|Georgiana||F|1972-09-18|Constanta|CONSTANTA|Eroilor|17|||0|0|0722650005|||SBSSWH||1 Sobranie SS White (1mg) Pack|Yes|Yes||CT004932|Toscana SRL |Constanta|CTHRKBA53|137|CCC HRK SOBR FAM 2013|121|Horeca|0
0|CS3389058|2013-05-24 21:06:04|Nicolae|Anamaria||F|1990-01-24|Constanta|CONSTANTA|Tomis|113|||0|0|0726485905||nicolae.ana@yahoo.com|VIRSPR||1 Sobranie SS Black (6mg) Pack|Yes|Yes||CT004932|Toscana SRL |Constanta|CTHRKBA52|137|CCC HRK SOBR FAM 2013|121|Horeca|0
0|CS3389061|2013-05-24 21:08:33|Bumbac|Sorin||M|1969-11-30|Constanta|CONSTANTA|Eliberari|17|||0|0|0722650005|||SBKSBL||1 Sobranie KS Blue (6mg) Pack|Yes|Yes||CT004932|Toscana SRL |Constanta|CTHRKBA53|137|CCC HRK SOBR FAM 2013|121|Horeca|0
0|CS3389062|2013-05-24 21:10:35|Bela|Elena||F|1979-06-11|Constanta|CONSTANTA|Traian|64|A3|D|0|112|0722650005||elena.bela@qmagazine.ro|SBSSWH||1 Sobranie SS White (1mg) Pack|Yes|Yes||CT004932|Toscana SRL |Constanta|CTHRKBA53|137|CCC HRK SOBR FAM 2013|121|Horeca|0
0|CS3389067|2013-05-24 21:13:47|Bela|Romeo||M|1981-06-30|Constanta|CERNAVODA|Orizontului|21|||||0722560990|||SBSSWH||1 Sobranie SS White (1mg) Pack|Yes|Yes||CT004932|Toscana SRL |Constanta|CTHRKBA53|137|CCC HRK SOBR FAM 2013|121|Horeca|0
0|CS3389076|2013-05-24 21:20:45|Popa|Andreea||F|1991-12-22|Constanta|CONSTANTA|Alexandru lapusneanu|0|Le1|A|0|0|0733001027||emixemix01@yahoo.ro|VIRSPR||1 Sobranie SS Black (6mg) Pack|Yes|Yes||CT004932|Toscana SRL |Constanta|CTHRKBA53|137|CCC HRK SOBR FAM 2013|121|Horeca|0
0|CS3389078|2013-05-24 21:22:49|Dragan|Dan Nicolae||M|1989-08-28|Constanta|CONSTANTA|Bvd mamaia|68|||0|0|0724595407||phantomclaw2003@yahoo.com|SBKSBL||1 Sobranie KS Blue (6mg) Pack|Yes|Yes||CT004932|Toscana SRL |Constanta|CTHRKBA53|137|CCC HRK SOBR FAM 2013|121|Horeca|0
0|CS3389079|2013-05-24 21:23:04|Malai|George||M|1984-11-28|Constanta|CONSTANTA|Ic bratianu|24|||0|0|0734119713||george23_jury@yahoo.com|SBSSWH||1 Sobranie SS White (1mg) Pack|Yes|Yes||CT004932|Toscana SRL |Constanta|CTHRKBA52|137|CCC HRK SOBR FAM 2013|121|Horeca|0
0|CS3389089|2013-05-24 21:36:50|Bejan|Anca||F|1987-06-25|Constanta|CONSTANTA|Hasdeu|94|H2a|A|0|17|0722672303||anca_ana_bejan@yahoo.com|KTNBL||1 Sobranie SS Black (6mg) Pack|Yes|Yes||CT008734|AEGADES|Constanta|CTHRKBA53|137|CCC HRK SOBR FAM 2013|121|Horeca|0
0|CS3389090|2013-05-24 21:38:07|Cocolos|Mihaela||F|1988-04-18|Constanta|CONSTANTA|Garofitei|31|||0|0|0730165115||cocolos.mihaela@gmail.com|KTBL||1 Sobranie KS Black (8mg) Pack|Yes|Yes||CT008734|AEGADES|Constanta|CTHRKBA52|137|CCC HRK SOBR FAM 2013|121|Horeca|0
0|CS3389091|2013-05-24 21:39:15|Arhip|Irina||F|1976-05-10|Bucuresti|1|Neajlovului|60a|||0|0|0765252323||iri76iri@yahoo.com|SBSSPK||1 Sobranie SS Pink (3mg) Pack|Yes|Yes||CT008734|AEGADES|Constanta|CTHRKBA53|137|CCC HRK SOBR FAM 2013|121|Horeca|0
0|CS3389092|2013-05-24 21:40:02|Apetrei|Radu||M|1975-02-27|Constanta|CONSTANTA|Bd mamaia|42|||||0727893753|||PARAB||1 Sobranie KS Black (8mg) Pack|Yes|Yes||CT008734|AEGADES|Constanta|CTHRKBA54|137|CCC HRK SOBR FAM 2013|121|Horeca|0
0|CS3389096|2013-05-24 21:42:08|Lepadatu|Mirela||F|1990-07-01|Constanta|CONSTANTA|Haret|407|||0|0|0723750706|||SBSSBK||1 Sobranie SS Black (6mg) Pack|Yes|Yes||CT008734|AEGADES|Constanta|CTHRKBA54|137|CCC HRK SOBR FAM 2013|121|Horeca|0
0|CS3389099|2013-05-24 21:44:26|Baltatu|Dorin ciprian||M|1981-12-09|Constanta|CONSTANTA|Mircea cel batran|150|||0|0|0761658974|||KTSV||1 Sobranie KS Gold  (4mg) Pack|Yes|Yes||CT008734|AEGADES|Constanta|CTHRKBA52|137|CCC HRK SOBR FAM 2013|121|Horeca|0
0|CS3389100|2013-05-24 21:44:41|Zaheer|Denisa||F|1974-07-24|Constanta|CONSTANTA|Nicolae iorga|28|||0|0|0723260376||denisa_zaher@yahoo.com|SBSSWH||1 Sobranie SS White (1mg) Pack|Yes|Yes||CT008734|AEGADES|Constanta|CTHRKBA53|137|CCC HRK SOBR FAM 2013|121|Horeca|0
0|CS3389102|2013-05-24 21:45:49|Iusco|Corina||F|1974-09-18|Constanta|CONSTANTA|General george manu|81|||0|0|0726456581||corina_iusco@yahoo.com|VOGBL||1 Sobranie SS Black (6mg) Pack|Yes|Yes||CT008734|AEGADES|Constanta|CTHRKBA52|137|CCC HRK SOBR FAM 2013|121|Horeca|0
0|CS3389104|2013-05-24 21:47:43|Ibraim|Emel||F|1981-01-12|Constanta|CONSTANTA|Zefirului|13|Ob6|A|0|4|0724532218||ibraimemi@yahoo.com|VOGBL||1 Sobranie SS Pink (3mg) Pack|Yes|Yes||CT008734|AEGADES|Constanta|CTHRKBA53|137|CCC HRK SOBR FAM 2013|121|Horeca|0
0|CS3389111|2013-05-24 21:51:27|Tarsoaga|Laurentiu||M|1975-05-29|Constanta|CONSTANTA|Pictor nicolae grigorescu|88|||||0722494369|||SBSSWH||1 Sobranie SS White (1mg) Pack|Yes|Yes||CT008734|AEGADES|Constanta|CTHRKBA53|137|CCC HRK SOBR FAM 2013|121|Horeca|0
0|CS3389116|2013-05-24 21:54:04|Neatu|Marian||M|1979-09-26|Constanta|Constanta|Aurel vlaiu|94|||0|0|0727108249||marian.neatu@gmail.com|SBSSPK||1 Sobranie SS Pink (3mg) Pack|Yes|Yes||CT008734|AEGADES|Constanta|CTHRKBA53|137|CCC HRK SOBR FAM 2013|121|Horeca|0
0|CS3389125|2013-05-24 22:01:42|Bileca|Valentin||M|1990-07-22|Constanta|CONSTANTA|Tineretului|26|||0|0|0735111506||bilecusvvali@yahoo.com|KTBL||1 Sobranie KS Black (8mg) Pack+bricheta|Yes|Yes||CT008734|AEGADES|Constanta|CTHRKBA53|137|CCC HRK SOBR FAM 2013|121|Horeca|0
0|CS3389143|2013-05-24 22:21:42|Boznea|Bianca||F|1989-11-04|Constanta|CONSTANTA|Badea cartan|8|Bc12|A|0|0|0723745886||bianca142002@yahoo.com|SBSSPK||1 Sobranie SS Pink (3mg) Pack|Yes|Yes||CT004056|Restaurant Mediteranean SRL |Constanta|CTHRKBA54|137|CCC HRK SOBR FAM 2013|121|Horeca|0
0|CS3389145|2013-05-24 22:22:58|Pricop|Andreea||F|1989-07-06|Constanta|CONSTANTA|Mircea cel batran|45|Fd33|A||54|0756076990||andreea.pricop@yahoo.com|DUNFCBB||1 Sobranie KS Gold  (4mg) Pack|Yes|Yes||CT004056|Restaurant Mediteranean SRL |Constanta|CTHRKBA52|137|CCC HRK SOBR FAM 2013|121|Horeca|0
0|CS3389147|2013-05-24 22:23:16|Capra|Vasile||M|1988-05-26|Constanta|CONSTANTA|Arcului|21|||||0721349468|||KTNBK||1 Sobranie SS Pink (3mg) Pack|Yes|Yes||CT004056|Restaurant Mediteranean SRL |Constanta|CTHRKBA54|137|CCC HRK SOBR FAM 2013|121|Horeca|0
0|CS3389149|2013-05-24 22:24:34|Bujor|Daniel||M|1974-03-09|Constanta|CONSTANTA|Alexandru lapysneanu|177a|||0|0|0722307360|||DUNFCMBB||1 Sobranie KS Blue (6mg) Pack|Yes|Yes||CT004056|Restaurant Mediteranean SRL |Constanta|CTHRKBA52|137|CCC HRK SOBR FAM 2013|121|Horeca|0
0|CS3389151|2013-05-24 22:25:03|Belciulescu|Claudia||F|1984-06-23|Constanta|CONSTANTA|Bd 1. Mai|108|||||0720227187||claditza_84@yahoo.com|SBSSBK||1 Sobranie SS Black (6mg) Pack|Yes|Yes||CT004056|Restaurant Mediteranean SRL |Constanta|CTHRKBA54|137|CCC HRK SOBR FAM 2013|121|Horeca|0
0|CS3389153|2013-05-24 22:25:59|Becheru|Victor||M|1980-11-20|Constanta|CONSTANTA|1decembrie 1908|10|||0|0|0730448440||ct77hvh@yahoo.com|KTSV||1 Sobranie KS Gold  (4mg) Pack+bricheta|Yes|Yes||CT004056|Restaurant Mediteranean SRL |Constanta|CTHRKBA53|137|CCC HRK SOBR FAM 2013|121|Horeca|0
0|CS3389155|2013-05-24 22:26:30|Tanisu|Madalina||F|1981-10-21|Constanta|CONSTANTA|Eliberarii|5|||0|0|0734986521|||VIRSM||1 Sobranie SS Menthol (5 mg) Pack|Yes|Yes||CT004056|Restaurant Mediteranean SRL |Constanta|CTHRKBA52|137|CCC HRK SOBR FAM 2013|121|Horeca|0
0|CS3389156|2013-05-24 22:26:51|Nutu|Laura||F|1989-12-31|Constanta|CONSTANTA|Bd to is|234|||0|0|0724036715|||KTBL||1 Sobranie KS Black (8mg) Pack|Yes|Yes||CT004056|Restaurant Mediteranean SRL |Constanta|CTHRKBA54|137|CCC HRK SOBR FAM 2013|121|Horeca|0
0|CS3389158|2013-05-24 22:28:28|Popa|Alina||F|1986-01-01|Constanta|CONSTANTA|B.p hasdeu|9|||||0745309887|||KTBL||1 Sobranie KS Black (8mg) Pack|Yes|No||CT004056|Restaurant Mediteranean SRL |Constanta|CTHRKBA52|137|CCC HRK SOBR FAM 2013|121|Horeca|0
0|CS3389162|2013-05-24 22:32:45|Constantin|Ioana||F|1985-05-27|Constanta|CONSTANTA|D11|1|||||0723194396||ioana27aud@yahoo.com|SBSSWH||1 Sobranie SS White (1mg) Pack|Yes|Yes||CT004056|Restaurant Mediteranean SRL |Constanta|CTHRKBA54|137|CCC HRK SOBR FAM 2013|121|Horeca|0
0|CS3389164|2013-05-24 22:35:01|Popescu|Lavinia||F|1988-11-18|Constanta|CONSTANTA|Stanjeneilor|3|C1|2||2|0722760614|||VOGLL||1 Sobranie SS Black (6mg) Pack|Yes|Yes||CT004056|Restaurant Mediteranean SRL |Constanta|CTHRKBA52|137|CCC HRK SOBR FAM 2013|121|Horeca|0
0|CS3389165|2013-05-24 22:35:38|Scupra|Constantin||M|1987-11-11|Constanta|CONSTANTA|Bd mamaia|10|||0|0|0726817181||kosty_jupanu@yahoo.com|KTBL6||1 Sobranie KS Blue (6mg) Pack+bricheta|Yes|Yes||CT004056|Restaurant Mediteranean SRL |Constanta|CTHRKBA53|137|CCC HRK SOBR FAM 2013|121|Horeca|0
0|CS3389169|2013-05-24 22:39:10|Mateescu|Miruna||F|1988-11-05|Constanta|CONSTANTA|Eliberarii|39|Ae5b|B|0|27|0763449459|||GLMBL||1 Sobranie SS Pink (3mg) Pack|Yes|Yes||CT004056|Restaurant Mediteranean SRL |Constanta|CTHRKBA53|137|CCC HRK SOBR FAM 2013|121|Horeca|0
0|CS3389170|2013-05-24 22:40:34|Bortan|Adina||F|1987-07-27|Constanta|CONSTANTA|Soveja|69|||||0722574090||adina.bortan@yahoo.com|SBSSBK||1 Sobranie SS Black (6mg) Pack|Yes|Yes||CT004056|Restaurant Mediteranean SRL |Constanta|CTHRKBA54|137|CCC HRK SOBR FAM 2013|121|Horeca|0
0|CS3389172|2013-05-24 22:41:45|Cirjila|Bianca||F|1991-05-30|Constanta|CONSTANTA|Tepes voda|25|||0|0|0736693006||byanca.roxanna@yahoo.com|KTNBK||1 Sobranie SS Pink (3mg) Pack|Yes|Yes||CT004056|Restaurant Mediteranean SRL |Constanta|CTHRKBA53|137|CCC HRK SOBR FAM 2013|121|Horeca|0
0|CS3389174|2013-05-24 22:43:15|Dogaru|Corina||F|1991-11-16|Constanta|CONSTANTA|I g duca|28|||||0724674268||corinutza_d91@yahoo.com|PARRSSH||1 Sobranie SS Black (6mg) Pack|Yes|Yes||CT004056|Restaurant Mediteranean SRL |Constanta|CTHRKBA54|137|CCC HRK SOBR FAM 2013|121|Horeca|0
0|CS3389175|2013-05-24 22:43:59|Boboc|Sorina||F|1990-03-24|Constanta|CONSTANTA|Mamaia|160|||||0734227658|||VIRSM||1 Sobranie SS Menthol (5 mg) Pack|Yes|Yes||CT004056|Restaurant Mediteranean SRL |Constanta|CTHRKBA53|137|CCC HRK SOBR FAM 2013|121|Horeca|0
0|CS3389177|2013-05-24 22:46:12|Dinca|Andreea||F|1992-08-15|Constanta|CONSTANTA|Umbrei|2|||0|0|0727959453||deya_am@yahoo.com|VOGLL||1 Sobranie SS Pink (3mg) Pack|Yes|Yes||CT004056|Restaurant Mediteranean SRL |Constanta|CTHRKBA54|137|CCC HRK SOBR FAM 2013|121|Horeca|0
0|CS3389178|2013-05-24 22:47:10|Manescu|Georgiana||F|1989-02-23|Constanta|CONSTANTA|Corneliu copisu|13|||0|0|0726417318|||SBSSPK||1 Sobranie SS Pink (3mg) Pack+voucheryaki|Yes|Yes||CT004056|Restaurant Mediteranean SRL |Constanta|CTHRKBA53|137|CCC HRK SOBR FAM 2013|121|Horeca|0
0|CS3389179|2013-05-24 22:47:29|Cretu|Valentina||F|1987-07-01|Constanta|CONSTANTA|Daliei|44|||||0756078667||cretu.crt@yahoo.com|KTNWH||1 Sobranie SS White (1mg) Pack|Yes|Yes||CT004056|Restaurant Mediteranean SRL |Constanta|CTHRKBA52|137|CCC HRK SOBR FAM 2013|121|Horeca|0
0|CS3389180|2013-05-24 22:51:00|Menagi|Ailin||F|1995-03-31|Constanta|CONSTANTA|Brizei|16|Fd3|C||66|0736472476||a.menagi@yahoo.com|SBSSMN||1 Sobranie SS Menthol (5 mg) Pack|Yes|Yes||CT004056|Restaurant Mediteranean SRL |Constanta|CTHRKBA52|137|CCC HRK SOBR FAM 2013|121|Horeca|0
0|CS3389181|2013-05-24 22:52:31|Musat|Sebastian||M|1993-09-05|Constanta|CONSTANTA|Albatrosului|4|||||0720236205||sebiteo@yahoo.com|KTBL6||1 Sobranie KS Blue (6mg) Pack|Yes|Yes||CT004056|Restaurant Mediteranean SRL |Constanta|CTHRKBA53|137|CCC HRK SOBR FAM 2013|121|Horeca|0
0|CS3389182|2013-05-24 22:56:36|Jicmon|Madalina||F|1985-11-26|Constanta|MANGALIA|Soveja|31||A|2|32|0722953551||mada_2685@yahoo.com|SBSSWH||1 Sobranie SS White (1mg) Pack+voucheryaki|Yes|Yes||CT004056|Restaurant Mediteranean SRL |Constanta|CTHRKBA53|137|CCC HRK SOBR FAM 2013|121|Horeca|0
0|CS3389190|2013-05-24 23:12:14|Tutuianu|Eduard||M|1987-04-01|Constanta|CONSTANTA|Banu mihalcea|21|||||0726784334|||SBKSBL||1 Sobranie KS Blue (6mg) Pack|Yes|Yes||CT000708|AMI COM SRL|Constanta|CTHRKBA54|137|CCC HRK SOBR FAM 2013|121|Horeca|0
0|CS3389194|2013-05-24 23:13:54|Runcan|Virgil||M|1968-07-22|Constanta|CONSTANTA|Lahovari|84|||0|0|0743115942|||KTSV||1 Sobranie KS Gold  (4mg) Pack|Yes|Yes||CT000708|AMI COM SRL|Constanta|CTHRKBA54|137|CCC HRK SOBR FAM 2013|121|Horeca|0
0|CS3389195|2013-05-24 23:14:27|Radu|Miruna||F|1988-09-24|Constanta|CONSTANTA|Zorelelor|44|||||0756098709|||KTBL||1 Sobranie KS Blue (6mg) Pack|Yes|No||CT000708|AMI COM SRL|Constanta|CTHRKBA52|137|CCC HRK SOBR FAM 2013|121|Horeca|0
0|CS3389197|2013-05-24 23:15:32|Petre|Monica||F|1975-07-29|Constanta|CONSTANTA|Tomis|256|||0|0|0799588342|||VIRSPR||1 Sobranie SS Black (6mg) Pack|Yes|Yes||CT000708|AMI COM SRL|Constanta|CTHRKBA54|137|CCC HRK SOBR FAM 2013|121|Horeca|0
0|CS3389198|2013-05-24 23:16:16|Epifan|Simona||F|1985-10-06|Constanta|Constanta|Soveja|102|52|A|0|0|0746243186||epifansimona@yahoo.com|VOGLL||1 Sobranie SS Black (6mg) Pack|Yes|Yes||CT000708|AMI COM SRL|Constanta|CTHRKBA52|137|CCC HRK SOBR FAM 2013|121|Horeca|0
0|CS3389200|2013-05-24 23:18:20|Voiculescu|Ioana||F|1987-08-25|Constanta|CONSTANTA|Dezrobirii|90c|||||0720170842|||VOGABP||1 Sobranie SS Black (6mg) Pack|Yes|Yes||CT000708|AMI COM SRL|Constanta|CTHRKBA54|137|CCC HRK SOBR FAM 2013|121|Horeca|0
0|CS3389202|2013-05-24 23:18:38|Catruna|Iulian||M|1983-06-30|Constanta|CONSTANTA|B.P Hasdeu|112|||||0724306400||rila_9_cat@yahoo.com|MBRGL||1 Sobranie KS Gold  (4mg) Pack+bricheta|Yes|Yes||CT000708|AMI COM SRL|Constanta|CTHRKBA53|137|CCC HRK SOBR FAM 2013|121|Horeca|0
0|CS3389203|2013-05-24 23:21:20|Traila|Corina||F|1985-02-21|Constanta|CONSTANTA|Teodor sperantia|24|C3|A||39|0766425020||corina_traila@yahoo.com|SBSSWH||1 Sobranie SS White (1mg) Pack|Yes|Yes||CT000708|AMI COM SRL|Constanta|CTHRKBA52|137|CCC HRK SOBR FAM 2013|121|Horeca|0
0|CS3389206|2013-05-24 23:22:36|Goga|Aura||F|1991-05-21|Constanta|CONSTANTA|Mircea|81|Ms3b|A|0|8|0746134852||goga_aura_91@yahoo.com|SBSSMN||1 Sobranie SS Menthol (5 mg) Pack|Yes|Yes||CT000708|AMI COM SRL|Constanta|CTHRKBA54|137|CCC HRK SOBR FAM 2013|121|Horeca|0
0|CS3389210|2013-05-24 23:25:53|Teodoreanu|Ionel||M|1954-02-28|Constanta|CONSTANTA|Aurel vlaicu|34|||||0773490524|||MBRRD||1 Sobranie KS Black (8mg) Pack+bricheta|Yes|Yes||CT000708|AMI COM SRL|Constanta|CTHRKBA53|137|CCC HRK SOBR FAM 2013|121|Horeca|0
0|CS3389211|2013-05-24 23:26:10|Alina|Fersedi||F|1980-12-30|Constanta|CONSTANTA|Tomis|144|Td34|A||9|0721247598||alina_fersedi@yahoo.com|SBSSWH||1 Sobranie SS White (1mg) Pack|Yes|Yes||CT000708|AMI COM SRL|Constanta|CTHRKBA52|137|CCC HRK SOBR FAM 2013|121|Horeca|0
0|CS3389212|2013-05-24 23:28:28|Olteanu|Andreea Larisa||F|1993-03-09|Constanta|CONSTANTA|Aleea garofitei|13|||||0733655744||lary.ssaaa@yahoo.com|SBSSMN||1 Sobranie SS Menthol (5 mg) Pack|Yes|Yes||CT000708|AMI COM SRL|Constanta|CTHRKBA54|137|CCC HRK SOBR FAM 2013|121|Horeca|0
0|CS3389213|2013-05-24 23:28:44|Radu|Carmen||F|1964-05-30|Constanta|CONSTANTA|Ferdinand|89|A3|B|1|41|0766361900||rcarmen4@gmail.com|SBKSGD||1 Sobranie KS Gold  (4mg) Pack|Yes|Yes||CT000708|AMI COM SRL|Constanta|CTHRKBA52|137|CCC HRK SOBR FAM 2013|121|Horeca|0
0|CS3389214|2013-05-24 23:31:09|Jitea|Roxana||F|1989-12-28|Constanta|CONSTANTA|Aleea hirtensiei|19|||||0735478151||roxana.jitea@yahoo.com|DAVGL||1 Sobranie KS Blue (6mg) Pack|Yes|Yes||CT000708|AMI COM SRL|Constanta|CTHRKBA54|137|CCC HRK SOBR FAM 2013|121|Horeca|0
0|CS3389215|2013-05-24 23:34:06|Dragan|Andreia||F|1978-10-21|Constanta|CONSTANTA|Suceava|8|U2|B|0|21|0752158694||dragan_andreia@yahoo.com|VOGLL||1 Sobranie SS Pink (3mg) Pack|Yes|Yes||CT000708|AMI COM SRL|Constanta|CTHRKBA53|137|CCC HRK SOBR FAM 2013|121|Horeca|0
0|CS3389217|2013-05-24 23:34:39|Nae|Catalin||M|1972-01-19|Constanta|CONSTANTA|Tomis|255|||0|0|0722443956|||SBKSGD||1 Sobranie KS Gold  (4mg) Pack|Yes|Yes||CT000708|AMI COM SRL|Constanta|CTHRKBA54|137|CCC HRK SOBR FAM 2013|121|Horeca|0
0|CS3389218|2013-05-24 23:35:59|Coman|Georgiana||F|1982-01-06|Constanta|CONSTANTA|Dreptatii|1|O|E|0|45|0722887942||georgiana_coman@yahoo.com|SBSSBK||1 Sobranie SS Black (6mg) Pack|Yes|Yes||CT000708|AMI COM SRL|Constanta|CTHRKBA53|137|CCC HRK SOBR FAM 2013|121|Horeca|0
0|CS3389219|2013-05-24 23:37:35|Gaitan|Alina||F|1991-01-30|Constanta|CONSTANTA|Hortensiei|12|C4|B|7|76|0732646826||allyloventage@yahoo.com|KTNBL||1 Sobranie SS Black (6mg) Pack|Yes|Yes||CT000708|AMI COM SRL|Constanta|CTHRKBA53|137|CCC HRK SOBR FAM 2013|121|Horeca|0
0|CS3389220|2013-05-24 23:38:43|Ichim|Ciprian||M|1986-10-08|Constanta|Constanta|Hortensiei|16|||0|0|0733001477||cipi2k@yahoo.com|DUNFCSB||1 Sobranie KS Black (8mg) Pack|Yes|Yes||CT000708|AMI COM SRL|Constanta|CTHRKBA54|137|CCC HRK SOBR FAM 2013|121|Horeca|0
0|CS3389221|2013-05-24 23:39:16|Popov|Mirela||F|1984-09-24|Constanta|CONSTANTA|Il caragiale|56|||||0756454309||mirela.popov@yahoo.com|VIRSPR||1 Sobranie SS Black (6mg) Pack|Yes|Yes||CT000708|AMI COM SRL|Constanta|CTHRKBA52|137|CCC HRK SOBR FAM 2013|121|Horeca|0
0|CS3389222|2013-05-24 23:42:42|Vlahbei|Elenis||F|1989-10-05|Constanta|CONSTANTA|I ghe duca|40|||0|0|0727196068||v.elenis@yahoo.com|KTNWH||1 Sobranie SS White (1mg) Pack|Yes|Yes||CT000708|AMI COM SRL|Constanta|CTHRKBA52|137|CCC HRK SOBR FAM 2013|121|Horeca|0
0|CS3389223|2013-05-24 23:43:35|Gafton|Oana||F|1991-07-19|Constanta|CONSTANTA|Fagetului|18|||||0723789659||oana.gafton@gmail.com|SBSSPK||1 Sobranie SS Pink (3mg) Pack|Yes|Yes||CT000708|AMI COM SRL|Constanta|CTHRKBA54|137|CCC HRK SOBR FAM 2013|121|Horeca|0
0|CS3389226|2013-05-24 23:45:24|Cas|Georgiana||F|1991-04-06|Constanta|CONSTANTA|Pescarilor|1|||||0736667194|||SBSSBK||1 Sobranie SS Black (6mg) Pack+voucheryaki|Yes|Yes||CT000708|AMI COM SRL|Constanta|CTHRKBA53|137|CCC HRK SOBR FAM 2013|121|Horeca|0
0|CS3389231|2013-05-24 23:50:19|Carbune|Dragos||M|1977-11-03|Constanta|CONSTANTA|000|00|||||0744161616|||KTBL||1 Sobranie KS Black (8mg) Pack|Yes|Yes||CT000708|AMI COM SRL|Constanta|CTHRKBA53|137|CCC HRK SOBR FAM 2013|121|Horeca|0
0|CS3389233|2013-05-24 23:50:59|Ionita|Andrei||M|1986-11-26|Constanta|MEDGIDIA|Dorobanti|1b|||0|0|0765416553||andrei_bubu20@yahoo.com|SBKSGD||1 Sobranie KS Gold  (4mg) Pack|Yes|Yes||CT000708|AMI COM SRL|Constanta|CTHRKBA52|137|CCC HRK SOBR FAM 2013|121|Horeca|0
0|CS3389235|2013-05-24 23:53:57|Munteanu|Dana||F|1986-03-16|Constanta|CONSTANTA|Jupiter|2c|||0|0|0723508788|||SBSSWH||1 Sobranie SS White (1mg) Pack+voucheryaki|Yes|Yes||CT000708|AMI COM SRL|Constanta|CTHRKBA53|137|CCC HRK SOBR FAM 2013|121|Horeca|0
0|CS3389241|2013-05-25 00:01:12|Jipa|Andreea||F|1982-06-06|Constanta|Constanta|Mamaia|83|Ls5|A|0|7|0723705976||vv_andr33a@yagoo.com|SBSSPK||1 Sobranie SS Pink (3mg) Pack|Yes|Yes||CT000708|AMI COM SRL|Constanta|CTHRKBA53|137|CCC HRK SOBR FAM 2013|121|Horeca|0
0|CS3389243|2013-05-25 00:07:09|Marencu|Liliana||F|1982-06-17|Constanta|CONSTANTA|Soveja|64|||0|0|0727317779|||SBSSWH||1 Sobranie SS White (1mg) Pack|Yes|Yes||CT000708|AMI COM SRL|Constanta|CTHRKBA53|137|CCC HRK SOBR FAM 2013|121|Horeca|0
0|CS3390315|2013-05-25 20:04:15|Vasilescu|Lucian||M|1981-07-24|Constanta|Constanta|Mamaia|68|||0|0|0748221504||caric81@yahoo.com|DUNFCMBB||1 Sobranie KS Blue (6mg) Pack|Yes|Yes||CT005185|Filozofie Urbana SRL|Constanta|CTHRKBA53|137|CCC HRK SOBR FAM 2013|121|Horeca|0
0|CS3390316|2013-05-25 20:05:14|Neagu|Victoria||F|1990-02-04|Bucuresti|SECTOR 2|Vasile Conta|3|1|C|8|85|0723808532||victoria.neagu@gmail.com|SBSSWH||1 Sobranie SS White (1mg) Pack|Yes|Yes||CT005185|Filozofie Urbana SRL|Constanta|CTHRKBA54|137|CCC HRK SOBR FAM 2013|121|Horeca|0
0|CS3390318|2013-05-25 20:06:06|Baciu|Maria||F|1986-07-14|Constanta|CONSTANTA|Soveja|106|40b|A|4|11|0744339637||judith.baciu@gmail.com|VIRSM||1 Sobranie SS Menthol (5 mg) Pack|Yes|No||CT005185|Filozofie Urbana SRL|Constanta|CTHRKBA52|137|CCC HRK SOBR FAM 2013|121|Horeca|0
0|CS3390321|2013-05-25 20:07:37|Toloman|Claudia||F|1986-04-29|Constanta|CONSTANTA|Aleea garofitei|12|||||0727886906||clauia_macis@gmail.com|VOGBL||1 Sobranie SS Black (6mg) Pack|Yes|Yes||CT005185|Filozofie Urbana SRL|Constanta|CTHRKBA54|137|CCC HRK SOBR FAM 2013|121|Horeca|0
0|CS3390323|2013-05-25 20:07:54|Florea|Alexandru||M|1990-02-11|Constanta|CONSTANTA|Buciumului|6|||0|0|0721539304||al3ics@yahoo.com|KTBL||1 Sobranie KS Black (8mg) Pack+parfum|Yes|Yes||CT005185|Filozofie Urbana SRL|Constanta|CTHRKBA53|137|CCC HRK SOBR FAM 2013|121|Horeca|0
0|CS3390324|2013-05-25 20:08:16|Petrescu|Marian||M|1986-08-03|Tulcea|Tulcea|Zorilor|56|||||0754309899||marian.petre@yahoo.com|KTSV||1 Sobranie KS Blue (6mg) Pack|Yes|Yes||CT005185|Filozofie Urbana SRL|Constanta|CTHRKBA52|137|CCC HRK SOBR FAM 2013|121|Horeca|0
0|CS3390329|2013-05-25 20:10:02|Porosniu|Radu||M|1987-02-11|Constanta|CONSTANTA|Vasile lucaciu|10|||0|0|0724501859|||KTSV||1 Sobranie KS Gold  (4mg) Pack|Yes|Yes||CT005185|Filozofie Urbana SRL|Constanta|CTHRKBA54|137|CCC HRK SOBR FAM 2013|121|Horeca|0
0|CS3390330|2013-05-25 20:10:47|Vlasiu|AndreeA||F|1984-08-03|Constanta|CONSTANTA|D5|7|||0|0|0745743434||ablasiu@yahoo.com|KTNWH||1 Sobranie SS White (1mg) Pack|Yes|Yes||CT005185|Filozofie Urbana SRL|Constanta|CTHRKBA53|137|CCC HRK SOBR FAM 2013|121|Horeca|0
0|CS3390333|2013-05-25 20:11:48|Lipan|Alina||F|1984-07-23|Constanta|CONSTANTA|Orhideelor|7|||||0767449035|||DUNFCMBB||1 Sobranie KS Blue (6mg) Pack|Yes|No||CT005185|Filozofie Urbana SRL|Constanta|CTHRKBA54|137|CCC HRK SOBR FAM 2013|121|Horeca|0
0|CS3390339|2013-05-25 20:13:31|Baciu|Iulia||F|1989-09-04|Constanta|Constanta|Hatman Arbore|44|0|0|0|0|0726456705||iulia_bro@yahoo.com|SBSSPK||1 Sobranie SS Pink (3mg) Pack|Yes|No||CT005185|Filozofie Urbana SRL|Constanta|CTHRKBA53|137|CCC HRK SOBR FAM 2013|121|Horeca|0
0|CS3390341|2013-05-25 20:14:00|Stoiciu|Dana||F|1989-04-07|Constanta|CONSTANTA|Aleea heracleea|1|||||0751152892||d_a_n_as@yahoo.com|DUNFCBB||1 Sobranie KS Gold  (4mg) Pack|Yes|Yes||CT005185|Filozofie Urbana SRL|Constanta|CTHRKBA52|137|CCC HRK SOBR FAM 2013|121|Horeca|0
0|CS3390352|2013-05-25 20:17:38|Iibram|Chenan||M|1986-06-14|Constanta|MEDGIDIA|Poligonul viilor|45|||0|0|0761038968||ibramkenan@gmail.com|DUNFCMBB||1 Sobranie KS Blue (6mg) Pack|Yes|Yes||CT005185|Filozofie Urbana SRL|Constanta|CTHRKBA52|137|CCC HRK SOBR FAM 2013|121|Horeca|0
0|CS3390389|2013-05-25 20:39:41|Spiridon|Andrei||M|1980-05-07|Constanta|CONSTANTA|Mihail jora|2|Bn9|A|1|6|0723503699||spirosthebest@yahoo.co.uk|DUNFCBB||1 Sobranie KS Gold  (4mg) Pack|Yes|Yes||CT004932|Toscana SRL |Constanta|CTHRKBA53|137|CCC HRK SOBR FAM 2013|121|Horeca|0
0|CS3390390|2013-05-25 20:39:48|Oprea|Elena||F|1983-06-26|Constanta|CONSTANTA|Primaverii|53|||||0724568990||elena.oprea@gmail.com|SBSSBK||1 Sobranie SS Black (6mg) Pack|Yes|Yes||CT004932|Toscana SRL |Constanta|CTHRKBA54|137|CCC HRK SOBR FAM 2013|121|Horeca|0
0|CS3390398|2013-05-25 20:41:52|Luca|Mirela||F|1985-06-13|Constanta|CONSTANTA|Liliacului|54|||||0766459077||mirela.luca@yahoo.com|PARRSSH||1 Sobranie SS Black (6mg) Pack|Yes|No||CT004932|Toscana SRL |Constanta|CTHRKBA52|137|CCC HRK SOBR FAM 2013|121|Horeca|0
0|CS3390399|2013-05-25 20:41:59|Ion|Cezar||M|1984-08-20|Constanta|CONSTANTA|Aleea murelor|27|||||0788649532|||PARAB||1 Sobranie KS Black (8mg) Pack|Yes|Yes||CT004932|Toscana SRL |Constanta|CTHRKBA54|137|CCC HRK SOBR FAM 2013|121|Horeca|0
0|CS3390405|2013-05-25 20:43:33|Ionita|Andra||F|1983-12-19|Constanta|CONSTANTA|Eliberarii|35|||0|0|0765416553|||VIRSM||1 Sobranie SS Menthol (5 mg) Pack|Yes|Yes||CT004932|Toscana SRL |Constanta|CTHRKBA52|137|CCC HRK SOBR FAM 2013|121|Horeca|0
0|CS3390407|2013-05-25 20:43:45|Balan|Elena||F|1984-09-10|Constanta|CONSTANTA|Aurel vlaicu|34|||||0733965552|||DAVGLS||1 Sobranie SS Black (6mg) Pack|Yes|Yes||CT004932|Toscana SRL |Constanta|CTHRKBA53|137|CCC HRK SOBR FAM 2013|121|Horeca|0
0|CS3390408|2013-05-25 20:44:08|Rotaru|Alina||F|1987-03-28|Constanta|CONSTANTA|I c bratianu|69|||||0724789649|||VIRSPR||1 Sobranie SS Black (6mg) Pack|Yes|Yes||CT004932|Toscana SRL |Constanta|CTHRKBA54|137|CCC HRK SOBR FAM 2013|121|Horeca|0
0|CS3390415|2013-05-25 20:45:46|Cucona|Claudia||F|1981-05-28|Constanta|Constanta|Hasdeu|104|||0|0|0755740800||claudiacucona@yahoo.com|SBSSPK||1 Sobranie SS Pink (3mg) Pack|Yes|Yes||CT004932|Toscana SRL |Constanta|CTHRKBA54|137|CCC HRK SOBR FAM 2013|121|Horeca|0
0|CS3390417|2013-05-25 20:47:00|Solomon|Costel||M|1979-07-03|Constanta|CONSTANTA|Austrului|4|Fb4|E||60|0735287783||sol_dao_intermed@yahoo.com|SBSSWH||1 Sobranie SS White (1mg) Pack|Yes|Yes||CT004932|Toscana SRL |Constanta|CTHRKBA52|137|CCC HRK SOBR FAM 2013|121|Horeca|0
0|CS3390423|2013-05-25 20:47:43|Cucona|Cristian||M|1981-05-28|Constanta|CONSTANTA|X|X|||||0749407951|||SBKSBL||1 Sobranie KS Blue (6mg) Pack|Yes|Yes||CT004932|Toscana SRL |Constanta|CTHRKBA54|137|CCC HRK SOBR FAM 2013|121|Horeca|0
0|CS3390430|2013-05-25 20:50:32|Giosanu|Mihai||M|1982-06-06|Constanta|CONSTANTA|Austrului|4|||||0721859313||nihay.myhai@yahoo.com|SBSSWH||1 Sobranie SS White (1mg) Pack|Yes|Yes||CT004932|Toscana SRL |Constanta|CTHRKBA54|137|CCC HRK SOBR FAM 2013|121|Horeca|0
0|CS3390435|2013-05-25 20:52:05|Benchia|Nicoleta||F|1979-06-30|Constanta|CONSTANTA|Austrului|4|||||0768901499|||SBSSWH||1 Sobranie SS White (1mg) Pack|Yes|Yes||CT004932|Toscana SRL |Constanta|CTHRKBA54|137|CCC HRK SOBR FAM 2013|121|Horeca|0
0|CS3390440|2013-05-25 20:53:58|Udila|Mihaela||F|1989-03-04|Constanta|CONSTANTA|Bd manaia|228|||||0726785664|||VOGLL||1 Sobranie SS Pink (3mg) Pack|Yes|Yes||CT004932|Toscana SRL |Constanta|CTHRKBA54|137|CCC HRK SOBR FAM 2013|121|Horeca|0
0|CS3390444|2013-05-25 20:54:36|Caramisin|Dragos||M|1978-10-10|Constanta|CONSTANTA|Pescari.or|91|||||0721881889|||SBSSBK||1 Sobranie SS Black (6mg) Pack+parfum|Yes|Yes||CT004932|Toscana SRL |Constanta|CTHRKBA53|137|CCC HRK SOBR FAM 2013|121|Horeca|0
0|CS3390449|2013-05-25 20:55:36|Solomon|Andreea||F|1990-10-09|Constanta|CONSTANTA|Austrului|4|||||0760280725||andreiutza_puffy@yahoo.com|SBSSPK||1 Sobranie SS Pink (3mg) Pack|Yes|Yes||CT004932|Toscana SRL |Constanta|CTHRKBA52|137|CCC HRK SOBR FAM 2013|121|Horeca|0
0|CS3390452|2013-05-25 20:56:59|Radu|Diana||F|1990-04-25|Constanta|CONSTANTA|Mircea cel batran|84|Mf1|A|3|11|0726797216||diana_elena_90@yahoo.com|SBSSPK||1 Sobranie SS Pink (3mg) Pack|Yes|Yes||CT004932|Toscana SRL |Constanta|CTHRKBA52|137|CCC HRK SOBR FAM 2013|121|Horeca|0
0|CS3390462|2013-05-25 21:07:36|Pricop|Oana||F|1984-10-18|Iasi|IASI|Constantin mavrocordat|57a|||0|0|0746223582||oana_and_2006@yahoo.com|SBSSWH||1 Sobranie SS White (1mg) Pack|Yes|Yes||CT004932|Toscana SRL |Constanta|CTHRKBA53|137|CCC HRK SOBR FAM 2013|121|Horeca|0
0|CS3390467|2013-05-25 21:10:53|Craciun|Anca||F|1985-06-06|Constanta|CONSTANTA|Unirii|114|||0|0|0751456564||craciunanca@yahoo.com|GLMLIL||1 Sobranie SS Black (6mg) Pack|Yes|Yes||CT004932|Toscana SRL |Constanta|CTHRKBA53|137|CCC HRK SOBR FAM 2013|121|Horeca|0
0|CS3390470|2013-05-25 21:12:06|Zelca|Tani||M|1984-07-16|Constanta|Constanta|X|X|||0|0|0720396959||tanizlk@yahoo.com|KTNWH||1 Sobranie SS Pink (3mg) Pack|Yes|Yes||CT004932|Toscana SRL |Constanta|CTHRKBA52|137|CCC HRK SOBR FAM 2013|121|Horeca|0
0|CS3390500|2013-05-25 21:27:03|Topor|Nicoleta||F|1988-02-12|Constanta|CONSTANTA|Lapusneanu|34|||||0734226549|||VOGBL||1 Sobranie SS Black (6mg) Pack|Yes|Yes||CT008734|AEGADES|Constanta|CTHRKBA53|137|CCC HRK SOBR FAM 2013|121|Horeca|0
0|CS3390506|2013-05-25 21:29:37|Marcus|Simona||F|1984-10-27|Constanta|CONSTANTA|Zmeurei|11|||||0723686389||marscus.simona@yahoo.com|DAVGLS||1 Sobranie SS Black (6mg) Pack|Yes|Yes||CT008734|AEGADES|Constanta|CTHRKBA54|137|CCC HRK SOBR FAM 2013|121|Horeca|0
0|CS3390516|2013-05-25 21:32:43|Conduran|Vasile Mihai||M|1983-06-13|Constanta|CONSTANTA|Decebal|28|||||0765784559||conduran.mihai83@gmail.com|KTBL||1 Sobranie KS Black (8mg) Pack|Yes|Yes||CT008734|AEGADES|Constanta|CTHRKBA54|137|CCC HRK SOBR FAM 2013|121|Horeca|0
0|CS3390518|2013-05-25 21:33:00|Sora|Alexandra||F|1987-08-31|Bucuresti|SECTOR 1|Octav cocarascu|54|||||0723881292|||GLMMNT||1 Sobranie SS Menthol (5 mg) Pack+parfum|Yes|Yes||CT008734|AEGADES|Constanta|CTHRKBA53|137|CCC HRK SOBR FAM 2013|121|Horeca|0
0|CS3390521|2013-05-25 21:35:09|Caldare|Veronica||F|1988-12-17|Constanta|Constanta|Dezrobirii|10|||0|0|0747777707|||KTSV||1 Sobranie KS Gold  (4mg) Pack|Yes|Yes||CT008734|AEGADES|Constanta|CTHRKBA52|137|CCC HRK SOBR FAM 2013|121|Horeca|0
0|CS3390522|2013-05-25 21:35:16|Danciu|Madalina||F|1979-08-19|Constanta|CONSTANTA|Cuza voda|48|||||0724221455||madalina_danciu79@ymail.com|SBSSPK||1 Sobranie SS Pink (3mg) Pack|Yes|Yes||CT008734|AEGADES|Constanta|CTHRKBA54|137|CCC HRK SOBR FAM 2013|121|Horeca|0
0|CS3390526|2013-05-25 21:37:17|Pulha|Serban||M|1985-09-23|Constanta|CONSTANTA|Dezrobirii|45|Fc12|A||3|0746309665||pulha.serban@yahoo.com|SBKSBK||1 Sobranie KS Black (8mg) Pack|Yes|Yes||CT008734|AEGADES|Constanta|CTHRKBA52|137|CCC HRK SOBR FAM 2013|121|Horeca|0
0|CS3390532|2013-05-25 21:39:56|Panait|Miron||M|1985-04-04|Constanta|CONSTANTA|Bucuresti|23|||||0745338762|||SBKSGD||1 Sobranie KS Gold  (4mg) Pack|Yes|Yes||CT008734|AEGADES|Constanta|CTHRKBA53|137|CCC HRK SOBR FAM 2013|121|Horeca|0
0|CS3390533|2013-05-25 21:40:06|Ciciu|Dani||M|1987-05-12|Constanta|Constanta|Slt bogdan vasile|1|||0|0|0728538218||ciciu_dani@yahoo.com|DAVGL||1 Sobranie KS Blue (6mg) Pack|Yes|Yes||CT008734|AEGADES|Constanta|CTHRKBA52|137|CCC HRK SOBR FAM 2013|121|Horeca|0
0|CS3390536|2013-05-25 21:42:35|MOLOCI|GABRIEL||M|1975-01-30|Constanta|CONSTANTA|ȘTEFAN CEL MARE|44|M16|A|4|17|0723325443||gabi_moloci@yahoo.com|KTSV||1 Sobranie KS Gold  (4mg) Pack|Yes|Yes||CT008734|AEGADES|Constanta|CTHRKBA52|137|CCC HRK SOBR FAM 2013|121|Horeca|0
0|CS3390540|2013-05-25 21:44:06|Patrascu|Ioana||F|1988-03-07|Constanta|CONSTANTA|Pescarilor|67|||||0786509899||ioana.patrascu@yahoo.com|VIRSM||1 Sobranie SS Menthol (5 mg) Pack|Yes|Yes||CT008734|AEGADES|Constanta|CTHRKBA52|137|CCC HRK SOBR FAM 2013|121|Horeca|0
0|CS3390563|2013-05-25 22:02:00|Tapu|Elena||F|1991-05-08|Constanta|CONSTANTA|Bd Al. Lapusneanu|97|||0|0|0736633800||el3nyta_91@yahoo.com|VOGLL||1 Sobranie SS Pink (3mg) Pack|Yes|Yes||CT004056|Restaurant Mediteranean SRL |Constanta|CTHRKBA54|137|CCC HRK SOBR FAM 2013|121|Horeca|0
0|CS3390565|2013-05-25 22:02:46|Tit|Alexandru||M|1991-03-30|Constanta|CONSTANTA|Lirei|8|||0|0|0727996962||alexx_love_p6@yahoo.com|SBKSBK||1 Sobranie KS Black (8mg) Pack|Yes|Yes||CT004056|Restaurant Mediteranean SRL |Constanta|CTHRKBA52|137|CCC HRK SOBR FAM 2013|121|Horeca|0
0|CS3390566|2013-05-25 22:03:25|Branza|Robert||M|1993-08-17|Constanta|CONSTANTA|Dezrobirii|30|Dr12|C|0|32|0735474401||romania_attitude@yahoo.com|SBKSGD||1 Sobranie KS Gold  (4mg) Pack|Yes|Yes||CT004056|Restaurant Mediteranean SRL |Constanta|CTHRKBA54|137|CCC HRK SOBR FAM 2013|121|Horeca|0
0|CS3390567|2013-05-25 22:04:32|Timofei|Elvira||F|1988-11-27|Constanta|CONSTANTA|Lotusului|14|||0|0|0730225726||elviraels@yahoo.com|KTBL||1 Sobranie KS Black (8mg) Pack|Yes|No||CT004056|Restaurant Mediteranean SRL |Constanta|CTHRKBA52|137|CCC HRK SOBR FAM 2013|121|Horeca|0
0|CS3390568|2013-05-25 22:04:46|Turcu|Daniela||F|1986-01-01|Constanta|CONSTANTA|Pelicanului|12|||||0746338764|||SBSSWH||1 Sobranie SS White (1mg) Pack|Yes|Yes||CT004056|Restaurant Mediteranean SRL |Constanta|CTHRKBA53|137|CCC HRK SOBR FAM 2013|121|Horeca|0
0|CS3390569|2013-05-25 22:04:57|Iacob|Stefan||M|1990-10-28|Constanta|CONSTANTA|Cismelei|18|||||0721344879|||DUNFCMBR||1 Sobranie KS Black (8mg) Pack|Yes|Yes||CT004056|Restaurant Mediteranean SRL |Constanta|CTHRKBA54|137|CCC HRK SOBR FAM 2013|121|Horeca|0
0|CS3390572|2013-05-25 22:06:02|Vranceanu|Emanuela||F|1987-11-24|Constanta|CONSTANTA|Curcubeului|23|D|3||22|0765098709||ema.vr@yahoo.com|KTSV||1 Sobranie KS Gold  (4mg) Pack|Yes|Yes||CT004056|Restaurant Mediteranean SRL |Constanta|CTHRKBA52|137|CCC HRK SOBR FAM 2013|121|Horeca|0
0|CS3390574|2013-05-25 22:06:52|Aiden|Mustafa||F|1976-12-20|Constanta|CONSTANTA|Tulcei|15|S6|A|0|11|0722450799||ayten_m@hotmail.com|DUNFCMBB||1 Sobranie KS Blue (6mg) Pack|Yes|Yes||CT004056|Restaurant Mediteranean SRL |Constanta|CTHRKBA53|137|CCC HRK SOBR FAM 2013|121|Horeca|0
0|CS3390576|2013-05-25 22:09:04|Ergun|Elis||F|1991-08-16|Constanta|CONSTANTA|Maramures|47|||||0721338906||elis_ergun91@yahoo.com|SBSSWH||1 Sobranie SS White (1mg) Pack|Yes|Yes||CT004056|Restaurant Mediteranean SRL |Constanta|CTHRKBA54|137|CCC HRK SOBR FAM 2013|121|Horeca|0
0|CS3390578|2013-05-25 22:09:14|Hapei|Laura||F|1987-08-04|Constanta|LUMINA|Murelor|19|||0|0|0724773768||lolita_numer_1@yahoo.com|KTBL||1 Sobranie KS Black (8mg) Pack|Yes|Yes||CT004056|Restaurant Mediteranean SRL |Constanta|CTHRKBA52|137|CCC HRK SOBR FAM 2013|121|Horeca|0
0|CS3390581|2013-05-25 22:11:14|Radu|Cosmina||F|1987-02-02|Constanta|CONSTANTA|Bd. Al. Lapusneanu|90|||||0723578435||cosmyna87_pasy@yahoo.com|KTBL||1 Sobranie KS Blue (6mg) Pack|Yes|Yes||CT004056|Restaurant Mediteranean SRL |Constanta|CTHRKBA54|137|CCC HRK SOBR FAM 2013|121|Horeca|0
0|CS3390582|2013-05-25 22:12:29|Mihale|Angelica||F|1986-05-27|Constanta|CONSTANTA|Oituz|15|||0|0|0721803191||angymihale@yahoo.com|SBSSWH||1 Sobranie SS White (1mg) Pack|Yes|Yes||CT004056|Restaurant Mediteranean SRL |Constanta|CTHRKBA53|137|CCC HRK SOBR FAM 2013|121|Horeca|0
0|CS3390587|2013-05-25 22:15:43|Vasiliev|Lucian||M|1962-01-28|Constanta|CONSTANTA|Stefan cel mare|44|M||||0727001010|||SBSSPK||1 Sobranie SS Pink (3mg) Pack|Yes|Yes||CT004056|Restaurant Mediteranean SRL |Constanta|CTHRKBA54|137|CCC HRK SOBR FAM 2013|121|Horeca|0
0|CS3390588|2013-05-25 22:15:53|Racu|Nicoleta||F|1986-12-03|Constanta|CONSTANTA|Aristide Karatzali|14|0|0|0|0|0722920490||el3ktra_77@yahoo.com|PARRSSMH||1 Sobranie SS Menthol (5 mg) Pack|Yes|Yes||CT004056|Restaurant Mediteranean SRL |Constanta|CTHRKBA52|137|CCC HRK SOBR FAM 2013|121|Horeca|0
0|CS3390590|2013-05-25 22:17:07|Manole|Sebastian||M|1986-12-23|Constanta|CONSTANTA|1 decembrie|34|||||0745336583|||MBRRD||1 Sobranie KS Black (8mg) Pack|Yes|Yes||CT004056|Restaurant Mediteranean SRL |Constanta|CTHRKBA53|137|CCC HRK SOBR FAM 2013|121|Horeca|0
0|CS3390591|2013-05-25 22:18:06|Barb|Andreea||F|1990-03-16|Constanta|CONSTANTA|Aleea pelicanului|21|Av35|A|1|4|0724767186||d33utzza90@yahoo.com|DUNFCMBB||1 Sobranie KS Blue (6mg) Pack|Yes|Yes||CT004056|Restaurant Mediteranean SRL |Constanta|CTHRKBA52|137|CCC HRK SOBR FAM 2013|121|Horeca|0
0|CS3390595|2013-05-25 22:19:44|Bubuleandra|Antonela||F|1978-09-22|Constanta|CONSTANTA|Garofitei|11|||||0723568993||a tonela_bubu@yahoo.com|KTSV||1 Sobranie KS Gold  (4mg) Pack|Yes|Yes||CT004056|Restaurant Mediteranean SRL |Constanta|CTHRKBA54|137|CCC HRK SOBR FAM 2013|121|Horeca|0
0|CS3390596|2013-05-25 22:21:08|Girtone|Elena||F|1988-08-18|Constanta|CONSTANTA|Vasile Alecsandri|6a|||0||0724192430||rheea_ela@yahoo.com|SBSSMN||1 Sobranie SS Menthol (5 mg) Pack|Yes|Yes||CT004056|Restaurant Mediteranean SRL |Constanta|CTHRKBA52|137|CCC HRK SOBR FAM 2013|121|Horeca|0
0|CS3390598|2013-05-25 22:23:21|Masu|Cristian||M|1987-11-21|Constanta|CONSTANTA|Principalei|36|||||0727743457|||SBKSGD||1 Sobranie KS Gold  (4mg) Pack|Yes|Yes||CT004056|Restaurant Mediteranean SRL |Constanta|CTHRKBA53|137|CCC HRK SOBR FAM 2013|121|Horeca|0
0|CS3390600|2013-05-25 22:24:28|Nichita|Alex||M|1986-06-04|Constanta|CONSTANTA|Mircea cel batran|12|||0|0|0732527890||niky4h_d@yahoo.com|KTBL||1 Sobranie KS Black (8mg) Pack|Yes|Yes||CT004056|Restaurant Mediteranean SRL |Constanta|CTHRKBA52|137|CCC HRK SOBR FAM 2013|121|Horeca|0
0|CS3390605|2013-05-25 22:26:20|Stoian|Andrei||M|1987-05-15|Constanta|CONSTANTA|Frunzelor|16|||||0720812211|||DUNFCMBB||1 Sobranie KS Blue (6mg) Pack|Yes|Yes||CT004056|Restaurant Mediteranean SRL |Constanta|CTHRKBA53|137|CCC HRK SOBR FAM 2013|121|Horeca|0
0|CS3390608|2013-05-25 22:27:17|Haralambie|Simona||F|1973-11-28|Constanta|CONSTANTA|Nicolae milescu|46|Nm1|A|1|5|0722501695||simoniq77@yahoo.com|SBSSWH||1 Sobranie SS White (1mg) Pack|Yes|Yes||CT004056|Restaurant Mediteranean SRL |Constanta|CTHRKBA52|137|CCC HRK SOBR FAM 2013|121|Horeca|0
0|CS3390617|2013-05-25 22:34:13|Contor|Roxana||F|1973-11-12|Bucuresti|SECTOR 3|Poet panait cernea|14|||||0723288361|||VOGJSN||1 Sobranie SS Menthol (5 mg) Pack+parfum|Yes|Yes||CT004056|Restaurant Mediteranean SRL |Constanta|CTHRKBA53|137|CCC HRK SOBR FAM 2013|121|Horeca|0
0|CS3390626|2013-05-25 22:43:23|Manac|Monica||F|1985-04-27|Constanta|CONSTANTA|Tulcei|8|||||0735743788|||DAVGLS||1 Sobranie SS Black (6mg) Pack|Yes|Yes||CT000708|AMI COM SRL|Constanta|CTHRKBA54|137|CCC HRK SOBR FAM 2013|121|Horeca|0
0|CS3390627|2013-05-25 22:43:47|Papuc|Ioana||F|1983-02-18|Constanta|CONSTANTA|Poporului|45|||||0745337659|||DUNFCMBR||1 Sobranie KS Black (8mg) Pack|Yes|Yes||CT000708|AMI COM SRL|Constanta|CTHRKBA53|137|CCC HRK SOBR FAM 2013|121|Horeca|0
0|CS3390630|2013-05-25 22:44:59|Paris|Elena||F|1986-11-02|Constanta|CONSTANTA|Crisanei|44b|||0|0|0723538886||elena_paris86@yahoo.com|VOGLL||1 Sobranie SS Pink (3mg) Pack|Yes|Yes||CT000708|AMI COM SRL|Constanta|CTHRKBA54|137|CCC HRK SOBR FAM 2013|121|Horeca|0
0|CS3390632|2013-05-25 22:45:42|Popovici|Mioara||F|1986-12-19|Constanta|CONSTANTA|Ferdinand|24|||||0745337659|||GLMBL||1 Sobranie SS Pink (3mg) Pack|Yes|Yes||CT000708|AMI COM SRL|Constanta|CTHRKBA53|137|CCC HRK SOBR FAM 2013|121|Horeca|0
0|CS3390636|2013-05-25 22:46:21|Enache|Luminita||F|1986-09-22|Constanta|CONSTANTA|Tomis|309|10b|B|1|46|0727209567||lumy_enache@yahoo.com|VOGABP||1 Sobranie SS Black (6mg) Pack|Yes|Yes||CT000708|AMI COM SRL|Constanta|CTHRKBA54|137|CCC HRK SOBR FAM 2013|121|Horeca|0
0|CS3390638|2013-05-25 22:48:03|Talianu|Laurian||M|1987-03-24|Constanta|CONSTANTA|Lapusneanu|36|||0|0|0723348356||laurian.talianu@yahoo.com|SBKSGD||1 Sobranie KS Gold  (4mg) Pack|Yes|Yes||CT000708|AMI COM SRL|Constanta|CTHRKBA53|137|CCC HRK SOBR FAM 2013|121|Horeca|0
0|CS3390639|2013-05-25 22:48:15|Dinita|Raluca||F|1980-01-27|Constanta|CONSTANTA|Tullcea|2|||||0723320199||dinitaraluca@yahoo.com|VOGM||1 Sobranie SS Menthol (5 mg) Pack|Yes|Yes||CT000708|AMI COM SRL|Constanta|CTHRKBA54|137|CCC HRK SOBR FAM 2013|121|Horeca|0
0|CS3390640|2013-05-25 22:49:04|Jianu|Roxana||F|1989-06-20|Constanta|CONSTANTA|Mircea cel batran|40|Pm4|A||1|0726514546||roxe_anne@yahoo.com|KTSWIT||1 Sobranie KS Black (8mg) Pack|Yes|Yes||CT000708|AMI COM SRL|Constanta|CTHRKBA52|137|CCC HRK SOBR FAM 2013|121|Horeca|0
0|CS3390642|2013-05-25 22:49:57|Boznea|Bianca||F|1989-11-04|Constanta|CONSTANTA|Badea cartan|8|Bc12|A|0|0|0723745886||bianca142002@yahoo.com|SBSSPK||1 Sobranie SS Pink (3mg) Pack|Yes|Yes||CT000708|AMI COM SRL|Constanta|CTHRKBA54|137|CCC HRK SOBR FAM 2013|121|Horeca|0
0|CS3390644|2013-05-25 22:51:20|Palasca|Cristina||F|1990-10-27|Constanta|CONSTANTA|Aleea garofitei|5|||0|0|0727289972||cristina.palasca@yahoo.com|SBSSPK||1 Sobranie SS Pink (3mg) Pack|Yes|Yes||CT000708|AMI COM SRL|Constanta|CTHRKBA53|137|CCC HRK SOBR FAM 2013|121|Horeca|0
0|CS3390645|2013-05-25 22:52:32|Toba|Bogdan||M|1983-04-29|Constanta|CONSTANTA|Bd tomis|108|||||0735373692|||DUNFCMBB||1 Sobranie KS Blue (6mg) Pack|Yes|Yes||CT000708|AMI COM SRL|Constanta|CTHRKBA54|137|CCC HRK SOBR FAM 2013|121|Horeca|0
0|CS3390646|2013-05-25 22:53:22|Pavel|Ioana||F|1987-09-01|Constanta|CONSTANTA|Adam clisi|45|||||0756409880||ioana.pavel@yahoo.com|VOGLL||1 Sobranie SS Pink (3mg) Pack|Yes|Yes||CT000708|AMI COM SRL|Constanta|CTHRKBA52|137|CCC HRK SOBR FAM 2013|121|Horeca|0
0|CS3390647|2013-05-25 22:53:40|Vanghele|Elena||F|1991-01-12|Constanta|CONSTANTA|Soveja|51|||0|0|0730937919||elena_vanghele@yahoo.com|SBSSBK||1 Sobranie SS Black (6mg) Pack+parfum|Yes|Yes||CT000708|AMI COM SRL|Constanta|CTHRKBA53|137|CCC HRK SOBR FAM 2013|121|Horeca|0
0|CS3390648|2013-05-25 22:54:40|Popescu|Ioana||F|1986-02-28|Constanta|CONSTANTA|Tabla butii|59|||||0721556906||joanna_mmy@yahoo.com|SBSSPK||1 Sobranie SS Pink (3mg) Pack|Yes|Yes||CT000708|AMI COM SRL|Constanta|CTHRKBA54|137|CCC HRK SOBR FAM 2013|121|Horeca|0
0|CS3390649|2013-05-25 22:54:44|Diba|Roxana||F|1988-06-15|Constanta|CONSTANTA|Morii|65|||||0756409776|||KTSV||1 Sobranie KS Gold  (4mg) Pack|Yes|No||CT000708|AMI COM SRL|Constanta|CTHRKBA52|137|CCC HRK SOBR FAM 2013|121|Horeca|0
0|CS3390651|2013-05-25 22:56:26|Tonescu|Emilia||F|1978-01-14|Bucuresti|SECTOR 3|Liviu Rebreanu|32|||0|0|0744335149||ehoinaru@yahoo.com|KTNWH||1 Sobranie SS White (1mg) Pack|Yes|Yes||CT000708|AMI COM SRL|Constanta|CTHRKBA52|137|CCC HRK SOBR FAM 2013|121|Horeca|0
0|CS3390652|2013-05-25 22:56:47|Postolache|Iulia||F|1989-07-09|Constanta|CONSTANTA|1 mai|17b|||||0724442934||julee_08@yahoo.com|GLMMNT||1 Sobranie SS Menthol (5 mg) Pack|Yes|Yes||CT000708|AMI COM SRL|Constanta|CTHRKBA54|137|CCC HRK SOBR FAM 2013|121|Horeca|0
0|CS3390655|2013-05-25 22:59:42|Curtmola|Farah||F|1991-02-18|Constanta|CONSTANTA|Malinului|5|||0|0|0755972944||farah.curtmola@yahoo.com|SBSSWH||1 Sobranie SS White (1mg) Pack|Yes|Yes||CT000708|AMI COM SRL|Constanta|CTHRKBA54|137|CCC HRK SOBR FAM 2013|121|Horeca|0
0|CS3390657|2013-05-25 23:01:28|Patrascu|Andreea||F|1989-11-07|Constanta|CONSTANTA|Oleg Danovski|38|Pm1|B|4|35|0726097736||andrea.patrascu@ymail.com|SBSSPK||1 Sobranie SS Pink (3mg) Pack|Yes|Yes||CT000708|AMI COM SRL|Constanta|CTHRKBA53|137|CCC HRK SOBR FAM 2013|121|Horeca|0
0|CS3390658|2013-05-25 23:01:46|Popa|Liliana||F|1986-01-01|Constanta|CONSTANTA|Murelor|67|||||0747650998|||DUNFCBB||1 Sobranie KS Gold  (4mg) Pack|Yes|Yes||CT000708|AMI COM SRL|Constanta|CTHRKBA52|137|CCC HRK SOBR FAM 2013|121|Horeca|0
0|CS3390659|2013-05-25 23:02:09|Zoltan|Vlad||M|1990-09-29|Constanta|CONSTANTA|Zimbrilor|10|||||0723568843|||SBKSGD||1 Sobranie KS Gold  (4mg) Pack|Yes|Yes||CT000708|AMI COM SRL|Constanta|CTHRKBA54|137|CCC HRK SOBR FAM 2013|121|Horeca|0
0|CS3390662|2013-05-25 23:05:20|Popov|Madalina||F|1990-06-07|Constanta|CONSTANTA|Soveja|242|||0|0|0724632021||mady_diva@yahoo.com|VOGLL||1 Sobranie SS Pink (3mg) Pack|Yes|Yes||CT000708|AMI COM SRL|Constanta|CTHRKBA52|137|CCC HRK SOBR FAM 2013|121|Horeca|0
0|CS3390663|2013-05-25 23:05:57|Dragusin|Cristina||F|1984-06-27|Constanta|CONSTANTA|Aprodu purice|38|||||0728995662||cristinika_capsunyk@yahoo.com|VOGLL||1 Sobranie SS Pink (3mg) Pack|Yes|Yes||CT000708|AMI COM SRL|Constanta|CTHRKBA54|137|CCC HRK SOBR FAM 2013|121|Horeca|0
0|CS3390664|2013-05-25 23:07:03|Baciu|Madalina||F|1984-08-21|Constanta|CONSTANTA|Teodor|52|||||0727700501|||SBSSMN||1 Sobranie SS Menthol (5 mg) Pack|Yes|Yes||CT000708|AMI COM SRL|Constanta|CTHRKBA53|137|CCC HRK SOBR FAM 2013|121|Horeca|0
0|CS3390667|2013-05-25 23:10:01|Avram|Cristina||F|1986-10-15|Constanta|CONSTANTA|Dezrobirii|56|||||0765911233||avram.cristina@yahoo.com|VIRSPR||1 Sobranie SS Black (6mg) Pack|Yes|Yes||CT000708|AMI COM SRL|Constanta|CTHRKBA52|137|CCC HRK SOBR FAM 2013|121|Horeca|0
0|CS3390668|2013-05-25 23:12:23|Rotaru|Mihaela||F|1985-07-20|Constanta|CONSTANTA|Unirii|18|||||0734299462|||SBSSPK||1 Sobranie SS Pink (3mg) Pack|Yes|Yes||CT000708|AMI COM SRL|Constanta|CTHRKBA53|137|CCC HRK SOBR FAM 2013|121|Horeca|0
0|CS3390669|2013-05-25 23:13:48|Pislaru|Monica||F|1984-12-23|Constanta|CONSTANTA|Tulcei|17|||||0763365493|||KTNBK||1 Sobranie SS Pink (3mg) Pack|Yes|Yes||CT000708|AMI COM SRL|Constanta|CTHRKBA53|137|CCC HRK SOBR FAM 2013|121|Horeca|0
0|CS3390671|2013-05-25 23:15:51|Enache|Georgiana||F|1985-06-14|Constanta|CONSTANTA|Ion luca caragiale|45|I2|C|0|35|0760774513||georgianaenache@yahoo.com|SBKSGD||1 Sobranie KS Gold  (4mg) Pack|Yes|Yes||CT000708|AMI COM SRL|Constanta|CTHRKBA52|137|CCC HRK SOBR FAM 2013|121|Horeca|0
0|CS3390673|2013-05-25 23:22:10|Apetrei|Marian||M|1987-04-04|Constanta|CONSTANTA|Traian|24|||||0745338727|||KTSV||1 Sobranie KS Gold  (4mg) Pack|Yes|Yes||CT000708|AMI COM SRL|Constanta|CTHRKBA53|137|CCC HRK SOBR FAM 2013|121|Horeca|0
0|CS3391399|2013-05-26 20:06:34|Sandu|Ciprian||M|1986-05-04|Constanta|CONSTANTA|Frunzelor|19|||0|0|0725214288||sandu.ciprian@yahoo.com|DUNFCMBB||1 Sobranie KS Blue (6mg) Pack|Yes|Yes||CT005185|Filozofie Urbana SRL|Constanta|CTHRKBA53|137|CCC HRK SOBR FAM 2013|121|Horeca|0
0|CS3391402|2013-05-26 20:07:45|Olteanu|Alexandra||F|1984-09-03|Constanta|CONSTANTA|Petru cercel|72|||||0725684278||alexandra.olteanu84@yahoo.com|KTNWH||1 Sobranie SS White (1mg) Pack|Yes|Yes||CT005185|Filozofie Urbana SRL|Constanta|CTHRKBA54|137|CCC HRK SOBR FAM 2013|121|Horeca|0
0|CS3391403|2013-05-26 20:08:11|Petrila|Mihaita||M|1992-01-30|Constanta|CONSTANTA|Zefirului|12b|Fb10b|B|1|17|0766278990|||KTSV||1 Sobranie KS Gold  (4mg) Pack|Yes|Yes||CT005185|Filozofie Urbana SRL|Constanta|CTHRKBA52|137|CCC HRK SOBR FAM 2013|121|Horeca|0
0|CS3391405|2013-05-26 20:09:30|Baleanu|Sabina||F|1990-11-24|Constanta|CONSTANTA|Curcubeului|14|||0|0|0732921526||sabinutza_222@yahoo.com|VIRSPR||1 Sobranie SS Black (6mg) Pack+vouchercons|Yes|Yes||CT005185|Filozofie Urbana SRL|Constanta|CTHRKBA53|137|CCC HRK SOBR FAM 2013|121|Horeca|0
0|CS3391407|2013-05-26 20:10:18|Stere|Petre||M|1988-11-12|Constanta|CONSTANTA|Aleea murelor|11|||||0766297993||moto_bbm@yahoo.com|SBKSBL||1 Sobranie KS Blue (6mg) Pack|Yes|Yes||CT005185|Filozofie Urbana SRL|Constanta|CTHRKBA54|137|CCC HRK SOBR FAM 2013|121|Horeca|0
0|CS3391408|2013-05-26 20:10:27|Ocheanu|Oana||F|1988-04-15|Constanta|CONSTANTA|Privighetorilor|86b|||0|0|0729608114||ocheanu.oana@yahoo.com|VIRSM||1 Sobranie SS Menthol (5 mg) Pack|Yes|Yes||CT005185|Filozofie Urbana SRL|Constanta|CTHRKBA52|137|CCC HRK SOBR FAM 2013|121|Horeca|0
0|CS3391411|2013-05-26 20:12:47|Chera|Eduard||M|1991-02-04|Constanta|Constanta|1 mai n|62|||0|0|0720702185||duduku5u@yahoo.com|KTNWH||1 Sobranie SS White (1mg) Pack|Yes|Yes||CT005185|Filozofie Urbana SRL|Constanta|CTHRKBA52|137|CCC HRK SOBR FAM 2013|121|Horeca|0
0|CS3391418|2013-05-26 20:14:47|Calota|Ciprian||M|1985-01-19|Constanta|CONSTANTA|Garofitei|56|||0|0|0726188999|||KTBL||1 Sobranie KS Black (8mg) Pack|Yes|Yes||CT005185|Filozofie Urbana SRL|Constanta|CTHRKBA52|137|CCC HRK SOBR FAM 2013|121|Horeca|0
0|CS3391431|2013-05-26 20:20:38|Munteanu|Georgiana||F|1984-01-12|Constanta|CONSTANTA|Farului|26|||||0726559410|||KTNWH||1 Sobranie SS White (1mg) Pack|Yes|Yes||CT005185|Filozofie Urbana SRL|Constanta|CTHRKBA53|137|CCC HRK SOBR FAM 2013|121|Horeca|0
0|CS3391439|2013-05-26 20:23:51|Munteanu|Sofian||M|1987-05-17|Constanta|CONSTANTA|Mamaia|163|||0|0|0734482459||sofian.muntean@yahoo.com|VIRSPR||1 Sobranie SS Black (6mg) Pack|Yes|Yes||CT005185|Filozofie Urbana SRL|Constanta|CTHRKBA52|137|CCC HRK SOBR FAM 2013|121|Horeca|0
0|CS3391447|2013-05-26 20:27:03|Pruiu|Ana Maria||F|1990-05-29|Constanta|CONSTANTA|Progresului|3|||||0724404507|||SBSSPK||1 Sobranie SS Pink (3mg) Pack|Yes|Yes||CT005185|Filozofie Urbana SRL|Constanta|CTHRKBA54|137|CCC HRK SOBR FAM 2013|121|Horeca|0
0|CS3391450|2013-05-26 20:27:25|Basmangiu|Marius gabriel||M|1984-09-09|Constanta|CONSTANTA|Soveja|87|Dr27|||12|0722878014||basmangiu_marius_gabriel@yahoo.com|SBSSWH||1 Sobranie SS White (1mg) Pack|Yes|Yes||CT005185|Filozofie Urbana SRL|Constanta|CTHRKBA52|137|CCC HRK SOBR FAM 2013|121|Horeca|0
0|CS3391469|2013-05-26 20:49:07|Grosu|Gabriela||F|1983-06-24|Constanta|CONSTANTA|Bd 1 mai|28|||||0721679545|||DUNFCBB||1 Sobranie KS Gold  (4mg) Pack|Yes|Yes||CT004932|Toscana SRL |Constanta|CTHRKBA54|137|CCC HRK SOBR FAM 2013|121|Horeca|0
0|CS3391470|2013-05-26 20:49:24|Moian|Mihai||F|1987-01-12|Constanta|CONSTANTA|Aleea hortensiei|34|||0|0|0732122333||mihai_mihai@yahoo.com|DUNFCMBB||1 Sobranie KS Blue (6mg) Pack|Yes|Yes||CT004932|Toscana SRL |Constanta|CTHRKBA52|137|CCC HRK SOBR FAM 2013|121|Horeca|0
0|CS3391473|2013-05-26 20:50:06|Unguru|Adrian||M|1986-05-02|Constanta|COnstanta|Al lapusneanu|18|||0|0|0742220993||jury_bebe_sabie@yahoo.com|SBKSGD||1 Sobranie KS Gold  (4mg) Pack|Yes|Yes||CT004932|Toscana SRL |Constanta|CTHRKBA53|137|CCC HRK SOBR FAM 2013|121|Horeca|0
0|CS3391474|2013-05-26 20:50:45|Bratu|Ioana||F|1983-04-28|Constanta|CONSTANTA|Progresului|26|||||0727895378||ioana.bratu@gmail.com|SBSSPK||1 Sobranie SS Pink (3mg) Pack|Yes|No||CT004932|Toscana SRL |Constanta|CTHRKBA54|137|CCC HRK SOBR FAM 2013|121|Horeca|0
0|CS3391475|2013-05-26 20:50:50|Popa|Alexandru||M|1984-03-05|Constanta|CONSTANTA|Frazilor|57|||0|0|0769639874||popa.alexandru@yahoo.com|DUNFCMBB||1 Sobranie KS Blue (6mg) Pack|Yes|Yes||CT004932|Toscana SRL |Constanta|CTHRKBA52|137|CCC HRK SOBR FAM 2013|121|Horeca|0
0|CS3391482|2013-05-26 20:53:22|Mitu|Paul||M|1981-07-22|Constanta|CONSTANTA|Arcului|29|||||0728963688||mybodytattoo@yahoo.com|MBRGL||1 Sobranie KS Blue (6mg) Pack|Yes|Yes||CT004932|Toscana SRL |Constanta|CTHRKBA54|137|CCC HRK SOBR FAM 2013|121|Horeca|0
0|CS3391484|2013-05-26 20:54:34|Oraseanu|Alexandru||M|1974-11-09|Constanta|VALU LUI TRAIAN|Calea Drobogei|242|0|0|0|0|0721373705||ronteaanda@yahoo.com|KTSV||1 Sobranie KS Gold  (4mg) Pack+vouchercons|Yes|Yes||CT004932|Toscana SRL |Constanta|CTHRKBA53|137|CCC HRK SOBR FAM 2013|121|Horeca|0
0|CS3391485|2013-05-26 20:54:48|Cornea|Eveline||F|1989-05-05|Constanta|CONSTANTA|Gatifitei|78|||0|0|0756453427|||KTNWH||1 Sobranie SS White (1mg) Pack|Yes|No||CT004932|Toscana SRL |Constanta|CTHRKBA52|137|CCC HRK SOBR FAM 2013|121|Horeca|0
0|CS3391495|2013-05-26 20:58:53|Ion|Maria Andreea||F|1991-07-24|Constanta|CONSTANTA|Bd al lapusneanu|98|||||0727984334|||SBSSWH||1 Sobranie SS White (1mg) Pack|Yes|Yes||CT004932|Toscana SRL |Constanta|CTHRKBA54|137|CCC HRK SOBR FAM 2013|121|Horeca|0
0|CS3391497|2013-05-26 20:59:15|Pican|Andra||F|1991-01-16|Constanta|CONSTANTA|Gospodariei|13|||||0726351008||crazy_ambiti0m@yahoo.com|VIRSV||1 Sobranie SS Pink (3mg) Pack|Yes|Yes||CT004932|Toscana SRL |Constanta|CTHRKBA52|137|CCC HRK SOBR FAM 2013|121|Horeca|0
0|CS3391503|2013-05-26 21:01:47|Manescu|Georgiana||F|1989-02-23|Constanta|CONSTANTA|Corneliu copisu|13|||0|0|0726417318|||SBSSWH||1 Sobranie SS White (1mg) Pack|Yes|Yes||CT004932|Toscana SRL |Constanta|CTHRKBA53|137|CCC HRK SOBR FAM 2013|121|Horeca|0
0|CS3391506|2013-05-26 21:02:38|Dumitru|Iuliana||F|1985-07-30|Constanta|AMZACEA|X|X|||||0760601127||danna_iuliana@yahoo.com|DAVGLS||1 Sobranie SS Black (6mg) Pack|Yes|Yes||CT004932|Toscana SRL |Constanta|CTHRKBA52|137|CCC HRK SOBR FAM 2013|121|Horeca|0
0|CS3391509|2013-05-26 21:03:36|Hapei|Laura||F|1987-08-04|Constanta|LUMINA|Murelor|19|||0|0|0724773768||lolita_numer_1@yahoo.com|KTNWH||1 Sobranie SS White (1mg) Pack|Yes|Yes||CT004932|Toscana SRL |Constanta|CTHRKBA53|137|CCC HRK SOBR FAM 2013|121|Horeca|0
0|CS3391510|2013-05-26 21:03:44|Goga|Mirela||F|1980-10-09|Constanta|CONSTANTA|Alexandru cel bun|15a|0|0|0|0|0721977436||mirela.goga80@yahoo.com|SBSSWH||1 Sobranie SS White (1mg) Pack|Yes|Yes||CT004932|Toscana SRL |Constanta|CTHRKBA54|137|CCC HRK SOBR FAM 2013|121|Horeca|0
0|CS3391516|2013-05-26 21:06:34|Oprea|Cornel||M|1986-08-02|Constanta|CONSTANTA|Cismelei|28|||||0723571178|||KTBL||1 Sobranie KS Black (8mg) Pack|Yes|Yes||CT004932|Toscana SRL |Constanta|CTHRKBA54|137|CCC HRK SOBR FAM 2013|121|Horeca|0
0|CS3391517|2013-05-26 21:07:02|Totolos|Romulus||M|1974-09-23|Constanta|CONSTANTA|Lapusneanu|46|||0|0|0720001846||totolos_romulus@yahoo.com|KTBL||1 Sobranie KS Black (8mg) Pack|Yes|Yes||CT004932|Toscana SRL |Constanta|CTHRKBA52|137|CCC HRK SOBR FAM 2013|121|Horeca|0
0|CS3391521|2013-05-26 21:09:40|Hodor|George||M|1978-03-22|Constanta|Constanta|Grindenu|66|||0|0|0722548556|||SBKSBL||1 Sobranie KS Blue (6mg) Pack|Yes|Yes||CT004932|Toscana SRL |Constanta|CTHRKBA53|137|CCC HRK SOBR FAM 2013|121|Horeca|0
0|CS3391523|2013-05-26 21:10:39|Stancu|Alin||M|1992-07-22|Constanta|Constanta|Zefirulu|12b|Fb10b|B|0|12|0784745765||alyn_brt@yahoo.com|KTBL||1 Sobranie KS Black (8mg) Pack|Yes|Yes||CT004932|Toscana SRL |Constanta|CTHRKBA54|137|CCC HRK SOBR FAM 2013|121|Horeca|0
0|CS3391526|2013-05-26 21:11:14|Mihaila|Leonard||M|1987-11-27|Constanta|CONSTANTA|Azurului|44|||||0745309887|||SBSSWH||1 Sobranie SS White (1mg) Pack|Yes|No||CT004932|Toscana SRL |Constanta|CTHRKBA52|137|CCC HRK SOBR FAM 2013|121|Horeca|0
0|CS3391528|2013-05-26 21:11:52|TUDOSA|GEANINA||F|1991-05-22|Constanta|CONSTANTA|ALBASTEELELOR|6|F|3|0|1|0761145403||syr0na@yahoo.com|SBSSPK||1 Sobranie SS Pink (3mg) Pack|Yes|Yes||CT004932|Toscana SRL |Constanta|CTHRKBA53|137|CCC HRK SOBR FAM 2013|121|Horeca|0
0|CS3391534|2013-05-26 21:24:04|Raicu|Ionut||M|1979-02-19|Constanta|CONSTANTA|Bd  1 decembrie 1918|104|||||0765969754|||KTBL6||1 Sobranie KS Blue (6mg) Pack|Yes|Yes||CT008734|AEGADES|Constanta|CTHRKBA54|137|CCC HRK SOBR FAM 2013|121|Horeca|0
0|CS3391536|2013-05-26 21:25:41|Luchici|Lorena||F|1988-08-25|Constanta|CONSTANTA|Soveja|8|Ci|A|0|0|0720908932||lorraine_liss@yahoo.com|VOGLL||1 Sobranie SS Pink (3mg) Pack|Yes|Yes||CT008734|AEGADES|Constanta|CTHRKBA53|137|CCC HRK SOBR FAM 2013|121|Horeca|0
0|CS3391537|2013-05-26 21:26:03|Gachi|Misa||M|1975-07-16|Constanta|CONSTANTA|Steagului|67|0||0|0|0741210005|||KTBL||1 Sobranie KS Black (8mg) Pack|Yes|Yes||CT008734|AEGADES|Constanta|CTHRKBA52|137|CCC HRK SOBR FAM 2013|121|Horeca|0
0|CS3391538|2013-05-26 21:26:10|Ciprian|Andrei||M|1977-10-17|Constanta|CONSTANTA|Badea cartan|2|2c|A|0|11|0734555471||ciprianandrei@yahoo.com|DUNFCSB||1 Sobranie KS Black (8mg) Pack|Yes|Yes||CT008734|AEGADES|Constanta|CTHRKBA54|137|CCC HRK SOBR FAM 2013|121|Horeca|0
0|CS3391545|2013-05-26 21:31:32|Munteanu|Dan||M|1984-05-04|Constanta|Constanta|Constantin bratescu|11|||0|0|0721816996||anghelescu@gmail.com|KTBL||1 Sobranie KS Gold  (4mg) Pack|Yes|Yes||CT008734|AEGADES|Constanta|CTHRKBA52|137|CCC HRK SOBR FAM 2013|121|Horeca|0
0|CS3391548|2013-05-26 21:32:12|Tudorache|Geanina||F|1987-11-08|Constanta|CONSTANTA|Teodor sperantei|8|||||0735338975|||SBSSPK||1 Sobranie SS Pink (3mg) Pack|Yes|Yes||CT008734|AEGADES|Constanta|CTHRKBA54|137|CCC HRK SOBR FAM 2013|121|Horeca|0
0|CS3391550|2013-05-26 21:33:05|Voicu|Stela||F|1988-11-25|Constanta|CONSTANTA|Amurgului|33|||0|0|0729316179|||MBRGLT||1 Sobranie SS Black (6mg) Pack|Yes|Yes||CT008734|AEGADES|Constanta|CTHRKBA52|137|CCC HRK SOBR FAM 2013|121|Horeca|0
0|CS3391552|2013-05-26 21:34:54|Visinescu|Ionut||F|1985-09-23|Constanta|CONSTANTA|Eliberarii|56|||||0734209767||ionut.visinescu@yahoo.com|KTWH||1 Sobranie SS White (1mg) Pack|Yes|Yes||CT008734|AEGADES|Constanta|CTHRKBA52|137|CCC HRK SOBR FAM 2013|121|Horeca|0
0|CS3391555|2013-05-26 21:36:45|Motanu|Madalina||F|1987-07-17|Constanta|Constanta|Aleea hortensiei|1|||0|0|0735335955||vero_issa@yahoo.com|VOGLL||1 Sobranie SS Pink (3mg) Pack|Yes|Yes||CT008734|AEGADES|Constanta|CTHRKBA52|137|CCC HRK SOBR FAM 2013|121|Horeca|0
0|CS3391570|2013-05-26 21:52:26|Dutu|Maria Andrada||F|1987-08-18|Constanta|CONSTANTA|Frasinului|3|||||0725668908||dutu.maria@gmail.com|VOGLL||1 Sobranie SS Pink (3mg) Pack|Yes|Yes||CT004056|Restaurant Mediteranean SRL |Constanta|CTHRKBA54|137|CCC HRK SOBR FAM 2013|121|Horeca|0
0|CS3391572|2013-05-26 21:55:21|Paunescu|Mihai||F|1991-06-10|Constanta|CONSTANTA|Tabla butii|34|||||0721447895||mih3y_pau_91@yahoo.com|DAVGLS||1 Sobranie SS Black (6mg) Pack|Yes|Yes||CT004056|Restaurant Mediteranean SRL |Constanta|CTHRKBA54|137|CCC HRK SOBR FAM 2013|121|Horeca|0
0|CS3391573|2013-05-26 21:55:33|Stiuliuc|Andrada||F|1991-11-08|Constanta|CONSTANTA|Triumfului|12|||0|0|0747927287||luv_butterfly_me_ada@yahoo.com|SBSSBK||1 Sobranie SS Black (6mg) Pack|Yes|Yes||CT004056|Restaurant Mediteranean SRL |Constanta|CTHRKBA53|137|CCC HRK SOBR FAM 2013|121|Horeca|0
0|CS3391574|2013-05-26 21:56:24|Dragan|Andreia||F|1978-10-21|Constanta|CONSTANTA|Suceava|8|U2|B|0|21|0752158694||dragan_andreia@yahoo.com|SBSSPK||1 Sobranie SS Pink (3mg) Pack|Yes|Yes||CT004056|Restaurant Mediteranean SRL |Constanta|CTHRKBA52|137|CCC HRK SOBR FAM 2013|121|Horeca|0
0|CS3391576|2013-05-26 21:57:36|Cojocaru|Cosmina||F|1988-09-27|Constanta|CONSTANTA|Hortensiei|18|||||0722675882||cosmina_girlishpissy@yahoo.com|PARRSSH||1 Sobranie SS Black (6mg) Pack|Yes|Yes||CT004056|Restaurant Mediteranean SRL |Constanta|CTHRKBA54|137|CCC HRK SOBR FAM 2013|121|Horeca|0
0|CS3391578|2013-05-26 21:57:37|Danila|Cosmin||M|1980-11-28|Constanta|CONSTANTA|Nicolae milescu|43|Nm1|A|0|5|0722501695||cosmin_ogy@yahoo.com|KTBL||1 Sobranie KS Black (8mg) Pack|Yes|Yes||CT004056|Restaurant Mediteranean SRL |Constanta|CTHRKBA53|137|CCC HRK SOBR FAM 2013|121|Horeca|0
0|CS3391580|2013-05-26 21:58:05|Jipa|Andreea||F|1982-06-06|Constanta|Constanta|Mamaia|83|Ls5|A|0|7|0723705976||vv_andr33a@yagoo.com|VIRSM||1 Sobranie SS Menthol (5 mg) Pack|Yes|Yes||CT004056|Restaurant Mediteranean SRL |Constanta|CTHRKBA52|137|CCC HRK SOBR FAM 2013|121|Horeca|0
0|CS3391585|2013-05-26 22:00:20|Gaitan|Alina||F|1991-01-30|Constanta|CONSTANTA|Hortensiei|12|C4|B|7|76|0732646826||allyloventage@yahoo.com|DUNFCBB||1 Sobranie KS Gold  (4mg) Pack|Yes|Yes||CT004056|Restaurant Mediteranean SRL |Constanta|CTHRKBA52|137|CCC HRK SOBR FAM 2013|121|Horeca|0
0|CS3391586|2013-05-26 22:00:44|Enache|Marian||M|1990-02-14|Constanta|CONSTANTA|Ferdinand|24|||||0745226549|||KTNWH||1 Sobranie SS White (1mg) Pack|Yes|Yes||CT004056|Restaurant Mediteranean SRL |Constanta|CTHRKBA53|137|CCC HRK SOBR FAM 2013|121|Horeca|0
0|CS3391592|2013-05-26 22:05:32|Vlad|Alexandru||M|1986-03-03|Constanta|CONSTANTA|Al lapusneanu|66|||||0721263066||cristianvlad@me.com|KTSV||1 Sobranie KS Gold  (4mg) Pack|Yes|Yes||CT004056|Restaurant Mediteranean SRL |Constanta|CTHRKBA54|137|CCC HRK SOBR FAM 2013|121|Horeca|0
0|CS3391593|2013-05-26 22:05:52|Nezir|Meral||F|1992-11-08|Constanta|CONSTANTA|Dobrila eugeniu|13|G5|A|8|33|0751268089||meralnezir@gmail.com|SBSSPK||1 Sobranie SS Pink (3mg) Pack+vouchercons|Yes|Yes||CT004056|Restaurant Mediteranean SRL |Constanta|CTHRKBA53|137|CCC HRK SOBR FAM 2013|121|Horeca|0
0|CS3391598|2013-05-26 22:07:41|Diculescu|George||M|1981-04-18|Constanta|MEDGIDIA|Tudor vladimirescu|12|Tv3|A||18|0764675374|||DUNFCMBB||1 Sobranie KS Blue (6mg) Pack|Yes|Yes||CT004056|Restaurant Mediteranean SRL |Constanta|CTHRKBA52|137|CCC HRK SOBR FAM 2013|121|Horeca|0
0|CS3391600|2013-05-26 22:08:24|Raducu|Cristina||F|1984-06-22|Constanta|CONSTANTA|Ferdinand|58|||||0723458908|||VIRSV||1 Sobranie SS Pink (3mg) Pack|Yes|Yes||CT004056|Restaurant Mediteranean SRL |Constanta|CTHRKBA54|137|CCC HRK SOBR FAM 2013|121|Horeca|0
0|CS3391604|2013-05-26 22:11:11|Vlad|Mihai||M|1993-07-12|Constanta|NAVODARI|Randunelelor|1|||||0735384384|||DUNFCMBB||1 Sobranie KS Gold  (4mg) Pack|Yes|Yes||CT004056|Restaurant Mediteranean SRL |Constanta|CTHRKBA54|137|CCC HRK SOBR FAM 2013|121|Horeca|0
0|CS3391605|2013-05-26 22:11:20|Manole|Anca||F|1990-11-25|Constanta|CONSTANTA|Veteranilor|23|||0|0|0728605136||anca.manole@yahoo.com|GLMBL||1 Sobranie SS Pink (3mg) Pack|Yes|Yes||CT004056|Restaurant Mediteranean SRL |Constanta|CTHRKBA53|137|CCC HRK SOBR FAM 2013|121|Horeca|0
0|CS3391611|2013-05-26 22:17:41|Petrescu|Miruna||F|1987-10-27|Constanta|CONSTANTA|Apusului|23|||||0745099877|||KTWH||1 Sobranie SS White (1mg) Pack|Yes|No||CT004056|Restaurant Mediteranean SRL |Constanta|CTHRKBA52|137|CCC HRK SOBR FAM 2013|121|Horeca|0
0|CS3391612|2013-05-26 22:18:35|Tanase|Andreea||F|1990-04-28|Constanta|CONSTANTA|Progresului|17|||||0723679554|||DAVSVSS||1 Sobranie SS White (1mg) Pack|Yes|No||CT004056|Restaurant Mediteranean SRL |Constanta|CTHRKBA54|137|CCC HRK SOBR FAM 2013|121|Horeca|0
0|CS3391613|2013-05-26 22:19:48|Prisacaru|George||M|1986-04-24|Constanta|CONSTANTA|Frunzelor|18|||||0734290016|||KTBL6||1 Sobranie KS Blue (6mg) Pack|Yes|Yes||CT004056|Restaurant Mediteranean SRL |Constanta|CTHRKBA53|137|CCC HRK SOBR FAM 2013|121|Horeca|0
0|CS3391617|2013-05-26 22:34:18|Popa|Laura||F|1987-09-01|Constanta|CONSTANTA|Bd mamaia|82|||||0722678543|||GLMBL||1 Sobranie SS Pink (3mg) Pack|Yes|Yes||CT000708|AMI COM SRL|Constanta|CTHRKBA54|137|CCC HRK SOBR FAM 2013|121|Horeca|0
0|CS3391619|2013-05-26 22:35:23|Bacioiu|Elena||F|1984-04-03|Constanta|CONSTANTA|Avram iancu|11-13|||0|0|0723566208||elena.bacioiu@ymail.com|SBSSPK||1 Sobranie SS Pink (3mg) Pack|Yes|Yes||CT000708|AMI COM SRL|Constanta|CTHRKBA53|137|CCC HRK SOBR FAM 2013|121|Horeca|0
0|CS3391620|2013-05-26 22:35:44|Antonache|Marius||M|1986-01-01|Constanta|CONSTANTA|Albastrelelor|19|||||0766790543|||KTSV||1 Sobranie KS Gold  (4mg) Pack|Yes|Yes||CT000708|AMI COM SRL|Constanta|CTHRKBA54|137|CCC HRK SOBR FAM 2013|121|Horeca|0
0|CS3391621|2013-05-26 22:36:24|Voineagu|Georgiana||F|1990-07-08|Constanta|CONSTANTA|Bd al lapusneanu|103|||0|0|0720917785||ang3l_vg@yahoo.com|SBSSBK||1 Sobranie SS Black (6mg) Pack|Yes|Yes||CT000708|AMI COM SRL|Constanta|CTHRKBA52|137|CCC HRK SOBR FAM 2013|121|Horeca|0
0|CS3391623|2013-05-26 22:38:03|Zanca|Cristina||F|1990-05-11|Constanta|CONSTANTA|Macesului|16|||||0765495558||zancu.mirela@yahoo.com|SBSSPK||1 Sobranie SS Pink (3mg) Pack|Yes|Yes||CT000708|AMI COM SRL|Constanta|CTHRKBA54|137|CCC HRK SOBR FAM 2013|121|Horeca|0
0|CS3391624|2013-05-26 22:38:57|Ibram|Sezer||F|1991-09-01|Constanta|CONSTANTA|Grivitei|3|||||0722581820||sezer_me@yahoo.com|SBSSWH||1 Sobranie SS White (1mg) Pack|Yes|Yes||CT000708|AMI COM SRL|Constanta|CTHRKBA52|137|CCC HRK SOBR FAM 2013|121|Horeca|0
0|CS3391627|2013-05-26 22:41:56|Enache|Georgiana||F|1992-06-21|Constanta|CONSTANTA|Poporului|20|||||0728996446|||SBSSWH||1 Sobranie SS White (1mg) Pack|Yes|Yes||CT000708|AMI COM SRL|Constanta|CTHRKBA54|137|CCC HRK SOBR FAM 2013|121|Horeca|0
0|CS3391628|2013-05-26 22:41:58|Coof|Alexandru||M|1986-08-15|Constanta|CONSTANTA|Dezrobirii|135|||0|0|0742454276||alexandru.coof@yahoo.com|KTBL||1 Sobranie KS Black (8mg) Pack|Yes|Yes||CT000708|AMI COM SRL|Constanta|CTHRKBA53|137|CCC HRK SOBR FAM 2013|121|Horeca|0
0|CS3391629|2013-05-26 22:44:05|Popov|Madalina||F|1990-06-06|Constanta|CONSTANTA|Soveja|121|||0|0|0724632021||mady_diva@yahoo.com|GLMMNT||1 Sobranie SS Menthol (5 mg) Pack+voucheryaki|Yes|Yes||CT000708|AMI COM SRL|Constanta|CTHRKBA53|137|CCC HRK SOBR FAM 2013|121|Horeca|0
0|CS3391630|2013-05-26 22:44:16|Coman|Georgiana||F|1982-01-16|Constanta|CONSTANTA|Dreptatii|1|O|E|2|45|0722887942||georgiana_coman@yahoo.com|VIRSM||1 Sobranie SS Menthol (5 mg) Pack|Yes|Yes||CT000708|AMI COM SRL|Constanta|CTHRKBA52|137|CCC HRK SOBR FAM 2013|121|Horeca|0
0|CS3391631|2013-05-26 22:44:45|Craciunescu|Mirabela||F|1987-07-18|Constanta|CONSTANTA|Timonei|12|||||0722876697||mira_bella87@yahoo.com|KTBL||1 Sobranie KS Blue (6mg) Pack|Yes|Yes||CT000708|AMI COM SRL|Constanta|CTHRKBA54|137|CCC HRK SOBR FAM 2013|121|Horeca|0
0|CS3391632|2013-05-26 22:46:16|Curteit|Ghiulsen||F|1980-05-06|Constanta|CONSTANTA|Ig duca|3|0|A|0|15|0721449471||ghiuly.curteit@gmail.com|VIRSPR||1 Sobranie SS Black (6mg) Pack|Yes|Yes||CT000708|AMI COM SRL|Constanta|CTHRKBA52|137|CCC HRK SOBR FAM 2013|121|Horeca|0
0|CS3391633|2013-05-26 22:46:19|Lepadatu|Mirela||F|1990-07-01|Constanta|CONSTANTA|Haret|407|||0|0|0723750706|||DAVSVSS||1 Sobranie SS Pink (3mg) Pack|Yes|Yes||CT000708|AMI COM SRL|Constanta|CTHRKBA54|137|CCC HRK SOBR FAM 2013|121|Horeca|0
0|CS3391634|2013-05-26 22:47:43|Stanciu|Dan||M|1988-08-02|Constanta|CONSTANTA|T13|9|||||0726447442|||SBKSBK||1 Sobranie KS Black (8mg) Pack|Yes|Yes||CT000708|AMI COM SRL|Constanta|CTHRKBA54|137|CCC HRK SOBR FAM 2013|121|Horeca|0
0|CS3391637|2013-05-26 22:49:49|Constantinescu|Madalina||F|1992-10-30|Constanta|Constanta|Soveja|57|59|A|0|7|0730315772||madalina.constantinesc@rocket.com|SBSSWH||1 Sobranie SS White (1mg) Pack|Yes|Yes||CT000708|AMI COM SRL|Constanta|CTHRKBA52|137|CCC HRK SOBR FAM 2013|121|Horeca|0
0|CS3391641|2013-05-26 22:52:55|Pavel|Mihaela||F|1988-09-15|Constanta|CONSTANTA|Sucevei|18|||||0727895669|||SBSSBK||1 Sobranie SS Black (6mg) Pack|Yes|Yes||CT000708|AMI COM SRL|Constanta|CTHRKBA54|137|CCC HRK SOBR FAM 2013|121|Horeca|0
0|CS3391642|2013-05-26 22:52:57|Ursu|Razvan||M|1983-05-31|Bucuresti|SECTOR 5|Splaiu independentei|3|||||0722230863|||KTSV||1 Sobranie KS Gold  (4mg) Pack+vouchercons|Yes|Yes||CT000708|AMI COM SRL|Constanta|CTHRKBA53|137|CCC HRK SOBR FAM 2013|121|Horeca|0
0|CS3391645|2013-05-26 22:54:00|Vasilescu|Lucian||M|1981-07-24|Constanta|Constanta|Mamaia|68|||0|0|0748221504||caric81@yahoo.com|MBRGL||1 Sobranie KS Gold  (4mg) Pack|Yes|Yes||CT000708|AMI COM SRL|Constanta|CTHRKBA52|137|CCC HRK SOBR FAM 2013|121|Horeca|0
0|CS3391647|2013-05-26 22:55:02|Popa|Diana||F|1988-06-21|Constanta|CONSTANTA|Ic bratianu|125|Pav5|A|4|19|0769954295||iepurash_dy@yahoo.com|VOGLL||1 Sobranie SS Pink (3mg) Pack|Yes|No||CT000708|AMI COM SRL|Constanta|CTHRKBA54|137|CCC HRK SOBR FAM 2013|121|Horeca|0
0|CS3391649|2013-05-26 22:55:56|Ilie|Alexandra||F|1991-01-12|Constanta|CONSTANTA|Unirii|108|U1|B|0|29|0757066474||alexandrailie5@yahoo.com|SBSSPK||1 Sobranie SS Pink (3mg) Pack|Yes|Yes||CT000708|AMI COM SRL|Constanta|CTHRKBA52|137|CCC HRK SOBR FAM 2013|121|Horeca|0
0|CS3391651|2013-05-26 23:02:14|Fedot|Simona||F|1990-04-04|Constanta|CONSTANTA|Prieteniei|13|||0|0|0728524966||simmy_green@yahoo.com|VIRSM||1 Sobranie SS Menthol (5 mg) Pack|Yes|Yes||CT000708|AMI COM SRL|Constanta|CTHRKBA53|137|CCC HRK SOBR FAM 2013|121|Horeca|0
0|CS3391652|2013-05-26 23:02:43|Grigore|Monica||F|1989-12-15|Constanta|CONSTANTA|Dezrobirii|29|||||0727886908||monica_grigore89@gmail.com|VIRSM||1 Sobranie SS Menthol (5 mg) Pack|Yes|Yes||CT000708|AMI COM SRL|Constanta|CTHRKBA54|137|CCC HRK SOBR FAM 2013|121|Horeca|0
0|CS3391653|2013-05-26 23:03:31|Vasileov|Alexandru||M|1987-11-29|Constanta|CONSTANTA|Aleea brizei|16|Fd3|B|2|28|0727925195||alex_vasileov@yahoo.com|DUNFCMBB||1 Sobranie KS Blue (6mg) Pack|Yes|Yes||CT000708|AMI COM SRL|Constanta|CTHRKBA53|137|CCC HRK SOBR FAM 2013|121|Horeca|0
0|CS3391654|2013-05-26 23:04:26|Cocolos|Mihaela||F|1988-04-18|Constanta|CONSTANTA|Garofitei|31|||0|0|0730165115||cocolos.mihaela@gmail.com|SBSSBK||1 Sobranie SS Black (6mg) Pack|Yes|Yes||CT000708|AMI COM SRL|Constanta|CTHRKBA53|137|CCC HRK SOBR FAM 2013|121|Horeca|0
0|CS3391655|2013-05-26 23:04:36|Popescuu|Mihaela||F|1986-11-15|Constanta|CONSTANTA|- mai|77|||||0745309887||mihaela.pop@yahoo.com|DUNFCMBB||1 Sobranie KS Blue (6mg) Pack|Yes|Yes||CT000708|AMI COM SRL|Constanta|CTHRKBA52|137|CCC HRK SOBR FAM 2013|121|Horeca|0
0|FS929666|2013-05-24 20:07:21||||M|||||||||||||KTNWH||||||||||137|CCC HRK SOBR FAM 2013|121|Horeca|0
0|FS929671|2013-05-24 20:07:38||||M|||||||||||||KTNWH||||||||||137|CCC HRK SOBR FAM 2013|121|Horeca|0
0|FS929674|2013-05-24 20:08:15||||F|||||||||||||GLMMNT||||||||||137|CCC HRK SOBR FAM 2013|121|Horeca|0
0|FS929688|2013-05-24 20:10:34||||F|||||||||||||VOGLL||||||||||137|CCC HRK SOBR FAM 2013|121|Horeca|0
0|FS929713|2013-05-24 20:18:23||||M|||||||||||||KTBL||||||||||137|CCC HRK SOBR FAM 2013|121|Horeca|0
0|FS929728|2013-05-24 20:23:04||||M|||||||||||||KTBL||||||||||137|CCC HRK SOBR FAM 2013|121|Horeca|0
0|FS929802|2013-05-24 20:55:11||||M|||||||||||||DAVCL||||||||||137|CCC HRK SOBR FAM 2013|121|Horeca|0
0|FS929818|2013-05-24 21:03:29||||M|||||||||||||CABK||||||||||137|CCC HRK SOBR FAM 2013|121|Horeca|0
0|FS929821|2013-05-24 21:07:08||||F|||||||||||||VIRSM||||||||||137|CCC HRK SOBR FAM 2013|121|Horeca|0
0|FS929823|2013-05-24 21:07:29||||F|||||||||||||KTBL||||||||||137|CCC HRK SOBR FAM 2013|121|Horeca|0
0|FS929848|2013-05-24 21:22:38||||F|||||||||||||VOGDV||||||||||137|CCC HRK SOBR FAM 2013|121|Horeca|0
0|FS929868|2013-05-24 21:40:48||||M|||||||||||||KTBL||||||||||137|CCC HRK SOBR FAM 2013|121|Horeca|0
0|FS929871|2013-05-24 21:41:25||||F|||||||||||||VIRSPR||||||||||137|CCC HRK SOBR FAM 2013|121|Horeca|0
0|FS929874|2013-05-24 21:42:06||||F|||||||||||||VOGLL||||||||||137|CCC HRK SOBR FAM 2013|121|Horeca|0
0|FS929875|2013-05-24 21:42:54||||M|||||||||||||MBRGLT||||||||||137|CCC HRK SOBR FAM 2013|121|Horeca|0
0|FS929928|2013-05-24 22:04:21||||M|||||||||||||PMECBK||||||||||137|CCC HRK SOBR FAM 2013|121|Horeca|0
0|FS929957|2013-05-24 22:24:55||||F|||||||||||||VOGLL||||||||||137|CCC HRK SOBR FAM 2013|121|Horeca|0
0|FS929961|2013-05-24 22:25:44||||F|||||||||||||VOGLL||||||||||137|CCC HRK SOBR FAM 2013|121|Horeca|0
0|FS929962|2013-05-24 22:25:44||||F|||||||||||||VOGLL||||||||||137|CCC HRK SOBR FAM 2013|121|Horeca|0
0|FS929964|2013-05-24 22:27:00||||F|||||||||||||VOGLL||||||||||137|CCC HRK SOBR FAM 2013|121|Horeca|0
0|FS929965|2013-05-24 22:28:11||||M|||||||||||||KTBL||||||||||137|CCC HRK SOBR FAM 2013|121|Horeca|0
0|FS929966|2013-05-24 22:28:20||||M|||||||||||||KTNBK||||||||||137|CCC HRK SOBR FAM 2013|121|Horeca|0
0|FS929981|2013-05-24 22:31:55||||F|||||||||||||VOGLL||||||||||137|CCC HRK SOBR FAM 2013|121|Horeca|0
0|FS930007|2013-05-24 22:36:46||||M|||||||||||||MBRFP||||||||||137|CCC HRK SOBR FAM 2013|121|Horeca|0
0|FS930008|2013-05-24 22:37:14||||F|||||||||||||VOGDV||||||||||137|CCC HRK SOBR FAM 2013|121|Horeca|0
0|FS930031|2013-05-24 22:58:14||||M|||||||||||||DUNFCMBB||||||||||137|CCC HRK SOBR FAM 2013|121|Horeca|0
0|FS930054|2013-05-24 23:14:21||||M|||||||||||||MBRGLFT||||||||||137|CCC HRK SOBR FAM 2013|121|Horeca|0
0|FS930071|2013-05-24 23:20:08||||F|||||||||||||VIRSM||||||||||137|CCC HRK SOBR FAM 2013|121|Horeca|0
0|FS930073|2013-05-24 23:20:17||||F|||||||||||||DUNFCBB||||||||||137|CCC HRK SOBR FAM 2013|121|Horeca|0
0|FS930097|2013-05-24 23:24:59||||M|||||||||||||DUNFCMBB||||||||||137|CCC HRK SOBR FAM 2013|121|Horeca|0
0|FS930098|2013-05-24 23:25:14||||M|||||||||||||MBRRD||||||||||137|CCC HRK SOBR FAM 2013|121|Horeca|0
0|FS930118|2013-05-24 23:35:02||||M|||||||||||||KTNWH||||||||||137|CCC HRK SOBR FAM 2013|121|Horeca|0
0|FS930120|2013-05-24 23:44:47||||F|||||||||||||VOGLL||||||||||137|CCC HRK SOBR FAM 2013|121|Horeca|0
0|FS930121|2013-05-24 23:45:32||||M|||||||||||||KTBL||||||||||137|CCC HRK SOBR FAM 2013|121|Horeca|0
0|FS930124|2013-05-24 23:46:23||||F|||||||||||||DUNGL||||||||||137|CCC HRK SOBR FAM 2013|121|Horeca|0
0|FS930129|2013-05-24 23:48:26||||F|||||||||||||VOGLL||||||||||137|CCC HRK SOBR FAM 2013|121|Horeca|0
0|FS930131|2013-05-24 23:48:47||||F|||||||||||||DAVGL||||||||||137|CCC HRK SOBR FAM 2013|121|Horeca|0
0|FS930133|2013-05-24 23:57:34||||M|||||||||||||PARSB||||||||||137|CCC HRK SOBR FAM 2013|121|Horeca|0
0|FS930134|2013-05-24 23:57:53||||F|||||||||||||KTSV||||||||||137|CCC HRK SOBR FAM 2013|121|Horeca|0
0|FS930135|2013-05-24 23:58:18||||M|||||||||||||MBRGL||||||||||137|CCC HRK SOBR FAM 2013|121|Horeca|0
0|FS930138|2013-05-25 00:00:18||||F|||||||||||||VIRSV||||||||||137|CCC HRK SOBR FAM 2013|121|Horeca|0
0|FS930140|2013-05-25 00:00:44||||F|||||||||||||KTBL||||||||||137|CCC HRK SOBR FAM 2013|121|Horeca|0
0|FS930141|2013-05-25 00:01:22||||F|||||||||||||KTNWH||||||||||137|CCC HRK SOBR FAM 2013|121|Horeca|0
0|FS930142|2013-05-25 00:02:24||||M|||||||||||||KTBL||||||||||137|CCC HRK SOBR FAM 2013|121|Horeca|0
0|FS930784|2013-05-25 20:09:09||||F|||||||||||||DAVSVSS||||||||||137|CCC HRK SOBR FAM 2013|121|Horeca|0
0|FS930788|2013-05-25 20:09:45||||M|||||||||||||DUNFCMBB||||||||||137|CCC HRK SOBR FAM 2013|121|Horeca|0
0|FS930789|2013-05-25 20:10:23||||M|||||||||||||MBRGLT||||||||||137|CCC HRK SOBR FAM 2013|121|Horeca|0
0|FS930793|2013-05-25 20:12:15||||F|||||||||||||DAVSVSS||||||||||137|CCC HRK SOBR FAM 2013|121|Horeca|0
0|FS930806|2013-05-25 20:17:41||||M|||||||||||||KTBL||||||||||137|CCC HRK SOBR FAM 2013|121|Horeca|0
0|FS930855|2013-05-25 20:42:31||||M|||||||||||||DUNFCMBB||||||||||137|CCC HRK SOBR FAM 2013|121|Horeca|0
0|FS930858|2013-05-25 20:44:01||||M|||||||||||||KTBL||||||||||137|CCC HRK SOBR FAM 2013|121|Horeca|0
0|FS930868|2013-05-25 20:52:50||||M|||||||||||||DAVGLS||||||||||137|CCC HRK SOBR FAM 2013|121|Horeca|0
0|FS930886|2013-05-25 20:58:46||||M|||||||||||||MBRGL||||||||||137|CCC HRK SOBR FAM 2013|121|Horeca|0
0|FS930939|2013-05-25 21:31:04||||M|||||||||||||DUNFCBB||||||||||137|CCC HRK SOBR FAM 2013|121|Horeca|0
0|FS930951|2013-05-25 21:33:22||||F|||||||||||||VIRSV||||||||||137|CCC HRK SOBR FAM 2013|121|Horeca|0
0|FS930959|2013-05-25 21:35:46||||M|||||||||||||KTNBK||||||||||137|CCC HRK SOBR FAM 2013|121|Horeca|0
0|FS930967|2013-05-25 21:38:42||||M|||||||||||||KTH||||||||||137|CCC HRK SOBR FAM 2013|121|Horeca|0
0|FS930970|2013-05-25 21:40:27||||F|||||||||||||VIRSPR||||||||||137|CCC HRK SOBR FAM 2013|121|Horeca|0
0|FS930971|2013-05-25 21:40:38||||M|||||||||||||PMECBK||||||||||137|CCC HRK SOBR FAM 2013|121|Horeca|0
0|FS930998|2013-05-25 22:01:35||||F|||||||||||||VOGLL||||||||||137|CCC HRK SOBR FAM 2013|121|Horeca|0
0|FS931009|2013-05-25 22:03:59||||F|||||||||||||GLMMNT||||||||||137|CCC HRK SOBR FAM 2013|121|Horeca|0
0|FS931019|2013-05-25 22:06:27||||F|||||||||||||VIRSM||||||||||137|CCC HRK SOBR FAM 2013|121|Horeca|0
0|FS931023|2013-05-25 22:07:18||||F|||||||||||||DUNFCBB||||||||||137|CCC HRK SOBR FAM 2013|121|Horeca|0
0|FS931028|2013-05-25 22:07:31||||M|||||||||||||KTBL||||||||||137|CCC HRK SOBR FAM 2013|121|Horeca|0
0|FS931030|2013-05-25 22:07:44||||F|||||||||||||KTSV||||||||||137|CCC HRK SOBR FAM 2013|121|Horeca|0
0|FS931046|2013-05-25 22:12:59||||F|||||||||||||DAVGLS||||||||||137|CCC HRK SOBR FAM 2013|121|Horeca|0
0|FS931047|2013-05-25 22:13:13||||F|||||||||||||VIRSM||||||||||137|CCC HRK SOBR FAM 2013|121|Horeca|0
0|FS931055|2013-05-25 22:18:03||||F|||||||||||||KTBL||||||||||137|CCC HRK SOBR FAM 2013|121|Horeca|0
0|FS931056|2013-05-25 22:18:26||||M|||||||||||||DUNFCBB||||||||||137|CCC HRK SOBR FAM 2013|121|Horeca|0
0|FS931059|2013-05-25 22:22:13||||F|||||||||||||VOGJSN||||||||||137|CCC HRK SOBR FAM 2013|121|Horeca|0
0|FS931060|2013-05-25 22:22:34||||M|||||||||||||MBRGL||||||||||137|CCC HRK SOBR FAM 2013|121|Horeca|0
0|FS931066|2013-05-25 22:24:48||||F|||||||||||||VOGLL||||||||||137|CCC HRK SOBR FAM 2013|121|Horeca|0
0|FS931090|2013-05-25 22:32:27||||F|||||||||||||VIRSM||||||||||137|CCC HRK SOBR FAM 2013|121|Horeca|0
0|FS931091|2013-05-25 22:32:32||||F|||||||||||||VIRSM||||||||||137|CCC HRK SOBR FAM 2013|121|Horeca|0
0|FS931109|2013-05-25 22:44:52||||F|||||||||||||KTSV||||||||||137|CCC HRK SOBR FAM 2013|121|Horeca|0
0|FS931110|2013-05-25 22:45:05||||F|||||||||||||VOGLL||||||||||137|CCC HRK SOBR FAM 2013|121|Horeca|0
0|FS931111|2013-05-25 22:45:19||||F|||||||||||||KTBL||||||||||137|CCC HRK SOBR FAM 2013|121|Horeca|0
0|FS931152|2013-05-25 22:53:03||||F|||||||||||||DAVGLS||||||||||137|CCC HRK SOBR FAM 2013|121|Horeca|0
0|FS931153|2013-05-25 22:53:15||||M|||||||||||||KTBL||||||||||137|CCC HRK SOBR FAM 2013|121|Horeca|0
0|FS931168|2013-05-25 23:01:05||||F|||||||||||||VIRSM||||||||||137|CCC HRK SOBR FAM 2013|121|Horeca|0
0|FS931169|2013-05-25 23:01:18||||M|||||||||||||PARRSSH||||||||||137|CCC HRK SOBR FAM 2013|121|Horeca|0
0|FS931170|2013-05-25 23:02:51||||F|||||||||||||WIXSTFX||||||||||137|CCC HRK SOBR FAM 2013|121|Horeca|0
0|FS931171|2013-05-25 23:02:51||||F|||||||||||||WIXSTFX||||||||||137|CCC HRK SOBR FAM 2013|121|Horeca|0
0|FS931172|2013-05-25 23:03:04||||M|||||||||||||KTWH||||||||||137|CCC HRK SOBR FAM 2013|121|Horeca|0
0|FS931174|2013-05-25 23:03:32||||F|||||||||||||MBRGLFT||||||||||137|CCC HRK SOBR FAM 2013|121|Horeca|0
0|FS931181|2013-05-25 23:05:38||||F|||||||||||||VOGLL||||||||||137|CCC HRK SOBR FAM 2013|121|Horeca|0
0|FS931182|2013-05-25 23:06:31||||M|||||||||||||MBRRD||||||||||137|CCC HRK SOBR FAM 2013|121|Horeca|0
0|FS931203|2013-05-25 23:19:09||||M|||||||||||||PARAB||||||||||137|CCC HRK SOBR FAM 2013|121|Horeca|0
0|FS932004|2013-05-26 20:05:41||||M|||||||||||||DAVGLS||||||||||137|CCC HRK SOBR FAM 2013|121|Horeca|0
0|FS932007|2013-05-26 20:06:30||||F|||||||||||||VIRSPR||||||||||137|CCC HRK SOBR FAM 2013|121|Horeca|0
0|FS932012|2013-05-26 20:08:06||||F|||||||||||||GLMLIL||||||||||137|CCC HRK SOBR FAM 2013|121|Horeca|0
0|FS932014|2013-05-26 20:08:33||||M|||||||||||||KTBL||||||||||137|CCC HRK SOBR FAM 2013|121|Horeca|0
0|FS932019|2013-05-26 20:11:58||||F|||||||||||||VOGLL||||||||||137|CCC HRK SOBR FAM 2013|121|Horeca|0
0|FS932054|2013-05-26 20:29:05||||F|||||||||||||DUNFCMBB||||||||||137|CCC HRK SOBR FAM 2013|121|Horeca|0
0|FS932103|2013-05-26 20:56:01||||F|||||||||||||VOGLL||||||||||137|CCC HRK SOBR FAM 2013|121|Horeca|0
0|FS932106|2013-05-26 20:57:57||||M|||||||||||||KTBLH||||||||||137|CCC HRK SOBR FAM 2013|121|Horeca|0
0|FS932119|2013-05-26 21:06:50||||M|||||||||||||MBRGL||||||||||137|CCC HRK SOBR FAM 2013|121|Horeca|0
0|FS932150|2013-05-26 21:31:07||||M|||||||||||||DUNFCMBB||||||||||137|CCC HRK SOBR FAM 2013|121|Horeca|0
0|FS932152|2013-05-26 21:31:46||||M|||||||||||||DUNFCMBB||||||||||137|CCC HRK SOBR FAM 2013|121|Horeca|0
0|FS932154|2013-05-26 21:35:15||||M|||||||||||||KTSV||||||||||137|CCC HRK SOBR FAM 2013|121|Horeca|0
0|FS932174|2013-05-26 21:55:43||||F|||||||||||||VIRSM||||||||||137|CCC HRK SOBR FAM 2013|121|Horeca|0
0|FS932176|2013-05-26 21:56:56||||M|||||||||||||KTBL||||||||||137|CCC HRK SOBR FAM 2013|121|Horeca|0
0|FS932182|2013-05-26 21:58:35||||F|||||||||||||KTBL||||||||||137|CCC HRK SOBR FAM 2013|121|Horeca|0
0|FS932199|2013-05-26 22:07:05||||M|||||||||||||DUNFCBB||||||||||137|CCC HRK SOBR FAM 2013|121|Horeca|0
0|FS932200|2013-05-26 22:07:18||||F|||||||||||||KTNWH||||||||||137|CCC HRK SOBR FAM 2013|121|Horeca|0
0|FS932211|2013-05-26 22:15:18||||F|||||||||||||VOGABP||||||||||137|CCC HRK SOBR FAM 2013|121|Horeca|0
0|FS932217|2013-05-26 22:23:51||||M|||||||||||||PARRSSMH||||||||||137|CCC HRK SOBR FAM 2013|121|Horeca|0
0|FS932233|2013-05-26 22:36:39||||F|||||||||||||KTNBK||||||||||137|CCC HRK SOBR FAM 2013|121|Horeca|0
0|FS932239|2013-05-26 22:38:59||||M|||||||||||||KTSV||||||||||137|CCC HRK SOBR FAM 2013|121|Horeca|0
0|FS932241|2013-05-26 22:39:13||||F|||||||||||||VOGJSN||||||||||137|CCC HRK SOBR FAM 2013|121|Horeca|0
0|FS932244|2013-05-26 22:40:22||||M|||||||||||||DAVCL||||||||||137|CCC HRK SOBR FAM 2013|121|Horeca|0
0|FS932245|2013-05-26 22:40:38||||F|||||||||||||VOGABP||||||||||137|CCC HRK SOBR FAM 2013|121|Horeca|0
0|FS932249|2013-05-26 22:41:13||||M|||||||||||||LMRDH||||||||||137|CCC HRK SOBR FAM 2013|121|Horeca|0
0|FS932250|2013-05-26 22:41:14||||M|||||||||||||LMRDH||||||||||137|CCC HRK SOBR FAM 2013|121|Horeca|0
0|FS932251|2013-05-26 22:41:26||||F|||||||||||||KTBL||||||||||137|CCC HRK SOBR FAM 2013|121|Horeca|0
0|FS932253|2013-05-26 22:44:41||||F|||||||||||||DAVSVSS||||||||||137|CCC HRK SOBR FAM 2013|121|Horeca|0
0|FS932255|2013-05-26 22:46:58||||F|||||||||||||GLPBPKFT||||||||||137|CCC HRK SOBR FAM 2013|121|Horeca|0
0|FS932258|2013-05-26 22:50:03||||M|||||||||||||DUNFCSB||||||||||137|CCC HRK SOBR FAM 2013|121|Horeca|0
0|FS932269|2013-05-26 22:55:31||||M|||||||||||||DUNFCSB||||||||||137|CCC HRK SOBR FAM 2013|121|Horeca|0
0|FS932270|2013-05-26 22:55:45||||F|||||||||||||KTSWIT||||||||||137|CCC HRK SOBR FAM 2013|121|Horeca|0
0|FS932272|2013-05-26 22:55:57||||M|||||||||||||MBRGL||||||||||137|CCC HRK SOBR FAM 2013|121|Horeca|0
0|FS932276|2013-05-26 22:56:26||||F|||||||||||||VOGLL||||||||||137|CCC HRK SOBR FAM 2013|121|Horeca|0
0|FS932278|2013-05-26 22:56:40||||F|||||||||||||KTBL||||||||||137|CCC HRK SOBR FAM 2013|121|Horeca|0
0|FS932281|2013-05-26 22:56:44||||M|||||||||||||PARAB||||||||||137|CCC HRK SOBR FAM 2013|121|Horeca|0
0|FS932288|2013-05-26 22:57:38||||F|||||||||||||VIRSM||||||||||137|CCC HRK SOBR FAM 2013|121|Horeca|0
0|FS932289|2013-05-26 22:58:32||||M|||||||||||||MBRGL||||||||||137|CCC HRK SOBR FAM 2013|121|Horeca|0
0|FS932291|2013-05-26 22:58:46||||F|||||||||||||KTBL||||||||||137|CCC HRK SOBR FAM 2013|121|Horeca|0
0|FS932292|2013-05-26 22:58:57||||F|||||||||||||KTBL||||||||||137|CCC HRK SOBR FAM 2013|121|Horeca|0
0|FS932294|2013-05-26 22:59:29||||F|||||||||||||DAVGLS||||||||||137|CCC HRK SOBR FAM 2013|121|Horeca|0
0|FS932299|2013-05-26 23:03:59||||F|||||||||||||DAVGLS||||||||||137|CCC HRK SOBR FAM 2013|121|Horeca|0
0|FS932305|2013-05-26 23:09:30||||F|||||||||||||VOGM||||||||||137|CCC HRK SOBR FAM 2013|121|Horeca|0
