0|CS153373|2012-05-22 21:37:42|Zorescu|Amelia||F|1990-06-29|Satu Mare|SATU MARE|B.dul Muncii|17|H||1|26|0753759240||zorescua@yahoo.com|WISSM||Winston Super Slims Menthol (5mg) Pack|Yes|Yes||CJ001907|Corvinus PUB|Cluj-Napoca|CJEVENTBA03|29|CCC EVENT WIN FAM 2012|121|Horeca|0
0|CS153374|2012-05-22 21:37:54|Rodila|Cristina||F|1989-12-24|Bistrita Nasaud|BISTRITA|Crinilor|1|1|B|5|44|0742313057||criss_tina_r89@yahoo.com|WISSM||Winston Super Slims Menthol (5mg) Pack|Yes|Yes||CJ001907|Corvinus PUB|Cluj-Napoca|CJEVENTBA04|29|CCC EVENT WIN FAM 2012|121|Horeca|0
0|CS153377|2012-05-22 22:06:57|Nagy|Attila||M|1991-07-15|Cluj|CLUJ NAPOCA|PP Hasdeu|90|||||0742612990||nagya113@yahoo.com|WIBL||Winston Blue (6mg) Pack|Yes|Yes||CJ001907|Corvinus PUB|Cluj-Napoca|CJEVENTBA04|29|CCC EVENT WIN FAM 2012|121|Horeca|0
0|CS153378|2012-05-22 22:10:01|Farcas|Iulia||F|1990-06-14|Alba|LOPADEA VECHE|Principala|49|||||0746595930||farcasiulia@yahoo.com|WIBL||Winston Blue (6mg) Pack|Yes|Yes||CJ001907|Corvinus PUB|Cluj-Napoca|CJEVENTBA04|29|CCC EVENT WIN FAM 2012|121|Horeca|0
0|CS153379|2012-05-22 22:10:36|Ardelean|Ioana Diana||F|1992-07-27|Salaj|ZALAU|Locotenent pretorian|11|N108|A|1|4|0754395672||ioa_scumpy27@yahoo.com|WIBL||Winston Blue (6mg) Pack|Yes|Yes||CJ001907|Corvinus PUB|Cluj-Napoca|CJEVENTBA03|29|CCC EVENT WIN FAM 2012|121|Horeca|0
0|CS153380|2012-05-22 22:15:25|Sopoian|Bogdan||M|1990-06-12|Satu Mare|SATU MARE|Iza|8|||||0742277796||sopoianbogdan@yahoo.com|WISV||Winston Silver (4 mg) Pack|Yes|Yes||CJ001907|Corvinus PUB|Cluj-Napoca|CJEVENTBA04|29|CCC EVENT WIN FAM 2012|121|Horeca|0
0|CS153381|2012-05-22 22:18:50|Rus|Georgelus||M|1981-04-28|Satu Mare|SATU MARE|Egalitatii|13|||||0757714007||rus_george2006@yahoo.com|WISV||Winston Silver (4 mg) Pack|Yes|Yes||CJ001907|Corvinus PUB|Cluj-Napoca|CJEVENTBA04|29|CCC EVENT WIN FAM 2012|121|Horeca|0
0|CS153383|2012-05-22 22:21:30|Rus|Tudor||M|1983-06-03|Cluj|CLUJ NAPOCA|Teleorman|32|T3|1|4|10|0742891172||tudonesoul@gmail.com|WIBL||Winston Blue (6mg) Pack|Yes|Yes||CJ001907|Corvinus PUB|Cluj-Napoca|CJEVENTBA03|29|CCC EVENT WIN FAM 2012|121|Horeca|0
0|CS153384|2012-05-22 22:23:49|Muresan|Andrei Marius||M|1991-03-10|Cluj|CLUJ NAPOCA|Tasnad|27|||||0748626459|||WIBL||Winston Blue (6mg) Pack|Yes|Yes||CJ001907|Corvinus PUB|Cluj-Napoca|CJEVENTBA03|29|CCC EVENT WIN FAM 2012|121|Horeca|0
0|CS153385|2012-05-22 22:29:11|Sabadi|Gabriel||M|1987-11-25|Cluj|CLUJ NAPOCA|Oltului|36|||||0758284657||gabriel.sabadi@gmail.com|WIBL||Winston Blue (6mg) Pack|Yes|Yes||CJ001907|Corvinus PUB|Cluj-Napoca|CJEVENTBA03|29|CCC EVENT WIN FAM 2012|121|Horeca|0
0|CS153386|2012-05-22 22:29:11|Borbei|Cristian||M|1990-06-19|Satu Mare|CAREI|Ady Endre|1|1|1|1|4|0752346615||borbei_cristi_jr@yahoo.com|PARAB|WIBL|Winston Blue (6mg) Pack|Yes|Yes||CJ001907|Corvinus PUB|Cluj-Napoca|CJEVENTBA04|29|CCC EVENT WIN FAM 2012|121|Horeca|0
0|CS153387|2012-05-22 22:32:08|Zabalai|Adrian||M|1990-03-20|Cluj|CLUJ NAPOCA|Cernei|10|||8|12|0754563656||elzbl@yahoo.com|WIBL||Winston Blue (6mg) Pack|Yes|Yes||CJ001907|Corvinus PUB|Cluj-Napoca|CJEVENTBA03|29|CCC EVENT WIN FAM 2012|121|Horeca|0
0|CS153388|2012-05-22 22:32:29|Bumb|Bogdan||M|1985-08-04|Cluj|CLUJ NAPOCA|Tulcea|13|||4|28|0740285995|||WIBL||Winston Blue (6mg) Pack|Yes|Yes||CJ001907|Corvinus PUB|Cluj-Napoca|CJEVENTBA04|29|CCC EVENT WIN FAM 2012|121|Horeca|0
0|CS153389|2012-05-22 22:36:06|Porime|Oana||F|1990-06-15|Cluj|CLUJ NAPOCA|Bp Hasdeu|90|||||0741936617||creatza_love@yahoo.co.uk|WIBL||Winston Blue (6mg) Pack|Yes|Yes||CJ001907|Corvinus PUB|Cluj-Napoca|CJEVENTBA04|29|CCC EVENT WIN FAM 2012|121|Horeca|0
0|CS153390|2012-05-22 22:38:45|Niste|Mihai||M|1986-11-28|Satu Mare|SATU MARE|G. Georgescu|17|||0|0|0723678179||nistemihai@yahoo.com|WIBL||Winston Blue (6mg) Pack|Yes|Yes||CJ001907|Corvinus PUB|Cluj-Napoca|CJEVENTBA03|29|CCC EVENT WIN FAM 2012|121|Horeca|0
0|CS153391|2012-05-22 22:39:50|Sabau|Anca||F|1984-11-04|Satu Mare|SATU MARE|Cetatii|6|||0|0|0728883213||anzka4@yahoo.com|WIBL||Winston Blue (6mg) Pack|Yes|Yes||CJ001907|Corvinus PUB|Cluj-Napoca|CJEVENTBA03|29|CCC EVENT WIN FAM 2012|121|Horeca|0
0|CS153392|2012-05-22 22:41:11|Pal|Aurelia||F|1988-11-25|Cluj|CLUJ NAPOCA|Hasdeu|90|||||0746608589||rella_222@yahoo.com|KTCON|WISV|Winston Super Slims Menthol (5mg) Pack|Yes|Yes||CJ001907|Corvinus PUB|Cluj-Napoca|CJEVENTBA04|29|CCC EVENT WIN FAM 2012|121|Horeca|0
0|CS153393|2012-05-22 22:42:02|Sabau|Flaviu||M|1986-07-21|Satu Mare|SATU MARE|Cetatii|6|||0|0|0728883214||darkmanx2z@yahoo.com|CABL||Winston Blue (6mg) Pack|Yes|Yes||CJ001907|Corvinus PUB|Cluj-Napoca|CJEVENTBA03|29|CCC EVENT WIN FAM 2012|121|Horeca|0
0|CS153394|2012-05-22 22:44:43|Boros|Cosmin||M|1986-11-21|Satu Mare|SATU MARE|Jiului|2|||||0748131886||cozminutzu@yahoo.com|WIBL||Winston Blue (6mg) Pack|Yes|Yes||CJ001907|Corvinus PUB|Cluj-Napoca|CJEVENTBA03|29|CCC EVENT WIN FAM 2012|121|Horeca|0
0|CS153395|2012-05-22 22:47:49|Bozesan|Monica||F|1991-09-28|Alba|ALBA IULIA|Iederii|8|||||0724089322||monica.bozesan@yahoo.com|KTSV|WISSB|Winston Super Slims Blue (5mg) Pack|Yes|Yes||CJ001907|Corvinus PUB|Cluj-Napoca|CJEVENTBA04|29|CCC EVENT WIN FAM 2012|121|Horeca|0
0|CS153396|2012-05-22 22:51:00|Seserman|Cosmin||M|1986-06-27|Bistrita Nasaud|BECLEAN|1 decembrie 1918|16|A32|S2|1|3|0743858348||unbaiatrau@yahoo.com|WIBL||Winston Blue (6mg) Pack|Yes|Yes||CJ001907|Corvinus PUB|Cluj-Napoca|CJEVENTBA03|29|CCC EVENT WIN FAM 2012|121|Horeca|0
0|CS153397|2012-05-22 22:54:22|Nicoschi|Suzana||F|1990-07-07|Cluj|CLUJ NAPOCA|Izlazului|5|||4|10|0748477640||suzy_ramo@yahoo.com|DUNSV||Winston Silver (4 mg) Pack|Yes|Yes||CJ001907|Corvinus PUB|Cluj-Napoca|CJEVENTBA04|29|CCC EVENT WIN FAM 2012|121|Horeca|0
0|CS153398|2012-05-22 22:58:15|Kis|Monika||F|1990-06-20|Cluj|CLUJ NAPOCA|N. Titulescu|24|||||0748380113||kismonika@yahoo.com|WIBL||Winston Blue (6mg) Pack|Yes|Yes||CJ001907|Corvinus PUB|Cluj-Napoca|CJEVENTBA03|29|CCC EVENT WIN FAM 2012|121|Horeca|0
0|CS153399|2012-05-22 23:00:41|Vincse|Boti||M|1991-07-13|Satu Mare|SATU MARE|Jocului|15|||3|4|0742612820||f_boti@yahoo.com|WIBL||Winston Blue (6mg) Pack|Yes|Yes||CJ001907|Corvinus PUB|Cluj-Napoca|CJEVENTBA03|29|CCC EVENT WIN FAM 2012|121|Horeca|0
0|CS153400|2012-05-22 23:01:09|Vise|Ionut||M|1989-11-16|Cluj|CLUJ NAPOCA|Tulcei|53|||0|0|0747577968||ionut_16@yahoo.com|WIBL||Winston Blue (6mg) Pack|Yes|Yes||CJ001907|Corvinus PUB|Cluj-Napoca|CJEVENTBA04|29|CCC EVENT WIN FAM 2012|121|Horeca|0
0|CS153401|2012-05-22 23:02:23|Vlaic|Dan||M|1991-04-16|Cluj|CLUJ NAPOCA|Mehedinti|45|||0|93|0746764956||dvlaic@yahoo.com|WIBL||Winston Blue (6mg) Pack|Yes|Yes||CJ001907|Corvinus PUB|Cluj-Napoca|CJEVENTBA04|29|CCC EVENT WIN FAM 2012|121|Horeca|0
0|CS153402|2012-05-22 23:03:22|Nicorici|Tudor||F|1988-12-02|Salaj|CEHU SILVANIEI|Principala|5|||0|0|0743712739||tud_nicorici@yahoo.com|WIBL||Winston Blue (6mg) Pack|Yes|Yes||CJ001907|Corvinus PUB|Cluj-Napoca|CJEVENTBA04|29|CCC EVENT WIN FAM 2012|121|Horeca|0
0|CS153403|2012-05-22 23:06:50|Boca|Sofica||F|1992-02-04|Bistrita Nasaud|CAIANU MIC||278|||||0765127850||sofy.boca@yahoo.com|WIBL||Winston Blue (6mg) Pack|Yes|Yes||CJ001907|Corvinus PUB|Cluj-Napoca|CJEVENTBA03|29|CCC EVENT WIN FAM 2012|121|Horeca|0
0|CS153404|2012-05-22 23:08:50|Sas|Ioana||F|1992-06-14|Alba|AIUD|Avram Iancu|79|||||0755625127||jo_anna14@yahoo.com|WISSB||Winston Super Slims Blue (5mg) Pack|Yes|Yes||CJ001907|Corvinus PUB|Cluj-Napoca|CJEVENTBA04|29|CCC EVENT WIN FAM 2012|121|Horeca|0
0|CS153405|2012-05-22 23:14:15|Calugar|Calina||F|1989-02-25|Alba|ALBA IULIA|Muresului|89|||||0746901213||ka_ly_na@yahoo.com|WIBL||Winston Blue (6mg) Pack|Yes|Yes||CJ001907|Corvinus PUB|Cluj-Napoca|CJEVENTBA03|29|CCC EVENT WIN FAM 2012|121|Horeca|0
0|CS153406|2012-05-22 23:19:57|Stefan|Andreea||F|1988-09-05|Cluj|CLUJ NAPOCA|Brates|2a|MN1|3|P|30|0757505259||stefanandreeamaria@yahoo.com|CABK|WISSM|Winston Super Slims Menthol (5mg) Pack|Yes|Yes||CJ001907|Corvinus PUB|Cluj-Napoca|CJEVENTBA04|29|CCC EVENT WIN FAM 2012|121|Horeca|0
0|CS153407|2012-05-22 23:23:00|Suciu|Horatiu||M|1989-06-06|Cluj|CLUJ NAPOCA|Ana Ipatescu|8|||||0745820251|||KTBL|WIBL|Winston Blue (6mg) Pack|Yes|Yes||CJ001907|Corvinus PUB|Cluj-Napoca|CJEVENTBA04|29|CCC EVENT WIN FAM 2012|121|Horeca|0
0|CS153408|2012-05-22 23:28:46|Marchis|Gabriel||F|1991-03-11|Cluj|CLUJ NAPOCA|Tulcea|6|||0|53|0758313770||gaby_1191@yahoo.com|WIBL||Winston Blue (6mg) Pack|Yes|Yes||CJ001907|Corvinus PUB|Cluj-Napoca|CJEVENTBA03|29|CCC EVENT WIN FAM 2012|121|Horeca|0
0|CS153409|2012-05-22 23:28:49|Cioara|Sever||M|1990-03-09|Cluj|CLUJ NAPOCA|Hasdeu|90|16||||0753754906||Cg_sever@yahoo.com|WIBL||Winston Blue (6mg) Pack|Yes|Yes||CJ001907|Corvinus PUB|Cluj-Napoca|CJEVENTBA04|29|CCC EVENT WIN FAM 2012|121|Horeca|0
0|CS153410|2012-05-22 23:29:57|Dragos|Ovidiu||M|1987-12-19|Maramures|BAIA MARE|Moldovei|18|||0|18|0747337312||ovi_dragos@yahoo.com|WIBL||Winston Blue (6mg) Pack|Yes|Yes||CJ001907|Corvinus PUB|Cluj-Napoca|CJEVENTBA03|29|CCC EVENT WIN FAM 2012|121|Horeca|0
0|CS153411|2012-05-22 23:31:02|Muresan|Marius||M|1982-06-27|Cluj|CLUJ NAPOCA|Dunarii|29|||0|45|0751032004||dan_22marius@yahoo.com|WIBL||Winston Blue (6mg) Pack|Yes|Yes||CJ001907|Corvinus PUB|Cluj-Napoca|CJEVENTBA03|29|CCC EVENT WIN FAM 2012|121|Horeca|0
0|CS153412|2012-05-22 23:34:07|Fit|Marius||M|1990-02-12|Salaj|SIMLEU SILVANIEI|Barnutiu|2|1|2|P|3|0753857685||marius_fitz02@yahoo.com|WISV||Winston Silver (4 mg) Pack|Yes|Yes||CJ001907|Corvinus PUB|Cluj-Napoca|CJEVENTBA04|29|CCC EVENT WIN FAM 2012|121|Horeca|0
0|CS153413|2012-05-22 23:37:44|Stoleru|Leonard Ionut||M|1982-06-09|Neamt|PIATRA NEAMT|A. Lapusneanu|79|A3|A|1|8|0745704810||stoleruleo@yahoo.com|WIBL||Winston Blue (6mg) Pack|Yes|Yes||CJ001907|Corvinus PUB|Cluj-Napoca|CJEVENTBA03|29|CCC EVENT WIN FAM 2012|121|Horeca|0
0|CS153414|2012-05-22 23:38:38|Dascalescu|Ioan-Radu||M|1987-08-29|Neamt|PIATRA NEAMT|Garofitei|26|B2|B|3|33|0746349158||ioanradu29@yahoo.com|KTBL|WIBL|Winston Blue (6mg) Pack|Yes|Yes||CJ001907|Corvinus PUB|Cluj-Napoca|CJEVENTBA04|29|CCC EVENT WIN FAM 2012|121|Horeca|0
0|CS153415|2012-05-22 23:43:36|Jurj|Alexandru||M|1991-04-21|Satu Mare|SANISLAU|Horea|1125|||||0751416312|||PARAB||Winston Blue (6mg) Pack|Yes|Yes||CJ001907|Corvinus PUB|Cluj-Napoca|CJEVENTBA03|29|CCC EVENT WIN FAM 2012|121|Horeca|0
0|CS153416|2012-05-22 23:44:50|Tomoiaga|Bianca||F|1991-02-12|Maramures|MOISEI|Principala|407|||0|0|0745027233||by3ncutzza@yahoo.com|WICL||Winston Classic Pack|Yes|Yes||CJ001907|Corvinus PUB|Cluj-Napoca|CJEVENTBA03|29|CCC EVENT WIN FAM 2012|121|Horeca|0
0|CS153417|2012-05-22 23:45:26|Bintintan|Teodora||F|1989-01-27|Hunedoara|ORASTIE|George Cosbuc|28|||||0763617838||teo_bintzy@yahoo.com|KTCON||Winston Super Slims Menthol (5mg) Pack|Yes|Yes||CJ001907|Corvinus PUB|Cluj-Napoca|CJEVENTBA04|29|CCC EVENT WIN FAM 2012|121|Horeca|0
0|CS153418|2012-05-22 23:49:32|Ficior|Sebastian||M|1985-02-15|Cluj|CLUJ NAPOCA|Hasdeu|1|||||0745247250||ficior_sebastian@yahoo.com|DUNBL||Winston Blue (6mg) Pack|Yes|Yes||CJ001907|Corvinus PUB|Cluj-Napoca|CJEVENTBA03|29|CCC EVENT WIN FAM 2012|121|Horeca|0
0|CS153419|2012-05-22 23:49:37|Muresan|Mircea||M|1985-04-18|Cluj|CLUJ NAPOCA|Sesului|17|||0|14|0740916825||dmanx6@yahoo.com|WIBL||Winston Blue (6mg) Pack|Yes|Yes||CJ001907|Corvinus PUB|Cluj-Napoca|CJEVENTBA04|29|CCC EVENT WIN FAM 2012|121|Horeca|0
0|CS153420|2012-05-22 23:50:49|Moale|Mihai||M|1985-11-16|Cluj|CLUJ NAPOCA|Calea manastur|76|||0|31|0740611263||mihaim2000@yahoo.com|WIBL||Winston Blue (6mg) Pack|Yes|Yes||CJ001907|Corvinus PUB|Cluj-Napoca|CJEVENTBA04|29|CCC EVENT WIN FAM 2012|121|Horeca|0
0|CS153421|2012-05-22 23:53:34|Veres|Attila||M|1991-06-13|Satu Mare|SATU MARE|Plopului|6|||||0742612455||veresattlia@yahoo.com|WIBL||Winston Blue (6mg) Pack|Yes|Yes||CJ001907|Corvinus PUB|Cluj-Napoca|CJEVENTBA03|29|CCC EVENT WIN FAM 2012|121|Horeca|0
0|CS153422|2012-05-22 23:55:08|Turzai|Eva||F|1992-06-30|Alba|LOPADEA NOUA||4|||||0742408065||turzai_e@yahoo.com|WIBL||Winston Blue (6mg) Pack|Yes|Yes||CJ001907|Corvinus PUB|Cluj-Napoca|CJEVENTBA03|29|CCC EVENT WIN FAM 2012|121|Horeca|0
0|CS153423|2012-05-22 23:55:12|Nistor|Ioana Maria||F|1989-02-06|Cluj|CLUJ NAPOCA|Mehedinti|46|D7|2|9|126|0746587208||ioananistor1@yahoo.com|KTSV|WISV|Winston Silver (4 mg) Pack|Yes|Yes||CJ001907|Corvinus PUB|Cluj-Napoca|CJEVENTBA04|29|CCC EVENT WIN FAM 2012|121|Horeca|0
0|CS153424|2012-05-22 23:58:08|Coman|Oana||F|1994-02-02|Maramures|MOISEI|Principala|1275/a|||0|0|0754385187||oany_coman@yahoo.com|PMBL||Winston Classic Pack|Yes|Yes||CJ001907|Corvinus PUB|Cluj-Napoca|CJEVENTBA03|29|CCC EVENT WIN FAM 2012|121|Horeca|0
0|CS153425|2012-05-23 00:01:59|Pop|Bogdan||M|1990-06-05|Cluj|GHERLA|Alexandru Vlahuta|16|V3|2|2|16|0757379480||boghdan_90@yahoo.com|WIBL||Winston Blue (6mg) Pack|Yes|Yes||CJ001907|Corvinus PUB|Cluj-Napoca|CJEVENTBA04|29|CCC EVENT WIN FAM 2012|121|Horeca|0
0|CS153426|2012-05-23 00:06:16|Riza|Lavinia||F|1990-02-12|Salaj|ZALAU|Victor Deleu||G14|A|1|7|0755213153||blondina_lavinia2000@yahoo.com|KTCON|WISSM|Winston Super Slims Menthol (5mg) Pack|Yes|Yes||CJ001907|Corvinus PUB|Cluj-Napoca|CJEVENTBA04|29|CCC EVENT WIN FAM 2012|121|Horeca|0
0|CS153427|2012-05-23 00:07:51|Sas|Paul||M|1988-05-10|Cluj|CLUJ NAPOCA|Bucium|36|||||0746864578|||WISV||Winston Silver (4 mg) Pack|Yes|Yes||CJ001907|Corvinus PUB|Cluj-Napoca|CJEVENTBA03|29|CCC EVENT WIN FAM 2012|121|Horeca|0
0|CS153428|2012-05-23 00:09:36|Neamtu|Horatiu||M|1987-04-06|Cluj|CLUJ NAPOCA|Bistritei|46|22|2|3|17|0741425364||horineamtu@yahoo.com|WICL||Winston Classic Pack|Yes|Yes||CJ001907|Corvinus PUB|Cluj-Napoca|CJEVENTBA04|29|CCC EVENT WIN FAM 2012|121|Horeca|0
0|CS153429|2012-05-23 00:10:08|Sichet|Andrei||M|1989-05-25|Satu Mare|SATU MARE|Maramuresului|36|||||0741700533||sicnet_andrey@yahoo.com|WISSM||Winston Super Slims Menthol (5mg) Pack|Yes|Yes||CJ001907|Corvinus PUB|Cluj-Napoca|CJEVENTBA03|29|CCC EVENT WIN FAM 2012|121|Horeca|0
0|CS153430|2012-05-23 00:13:34|Halmaciu|Larisa||F|1989-10-30|Cluj|CLUJ NAPOCA|Hasdeu|90|||||0748027828||larisa_maciu@yahoo.com|WISSM||Winston Super Slims Menthol (5mg) Pack|Yes|Yes||CJ001907|Corvinus PUB|Cluj-Napoca|CJEVENTBA04|29|CCC EVENT WIN FAM 2012|121|Horeca|0
0|CS153431|2012-05-23 00:16:06|Turzai|Szibila||F|1991-06-30|Cluj|CLUJ NAPOCA|Brasov|4|||||0742728804||t_szib@yahoo.com|WIBL||Winston Blue (6mg) Pack|Yes|Yes||CJ001907|Corvinus PUB|Cluj-Napoca|CJEVENTBA03|29|CCC EVENT WIN FAM 2012|121|Horeca|0
0|CS153432|2012-05-23 00:17:45|Kis|Tamas||M|1990-04-15|Cluj|CLUJ NAPOCA|Hasdeu|20|||||0755884965||kist@yahoo.com|WIBL||Winston Blue (6mg) Pack|Yes|Yes||CJ001907|Corvinus PUB|Cluj-Napoca|CJEVENTBA03|29|CCC EVENT WIN FAM 2012|121|Horeca|0
0|CS153433|2012-05-23 00:18:43|Niculescu|Alex||M|1989-12-22|Cluj|CLUJ NAPOCA|Calea manastur|99|||0|22|0746267834||alexei_niku@yahoo.com|WIBL||Winston Blue (6mg) Pack|Yes|Yes||CJ001907|Corvinus PUB|Cluj-Napoca|CJEVENTBA04|29|CCC EVENT WIN FAM 2012|121|Horeca|0
0|CS153434|2012-05-23 00:18:59|Vajda|Geza||M|1991-01-23|Covasna|GHELINTA|Principala|976|0|0|0|0|0751983226||vajda_geza@yahoo.com|WIBL||Winston Blue (6mg) Pack|Yes|Yes||CJ001907|Corvinus PUB|Cluj-Napoca|CJEVENTBA03|29|CCC EVENT WIN FAM 2012|121|Horeca|0
0|CS153435|2012-05-23 00:20:05|Schradi|Walter||M|1991-06-22|Satu Mare|CAREI|Capital zarnescu|9|||0|74|0740019860||walti22@yahoo.com|WIBL||Winston Blue (6mg) Pack|Yes|Yes||CJ001907|Corvinus PUB|Cluj-Napoca|CJEVENTBA03|29|CCC EVENT WIN FAM 2012|121|Horeca|0
0|CS153436|2012-05-23 00:21:08|Bokor|Csongor||M|1992-10-23|Cluj|CLUJ NAPOCA|BP Hasdeu|90|||0|16|0721283738||csongi_the_b@yahoo.com|WIBL||Winston Blue (6mg) Pack|Yes|Yes||CJ001907|Corvinus PUB|Cluj-Napoca|CJEVENTBA03|29|CCC EVENT WIN FAM 2012|121|Horeca|0
0|CS153437|2012-05-23 00:26:42|Costeniuc|Katalina||F|1988-06-19|Cluj|CLUJ NAPOCA|Cioplea|13||2|2|25|0743303914||katalina_fany@yahoo.com|WISSM||Winston Super Slims Menthol (5mg) Pack|Yes|Yes||CJ001907|Corvinus PUB|Cluj-Napoca|CJEVENTBA04|29|CCC EVENT WIN FAM 2012|121|Horeca|0
0|CS153438|2012-05-23 00:45:30|Lupea|Loredana||F|1989-02-13|Cluj|CLUJ NAPOCA|1 decembrie|130|C1||1|67|0740510590||purple_lore@yahoo.com|WISV||Winston Silver (4 mg) Pack|Yes|Yes||CJ001907|Corvinus PUB|Cluj-Napoca|CJEVENTBA03|29|CCC EVENT WIN FAM 2012|121|Horeca|0
0|CS153439|2012-05-23 00:47:55|Podariu|Alexandru||M|1988-02-16|Cluj|CLUJ NAPOCA|Nirajului|7|B4|1|3|7|0745640095||padarik@yahoo.com|WISV||Winston Silver (4 mg) Pack|Yes|Yes||CJ001907|Corvinus PUB|Cluj-Napoca|CJEVENTBA03|29|CCC EVENT WIN FAM 2012|121|Horeca|0
0|CS153440|2012-05-23 00:53:51|Dragos|Elena||F|1987-11-22|Cluj|CLUJ NAPOCA|Berariei|268|||||0746864688||dragoselena@gmail.com|WIBL||Winston Blue (6mg) Pack|Yes|Yes||CJ001907|Corvinus PUB|Cluj-Napoca|CJEVENTBA03|29|CCC EVENT WIN FAM 2012|121|Horeca|0
0|CS153441|2012-05-23 00:55:14|Supuran|Vlad||M|1986-08-04|Bistrita Nasaud|BISTRITA|Motilor|468|||||0752479866||vladutzzzboyy@yahoo.com|WIBL||Winston Blue (6mg) Pack|Yes|Yes||CJ001907|Corvinus PUB|Cluj-Napoca|CJEVENTBA03|29|CCC EVENT WIN FAM 2012|121|Horeca|0
0|CS153442|2012-05-23 00:55:36|Pop|Cosmin||M|1991-04-05|Salaj|ZALAU|Ioan Nechita||F9||2|10|0758774369||brunet_caprui_zalau@yahoo.com|WISV||Winston Silver (4 mg) Pack|Yes|Yes||CJ001907|Corvinus PUB|Cluj-Napoca|CJEVENTBA04|29|CCC EVENT WIN FAM 2012|121|Horeca|0
0|CS153443|2012-05-23 00:56:11|Holota|Mihnea||M|1988-08-12|Suceava|SUCEAVA|Plesesti gane|24|||0|0|0728836311||holota_mihnea@yahoo.com|WIBL||Winston Blue (6mg) Pack|Yes|Yes||CJ001907|Corvinus PUB|Cluj-Napoca|CJEVENTBA03|29|CCC EVENT WIN FAM 2012|121|Horeca|0
0|CS153444|2012-05-23 00:57:11|Pinticanu|Andrei||M|1990-05-07|Botosani|BOTOSANI|Granicerilor|14|||0|0|0743381649||kleine85a@yahoo.com|WISV||Winston Silver (4 mg) Pack|Yes|Yes||CJ001907|Corvinus PUB|Cluj-Napoca|CJEVENTBA03|29|CCC EVENT WIN FAM 2012|121|Horeca|0
0|CS153445|2012-05-23 00:57:35|Sas|Andreea||F|1988-09-04|Alba|AIUD|Avram Iancu|79|||||0742545973||andreea_sas@yahoo.com|WISSB||Winston Super Slims Blue (5mg) Pack|Yes|Yes||CJ001907|Corvinus PUB|Cluj-Napoca|CJEVENTBA04|29|CCC EVENT WIN FAM 2012|121|Horeca|0
0|CS153446|2012-05-23 00:58:46|Savin|Anamaria||F|1987-06-10|Cluj|CLUJ NAPOCA|Mehedinti||D3|E|4|24|0745773901||aia_mik_a_lui_savin@yahoo.com|WISV||Winston Silver (4 mg) Pack|Yes|Yes||CJ001907|Corvinus PUB|Cluj-Napoca|CJEVENTBA03|29|CCC EVENT WIN FAM 2012|121|Horeca|0
0|CS153447|2012-05-23 01:00:16|Lupu|Madalina||F|1989-05-22|Salaj|ZALAU|Victor Deleu||G14|A|1|7|0745391434||eu_mada@yahoo.com|WISSB||Winston Super Slims Blue (5mg) Pack|Yes|Yes||CJ001907|Corvinus PUB|Cluj-Napoca|CJEVENTBA04|29|CCC EVENT WIN FAM 2012|121|Horeca|0
0|CS153448|2012-05-23 01:02:50|Pascalau|Amalia||F|1989-04-06|Satu Mare|SATU MARE|Blocului|12|||||0742745610||ama_pascalau@yahoo.com|WISSB||Winston Super Slims Blue (5mg) Pack|Yes|Yes||CJ001907|Corvinus PUB|Cluj-Napoca|CJEVENTBA04|29|CCC EVENT WIN FAM 2012|121|Horeca|0
0|CS153449|2012-05-23 01:05:21|Alec|Cristina||F|1986-07-10|Cluj|CLUJ NAPOCA|Mircea Eliade|2A|||1|2|0743027825||cristina_halmaciu@yahoo.com|VIRSPR|WISSB|Winston Super Slims Blue (5mg) Pack|Yes|Yes||CJ001907|Corvinus PUB|Cluj-Napoca|CJEVENTBA04|29|CCC EVENT WIN FAM 2012|121|Horeca|0
0|CS153450|2012-05-23 01:09:28|Stefanescu|Vlad||M|1987-06-25|Cluj|CLUJ NAPOCA|Hasdeu|8|||||0744788070||vlad_stefanescu@yahoo.com|KTNSV|WISSS|Winston Super Slims Silver (3mg) Pack|Yes|Yes||CJ001907|Corvinus PUB|Cluj-Napoca|CJEVENTBA04|29|CCC EVENT WIN FAM 2012|121|Horeca|0
0|CS153451|2012-05-23 01:11:34|Rihor|Cristian||M|1993-03-23|Mures|TARGU MURES|Rovinari|28|||||0746339206||cristy_r_9c@yahoo.com|WIBL||Winston Blue (6mg) Pack|Yes|Yes||CJ001907|Corvinus PUB|Cluj-Napoca|CJEVENTBA03|29|CCC EVENT WIN FAM 2012|121|Horeca|0
0|CS153452|2012-05-23 01:12:59|Tamas|Diana||F|1987-04-14|Cluj|CLUJ NAPOCA|Streiului|1|||0|85|0763631863||t_diana_linda@yahoo.com|WIBL||Winston Blue (6mg) Pack|Yes|Yes||CJ001907|Corvinus PUB|Cluj-Napoca|CJEVENTBA03|29|CCC EVENT WIN FAM 2012|121|Horeca|0
0|CS153453|2012-05-23 01:13:46|Turlas|George||M|1991-08-10|Sibiu|SIBIU|Raului|36|1||P|107|0744847645||geoturlas@yahoo.com|WIBL||Winston Blue (6mg) Pack|Yes|Yes||CJ001907|Corvinus PUB|Cluj-Napoca|CJEVENTBA04|29|CCC EVENT WIN FAM 2012|121|Horeca|0
0|CS153454|2012-05-23 01:14:13|Oltean|Laura||F|1985-09-29|Cluj|CLUJ NAPOCA|Herculane|2|||0|50|0744786558||lauradamian22@yahoo.com|WIBL||Winston Blue (6mg) Pack|Yes|Yes||CJ001907|Corvinus PUB|Cluj-Napoca|CJEVENTBA03|29|CCC EVENT WIN FAM 2012|121|Horeca|0
0|CS153455|2012-05-23 01:15:05|Truta|Sergiu||M|1985-11-20|Cluj|Cluj|Plopilor|75|||0|88|0741929614||trutys@yahoo.com|WIBL||Winston Blue (6mg) Pack|Yes|Yes||CJ001907|Corvinus PUB|Cluj-Napoca|CJEVENTBA03|29|CCC EVENT WIN FAM 2012|121|Horeca|0
0|CS153456|2012-05-23 01:16:01|Tutea|Bogdan||M|1989-08-18|Salaj|ZALAU|L.c.pretorian|N9|||0|11|0746988992||tutea_b@yaoo.com|WIBL||Winston Blue (6mg) Pack|Yes|Yes||CJ001907|Corvinus PUB|Cluj-Napoca|CJEVENTBA03|29|CCC EVENT WIN FAM 2012|121|Horeca|0
0|CS153457|2012-05-23 01:16:56|Hada|Raluca||F|1991-07-19|Cluj|CLUJ NAPOCA|Oltului|78|||0|7|0752567151||raluca_hada@yahoo.com|WIBL||Winston Blue (6mg) Pack|Yes|Yes||CJ001907|Corvinus PUB|Cluj-Napoca|CJEVENTBA03|29|CCC EVENT WIN FAM 2012|121|Horeca|0
0|CS153458|2012-05-23 01:20:02|Achim|Ionut||M|1989-12-26|Maramures|BAIA MARE|Alexandri|13|||0|25|0726765749||achim_ionut@yahoo.com|WIBL||Winston Blue (6mg) Pack|Yes|Yes||CJ001907|Corvinus PUB|Cluj-Napoca|CJEVENTBA03|29|CCC EVENT WIN FAM 2012|121|Horeca|0
0|CS153459|2012-05-23 01:21:22|Popa|Laviniu||M|1991-03-15|Cluj|BEDECIU|Principala|171|||0|0|0752606642||laviniu_laviniu91@yahoo.com|WIBL||Winston Blue (6mg) Pack|Yes|Yes||CJ001907|Corvinus PUB|Cluj-Napoca|CJEVENTBA03|29|CCC EVENT WIN FAM 2012|121|Horeca|0
0|CS153460|2012-05-23 01:21:34|Leva|Ion||M|1990-03-09|Cluj|CLUJ NAPOCA|Hasdeu|91|||||0741967205||ion_leva@yahoo.com|KTBL|WIBL|Winston Blue (6mg) Pack|Yes|Yes||CJ001907|Corvinus PUB|Cluj-Napoca|CJEVENTBA04|29|CCC EVENT WIN FAM 2012|121|Horeca|0
0|CS153461|2012-05-23 01:22:30|Pascalau|Adriana||F|1991-08-10|Cluj|BOLOGA|Principala|71|||0|0|0747255132||pascalau.adriana@yahoo.com|WIBL||Winston Blue (6mg) Pack|Yes|Yes||CJ001907|Corvinus PUB|Cluj-Napoca|CJEVENTBA03|29|CCC EVENT WIN FAM 2012|121|Horeca|0
0|CS153462|2012-05-23 01:23:22|Covaciu|Ionut||M|1991-09-27|Cluj|CLUJ NAPOCA|Brancusi|40|||0|8|0746105671||ionut_covaciu@yahoo.com|WIBL||Winston Blue (6mg) Pack|Yes|Yes||CJ001907|Corvinus PUB|Cluj-Napoca|CJEVENTBA03|29|CCC EVENT WIN FAM 2012|121|Horeca|0
0|CS153463|2012-05-23 01:24:38|Perse|Oana||F|1992-05-26|Cluj|CLUJ NAPOCA|Hasdeu|45|||0|86|0753559186||andra_perse@yahoo.com|WIBL||Winston Blue (6mg) Pack|Yes|Yes||CJ001907|Corvinus PUB|Cluj-Napoca|CJEVENTBA03|29|CCC EVENT WIN FAM 2012|121|Horeca|0
0|CS153464|2012-05-23 01:27:43|Draghici|Adrian||M|1991-10-15|Cluj|CLUJ NAPOCA|Campului|141|||||0756293747||draghici_adrian91@yahoo.com|KTSV|WISV|Winston Silver (4 mg) Pack|Yes|Yes||CJ001907|Corvinus PUB|Cluj-Napoca|CJEVENTBA04|29|CCC EVENT WIN FAM 2012|121|Horeca|0
0|CS153465|2012-05-23 01:32:49|Cosma|Ionut||M|1989-09-19|Cluj|CLUJ NAPOCA|Alverna|57||B|P|41|0749643518||ionutcosma22@yahoo.com|PMBL||Winston Classic Pack|Yes|Yes||CJ001907|Corvinus PUB|Cluj-Napoca|CJEVENTBA04|29|CCC EVENT WIN FAM 2012|121|Horeca|0
0|CS153466|2012-05-23 01:34:15|Moldovanu|Bianca||F|1991-01-20|Maramures|BAIA MARE|Ana Ipatescu||3|A||14|0741424012||bianca.moldovanu@yahoo.com|WISSM||Winston Super Slims Menthol (5mg) Pack|Yes|Yes||CJ001907|Corvinus PUB|Cluj-Napoca|CJEVENTBA03|29|CCC EVENT WIN FAM 2012|121|Horeca|0
0|CS153467|2012-05-23 01:41:27|Rad|Ioana Andreea||F|1988-02-23|Salaj|SIMLEU SILVANIEI|Cehei|210|||||0722657876||rad.deea@yahoo.com|KTCON|WISSM|Winston Super Slims Menthol (5mg) Pack|Yes|Yes||CJ001907|Corvinus PUB|Cluj-Napoca|CJEVENTBA04|29|CCC EVENT WIN FAM 2012|121|Horeca|0
0|CS158263|2012-05-24 21:42:07|Bertea|Nicolae||M|1991-08-16|Timis|TIMISOARA|Train lalescu||||||0725497281||berteanick_berteanick@yahoo.com|DUNFCBK||Winston 100s Blue (6 mg)  Pack|Yes|Yes||TM000148|GRAND MASTER SRL CLUB|Timisoara|TMEVENTBA02|29|CCC EVENT WIN FAM 2012|121|Horeca|0
0|CS158274|2012-05-24 21:47:29|Mircea|Adrian||M|1991-06-28|Timis|TIMISOARA|Mihai Viteazu||||||0758612512||ady2dool@yahoo.com|KTBL||Winston 100s Blue (6 mg)  Pack|Yes|Yes||TM000148|GRAND MASTER SRL CLUB|Timisoara|TMEVENTBA02|29|CCC EVENT WIN FAM 2012|121|Horeca|0
0|CS158279|2012-05-24 21:50:22|Dragu|Nicusor||M|1991-02-25|Mehedinti|DROBETA TURNU SEVERIN|Doctor babes|88||3|||0767949664||d_nicu07@yahoo.com|KTH||Winston 100s Blue (6 mg)  Pack|Yes|Yes||TM000148|GRAND MASTER SRL CLUB|Timisoara|TMEVENTBA01|29|CCC EVENT WIN FAM 2012|121|Horeca|0
0|CS158280|2012-05-24 21:51:56|Bararki|Stefan||M|1991-11-30|Timis|TIMISOARA|Cozia||||||0742098173||baratki_stefan@yahoo.com|DUNBL||Winston 100s Blue (6 mg)  Pack|Yes|Yes||TM000148|GRAND MASTER SRL CLUB|Timisoara|TMEVENTBA02|29|CCC EVENT WIN FAM 2012|121|Horeca|0
0|CS158299|2012-05-24 22:02:07|Agud|Laura||M|1991-02-23|Timis|TIMISOARA|Stelelor|8|||||0737038091||missy_shine9@yahoo.com|KTBL||Winston 100s Blue (6 mg)  Pack|Yes|Yes||TM000148|GRAND MASTER SRL CLUB|Timisoara|TMEVENTBA02|29|CCC EVENT WIN FAM 2012|121|Horeca|0
0|CS158301|2012-05-24 22:02:51|Balaure|Alina||F|1989-11-28|Timis|TIMISOARA|Calea sagului|52|||7|32|0760321510||alinabalaure@yahoo.com|KTBL||Winston Blue (6mg) Pack|Yes|Yes||TM000148|GRAND MASTER SRL CLUB|Timisoara|TMEVENTBA01|29|CCC EVENT WIN FAM 2012|121|Horeca|0
0|CS158306|2012-05-24 22:07:25|Szabo|Ovidiu||M|1992-04-28|Timis|TIMISOARA|Take ionescu||||||0761334085||sz.ovidiu@yahoo.com|KTBL||Winston 100s Blue (6 mg)  Pack|Yes|Yes||TM000148|GRAND MASTER SRL CLUB|Timisoara|TMEVENTBA02|29|CCC EVENT WIN FAM 2012|121|Horeca|0
0|CS158307|2012-05-24 22:07:54|Belu|Cristina||F|1993-12-25|Caras Severin|SOPOTU VECHI|Tereza|233|||||0786071040||alinutza_kiss49@yahoo.com|KTBL||Winston Blue (6mg) Pack|Yes|Yes||TM000148|GRAND MASTER SRL CLUB|Timisoara|TMEVENTBA01|29|CCC EVENT WIN FAM 2012|121|Horeca|0
0|CS158311|2012-05-24 22:10:07|Coman|Sorin||M|1991-03-22|Dolj|BAILESTI|Petre ramneantu|19|||||0761139037||coman_sorin91@yahoo.com|WIBLH||Winston 100s Blue (6 mg)  Pack|Yes|Yes||TM000148|GRAND MASTER SRL CLUB|Timisoara|TMEVENTBA01|29|CCC EVENT WIN FAM 2012|121|Horeca|0
0|CS158316|2012-05-24 22:12:16|Rebenciuc|Cosmin ciprian||M|1988-05-05|Timis|TIMISOARA|Doctor Alexandra martha||||||0740754073||vortexulalb@yahoo.com|KTBL||Winston 100s Blue (6 mg)  Pack|Yes|Yes||TM000148|GRAND MASTER SRL CLUB|Timisoara|TMEVENTBA02|29|CCC EVENT WIN FAM 2012|121|Horeca|0
0|CS158317|2012-05-24 22:12:58|Olteanu|Marius||M|1991-06-20|Timis|TIMISOARA|Calea sagului|66|66||4|17|0761616018||vortexx2006@yahoo.com|DUNFCBK||Winston 100s Blue (6 mg)  Pack|Yes|Yes||TM000148|GRAND MASTER SRL CLUB|Timisoara|TMEVENTBA01|29|CCC EVENT WIN FAM 2012|121|Horeca|0
0|CS158320|2012-05-24 22:14:45|Radmanestean|Radu Adrian||M|1989-07-04|Timis|TIMISOARA|Odobesti|6|||||0768293801||rma.aditzu@yahoo.com|WIBL||Winston Blue (6mg) Pack|Yes|Yes||TM000148|GRAND MASTER SRL CLUB|Timisoara|TMEVENTBA02|29|CCC EVENT WIN FAM 2012|121|Horeca|0
0|CS158322|2012-05-24 22:18:20|Contra|CatAlin||M|1987-07-27|Timis|TIMISOARA|Bucovina|C38|||||0768323437||cata_porsche69@yahoo.com|WIBL||Winston Blue (6mg) Pack|Yes|Yes||TM000148|GRAND MASTER SRL CLUB|Timisoara|TMEVENTBA02|29|CCC EVENT WIN FAM 2012|121|Horeca|0
0|CS158323|2012-05-24 22:19:08|Andries|Daniel||M|1984-10-25|Timis|TIMISOARA|N Iorga|1|||||0730242249||andries.danielmihai@gmail.com|WIBLH||Winston 100s Blue (6 mg)  Pack|Yes|Yes||TM000148|GRAND MASTER SRL CLUB|Timisoara|TMEVENTBA01|29|CCC EVENT WIN FAM 2012|121|Horeca|0
0|CS158326|2012-05-24 22:22:06|Iriza|Ciprian||M|1984-05-27|Timis|TIMISOARA|Letea|45|||||0758572385||dc_affaire@yahoo.com|WIBL||Winston Blue (6mg) Pack|Yes|Yes||TM000148|GRAND MASTER SRL CLUB|Timisoara|TMEVENTBA01|29|CCC EVENT WIN FAM 2012|121|Horeca|0
0|CS158330|2012-05-24 22:25:38|Tepeneu|Alexandru||M|1990-05-17|Timis|TIMISOARA|Aleea studentilorz|22||||211|0761758407||xandru_17@yahoo.com|KTBL||Winston Blue (6mg) Pack|Yes|Yes||TM000148|GRAND MASTER SRL CLUB|Timisoara|TMEVENTBA01|29|CCC EVENT WIN FAM 2012|121|Horeca|0
0|CS158340|2012-05-24 22:29:37|Cancel|Tiberius||M|1988-06-12|Timis|TIMISOARA|Bran|3|||||0723001671||cancelyno88@yahoo.com|WIBLH||Winston 100s Blue (6 mg)  Pack|Yes|Yes||TM000148|GRAND MASTER SRL CLUB|Timisoara|TMEVENTBA02|29|CCC EVENT WIN FAM 2012|121|Horeca|0
0|CS158342|2012-05-24 22:31:12|Csukas|Eduard||M|1991-09-07|Arad|ARAD|Simfoniei|7|||||0743696131||csukas_eduard@yahoo.com|KTM||Winston Blue (6mg) Pack|Yes|Yes||TM000148|GRAND MASTER SRL CLUB|Timisoara|TMEVENTBA01|29|CCC EVENT WIN FAM 2012|121|Horeca|0
0|CS158348|2012-05-24 22:35:06|Secheres|Adrian||M|1992-11-27|Arad|ARAD|Eftimie murgu|14|||||0745962353||ovidiusecheres@yahoo.com|KTBL||Winston Blue (6mg) Pack|Yes|Yes||TM000148|GRAND MASTER SRL CLUB|Timisoara|TMEVENTBA01|29|CCC EVENT WIN FAM 2012|121|Horeca|0
0|CS158352|2012-05-24 22:36:26|Ciochina|Alexandru||M|1989-10-17|Timis|TIMISOARA|Daliei||||||0745500435||ciochina_sash06@yahoo.com|MBRRD||Winston 100s Clasic (10 mg)  Pack|Yes|Yes||TM000148|GRAND MASTER SRL CLUB|Timisoara|TMEVENTBA02|29|CCC EVENT WIN FAM 2012|121|Horeca|0
0|CS158359|2012-05-24 22:39:25|Posteuca|Andrei||M|1989-01-16|Timis|TIMISOARA|Electronicii|12|||||0736867923||andrey16p@yahoo.com|KTCON||Winston Blue (6mg) Pack|Yes|Yes||TM000148|GRAND MASTER SRL CLUB|Timisoara|TMEVENTBA01|29|CCC EVENT WIN FAM 2012|121|Horeca|0
0|CS158362|2012-05-24 22:41:13|Danila| Cristian||M|1991-09-14|Timis|TIMISOARA|Circumvaatiunii||||||0762638972||danila_cristy2002@yahoo.com|KTBL||Winston Blue (6mg) Pack|Yes|Yes||TM000148|GRAND MASTER SRL CLUB|Timisoara|TMEVENTBA02|29|CCC EVENT WIN FAM 2012|121|Horeca|0
0|CS158367|2012-05-24 22:43:13|Gillich|Edwald||M|1991-04-14|Timis|TIMISOARA|1decembrie|25|||||0743198448||edwald_edd@yahoo.com|WIBL||Winston Blue (6mg) Pack|Yes|Yes||TM000148|GRAND MASTER SRL CLUB|Timisoara|TMEVENTBA01|29|CCC EVENT WIN FAM 2012|121|Horeca|0
0|CS158377|2012-05-24 22:52:39|Filip|Vlad||M|1988-07-21|Timis|TIMISOARA|Coloniei|2|||||0721660663||vlad21vlad@yahoo.com|WIBL||Winston Blue (6mg) Pack|Yes|Yes||TM000148|GRAND MASTER SRL CLUB|Timisoara|TMEVENTBA01|29|CCC EVENT WIN FAM 2012|121|Horeca|0
0|CS158385|2012-05-24 22:55:55|Istoran|Cristina||F|1991-11-16|Timis|TIMISOARA|I Ionescu de la brad||A55|C|1|4|0762789772||cool_crisu91@yahoo.com|KTCON||Winston Blue (6mg) Pack|Yes|Yes||TM000148|GRAND MASTER SRL CLUB|Timisoara|TMEVENTBA01|29|CCC EVENT WIN FAM 2012|121|Horeca|0
0|CS158390|2012-05-24 23:00:11|Laies|Alex||M|1986-09-18|Caras Severin|RESITA|Carpati|1|||||0721369195||alex_laies@yahoo.con|MBRRD||Winston Blue (6mg) Pack|Yes|Yes||TM000148|GRAND MASTER SRL CLUB|Timisoara|TMEVENTBA01|29|CCC EVENT WIN FAM 2012|121|Horeca|0
0|CS158403|2012-05-24 23:12:14|Pasitoniu|Paulina||M|1989-06-13|Timis|TIMISOARA|Reg. 13 calarasi||||||0767640859||pasitoniupaulina@yahoo.com|KTCON||Winston Blue (6mg) Pack|Yes|Yes||TM000148|GRAND MASTER SRL CLUB|Timisoara|TMEVENTBA02|29|CCC EVENT WIN FAM 2012|121|Horeca|0
0|CS158406|2012-05-24 23:14:05|Gheara|Sorin||M|1989-02-21|Timis|TIMISOARA|Aleea studenților|7||||214|0742005224||sorin.gheara@yahoo.com|DUNFCBK||Winston Blue (6mg) Pack|Yes|Yes||TM000148|GRAND MASTER SRL CLUB|Timisoara|TMEVENTBA01|29|CCC EVENT WIN FAM 2012|121|Horeca|0
0|CS158411|2012-05-24 23:15:55|Iova|Ionut||M|1990-11-23|Timis|TIMISOARA|||||||0766637025||iovaionut@yahoo.com|PMOR||Winston Super Slims Silver (3mg) Pack|Yes|Yes||TM000148|GRAND MASTER SRL CLUB|Timisoara|TMEVENTBA02|29|CCC EVENT WIN FAM 2012|121|Horeca|0
0|CS158413|2012-05-24 23:16:56|Aiuseriu|Adelina||F|1992-06-02|Timis|TIMISOARA|Aleea studentilor|22||||5|0769593363||just.adde17@yahoo.com|KTCON||Winston Super Slims Menthol (5mg) Pack|Yes|Yes||TM000148|GRAND MASTER SRL CLUB|Timisoara|TMEVENTBA01|29|CCC EVENT WIN FAM 2012|121|Horeca|0
0|CS158416|2012-05-24 23:18:37|Bala|Raluca||F|1992-04-22|Timis|TIMISOARA|Aleena studentilor||||||0753872831||ralu_ssen@yahoo.com|DUNBL||Winston Blue (6mg) Pack|Yes|Yes||TM000148|GRAND MASTER SRL CLUB|Timisoara|TMEVENTBA02|29|CCC EVENT WIN FAM 2012|121|Horeca|0
0|CS158420|2012-05-24 23:22:34|Dabu|Stefania||F|1989-12-28|Timis|TIMISOARA|Letea|45|||||0748210500||ina_me32@yahoo.com|WIBL||Winston Blue (6mg) Pack|Yes|Yes||TM000148|GRAND MASTER SRL CLUB|Timisoara|TMEVENTBA02|29|CCC EVENT WIN FAM 2012|121|Horeca|0
0|CS158421|2012-05-24 23:22:52|Mandat|Sergiu||M|1992-04-11|Timis|TIMISOARA|Lugojului|39||B||21|0743543429||sergiu_50ecstasy@yahoo.com|KTCON||Winston Blue (6mg) Pack|Yes|Yes||TM000148|GRAND MASTER SRL CLUB|Timisoara|TMEVENTBA01|29|CCC EVENT WIN FAM 2012|121|Horeca|0
0|CS158429|2012-05-24 23:28:00|Crepcia|Mihaela||F|1990-12-25|Hunedoara|VATA DE JOS| Brotuna|62|||||0766743874||crepciamihaela@yahoo.com|PMBL||Winston Silver (4 mg) Pack|Yes|Yes||TM000148|GRAND MASTER SRL CLUB|Timisoara|TMEVENTBA01|29|CCC EVENT WIN FAM 2012|121|Horeca|0
0|CS158449|2012-05-24 23:36:20|Bbalitoiu|Mihai||F|1989-06-24|Timis|TIMISOARA|Take ionescu||||||0760411811||evil_bmm89@yahoo.com|WIBL||Winston Blue (6mg) Pack|Yes|Yes||TM000148|GRAND MASTER SRL CLUB|Timisoara|TMEVENTBA02|29|CCC EVENT WIN FAM 2012|121|Horeca|0
0|CS158438|2012-05-24 23:37:12|Danoiu|Mihai||M|1991-07-24|Mehedinti|Motru|Principala|30|||||0748800405||mihaidanoiu@yahoo.com|KTBL||Winston Blue (6mg) Pack|Yes|Yes||TM000148|GRAND MASTER SRL CLUB|Timisoara|TMEVENTBA01|29|CCC EVENT WIN FAM 2012|121|Horeca|0
0|CS158439|2012-05-24 23:41:56|Balasoiu|Adrian||M|1990-04-26|Caras Severin|CARANSEBES|Splaiul sebes|9|||||0769438729||bala_c_a@yahoo.com|KTH||Winston Blue (6mg) Pack|Yes|Yes||TM000148|GRAND MASTER SRL CLUB|Timisoara|TMEVENTBA01|29|CCC EVENT WIN FAM 2012|121|Horeca|0
0|CS158450|2012-05-24 23:42:55|Mae|Ramona ionela||F|1991-01-06|Timis|TIMISOARA|Int vantului||||||0356428571|0356428571||DUNFF||Winston 100s Clasic (10 mg)  Pack|Yes|Yes||TM000148|GRAND MASTER SRL CLUB|Timisoara|TMEVENTBA02|29|CCC EVENT WIN FAM 2012|121|Horeca|0
0|CS158446|2012-05-24 23:52:04|Dabu|Stefan||M|1987-12-10|Timis|TIMISOARA|Letea|45|||||0766801542||madalin_dabu@yahoo.om|WIBL||Winston Blue (6mg) Pack|Yes|Yes||TM000148|GRAND MASTER SRL CLUB|Timisoara|TMEVENTBA02|29|CCC EVENT WIN FAM 2012|121|Horeca|0
0|CS158447|2012-05-24 23:52:05|Cirstea|Alina||F|1990-06-10|Timis|TIMISOARA|Aleena studentilorralu||||||0724452753||alinutza_106@yahoo.com|WISV||Winston Silver (4 mg) Pack|Yes|Yes||TM000148|GRAND MASTER SRL CLUB|Timisoara|TMEVENTBA02|29|CCC EVENT WIN FAM 2012|121|Horeca|0
0|CS158448|2012-05-24 23:52:05|Cirstea|Andreea||F|1986-06-24|Timis|Tim|Cernei||||||0722424582||pisylove_4u@yahoo.com|WICLH||Winston 100s Blue (6 mg)  Pack|Yes|Yes||TM000148|GRAND MASTER SRL CLUB|Timisoara|TMEVENTBA02|29|CCC EVENT WIN FAM 2012|121|Horeca|0
0|CS158452|2012-05-24 23:53:52|Mateiu|Dorin||M|1987-08-30|Timis|TIMISOARA|Aleena studentilorralu||||||0767601825||yopustiu@yahoo.com|WIBLH||Winston 100s Blue (6 mg)  Pack|Yes|Yes||TM000148|GRAND MASTER SRL CLUB|Timisoara|TMEVENTBA02|29|CCC EVENT WIN FAM 2012|121|Horeca|0
0|CS158456|2012-05-24 23:55:58|Petrescu|Alex||M|1985-03-06|Timis|TIMISOARA|Pacii|13|||||0765432789||alex13@yahoo.com|MBRRD||Winston Classic Pack|Yes|No||TM000148|GRAND MASTER SRL CLUB|Timisoara|TMEVENTBA01|29|CCC EVENT WIN FAM 2012|121|Horeca|0
0|CS158459|2012-05-24 23:56:39|Demian|Mihai||M|1986-10-05|Timis|TIMISOARA|Aleea studentilor||||||0755069757||demian_mihai@yahoo.com|CASV||Winston 100s Clasic (10 mg)  Pack|Yes|Yes||TM000148|GRAND MASTER SRL CLUB|Timisoara|TMEVENTBA02|29|CCC EVENT WIN FAM 2012|121|Horeca|0
0|CS158472|2012-05-25 00:06:08|Pop|Adrian||M|1990-04-26|Timis|TIMISOARA|Al. Icar|2|||||0766709885||the_tryppy_one@yahoo.com|KTCON||Winston Blue (6mg) Pack|Yes|Yes||TM000148|GRAND MASTER SRL CLUB|Timisoara|TMEVENTBA02|29|CCC EVENT WIN FAM 2012|121|Horeca|0
0|CS158470|2012-05-25 00:07:22|Cristian|Alina||F|1990-02-11|Hunedoara|HUNEDOARA|Zambilelor|10|||||0770817645||alina_lintz@yahoo.com|KTBL||Winston Blue (6mg) Pack|Yes|Yes||TM000148|GRAND MASTER SRL CLUB|Timisoara|TMEVENTBA01|29|CCC EVENT WIN FAM 2012|121|Horeca|0
0|CS158564|2012-05-25 01:58:39|Jivan|Nicoleta||F|1988-12-04|Timis|TIMISOARA|Aleea icar|7|3|C||1|0734714583||only4_nico@yahoo.com|KTCON||Winston Blue (6mg) Pack|Yes|Yes||TM000148|GRAND MASTER SRL CLUB|Timisoara|TMEVENTBA01|29|CCC EVENT WIN FAM 2012|121|Horeca|0
0|CS158565|2012-05-25 01:58:39|Szilak|Emese||F|1990-06-02|Timis|TIMISOARA|Fc ripensia|24|||||0722919871||emese02@yahoo.com|KTNBK||Winston Super Slims Blue (5mg) Pack|Yes|Yes||TM000148|GRAND MASTER SRL CLUB|Timisoara|TMEVENTBA01|29|CCC EVENT WIN FAM 2012|121|Horeca|0
0|CS158566|2012-05-25 01:58:40|Cablea|Neonil||M|1987-09-30|Caras Severin|RESITA|Astrilor|26|||||0742968863||neo_cablea@yahoo.com|KTBL||Winston Classic Pack|Yes|Yes||TM000148|GRAND MASTER SRL CLUB|Timisoara|TMEVENTBA01|29|CCC EVENT WIN FAM 2012|121|Horeca|0
0|CS158567|2012-05-25 01:58:40|Dumitrescu|Jan||M|1987-09-20|Timis|TIMISOARA|Bradul|10|||||0751387594||jan_dumy@yahoo.co.uk|DUNBL||Winston Super Slims Blue (5mg) Pack|Yes|Yes||TM000148|GRAND MASTER SRL CLUB|Timisoara|TMEVENTBA01|29|CCC EVENT WIN FAM 2012|121|Horeca|0
0|CS158568|2012-05-25 01:58:40|Teculet|Catalin||M|1990-07-07|Timis|TIMISOARA|S barnutiu|81|||||0748199291||teq2005@gmail.com|DUNBL||Winston Blue (6mg) Pack|Yes|Yes||TM000148|GRAND MASTER SRL CLUB|Timisoara|TMEVENTBA01|29|CCC EVENT WIN FAM 2012|121|Horeca|0
0|CS158569|2012-05-25 01:58:40|Birta|Betina||F|1989-09-22|Arad|ARAD|Calea timisorii|46|||||0744606234||taboo_2289@yahoo.com|PMBL||Winston Blue (6mg) Pack|Yes|Yes||TM000148|GRAND MASTER SRL CLUB|Timisoara|TMEVENTBA01|29|CCC EVENT WIN FAM 2012|121|Horeca|0
