0|CS3586924|2013-08-23 19:48:26|Tumerdem|Deniz||F|1979-08-11|Constanta|CONSTANTA|Pescarilor|33|||||0726272442||tumerdemdeniz@yahoo.com|SBSSPK||1 Sobranie SS Pink (3mg) Pack|Yes|Yes||CT004058|Abi Grup SRL|Constanta|CTHRKBA54|156|CCC HRK SOBR FAM Vara 2013|121|Horeca|0
0|CS3586928|2013-08-23 19:48:59|Lazu|Catalina|2830217134179|F|1983-02-17|Constanta|CONSTANTA|Corbului|4|H5|B|1|28|0723628186||Cata_lazu83@yahoo.com|VIRSPR||1 Sobranie SS Pink (3mg) Pack|Yes|Yes||CT004058|Abi Grup SRL|Constanta|CTHRKBA95|156|CCC HRK SOBR FAM Vara 2013|121|Horeca|0
0|CS3586966|2013-08-23 19:52:37|Mocian|Cornelia carla||F|1967-07-27|Constanta|CONSTANTA|Ion ratiu|1a|||||0722430138||Mocian_email@yahoo.com|GLMBL||1 Sobranie SS White (1mg) Pack|Yes|No||CT004058|Abi Grup SRL|Constanta|CTHRKBA54|156|CCC HRK SOBR FAM Vara 2013|121|Horeca|0
0|CS3587022|2013-08-23 20:01:17|Hozonet|Alina||F|1983-07-01|Constanta|Constanta|Sarmisegetusa|23|||||0765789098||Hozonetalina@yahoo.ro|MBRGLA||1 Sobranie KS Blue (6mg) Pack|Yes|No||CT004058|Abi Grup SRL|Constanta|CTHRKBA96|156|CCC HRK SOBR FAM Vara 2013|121|Horeca|0
0|CS3587025|2013-08-23 20:01:36|Popa|Claudiu||M|1982-06-22|Constanta|CONSTANTA|Mihai eminescu|28|||||0736137803||Claudiupopa@yahoo.com|KTSV||1 Sobranie KS Gold  (4mg) Pack|Yes|Yes||CT004058|Abi Grup SRL|Constanta|CTHRKBA94|156|CCC HRK SOBR FAM Vara 2013|121|Horeca|0
0|CS3587026|2013-08-23 20:01:39|Voica|Andrei||M|1986-08-18|Constanta|CONSTANTA|Dezrobirii@|23|||||0745663211||Andrei.voica@mail.com|KTBL||1 Sobranie KS Black (8mg) Pack|Yes|Yes||CT004058|Abi Grup SRL|Constanta|CTHRKBA54|156|CCC HRK SOBR FAM Vara 2013|121|Horeca|0
0|CS3587027|2013-08-23 20:02:03|Cioroiu|Cosmin||M|1973-08-23|Bucuresti|Bucuresti|Acetilenei|9|||||0763530836||Cioroiu_cosmin73@hotmail.com|DUNFCMBB||1 Sobranie KS Blue (6mg) Pack|Yes|Yes||CT004058|Abi Grup SRL|Constanta|CTHRKBA95|156|CCC HRK SOBR FAM Vara 2013|121|Horeca|0
0|CS3587039|2013-08-23 20:03:58|Botosaru|Mirela||F|1978-07-19|Constanta|CONSTANTA|Balcescu|38|||||0731262783||Mirelamirelush@gmail.com|DUNFCMBB||1 Sobranie KS Blue (6mg) Pack|Yes|Yes||CT004058|Abi Grup SRL|Constanta|CTHRKBA94|156|CCC HRK SOBR FAM Vara 2013|121|Horeca|0
0|CS3587040|2013-08-23 20:04:02|Tonciu|Raluca||F|1982-09-30|Constanta|Constanta|Aleea brizei|34|||||0756789098||Tonciuraluca@gmail.com|CABL||1 Sobranie KS Blue (6mg) Pack|Yes|No||CT004058|Abi Grup SRL|Constanta|CTHRKBA96|156|CCC HRK SOBR FAM Vara 2013|121|Horeca|0
0|CS3587045|2013-08-23 20:04:46|Florescu|Andra||F|1986-01-01|Constanta|CONSTANTA|Crinilor|45|||||0756332888|||PARRSSH||1 Sobranie SS Black (6mg) Pack|Yes|Yes||CT004058|Abi Grup SRL|Constanta|CTHRKBA54|156|CCC HRK SOBR FAM Vara 2013|121|Horeca|0
0|CS3587062|2013-08-23 20:06:40|Branza|Constantin||M|1985-01-25|Constanta|CONSTANTA|Ion ratiu|18|||||0746513467||Badboy37@yahoo.com|KTBL||1 Sobranie KS Black (8mg) Pack|Yes|Yes||CT004058|Abi Grup SRL|Constanta|CTHRKBA94|156|CCC HRK SOBR FAM Vara 2013|121|Horeca|0
0|CS3587063|2013-08-23 20:06:44|Fasinut|Alexandra||F|1990-04-02|Constanta|CONSTANTA|Lupului|67|||||0766567890||Alexandradulcik@yahoo.com|DAVGLSS||1 Sobranie SS Black (6mg) Pack|Yes|No||CT004058|Abi Grup SRL|Constanta|CTHRKBA96|156|CCC HRK SOBR FAM Vara 2013|121|Horeca|0
0|CS3587079|2013-08-23 20:09:05|Vlas|Dumitru||M|1985-07-11|Cluj|CLUJ NAPOCA|Dorobanti|32|||||0737542004||Vlas.dumitru@gmail.com|DAVSVSS||1 Sobranie SS Pink (3mg) Pack|Yes|Yes||CT004058|Abi Grup SRL|Constanta|CTHRKBA95|156|CCC HRK SOBR FAM Vara 2013|121|Horeca|0
0|CS3587171|2013-08-23 20:21:04|Andrei|Laura||F|1982-08-27|Bucuresti|SECTOR 2|Soseaua mihai bravu|3|||0|0|0731999035||laurawax@yahoo.com|SBSSPK||1 Sobranie SS Pink (3mg) Pack|Yes|Yes||CT005185|Filozofie Urbana SRL|Constanta|CTHRKBA96|156|CCC HRK SOBR FAM Vara 2013|121|Horeca|0
0|CS3587227|2013-08-23 20:28:57|Cristea|Alina||F|1980-08-23|Tulcea|TULCEA|Pescarusului|84|||||0734667891|||VOGABP||1 Sobranie SS Black (6mg) Pack|Yes|Yes||CT005185|Filozofie Urbana SRL|Constanta|CTHRKBA54|156|CCC HRK SOBR FAM Vara 2013|121|Horeca|0
0|CS3587239|2013-08-23 20:30:01|Veverita|Georgeta||F|1992-07-01|Constanta|CONACU|Albatrosului|34|||||0766789098||Veveritageorgeta@gmail.com|CAWH||1 Sobranie KS Gold  (4mg) Pack|Yes|No||CT005185|Filozofie Urbana SRL|Constanta|CTHRKBA96|156|CCC HRK SOBR FAM Vara 2013|121|Horeca|0
0|CS3587242|2013-08-23 20:30:28|Fata|Robert||M|1978-05-25|Constanta|CONSTANTA|Ion ratiu|38|||||0728457775||Robertfata@yahoo.com|DAVGL||1 Sobranie KS Blue (6mg) Pack|Yes|Yes||CT005185|Filozofie Urbana SRL|Constanta|CTHRKBA94|156|CCC HRK SOBR FAM Vara 2013|121|Horeca|0
0|CS3587248|2013-08-23 20:31:14|Ionescu|Andreea||F|1991-11-16|Iasi|IASI|Rosiori|4|||||0745453211|||VOGLL||1 Sobranie SS Pink (3mg) Pack|Yes|Yes||CT005185|Filozofie Urbana SRL|Constanta|CTHRKBA54|156|CCC HRK SOBR FAM Vara 2013|121|Horeca|0
0|CS3587252|2013-08-23 20:32:29|Alexandru|Mihai||M|1984-05-11|Constanta|CONSTANTA|Albatrosului|13|BL|||15|0731186456||Alexandrumihai@yahoo.com|SBSSMN||1 Sobranie SS Menthol (5 mg) Pack|Yes|Yes||CT005185|Filozofie Urbana SRL|Constanta|CTHRKBA95|156|CCC HRK SOBR FAM Vara 2013|121|Horeca|0
0|CS3587263|2013-08-23 20:32:56|Eustache|Sorin||M|1980-11-21|Constanta|CONSTANTA|Gheorghe duca|38|||||0726153788||Sorin2891@yahoo.com|MBRFP||1 Sobranie KS Gold  (4mg) Pack|Yes|Yes||CT005185|Filozofie Urbana SRL|Constanta|CTHRKBA94|156|CCC HRK SOBR FAM Vara 2013|121|Horeca|0
0|CS3587270|2013-08-23 20:33:46|Grecoi|Antonia||F|1980-02-15|Constanta|CONSTANTA|Egretei|37|||||0752005364||Grecoi.antonia@yahoo.com|KTBLH||1 Sobranie KS Black (8mg) Pack|Yes|No||CT005185|Filozofie Urbana SRL|Constanta|CTHRKBA95|156|CCC HRK SOBR FAM Vara 2013|121|Horeca|0
0|CS3587274|2013-08-23 20:34:31|Bucur|Catalin||M|1990-07-07|Brasov|BRASOV|Lalelelor|32|||||0745653211||Catalin.bucur.catalin@yahoo.com|MBRGLFT||1 Sobranie KS Gold  (4mg) Pack|Yes|Yes||CT005185|Filozofie Urbana SRL|Constanta|CTHRKBA54|156|CCC HRK SOBR FAM Vara 2013|121|Horeca|0
0|CS3587284|2013-08-23 20:35:12|Trusca|Raluca||F|1979-04-21|Bucuresti|Bucuresti|Fat frumos|68|||||0737828374||Frumushica27415@yahoo.com|DUNFCSB||1 Sobranie KS Black (8mg) Pack|Yes|Yes||CT005185|Filozofie Urbana SRL|Constanta|CTHRKBA94|156|CCC HRK SOBR FAM Vara 2013|121|Horeca|0
0|CS3587286|2013-08-23 20:35:17|Coronet|Andrei||M|1983-10-01|Bihor|Bihor|Fragilor|22|||||0766789123||Coronetandrei@yahoo.com|CAWH||1 Sobranie KS Gold  (4mg) Pack|Yes|No||CT005185|Filozofie Urbana SRL|Constanta|CTHRKBA96|156|CCC HRK SOBR FAM Vara 2013|121|Horeca|0
0|CS3587295|2013-08-23 20:36:43|Iremcea|Natali||F|1992-03-01|Bucuresti|Bucuresti|Cenusaresei|21|||||0720073625||Natali_dulci@yahoo.com|PARRSSMH||1 Sobranie SS Menthol (5 mg) Pack|Yes|Yes||CT005185|Filozofie Urbana SRL|Constanta|CTHRKBA95|156|CCC HRK SOBR FAM Vara 2013|121|Horeca|0
0|CS3587299|2013-08-23 20:36:56|Popescu|Marina||F|1986-01-01|Constanta|CONSTANTA|0766342156|32|||||0766557321||Marinaaaa@yahoo.com|KTNWH||1 Sobranie SS White (1mg) Pack|Yes|No||CT005185|Filozofie Urbana SRL|Constanta|CTHRKBA96|156|CCC HRK SOBR FAM Vara 2013|121|Horeca|0
0|CS3587343|2013-08-23 20:42:12|Bolintinean|Oana||F|1988-05-03|Constanta|CONSTANTA|Corcodusilor|24|||||0766564322||Bolintineanoana@yahoo.com|DUNFCSB||1 Sobranie KS Black (8mg) Pack|Yes|Yes||CT003789|SCAPINO SRL|Constanta|CTHRKBA96|156|CCC HRK SOBR FAM Vara 2013|121|Horeca|0
0|CS3587344|2013-08-23 20:42:15|Cretu|Andreea||F|1984-10-29|Constanta|CONSTANTA|Cisnelei|32|||||0766897765|||KTNWH||1 Sobranie SS White (1mg) Pack|Yes|Yes||CT003789|SCAPINO SRL|Constanta|CTHRKBA54|156|CCC HRK SOBR FAM Vara 2013|121|Horeca|0
0|CS3587347|2013-08-23 20:42:36|Rotaru|Sorin||M|1978-06-21|Constanta|Constanta|Unirii|48|||||0727183839||Rotarusorin@yahoo.com|KTSV||1 Sobranie KS Gold  (4mg) Pack|Yes|Yes||CT003789|SCAPINO SRL|Constanta|CTHRKBA94|156|CCC HRK SOBR FAM Vara 2013|121|Horeca|0
0|CS3587350|2013-08-23 20:43:17|Botnaru|Adina||F|1984-04-06|Constanta|CONSTANTA|Miorita|15|VT|2||10|0736726736||Addinabotnaru9@yahoo.com|DUNFCBB||1 Sobranie KS Gold  (4mg) Pack|Yes|No||CT003789|SCAPINO SRL|Constanta|CTHRKBA95|156|CCC HRK SOBR FAM Vara 2013|121|Horeca|0
0|CS3587360|2013-08-23 20:44:41|Ionescu|Oana||F|1979-09-25|Alba|ALBA IULIA|Eroilor|76|||||0766567890||Ionescuoana@yahoo.com|DUNFCSB||1 Sobranie KS Black (8mg) Pack|Yes|Yes||CT003789|SCAPINO SRL|Constanta|CTHRKBA96|156|CCC HRK SOBR FAM Vara 2013|121|Horeca|0
0|CS3587363|2013-08-23 20:45:08|Suru|Alin||M|1988-05-10|Calarasi|CALARASII VECHI|Bucuresti|4|||||0755641231||Alin_suru@yahoo.com|KTBL||1 Sobranie KS Black (8mg) Pack|Yes|Yes||CT003789|SCAPINO SRL|Constanta|CTHRKBA54|156|CCC HRK SOBR FAM Vara 2013|121|Horeca|0
0|CS3587368|2013-08-23 20:45:49|Tretiac|Lucia||F|1991-01-01|Iasi|Iasi|Plopii fara sot|31|||||0739255307||Lucika.bombonika@yahoo.com|DUNBL||1 Sobranie KS Blue (6mg) Pack|Yes|Yes||CT003789|SCAPINO SRL|Constanta|CTHRKBA95|156|CCC HRK SOBR FAM Vara 2013|121|Horeca|0
0|CS3587376|2013-08-23 20:46:46|Ion|Ciprian||M|1986-05-18|Constanta|CONSTANTA|Libertatii|48|||||0735783578||Goodtrust@yahoo.com|PARAB||1 Sobranie KS Blue (6mg) Pack|Yes|Yes||CT003789|SCAPINO SRL|Constanta|CTHRKBA94|156|CCC HRK SOBR FAM Vara 2013|121|Horeca|0
0|CS3587380|2013-08-23 20:47:06|Poponet|Andra||F|1988-03-01|Constanta|CONSTANTA|Alunilor|22|||||0766543211||Andraforyou@yahoo.com|VIRSV||1 Sobranie SS Pink (3mg) Pack|Yes|Yes||CT003789|SCAPINO SRL|Constanta|CTHRKBA96|156|CCC HRK SOBR FAM Vara 2013|121|Horeca|0
0|CS3587389|2013-08-23 20:48:12|Frunza|Alexandru||M|1981-10-23|Constanta|CONSTANTA|Liliacului|48|||||0743212213||Alexandru.frunza@yahoo.com|PARABH||1 Sobranie KS Black (8mg) Pack|Yes|No||CT003789|SCAPINO SRL|Constanta|CTHRKBA54|156|CCC HRK SOBR FAM Vara 2013|121|Horeca|0
0|CS3587396|2013-08-23 20:49:07|Chirazica|Florin||M|1986-08-22|Constanta|CONSTANTA|Libertatii|48|||||0742579789|||KTSV||1 Sobranie KS Gold  (4mg) Pack|Yes|Yes||CT003789|SCAPINO SRL|Constanta|CTHRKBA94|156|CCC HRK SOBR FAM Vara 2013|121|Horeca|0
0|CS3587471|2013-08-23 21:00:38|Boanches|Cristina||F|1985-06-01|Bucuresti|Bucuresti|Stirbei voda|170|||||0721168157||Contact@crisa@yahoo.com|SBSSWH||1 Sobranie SS White (1mg) Pack|Yes|No||CT004932|Toscana SRL |Constanta|CTHRKBA94|156|CCC HRK SOBR FAM Vara 2013|121|Horeca|0
0|CS3587484|2013-08-23 21:02:52|Vasilescu|Lidia||F|1987-01-20|Bucuresti|Bucuresti|Blv unirii|15|||||0722539012||Lidiavasilescu@gmail.com|VOGBL||1 Sobranie SS Black (6mg) Pack|Yes|Yes||CT004932|Toscana SRL |Constanta|CTHRKBA95|156|CCC HRK SOBR FAM Vara 2013|121|Horeca|0
0|CS3587496|2013-08-23 21:04:14|Carlig|Ovidiu||M|1979-10-12|Suceava|SUCEAVA|E|R|||||0720217944|||SBKSBK||1 Sobranie KS Black (8mg) Pack|Yes|No||CT004932|Toscana SRL |Constanta|CTHRKBA54|156|CCC HRK SOBR FAM Vara 2013|121|Horeca|0
0|CS3587559|2013-08-23 21:13:02|Costache|Alina||F|1980-09-27|Constanta|CONSTANTA|Stefan cel mare|34|||||0723113112|||VOGLL||1 Sobranie SS Pink (3mg) Pack|Yes|Yes||CT004932|Toscana SRL |Constanta|CTHRKBA54|156|CCC HRK SOBR FAM Vara 2013|121|Horeca|0
0|CS3587563|2013-08-23 21:13:44|Dumbrava|Daniel||M|1989-08-11|Constanta|Constanta|Trandafirului|47|||||0769376761||Dumbrava.iulian@yahoo.com|DAVGLSS||1 Sobranie SS Black (6mg) Pack|Yes|Yes||CT004932|Toscana SRL |Constanta|CTHRKBA95|156|CCC HRK SOBR FAM Vara 2013|121|Horeca|0
0|CS3587564|2013-08-23 21:13:55|Roventi|Angelica||F|1992-06-04|Bucuresti|2|Independentei|2|||||0766789098||Roventiangelica@yahoo.com|PARRSSH||1 Sobranie SS Black (6mg) Pack|Yes|No||CT004932|Toscana SRL |Constanta|CTHRKBA96|156|CCC HRK SOBR FAM Vara 2013|121|Horeca|0
0|CS3587566|2013-08-23 21:14:11|Strateanu|George||M|1989-07-10|Constanta|CONSTANTA|Soarelui|28|||||0727183947||George.strateanu@yahoo.com|KTBL||1 Sobranie KS Black (8mg) Pack|Yes|Yes||CT004932|Toscana SRL |Constanta|CTHRKBA94|156|CCC HRK SOBR FAM Vara 2013|121|Horeca|0
0|CS3587576|2013-08-23 21:15:58|Dumachi|Ionela||F|1984-04-22|Bucuresti|Bucuresti|Mihai eminescu|37|||||0725178283||Dumachi25628@yahoo.com|DAVGLS||1 Sobranie SS Black (6mg) Pack|Yes|Yes||CT004932|Toscana SRL |Constanta|CTHRKBA94|156|CCC HRK SOBR FAM Vara 2013|121|Horeca|0
0|CS3587583|2013-08-23 21:17:04|Mihai|Andreea||F|1989-09-28|Constanta|CONSTANTA|Florilor|23|||||0723231413||Andreeea_mihai@yahoo.com|KTNWH||1 Sobranie SS White (1mg) Pack|Yes|Yes||CT004932|Toscana SRL |Constanta|CTHRKBA54|156|CCC HRK SOBR FAM Vara 2013|121|Horeca|0
0|CS3587584|2013-08-23 21:17:15|Doinas|Lucretia||F|1985-04-15|Bucuresti|Bucuresti|Giurgiului|5|D|||27|0785207542||Doinas_lucretia@gmail.com|GLMBL||1 Sobranie SS Pink (3mg) Pack|Yes|Yes||CT004932|Toscana SRL |Constanta|CTHRKBA95|156|CCC HRK SOBR FAM Vara 2013|121|Horeca|0
0|CS3587586|2013-08-23 21:17:35|Avantinu|Sabrina||F|1988-03-03|Bucuresti|3|Luptatori|23|||||0766897098||Sabrinaavantinu@yahoo.com|CAWH||1 Sobranie KS Gold  (4mg) Pack|Yes|Yes||CT004932|Toscana SRL |Constanta|CTHRKBA96|156|CCC HRK SOBR FAM Vara 2013|121|Horeca|0
0|CS3587592|2013-08-23 21:18:12|Ciocarlia|Ion||M|1992-05-24|Constanta|Constanta|Lapusneanu|53|||||0732516272||Baiatfrumos@yahoo.com|KTSV||1 Sobranie KS Gold  (4mg) Pack|Yes|Yes||CT004932|Toscana SRL |Constanta|CTHRKBA94|156|CCC HRK SOBR FAM Vara 2013|121|Horeca|0
0|CS3587599|2013-08-23 21:19:06|Ciobanu|Florentina||F|1984-11-30|Constanta|CONSTANTA|Puskin|23|||||0766567054||Ciobanuflorentina@yahoo.com|DAVGL||1 Sobranie KS Blue (6mg) Pack|Yes|No||CT004932|Toscana SRL |Constanta|CTHRKBA96|156|CCC HRK SOBR FAM Vara 2013|121|Horeca|0
0|CS3587605|2013-08-23 21:19:41|Savin|Flori||F|1986-03-30|Braila|Braila|Agricultorilor|9|C||||0730772665||Savin.flori@yahoo.com|VIRSPR||1 Sobranie SS Black (6mg) Pack|Yes|No||CT004932|Toscana SRL |Constanta|CTHRKBA95|156|CCC HRK SOBR FAM Vara 2013|121|Horeca|0
0|CS3587615|2013-08-23 21:20:50|Goroban|Manuel||M|1988-06-02|Constanta|Constanta|Decebal|32|||||0766564321||Manuelgaraban@gmail.com|SBSSMN||1 Sobranie SS Menthol (5 mg) Pack|Yes|Yes||CT004932|Toscana SRL |Constanta|CTHRKBA96|156|CCC HRK SOBR FAM Vara 2013|121|Horeca|0
0|CS3587616|2013-08-23 21:20:57|Lungu|Cristi||M|1984-03-24|Botosani|BOTOSANI|Odei|23|||||0745213421|||DUNFCMBB||1 Sobranie KS Blue (6mg) Pack|Yes|Yes||CT004932|Toscana SRL |Constanta|CTHRKBA54|156|CCC HRK SOBR FAM Vara 2013|121|Horeca|0
0|CS3587662|2013-08-23 21:29:07|Marinescu|Mugur||M|1994-06-01|Constanta|Constanta|Decebal|50-52|||0|0|0733080008||mugur.marinescu@yahoo.com|SBKSGD||1 Sobranie KS Gold  (4mg) Pack|Yes|Yes||CT002023|Trinagria SRL |Constanta|CTHRKBA54|156|CCC HRK SOBR FAM Vara 2013|121|Horeca|0
0|CS3587670|2013-08-23 21:30:16|Petcu|Corina||F|1990-06-14|Constanta|CONSTANTA|Bvd 1 mai|2|||||0766567890||Corinapetcu90@yahoo.com|DAVIDBL||1 Sobranie KS Black (8mg) Pack|Yes|Yes||CT002023|Trinagria SRL |Constanta|CTHRKBA96|156|CCC HRK SOBR FAM Vara 2013|121|Horeca|0
0|CS3587692|2013-08-23 21:34:59|Cindrea|Anca||F|1982-11-27|Constanta|CONSTANTA|Cismelei|45|||||0733563322|||DUNFCBB||1 Sobranie KS Gold  (4mg) Pack|Yes|Yes||CT002023|Trinagria SRL |Constanta|CTHRKBA54|156|CCC HRK SOBR FAM Vara 2013|121|Horeca|0
0|CS3587700|2013-08-23 21:36:03|Numet|Cristina||F|1988-03-01|Constanta|CONSTANTA|Albastrelelor|56|||||0756789065||Cristinanumet@gmail.com|GLPBPKFT||1 Sobranie SS Black (6mg) Pack|Yes|No||CT002023|Trinagria SRL |Constanta|CTHRKBA96|156|CCC HRK SOBR FAM Vara 2013|121|Horeca|0
0|CS3587702|2013-08-23 21:36:16|Biciuc|Paula||F|1988-06-13|Constanta|CONSTANTA|Poporului|105|||||0762285329||Paula_biciuc@yahoo.com|SBKSGD||1 Sobranie KS Gold  (4mg) Pack|Yes|Yes||CT002023|Trinagria SRL |Constanta|CTHRKBA95|156|CCC HRK SOBR FAM Vara 2013|121|Horeca|0
0|CS3587706|2013-08-23 21:36:36|Gheauru|Alexandra||F|1990-05-22|Bucuresti|Bucuresti|Dumbrava|38|||||0765378283||Gheauru.alexandra@yahoo.com|VIRSPR||1 Sobranie SS Black (6mg) Pack|Yes|Yes||CT002023|Trinagria SRL |Constanta|CTHRKBA94|156|CCC HRK SOBR FAM Vara 2013|121|Horeca|0
0|CS3587714|2013-08-23 21:38:03|Bovidiu|Vasile||M|1980-01-01|Bacau|BACAU|Bucuresti|12|||||0766789098||Bovidiuvasile@yahoo.com|MBRRDRT||1 Sobranie KS Black (8mg) Pack|Yes|No||CT002023|Trinagria SRL |Constanta|CTHRKBA96|156|CCC HRK SOBR FAM Vara 2013|121|Horeca|0
0|CS3587715|2013-08-23 21:38:05|Turnatu|Octavian||M|1984-10-11|Buzau|Buzau|Teilor|69|||||0738774742||Turnatu.octavian@yahoo.com|DUNFCBB||1 Sobranie KS Gold  (4mg) Pack|Yes|Yes||CT002023|Trinagria SRL |Constanta|CTHRKBA95|156|CCC HRK SOBR FAM Vara 2013|121|Horeca|0
0|CS3587717|2013-08-23 21:38:09|Teodor|Florin||M|1985-09-22|Constanta|Constanta|Mihai viteazu|37|||||0747864357|||DUNFCBB||1 Sobranie KS Gold  (4mg) Pack|Yes|Yes||CT002023|Trinagria SRL |Constanta|CTHRKBA94|156|CCC HRK SOBR FAM Vara 2013|121|Horeca|0
0|CS3587722|2013-08-23 21:38:43|Busuioc|Andreea||F|1986-05-21|Constanta|CONSTANTA|Vlaicu|32|||||0723562389||Andreea_busuioc@yahoo.com|MBRFP||1 Sobranie KS Blue (6mg) Pack|Yes|Yes||CT002023|Trinagria SRL |Constanta|CTHRKBA54|156|CCC HRK SOBR FAM Vara 2013|121|Horeca|0
0|CS3587730|2013-08-23 21:39:25|Moromet|Cezara||F|1980-05-27|Constanta|CONSTANTA|Soarelui|34|||||0766567890||Morometcezara@gmail.com|PARRSSH||1 Sobranie SS Black (6mg) Pack|Yes|No||CT002023|Trinagria SRL |Constanta|CTHRKBA96|156|CCC HRK SOBR FAM Vara 2013|121|Horeca|0
0|CS3587736|2013-08-23 21:40:16|Apetroaie|Gheorghe||M|1989-12-22|Brasov|Brasov|Bihor|58|||||0735782467||Gheorghe26371@yahoo.com|KTBL||1 Sobranie KS Black (8mg) Pack|Yes|Yes||CT002023|Trinagria SRL |Constanta|CTHRKBA94|156|CCC HRK SOBR FAM Vara 2013|121|Horeca|0
0|CS3587737|2013-08-23 21:40:22|Marinescu|Elena||F|1983-01-05|Constanta|NAVODARI|Meduzei|21|F|||20|0770277368||Marinescuelena@yahoo.com|DAVGLSS||1 Sobranie SS Black (6mg) Pack|Yes|Yes||CT002023|Trinagria SRL |Constanta|CTHRKBA95|156|CCC HRK SOBR FAM Vara 2013|121|Horeca|0
0|CS3587742|2013-08-23 21:41:17|Mugurescu|Cristina||F|1983-06-19|Brasov|BRASOV|Izvorului|5|||||0721227833|||SBSSWH||1 Sobranie SS White (1mg) Pack|Yes|Yes||CT002023|Trinagria SRL |Constanta|CTHRKBA54|156|CCC HRK SOBR FAM Vara 2013|121|Horeca|0
0|CS3587805|2013-08-23 21:50:39|Grigorescu|Ionut||M|1984-10-25|Constanta|POIANA|Albinelor|32|||||0745213321|||KTBL||1 Sobranie KS Black (8mg) Pack|Yes|Yes||CT002023|Trinagria SRL |Constanta|CTHRKBA54|156|CCC HRK SOBR FAM Vara 2013|121|Horeca|0
0|CS3587816|2013-08-23 21:51:47|Folonet|Ion||M|1980-09-30|Constanta|CONSTANTA|Crinilor|23|||||0766567321||Folonetion@yahoo.com|SBKSBK||1 Sobranie KS Black (8mg) Pack|Yes|No||CT002023|Trinagria SRL |Constanta|CTHRKBA96|156|CCC HRK SOBR FAM Vara 2013|121|Horeca|0
0|CS3587966|2013-08-23 22:13:49|Ungureanu|Alexandru||M|1983-08-27|Braila|BRAILA|Aleea margaretei|34|||||0721227070|||KTWH||1 Sobranie SS White (1mg) Pack|Yes|Yes||CT005099|Lascu-Bros|Constanta|CTHRKBA54|156|CCC HRK SOBR FAM Vara 2013|121|Horeca|0
0|CS3587970|2013-08-23 22:14:09|Serpedin|Ferdin||M|1989-05-11|Bucuresti|Bucuresti|Iuliu maniu|71|||||0783364821||Serpedinferdin@gmail.com|DUNFCMBB||1 Sobranie KS Blue (6mg) Pack|Yes|Yes||CT005099|Lascu-Bros|Constanta|CTHRKBA95|156|CCC HRK SOBR FAM Vara 2013|121|Horeca|0
0|CS3587971|2013-08-23 22:14:20|Raureni|Mariana||F|1981-08-28|Constanta|CONSTANTA|Liliacului|65|L34|B||11|0763456122||Raurenimariana@yahoo.com|SBKSGD||1 Sobranie KS Gold  (4mg) Pack|Yes|No||CT005099|Lascu-Bros|Constanta|CTHRKBA96|156|CCC HRK SOBR FAM Vara 2013|121|Horeca|0
0|CS3587973|2013-08-23 22:14:42|Dominte|Marinela||F|1978-03-20|Constanta|Constanta|Eroilor|28|||||0732783738||Marinelaela@gmail.com|PARRSSH||1 Sobranie SS Black (6mg) Pack|Yes|Yes||CT005099|Lascu-Bros|Constanta|CTHRKBA94|156|CCC HRK SOBR FAM Vara 2013|121|Horeca|0
0|CS3587983|2013-08-23 22:16:18|Sima|Laura||F|1987-05-09|Constanta|CONSTANTA|Ion ratiu|27|||||0762247468||Simalaura@yahoo.com|SBKSGD||1 Sobranie KS Gold  (4mg) Pack|Yes|Yes||CT005099|Lascu-Bros|Constanta|CTHRKBA95|156|CCC HRK SOBR FAM Vara 2013|121|Horeca|0
0|CS3587984|2013-08-23 22:16:20|Frunzescu|Cristina||F|1983-09-28|Bacau|BACAU|H|B|||||0721221220||Cristinafrunzescu@yahoo.com|KTNWH||1 Sobranie SS White (1mg) Pack|Yes|Yes||CT005099|Lascu-Bros|Constanta|CTHRKBA54|156|CCC HRK SOBR FAM Vara 2013|121|Horeca|0
0|CS3587986|2013-08-23 22:16:28|Onescu|Emilia||F|1981-07-27|Constanta|CONSTANTA|Bolintineanu|45|||||0723456988||Onescuemilia@yahoo.com|PARRSSH||1 Sobranie SS Black (6mg) Pack|Yes|Yes||CT005099|Lascu-Bros|Constanta|CTHRKBA96|156|CCC HRK SOBR FAM Vara 2013|121|Horeca|0
0|CS3587988|2013-08-23 22:16:34|Pastarnac|Claudiu||M|1978-05-18|Constanta|Eforie nord|Belona|21|||||0764262728||Claudiupastarnav@yahoo.com|MBRFPEX||1 Sobranie KS Gold  (4mg) Pack|Yes|Yes||CT005099|Lascu-Bros|Constanta|CTHRKBA94|156|CCC HRK SOBR FAM Vara 2013|121|Horeca|0
0|CS3588000|2013-08-23 22:18:19|Jiju|Florian||M|1991-03-25|Constanta|Constanta|Florilor|38|||||0747263637||Florian.jiju@yahoo.com|KTSV||1 Sobranie KS Gold  (4mg) Pack|Yes|Yes||CT005099|Lascu-Bros|Constanta|CTHRKBA94|156|CCC HRK SOBR FAM Vara 2013|121|Horeca|0
0|CS3588003|2013-08-23 22:18:39|Varzaruu|Costin||M|1986-09-01|Constanta|CONSTANTA|Bvd tomis|5|||||0755654238||Varzariucostin@yahoo.com|SBKSBL||1 Sobranie KS Blue (6mg) Pack|Yes|Yes||CT005099|Lascu-Bros|Constanta|CTHRKBA96|156|CCC HRK SOBR FAM Vara 2013|121|Horeca|0
0|CS3588004|2013-08-23 22:18:46|Franga|Efim||M|1988-09-08|Constanta|CONSTANTA|Ferdinand|137|||||0726826357||Franga.efim@yahoo.com|KTBL||1 Sobranie KS Black (8mg) Pack|Yes|Yes||CT005099|Lascu-Bros|Constanta|CTHRKBA95|156|CCC HRK SOBR FAM Vara 2013|121|Horeca|0
0|CS3588007|2013-08-23 22:19:35|Rotaru|Radu||M|1989-06-11|Bucuresti|Bucuresti|Unidii|34|||||0742001002|||KTBL||1 Sobranie KS Blue (6mg) Pack|Yes|Yes||CT005099|Lascu-Bros|Constanta|CTHRKBA54|156|CCC HRK SOBR FAM Vara 2013|121|Horeca|0
0|CS3588012|2013-08-23 22:20:39|Jiju|Mirela||F|1975-01-01|Constanta|Constanta|Florilor|38|||||0746864356|||PARAB||1 Sobranie KS Blue (6mg) Pack|Yes|Yes||CT005099|Lascu-Bros|Constanta|CTHRKBA94|156|CCC HRK SOBR FAM Vara 2013|121|Horeca|0
0|CS3588015|2013-08-23 22:20:52|Danca|Tudor||M|1984-10-16|Bucuresti|Bucuresti|Valea morilor|41|||||0754754246||Danca_tudor@gmail.com|DUNFCBB||1 Sobranie KS Blue (6mg) Pack|Yes|Yes||CT005099|Lascu-Bros|Constanta|CTHRKBA95|156|CCC HRK SOBR FAM Vara 2013|121|Horeca|0
0|CS3588029|2013-08-23 22:22:34|Cizmariu|Andreea||F|1981-11-30|Constanta|CONSTANTA|Bvd 1mai|32|||||0766890766||Cizmariuandreea@yahoo.com|GLPBPKFT||1 Sobranie SS Black (6mg) Pack|Yes|No||CT005099|Lascu-Bros|Constanta|CTHRKBA96|156|CCC HRK SOBR FAM Vara 2013|121|Horeca|0
0|CS3588032|2013-08-23 22:23:20|Olaru|Iulian||M|1990-10-13|Constanta|CONSTANTA|Interioara|45|||||0763252377|||MBRFPEX||1 Sobranie KS Gold  (4mg) Pack|Yes|Yes||CT005099|Lascu-Bros|Constanta|CTHRKBA54|156|CCC HRK SOBR FAM Vara 2013|121|Horeca|0
0|CS3588119|2013-08-23 22:37:30|Ghiojdeanu|Oana||F|1992-08-09|Constanta|Constanta|Bv ferdinand|84|||0|0|0722271965||ua.ua_9@yahoo.com|SBKSGD||1 Sobranie KS Gold  (4mg) Pack|Yes|Yes||CT005099|Lascu-Bros|Constanta|CTHRKBA54|156|CCC HRK SOBR FAM Vara 2013|121|Horeca|0
0|CS3588122|2013-08-23 22:37:59|Popa|Mariana||F|1965-08-12|Constanta|Constanta|Bucovinei|1e|||||0722215852||Popanemoiu@gmail.com|SBSSBK||1 Sobranie SS Black (6mg) Pack|Yes|Yes||CT005099|Lascu-Bros|Constanta|CTHRKBA94|156|CCC HRK SOBR FAM Vara 2013|121|Horeca|0
0|CS3588128|2013-08-23 22:39:11|Hucet|Stefania||F|1976-11-01|Constanta|Constanta|Ion lahovari|97|||||0734562354||Hucetstefania@yahoo.com|VOGDV||1 Sobranie SS Black (6mg) Pack|Yes|Yes||CT005099|Lascu-Bros|Constanta|CTHRKBA96|156|CCC HRK SOBR FAM Vara 2013|121|Horeca|0
0|CS3588147|2013-08-23 22:42:58|Rosu|Alina||F|1989-11-27|Constanta|MEDGIDIA|Oituz|4|||||0762941625||Rosualinageorgiana@yahoo.com|VIRSPR||1 Sobranie SS Black (6mg) Pack|Yes|Yes||CT005099|Lascu-Bros|Constanta|CTHRKBA94|156|CCC HRK SOBR FAM Vara 2013|121|Horeca|0
0|CS3588158|2013-08-23 22:45:25|Sodringa|Lavinia||F|1992-02-15|Constanta|Constanta|Aleea garofitei|5|||||0737369837||Sw33d_kisss@yahoo.com|PARRSSH||1 Sobranie SS Black (6mg) Pack|Yes|Yes||CT005099|Lascu-Bros|Constanta|CTHRKBA94|156|CCC HRK SOBR FAM Vara 2013|121|Horeca|0
0|CS3588168|2013-08-23 22:48:11|Gulesan|Luiza||F|1990-02-06|Constanta|CONSTANTA|Betei|2|S|2||26|0726912602||Karamel_luizika@yahoo.com|DAVGLS||1 Sobranie SS Black (6mg) Pack|Yes|Yes||CT005099|Lascu-Bros|Constanta|CTHRKBA94|156|CCC HRK SOBR FAM Vara 2013|121|Horeca|0
0|CS3588235|2013-08-23 22:59:50|Ianos|Andreea||F|1987-10-20|Constanta|CONSTANTA|Dispensarului|2|24b|C|1|46|0725871037||b3belush_a@yahoo.com|VOGLL||1 Sobranie SS Pink (3mg) Pack|Yes|No||CT000708|AMI COM SRL|Constanta|CTHRKBA95|156|CCC HRK SOBR FAM Vara 2013|121|Horeca|0
0|CS3588236|2013-08-23 22:59:59|Deliorga|Maria||F|1987-09-08|Constanta|CONSTANTA|Pescarilor|79|Fz29|C|0|24|0742229777||guv_maria_cristina@yahoo.com|SBSSPK||1 Sobranie SS Pink (3mg) Pack|Yes|Yes||CT000708|AMI COM SRL|Constanta|CTHRKBA94|156|CCC HRK SOBR FAM Vara 2013|121|Horeca|0
0|CS3588240|2013-08-23 23:01:20|Rusu|Flaviu||M|1983-06-06|Constanta|CONSTANTA|Pescarilor|98|||0|0|0724197018|||SBKSGD||1 Sobranie KS Gold  (4mg) Pack|Yes|Yes||CT000708|AMI COM SRL|Constanta|CTHRKBA54|156|CCC HRK SOBR FAM Vara 2013|121|Horeca|0
0|CS3588246|2013-08-23 23:02:49|Stoian|Adina||F|1986-11-01|Constanta|Constanta|Cuza voda|20|||||0765456789||Stoianadela@yahoo.com|KTNBK||1 Sobranie SS Pink (3mg) Pack|Yes|Yes||CT000708|AMI COM SRL|Constanta|CTHRKBA96|156|CCC HRK SOBR FAM Vara 2013|121|Horeca|0
0|CS3588249|2013-08-23 23:03:22|Balta|Ana-Maria||F|1987-02-05|Constanta|CONSTANTA|Dionisie cel mic|52|||||0762419440||Ana_maria0502@yahoo.com|SBSSPK||1 Sobranie SS Pink (3mg) Pack|Yes|Yes||CT000708|AMI COM SRL|Constanta|CTHRKBA95|156|CCC HRK SOBR FAM Vara 2013|121|Horeca|0
0|CS3588256|2013-08-23 23:05:05|Udrea|Elisabeta||F|1971-04-26|Constanta|CONSTANTA|Soveja|56|||||0722485970|||SBSSWH||1 Sobranie SS White (1mg) Pack|Yes|No||CT000708|AMI COM SRL|Constanta|CTHRKBA54|156|CCC HRK SOBR FAM Vara 2013|121|Horeca|0
0|CS3588260|2013-08-23 23:07:06|Vlad|Laura||F|1987-09-11|Bucuresti|Bucuresti|Mieilor|15|||||0722229204||Vlad_laura2003@yahoo.com|SBSSWH||1 Sobranie SS White (1mg) Pack|Yes|Yes||CT000708|AMI COM SRL|Constanta|CTHRKBA95|156|CCC HRK SOBR FAM Vara 2013|121|Horeca|0
0|CS3588280|2013-08-23 23:11:31|Bondar|Ecaterina||F|1989-05-25|Bucuresti|Bucuresti|Arcasilor|32|A||||0738846317||Bondar.ecaterina@yahoo.com|DUNFCMBB||1 Sobranie KS Blue (6mg) Pack|Yes|Yes||CT000708|AMI COM SRL|Constanta|CTHRKBA95|156|CCC HRK SOBR FAM Vara 2013|121|Horeca|0
0|CS3588282|2013-08-23 23:11:42|Popa|Razvan||M|1984-11-12|Constanta|CONSTANTA|Florilor|34|||||0734241178|||DUNFCBB||1 Sobranie KS Blue (6mg) Pack|Yes|Yes||CT000708|AMI COM SRL|Constanta|CTHRKBA54|156|CCC HRK SOBR FAM Vara 2013|121|Horeca|0
0|CS3588353|2013-08-23 23:32:46|Paslaru|Mariana||F|1987-03-09|Buzau|BUZAU|Crinilor|84|||||0723222002|||VOGABP||1 Sobranie SS Black (6mg) Pack|Yes|No||CT004056|Restaurant Mediteranean SRL |Constanta|CTHRKBA54|156|CCC HRK SOBR FAM Vara 2013|121|Horeca|0
0|CS3588352|2013-08-23 23:32:46|Darius|Cristel||M|1986-01-01|Constanta|CONSTANTA|Sagetatorului|22|||||0766890657||Darius_cristel@yahoo.com|KTNBK||1 Sobranie KS Black (8mg) Pack|Yes|No||CT004056|Restaurant Mediteranean SRL |Constanta|CTHRKBA96|156|CCC HRK SOBR FAM Vara 2013|121|Horeca|0
0|CS3588356|2013-08-23 23:32:58|Bobociu|Mihai||M|1980-03-26|Constanta|Constanta|Mamaia|50|||||0728954678||Mihai1234@yahoo.com|DUNFCBB||1 Sobranie KS Gold  (4mg) Pack|Yes|Yes||CT004056|Restaurant Mediteranean SRL |Constanta|CTHRKBA94|156|CCC HRK SOBR FAM Vara 2013|121|Horeca|0
0|CS3588357|2013-08-23 23:33:13|Gavrilescu|Claudia||F|1974-02-26|Constanta|CONSTANTA|Poporului|45b|||||0743564284||Clau_gavrilescu@yahoo.com|KTBL6||1 Sobranie KS Blue (6mg) Pack|Yes|Yes||CT004056|Restaurant Mediteranean SRL |Constanta|CTHRKBA95|156|CCC HRK SOBR FAM Vara 2013|121|Horeca|0
0|CS3588408|2013-08-23 23:49:05|Rizea|Mirel||M|1992-04-22|Constanta|Constanta|George cosbuc|31|||||0736137389||Mirelrizea@yahoo.com|MBRGLT||1 Sobranie KS Blue (6mg) Pack|Yes|Yes||CT004056|Restaurant Mediteranean SRL |Constanta|CTHRKBA94|156|CCC HRK SOBR FAM Vara 2013|121|Horeca|0
0|CS3590882|2013-08-24 20:02:27|Grecu|Adelina||F|1988-04-06|Constanta|CONSTANTA|Crinilor|34|||||0734221771|||VIRSPR||1 Sobranie SS Black (6mg) Pack|Yes|Yes||CT004058|Abi Grup SRL|Constanta|CTHRKBA54|156|CCC HRK SOBR FAM Vara 2013|121|Horeca|0
0|CS3590936|2013-08-24 20:11:07|Ionescu|Elena||F|1981-04-30|Constanta|CONSTANTA|Bvd tomis|23|||||0765432112||Ionescuelena@yahoo.com|PARAB||1 Sobranie KS Black (8mg) Pack|Yes|No||CT004058|Abi Grup SRL|Constanta|CTHRKBA96|156|CCC HRK SOBR FAM Vara 2013|121|Horeca|0
0|CS3590938|2013-08-24 20:11:32|Pepitoc|Sorin||M|1981-03-20|Constanta|CONSTANTA|Lapusneanu|27|||||0726273849||Sorinpepi@yahoo.com|PARAB||1 Sobranie KS Black (8mg) Pack|Yes|Yes||CT004058|Abi Grup SRL|Constanta|CTHRKBA94|156|CCC HRK SOBR FAM Vara 2013|121|Horeca|0
0|CS3590940|2013-08-24 20:11:35|Cenusa|Danu||M|1989-06-07|Constanta|CONSTANTA|Soveja|52|F|||19|0738654211||Cenusa_danu@yahoo.com|SBSSPK||1 Sobranie SS Pink (3mg) Pack|Yes|Yes||CT004058|Abi Grup SRL|Constanta|CTHRKBA95|156|CCC HRK SOBR FAM Vara 2013|121|Horeca|0
0|CS3590941|2013-08-24 20:11:40|Grigoras|Alina||F|1991-05-13|Calarasi|CALARASI|Liliacului|3|||||0745223223||Alina_grigoras@yahoo.com|VIRSV||1 Sobranie SS Pink (3mg) Pack|Yes|Yes||CT004058|Abi Grup SRL|Constanta|CTHRKBA54|156|CCC HRK SOBR FAM Vara 2013|121|Horeca|0
0|CS3590954|2013-08-24 20:13:41|Ganea|Victor||M|1982-03-10|Bucuresti|Bucuresti|Flamanda|21|||||0764552357||Victorganea@gmail.com|DUNFCMBB||1 Sobranie KS Blue (6mg) Pack|Yes|Yes||CT004058|Abi Grup SRL|Constanta|CTHRKBA95|156|CCC HRK SOBR FAM Vara 2013|121|Horeca|0
0|CS3590957|2013-08-24 20:13:53|Davinte|Anghel||M|1981-11-30|Constanta|CONACU|Frunzelor|32|||||0765456221||Angheldavinte@yahoo.com|DAVSVSS||1 Sobranie SS Pink (3mg) Pack|Yes|No||CT004058|Abi Grup SRL|Constanta|CTHRKBA96|156|CCC HRK SOBR FAM Vara 2013|121|Horeca|0
0|CS3590960|2013-08-24 20:14:17|Oprea|Cristina||F|1986-06-06|Braila|BRAILA|Lapusneanu|112|||||0724331332|||KTNWH||1 Sobranie SS White (1mg) Pack|Yes|Yes||CT004058|Abi Grup SRL|Constanta|CTHRKBA54|156|CCC HRK SOBR FAM Vara 2013|121|Horeca|0
0|CS3590963|2013-08-24 20:14:43|Dima|Dorel||M|1988-04-23|Constanta|CONSTANTA|Ion ratiu|48|||||0760273628||Doreldorinel@yahoo.com|KTSV||1 Sobranie KS Gold  (4mg) Pack|Yes|Yes||CT004058|Abi Grup SRL|Constanta|CTHRKBA94|156|CCC HRK SOBR FAM Vara 2013|121|Horeca|0
0|CS3590975|2013-08-24 20:16:20|Banutu|Anghel||M|1972-03-24|Constanta|CONSTANTA|Stefan cel mare|1|L22||||0766126783||Banutuanghel@yahoo.com|KTH||1 Sobranie KS Black (8mg) Pack|Yes|Yes||CT004058|Abi Grup SRL|Constanta|CTHRKBA96|156|CCC HRK SOBR FAM Vara 2013|121|Horeca|0
0|CS3590981|2013-08-24 20:17:21|Ghemiu|Florin||M|1981-02-17|Constanta|CONSTANTA|Paltinului|36|||||0726372829||Florin83627@yahoo.com|DAVCL||1 Sobranie KS Blue (6mg) Pack|Yes|Yes||CT004058|Abi Grup SRL|Constanta|CTHRKBA94|156|CCC HRK SOBR FAM Vara 2013|121|Horeca|0
0|CS3590983|2013-08-24 20:17:34|Andrascu|Ioana||F|1987-11-11|Constanta|CONSTANTA|Doina|8|||||0725333765||Andrascu_ioana@yahoo.com|DAVSVSS||1 Sobranie SS Pink (3mg) Pack|Yes|Yes||CT004058|Abi Grup SRL|Constanta|CTHRKBA95|156|CCC HRK SOBR FAM Vara 2013|121|Horeca|0
0|CS3591108|2013-08-24 20:36:22|Sarageaua|Georgiana||F|1989-04-27|Constanta|CONSTANTA|Cezar boliac|1|||||0742210217|||VIRSV||1 Sobranie SS Pink (3mg) Pack|Yes|Yes||CT005185|Filozofie Urbana SRL|Constanta|CTHRKBA54|156|CCC HRK SOBR FAM Vara 2013|121|Horeca|0
0|CS3591135|2013-08-24 20:42:19|Balan|Bogdan||M|1990-04-26|Constanta|CONSTANTA|Stefan cel mare|4|||||0765667641|||MBRFPEX||1 Sobranie KS Gold  (4mg) Pack|Yes|Yes||CT005185|Filozofie Urbana SRL|Constanta|CTHRKBA54|156|CCC HRK SOBR FAM Vara 2013|121|Horeca|0
0|CS3591142|2013-08-24 20:43:31|Szabo|Petre||M|1989-05-21|Bucuresti|Bucuresti|Cuza voda|129|||||0745284758||Petreszabo@yahoo.com|PARSB||1 Sobranie KS Gold  (4mg) Pack|Yes|Yes||CT005185|Filozofie Urbana SRL|Constanta|CTHRKBA94|156|CCC HRK SOBR FAM Vara 2013|121|Horeca|0
0|CS3591151|2013-08-24 20:44:59|Jiru|Luminita||F|1986-02-14|Constanta|CONSTANTA|Soveja|12|||||0724642900||Lumi.lumnita@yahoo.com|GLMBL||1 Sobranie SS Pink (3mg) Pack|Yes|Yes||CT005185|Filozofie Urbana SRL|Constanta|CTHRKBA54|156|CCC HRK SOBR FAM Vara 2013|121|Horeca|0
0|CS3591153|2013-08-24 20:45:03|Gonunt|Laura||F|1976-10-01|Arges|ARGESANI|Florilor|2|L21||||0766890567||Gonuntlaura@yahoo.com|CABL||1 Sobranie KS Blue (6mg) Pack|Yes|Yes||CT005185|Filozofie Urbana SRL|Constanta|CTHRKBA96|156|CCC HRK SOBR FAM Vara 2013|121|Horeca|0
0|CS3591161|2013-08-24 20:46:22|Strambeanu|Andreea||F|1981-04-23|Constanta|CONSTANTA|Mangaliei|37|||||0763678313||Srambeanu.andreea@yahoo.com|KTBL||1 Sobranie KS Black (8mg) Pack|Yes|Yes||CT005185|Filozofie Urbana SRL|Constanta|CTHRKBA94|156|CCC HRK SOBR FAM Vara 2013|121|Horeca|0
0|CS3591173|2013-08-24 20:47:49|Hominte|Vasilica||F|1980-09-25|Bucuresti|2|Ratiu|32|||||0723456238||Homintevasilica@hotmail.com|SBSSWH||1 Sobranie SS White (1mg) Pack|Yes|Yes||CT005185|Filozofie Urbana SRL|Constanta|CTHRKBA96|156|CCC HRK SOBR FAM Vara 2013|121|Horeca|0
0|CS3591176|2013-08-24 20:48:29|Negru|Catalin||M|1988-04-01|Constanta|CONSTANTA|Aleea hortensiei|35|||||0767445522||Catalin.negru@yahoo.com|DUNFCBB||1 Sobranie KS Gold  (4mg) Pack|Yes|Yes||CT005185|Filozofie Urbana SRL|Constanta|CTHRKBA54|156|CCC HRK SOBR FAM Vara 2013|121|Horeca|0
0|CS3591177|2013-08-24 20:48:45|Buceac|Georgiana||F|1983-09-05|Bucuresti|Bucuresti|Valea trandafirilor|22|||||0747534799||Buceac_georgi01@yahoo.com|SBSSMN||1 Sobranie SS Menthol (5 mg) Pack|Yes|Yes||CT005185|Filozofie Urbana SRL|Constanta|CTHRKBA95|156|CCC HRK SOBR FAM Vara 2013|121|Horeca|0
0|CS3591195|2013-08-24 20:50:39|Mondean|Mariana||F|1980-01-28|Constanta|Constanta|Suceava|87|||||0754642877||Mariana34@gmail.com|PARRSSH||1 Sobranie SS Black (6mg) Pack|Yes|Yes||CT005185|Filozofie Urbana SRL|Constanta|CTHRKBA96|156|CCC HRK SOBR FAM Vara 2013|121|Horeca|0
0|CS3591196|2013-08-24 20:50:43|Popescu|Alina||F|1990-06-16|Constanta|CONSTANTA|Mircesti|44|||||0754753238||Popescu_alina@yahoo.com|KTNWH||1 Sobranie SS White (1mg) Pack|Yes|Yes||CT005185|Filozofie Urbana SRL|Constanta|CTHRKBA95|156|CCC HRK SOBR FAM Vara 2013|121|Horeca|0
0|CS3591200|2013-08-24 20:51:11|Iuscen|Mirela||F|1988-07-25|Galati|GALATI|Mihai eminescu|59|||||0724664246||Mirela569oni@yahoo.com|SBSSPK||1 Sobranie SS Pink (3mg) Pack|Yes|Yes||CT005185|Filozofie Urbana SRL|Constanta|CTHRKBA94|156|CCC HRK SOBR FAM Vara 2013|121|Horeca|0
0|CS3591217|2013-08-24 20:53:41|Chermanean|Adelle||F|1990-01-30|Constanta|CONSTANTA|Dumbravei|3|B||||0738727628||Chermanean_adutza@yahoo.com|VOGBL||1 Sobranie SS Black (6mg) Pack|Yes|Yes||CT005185|Filozofie Urbana SRL|Constanta|CTHRKBA95|156|CCC HRK SOBR FAM Vara 2013|121|Horeca|0
0|CS3591285|2013-08-24 21:05:33|Pirvulescu|Catrinel||F|1983-03-21|Bucuresti|SECTOR 1|Murelor|67|||||0734211670|||VOGABP||1 Sobranie SS Black (6mg) Pack|Yes|Yes||CT003789|SCAPINO SRL|Constanta|CTHRKBA54|156|CCC HRK SOBR FAM Vara 2013|121|Horeca|0
0|CS3591293|2013-08-24 21:06:30|Paunescu|George||F|1983-12-13|Constanta|CONSTANTA|Vasile alecsandri|1|||||0744932756||Paunescu_george@gmail.com|KTBL||1 Sobranie KS Black (8mg) Pack|Yes|Yes||CT003789|SCAPINO SRL|Constanta|CTHRKBA95|156|CCC HRK SOBR FAM Vara 2013|121|Horeca|0
0|CS3591297|2013-08-24 21:06:50|Ghitu|Andrei||M|1983-03-19|Bucuresti|Bucuresti|Alecsandri vasile|67|||||0745788423||Andreeabubi@yahoo.com|KTBLH||1 Sobranie KS Black (8mg) Pack|Yes|Yes||CT003789|SCAPINO SRL|Constanta|CTHRKBA94|156|CCC HRK SOBR FAM Vara 2013|121|Horeca|0
0|CS3591311|2013-08-24 21:08:16|Patran|Virgil||M|1984-01-30|Arges|Arges|Duzilor|3|||||0756789098||Virgilpatran@yahoo.com|DUNFF||1 Sobranie KS Black (8mg) Pack|Yes|Yes||CT003789|SCAPINO SRL|Constanta|CTHRKBA96|156|CCC HRK SOBR FAM Vara 2013|121|Horeca|0
0|CS3591315|2013-08-24 21:08:33|Vrabie|Nicu||M|1984-11-26|Bucuresti|SECTOR 3|Vlahuta|4|||||0746582128||Nicuvrabie@yahoo.com|KTSV||1 Sobranie KS Gold  (4mg) Pack|Yes|Yes||CT003789|SCAPINO SRL|Constanta|CTHRKBA54|156|CCC HRK SOBR FAM Vara 2013|121|Horeca|0
0|CS3591319|2013-08-24 21:09:12|Ionascu|Razvan||F|1984-12-12|Brasov|Brasov|Transilvaniei|39|||||0753579145||Ionascu.razvan@gmail.com|PARRSSH||1 Sobranie SS Black (6mg) Pack|Yes|Yes||CT003789|SCAPINO SRL|Constanta|CTHRKBA95|156|CCC HRK SOBR FAM Vara 2013|121|Horeca|0
0|CS3591328|2013-08-24 21:10:08|Poliscu|Ciprian||M|1988-02-19|Brasov|Brasov|Aldea sandu|58|||||0735787421||Cipriandidileu@yahoo.com|MBRFP||1 Sobranie KS Blue (6mg) Pack|Yes|Yes||CT003789|SCAPINO SRL|Constanta|CTHRKBA94|156|CCC HRK SOBR FAM Vara 2013|121|Horeca|0
0|CS3591333|2013-08-24 21:10:51|Genoda|Vanda||F|1978-09-28|Harghita|HARGHITA BAI|Eroi|25|||||0756334689||Genodavanda@hotmail.com|CASV||1 Sobranie KS Gold  (4mg) Pack|Yes|No||CT003789|SCAPINO SRL|Constanta|CTHRKBA96|156|CCC HRK SOBR FAM Vara 2013|121|Horeca|0
0|CS3591342|2013-08-24 21:11:45|Patrascu|Iulian||M|1983-01-11|Constanta|CONSTANTA|Alunis|17|||||0738842032||Patrascuiulian@mareea.com|SBKSBL||1 Sobranie KS Blue (6mg) Pack|Yes|Yes||CT003789|SCAPINO SRL|Constanta|CTHRKBA95|156|CCC HRK SOBR FAM Vara 2013|121|Horeca|0
0|CS3591345|2013-08-24 21:11:58|Catana|Andreea||F|1989-11-09|Bacau|COMANESTI|Zorelelor|17|||||0721220677||Andreea_andreea@gmail.com|PARRSSH||1 Sobranie SS Black (6mg) Pack|Yes|No||CT003789|SCAPINO SRL|Constanta|CTHRKBA54|156|CCC HRK SOBR FAM Vara 2013|121|Horeca|0
0|CS3591347|2013-08-24 21:12:29|Titulet|Doru||M|1979-04-22|Brasov|BRASOV|Abrud|83|||||0723577799||Doru37drag@yahoo.com|KTSV||1 Sobranie KS Gold  (4mg) Pack|Yes|Yes||CT003789|SCAPINO SRL|Constanta|CTHRKBA94|156|CCC HRK SOBR FAM Vara 2013|121|Horeca|0
0|CS3591348|2013-08-24 21:12:41|Condieni|Anton||M|1980-12-24|Constanta|Constanta|Micsunelelor|4|||||0766451908||Condieni@gmail.com|CABL||1 Sobranie KS Blue (6mg) Pack|Yes|No||CT003789|SCAPINO SRL|Constanta|CTHRKBA96|156|CCC HRK SOBR FAM Vara 2013|121|Horeca|0
0|CS3591362|2013-08-24 21:14:26|Cristea|Ionela||F|1985-09-16|Constanta|CONSTANTA|Tabla butii|35|||||0725667211||Inela_cristea@yahoo.com|DAVGLS||1 Sobranie SS Black (6mg) Pack|Yes|Yes||CT003789|SCAPINO SRL|Constanta|CTHRKBA54|156|CCC HRK SOBR FAM Vara 2013|121|Horeca|0
0|CS3591436|2013-08-24 21:26:18|Lazarescu|Adriana||F|1982-11-13|Constanta|CONSTANTA|Unirii|108|U1|G|3|120|0730880438||adrianalazarescu@yahoo.com|KTNWH||1 Sobranie SS White (1mg) Pack|Yes|Yes||CT004932|Toscana SRL |Constanta|CTHRKBA54|156|CCC HRK SOBR FAM Vara 2013|121|Horeca|0
0|CS3591437|2013-08-24 21:26:20|Constantin|Ioana||F|1982-05-16|Constanta|Constanta|Nicolae milescu|28|||||0724912358||Ctinioana@yahoo.com|SBSSWH||1 Sobranie SS White (1mg) Pack|Yes|Yes||CT004932|Toscana SRL |Constanta|CTHRKBA94|156|CCC HRK SOBR FAM Vara 2013|121|Horeca|0
0|CS3591439|2013-08-24 21:26:32|Mergeani|Maria||F|1977-08-14|Tulcea|Tulcea|Dimitrie sturza|33|||||0728678122||Avocatmergeani@yahoo.com|VIRSM||1 Sobranie SS Menthol (5 mg) Pack|Yes|Yes||CT004932|Toscana SRL |Constanta|CTHRKBA95|156|CCC HRK SOBR FAM Vara 2013|121|Horeca|0
0|CS3591458|2013-08-24 21:29:17|Birzia|Laurentiu||M|1980-01-08|Constanta|Constanta|Topolog|10|||||0721311049||Borzial@yahoo.com|DUNFCSB||1 Sobranie KS Black (8mg) Pack|Yes|Yes||CT004932|Toscana SRL |Constanta|CTHRKBA94|156|CCC HRK SOBR FAM Vara 2013|121|Horeca|0
0|CS3591485|2013-08-24 21:32:58|Lazar|Marilena||F|1989-04-10|Constanta|CONSTANTA|Mircea cel batran|35|||||0721342122|||SBSSWH||1 Sobranie SS White (1mg) Pack|Yes|Yes||CT004932|Toscana SRL |Constanta|CTHRKBA54|156|CCC HRK SOBR FAM Vara 2013|121|Horeca|0
0|CS3591498|2013-08-24 21:34:58|Atitiscioc|Adela||M|1987-06-26|Constanta|CONSTANTA|Locomotivei|47|||||0726373849||Adelaadelina3@yahoo.com|MBRGLT||1 Sobranie KS Blue (6mg) Pack|Yes|Yes||CT004932|Toscana SRL |Constanta|CTHRKBA94|156|CCC HRK SOBR FAM Vara 2013|121|Horeca|0
0|CS3591500|2013-08-24 21:35:09|Colanciu|Daria||F|1993-08-20|Bucuresti|Bucuresti|Giurgiului|6|D|2||33|0762855157||Colanciudaria@gmail.com|DAVSVSS||1 Sobranie SS Pink (3mg) Pack|Yes|Yes||CT004932|Toscana SRL |Constanta|CTHRKBA95|156|CCC HRK SOBR FAM Vara 2013|121|Horeca|0
0|CS3591502|2013-08-24 21:35:12|Saniev|Cezara||F|1984-08-01|Constanta|CONSTANTA|Atelierelor|32|||||0766546789||Sanievcaesara@yahoo.com|GLPBMNFT||1 Sobranie SS Menthol (5 mg) Pack|Yes|Yes||CT004932|Toscana SRL |Constanta|CTHRKBA96|156|CCC HRK SOBR FAM Vara 2013|121|Horeca|0
0|CS3591518|2013-08-24 21:37:19|Lazar|Marinela||F|1984-11-28|Constanta|CONSTANTA|Tudorescu|2|||||0723675541||Marinela_lazar@yahoo.com|VOGLL||1 Sobranie SS Pink (3mg) Pack|Yes|Yes||CT004932|Toscana SRL |Constanta|CTHRKBA54|156|CCC HRK SOBR FAM Vara 2013|121|Horeca|0
0|CS3591519|2013-08-24 21:37:27|Sima|Florentina||F|1990-05-11|Bucuresti|Bucuresti|Cernauti|30|||||0732943436||Flori_micuta@yahoo.com|KTNWH||1 Sobranie SS White (1mg) Pack|Yes|Yes||CT004932|Toscana SRL |Constanta|CTHRKBA95|156|CCC HRK SOBR FAM Vara 2013|121|Horeca|0
0|CS3591520|2013-08-24 21:37:34|Tomei|Claudiu||M|1982-04-21|Constanta|CONSTANTA|Bucuresti|25|||||0768162526||Claudiutomei@yahoo.com|DUNFCMBB||1 Sobranie KS Blue (6mg) Pack|Yes|Yes||CT004932|Toscana SRL |Constanta|CTHRKBA94|156|CCC HRK SOBR FAM Vara 2013|121|Horeca|0
0|CS3591522|2013-08-24 21:37:48|Feduloc|Petruta||F|1981-08-29|Constanta|CONSTANTA|Bucuresti|65|||||0766456789||Fedulocpetruta@yahoo.com|SBKSBL||1 Sobranie KS Blue (6mg) Pack|Yes|No||CT004932|Toscana SRL |Constanta|CTHRKBA96|156|CCC HRK SOBR FAM Vara 2013|121|Horeca|0
0|CS3591530|2013-08-24 21:39:22|Stratica|Andrada||F|1981-08-26|Constanta|CONSTANTA|Bihor|79|||||0726173748|||KTWH||1 Sobranie SS White (1mg) Pack|Yes|Yes||CT004932|Toscana SRL |Constanta|CTHRKBA94|156|CCC HRK SOBR FAM Vara 2013|121|Horeca|0
0|CS3591534|2013-08-24 21:39:38|Trandafir|Valentin||M|1986-10-16|Constanta|CONSTANTA|Dacia|112|||||0733543285||Trandafirvalentin@gmail.com|PARABH||1 Sobranie KS Black (8mg) Pack|Yes|Yes||CT004932|Toscana SRL |Constanta|CTHRKBA95|156|CCC HRK SOBR FAM Vara 2013|121|Horeca|0
0|CS3591536|2013-08-24 21:40:08|Undita|Adela||F|1980-03-27|Constanta|CONSTANTA|Mihaileanu|4|||||0766564789||Undiadela@yahoo.com|SBKSBL||1 Sobranie KS Blue (6mg) Pack|Yes|No||CT004932|Toscana SRL |Constanta|CTHRKBA96|156|CCC HRK SOBR FAM Vara 2013|121|Horeca|0
0|CS3591537|2013-08-24 21:40:12|Ionita|Andra||F|1988-06-27|Constanta|CONSTANTA|Mamaia|124|||||0765669213|||KTBL||1 Sobranie KS Blue (6mg) Pack|Yes|Yes||CT004932|Toscana SRL |Constanta|CTHRKBA54|156|CCC HRK SOBR FAM Vara 2013|121|Horeca|0
0|CS3591547|2013-08-24 21:41:52|Sangereanu|Radu||M|1984-07-08|Iasi|IASI|Podu rosu|3|||||0766991002|||MBRFP||1 Sobranie KS Blue (6mg) Pack|Yes|Yes||CT004932|Toscana SRL |Constanta|CTHRKBA54|156|CCC HRK SOBR FAM Vara 2013|121|Horeca|0
0|CS3591591|2013-08-24 21:48:49|Adam|Ionela||F|1989-04-07|Bacau|BACAU|Unirii|43|||||0214507790||Ionela.adam@yahoo.com|VOGLL||1 Sobranie SS Pink (3mg) Pack|Yes|Yes||CT002023|Trinagria SRL |Constanta|CTHRKBA54|156|CCC HRK SOBR FAM Vara 2013|121|Horeca|0
0|CS3591610|2013-08-24 21:51:18|Encica|Ionut||M|1978-04-14|Constanta|CONSTANTA|Andromeda|79|||||0724828393||Ionutencica@yahoo.com|DAVGL||1 Sobranie KS Blue (6mg) Pack|Yes|Yes||CT002023|Trinagria SRL |Constanta|CTHRKBA94|156|CCC HRK SOBR FAM Vara 2013|121|Horeca|0
0|CS3591612|2013-08-24 21:51:51|Verdunca|Madalina||F|1983-08-30|Constanta|CONSTANTA|Ciresilor|23|||||0766456345||Verduncamada@gmail.com|VIRSM||1 Sobranie SS Menthol (5 mg) Pack|Yes|Yes||CT002023|Trinagria SRL |Constanta|CTHRKBA96|156|CCC HRK SOBR FAM Vara 2013|121|Horeca|0
0|CS3591615|2013-08-24 21:52:14|Florea|Elena||F|1991-12-12|Constanta|CONSTANTA|Luminii|26|||||0726772520||Florea.elena@gmail.com|DUNFCBB||1 Sobranie KS Gold  (4mg) Pack|Yes|Yes||CT002023|Trinagria SRL |Constanta|CTHRKBA95|156|CCC HRK SOBR FAM Vara 2013|121|Horeca|0
0|CS3591616|2013-08-24 21:52:18|Petre|Ana maria||F|1990-11-14|Galati|GALATI|Dunarii|6|||||0744701776||Ana.petre@yahoo.com|KTBL||1 Sobranie KS Blue (6mg) Pack|Yes|Yes||CT002023|Trinagria SRL |Constanta|CTHRKBA54|156|CCC HRK SOBR FAM Vara 2013|121|Horeca|0
0|CS3591620|2013-08-24 21:53:19|Vasile|Aurel||M|1981-02-21|Constanta|Constanta|Ion ratiu|96|||||0732739392||Ghemotoc@yahoo.com|PARNBH||1 Sobranie KS Black (8mg) Pack|Yes|Yes||CT002023|Trinagria SRL |Constanta|CTHRKBA94|156|CCC HRK SOBR FAM Vara 2013|121|Horeca|0
0|CS3591631|2013-08-24 21:55:51|Cochirlie|Zoita||F|1982-11-29|Constanta|CONSTANTA|Luptatorilor|34|||||0756432567||Cochirliezoita@yahoo.com|DAVCL||1 Sobranie KS Black (8mg) Pack|Yes|No||CT002023|Trinagria SRL |Constanta|CTHRKBA96|156|CCC HRK SOBR FAM Vara 2013|121|Horeca|0
0|CS3591637|2013-08-24 21:57:16|Jumvi|Gheorghe||M|1991-06-25|Constanta|CONSTANTA|Luptatori|82|||||0763135788|||SBKSGD||1 Sobranie KS Gold  (4mg) Pack|Yes|Yes||CT002023|Trinagria SRL |Constanta|CTHRKBA94|156|CCC HRK SOBR FAM Vara 2013|121|Horeca|0
0|CS3591646|2013-08-24 21:59:13|Gojutu|Sorin||M|1982-11-29|Covasna|COVASNA|Kogalniceanu|34|||||0744678908||Cojutusorin@yahoo.com|SBSSPK||1 Sobranie SS Pink (3mg) Pack|Yes|No||CT002023|Trinagria SRL |Constanta|CTHRKBA96|156|CCC HRK SOBR FAM Vara 2013|121|Horeca|0
0|CS3591664|2013-08-24 22:01:18|Tartan|Marin||M|1984-12-19|Constanta|CONSTANTA|Macesului|30|||||0762877372||Tartan.maria@yahoo.com|DUNFCBB||1 Sobranie KS Gold  (4mg) Pack|Yes|Yes||CT002023|Trinagria SRL |Constanta|CTHRKBA95|156|CCC HRK SOBR FAM Vara 2013|121|Horeca|0
0|CS3591675|2013-08-24 22:03:23|Grosu|Florentina||F|1988-06-07|Braila|BRAILA|Zmeurei|67|||||0723723318|||PARRSSH||1 Sobranie SS Black (6mg) Pack|Yes|Yes||CT002023|Trinagria SRL |Constanta|CTHRKBA54|156|CCC HRK SOBR FAM Vara 2013|121|Horeca|0
0|CS3591677|2013-08-24 22:03:41|Negreanu|Vitalina||F|1984-06-15|Constanta|CONSTANTA|Mamaia|219|||||0729376628||Negreanu.vitaly@gmail.com|GLMBL||1 Sobranie SS Pink (3mg) Pack|Yes|Yes||CT002023|Trinagria SRL |Constanta|CTHRKBA95|156|CCC HRK SOBR FAM Vara 2013|121|Horeca|0
0|CS3591802|2013-08-24 22:22:45|Manaila|Alexandra||F|1988-10-20|Constanta|CONSTANTA|Ion ratiu|23|||||0722807992|||PARRSSH||1 Sobranie SS Black (6mg) Pack|Yes|Yes||CT005099|Lascu-Bros|Constanta|CTHRKBA54|156|CCC HRK SOBR FAM Vara 2013|121|Horeca|0
0|CS3591804|2013-08-24 22:23:28|Rosaliniu|Gina||F|1982-07-28|Constanta|CONSTANTA|Albastrelelor|4|||||0744542890||Ginutaalbinuta@yahoo..com|PARRSSH||1 Sobranie SS Black (6mg) Pack|Yes|No||CT005099|Lascu-Bros|Constanta|CTHRKBA96|156|CCC HRK SOBR FAM Vara 2013|121|Horeca|0
0|CS3591805|2013-08-24 22:23:31|Dimoftache|Radu||M|1977-09-24|Constanta|Constanta|Unirii|56|||||0731468887||Radudimoftache@gmail.com|KTBLH||1 Sobranie KS Black (8mg) Pack|Yes|Yes||CT005099|Lascu-Bros|Constanta|CTHRKBA94|156|CCC HRK SOBR FAM Vara 2013|121|Horeca|0
0|CS3591808|2013-08-24 22:23:58|Ontel|Florin||M|1984-04-10|Calarasi|CALARASI|Alecu russo|40|||||0737115799||Ontel.florin00@yahoo.com|KTSV||1 Sobranie KS Gold  (4mg) Pack|Yes|Yes||CT005099|Lascu-Bros|Constanta|CTHRKBA95|156|CCC HRK SOBR FAM Vara 2013|121|Horeca|0
0|CS3591818|2013-08-24 22:25:31|Panainte|Alexandra||F|1987-06-24|Constanta|Constanta|Paltinis|27|||||0763627299||Alexanadrapana@yahoo.com|DAVGLS||1 Sobranie SS Black (6mg) Pack|Yes|Yes||CT005099|Lascu-Bros|Constanta|CTHRKBA94|156|CCC HRK SOBR FAM Vara 2013|121|Horeca|0
0|CS3591823|2013-08-24 22:26:20|Marovenie|Miruna||F|1982-04-26|Constanta|CONSTANTA|Mamaia|33|||||0766453789||Mirunica@yahoo.com|DAVIDBL||1 Sobranie KS Blue (6mg) Pack|Yes|Yes||CT005099|Lascu-Bros|Constanta|CTHRKBA96|156|CCC HRK SOBR FAM Vara 2013|121|Horeca|0
0|CS3591824|2013-08-24 22:26:36|Fulga|Alexandra||F|1983-12-25|Bucuresti|Bucuresti|Mihai viteazu|74|||||0739557221||Alexandrafulga@hotmail.com|DUNFCMBB||1 Sobranie KS Blue (6mg) Pack|Yes|Yes||CT005099|Lascu-Bros|Constanta|CTHRKBA95|156|CCC HRK SOBR FAM Vara 2013|121|Horeca|0
0|CS3591825|2013-08-24 22:26:39|Ionascu|Adina||F|1982-09-19|Galati|GALATI|Mihai viteazu|9|||||0732443097||Adina_ionascu@yahoo.com|MBRFP||1 Sobranie KS Blue (6mg) Pack|Yes|Yes||CT005099|Lascu-Bros|Constanta|CTHRKBA54|156|CCC HRK SOBR FAM Vara 2013|121|Horeca|0
0|CS3591829|2013-08-24 22:27:08|Apotrov|Camelia||F|1982-06-25|Bucuresti|Bucuresti|Eroilor|174|||||0746153779||Cameliacamy.36@yahoo.com|VIRSV||1 Sobranie SS Pink (3mg) Pack|Yes|Yes||CT005099|Lascu-Bros|Constanta|CTHRKBA94|156|CCC HRK SOBR FAM Vara 2013|121|Horeca|0
0|CS3591842|2013-08-24 22:28:42|Antonescu|Viorica||F|1982-05-30|Constanta|CONACU|Postei|65|||||0766589643||Antonescuviorica@yahoo.com|CABK||1 Sobranie KS Blue (6mg) Pack|Yes|No||CT005099|Lascu-Bros|Constanta|CTHRKBA96|156|CCC HRK SOBR FAM Vara 2013|121|Horeca|0
0|CS3591847|2013-08-24 22:29:39|Laretu|Catalin||M|1984-05-17|Dambovita|LIVEZILE (VALEA MARE)|Valea crucii|16|MZ|||34|0749325357||Laretucatalin@yahoo.com|SBKSBK||1 Sobranie KS Black (8mg) Pack|Yes|Yes||CT005099|Lascu-Bros|Constanta|CTHRKBA95|156|CCC HRK SOBR FAM Vara 2013|121|Horeca|0
0|CS3591852|2013-08-24 22:30:45|Simion|Dorian||M|1982-05-18|Constanta|Constanta|Dumbravei|47|||||0732562829||Baiatdragutz@yahoo.com|KTSV||1 Sobranie SS White (1mg) Pack|Yes|Yes||CT005099|Lascu-Bros|Constanta|CTHRKBA94|156|CCC HRK SOBR FAM Vara 2013|121|Horeca|0
0|CS3591853|2013-08-24 22:30:46|Pescariu|Miron||M|1981-06-30|Bihor|BIHARIA|Mare|53|||||0734567890||Mironpesca@gmail.com|SBKSGD||1 Sobranie KS Gold  (4mg) Pack|Yes|No||CT005099|Lascu-Bros|Constanta|CTHRKBA96|156|CCC HRK SOBR FAM Vara 2013|121|Horeca|0
0|CS3591855|2013-08-24 22:31:03|Cristea|Alexandru||F|1981-02-18|Iasi|Iasi|Pacurari|4|||||0746596290|||KTSWIT||1 Sobranie KS Blue (6mg) Pack|Yes|Yes||CT005099|Lascu-Bros|Constanta|CTHRKBA54|156|CCC HRK SOBR FAM Vara 2013|121|Horeca|0
0|CS3591869|2013-08-24 22:33:23|Popovici|Dumitrru||M|1987-04-09|Constanta|Euforie|Alea margaretei|18|||||0723901190|||KTBL||1 Sobranie KS Black (8mg) Pack|Yes|Yes||CT005099|Lascu-Bros|Constanta|CTHRKBA54|156|CCC HRK SOBR FAM Vara 2013|121|Horeca|0
0|CS3591872|2013-08-24 22:33:48|Beretel|Alina||F|1985-04-29|Bucuresti|Bucuresti|Cetatea deva|5|||||0749478514||Beretelalina@gmail.com|CAFI||1 Sobranie KS Black (8mg) Pack|Yes|Yes||CT005099|Lascu-Bros|Constanta|CTHRKBA95|156|CCC HRK SOBR FAM Vara 2013|121|Horeca|0
0|CS3591946|2013-08-24 22:49:35|Minoiu|Elena||F|1979-06-21|Constanta|Constanta|Soveja|79|||||0725145925||Elena_mara2005@yahoo.com|SBSSWH||1 Sobranie SS White (1mg) Pack|Yes|Yes||CT004056|Restaurant Mediteranean SRL |Constanta|CTHRKBA94|156|CCC HRK SOBR FAM Vara 2013|121|Horeca|0
0|CS3591957|2013-08-24 22:50:54|Slavici|Ramona||F|1967-04-03|Constanta|CONSTANTA|Castanilor|9|||||0723678946||Ramonaslavici@yahoo.com|SBSSPK||1 Sobranie SS Pink (3mg) Pack|Yes|Yes||CT004056|Restaurant Mediteranean SRL |Constanta|CTHRKBA95|156|CCC HRK SOBR FAM Vara 2013|121|Horeca|0
0|CS3592010|2013-08-24 22:58:56|Cartu|Elena||F|1988-08-12|Constanta|Constanta|Prahovei|7|||||0735771284||Grtelena@yahoo.com|SBSSPK||1 Sobranie SS Pink (3mg) Pack|Yes|Yes||CT004056|Restaurant Mediteranean SRL |Constanta|CTHRKBA94|156|CCC HRK SOBR FAM Vara 2013|121|Horeca|0
0|CS3592025|2013-08-24 23:01:44|Codreanu|Oana||F|1986-05-11|Constanta|Constanta|Tomis|314|||||0741245024||Codreanu-oana-irina@yahoo.com|KTNWH||1 Sobranie SS White (1mg) Pack|Yes|Yes||CT004056|Restaurant Mediteranean SRL |Constanta|CTHRKBA94|156|CCC HRK SOBR FAM Vara 2013|121|Horeca|0
0|CS3592027|2013-08-24 23:02:31|Dan|Vlad||M|1987-01-01|Constanta|CONSTANTA|Albastrelelor|22|||||0765456789||Danvlad@yahoo.com|DAVGLS||1 Sobranie KS Gold  (4mg) Pack|Yes|No||CT004056|Restaurant Mediteranean SRL |Constanta|CTHRKBA96|156|CCC HRK SOBR FAM Vara 2013|121|Horeca|0
0|CS3592059|2013-08-24 23:09:30|Corodan|Costel||M|1981-06-01|Constanta|CONSTANTA|Lalelelor|89|||||0766577823||Costelcorodan@yahoo.com|CABL||1 Sobranie KS Gold  (4mg) Pack|Yes|No||CT000708|AMI COM SRL|Constanta|CTHRKBA96|156|CCC HRK SOBR FAM Vara 2013|121|Horeca|0
0|CS3592060|2013-08-24 23:09:31|Iliescu|Sonia||F|1984-07-22|Botosani|BOTOSANI|Carol 1|1|||||0745678554|||PARRSSH||1 Sobranie SS Black (6mg) Pack|Yes|Yes||CT000708|AMI COM SRL|Constanta|CTHRKBA54|156|CCC HRK SOBR FAM Vara 2013|121|Horeca|0
0|CS3592063|2013-08-24 23:10:14|Cucerescu|Mia||F|1986-06-06|Bucuresti|Bucuresti|Salcamilor|24|A||||0768177783||Mia_cucerescu@gmail.com|VOGBL||1 Sobranie SS Black (6mg) Pack|Yes|No||CT000708|AMI COM SRL|Constanta|CTHRKBA95|156|CCC HRK SOBR FAM Vara 2013|121|Horeca|0
0|CS3592064|2013-08-24 23:10:20|Vintila|Nicoleta||M|1980-06-29|Constanta|Constanta|Florilor|37|||||0762817373||Fatadinpoveste@yahoo.com|VIRSPR||1 Sobranie SS Black (6mg) Pack|Yes|Yes||CT000708|AMI COM SRL|Constanta|CTHRKBA94|156|CCC HRK SOBR FAM Vara 2013|121|Horeca|0
0|CS3592067|2013-08-24 23:12:03|Enache|Mihai||M|1983-09-02|Constanta|Constanta|MihI viteazu|22|||||0756348908||Enachemihai@yahoo.com|KTH||1 Sobranie KS Gold  (4mg) Pack|Yes|No||CT000708|AMI COM SRL|Constanta|CTHRKBA96|156|CCC HRK SOBR FAM Vara 2013|121|Horeca|0
0|CS3592068|2013-08-24 23:12:05|Fanase|Petru||M|1989-01-09|Cluj|CLUJ NAPOCA|Ion creanga|41|||||0788443546||Fanase_petru@yahoo.com|DUNFCMBB||1 Sobranie KS Blue (6mg) Pack|Yes|Yes||CT000708|AMI COM SRL|Constanta|CTHRKBA95|156|CCC HRK SOBR FAM Vara 2013|121|Horeca|0
0|CS3592070|2013-08-24 23:13:07|Constantin|Angela||F|1984-09-11|Constanta|Constanta|Poporului|60|||||0727568189||Bobomicacel@gmail.com|VIRSV||1 Sobranie SS Pink (3mg) Pack|Yes|Yes||CT000708|AMI COM SRL|Constanta|CTHRKBA94|156|CCC HRK SOBR FAM Vara 2013|121|Horeca|0
0|CS3592071|2013-08-24 23:13:50|Enache|Catalin||M|1981-09-27|Calarasi|CALARASI|Stefan voda|74|||||0766893688|||DUNFCMBB||1 Sobranie KS Black (8mg) Pack|Yes|Yes||CT000708|AMI COM SRL|Constanta|CTHRKBA54|156|CCC HRK SOBR FAM Vara 2013|121|Horeca|0
0|CS3592073|2013-08-24 23:14:01|Popandau|Narcisa||F|1989-09-27|Constanta|Constanta|Moisescu|33|||||0722356789||Popandaunarcisa@gmail.com|GLPBMNFT||1 Sobranie SS Menthol (5 mg) Pack|Yes|No||CT000708|AMI COM SRL|Constanta|CTHRKBA96|156|CCC HRK SOBR FAM Vara 2013|121|Horeca|0
0|CS3592077|2013-08-24 23:14:21|Greavu|Robert||M|1977-04-20|Constanta|CONSTANTA|Albinei|10|||||0736737937||Robertpaulgreavu@yahoo.com|KTSV||1 Sobranie KS Gold  (4mg) Pack|Yes|Yes||CT000708|AMI COM SRL|Constanta|CTHRKBA95|156|CCC HRK SOBR FAM Vara 2013|121|Horeca|0
0|CS3592080|2013-08-24 23:15:04|Popovici|Maria||F|1981-04-28|Constanta|Constanta|Izvoarelor|73|||||0726373848|||PARRSSH||1 Sobranie SS Black (6mg) Pack|Yes|Yes||CT000708|AMI COM SRL|Constanta|CTHRKBA94|156|CCC HRK SOBR FAM Vara 2013|121|Horeca|0
0|CS3592087|2013-08-24 23:16:03|Iugel|Cosmin||M|1989-01-14|Constanta|CONSTANTA|Ion ratiu|27|||||0743747651||Iugel.cosmin@gmail.com|DAVGL||1 Sobranie KS Gold  (4mg) Pack|Yes|Yes||CT000708|AMI COM SRL|Constanta|CTHRKBA95|156|CCC HRK SOBR FAM Vara 2013|121|Horeca|0
0|CS3592088|2013-08-24 23:16:33|Barandau|Ciprian||M|1979-08-28|Constanta|CONSTANTA|Aurel vlaicu|78|||||0786547890||Cipriboss@yahoo.com|DUNBL||1 Sobranie KS Gold  (4mg) Pack|Yes|No||CT000708|AMI COM SRL|Constanta|CTHRKBA96|156|CCC HRK SOBR FAM Vara 2013|121|Horeca|0
0|CS3592090|2013-08-24 23:17:16|Dimistof|Amalia||F|1976-03-14|Constanta|CONSTANTA|Mamaia|158|||||0728191726||Amaliafrum46@yahoo.com|KTNBK||1 Sobranie SS Pink (3mg) Pack|Yes|Yes||CT000708|AMI COM SRL|Constanta|CTHRKBA94|156|CCC HRK SOBR FAM Vara 2013|121|Horeca|0
0|CS3592095|2013-08-24 23:18:15|Lupu|Adriana||F|1984-09-26|Bacau|BACAU|Randunelelor|34|||||0727289913|||VOGLL||1 Sobranie SS Pink (3mg) Pack|Yes|Yes||CT000708|AMI COM SRL|Constanta|CTHRKBA54|156|CCC HRK SOBR FAM Vara 2013|121|Horeca|0
0|CS3592098|2013-08-24 23:20:05|Opreanu|Remus||M|1982-09-19|Constanta|COBADIN|Lupilor|45|||||0756789544||Remusopreanu@yahoo.com|CABK||1 Sobranie KS Gold  (4mg) Pack|Yes|No||CT000708|AMI COM SRL|Constanta|CTHRKBA96|156|CCC HRK SOBR FAM Vara 2013|121|Horeca|0
0|CS3592104|2013-08-24 23:22:42|Morosan|Bogdan||M|1984-02-24|Bucuresti|SECTOR 3|Garofitei|27|||||0722098007||Bogdan.morosam@yahoo.com|PARABH||1 Sobranie KS Black (8mg) Pack|Yes|Yes||CT000708|AMI COM SRL|Constanta|CTHRKBA54|156|CCC HRK SOBR FAM Vara 2013|121|Horeca|0
0|CS3594079|2013-08-25 20:00:49|Gutu|Raluca||F|1984-10-25|Braila|BRAILA|Bradului|4|||||0723223412||Raluca_raluca@yahoo.com|VIRSPR||1 Sobranie SS Black (6mg) Pack|Yes|Yes||CT004657|ETROMARE SRL|Constanta|CTHRKBA54|156|CCC HRK SOBR FAM Vara 2013|121|Horeca|0
0|CS3594083|2013-08-25 20:01:21|Goloban|Corina||F|1978-05-29|Constanta|CONSTANTA|Dimitrie bolintineanu|34|||||0766567890||Golobancorina@yahoo.com|CABL||1 Sobranie KS Gold  (4mg) Pack|Yes|No||CT004657|ETROMARE SRL|Constanta|CTHRKBA96|156|CCC HRK SOBR FAM Vara 2013|121|Horeca|0
0|CS3594084|2013-08-25 20:01:32|Cernei|Raluca||F|1984-11-03|Constanta|CONSTANTA|Agricultori|17|B|2||10|0743884275||Cerneiraluca@yahoo.com|KTSWITH||1 Sobranie SS Menthol (5 mg) Pack|Yes|Yes||CT004657|ETROMARE SRL|Constanta|CTHRKBA95|156|CCC HRK SOBR FAM Vara 2013|121|Horeca|0
0|CS3594091|2013-08-25 20:03:00|Radulescu|Andrei||M|1980-03-18|Bucuresti|Bucuresti|Alunis|94|||||0725868998||Andrei.radulescu@yahoo.com|KTWH||1 Sobranie SS White (1mg) Pack|Yes|Yes||CT004657|ETROMARE SRL|Constanta|CTHRKBA94|156|CCC HRK SOBR FAM Vara 2013|121|Horeca|0
0|CS3594095|2013-08-25 20:03:56|Horomneac|Livia||F|1979-08-24|Buzau|BUZAU|Florilor|34|||||0745556790|||PARNBH||1 Sobranie KS Black (8mg) Pack|Yes|Yes||CT004657|ETROMARE SRL|Constanta|CTHRKBA54|156|CCC HRK SOBR FAM Vara 2013|121|Horeca|0
0|CS3594103|2013-08-25 20:05:20|Damigeana|Ionut||M|1975-03-15|Bucuresti|Bucuresti|Alibitei|53|||||0742474005||Ionutdamigeana@yahoo.ro|PARABH||1 Sobranie KS Black (8mg) Pack|Yes|No||CT004657|ETROMARE SRL|Constanta|CTHRKBA95|156|CCC HRK SOBR FAM Vara 2013|121|Horeca|0
0|CS3594104|2013-08-25 20:05:28|Toneliu|Sabina||F|1983-07-28|Constanta|CONSTANTA|Sabinelor|22|||||0765789567||Toneliusabina@yahoo.com|PARAB||1 Sobranie SS Black (6mg) Pack|Yes|No||CT004657|ETROMARE SRL|Constanta|CTHRKBA96|156|CCC HRK SOBR FAM Vara 2013|121|Horeca|0
0|CS3594107|2013-08-25 20:05:59|Florea|Georgiana||F|1984-05-23|Bucuresti|Bucuresti|Albastrelelor|135|||||0724676799||Georgykiss@yahoo.com|GLMLIL||1 Sobranie SS Pink (3mg) Pack|Yes|Yes||CT004657|ETROMARE SRL|Constanta|CTHRKBA94|156|CCC HRK SOBR FAM Vara 2013|121|Horeca|0
0|CS3594111|2013-08-25 20:07:30|Codreanu|Roxana||F|1982-06-25|Constanta|CONSTANTA|Cismelei|7|||||0734567334|||MBRGL||1 Sobranie KS Blue (6mg) Pack|Yes|Yes||CT004657|ETROMARE SRL|Constanta|CTHRKBA54|156|CCC HRK SOBR FAM Vara 2013|121|Horeca|0
0|CS3594112|2013-08-25 20:07:33|Coman|Andrei||M|1990-11-18|Constanta|CONSTANTA|Ceucari|18|||||0736117594||Coman_andrei@yahoo.com|SBSSBK||1 Sobranie SS Black (6mg) Pack|Yes|Yes||CT004657|ETROMARE SRL|Constanta|CTHRKBA95|156|CCC HRK SOBR FAM Vara 2013|121|Horeca|0
0|CS3594114|2013-08-25 20:07:51|Cementariu|Andros||M|1981-08-01|Constanta|Constanta|Tudor vladimirescu|23|||||0766567234||Cementariuandros@yahoo.com|CAWH||1 Sobranie SS White (1mg) Pack|Yes|No||CT004657|ETROMARE SRL|Constanta|CTHRKBA96|156|CCC HRK SOBR FAM Vara 2013|121|Horeca|0
0|CS3594116|2013-08-25 20:08:17|Fitulet|Mirela||F|1988-08-25|Bucuresti|Bucuresti|Soarelui|178|||||0762472892||Mirelaandreea3@yahoo.com|PARRSSH||1 Sobranie SS Black (6mg) Pack|Yes|Yes||CT004657|ETROMARE SRL|Constanta|CTHRKBA94|156|CCC HRK SOBR FAM Vara 2013|121|Horeca|0
0|CS3594141|2013-08-25 20:17:16|Cociu|Nicolae||M|1963-06-02|Constanta|CONSTANTA|Eliberarii|27|||||0722633302|||KTBL||1 Sobranie KS Black (8mg) Pack|Yes|Yes||CT004657|ETROMARE SRL|Constanta|CTHRKBA94|156|CCC HRK SOBR FAM Vara 2013|121|Horeca|0
0|CS3594182|2013-08-25 20:25:40|Firica|Bogdan||M|1983-03-23|Constanta|CONSTANTA|Chiliei|34|||||0765800911|||MBRGL||1 Sobranie KS Blue (6mg) Pack|Yes|Yes||CT001910|Amalfi Inc|Constanta|CTHRKBA54|156|CCC HRK SOBR FAM Vara 2013|121|Horeca|0
0|CS3594184|2013-08-25 20:26:13|Popovici|Irina||F|1983-11-22|Dambovita|CALUGARENI (COBIA)|Trasurei|13|||||0721183783||Popovici.irina@gmail.com|GLMBL||1 Sobranie SS White (1mg) Pack|Yes|Yes||CT001910|Amalfi Inc|Constanta|CTHRKBA95|156|CCC HRK SOBR FAM Vara 2013|121|Horeca|0
0|CS3594187|2013-08-25 20:26:38|Verdeanca|Oana||F|1975-10-25|Constanta|CONSTANTA|Mihai viteazu|4|||||0734567098||Verdeancaoana@yahoo.com|CAFI||1 Sobranie KS Black (8mg) Pack|Yes|Yes||CT001910|Amalfi Inc|Constanta|CTHRKBA96|156|CCC HRK SOBR FAM Vara 2013|121|Horeca|0
0|CS3594189|2013-08-25 20:26:44|Danuvis|Aura||F|1980-09-26|Galati|Galati|Izvoarelor|63|||||0763738288||Auricaaura26@yahoo.com|VIRSV||1 Sobranie SS Pink (3mg) Pack|Yes|Yes||CT001910|Amalfi Inc|Constanta|CTHRKBA94|156|CCC HRK SOBR FAM Vara 2013|121|Horeca|0
0|CS3594204|2013-08-25 20:28:22|Lasaj|Monica||F|1980-10-12|Brasov|Brasov|Bradului|74|||||0762973667||Lasajmonica@yahoo.com|SBSSWH||1 Sobranie SS White (1mg) Pack|Yes|Yes||CT001910|Amalfi Inc|Constanta|CTHRKBA95|156|CCC HRK SOBR FAM Vara 2013|121|Horeca|0
0|CS3594206|2013-08-25 20:28:55|Ghenea|Sorin||M|1984-07-27|Iasi|Iasi|Ghiocel|58|||||0762536288||Sorin.ghenea@yahoo.com|DUNFCBB||1 Sobranie KS Gold  (4mg) Pack|Yes|Yes||CT001910|Amalfi Inc|Constanta|CTHRKBA94|156|CCC HRK SOBR FAM Vara 2013|121|Horeca|0
0|CS3594208|2013-08-25 20:29:29|Bobodac|Daria||F|1973-05-26|Constanta|CONSTANTA|Lalelelor|12|||||0765321456||Dariabobo@gmail.com|SBSSWH||1 Sobranie SS White (1mg) Pack|Yes|Yes||CT001910|Amalfi Inc|Constanta|CTHRKBA96|156|CCC HRK SOBR FAM Vara 2013|121|Horeca|0
0|CS3594211|2013-08-25 20:30:04|Dodan|George||M|1984-06-20|Brasov|BRASOV|Fagaras|9|||||0722790122||George_george@mail.com|KTSV||1 Sobranie KS Gold  (4mg) Pack|Yes|Yes||CT001910|Amalfi Inc|Constanta|CTHRKBA54|156|CCC HRK SOBR FAM Vara 2013|121|Horeca|0
0|CS3594212|2013-08-25 20:30:27|Batranu|Patricia||F|1993-09-11|Constanta|CONSTANTA|Sabinelor|39|A||||0726832544||Batranu.patricia@gmail.com|DAVSVSS||1 Sobranie SS White (1mg) Pack|Yes|Yes||CT001910|Amalfi Inc|Constanta|CTHRKBA95|156|CCC HRK SOBR FAM Vara 2013|121|Horeca|0
0|CS3594215|2013-08-25 20:30:49|Apiscui|Dorel||M|1980-04-21|Brasov|Brasov|Garii|48|||||0732637383||Dorel82@yahoo.com|MBRFP||1 Sobranie KS Gold  (4mg) Pack|Yes|Yes||CT001910|Amalfi Inc|Constanta|CTHRKBA94|156|CCC HRK SOBR FAM Vara 2013|121|Horeca|0
0|CS3594217|2013-08-25 20:31:24|Falfan|Bianca||F|1982-08-27|Constanta|Constanta|Abnegatiei5|34|||||0767098234||Bbifal@gmail.com|DAVGLS||1 Sobranie SS Black (6mg) Pack|Yes|No||CT001910|Amalfi Inc|Constanta|CTHRKBA96|156|CCC HRK SOBR FAM Vara 2013|121|Horeca|0
0|CS3594227|2013-08-25 20:33:42|Tutoras|Alina||F|1989-04-08|Buzau|BUZAU|Voevozilor|34|||||0734667431|||PARRSSH||1 Sobranie SS Black (6mg) Pack|Yes|Yes||CT001910|Amalfi Inc|Constanta|CTHRKBA54|156|CCC HRK SOBR FAM Vara 2013|121|Horeca|0
0|CS3594260|2013-08-25 20:43:28|Vardeanu|Ancuta||F|1982-09-29|Constanta|CONSTANTA|Zorelelor|32|||||0768907543||Vardeanu132@gmail.com|KTNBL||1 Sobranie SS Black (6mg) Pack|Yes|No||CT001910|Amalfi Inc|Constanta|CTHRKBA96|156|CCC HRK SOBR FAM Vara 2013|121|Horeca|0
0|CS3594266|2013-08-25 20:45:16|Dimoftache|Virginia||M|1980-04-21|Constanta|CONSTANTA|Tudor vladimirescu|168|||||0760283738||Virginiadr@gmail.com|VIRSV||1 Sobranie SS Pink (3mg) Pack|Yes|Yes||CT001910|Amalfi Inc|Constanta|CTHRKBA94|156|CCC HRK SOBR FAM Vara 2013|121|Horeca|0
0|CS3594282|2013-08-25 20:47:38|Anghel|Panait||M|1985-11-17|Covasna|TARGU SECUIESC|Albesti|32|||||0763877383||Anghelpanait@yahoo.com|DAVSVSS||1 Sobranie SS White (1mg) Pack|Yes|Yes||CT001910|Amalfi Inc|Constanta|CTHRKBA95|156|CCC HRK SOBR FAM Vara 2013|121|Horeca|0
0|CS3594307|2013-08-25 20:54:01|Ilie|Catalina||F|1990-05-06|Botosani|BOTOSANI|Liliacului|84|||||0745441002|||KTNWH||1 Sobranie SS White (1mg) Pack|Yes|Yes||CT004822|Event Club Crush|Constanta|CTHRKBA54|156|CCC HRK SOBR FAM Vara 2013|121|Horeca|0
0|CS3594313|2013-08-25 20:55:32|Roleanu|Cosmin||M|1974-05-26|Constanta|CONSTANTA|Dumbraveni|5|||||0732457009||Cosminroleanu@yahoo.com|SBKSBL||1 Sobranie SS Black (6mg) Pack|Yes|No||CT004822|Event Club Crush|Constanta|CTHRKBA96|156|CCC HRK SOBR FAM Vara 2013|121|Horeca|0
0|CS3594316|2013-08-25 20:55:50|Botnaru|Adelina||F|1984-12-13|Constanta|CONSTANTA|I L caragiale|22|||||0768537546||Adutz_buburuza06@ahoo.com|DUNFCBB||1 Sobranie KS Gold  (4mg) Pack|Yes|Yes||CT004822|Event Club Crush|Constanta|CTHRKBA95|156|CCC HRK SOBR FAM Vara 2013|121|Horeca|0
0|CS3594318|2013-08-25 20:55:57|Vasilasco|Dorina||F|1982-05-26|Iasi|Iasi|Nicolae balcescu|39|||||0726372892||Dorina_vasilasco@yahoo.com|SBSSWH||1 Sobranie SS White (1mg) Pack|Yes|Yes||CT004822|Event Club Crush|Constanta|CTHRKBA94|156|CCC HRK SOBR FAM Vara 2013|121|Horeca|0
0|CS3594323|2013-08-25 20:57:40|Naiman|Madalina||F|1989-07-01|Alba|ALBA IULIA|Dimitrie bolintineanu|23|||||0756438906||Madanaiman@hotmail.com|DAVCL||1 Sobranie SS White (1mg) Pack|Yes|Yes||CT004822|Event Club Crush|Constanta|CTHRKBA96|156|CCC HRK SOBR FAM Vara 2013|121|Horeca|0
0|CS3594324|2013-08-25 20:57:42|Istrate|Paul||M|1979-06-22|Bucuresti|Bucuresti|Ion luca caragiale|67|||||0736373829|||KTSWIT||1 Sobranie SS Menthol (5 mg) Pack|Yes|Yes||CT004822|Event Club Crush|Constanta|CTHRKBA94|156|CCC HRK SOBR FAM Vara 2013|121|Horeca|0
0|CS3594327|2013-08-25 20:58:03|Gheorghe|Madalin||M|1989-09-06|Galati|GALATI|Industriala|47|B||||0764573736||Gheorghemadalin@yahoo.com|SBSSBK||1 Sobranie SS Black (6mg) Pack|Yes|Yes||CT004822|Event Club Crush|Constanta|CTHRKBA95|156|CCC HRK SOBR FAM Vara 2013|121|Horeca|0
0|CS3594333|2013-08-25 20:59:33|Bucur|Lucian||M|1989-07-26|Bucuresti|Bucuresti|Albinelor|68|||||0765748393||Luciancareeste@yahoo.com|KTWH||1 Sobranie SS White (1mg) Pack|Yes|Yes||CT004822|Event Club Crush|Constanta|CTHRKBA94|156|CCC HRK SOBR FAM Vara 2013|121|Horeca|0
0|CS3594334|2013-08-25 20:59:38|Busuioc|Daniel||M|1981-06-25|Brasov|BRASOV|Filimon|4|||||0723774888|||VOGLL||1 Sobranie SS Pink (3mg) Pack|Yes|Yes||CT004822|Event Club Crush|Constanta|CTHRKBA54|156|CCC HRK SOBR FAM Vara 2013|121|Horeca|0
0|CS3594336|2013-08-25 20:59:59|Rovinte|Cezara||F|1990-07-28|Constanta|CONSTANTA|Luptatorilor|14|||||0766456899||Rovintecezara@yahoo.com|GLPBMNFT||1 Sobranie SS White (1mg) Pack|Yes|Yes||CT004822|Event Club Crush|Constanta|CTHRKBA96|156|CCC HRK SOBR FAM Vara 2013|121|Horeca|0
0|CS3594339|2013-08-25 21:00:30|Druta|Cristi||M|1984-04-19|Bucuresti|Bucuresti|Dacia|77|||||0758653034||Druta_crystian@yahoo.com|DUNFCMBB||1 Sobranie KS Gold  (4mg) Pack|Yes|Yes||CT004822|Event Club Crush|Constanta|CTHRKBA95|156|CCC HRK SOBR FAM Vara 2013|121|Horeca|0
0|CS3594355|2013-08-25 21:03:23|Vasile|Cristian||M|1984-07-26|Calarasi|CALARASII VECHI|Mihai eminescu|72|||||0722491350||Cristian.vasile@yahoo.com|SBKSGD||1 Sobranie KS Gold  (4mg) Pack|Yes|Yes||CT004822|Event Club Crush|Constanta|CTHRKBA54|156|CCC HRK SOBR FAM Vara 2013|121|Horeca|0
0|CS3594409|2013-08-25 21:21:55|Hasomi|Cristian||M|1982-10-01|Constanta|CONSTANTA|Soarelui|5|||||0763456211||Hasomicristian@yahoo.com|DUNFF||1 Sobranie SS Menthol (5 mg) Pack|Yes|No||CT004093|CRICOROM TURISM SRL TERASA AZA|Constanta|CTHRKBA96|156|CCC HRK SOBR FAM Vara 2013|121|Horeca|0
0|CS3594411|2013-08-25 21:22:07|Mirceanu|George||F|1980-02-15|Tulcea|TULCEA|Brizei|13|||||0743876557||Mirceanu.george@gmail.com|CAFI||1 Sobranie KS Black (8mg) Pack|Yes|Yes||CT004093|CRICOROM TURISM SRL TERASA AZA|Constanta|CTHRKBA95|156|CCC HRK SOBR FAM Vara 2013|121|Horeca|0
0|CS3594412|2013-08-25 21:22:42|Enachescu|Paul||M|1973-04-27|Braila|BRAILA|Farului|6|||||0724668229||Paul.paul@yahoo.com|KTNWH||1 Sobranie SS White (1mg) Pack|Yes|Yes||CT004093|CRICOROM TURISM SRL TERASA AZA|Constanta|CTHRKBA54|156|CCC HRK SOBR FAM Vara 2013|121|Horeca|0
0|CS3594416|2013-08-25 21:23:23|Timinei|Mihaela||F|1989-08-27|Bucuresti|Bucuresti|Dumbravei|86|||||0745794268||Mihaelabunicica@yahoo.com|DAVGLS||1 Sobranie SS Black (6mg) Pack|Yes|Yes||CT004093|CRICOROM TURISM SRL TERASA AZA|Constanta|CTHRKBA94|156|CCC HRK SOBR FAM Vara 2013|121|Horeca|0
0|CS3594419|2013-08-25 21:24:07|Undita|Claudiu||M|1983-08-29|Constanta|Constanta|Baba novac|34|||||0755432678||Claudiundita@yahoo.com|PARRSSH||1 Sobranie SS Menthol (5 mg) Pack|Yes|Yes||CT004093|CRICOROM TURISM SRL TERASA AZA|Constanta|CTHRKBA96|156|CCC HRK SOBR FAM Vara 2013|121|Horeca|0
0|CS3594420|2013-08-25 21:24:47|Bumbac|Ioana||F|1989-12-06|Bucuresti|Bucuresti|Toamnei|40|||||0743577754||Ioanabumbac@yahoo.com|DAVSVSS||1 Sobranie SS White (1mg) Pack|Yes|Yes||CT004093|CRICOROM TURISM SRL TERASA AZA|Constanta|CTHRKBA95|156|CCC HRK SOBR FAM Vara 2013|121|Horeca|0
0|CS3594422|2013-08-25 21:25:31|Strateanu|Andra||F|1980-01-21|Arges|ARGESANI|Mincioc|54|||||0760274839||Andrastrate@gmail.com|VIRSPR||1 Sobranie SS Black (6mg) Pack|Yes|Yes||CT004093|CRICOROM TURISM SRL TERASA AZA|Constanta|CTHRKBA94|156|CCC HRK SOBR FAM Vara 2013|121|Horeca|0
0|CS3594423|2013-08-25 21:26:04|Cercel|Rodica||F|1982-08-27|Constanta|Constanta|Aurel vlaicu|18|||||0756789098||Rodicacercel@yahoo.com|SBSSMN||1 Sobranie SS Menthol (5 mg) Pack|Yes|Yes||CT004093|CRICOROM TURISM SRL TERASA AZA|Constanta|CTHRKBA96|156|CCC HRK SOBR FAM Vara 2013|121|Horeca|0
0|CS3594425|2013-08-25 21:26:55|Burungiu|Raluca||F|1987-09-08|Iasi|Iasi|Calea Chisinaului|21|||||0736836763||Burungiu.raluca@yahoo.com|VIRSM||1 Sobranie SS Menthol (5 mg) Pack|Yes|No||CT004093|CRICOROM TURISM SRL TERASA AZA|Constanta|CTHRKBA95|156|CCC HRK SOBR FAM Vara 2013|121|Horeca|0
0|CS3594428|2013-08-25 21:27:29|Hutu|Sorina||F|1989-03-22|Cluj|CLUJ NAPOCA|Florilor|86|||||0762457866||Sorinahutu@yahoo.com|PARRSSMH||1 Sobranie SS Menthol (5 mg) Pack|Yes|Yes||CT004093|CRICOROM TURISM SRL TERASA AZA|Constanta|CTHRKBA94|156|CCC HRK SOBR FAM Vara 2013|121|Horeca|0
0|CS3594430|2013-08-25 21:27:33|Luca|Alina||F|1982-11-15|Galati|Galati|Pescarusului|56|||||0786552933|||KTNWH||1 Sobranie SS White (1mg) Pack|Yes|Yes||CT004093|CRICOROM TURISM SRL TERASA AZA|Constanta|CTHRKBA54|156|CCC HRK SOBR FAM Vara 2013|121|Horeca|0
0|CS3594431|2013-08-25 21:29:08|Andrei|Madalina||F|1986-06-07|Galati|GALATI|Trotusului|4|||||0755227365||Madalina-mada@yahoo.com|SBSSWH||1 Sobranie SS White (1mg) Pack|Yes|No||CT004093|CRICOROM TURISM SRL TERASA AZA|Constanta|CTHRKBA54|156|CCC HRK SOBR FAM Vara 2013|121|Horeca|0
0|CS3594470|2013-08-25 21:39:42|Bubuleandra|Elena||F|1988-11-29|Constanta|CONSTANTA|Alexandru lapusneanu|181|||||0728438561||Bubu_anto@yahoo.com|GLMMNT||1 Sobranie SS Menthol (5 mg) Pack|Yes|Yes||CT004093|CRICOROM TURISM SRL TERASA AZA|Constanta|CTHRKBA54|156|CCC HRK SOBR FAM Vara 2013|121|Horeca|0
0|CS3594476|2013-08-25 21:40:56|Gontea|Daniel||M|1973-11-27|Constanta|CONSTANTA|Aleea garofitei|24|L103|||19|0735344579||Gntdaniel@yahoo.com|MBRFPEX||1 Sobranie SS White (1mg) Pack|Yes|Yes||CT004093|CRICOROM TURISM SRL TERASA AZA|Constanta|CTHRKBA95|156|CCC HRK SOBR FAM Vara 2013|121|Horeca|0
0|CS3594478|2013-08-25 21:41:07|Moise|Maria||F|1986-01-01|Constanta|Constanta|Lapusneanu|15|||||0724633005||Mariamoise@yahoo.com|GLPBMNFT||1 Sobranie SS Menthol (5 mg) Pack|Yes|Yes||CT004093|CRICOROM TURISM SRL TERASA AZA|Constanta|CTHRKBA96|156|CCC HRK SOBR FAM Vara 2013|121|Horeca|0
0|CS3594496|2013-08-25 21:47:04|Boaca|Daniela||F|1976-03-25|Bucuresti|SECTOR 5|Dumbrava noua|36|P25|B|0|28|0722462002||danaboaca@yahoo.com|VOGLL||1 Sobranie SS Pink (3mg) Pack|Yes|Yes||CT003940|CRICOROM TURISM SRL TERASA MOTOR|Constanta|CTHRKBA54|156|CCC HRK SOBR FAM Vara 2013|121|Horeca|0
0|CS3594502|2013-08-25 21:48:24|Selaru|Marian||M|1983-05-20|Prahova|PLOIESTI|Aleea profesorilor|5|56|F|1|5|0721520020||Marian.selaru@gmail.ro|VIRSV||1 Sobranie SS Pink (3mg) Pack|Yes|Yes||CT003940|CRICOROM TURISM SRL TERASA MOTOR|Constanta|CTHRKBA95|156|CCC HRK SOBR FAM Vara 2013|121|Horeca|0
0|CS3594503|2013-08-25 21:48:39|Barques|Ana maria||F|1988-08-07|Bucuresti|Bucuresti|Aleea mures|2|||||0736775457||Anton_anamaria2009@yahoo.com|SBSSBK||1 Sobranie SS Black (6mg) Pack|Yes|Yes||CT003940|CRICOROM TURISM SRL TERASA MOTOR|Constanta|CTHRKBA94|156|CCC HRK SOBR FAM Vara 2013|121|Horeca|0
0|CS3594508|2013-08-25 21:50:17|Rauta|Ioana||F|1989-11-30|Bacau|Bacau|Stadionului|56|||||0758221222||Rauta_ioana_florina@yahoo.com|SBSSPK||1 Sobranie SS Pink (3mg) Pack|Yes|Yes||CT003940|CRICOROM TURISM SRL TERASA MOTOR|Constanta|CTHRKBA96|156|CCC HRK SOBR FAM Vara 2013|121|Horeca|0
0|CS3594518|2013-08-25 21:52:20|Mihu|Andreea||F|1995-05-08|Buzau|Buzau|Stadionului|53|||||0749384388||Andreea.mihu95@yahoo.com|SBSSMN||1 Sobranie SS Menthol (5 mg) Pack|Yes|Yes||CT003940|CRICOROM TURISM SRL TERASA MOTOR|Constanta|CTHRKBA96|156|CCC HRK SOBR FAM Vara 2013|121|Horeca|0
0|CS3594525|2013-08-25 21:55:08|Onofrei|Cristina||F|1988-09-27|Botosani|Botosani|R|R|||||0751347842||Cristina_onofrei@ymail.com|VIRSPR||1 Sobranie SS Black (6mg) Pack|Yes|No||CT003940|CRICOROM TURISM SRL TERASA MOTOR|Constanta|CTHRKBA54|156|CCC HRK SOBR FAM Vara 2013|121|Horeca|0
0|CS3594532|2013-08-25 21:57:49|Iasi|Ionela||F|1983-11-15|Iasi|IASI|F|Y|||||0746887154||Nely_iasi@yahoo.com|SBSSWH||1 Sobranie SS White (1mg) Pack|Yes|Yes||CT003940|CRICOROM TURISM SRL TERASA MOTOR|Constanta|CTHRKBA54|156|CCC HRK SOBR FAM Vara 2013|121|Horeca|0
0|CS3594539|2013-08-25 22:00:49|Ciobanu|Daniela||F|1983-07-24|Iasi|IASI|Hanciuc|8|||||0743352665||Cmd.dana@yahoo.com|SBSSPK||1 Sobranie SS Pink (3mg) Pack|Yes|Yes||CT003940|CRICOROM TURISM SRL TERASA MOTOR|Constanta|CTHRKBA54|156|CCC HRK SOBR FAM Vara 2013|121|Horeca|0
0|CS3594565|2013-08-25 22:06:29|Raclea|Romeo||M|1973-03-14|Constanta|CONSTANTA|Badea cartan|3|||0|0|0746253906||Romeoraclea@gmail.com|MBRFP||1 Sobranie SS Pink (3mg) Pack|Yes|Yes||CT003940|CRICOROM TURISM SRL TERASA MOTOR|Constanta|CTHRKBA94|156|CCC HRK SOBR FAM Vara 2013|121|Horeca|0
0|CS3594570|2013-08-25 22:08:40|Kasai|Cosmin||M|1980-12-21|Timis|Timisoara|Gh ostrogovici|3|67||0|2|0767771815||Made_by_boss@yahoo.com|SBKSBL||1 Sobranie KS Black (8mg) Pack|Yes|Yes||CT003940|CRICOROM TURISM SRL TERASA MOTOR|Constanta|CTHRKBA54|156|CCC HRK SOBR FAM Vara 2013|121|Horeca|0
0|CS3594575|2013-08-25 22:10:22|Carpan|Catalin||M|1987-05-27|Timis|Timisoara|Textilistilor|20|96||2|10|0763587327||Catalindaniel75@yahoo.com|SBKSBL||1 Sobranie SS Menthol (5 mg) Pack|Yes|Yes||CT003940|CRICOROM TURISM SRL TERASA MOTOR|Constanta|CTHRKBA54|156|CCC HRK SOBR FAM Vara 2013|121|Horeca|0
0|CS3594583|2013-08-25 22:12:29|Mensa|Denis||F|1974-09-15|Constanta|CONSTANTA|Badea cartan|9|||||0727242028||Cheki@yahoo.com|KTNWH||1 Sobranie SS White (1mg) Pack|Yes|Yes||CT003940|CRICOROM TURISM SRL TERASA MOTOR|Constanta|CTHRKBA95|156|CCC HRK SOBR FAM Vara 2013|121|Horeca|0
0|CS3594585|2013-08-25 22:13:19|Macsim|Mariana||F|1967-11-10|Tulcea|CATALOI|Principala|232|||||0748513421||Casian.mariana@yahoo.com|DAVGLS||1 Sobranie SS Pink (3mg) Pack|Yes|Yes||CT003940|CRICOROM TURISM SRL TERASA MOTOR|Constanta|CTHRKBA94|156|CCC HRK SOBR FAM Vara 2013|121|Horeca|0
0|CS3594586|2013-08-25 22:13:30|Vamoti|Bianca||F|1984-09-30|Bucuresti|3|Eroilor|22|||||0723388981||Alexandravamos@yahoo.com|CABL||1 Sobranie SS Pink (3mg) Pack|Yes|Yes||CT003940|CRICOROM TURISM SRL TERASA MOTOR|Constanta|CTHRKBA96|156|CCC HRK SOBR FAM Vara 2013|121|Horeca|0
0|CS3594598|2013-08-25 22:22:28|Traian|Georgeta||F|1988-09-17|Constanta|CONSTANTA|Zorelelor|2|||||0763867825||Traian.georgeta@yahoo.com|GLPBPKFT||1 Sobranie SS Black (6mg) Pack|Yes|Yes||CT002735|CRICOROM TURISM SRL|Constanta|CTHRKBA95|156|CCC HRK SOBR FAM Vara 2013|121|Horeca|0
0|CS3594601|2013-08-25 22:23:42|Hasoni|Carina||F|1984-07-01|Constanta|CONSTANTA|Castanilor|34|||||0765456789||Carinahasoti@yahoo.com|PARRSSH||1 Sobranie SS White (1mg) Pack|Yes|Yes||CT002735|CRICOROM TURISM SRL|Constanta|CTHRKBA96|156|CCC HRK SOBR FAM Vara 2013|121|Horeca|0
0|CS3594602|2013-08-25 22:23:43|Ghentea|Claudiu||M|1987-07-21|Brasov|BRASOV|Liliecilor|74|||||0736274829||Claudiuclau@gmail.com|KTSWIT||1 Sobranie SS Menthol (5 mg) Pack|Yes|Yes||CT002735|CRICOROM TURISM SRL|Constanta|CTHRKBA94|156|CCC HRK SOBR FAM Vara 2013|121|Horeca|0
0|CS3594603|2013-08-25 22:24:09|Puscasu|Cristina||F|1989-08-21|Iasi|IASI|Pavurari|46|||||0755921777||Puscasu.cristina@yahoo.com|SBSSWH||1 Sobranie SS White (1mg) Pack|Yes|Yes||CT002735|CRICOROM TURISM SRL|Constanta|CTHRKBA54|156|CCC HRK SOBR FAM Vara 2013|121|Horeca|0
0|CS3594605|2013-08-25 22:25:03|Balta|Violeta||F|1987-05-09|Constanta|CONSTANTA|Poporului|83|||||0738662528||Balta.violetta@gmail.com|KTNWH||1 Sobranie SS White (1mg) Pack|Yes|Yes||CT002735|CRICOROM TURISM SRL|Constanta|CTHRKBA95|156|CCC HRK SOBR FAM Vara 2013|121|Horeca|0
0|CS3594608|2013-08-25 22:25:50|Ursache|Madalina||F|1989-08-27|Braila|Braila|Castanilor|93|||||0746797544||Madalinaursache@yahoo.com|GLMLIL||1 Sobranie SS Pink (3mg) Pack|Yes|Yes||CT002735|CRICOROM TURISM SRL|Constanta|CTHRKBA94|156|CCC HRK SOBR FAM Vara 2013|121|Horeca|0
0|CS3594611|2013-08-25 22:26:26|Cecan|Alina||F|1981-05-28|Constanta|COBADIN|Bvd tomis|2|A2|B|4|34|0723485072||Cecanalina@yahoo.com|KTNWH||1 Sobranie SS White (1mg) Pack|Yes|Yes||CT002735|CRICOROM TURISM SRL|Constanta|CTHRKBA96|156|CCC HRK SOBR FAM Vara 2013|121|Horeca|0
0|CS3594614|2013-08-25 22:27:51|Gargan|Nicoleta||F|1993-12-12|Bihor|ORADEA|Luminii|63|||||0726800165||Gargan_nicoleta@yahoo.com|SBSSWH||1 Sobranie SS White (1mg) Pack|Yes|No||CT002735|CRICOROM TURISM SRL|Constanta|CTHRKBA95|156|CCC HRK SOBR FAM Vara 2013|121|Horeca|0
0|CS3594615|2013-08-25 22:28:08|Rotaru|Cristina||F|1979-10-19|Galati|Galati|Aleea paltinului|163|||||0757393947||Cristinarot@gmail.com|KTNWH||1 Sobranie SS White (1mg) Pack|Yes|Yes||CT002735|CRICOROM TURISM SRL|Constanta|CTHRKBA94|156|CCC HRK SOBR FAM Vara 2013|121|Horeca|0
0|CS3594616|2013-08-25 22:29:12|Vomastos|Zoita||F|1981-09-30|Constanta|CONACU|Florilor|2|L22|B|3|5|0756321906||Zoitamagni@yahoo.com|MBRGLT||1 Sobranie SS Menthol (5 mg) Pack|Yes|No||CT002735|CRICOROM TURISM SRL|Constanta|CTHRKBA96|156|CCC HRK SOBR FAM Vara 2013|121|Horeca|0
0|CS3594619|2013-08-25 22:29:56|Cazahu|Valentin||M|1981-11-09|Galati|GALATI|Stefan voda|48|||||0734001990||Valy_valentin@yahoo.com|VIRSM||1 Sobranie SS Menthol (5 mg) Pack|Yes|Yes||CT002735|CRICOROM TURISM SRL|Constanta|CTHRKBA54|156|CCC HRK SOBR FAM Vara 2013|121|Horeca|0
0|CS3594622|2013-08-25 22:31:41|Ondean|Madalin||M|1977-06-28|Constanta|CONSTANTA|Mosanu|34|||||0765346890||Ondeanmadakin@yahoo.com|SBSSWH||1 Sobranie SS White (1mg) Pack|Yes|Yes||CT002735|CRICOROM TURISM SRL|Constanta|CTHRKBA96|156|CCC HRK SOBR FAM Vara 2013|121|Horeca|0
0|CS3594627|2013-08-25 22:33:24|Foca|Adina||F|1985-03-26|Constanta|CONSTANTA|Zorelelor|56|||||0776785203|||SBSSWH||1 Sobranie SS White (1mg) Pack|Yes|Yes||CT002735|CRICOROM TURISM SRL|Constanta|CTHRKBA54|156|CCC HRK SOBR FAM Vara 2013|121|Horeca|0
0|CS3594642|2013-08-25 22:41:17|Cudelean|Angel||M|1986-01-01|Constanta|Constanta|Frunzelor|22|||||0765345678||Cudeleanangel@yahoo.com|MBRGLT||1 Sobranie SS White (1mg) Pack|Yes|Yes||CT002735|CRICOROM TURISM SRL|Constanta|CTHRKBA96|156|CCC HRK SOBR FAM Vara 2013|121|Horeca|0
0|CS3594662|2013-08-25 22:54:57|Geamal|Radu||M|1980-10-30|Constanta|CONACU|Verdelui|6|||||0743567908||Radugeamal@yahoo.com|CAWH||1 Sobranie SS Menthol (5 mg) Pack|Yes|Yes||CT009095|Ocean Cafe SRL|Constanta|CTHRKBA96|156|CCC HRK SOBR FAM Vara 2013|121|Horeca|0
0|CS3594663|2013-08-25 22:54:59|Barbaros|Mariana||F|1984-09-08|Constanta|CONSTANTA|Doinei|22|||||0741770971||Barbarosmariana@yahoo.com|DUNFCBB||1 Sobranie SS Pink (3mg) Pack|Yes|Yes||CT009095|Ocean Cafe SRL|Constanta|CTHRKBA95|156|CCC HRK SOBR FAM Vara 2013|121|Horeca|0
0|CS3594666|2013-08-25 22:55:36|Dumitru|Valentina||F|1985-03-22|Bucuresti|Bucuresti|Lacului|193|||||0735373849||Valentinavaly74@yahoo.com|SBSSWH||1 Sobranie SS White (1mg) Pack|Yes|Yes||CT009095|Ocean Cafe SRL|Constanta|CTHRKBA94|156|CCC HRK SOBR FAM Vara 2013|121|Horeca|0
0|CS3594671|2013-08-25 22:57:03|Ciobanu|Paul||M|1986-10-09|Botosani|ALBESTI|Aurel vlaicu|23|||||0739826652||Ciobanu_paul@gmail.com|DAVGLSS||1 Sobranie SS Black (6mg) Pack|Yes|Yes||CT009095|Ocean Cafe SRL|Constanta|CTHRKBA95|156|CCC HRK SOBR FAM Vara 2013|121|Horeca|0
0|CS3594669|2013-08-25 22:57:23|Samson|Elisabeta||F|1980-04-27|Bucuresti|SECTOR 3|Plopilor|45|||||0732003777||Eliza_liz@yahoo.com|VIRSM||1 Sobranie SS Menthol (5 mg) Pack|Yes|Yes||CT009095|Ocean Cafe SRL|Constanta|CTHRKBA54|156|CCC HRK SOBR FAM Vara 2013|121|Horeca|0
0|CS3594673|2013-08-25 22:58:04|Foisiniv|Maria||F|1978-06-27|Constanta|CONSTANTA|Ciresilot|34|||||0743567908||Foisinivmaria@yahoo.com|MBRGLT||1 Sobranie SS Menthol (5 mg) Pack|Yes|Yes||CT009095|Ocean Cafe SRL|Constanta|CTHRKBA96|156|CCC HRK SOBR FAM Vara 2013|121|Horeca|0
0|CS3594675|2013-08-25 22:58:41|Strezea|Madalina||F|1983-06-07|Constanta|CONSTANTA|Ion neculce|16|||||0738772826||Strezea_madalinei@yahoo.com|KTNWH||1 Sobranie SS White (1mg) Pack|Yes|Yes||CT009095|Ocean Cafe SRL|Constanta|CTHRKBA95|156|CCC HRK SOBR FAM Vara 2013|121|Horeca|0
0|CS3594676|2013-08-25 22:59:03|Homu|Alina||F|1989-09-26|Constanta|CONSTANTA|Alunilor|72|||||0762526282||Alinaaloina@yahoo.com|KTNBK||1 Sobranie SS Pink (3mg) Pack|Yes|Yes||CT009095|Ocean Cafe SRL|Constanta|CTHRKBA94|156|CCC HRK SOBR FAM Vara 2013|121|Horeca|0
0|CS3594677|2013-08-25 23:00:57|Sebinioc|Nicoleta||F|1982-09-30|Arges|ARGESANI|Plopilor|23|||||0789007854||Sebiniocnicoleta@yahoo.com|PARRSSH||1 Sobranie SS White (1mg) Pack|Yes|Yes||CT009095|Ocean Cafe SRL|Constanta|CTHRKBA96|156|CCC HRK SOBR FAM Vara 2013|121|Horeca|0
0|CS3594678|2013-08-25 23:01:22|Rachitanu|Rares||M|1973-04-25|Constanta|CONSTANTA|Teilor|35|||||0704678822|||PARRSSMH||1 Sobranie SS Menthol (5 mg) Pack|Yes|No||CT009095|Ocean Cafe SRL|Constanta|CTHRKBA54|156|CCC HRK SOBR FAM Vara 2013|121|Horeca|0
0|CS3594679|2013-08-25 23:01:27|Tamplaru|George||F|1985-10-07|Buzau|Buzau|Primaverii|13|||||0736928002||Tamplaru.george@yahoo.com|KTNWH||1 Sobranie SS White (1mg) Pack|Yes|Yes||CT009095|Ocean Cafe SRL|Constanta|CTHRKBA95|156|CCC HRK SOBR FAM Vara 2013|121|Horeca|0
0|CS3594681|2013-08-25 23:02:55|Luta|Ciprian||M|1983-07-25|Botosani|BOBULESTI|Scolii|37|||||0762999877||Ciprian.lita@yahoo.com|KTWH||1 Sobranie SS White (1mg) Pack|Yes|Yes||CT009095|Ocean Cafe SRL|Constanta|CTHRKBA94|156|CCC HRK SOBR FAM Vara 2013|121|Horeca|0
0|CS3594682|2013-08-25 23:02:57|Cracan|Elena||F|1983-06-28|Constanta|Constanta|Mihai viteazu|76|||||0755678321||Cracanelena@gmail.com|GLPBMNFT||1 Sobranie SS Menthol (5 mg) Pack|Yes|Yes||CT009095|Ocean Cafe SRL|Constanta|CTHRKBA96|156|CCC HRK SOBR FAM Vara 2013|121|Horeca|0
0|CS3594683|2013-08-25 23:03:19|Tudorache|Mihaela||F|1983-09-26|Bucuresti|Bucuresti|Alecu russo|43|L11|||5|0739743992||Tudorache.mihaela@yahoo.com|SBSSBK||1 Sobranie SS Black (6mg) Pack|Yes|Yes||CT009095|Ocean Cafe SRL|Constanta|CTHRKBA95|156|CCC HRK SOBR FAM Vara 2013|121|Horeca|0
0|CS3594684|2013-08-25 23:04:02|Rusu|Alina||F|1983-05-20|Buzau|BUZAU|I|U|||||0755421790||Alina.rusu@yahoo.com|SBSSMN||1 Sobranie SS Menthol (5 mg) Pack|Yes|Yes||CT009095|Ocean Cafe SRL|Constanta|CTHRKBA54|156|CCC HRK SOBR FAM Vara 2013|121|Horeca|0
0|CS3594685|2013-08-25 23:05:00|Ondica|Teresa||F|1977-03-28|Constanta|CONSTANTA|Condrieni|5|||||0765890321||Teresaondica@yahoo.com|GLPBPKFT||1 Sobranie SS White (1mg) Pack|Yes|Yes||CT009095|Ocean Cafe SRL|Constanta|CTHRKBA96|156|CCC HRK SOBR FAM Vara 2013|121|Horeca|0
0|CS3594687|2013-08-25 23:06:44|Popescu|Florin||M|1984-06-24|Brasov|BRASOV|Luceafarului|128|||||0739274647||Popescu.florinel@gmail.com|KTSWIT||1 Sobranie SS Menthol (5 mg) Pack|Yes|Yes||CT009095|Ocean Cafe SRL|Constanta|CTHRKBA94|156|CCC HRK SOBR FAM Vara 2013|121|Horeca|0
0|CS3594688|2013-08-25 23:07:14|Aioanei|Georgiana||F|1988-06-14|Bacau|BACAU|Mihai viteazu|91|||||0723600217|||VOGJSN||1 Sobranie SS Menthol (5 mg) Pack|Yes|Yes||CT009095|Ocean Cafe SRL|Constanta|CTHRKBA54|156|CCC HRK SOBR FAM Vara 2013|121|Horeca|0
0|CS3594691|2013-08-25 23:10:46|Mirea|Daniela||F|1982-09-23|Bucuresti|Bucuresti|Mihai eminescu|147|||||0746337484||Danielamirea@yahoo.com|GLMMNT||1 Sobranie SS Menthol (5 mg) Pack|Yes|Yes||CT009095|Ocean Cafe SRL|Constanta|CTHRKBA94|156|CCC HRK SOBR FAM Vara 2013|121|Horeca|0
0|CS3594693|2013-08-25 23:11:55|Pricop|Elaena||F|1983-02-12|Bistrita Nasaud|NASAUD|Bargaului|24b|||||0766990222||Elena_elene_sweety@yahoo.com|PARRSSMH||1 Sobranie SS Menthol (5 mg) Pack|Yes|Yes||CT009095|Ocean Cafe SRL|Constanta|CTHRKBA54|156|CCC HRK SOBR FAM Vara 2013|121|Horeca|0
0|CS3594695|2013-08-25 23:18:10|Venac|Sebastian||M|1982-01-28|Constanta|CONSTANTA|Capidavei|12|||||0756438908||Sebithebest@yahoo.com|SBSSWH||1 Sobranie SS White (1mg) Pack|Yes|Yes||CT009095|Ocean Cafe SRL|Constanta|CTHRKBA96|156|CCC HRK SOBR FAM Vara 2013|121|Horeca|0
0|CS3594696|2013-08-25 23:18:56|Mucea|Sorina||F|1987-12-26|Braila|Braila|Eliberarii|37|||||0734364748||Sorina3710@gmail.com|GLMMNT||1 Sobranie SS Menthol (5 mg) Pack|Yes|Yes||CT009095|Ocean Cafe SRL|Constanta|CTHRKBA94|156|CCC HRK SOBR FAM Vara 2013|121|Horeca|0
0|FS1138882|2013-08-23 20:02:24||||F|||||||||||||PARABH||||||||||156|CCC HRK SOBR FAM Vara 2013|121|Horeca|0
0|FS1138912|2013-08-23 20:05:23||||F|||||||||||||VOGLL||||||||||156|CCC HRK SOBR FAM Vara 2013|121|Horeca|0
0|FS1139042|2013-08-23 20:20:27||||F|||||||||||||PARRSSH||||||||||156|CCC HRK SOBR FAM Vara 2013|121|Horeca|0
0|FS1139055|2013-08-23 20:20:57||||F|||||||||||||PMSSBL||||||||||156|CCC HRK SOBR FAM Vara 2013|121|Horeca|0
0|FS1139066|2013-08-23 20:21:19||||M|||||||||||||MBRRDH||||||||||156|CCC HRK SOBR FAM Vara 2013|121|Horeca|0
0|FS1139182|2013-08-23 20:31:35||||F|||||||||||||VIRSFA||||||||||156|CCC HRK SOBR FAM Vara 2013|121|Horeca|0
0|FS1139241|2013-08-23 20:39:40||||F|||||||||||||PARABH||||||||||156|CCC HRK SOBR FAM Vara 2013|121|Horeca|0
0|FS1139273|2013-08-23 20:43:36||||F|||||||||||||MBRGL||||||||||156|CCC HRK SOBR FAM Vara 2013|121|Horeca|0
0|FS1139291|2013-08-23 20:45:57||||M|||||||||||||DUNFCMBB||||||||||156|CCC HRK SOBR FAM Vara 2013|121|Horeca|0
0|FS1139292|2013-08-23 20:46:09||||M|||||||||||||MBRGLH||||||||||156|CCC HRK SOBR FAM Vara 2013|121|Horeca|0
0|FS1139418|2013-08-23 20:58:46|||||||||||||||||KTH||||||||||156|CCC HRK SOBR FAM Vara 2013|121|Horeca|0
0|FS1139451|2013-08-23 21:01:55||||F|||||||||||||WISV||||||||||156|CCC HRK SOBR FAM Vara 2013|121|Horeca|0
0|FS1139467|2013-08-23 21:05:00||||M|||||||||||||DUNFCMBB||||||||||156|CCC HRK SOBR FAM Vara 2013|121|Horeca|0
0|FS1139477|2013-08-23 21:05:36||||M|||||||||||||KTBL||||||||||156|CCC HRK SOBR FAM Vara 2013|121|Horeca|0
0|FS1139588|2013-08-23 21:17:21||||M|||||||||||||DUNFCBB||||||||||156|CCC HRK SOBR FAM Vara 2013|121|Horeca|0
0|FS1139637|2013-08-23 21:21:02|||||||||||||||||PARRSSKS||||||||||156|CCC HRK SOBR FAM Vara 2013|121|Horeca|0
0|FS1139716|2013-08-23 21:30:45||||M|||||||||||||MBRFP||||||||||156|CCC HRK SOBR FAM Vara 2013|121|Horeca|0
0|FS1139814|2013-08-23 21:39:17||||F|||||||||||||DUNFCMBB||||||||||156|CCC HRK SOBR FAM Vara 2013|121|Horeca|0
0|FS1140095|2013-08-23 22:14:13||||M|||||||||||||DUNFCMBB||||||||||156|CCC HRK SOBR FAM Vara 2013|121|Horeca|0
0|FS1140099|2013-08-23 22:14:26||||M|||||||||||||KTBL||||||||||156|CCC HRK SOBR FAM Vara 2013|121|Horeca|0
0|FS1140112|2013-08-23 22:16:40||||F|||||||||||||MBRFP||||||||||156|CCC HRK SOBR FAM Vara 2013|121|Horeca|0
0|FS1140115|2013-08-23 22:16:55||||M|||||||||||||VIRSM||||||||||156|CCC HRK SOBR FAM Vara 2013|121|Horeca|0
0|FS1140143|2013-08-23 22:21:05||||F|||||||||||||MBRGL||||||||||156|CCC HRK SOBR FAM Vara 2013|121|Horeca|0
0|FS1140149|2013-08-23 22:21:48||||F|||||||||||||KTBL||||||||||156|CCC HRK SOBR FAM Vara 2013|121|Horeca|0
0|FS1140722|2013-08-23 23:27:32||||F|||||||||||||VOGBL||||||||||156|CCC HRK SOBR FAM Vara 2013|121|Horeca|0
0|FS1140732|2013-08-23 23:30:48||||F|||||||||||||VOGJSN||||||||||156|CCC HRK SOBR FAM Vara 2013|121|Horeca|0
0|FS1140802|2013-08-23 23:41:53|||||||||||||||||DUNFCBB||||||||||156|CCC HRK SOBR FAM Vara 2013|121|Horeca|0
0|FS1143650|2013-08-24 19:56:11||||M|||||||||||||DUNFCMBB||||||||||156|CCC HRK SOBR FAM Vara 2013|121|Horeca|0
0|FS1143818|2013-08-24 20:11:58||||M|||||||||||||MBRFPEX||||||||||156|CCC HRK SOBR FAM Vara 2013|121|Horeca|0
0|FS1143822|2013-08-24 20:12:39||||F|||||||||||||VOGDV||||||||||156|CCC HRK SOBR FAM Vara 2013|121|Horeca|0
0|FS1144040|2013-08-24 20:37:05||||F|||||||||||||VOGBL||||||||||156|CCC HRK SOBR FAM Vara 2013|121|Horeca|0
0|FS1144294|2013-08-24 21:05:53||||F|||||||||||||VOGLL||||||||||156|CCC HRK SOBR FAM Vara 2013|121|Horeca|0
0|FS1144300|2013-08-24 21:06:14||||M|||||||||||||KTSV||||||||||156|CCC HRK SOBR FAM Vara 2013|121|Horeca|0
0|FS1144321|2013-08-24 21:09:37||||F|||||||||||||GLMLIL||||||||||156|CCC HRK SOBR FAM Vara 2013|121|Horeca|0
0|FS1144370|2013-08-24 21:12:33|||||||||||||||||KTSWITH||||||||||156|CCC HRK SOBR FAM Vara 2013|121|Horeca|0
0|FS1144406|2013-08-24 21:14:50||||M|||||||||||||DAVGL||||||||||156|CCC HRK SOBR FAM Vara 2013|121|Horeca|0
0|FS1144412|2013-08-24 21:15:04||||F|||||||||||||DAVSVSS||||||||||156|CCC HRK SOBR FAM Vara 2013|121|Horeca|0
0|FS1144534|2013-08-24 21:29:01||||F|||||||||||||GLMBL||||||||||156|CCC HRK SOBR FAM Vara 2013|121|Horeca|0
0|FS1144633|2013-08-24 21:37:39||||F|||||||||||||VOGBL||||||||||156|CCC HRK SOBR FAM Vara 2013|121|Horeca|0
0|FS1144642|2013-08-24 21:38:42||||F|||||||||||||KTBL||||||||||156|CCC HRK SOBR FAM Vara 2013|121|Horeca|0
0|FS1144728|2013-08-24 21:49:06||||F|||||||||||||KTNBL||||||||||156|CCC HRK SOBR FAM Vara 2013|121|Horeca|0
0|FS1144732|2013-08-24 21:49:25||||M|||||||||||||KTBL||||||||||156|CCC HRK SOBR FAM Vara 2013|121|Horeca|0
0|FS1144740|2013-08-24 21:50:17||||M|||||||||||||MBRFPEX||||||||||156|CCC HRK SOBR FAM Vara 2013|121|Horeca|0
0|FS1144760|2013-08-24 21:53:32||||M|||||||||||||DUNFCMBR||||||||||156|CCC HRK SOBR FAM Vara 2013|121|Horeca|0
0|FS1144832|2013-08-24 22:01:32||||F|||||||||||||KTBL||||||||||156|CCC HRK SOBR FAM Vara 2013|121|Horeca|0
0|FS1144854|2013-08-24 22:04:32||||M|||||||||||||DUNFCBB||||||||||156|CCC HRK SOBR FAM Vara 2013|121|Horeca|0
0|FS1144910|2013-08-24 22:11:47|||||||||||||||||KTSWITH||||||||||156|CCC HRK SOBR FAM Vara 2013|121|Horeca|0
0|FS1144998|2013-08-24 22:23:22||||F|||||||||||||DAVSVSS||||||||||156|CCC HRK SOBR FAM Vara 2013|121|Horeca|0
0|FS1145002|2013-08-24 22:23:33||||M|||||||||||||PMECAFBL||||||||||156|CCC HRK SOBR FAM Vara 2013|121|Horeca|0
0|FS1145041|2013-08-24 22:28:18||||M|||||||||||||DAVGL||||||||||156|CCC HRK SOBR FAM Vara 2013|121|Horeca|0
0|FS1145183|2013-08-24 22:47:43||||M|||||||||||||DUNFCMBB||||||||||156|CCC HRK SOBR FAM Vara 2013|121|Horeca|0
0|FS1145184|2013-08-24 22:47:59||||F|||||||||||||KTSV||||||||||156|CCC HRK SOBR FAM Vara 2013|121|Horeca|0
0|FS1145192|2013-08-24 22:48:34||||F|||||||||||||VOGJSN||||||||||156|CCC HRK SOBR FAM Vara 2013|121|Horeca|0
0|FS1145203|2013-08-24 22:50:00||||F|||||||||||||VIRSPR||||||||||156|CCC HRK SOBR FAM Vara 2013|121|Horeca|0
0|FS1145244|2013-08-24 22:56:55||||F|||||||||||||DUNFCMBB||||||||||156|CCC HRK SOBR FAM Vara 2013|121|Horeca|0
0|FS1145250|2013-08-24 22:57:18||||F|||||||||||||VOGJSN||||||||||156|CCC HRK SOBR FAM Vara 2013|121|Horeca|0
0|FS1145266|2013-08-24 22:58:37||||F|||||||||||||VIRSFA||||||||||156|CCC HRK SOBR FAM Vara 2013|121|Horeca|0
0|FS1145271|2013-08-24 22:58:54||||M|||||||||||||KTAPGD||||||||||156|CCC HRK SOBR FAM Vara 2013|121|Horeca|0
0|FS1145272|2013-08-24 22:59:11||||M|||||||||||||MBRGL||||||||||156|CCC HRK SOBR FAM Vara 2013|121|Horeca|0
0|FS1145294|2013-08-24 23:01:11||||M|||||||||||||MBRGL||||||||||156|CCC HRK SOBR FAM Vara 2013|121|Horeca|0
0|FS1145295|2013-08-24 23:01:12||||M|||||||||||||MBRGL||||||||||156|CCC HRK SOBR FAM Vara 2013|121|Horeca|0
0|FS1145310|2013-08-24 23:02:26||||F|||||||||||||VIRSM||||||||||156|CCC HRK SOBR FAM Vara 2013|121|Horeca|0
0|FS1145347|2013-08-24 23:07:20||||F|||||||||||||VIRSM||||||||||156|CCC HRK SOBR FAM Vara 2013|121|Horeca|0
0|FS1145351|2013-08-24 23:07:39||||F|||||||||||||DUNFCBB||||||||||156|CCC HRK SOBR FAM Vara 2013|121|Horeca|0
0|FS1145369|2013-08-24 23:09:52||||F|||||||||||||MBRGL||||||||||156|CCC HRK SOBR FAM Vara 2013|121|Horeca|0
0|FS1145375|2013-08-24 23:10:07||||F|||||||||||||VIRSV||||||||||156|CCC HRK SOBR FAM Vara 2013|121|Horeca|0
0|FS1145412|2013-08-24 23:14:47||||F|||||||||||||DUNFCBB||||||||||156|CCC HRK SOBR FAM Vara 2013|121|Horeca|0
0|FS1145431|2013-08-24 23:18:32|||||||||||||||||KTWH||||||||||156|CCC HRK SOBR FAM Vara 2013|121|Horeca|0
0|FS1145437|2013-08-24 23:19:24||||F|||||||||||||DUNFCMBB||||||||||156|CCC HRK SOBR FAM Vara 2013|121|Horeca|0
0|FS1147913|2013-08-25 19:53:46|||||||||||||||||KTSWIT||||||||||156|CCC HRK SOBR FAM Vara 2013|121|Horeca|0
0|FS1147963|2013-08-25 20:01:10||||F|||||||||||||KTNWH||||||||||156|CCC HRK SOBR FAM Vara 2013|121|Horeca|0
0|FS1147988|2013-08-25 20:04:38||||F|||||||||||||PARRSSMH||||||||||156|CCC HRK SOBR FAM Vara 2013|121|Horeca|0
0|FS1147991|2013-08-25 20:04:55||||F|||||||||||||DAVSVSS||||||||||156|CCC HRK SOBR FAM Vara 2013|121|Horeca|0
0|FS1148055|2013-08-25 20:14:21||||M|||||||||||||DUNFCBB||||||||||156|CCC HRK SOBR FAM Vara 2013|121|Horeca|0
0|FS1148114|2013-08-25 20:22:31||||F|||||||||||||DUNFCMBB||||||||||156|CCC HRK SOBR FAM Vara 2013|121|Horeca|0
0|FS1148143|2013-08-25 20:26:43||||F|||||||||||||PARRSSMH||||||||||156|CCC HRK SOBR FAM Vara 2013|121|Horeca|0
0|FS1148146|2013-08-25 20:27:08||||M|||||||||||||DUNFCBB||||||||||156|CCC HRK SOBR FAM Vara 2013|121|Horeca|0
0|FS1148172|2013-08-25 20:31:01||||M|||||||||||||GLMMNT||||||||||156|CCC HRK SOBR FAM Vara 2013|121|Horeca|0
0|FS1148340|2013-08-25 20:54:22||||F|||||||||||||DUNFCBB||||||||||156|CCC HRK SOBR FAM Vara 2013|121|Horeca|0
0|FS1148341|2013-08-25 20:54:23||||F|||||||||||||DUNFCBB||||||||||156|CCC HRK SOBR FAM Vara 2013|121|Horeca|0
0|FS1148344|2013-08-25 20:54:42||||M|||||||||||||KTNBK||||||||||156|CCC HRK SOBR FAM Vara 2013|121|Horeca|0
0|FS1148349|2013-08-25 20:55:30||||M|||||||||||||MBRGLH||||||||||156|CCC HRK SOBR FAM Vara 2013|121|Horeca|0
0|FS1148386|2013-08-25 21:00:26||||F|||||||||||||DAVGL||||||||||156|CCC HRK SOBR FAM Vara 2013|121|Horeca|0
0|FS1148400|2013-08-25 21:04:02||||F|||||||||||||VOGDV||||||||||156|CCC HRK SOBR FAM Vara 2013|121|Horeca|0
0|FS1148442|2013-08-25 21:12:44|||||||||||||||||MBRGL||||||||||156|CCC HRK SOBR FAM Vara 2013|121|Horeca|0
0|FS1148460|2013-08-25 21:17:46||||M|||||||||||||DUNFCBB||||||||||156|CCC HRK SOBR FAM Vara 2013|121|Horeca|0
0|FS1148461|2013-08-25 21:18:02||||M|||||||||||||PARSB||||||||||156|CCC HRK SOBR FAM Vara 2013|121|Horeca|0
0|FS1148462|2013-08-25 21:18:03||||M|||||||||||||PARSB||||||||||156|CCC HRK SOBR FAM Vara 2013|121|Horeca|0
0|FS1148464|2013-08-25 21:18:31||||F|||||||||||||DUNFCBB||||||||||156|CCC HRK SOBR FAM Vara 2013|121|Horeca|0
0|FS1148465|2013-08-25 21:18:44||||F|||||||||||||KTNWH||||||||||156|CCC HRK SOBR FAM Vara 2013|121|Horeca|0
0|FS1148475|2013-08-25 21:20:17||||M|||||||||||||KTNBL||||||||||156|CCC HRK SOBR FAM Vara 2013|121|Horeca|0
0|FS1148499|2013-08-25 21:23:45||||M|||||||||||||KTSV||||||||||156|CCC HRK SOBR FAM Vara 2013|121|Horeca|0
0|FS1148501|2013-08-25 21:24:04||||M|||||||||||||DUNBL||||||||||156|CCC HRK SOBR FAM Vara 2013|121|Horeca|0
0|FS1148621|2013-08-25 21:40:36||||F|||||||||||||KTSWIT||||||||||156|CCC HRK SOBR FAM Vara 2013|121|Horeca|0
0|FS1148626|2013-08-25 21:41:08||||F|||||||||||||KTBL||||||||||156|CCC HRK SOBR FAM Vara 2013|121|Horeca|0
0|FS1148767|2013-08-25 22:14:16||||F|||||||||||||VOGLL||||||||||156|CCC HRK SOBR FAM Vara 2013|121|Horeca|0
0|FS1148815|2013-08-25 22:25:26||||F|||||||||||||DUNFCBB||||||||||156|CCC HRK SOBR FAM Vara 2013|121|Horeca|0
0|FS1148816|2013-08-25 22:25:55||||M|||||||||||||DUNFCBB||||||||||156|CCC HRK SOBR FAM Vara 2013|121|Horeca|0
0|FS1148818|2013-08-25 22:27:08||||M|||||||||||||DUNFCBB||||||||||156|CCC HRK SOBR FAM Vara 2013|121|Horeca|0
0|FS1148831|2013-08-25 22:30:37||||M|||||||||||||GLMMNT||||||||||156|CCC HRK SOBR FAM Vara 2013|121|Horeca|0
0|FS1148933|2013-08-25 22:56:58||||F|||||||||||||VOGLL||||||||||156|CCC HRK SOBR FAM Vara 2013|121|Horeca|0
0|FS1148936|2013-08-25 22:57:28||||M|||||||||||||KTBL||||||||||156|CCC HRK SOBR FAM Vara 2013|121|Horeca|0
0|FS1148940|2013-08-25 22:57:57||||M|||||||||||||PARNBH||||||||||156|CCC HRK SOBR FAM Vara 2013|121|Horeca|0
0|FS1148974|2013-08-25 23:07:50||||M|||||||||||||DAVSVSS||||||||||156|CCC HRK SOBR FAM Vara 2013|121|Horeca|0
