0|CS3701031|2013-12-17 19:16:15|ENE|ALIN||M|1987-04-30|BUCURESTI|SECTOR 1|PROMETEU|6|G12|A|P|3|0734030486||ALINENE@ROKETMAIL.COM|KTNWH||0 Sobranie Side Slide Whites (1mg) Pack|Yes|Yes||EVENT121|NECONVENTIONAL|Bucuresti|BWEVENTBA111|175|CCC EVENT SOBR FAM 2013|121|Horeca|0
0|CS3701035|2013-12-17 19:18:49|BUTA|OVIDIU||M|1974-06-13|BUCURESTI|SECTOR 5|DOCTOR TEODORI|2|||0|0|0728310311||OVIDIUBUTA@YAHOO.COM|SBKSBL||0 Sobranie KS Blue (5mg) Pack|Yes|Yes||EVENT121|NECONVENTIONAL|Bucuresti|BWEVENTBA111|175|CCC EVENT SOBR FAM 2013|121|Horeca|0
0|CS3701050|2013-12-17 19:26:50|POPA|RALUCA||F|1989-06-28|CLUJ|CLUJ NAPOCA|HORIA|57|||||0745508202||RALUCA.POPA@YMAIL.COM|DUNFCBB||0 Sobranie SS Menthol (5 mg) Pack|Yes|Yes||EVENT121|NECONVENTIONAL|Bucuresti|BWEVENTBA106|175|CCC EVENT SOBR FAM 2013|121|Horeca|0
0|CS3701064|2013-12-17 19:31:31|MURESANU|OVIDIU||M|1974-09-12|BUCURESTI|SECTOR 1|CALEA DOROBANTILOR|135|10|1|5|21|0722675576||MURESANU.OVIDIU@GMAIL.COM|DUNFCBB||0 Sobranie KS Gold (3mg) Pack|Yes|Yes||EVENT121|NECONVENTIONAL|Bucuresti|BWEVENTBA111|175|CCC EVENT SOBR FAM 2013|121|Horeca|0
0|CS3701085|2013-12-17 19:40:16|ZAH|ANDREEA||F|1978-09-06|BUCURESTI|SECTOR 1|PARIS|14A|||||0722196169|||SBSSPK||0 Sobranie SS Pink (3mg) Pack|Yes|Yes||EVENT121|NECONVENTIONAL|Bucuresti|BWEVENTBA106|175|CCC EVENT SOBR FAM 2013|121|Horeca|0
0|CS3701105|2013-12-17 19:52:38|NICOLESCU|LOREDANA||F|1975-06-08|BUCURESTI|SECTOR 1|TARNAVENI|20|||||0721206542||LOLICABODIRLAU@YAHOO.COM|VOGLL||0 Sobranie SS Pink (3mg) Pack|Yes|Yes||EVENT121|NECONVENTIONAL|Bucuresti|BWEVENTBA106|175|CCC EVENT SOBR FAM 2013|121|Horeca|0
0|CS3701117|2013-12-17 20:00:44|TOADER|ANDREI||M|1991-08-11|BUCURESTI|SECTOR 4|VERZISORI|60|||||0721483051|||DUNFCMBB||0 Sobranie KS Blue (5mg) Pack|Yes|Yes||EVENT121|NECONVENTIONAL|Bucuresti|BWEVENTBA106|175|CCC EVENT SOBR FAM 2013|121|Horeca|0
0|CS3701120|2013-12-17 20:06:58|STANGA|ALEXANDRA||F|1991-01-09|ILFOV|CLINCENI|CIURARI|84|||||0724427863||ALEXANDRA.STANGA@GMAIL.COM|DUNFCMBB||0 Sobranie KS Gold (3mg) Pack|Yes|Yes||EVENT121|NECONVENTIONAL|Bucuresti|BWEVENTBA106|175|CCC EVENT SOBR FAM 2013|121|Horeca|0
0|CS3701123|2013-12-17 20:24:02|DRAGOMIR|LUCIAN||M|1983-09-16|BUCURESTI|SECTOR 2|PANTELIMON|309|8|B|5|57|0722166333||LU.DRAGOMIR@YAHOO.COM|MBRGLT||0 Sobranie KS Blue (5mg) Pack|Yes|Yes||EVENT121|NECONVENTIONAL|Bucuresti|BWEVENTBA111|175|CCC EVENT SOBR FAM 2013|121|Horeca|0
0|CS3701125|2013-12-17 20:32:29|VELICI|ANA||F|1985-04-28|BUCURESTI|SECTOR 1|BUZESTI|59|1|1|8|87|0730583851||ANA.VELICI@DRAFTFCB.RO|SBKSGD||0 Sobranie KS Gold (3mg) Pack|Yes|Yes||EVENT121|NECONVENTIONAL|Bucuresti|BWEVENTBA111|175|CCC EVENT SOBR FAM 2013|121|Horeca|0
0|CS3701127|2013-12-17 20:56:24|SAPERA|STELA||F|1981-12-11|BUCURESTI|SECTOR 3|CALEA CALARASI|170|56|1|0|3|0722930772||STELA_SAPERA@YAHOO.COM|GLMLIL||0 Sobranie SS Pink (3mg) Pack|Yes|Yes||EVENT121|NECONVENTIONAL|Bucuresti|BWEVENTBA111|175|CCC EVENT SOBR FAM 2013|121|Horeca|0
0|CS3701131|2013-12-17 21:20:44|BULDUMEA|PAULINA||F|1985-09-14|BUCURESTI|SECTOR 1|ISNCU DE HUNEDOARA|6|||||0726631881||PAULINA.BULDUMEA@GMAIL.COM|SBSSWH||0 Sobranie SS White (1mg) Pack|Yes|Yes||EVENT121|NECONVENTIONAL|Bucuresti|BWEVENTBA111|175|CCC EVENT SOBR FAM 2013|121|Horeca|0
0|CS3701132|2013-12-17 21:21:39|MAVRODIN|IULIAN||M|1987-08-29|BUCURESTI|SECTOR 4|VACARESTI|21|||||0765443765|||DUNFCBB||0 Sobranie KS Gold (3mg) Pack|Yes|Yes||EVENT121|NECONVENTIONAL|Bucuresti|BWEVENTBA106|175|CCC EVENT SOBR FAM 2013|121|Horeca|0
