0|CS165030|2012-05-28 12:10:46|Chirila |Vlad||M|1988-10-08|Cluj|CLUJ NAPOCA|Mehedinti|5||||63|0742171668||chirilavlad@hotmail.com|CABK||Bricheta Camel B-W|Yes|Yes||CJ001676|Adiaz Pro |Cluj-Napoca|CJDTCBA21|30|CCC CAMEL FAM SL 2012|121|Retail|0
0|CS165069|2012-05-28 12:30:59|Potre|Marius||M|1986-09-02|Bihor|ORADEA|Gradinarilor|38||||9|0744833252||marius_p00@yahoo.com|PARAB||Bricheta Camel B-W|Yes|Yes||CJ001676|Adiaz Pro |Cluj-Napoca|CJDTCBA21|30|CCC CAMEL FAM SL 2012|121|Retail|0
0|CS165100|2012-05-28 12:45:10|Axinte|Paul||M|1990-02-28|Cluj|CLUJ NAPOCA|T.mihali|2||||74|0742146931||paul.acinte@gmail.com|CAWH||Bricheta Camel B-W|Yes|Yes||CJ001676|Adiaz Pro |Cluj-Napoca|CJDTCBA21|30|CCC CAMEL FAM SL 2012|121|Retail|0
0|CS165120|2012-05-28 12:56:36|Vise|Ionut||M|1989-11-16|Cluj|CLUJ NAPOCA|Tulcei|53|||0|0|0747577968||ionut_16john@yahoo.com|KTBL||Bricheta Camel Base|Yes|Yes||CJ001676|Adiaz Pro |Cluj-Napoca|CJDTCBA21|30|CCC CAMEL FAM SL 2012|121|Retail|0
0|CS165219|2012-05-28 13:57:51|Petre|Valentin||M|1986-06-06|Bucuresti|SECTOR 6|Delinesti|8|M12|C|6|26|0768132575||valentinpetre7@yahoo.com|KTBL|CABK|Bricheta Camel B-W|Yes|Yes||BW004415|ADIAZ PRO|Bucuresti|BWDTCBA19|30|CCC CAMEL FAM SL 2012|121|Retail|0
0|CS165480|2012-05-28 16:17:39|Sabau|Petre||M|1989-04-15|Maramures|BAIA MARE|G.coscuc|25||||10|0745137877||petre.sabau@ymail.com|DUNFCMB||Bricheta Camel Base|Yes|Yes||CJ001676|Adiaz Pro |Cluj-Napoca|CJDTCBA21|30|CCC CAMEL FAM SL 2012|121|Retail|0
0|CS165496|2012-05-28 16:22:03|Zgorobote|Orlando||M|1993-01-27|Giurgiu|GIURGIU|Marasesti|22|0|0|0|0|0721382763||orlando_dennis@yahoo.com|KTSV||Bricheta Camel B-W|Yes|Yes||BW004415|ADIAZ PRO|Bucuresti|BWDTCBA19|30|CCC CAMEL FAM SL 2012|121|Retail|0
0|CS165528|2012-05-28 16:32:20|Dumitru|Mirel||M|1985-06-12|Bucuresti|SECTOR 5|Soldat ilie mihai|9|M131|1|8|47|0765475902||mireldum@yahoo.com|KTBL||Bricheta Camel Base|Yes|Yes||BW004415|ADIAZ PRO|Bucuresti|BWDTCBA19|30|CCC CAMEL FAM SL 2012|121|Retail|0
0|CS165797|2012-05-28 17:38:53|Kiraly|Robert||M|1982-03-28|Cluj|CLUJ NAPOCA|Decebal|46|||0|3|0744609155||robert_blackdevil@yahoo.com|CABK||Bricheta Camel B-W|Yes|Yes||CJ001676|Adiaz Pro |Cluj-Napoca|CJDTCBA21|30|CCC CAMEL FAM SL 2012|121|Retail|0
0|CS166125|2012-05-28 19:07:48|Dan|Adrian||M|1978-05-10|Alba|ALBA IULIA|Closca|6||||40|0744981277||qadidan@yahoo.com|KTH||Bricheta Camel Base|Yes|Yes||CJ001676|Adiaz Pro |Cluj-Napoca|CJDTCBA21|30|CCC CAMEL FAM SL 2012|121|Retail|0
0|CS166190|2012-05-28 19:24:16|Dogaru|Ion||M|1966-12-30|Ilfov|VOLUNTARI|Buzaului|50|50|1|4|18|0784741330||rechinu20072008@yahoo.com|CAFI|ROTH|Bricheta Camel Base|Yes|Yes||BW004415|ADIAZ PRO|Bucuresti|BWDTCBA19|30|CCC CAMEL FAM SL 2012|121|Retail|0
0|CS166198|2012-05-28 19:27:08|Potarniche|Catalina||F|1989-05-19|Bucuresti|SECTOR 6|Crinul de Padure|5|G5|2|3|164|0727213544||caattyy@yahoo.com|KTSV||Bricheta Camel Base|Yes|Yes||BW004415|ADIAZ PRO|Bucuresti|BWDTCBA19|30|CCC CAMEL FAM SL 2012|121|Retail|0
0|CS166285|2012-05-28 19:54:56|Iancu|Alexandru constantin||M|1982-10-13|Bucuresti|SECTOR 5|Dumbrava noua|7|M17|1|1|8|0727157805||lxiancu@yahoo.com|KTBL|CABK|Bricheta Camel B-W|Yes|Yes||BW004415|ADIAZ PRO|Bucuresti|BWDTCBA19|30|CCC CAMEL FAM SL 2012|121|Retail|0
0|CS166800|2012-05-29 13:28:29|Barzu|Tudor||M|1989-01-20|Cluj|CLUJ NAPOCA|Plopilor|44|||0|1|0744232426||barzulici@yahoo.com|KTH|KTBL|Bricheta Camel Base|Yes|Yes||CJ001676|Adiaz Pro |Cluj-Napoca|CJDTCBA21|30|CCC CAMEL FAM SL 2012|121|Retail|0
0|CS166941|2012-05-29 14:10:54|Szabo|Zoltan||M|1983-07-13|Cluj|CLUJ NAPOCA|Kogalniceanu|7|||0|12|0760343137||szabozoltan1973@yahoo.com|CAFI||Bricheta Camel Base|Yes|Yes||CJ001676|Adiaz Pro |Cluj-Napoca|CJDTCBA21|30|CCC CAMEL FAM SL 2012|121|Retail|0
0|CS166948|2012-05-29 14:11:54|Marchis|Gabriel||F|1991-03-11|Cluj|CLUJ NAPOCA|Tulcea|6|||0|53|0758313770||gaby_1191@yahoo.com|KTH||Bricheta Camel Base|Yes|Yes||CJ001676|Adiaz Pro |Cluj-Napoca|CJDTCBA21|30|CCC CAMEL FAM SL 2012|121|Retail|0
0|CS166952|2012-05-29 14:13:14|Vise|Ionut||M|1991-11-16|Maramures|ULMENI|Dr florian ulmeanu|4|||1|8|0747577968||ionut_16john@yahoo.com|KTBL||Bricheta Camel Base|Yes|Yes||CJ001676|Adiaz Pro |Cluj-Napoca|CJDTCBA21|30|CCC CAMEL FAM SL 2012|121|Retail|0
0|CS167166|2012-05-29 15:30:06|Saghin|Radu||M|1986-01-07|Alba|BLAJ|Eroilor|0|39|0|4|20|0744228643||saghin_radu@yahoo.com|KTBL|CABL|Bricheta Camel Base|Yes|Yes||BW004415|ADIAZ PRO|Bucuresti|BWDTCBA19|30|CCC CAMEL FAM SL 2012|121|Retail|0
0|CS167177|2012-05-29 15:33:11|Sabo|Bianca||F|1989-05-01|Cluj|APAHIDA|Triunghi cfr|21|||0|0|0742225738||bianca.sabo@yahoo.com|PHMQBK||Bricheta Camel Base|Yes|Yes||CJ001676|Adiaz Pro |Cluj-Napoca|CJDTCBA21|30|CCC CAMEL FAM SL 2012|121|Retail|0
0|CS167179|2012-05-29 15:33:57|Nas|Virgil||M|1952-05-24|Cluj|CLUJ NAPOCA|Aurel vlaicu|23|||0|8|0744477293||virgil_nas@yahoo.com|CAFI||Bricheta Camel Base|Yes|Yes||CJ001676|Adiaz Pro |Cluj-Napoca|CJDTCBA21|30|CCC CAMEL FAM SL 2012|121|Retail|0
0|CS167182|2012-05-29 15:34:46|Hada|Raluca||F|1991-07-19|Cluj|CLUJ NAPOCA|Oltului|78|||0|7|0752567151||raluca_hada@yahoo.com|WIBL||Bricheta Camel B-W|Yes|Yes||CJ001676|Adiaz Pro |Cluj-Napoca|CJDTCBA21|30|CCC CAMEL FAM SL 2012|121|Retail|0
0|CS167290|2012-05-29 16:12:04|Szekely|Raluca||F|1985-05-15|Bucuresti|SECTOR 2|Aleea andronache|33b|0|0|0|0|0762627766||szekely_raluca@yahoo.com|KTBL||Bricheta Camel B-W|Yes|Yes||BW004415|ADIAZ PRO|Bucuresti|BWDTCBA19|30|CCC CAMEL FAM SL 2012|121|Retail|0
0|CS167320|2012-05-29 16:17:56|Stet|Ioan||M|1985-01-27|Cluj|CLUJ NAPOCA|Borhanci|61||||16|0730076587||stet_ioan@yahoo.com|CABK||Bricheta Camel B-W|Yes|Yes||CJ001676|Adiaz Pro |Cluj-Napoca|CJDTCBA21|30|CCC CAMEL FAM SL 2012|121|Retail|0
0|CS167636|2012-05-29 17:21:54|Mihalache|Bogdan||M|1980-04-15|Cluj|CLUJ NAPOCA|Fagului|74a||||2|0732515129||bogdan_cristian31@yahoo.com|MBRGLT||Bricheta Camel B-W|Yes|Yes||CJ001676|Adiaz Pro |Cluj-Napoca|CJDTCBA21|30|CCC CAMEL FAM SL 2012|121|Retail|0
0|CS167828|2012-05-29 18:08:09|Catinas|Ligia||F|1985-06-16|Alba|ABRUD|Zorilor|12||||11|0757203440||lygya_ioana@yahoo.com|KTBL||Bricheta Camel B-W|Yes|Yes||CJ001676|Adiaz Pro |Cluj-Napoca|CJDTCBA21|30|CCC CAMEL FAM SL 2012|121|Retail|0
0|CS167935|2012-05-29 18:40:00|Erdely|Laszlo||M|1986-02-11|Covasna|SFANTU GHEORGHE|Laszlo ferentz|3||||5|0720591236||erlaci@yahoo.com|CABK||Bricheta Camel B-W|Yes|Yes||CJ001676|Adiaz Pro |Cluj-Napoca|CJDTCBA21|30|CCC CAMEL FAM SL 2012|121|Retail|0
0|CS167966|2012-05-29 18:50:19|Sarpe|Constantin||M|1985-11-14|Bucuresti|SECTOR 6|Murelor|16b|0|0|0|0|0722242243||trimitecevrei@yahoo.com|CAFI|CABL|Bricheta Camel Base|Yes|Yes||BW004415|ADIAZ PRO|Bucuresti|BWDTCBA19|30|CCC CAMEL FAM SL 2012|121|Retail|0
0|CS168070|2012-05-29 19:15:21|Ugrutan|Florin||M|1990-11-19|Cluj|CLUJ NAPOCA|Observator|105||||37|0741599993||ugrutan_90@yahoo.com|KTBL||Bricheta Camel Base|Yes|Yes||CJ001676|Adiaz Pro |Cluj-Napoca|CJDTCBA21|30|CCC CAMEL FAM SL 2012|121|Retail|0
0|CS168139|2012-05-29 19:32:43|Dobos|Giuliano||M|1992-03-23|Bucuresti|SECTOR 1|George enescu|0|24|1|3|25|0722857017||dogof07@yahoo.com|DAVGL|CABK|Bricheta Camel B-W|Yes|Yes||BW004415|ADIAZ PRO|Bucuresti|BWDTCBA19|30|CCC CAMEL FAM SL 2012|121|Retail|0
0|CS168180|2012-05-29 19:45:28|Iancu|Alexandru constantin||M|1982-10-13|Bucuresti|SECTOR 5|Dumbrava noua|7|M17|1|1|8|0727157805||lxiancu@yahoo.com|KTBL||Bricheta Camel B-W|Yes|Yes||BW004415|ADIAZ PRO|Bucuresti|BWDTCBA19|30|CCC CAMEL FAM SL 2012|121|Retail|0
0|CS168229|2012-05-29 19:55:35|Soare|Ecaterina||F|1983-05-27|Bucuresti|SECTOR 4|Turnu magurele|13|S2|C|5|462|0747823988||catysoare@yahoo.com|KTSV|KTBL|Bricheta Camel Base|Yes|Yes||BW004415|ADIAZ PRO|Bucuresti|BWDTCBA19|30|CCC CAMEL FAM SL 2012|121|Retail|0
0|CS168640|2012-05-30 11:58:57|Pastras|Alina||F|1990-06-12|Cluj|CLUJ NAPOCA|Tulcea|M1||||48|0745531990||alinnnutza_612@yahoo.com|KTSV||Bricheta Camel B-W|Yes|Yes||CJ001676|Adiaz Pro |Cluj-Napoca|CJDTCBA21|30|CCC CAMEL FAM SL 2012|121|Retail|0
0|CS168897|2012-05-30 13:46:15|Popescu|Cosmin||M|1988-02-09|Bucuresti|SECTOR 6|Iuliu maniu|1|LeuA|0|9|929|0766211863||cosmin@greyhat.ro|DUNFCDB|CABL|Bricheta Camel Base|Yes|Yes||BW004415|ADIAZ PRO|Bucuresti|BWDTCBA19|30|CCC CAMEL FAM SL 2012|121|Retail|0
0|CS168913|2012-05-30 13:50:54|Stanciu|Claudiu ionut||M|1988-09-12|Ilfov|DARASTI ILFOV|Ulmului|1|||0|0|0734660664||radio_star09@yahoo.com|KTBL|KTBLH|Bricheta Camel B-W|Yes|Yes||BW004415|ADIAZ PRO|Bucuresti|BWDTCBA19|30|CCC CAMEL FAM SL 2012|121|Retail|0
0|CS168924|2012-05-30 13:54:19|Matei|Ionut||M|1991-10-13|Ilfov|DARASTI ILFOV|1decembrie1918|153|0|0|0|0|0734361545||b7b7_1391@yahoo.com|KTSV||Bricheta Camel B-W|Yes|Yes||BW004415|ADIAZ PRO|Bucuresti|BWDTCBA19|30|CCC CAMEL FAM SL 2012|121|Retail|0
0|CS169009|2012-05-30 14:24:03|Pop|AndreI||M|1985-03-30|Cluj|CLUJ NAPOCA|Baita|5||||2|0745304632||kinderu@yahoo.com|KTBL||Bricheta Camel B-W|Yes|Yes||CJ001676|Adiaz Pro |Cluj-Napoca|CJDTCBA21|30|CCC CAMEL FAM SL 2012|121|Retail|0
0|CS169014|2012-05-30 14:26:31|Lupas|Cora||F|1985-04-16|Cluj|CLUJ NAPOCA|Plopilor|75|||0|55|0756614100||cora.lupas@yahoo.com|CAFI||Bricheta Camel Base|Yes|Yes||CJ001676|Adiaz Pro |Cluj-Napoca|CJDTCBA21|30|CCC CAMEL FAM SL 2012|121|Retail|0
0|CS169092|2012-05-30 14:53:31|Dumitrascu|Cristian||M|1982-02-24|Bucuresti|SECTOR 6|Economu cezarescu|42|0|0|0|0|0726777712||cristi@puideurs.ro|MBRFP|CABK|Bricheta Camel B-W|Yes|Yes||BW004415|ADIAZ PRO|Bucuresti|BWDTCBA19|30|CCC CAMEL FAM SL 2012|121|Retail|0
0|CS169344|2012-05-30 16:12:21|Ciuciu|Roxana||F|1987-09-06|Dambovita|TARGOVISTE|Urmuz|2|2|D|4|79|0722734235||roxana_gc@yahoo.com|KTCON||Bricheta Camel Base|Yes|Yes||BW004415|ADIAZ PRO|Bucuresti|BWDTCBA19|30|CCC CAMEL FAM SL 2012|121|Retail|0
0|CS169488|2012-05-30 16:41:30|Moraru|Gabriela||F|1971-08-21|Bucuresti|SECTOR 2|Falticeni|62|0|0|0|0|0723921800||marian2999@yahoo.com|CAFI|CABL|Bricheta Camel Base|Yes|Yes||BW004415|ADIAZ PRO|Bucuresti|BWDTCBA19|30|CCC CAMEL FAM SL 2012|121|Retail|0
0|CS169735|2012-05-30 17:31:50|Pirvan|Marius||M|1992-03-09|Bucuresti|SECTOR 4|Pictor stefan constantinescu|2d|0|0|1|14|0760062626||mariusalin@hotmail.com|MBRGLA|KTBL|Bricheta Camel Base|Yes|Yes||BW004415|ADIAZ PRO|Bucuresti|BWDTCBA19|30|CCC CAMEL FAM SL 2012|121|Retail|0
0|CS169815|2012-05-30 17:45:21|Buier|Mircea||M|1959-07-04|Cluj|CLUJ NAPOCA|Fabricii de Zaharias|9|G1||0|9|0749095119|||CAFI||Bricheta Camel Base|Yes|Yes||CJ001676|Adiaz Pro |Cluj-Napoca|CJDTCBA21|30|CCC CAMEL FAM SL 2012|121|Retail|0
0|CS169820|2012-05-30 17:46:04|Uifalean|Tiberiu||M|1987-02-10|Cluj|CLUJ NAPOCA|Decebal|10|||0|0|0745359833||becsia10@yahoo.com|KTH||Bricheta Camel Base|Yes|Yes||CJ001676|Adiaz Pro |Cluj-Napoca|CJDTCBA21|30|CCC CAMEL FAM SL 2012|121|Retail|0
0|CS169834|2012-05-30 17:47:26|Salavaca|Octavian||M|1990-08-02|Bistrita Nasaud|RODNA|V.marte|88|||0|0|0743814228||tavy_sri@yahoo.com|KTH||Bricheta Camel Base|Yes|Yes||CJ001676|Adiaz Pro |Cluj-Napoca|CJDTCBA21|30|CCC CAMEL FAM SL 2012|121|Retail|0
0|CS169842|2012-05-30 17:48:45|Hasna|Cezar||M|1984-11-02|Iasi|IASI|Salcamului|12|||0|0|0746771092||vash_kilah@yahoo.com|MBRRD||Bricheta Camel Base|Yes|Yes||CJ001676|Adiaz Pro |Cluj-Napoca|CJDTCBA21|30|CCC CAMEL FAM SL 2012|121|Retail|0
0|CS170182|2012-05-30 18:55:36|Ispas|Marius||M|1985-06-17|Bucuresti|SECTOR 5|Voila|2|52|4|2|52|0727339291||ingmariusispas@yahoo.com|MBRGLFT||Bricheta Camel B-W|Yes|Yes||BW004415|ADIAZ PRO|Bucuresti|BWDTCBA19|30|CCC CAMEL FAM SL 2012|121|Retail|0
0|CS170250|2012-05-30 19:13:06|VeresS|Andreea||F|1986-12-27|Cluj|CLUJ NAPOCA|Salcamului|12|||0|0|0751315493||deeadeea2020@yahoo.com|DUNBL||Bricheta Camel B-W|Yes|Yes||CJ001676|Adiaz Pro |Cluj-Napoca|CJDTCBA21|30|CCC CAMEL FAM SL 2012|121|Retail|0
0|CS170338|2012-05-30 19:31:44|Roman|Catalin||M|1979-04-05|Bucuresti|SECTOR 2|Energiei|7|9I|A|P|2|0723203325||catalin-adrian.roman@petrom.com|KTH||Bricheta Camel Base|Yes|Yes||BW004415|ADIAZ PRO|Bucuresti|BWDTCBA19|30|CCC CAMEL FAM SL 2012|121|Retail|0
0|CS170382|2012-05-30 19:41:17|Obayda|Abu husein||M|1992-11-11|Bucuresti|SECTOR 6|Soseaua virtutii|15|6|2|4|52|0733147867||3obyda.a@live.com|MBRRD|WICLS|Bricheta Camel Base|Yes|Yes||BW004415|ADIAZ PRO|Bucuresti|BWDTCBA19|30|CCC CAMEL FAM SL 2012|121|Retail|0
0|CS170455|2012-05-30 19:57:12|Sabau|Flaviu||M|1986-07-21|Satu Mare|SATU MARE|Cetatii|6|||0|0|0728883214||darkmanx2z@yahoo.com|KTH|KTBL|Bricheta Camel Base|Yes|Yes||CJ001676|Adiaz Pro |Cluj-Napoca|CJDTCBA21|30|CCC CAMEL FAM SL 2012|121|Retail|0
0|CS170463|2012-05-30 19:59:46|Muresan|Mihai||M|1992-11-27|Bistrita Nasaud|POIENILE ZAGREI|Principala|37|||||0725778109||muresanmitza.67@yahoo.com|MBRRD||Bricheta Camel Base|Yes|Yes||CJ001676|Adiaz Pro |Cluj-Napoca|CJDTCBA21|30|CCC CAMEL FAM SL 2012|121|Retail|0
0|CS171588|2012-06-01 11:59:35|Todea|Razvan||M|1992-11-21|Cluj|CLUJ NAPOCA|Plaiul|4||||0|0752283506||razvan_td@yahoo.com|KTBL||Bricheta Camel B-W|Yes|Yes||CJ001676|Adiaz Pro |Cluj-Napoca|CJDTCBA21|30|CCC CAMEL FAM SL 2012|121|Retail|0
0|CS171758|2012-06-01 12:34:43|Nas|Virgil||M|1952-05-24|Cluj|CLUJ NAPOCA|Aurel vlaicu|23|||0|8|0744477293||virgil_nas@yahoo.com|CAFI||Bricheta Camel Base|Yes|Yes||CJ001676|Adiaz Pro |Cluj-Napoca|CJDTCBA21|30|CCC CAMEL FAM SL 2012|121|Retail|0
0|CS171764|2012-06-01 12:35:55|Nicorici|Tudor||M|1988-12-02|Salaj|CEHU SILVANIEI|Principala|5|||0|0|0743712739||tud_nicorici@yahoo.com|KTH||Bricheta Camel Base|Yes|Yes||CJ001676|Adiaz Pro |Cluj-Napoca|CJDTCBA21|30|CCC CAMEL FAM SL 2012|121|Retail|0
0|CS171781|2012-06-01 12:39:30|Ene|Sorin||M|1992-08-06|Bucuresti|SECTOR 4|Dambului|141|0|0|0 |0|0731322142||golden_tiger_of_justice@yahoo.ro|DUNFCDB|KTBL|Bricheta Camel Base|Yes|Yes||BW004415|ADIAZ PRO|Bucuresti|BWDTCBA19|30|CCC CAMEL FAM SL 2012|121|Retail|0
0|CS171782|2012-06-01 12:39:39|Oprea|Loredana||F|1992-07-19|Cluj|CLUJ NAPOCA|Bucegi|9||||21|0747867722||loredana_alina_oprea@yahoo.com|KTSV||Bricheta Camel B-W|Yes|Yes||CJ001676|Adiaz Pro |Cluj-Napoca|CJDTCBA21|30|CCC CAMEL FAM SL 2012|121|Retail|0
0|CS171796|2012-06-01 12:41:59|Gheorghe|Nicoleta||F|1991-10-14|Galati|TUDOR VLADIMIRESCU|Principala|2130||||0|0748209426||nykolle_2007@yahoo.com|KTH|KTBL|Bricheta Camel Base|Yes|Yes||CJ001676|Adiaz Pro |Cluj-Napoca|CJDTCBA21|30|CCC CAMEL FAM SL 2012|121|Retail|0
0|CS172037|2012-06-01 13:40:06|Nemes|Mihaela||F|1992-01-12|Cluj|CLUJ NAPOCA|Cosminului|96|||0|0|0756435590||mihaela.nemes@yahoo.com|WIBL||Bricheta Camel B-W|Yes|Yes||CJ001676|Adiaz Pro |Cluj-Napoca|CJDTCBA21|30|CCC CAMEL FAM SL 2012|121|Retail|0
0|CS172041|2012-06-01 13:41:25|Popa|Laviniu||M|1991-03-15|Cluj|CLUJ NAPOCA|Principala|171|||0|0|0752606642||laviniu_laviniu91@yahoo.com|MBRRD||Bricheta Camel Base|Yes|Yes||CJ001676|Adiaz Pro |Cluj-Napoca|CJDTCBA21|30|CCC CAMEL FAM SL 2012|121|Retail|0
0|CS172155|2012-06-01 14:08:56|Wang|Siyuan||M|1984-05-28|Bucuresti|SECTOR 2|Simion busuioc|52|0|0|0|0|0788892666||frensch@163.com|DUNFCDB|KTBL|Bricheta Camel B-W|Yes|Yes||BW004415|ADIAZ PRO|Bucuresti|BWDTCBA19|30|CCC CAMEL FAM SL 2012|121|Retail|0
0|CS172294|2012-06-01 14:52:21|Buran|Cosmin||M|1982-07-03|Cluj|TURDA|22decembrie|50||||0|0753945980||smart.unit@yahoo.com|MBRGLFT||Bricheta Camel B-W|Yes|Yes||CJ001676|Adiaz Pro |Cluj-Napoca|CJDTCBA21|30|CCC CAMEL FAM SL 2012|121|Retail|0
0|CS172380|2012-06-01 15:14:07|Pirvan|Marius||M|1992-03-09|Bucuresti|SECTOR 4|Pictor stefan constantinescu|2d|0|0|1|14|0760062626||mariusalin@hotmail.com|MBRRD|KTH|Bricheta Camel Base|Yes|Yes||BW004415|ADIAZ PRO|Bucuresti|BWDTCBA19|30|CCC CAMEL FAM SL 2012|121|Retail|0
0|CS172542|2012-06-01 15:53:20|Pavel|Lucian||M|1987-01-06|Cluj|CLUJ NAPOCA|T.mihali|39||||40|0745329557||pavellucian@yahoo.com|KTSV||Bricheta Camel B-W|Yes|No||CJ001676|Adiaz Pro |Cluj-Napoca|CJDTCBA21|30|CCC CAMEL FAM SL 2012|121|Retail|0
0|CS172725|2012-06-01 16:25:44|Gaaloul |Mohamed||M|1989-06-14|Bucuresti|SECTOR 6|Independentei|114|13|1|1|114|0720899715||gaaloul.mohamed@ymail.com|KTBL|CABK|Bricheta Camel B-W|Yes|Yes||BW004415|ADIAZ PRO|Bucuresti|BWDTCBA19|30|CCC CAMEL FAM SL 2012|121|Retail|0
0|CS172901|2012-06-01 16:51:12|Soare|Ecaterina||F|1983-05-27|Bucuresti|SECTOR 4|Turnu magurele|13|S2|C|5|462|0747823988||catysoare@yahoo.com|DUNFCBK|KTBL|Bricheta Camel B-W|Yes|Yes||BW004415|ADIAZ PRO|Bucuresti|BWDTCBA19|30|CCC CAMEL FAM SL 2012|121|Retail|0
0|CS173069|2012-06-01 17:15:19|Constantin|Radu Mihai||M|1992-09-21|Mures|SIGHISOARA|Dumbravei|9|||3|12|0723338517||constantin.radu.mihai.21@gmail.com|KTBL|CABL|Bricheta Camel Base|Yes|Yes||BW004415|ADIAZ PRO|Bucuresti|BWDTCBA19|30|CCC CAMEL FAM SL 2012|121|Retail|0
0|CS173288|2012-06-01 17:43:23|Baducu|Nicolae||M|1987-09-12|Bucuresti|SECTOR 6|Sergent letea ghiorghe|1|C60|1|8|50|0734959909||baducu.nicolae@yahoo.com|PMBL|CABK|Bricheta Camel B-W|Yes|Yes||BW004415|ADIAZ PRO|Bucuresti|BWDTCBA19|30|CCC CAMEL FAM SL 2012|121|Retail|0
0|CS173474|2012-06-01 18:09:56|Ghioltan|Liviu||M|1979-08-30|Cluj|CLUJ NAPOCA|Dunarii |11|||0|0|0740183066||liviu_cristi@yahoo.com|KTBL||Bricheta Camel B-W|Yes|Yes||CJ001676|Adiaz Pro |Cluj-Napoca|CJDTCBA21|30|CCC CAMEL FAM SL 2012|121|Retail|0
0|CS173503|2012-06-01 18:14:48|Fodor|Zoltan||M|1988-08-23|Cluj|Cluj|Oasului|293|||0|6|0743109738||zoli_tza@yahoo.com|WIBL||Bricheta Camel B-W|Yes|Yes||CJ001676|Adiaz Pro |Cluj-Napoca|CJDTCBA21|30|CCC CAMEL FAM SL 2012|121|Retail|0
0|CS173597|2012-06-01 18:28:51|Dragus|Denisa||F|1985-11-10|Bucuresti|SECTOR 5|Nedeleanu ion|3|P39|1|2|7|0723773389||denisa.dragus@yahoo.com|KTBL|CABK|Bricheta Camel B-W|Yes|Yes||BW004415|ADIAZ PRO|Bucuresti|BWDTCBA19|30|CCC CAMEL FAM SL 2012|121|Retail|0
0|CS173629|2012-06-01 18:34:00|Dinca|Cristian||M|1974-03-02|Bucuresti|SECTOR 6|Rusetu|1|1|1|3|36|0722162617||dincacristian17@yahoo.com|MBRGLT||Bricheta Camel B-W|Yes|Yes||BW004415|ADIAZ PRO|Bucuresti|BWDTCBA19|30|CCC CAMEL FAM SL 2012|121|Retail|0
0|CS173719|2012-06-01 18:45:51|Brad|Florin Adrian||M|1991-03-30|Bucuresti|SECTOR 3|Patulului|8|4|2|0|56|0766582292||adoi_salajan@yahoo.com|CABK||Bricheta Camel B-W|Yes|Yes||BW004415|ADIAZ PRO|Bucuresti|BWDTCBA19|30|CCC CAMEL FAM SL 2012|121|Retail|0
0|CS173753|2012-06-01 18:52:26|Badalache|Razvan||M|1991-02-09|Bucuresti|SECTOR 4|Aleea slatioara|9|4|1|0|1|0760382746||razvy_tzuky@yahoo.com|KTBL||Bricheta Camel B-W|Yes|Yes||BW004415|ADIAZ PRO|Bucuresti|BWDTCBA19|30|CCC CAMEL FAM SL 2012|121|Retail|0
0|CS173813|2012-06-01 19:03:23|Barzu|Tudor||M|1989-01-20|Cluj|CLUJ NAPOCA|Plopilor|44|||0|1|0744232426||barzulici@yahoo.com|KTBL||Bricheta Camel B-W|Yes|Yes||CJ001676|Adiaz Pro |Cluj-Napoca|CJDTCBA21|30|CCC CAMEL FAM SL 2012|121|Retail|0
0|CS173820|2012-06-01 19:06:04|Hada|Raluca||F|1991-07-19|Cluj|CLUJ NAPOCA|Oltului|78|||0|7|0752567151||raluca_hada@yahoo.com|KTSV||Bricheta Camel Base|Yes|Yes||CJ001676|Adiaz Pro |Cluj-Napoca|CJDTCBA21|30|CCC CAMEL FAM SL 2012|121|Retail|0
0|CS173845|2012-06-01 19:10:40|Oltean|Laura||F|1986-08-08|Cluj|CLUJ NAPOCA|Iugoslaviei|5|||0|35|0744929492||lauraoltean08@yahoo.com|KTSV||Bricheta Camel B-W|Yes|Yes||CJ001676|Adiaz Pro |Cluj-Napoca|CJDTCBA21|30|CCC CAMEL FAM SL 2012|121|Retail|0
0|FS257512|2012-05-28 16:16:42||||F|||||||||||||GLMBL||||||||||30|CCC CAMEL FAM SL 2012|121|Retail|0
0|FS257867|2012-05-28 17:22:32||||F|||||||||||||VOGABP||||||||||30|CCC CAMEL FAM SL 2012|121|Retail|0
0|FS258049|2012-05-28 18:08:33||||M|||||||||||||DUNFCBK|CAFI|||||||||30|CCC CAMEL FAM SL 2012|121|Retail|0
0|FS259152|2012-05-29 13:40:55||||M|||||||||||||SOBBR||||||||||30|CCC CAMEL FAM SL 2012|121|Retail|0
0|FS259259|2012-05-29 14:18:28||||M|||||||||||||CAFI||||||||||30|CCC CAMEL FAM SL 2012|121|Retail|0
0|FS259389|2012-05-29 15:19:23||||M|||||||||||||KTBLH|WIBLH|||||||||30|CCC CAMEL FAM SL 2012|121|Retail|0
0|FS259715|2012-05-29 17:10:34||||M|||||||||||||SBKSBK||||||||||30|CCC CAMEL FAM SL 2012|121|Retail|0
0|FS259865|2012-05-29 18:03:58|||||||||||||||||KTWH||||||||||30|CCC CAMEL FAM SL 2012|121|Retail|0
0|FS260029|2012-05-29 19:08:24||||M|||||||||||||KTBL|CABK|||||||||30|CCC CAMEL FAM SL 2012|121|Retail|0
0|FS260981|2012-05-30 14:44:34||||M|||||||||||||KTCON|CABL|||||||||30|CCC CAMEL FAM SL 2012|121|Retail|0
0|FS261490|2012-05-30 17:21:05||||M|||||||||||||MBRRD||||||||||30|CCC CAMEL FAM SL 2012|121|Retail|0
0|FS263297|2012-06-01 12:28:37||||F|||||||||||||VOGJSN||||||||||30|CCC CAMEL FAM SL 2012|121|Retail|0
