0|CS3265203|2013-02-22 19:35:59|Mituletu|Daniel||M|1980-11-19|Bucuresti|SECTOR 2|Bodesti|2|29B|C||106|0786171425||studio_bex@yahoo.com|WISSS||1 Winston Super Slims Silver (3mg) Pack|Yes|Yes||BV004282|EURO XXL SRL|Brasov|BVHRKBA16|99|CCC HRK MULTI Iarna 2013|121|Horeca|0
0|CS3265251|2013-02-22 19:48:06|Onu|Alexandra||F|1990-02-05|Constanta|CONSTANTA|Principala|36|||0|0|0730627789||alexandra_onu05@yahoo.com|VIRSM||1 Glamour PB Menthol FT (5mg) Pack|Yes|Yes||BVR02270|MATTINO-CONSTRUCT SRL|Brasov|BVHRKBA20|99|CCC HRK MULTI Iarna 2013|121|Horeca|0
0|CS3265265|2013-02-22 19:51:12|George|Sandu||M|1990-03-29|Brasov|BRASOV|Str libertatii|14|||||0722344655||free_ssr@gmail.com|GLPBMNFT||1 Glamour PB Menthol FT (5mg) Pack|Yes|Yes||BVR02270|MATTINO-CONSTRUCT SRL|Brasov|BVHRKBA20|99|CCC HRK MULTI Iarna 2013|121|Horeca|0
0|CS3265266|2013-02-22 19:51:17|Mirescu|Ioana||F|1992-09-03|Constanta|CONSTANTA|Bucovinei|1e|||0|0|0720946384||ioana.mirescu@yahoo.com|DUNFCMBB||1 Sobranie SS Pink (3 mg) Pack|Yes|Yes||BVR02270|MATTINO-CONSTRUCT SRL|Brasov|BVHRKBA12|99|CCC HRK MULTI Iarna 2013|121|Horeca|0
0|CS3265267|2013-02-22 19:51:27|Galu|Vasilica||M|1968-02-14|Bucuresti|SECTOR 1|Pecetei|4a|4|5||189|0767721914|||WISSB||1 Winston Super Slims Blue (5mg) Pack|Yes|Yes||BVR02270|MATTINO-CONSTRUCT SRL|Brasov|BVHRKBA16|99|CCC HRK MULTI Iarna 2013|121|Horeca|0
0|CS3265273|2013-02-22 19:52:15|Baciu|Marian||M|1984-01-26|Bucuresti|SECTOR 4|Traian|23|4|||12|0756443778|||KTH||1 Winston 100s Clasic (10 mg)  Pack|Yes|No||BVR02270|MATTINO-CONSTRUCT SRL|Brasov|BVHRKBA13|99|CCC HRK MULTI Iarna 2013|121|Horeca|0
0|CS3265282|2013-02-22 19:54:00|Spataru|Dan||M|1983-09-21|Iasi|PAUN|-|-|||||0741743108||spataru.dan83@gmail.com|PMBL||1 Winston XStyle Blue (6mg) Pack|Yes|Yes||BVR02270|MATTINO-CONSTRUCT SRL|Brasov|BVHRKBA16|99|CCC HRK MULTI Iarna 2013|121|Horeca|0
0|CS3265285|2013-02-22 19:54:30|Nuc|Marcel||M|1977-09-05|Brasov|BRASOV|Paraului|20|5|B||7|0756387244||nucmarcel@yahoo.com|PMECBK||1 Winston 100s Clasic (10 mg)  Pack|Yes|No||BVR02270|MATTINO-CONSTRUCT SRL|Brasov|BVHRKBA12|99|CCC HRK MULTI Iarna 2013|121|Horeca|0
0|CS3265305|2013-02-22 19:57:38|Alexi|Georgian||M|1989-08-23|Ialomita|SLOBOZIA|Miron costin|21|||||0745029178|||CABL||1 Camel Blue (6 mg) Pack|Yes|Yes||BVR02270|MATTINO-CONSTRUCT SRL|Brasov|BVHRKBA13|99|CCC HRK MULTI Iarna 2013|121|Horeca|0
0|CS3265322|2013-02-22 19:59:46|Gherasim|Silviu||M|1983-05-29|Bucuresti|6|Miron|34|||||0756477879|||KTH||1 Winston 100s Clasic (10 mg)  Pack|Yes|No||BVR02270|MATTINO-CONSTRUCT SRL|Brasov|BVHRKBA13|99|CCC HRK MULTI Iarna 2013|121|Horeca|0
0|CS3265323|2013-02-22 19:59:50|Cata|Constantin||M|1982-07-05|Brasov|Predeal|Narciselor|0|10||0|0|0785392391|||SBKSBL||1 Sobranie KS Blue (6 mg) Pack|Yes|Yes||BVR02270|MATTINO-CONSTRUCT SRL|Brasov|BVHRKBA12|99|CCC HRK MULTI Iarna 2013|121|Horeca|0
0|CS3265331|2013-02-22 20:01:01|Fercu|Ionela||F|1970-05-12|Brasov|BRASOV|Stefan cel Mare|3|||||0723607367||ellafercu@yahoo.com|KTWH||1 Sobranie SS White (1 mg) Pack|Yes|Yes||BV006156|D  R COMPANY SRL|Brasov|BVHRKBA21|99|CCC HRK MULTI Iarna 2013|121|Horeca|0
0|CS3265332|2013-02-22 20:01:03|Paraschiv|Mihaela||F|1977-02-03|Buzau|Buzau|Unirii|0|22|A|5|13|0766264532|||KTNWH||1 Sobranie SS White (1 mg) Pack|Yes|Yes||BV006156|D  R COMPANY SRL|Brasov|BVHRKBA24|99|CCC HRK MULTI Iarna 2013|121|Horeca|0
0|CS3265337|2013-02-22 20:02:23|Ionescu|Ovidiu||M|1976-04-04|Bucuresti|SECTOR 3|Sighisoara|7|||||0725450045||ovidiu@gmail.com|MBRGLT||1 Winston XStyle Blue (6mg) Pack|Yes|No||BV006156|D  R COMPANY SRL|Brasov|BVHRKBA17|99|CCC HRK MULTI Iarna 2013|121|Horeca|0
0|CS3265345|2013-02-22 20:04:22|Anghel|Ionela||F|1979-05-23|Brasov|Predeal|Poiana narciselor|0|9||0|0|0766449855|||WIBLH||1 Winston 100s Blue (6 mg)  Pack|Yes|Yes||BVR02270|MATTINO-CONSTRUCT SRL|Brasov|BVHRKBA13|99|CCC HRK MULTI Iarna 2013|121|Horeca|0
0|CS3265351|2013-02-22 20:05:11|Ghiz|Vasile||M|1981-10-24|Brasov|BRASOV|Grivitei|4|||||0722438996||vasyvasy@yahoo.com|WICLH||1 Winston 100s Clasic (10 mg)  Pack|Yes|No||BVR02270|MATTINO-CONSTRUCT SRL|Brasov|BVHRKBA20|99|CCC HRK MULTI Iarna 2013|121|Horeca|0
0|CS3265353|2013-02-22 20:05:37|Dascalu|Silviu||M|1981-12-07|Bucuresti|SECTOR 4|Carausi|7d|7|3||86|0759331849||dascalu_silviu@gmail.com|PMECBK||1 Winston 100s Clasic (10 mg)  Pack|Yes|No||BVR02270|MATTINO-CONSTRUCT SRL|Brasov|BVHRKBA16|99|CCC HRK MULTI Iarna 2013|121|Horeca|0
0|CS3265403|2013-02-22 20:18:01|Pacureanu|Ioana||F|1984-10-26|Brasov|BRASOV|Valea Cetatii|2|||||0740725556||pacureanuioana@yahoo.com|PARRSSH||1 Sobranie SS Black (6 mg) Pack|Yes|No||BV001637|SC Comacri Expert SRL|Brasov|BVHRKBA20|99|CCC HRK MULTI Iarna 2013|121|Horeca|0
0|CS3265404|2013-02-22 20:18:02|Leca|Ana-Maria||F|1992-08-08|Constanta|CONSTANTA|Valea cartalan|24|Bc4|E||93|0723582558||leca.anamaria@yahoo.com|DUNFCBB||1 Sobranie KS Gold (4 mg) Pack|Yes|Yes||BV001637|SC Comacri Expert SRL|Brasov|BVHRKBA12|99|CCC HRK MULTI Iarna 2013|121|Horeca|0
0|CS3265410|2013-02-22 20:19:22|Dascal|Rares||M|1983-03-28|Brasov|PREDEAL|Florilor|36||||7|0756477896||dascal.rares@gmail.com|KTBL||1 Camel Black (6 mg) Pack|Yes|No||BV001637|SC Comacri Expert SRL|Brasov|BVHRKBA13|99|CCC HRK MULTI Iarna 2013|121|Horeca|0
0|CS3265420|2013-02-22 20:21:03|Costeniuc|Ioan||M|1982-10-28|Brasov|PREDEAL|Eroilor|6|||||0744555323|||KTBL||1 Camel Black (6 mg) Pack|Yes|No||BV001637|SC Comacri Expert SRL|Brasov|BVHRKBA20|99|CCC HRK MULTI Iarna 2013|121|Horeca|0
0|CS3265422|2013-02-22 20:21:23|Tiganus|Maria||F|1984-03-07|Bucuresti|SECTOR 2|Splaiului|12|4|C||43|0734119201||tiganus_maria_123@yahoo.com|KTBL||1 Camel Black (6 mg) Pack|Yes|No||BV001637|SC Comacri Expert SRL|Brasov|BVHRKBA16|99|CCC HRK MULTI Iarna 2013|121|Horeca|0
0|CS3265424|2013-02-22 20:21:37|Mocanu|George||M|1981-05-25|Bucuresti|3|Independentei|39|||||0745773558|||MBRFP||1 Camel Black (6 mg) Pack|Yes|No||BV001637|SC Comacri Expert SRL|Brasov|BVHRKBA13|99|CCC HRK MULTI Iarna 2013|121|Horeca|0
0|CS3265428|2013-02-22 20:23:41|Bucur|Alexandru||M|1984-06-14|Bucuresti|SECTOR 1|Grigore constantin|12|||||0731991032|||KTBL6||1 Camel Black (6 mg) Pack|Yes|No||BV001637|SC Comacri Expert SRL|Brasov|BVHRKBA16|99|CCC HRK MULTI Iarna 2013|121|Horeca|0
0|CS3265468|2013-02-22 20:33:14|Munteanu|Florin||M|1988-09-26|Sibiu|SIBIU|Wewern|40a|||||0744331789|||KTNBK||1 Winston XStyle Silver (4mg) Pack|Yes|Yes||BV001033|OLIN FOODS SRL|Brasov|BVHRKBA23|99|CCC HRK MULTI Iarna 2013|121|Horeca|0
0|CS3265473|2013-02-22 20:34:46|Musunoiu|Sonia||F|1980-02-22|Brasov|Brasov|Dobrogeanu gherea|23a|||||0049179760||sonia.musunoiu@gmail.com|SBSSPK||1 Sobranie SS Pink (3 mg) Pack|Yes|Yes||BV001033|OLIN FOODS SRL|Brasov|BVHRKBA24|99|CCC HRK MULTI Iarna 2013|121|Horeca|0
0|CS3265506|2013-02-22 20:47:19|Barbulescu|Eva||F|1975-12-18|Brasov|BRASOV|Stefan cel mare|3|||||0744213261||evadp75@yahoo.com|LMRD||1 Camel Filters (10mg) Pack|Yes|Yes||BV001033|OLIN FOODS SRL|Brasov|BVHRKBA21|99|CCC HRK MULTI Iarna 2013|121|Horeca|0
0|CS3265519|2013-02-22 20:50:52|Dinu|Bogdan||M|1984-05-15|Bucuresti|SECTOR 6|Ceahlau|7|||||0740242359||bogdan_him@yahoo.com|KTBL||1 Camel Black (6 mg) Pack|Yes|Yes||BV001033|OLIN FOODS SRL|Brasov|BVHRKBA17|99|CCC HRK MULTI Iarna 2013|121|Horeca|0
0|CS3265536|2013-02-22 20:56:11|Mark|Flavius||M|1985-10-25|Brasov|BRASOV|Mijloc|23|||0|0|0733077770|||WIXSTFX||1 Winston Fresh XSpression (5mg) Pack|Yes|No||BV001033|OLIN FOODS SRL|Brasov|BVHRKBA23|99|CCC HRK MULTI Iarna 2013|121|Horeca|0
0|CS3265539|2013-02-22 20:57:43|Andone|Paul||M|1985-05-11|Brasov|BRASOV|Valea cetatii|6|||||0740395435|||WIXSTFX||1 Winston Fresh XSpression (5mg) Pack|Yes|No||BV001033|OLIN FOODS SRL|Brasov|BVHRKBA23|99|CCC HRK MULTI Iarna 2013|121|Horeca|0
0|CS3265601|2013-02-22 21:15:11|Popescu|Cristian||M|1993-12-05|Arges|PITESTI|Constructorilor|4|||||0720101013||cristi.popescu@rocketmail.com|DUNFCMBB||1 Sobranie KS Blue (6 mg) Pack|Yes|Yes||BV006143|CASA ROMA SRL 2|Brasov|BVHRKBA17|99|CCC HRK MULTI Iarna 2013|121|Horeca|0
0|CS3265608|2013-02-22 21:18:13|Cristea|Gabriela||F|1969-04-18|Brasov|BRASOV|General mociulski|22|22||0|55|0729182702|||WIBLH||1 Winston 100s Blue (6 mg)  Pack|Yes|Yes||BV006143|CASA ROMA SRL 2|Brasov|BVHRKBA24|99|CCC HRK MULTI Iarna 2013|121|Horeca|0
0|CS3265609|2013-02-22 21:18:19|Clopataru|Elena||F|1955-04-28|Brasov|BRASOV|Republicii|14|||||0727353281|||PMECBL||1 Winston Blue (6mg) Pack|Yes|Yes||BV006143|CASA ROMA SRL 2|Brasov|BVHRKBA21|99|CCC HRK MULTI Iarna 2013|121|Horeca|0
0|CS3265613|2013-02-22 21:19:36|Gules|Gabriela||F|1975-10-21|Brasov|BRASOV|Hortensiei|39|||0|0|0762972752|||WIBLH||1 Winston 100s Blue (6 mg)  Pack|Yes|Yes||BV006143|CASA ROMA SRL 2|Brasov|BVHRKBA24|99|CCC HRK MULTI Iarna 2013|121|Horeca|0
0|CS3265617|2013-02-22 21:21:31|Serban|Adina||F|1989-03-02|Brasov|BRASOV|Barbu lautaru|2|2|A|0|22|0747393896||pamella_17lfm@yahoo.com|GLMBL||1 Glamour Azure (3mg) Pack|Yes|Yes||BV006143|CASA ROMA SRL 2|Brasov|BVHRKBA21|99|CCC HRK MULTI Iarna 2013|121|Horeca|0
0|CS3265618|2013-02-22 21:21:33|Sacrieriu|Loredana||F|1990-07-27|Brasov|BRASOV|Mociulschi|30|||||0748931960|||SBKSBL||1 Sobranie KS Blue (6 mg) Pack|Yes|No||BV006143|CASA ROMA SRL 2|Brasov|BVHRKBA23|99|CCC HRK MULTI Iarna 2013|121|Horeca|0
0|CS3265622|2013-02-22 21:22:48|Matei|Andrei||M|1977-09-13|Brasov|BRASOV|Popa Tatu|14|||||0722387443|||CAFI||1 Camel Filters (10mg) Pack|Yes|Yes||PH001375|VILAMONT (TAVERNA SARBULUI)|Brasov|BVHRKBA20|99|CCC HRK MULTI Iarna 2013|121|Horeca|0
0|CS3265625|2013-02-22 21:23:45|Chelban a|Adina||F|1990-02-24|Brasov|BRASOV|Castelului|92|||0|2|0755562092||zuza_dragutza@yahoo.com|SBKSBL||1 Sobranie KS Blue (6 mg) Pack|Yes|No||BV006143|CASA ROMA SRL 2|Brasov|BVHRKBA17|99|CCC HRK MULTI Iarna 2013|121|Horeca|0
0|CS3265628|2013-02-22 21:24:30|Dragnea|Marian||M|1980-06-05|Prahova|Sinaia|Scropoasa|4|-|-|0|0|0722553658||dragneamarian@yahoo.com|WICL||1 Winston Classic Pack|Yes|Yes||PH001375|VILAMONT (TAVERNA SARBULUI)|Brasov|BVHRKBA13|99|CCC HRK MULTI Iarna 2013|121|Horeca|0
0|CS3265633|2013-02-22 21:25:42|Socarici|Iulia||F|1988-01-17|Prahova|SINAIA|Independentei|15|||||0754786345||socarici.iulia@yahoo.com|KTSWIT||1 Winston Fresh XSpression (5mg) Pack|Yes|No||PH001375|VILAMONT (TAVERNA SARBULUI)|Brasov|BVHRKBA12|99|CCC HRK MULTI Iarna 2013|121|Horeca|0
0|CS3265636|2013-02-22 21:26:46|Covacs|Timeea||F|1991-06-09|Prahova|SICRITA|-|-|||||0748221940|||VIRSPR||1 Sobranie SS Black (6 mg) Pack|Yes|No||PH001375|VILAMONT (TAVERNA SARBULUI)|Brasov|BVHRKBA16|99|CCC HRK MULTI Iarna 2013|121|Horeca|0
0|CS3265643|2013-02-22 21:29:08|Sava|Ilie||M|1978-03-07|Bucuresti|SECTOR 3|Stefan cel mare|15|||||0722514247|||LSBL||1 Winston Blue (6mg) Pack|Yes|Yes||PH001375|VILAMONT (TAVERNA SARBULUI)|Brasov|BVHRKBA20|99|CCC HRK MULTI Iarna 2013|121|Horeca|0
0|CS3265660|2013-02-22 21:35:09|Radu|Andreea||F|1988-09-24|Bucuresti|SECTOR 5|Grivitei|45|||||0767453320|||VOGBL||1 Sobranie SS Black (6 mg) Pack|Yes|No||PH001375|VILAMONT (TAVERNA SARBULUI)|Brasov|BVHRKBA13|99|CCC HRK MULTI Iarna 2013|121|Horeca|0
0|CS3265662|2013-02-22 21:35:29|Stauceanu|Paula||F|1988-02-04|Bucuresti|Bucuresti|Militari|2|||||0723116552||stauceanupaula@yahoo.com|VIRSPR||1 Glamour Lilac (5mg) Pack|Yes|No||PH001375|VILAMONT (TAVERNA SARBULUI)|Brasov|BVHRKBA20|99|CCC HRK MULTI Iarna 2013|121|Horeca|0
0|CS3265707|2013-02-22 21:49:21|Pinta|Roxana||F|1987-07-08|Prahova|COMARNIC|Poisna|417|-|-|0|0|0720377176||pitica_eco@yahoo.com|WIXSTFX||1 Winston Fresh XSpression (5mg) Pack|Yes|Yes||PH001375|VILAMONT (TAVERNA SARBULUI)|Brasov|BVHRKBA12|99|CCC HRK MULTI Iarna 2013|121|Horeca|0
0|CS3265740|2013-02-22 21:59:25|Moldovan-peligrad|Alin||M|1990-06-20|Brasov|Brasov|Gradinarilor|2|||||0722136201||butybei@gmail.com|DUNFCMBB||1 Sobranie KS Blue (6 mg) Pack|Yes|Yes||BV001858|Tircolea Zamfira Mariana I.I.|Brasov|BVHRKBA24|99|CCC HRK MULTI Iarna 2013|121|Horeca|0
0|CS3265750|2013-02-22 22:01:12|Croitoru|Dragos||M|1990-12-17|Brasov|BRASOV|Muresenilor|1|||||0756536446||croitoru_dragos2000@yahoo.com|DUNFCSB||1 Sobranie KS Black (8 mg) Pack|Yes|Yes||BV001858|Tircolea Zamfira Mariana I.I.|Brasov|BVHRKBA23|99|CCC HRK MULTI Iarna 2013|121|Horeca|0
0|CS3265759|2013-02-22 22:03:17|Aldea|Oana||F|1984-03-31|Brasov|BRASOV|Soarelui|8|||||0768450323||oanapagu@yahoo.com|SBKSBK||1 Sobranie KS Black (8 mg) Pack|Yes|Yes||BV001858|Tircolea Zamfira Mariana I.I.|Brasov|BVHRKBA23|99|CCC HRK MULTI Iarna 2013|121|Horeca|0
0|CS3265763|2013-02-22 22:04:11|Costea|Ofelia||F|1986-11-10|Brasov|BRASOV|Gnral Mociulschi|28|15|0|4|34|0728011034||costea.ofelia@yahoo.com|PMSSGR||1 Winston Super Slims Menthol (5mg) Pack|Yes|No||BV001858|Tircolea Zamfira Mariana I.I.|Brasov|BVHRKBA17|99|CCC HRK MULTI Iarna 2013|121|Horeca|0
0|CS3265770|2013-02-22 22:07:15|Bocioroaga|Laura||F|1988-04-04|Brasov|BRASOV|Stefan cel mare|18|||||0728945054||laura.bocioroaga@gmail.com|KTSWIT||1 Winston Fresh XSpression (5mg) Pack|Yes|Yes||BV001858|Tircolea Zamfira Mariana I.I.|Brasov|BVHRKBA23|99|CCC HRK MULTI Iarna 2013|121|Horeca|0
0|CS3265772|2013-02-22 22:08:58|Barbu|Raluca||F|1988-11-28|Bucuresti|SECTOR 4|Nicolae balcescu|56|C12|B|1|123|0720788900|||VIRSPR||1 Glamour Lilac (5mg) Pack|Yes|No||PH005085|SC Irish Resort SRL|Brasov|BVHRKBA13|99|CCC HRK MULTI Iarna 2013|121|Horeca|0
0|CS3265773|2013-02-22 22:09:47|Roba|Irina||F|1981-05-22|Sibiu|MEDIAS|Stefan R|24|||||0749331021|||VIRSM||1 Glamour Menthol (5mg) Pack|Yes|Yes||PH005085|SC Irish Resort SRL|Brasov|BVHRKBA20|99|CCC HRK MULTI Iarna 2013|121|Horeca|0
0|CS3265775|2013-02-22 22:10:03|Pavel|Ramona||F|1971-07-09|Brasov|PREDEAL|Eroilor|54|||||0723655987||pavelramonik@yahoo.com|DAVGLS||1 Sobranie SS Black (6 mg) Pack|Yes|No||PH005085|SC Irish Resort SRL|Brasov|BVHRKBA12|99|CCC HRK MULTI Iarna 2013|121|Horeca|0
0|CS3265776|2013-02-22 22:10:15|Titei|Bogdan||M|1987-11-13|Brasov|BRASOV|Mestecanis|2|48|E|6|26|0742450083||bogdan_elnino@yahoo.com|SBKSGD||1 Sobranie KS Gold (4 mg) Pack|Yes|Yes||BV001858|Tircolea Zamfira Mariana I.I.|Brasov|BVHRKBA21|99|CCC HRK MULTI Iarna 2013|121|Horeca|0
0|CS3265778|2013-02-22 22:10:33|Grecu|Iulian||M|1968-01-01|Vaslui|BARLAD|Revolutiei|8|||||0744810207||iulygrecu@yahoo.com|WISSB||1 Winston Super Slims Blue (5mg) Pack|Yes|Yes||PH005085|SC Irish Resort SRL|Brasov|BVHRKBA16|99|CCC HRK MULTI Iarna 2013|121|Horeca|0
0|CS3265783|2013-02-22 22:12:35|Negrut|Mihaela||F|1979-08-21|Bucuresti|SECTOR 3|Independetei|12|5|C||4|0766439887||negrutymiha@yahoo.com|KTSWIT||1 Winston Fresh XSpression (5mg) Pack|Yes|No||PH005085|SC Irish Resort SRL|Brasov|BVHRKBA12|99|CCC HRK MULTI Iarna 2013|121|Horeca|0
0|CS3265806|2013-02-22 22:23:03|Tudorache|Marian||M|1988-04-09|Bucuresti|SECTOR 4|General mochulskchi|67|||||0756345889|||KTBL||1 Camel Black (6 mg) Pack|Yes|No||PH005085|SC Irish Resort SRL|Brasov|BVHRKBA13|99|CCC HRK MULTI Iarna 2013|121|Horeca|0
0|CS3265807|2013-02-22 22:23:41|Baciu|Andreea||F|1989-04-06|Brasov|BRASOV|Aleea Mercur|9|||||0744441121||andreea1998@yahoo.com|KTSWIT||1 Winston Fresh XSpression (5mg) Pack|Yes|No||PH005085|SC Irish Resort SRL|Brasov|BVHRKBA20|99|CCC HRK MULTI Iarna 2013|121|Horeca|0
0|CS3265808|2013-02-22 22:23:44|Doaga|Mariana||F|1989-09-23|Prahova|SINAIA|Calea ferata|1|||||0741979441|||WISSS||1 Winston Super Slims Silver (3mg) Pack|Yes|No||PH005085|SC Irish Resort SRL|Brasov|BVHRKBA16|99|CCC HRK MULTI Iarna 2013|121|Horeca|0
0|CS3265823|2013-02-22 22:28:58|Coacaza|Mihai||M|1981-07-06|Bacau|BACAU|Cocorului|1|||||0743993278|||PMBL||1 Winston Blue (6mg) Pack|Yes|No||PH005085|SC Irish Resort SRL|Brasov|BVHRKBA16|99|CCC HRK MULTI Iarna 2013|121|Horeca|0
0|CS3265827|2013-02-22 22:30:18|Iordache|Irina||F|1989-02-17|Brasov|BRASOV|Molidului|5|12|B|2|13|0723380120|||DUNFCMBB||1 Sobranie KS Blue (6 mg) Pack|Yes|No||BV001017|CASA ROMA SRL DA VINCI|Brasov|BVHRKBA21|99|CCC HRK MULTI Iarna 2013|121|Horeca|0
0|CS3265854|2013-02-22 22:43:21|Andronic|Cristian||M|1988-02-11|Brasov|BRASOV|Dimitrie anghel|15||E|0|13|0749334614||papycry@yahoo.com|MBRFP||1 Camel Black (6 mg) Pack|Yes|No||PH001373|OLD NICK BAR CAFFE CAFENEA (CAFENEAUA PARCULUI)|Brasov|BVHRKBA16|99|CCC HRK MULTI Iarna 2013|121|Horeca|0
0|CS3265861|2013-02-22 22:44:11|Ilie|Lucian||M|1986-10-01|Brasov|PREDEAL|Branduselor|34|||||0756449776|||KTSWIT||1 Winston Fresh XSpression (5mg) Pack|Yes|No||PH001373|OLD NICK BAR CAFFE CAFENEA (CAFENEAUA PARCULUI)|Brasov|BVHRKBA13|99|CCC HRK MULTI Iarna 2013|121|Horeca|0
0|CS3265864|2013-02-22 22:44:51|Purda|Monica||F|1991-02-28|Bucuresti|SECTOR 6|Grintiesului|3|P32|5|3|81|0761858553||purda.monica@yahoo.com|WIXSTBL||1 Winston XStyle Blue (6mg) Pack|Yes|Yes||PH001373|OLD NICK BAR CAFFE CAFENEA (CAFENEAUA PARCULUI)|Brasov|BVHRKBA12|99|CCC HRK MULTI Iarna 2013|121|Horeca|0
0|CS3265865|2013-02-22 22:44:51|Harris|Claudia||F|1976-10-20|Brasov|PREDEAL|Soimului|9|||||0722203464|||WIBL||1 Winston Blue (6mg) Pack|Yes|Yes||PH001373|OLD NICK BAR CAFFE CAFENEA (CAFENEAUA PARCULUI)|Brasov|BVHRKBA20|99|CCC HRK MULTI Iarna 2013|121|Horeca|0
0|CS3265866|2013-02-22 22:44:57|Barlan|Monica maria||F|1968-06-16|Brasov|BRASOV|Nicolae balcescu|16|||0|0|0727773277|||WIBLH||1 Winston 100s Blue (6 mg)  Pack|Yes|Yes||BV001017|CASA ROMA SRL DA VINCI|Brasov|BVHRKBA24|99|CCC HRK MULTI Iarna 2013|121|Horeca|0
0|CS3265875|2013-02-22 22:46:27|Elekes|Raluca Elena||F|1980-01-31|Brasov|BRASOV|Muresenilor|7|0|0|2|10|0745295459||elekesraluca@yahoo.com|WIBLH||1 Winston 100s Blue (6 mg)  Pack|Yes|Yes||BV001017|CASA ROMA SRL DA VINCI|Brasov|BVHRKBA17|99|CCC HRK MULTI Iarna 2013|121|Horeca|0
0|CS3265876|2013-02-22 22:46:29|Radulescu|Georgeta||F|1972-10-10|Brasov|BRASOV|Socului|4|10|A|2|10|0768008072|||WIBLH||1 Winston 100s Blue (6 mg)  Pack|Yes|No||BV001017|CASA ROMA SRL DA VINCI|Brasov|BVHRKBA21|99|CCC HRK MULTI Iarna 2013|121|Horeca|0
0|CS3265877|2013-02-22 22:46:38|Goidea|Cristian||M|1977-09-26|Constanta|Constanta|Eroilor|50|22|A|0|16|0722514244||cri_50@yahoo.com|VIRSM||1 Glamour Menthol (5mg) Pack|Yes|Yes||PH001373|OLD NICK BAR CAFFE CAFENEA (CAFENEAUA PARCULUI)|Brasov|BVHRKBA20|99|CCC HRK MULTI Iarna 2013|121|Horeca|0
0|CS3265878|2013-02-22 22:46:46|Nisipeanu|Maria||F|1977-01-24|Brasov|Brasov|Vasile Alexandru|35|C1d|B|1|8|0770534273|||WIBLH||1 Winston 100s Blue (6 mg)  Pack|Yes|Yes||BV001017|CASA ROMA SRL DA VINCI|Brasov|BVHRKBA24|99|CCC HRK MULTI Iarna 2013|121|Horeca|0
0|CS3265883|2013-02-22 22:47:14|Kelemen|Andreea||F|1990-05-27|Brasov|SACELE|Aleea episcop popeea|12|3||0|400|0749174161||deea_bv_sunshine@yahoo.com|VIRSPR||1 Glamour Lilac (5mg) Pack|Yes|No||PH001373|OLD NICK BAR CAFFE CAFENEA (CAFENEAUA PARCULUI)|Brasov|BVHRKBA16|99|CCC HRK MULTI Iarna 2013|121|Horeca|0
0|CS3265884|2013-02-22 22:47:30|Ionita|Marius||M|1981-04-11|Bucuresti|SECTOR 5|Mihai viteazu|14|7|A||7|0721879554||ipnita.marius@yahoo.com|PMBL||1 Winston Blue (6mg) Pack|Yes|No||PH001373|OLD NICK BAR CAFFE CAFENEA (CAFENEAUA PARCULUI)|Brasov|BVHRKBA12|99|CCC HRK MULTI Iarna 2013|121|Horeca|0
0|CS3265889|2013-02-22 22:48:48|Veber|Maria||F|1974-03-13|Brasov|BRASOV|Avram Iancu|54|||||0741752495|||WIBLH||1 Winston 100s Blue (6 mg)  Pack|Yes|No||BV001017|CASA ROMA SRL DA VINCI|Brasov|BVHRKBA17|99|CCC HRK MULTI Iarna 2013|121|Horeca|0
0|CS3265894|2013-02-22 22:51:36|Toma|Dorin||M|1970-10-31|Brasov|BRASOV|Aleea-violetelor|2|60|C|2|12|0741187304|||SBKSBK||1 Sobranie KS Black (8 mg) Pack|Yes|No||BV001017|CASA ROMA SRL DA VINCI|Brasov|BVHRKBA23|99|CCC HRK MULTI Iarna 2013|121|Horeca|0
0|CS3265904|2013-02-22 22:53:49|Susma|Alexandra||F|1988-04-03|Bucuresti|Bucuresti|Gheorghe Asachi|1|||||0721636114|||VIRSV||1 Glamour Azure (3mg) Pack|Yes|No||PH001373|OLD NICK BAR CAFFE CAFENEA (CAFENEAUA PARCULUI)|Brasov|BVHRKBA20|99|CCC HRK MULTI Iarna 2013|121|Horeca|0
0|CS3265925|2013-02-22 22:59:50|Untaru|Gabriela||F|1987-12-04|Prahova|SINAIA|Paraul rece|56|||||0756349788||gabi.untaru@gmail.com|KTBL||1 Camel Black (6 mg) Pack|Yes|No||PH001373|OLD NICK BAR CAFFE CAFENEA (CAFENEAUA PARCULUI)|Brasov|BVHRKBA13|99|CCC HRK MULTI Iarna 2013|121|Horeca|0
0|CS3265929|2013-02-22 23:01:46|Apreotesei|Laura||F|1989-04-04|Brasov|PREDEAL|Rozelor|14|||||0744555112||laura442@yahoo.com|KTSV||1 Winston XStyle Silver (4mg) Pack|Yes|No||PH001373|OLD NICK BAR CAFFE CAFENEA (CAFENEAUA PARCULUI)|Brasov|BVHRKBA20|99|CCC HRK MULTI Iarna 2013|121|Horeca|0
0|CS3265931|2013-02-22 23:02:26|Porpoaca|Dan||M|1988-02-13|Brasov|SACELE|Timis|7|||||0721546778||porpoacadanut@yahoo.com|KTSWIT||1 Winston Fresh XSpression (5mg) Pack|Yes|No||PH001373|OLD NICK BAR CAFFE CAFENEA (CAFENEAUA PARCULUI)|Brasov|BVHRKBA12|99|CCC HRK MULTI Iarna 2013|121|Horeca|0
0|CS3265940|2013-02-22 23:04:33|Benedek|Istvan||M|1983-05-14|Brasov|SACELE|Alexandru ion lapedatu|30|||||0724286974|||WISV||1 Winston Silver (4 mg) Pack|Yes|Yes||BV001173|ALDAR REZIDENTIAL SRL|Brasov|BVHRKBA23|99|CCC HRK MULTI Iarna 2013|121|Horeca|0
0|CS3265957|2013-02-22 23:11:51|Moise|Ioana madalina||F|1994-07-13|Prahova|SINAIA|Calea moroeni|33b|||||0720617952||zuzu_9413@yahoo.com|WIBL||1 Winston Blue (6mg) Pack|Yes|Yes||PH001373|OLD NICK BAR CAFFE CAFENEA (CAFENEAUA PARCULUI)|Brasov|BVHRKBA20|99|CCC HRK MULTI Iarna 2013|121|Horeca|0
0|CS3265961|2013-02-22 23:12:50|Potroanchenu|Ancuta||F|1986-12-24|Prahova|SINAIA|Secariei|127|-|-|0|0|0726370744||ancutaedi@yahoo.com|DUNFCBB||1 Sobranie KS Gold (4 mg) Pack|Yes|Yes||PH001373|OLD NICK BAR CAFFE CAFENEA (CAFENEAUA PARCULUI)|Brasov|BVHRKBA12|99|CCC HRK MULTI Iarna 2013|121|Horeca|0
0|CS3265969|2013-02-22 23:15:28|Moraru|Anca||F|1984-10-22|Prahova|Sinaia|Sranjeneilor|7|||||0723947990||moraru.alexandra@yahoo.com|DUNFCSB||1 Sobranie KS Black (8 mg) Pack|Yes|Yes||BV001173|ALDAR REZIDENTIAL SRL|Brasov|BVHRKBA24|99|CCC HRK MULTI Iarna 2013|121|Horeca|0
0|CS3265974|2013-02-22 23:17:27|Gubernat|Alexandru||M|1983-08-20|Brasov|Sacele|Viitorului|40|||||0724151509||alexandru.gubernat@gmail.com|SBKSBK||1 Sobranie KS Black (8 mg) Pack|Yes|No||BV001173|ALDAR REZIDENTIAL SRL|Brasov|BVHRKBA17|99|CCC HRK MULTI Iarna 2013|121|Horeca|0
0|CS3265975|2013-02-22 23:18:11|Marin|Madalin||M|1980-03-09|Brasov|BRASOV|Bobului|1|||||0723722634|||WISSS||1 Winston Super Slims Silver (3mg) Pack|Yes|No||BV001173|ALDAR REZIDENTIAL SRL|Brasov|BVHRKBA21|99|CCC HRK MULTI Iarna 2013|121|Horeca|0
0|CS3265976|2013-02-22 23:20:37|Prodan|Adrian||M|1987-11-03|Brasov|BRASOV|Emil Racovita|9|31||10|43|0755561136||bunicutzu2003@yahoo.com|KTH||1 Winston 100s Blue (6 mg)  Pack|Yes|Yes||BV001173|ALDAR REZIDENTIAL SRL|Brasov|BVHRKBA21|99|CCC HRK MULTI Iarna 2013|121|Horeca|0
0|CS3266050|2013-02-22 23:52:44|Dragan|Alin||M|1989-09-28|Prahova|SINAIA|Branduselor|5|10|A|1|6|0733749975||dragansinaia@yahoo.com|SBKSGD||1 Sobranie KS Gold (4 mg) Pack|Yes|Yes||PH004807|SC Old Nick Pub SRL|Brasov|BVHRKBA20|99|CCC HRK MULTI Iarna 2013|121|Horeca|0
0|CS3266051|2013-02-22 23:53:23|Adam|Elena Daniela||F|1983-06-07|Timis|TIMISOARA|Rotunda|26|||||0721273999||dana_adam83@yahoo.com|PMBL||1 Winston XStyle Blue (6mg) Pack|Yes|Yes||PH004807|SC Old Nick Pub SRL|Brasov|BVHRKBA16|99|CCC HRK MULTI Iarna 2013|121|Horeca|0
0|CS3266052|2013-02-22 23:55:23|Dumitru|Dopira||M|1983-08-05|Chisinau|Chisinau|Albisoara|76-1|1|D||68|0782990330|||LMBL||1 Winston XStyle Blue (6mg) Pack|Yes|Yes||PH004807|SC Old Nick Pub SRL|Brasov|BVHRKBA12|99|CCC HRK MULTI Iarna 2013|121|Horeca|0
0|CS3266053|2013-02-22 23:56:33|Buhna|Andrei||M|1985-10-01|Chisinau|Chisinau|Alba Iulia|86/2||||76|0764389543|||PMBL||1 Winston XStyle Blue (6mg) Pack|Yes|No||PH004807|SC Old Nick Pub SRL|Brasov|BVHRKBA16|99|CCC HRK MULTI Iarna 2013|121|Horeca|0
0|CS3266062|2013-02-23 00:00:31|Dolghier|Ion||M|1988-08-10|Chisinau|Chisinau|Alba iulia|4|2|2||40||0604107040|ion_dolghier@yahoo.com|LMSV||1 Winston XStyle Silver (4mg) Pack|Yes|Yes||PH004807|SC Old Nick Pub SRL|Brasov|BVHRKBA12|99|CCC HRK MULTI Iarna 2013|121|Horeca|0
0|CS3266074|2013-02-23 00:04:39|Zidaroiu|Ruxandra||F|1985-08-31|Bucuresti|SECTOR 4|Gradistea|11|B3|1||19|0727338119||cerculetz31@yahoo.com|MBRGL||1 Winston XStyle Silver (4mg) Pack|Yes|Yes||PH004807|SC Old Nick Pub SRL|Brasov|BVHRKBA12|99|CCC HRK MULTI Iarna 2013|121|Horeca|0
0|CS3266091|2013-02-23 00:08:52|Iancu|Alexandra||F|1987-09-01|Prahova|SINAIA|Bdl ferdinand|2|||4|22|0727213367||aly_sinaia@yahoo.com|WIXSTFX||1 Winston Fresh XSpression (5mg) Pack|Yes|Yes||PH004807|SC Old Nick Pub SRL|Brasov|BVHRKBA13|99|CCC HRK MULTI Iarna 2013|121|Horeca|0
0|CS3266098|2013-02-23 00:11:25|Coman|Ana Maria||F|1984-03-04|Prahova|PLOIESTI|Petrochimistilor|4|53|B|3|75|0732984847||ana_coman84@yahoo.com|KTBL||1 Camel Black (6 mg) Pack|Yes|Yes||PH004807|SC Old Nick Pub SRL|Brasov|BVHRKBA13|99|CCC HRK MULTI Iarna 2013|121|Horeca|0
0|CS3266128|2013-02-23 00:21:58|Nicolae|Eduard||M|1991-05-17|Prahova|SINAIA|Stanjeneilor|6|1|D|0|7|0726750027||n.edyy@yahoo.com|SBKSBL||0 Sobranie KS Blue (6 mg) Pack|Yes|Yes||PH001430|OLD NICK BAR CAFFE PUB|Brasov|BVHRKBA20|99|CCC HRK MULTI Iarna 2013|121|Horeca|0
0|CS3266129|2013-02-23 00:22:05|Badila|Lucian||M|1992-09-01|Prahova|SINAIA|Calea moroieni|23|23||0|0|0758302118||badila.lucian@gmail.com|DUNFCMBB||0 Sobranie KS Blue (6 mg) Pack|Yes|Yes||PH001430|OLD NICK BAR CAFFE PUB|Brasov|BVHRKBA16|99|CCC HRK MULTI Iarna 2013|121|Horeca|0
0|CS3266130|2013-02-23 00:22:10|Codreanu|Horia||M|1977-02-07|Prahova|Sinaia|Victoriei|19|||0|0|0722202607||dj_horia@yahoo.com|CAWH||0 Camel White (1 mg) Pack|Yes|Yes||PH001430|OLD NICK BAR CAFFE PUB|Brasov|BVHRKBA13|99|CCC HRK MULTI Iarna 2013|121|Horeca|0
0|CS3266135|2013-02-23 00:23:34|Ciuca|Iulian||M|1991-05-15|Prahova|SINAIA|Carol1|39|||0|0|0723957382||iuli_100@yahoo.com|SBKSGD||0 Sobranie KS Gold (4 mg) Pack|Yes|Yes||PH001430|OLD NICK BAR CAFFE PUB|Brasov|BVHRKBA20|99|CCC HRK MULTI Iarna 2013|121|Horeca|0
0|CS3266138|2013-02-23 00:24:25|Parciulea|Gabriel||M|1986-04-07|Prahova|SINAIA|Spitalului|5|||0|0|0723996446||parciuleagabriel@yahoo.com|DUNFCMBB||0 Sobranie KS Blue (6 mg) Pack|Yes|Yes||PH001430|OLD NICK BAR CAFFE PUB|Brasov|BVHRKBA16|99|CCC HRK MULTI Iarna 2013|121|Horeca|0
0|CS3266139|2013-02-23 00:24:57|Calina|Alexandra||F|1987-05-07|Prahova|SINAIA|Branduselor|5|||0|0|0724664224||creata05@yahoo.com|DUNFCMBB||0 Sobranie KS Blue (6 mg) Pack|Yes|Yes||PH001430|OLD NICK BAR CAFFE PUB|Brasov|BVHRKBA12|99|CCC HRK MULTI Iarna 2013|121|Horeca|0
0|CS3266141|2013-02-23 00:25:02|Nicolae|Andreea||F|1988-02-03|Prahova|SINAIA|Stanjeneilor|9|4|B|3|16|0743867049||andreeanicolae24@yahoo.com|SBKSBL||0 Sobranie KS Blue (6 mg) Pack|Yes|Yes||PH001430|OLD NICK BAR CAFFE PUB|Brasov|BVHRKBA20|99|CCC HRK MULTI Iarna 2013|121|Horeca|0
0|CS3266143|2013-02-23 00:27:49|Mihai|Tamara||F|1990-09-30|Prahova|SINAIA|Stanjeneilor|31|||||0726027258||tamaramihai@yahoo.com|DAVSVSS||0 Sobranie SS Pink (3 mg) Pack|Yes|Yes||PH001430|OLD NICK BAR CAFFE PUB|Brasov|BVHRKBA13|99|CCC HRK MULTI Iarna 2013|121|Horeca|0
0|CS3266144|2013-02-23 00:28:03|Parauta|Florentina||F|1977-12-19|Prahova|BUSTENI|Morarului|3|||||0720342856|||DUNFCBB||0 Sobranie KS Gold (4 mg) Pack|Yes|Yes||PH001430|OLD NICK BAR CAFFE PUB|Brasov|BVHRKBA16|99|CCC HRK MULTI Iarna 2013|121|Horeca|0
0|CS3266153|2013-02-23 00:28:41|Brailoiu|Cristian||M|1977-09-03|Bucuresti|SECTOR 1|Saradei|103|||2|5|0740084083||bbenz77@yahoo.com|KTBL||0 Camel Black (6 mg) Pack|Yes|Yes||PH001430|OLD NICK BAR CAFFE PUB|Brasov|BVHRKBA12|99|CCC HRK MULTI Iarna 2013|121|Horeca|0
0|CS3266158|2013-02-23 00:30:12|Valcea|Andrei||M|1990-10-24|Bucuresti|Bucuresti|Gheorghe dem teodorescu|11d|||||0761625495||valcea_andrei24@yahoo.com|PARAB||0 Sobranie KS Blue (6 mg) Pack|Yes|Yes||PH001430|OLD NICK BAR CAFFE PUB|Brasov|BVHRKBA20|99|CCC HRK MULTI Iarna 2013|121|Horeca|0
0|CS3266160|2013-02-23 00:30:18|Aldescu|Ioana||F|1987-01-18|Prahova|SINAIA|Manastirii|3|||||0727701333||ioana.aldescu@yahoo.com|DUNFCMBB||0 Sobranie KS Blue (6 mg) Pack|Yes|Yes||PH001430|OLD NICK BAR CAFFE PUB|Brasov|BVHRKBA13|99|CCC HRK MULTI Iarna 2013|121|Horeca|0
0|CS3266165|2013-02-23 00:30:32|Stoica|Ioana||F|1990-09-11|Prahova|PLOIESTI|Cameliei|11|31|C||51|0735044340||flaviaaaa@yahoo.com|VOGM||0 Glamour Menthol (5mg) Pack|Yes|Yes||PH001430|OLD NICK BAR CAFFE PUB|Brasov|BVHRKBA16|99|CCC HRK MULTI Iarna 2013|121|Horeca|0
0|CS3266172|2013-02-23 00:32:21|Costi|Costi||M|1989-06-23|Prahova|MIZIL|1mai|34|||||0745135124||costin_camataru@yahoo.com|DAVGL||0 Sobranie KS Gold (4 mg) Pack|Yes|No||PH001430|OLD NICK BAR CAFFE PUB|Brasov|BVHRKBA12|99|CCC HRK MULTI Iarna 2013|121|Horeca|0
0|CS3266178|2013-02-23 00:33:29|Nicolcescu|Maria||F|1991-12-07|Dolj|CRAIOVA|Paltinis|1|||||0729898596||m4ri4_123@yahoo.com|VIRSPR||0 Glamour Lilac (5mg) Pack|Yes|Yes||PH001430|OLD NICK BAR CAFFE PUB|Brasov|BVHRKBA20|99|CCC HRK MULTI Iarna 2013|121|Horeca|0
0|CS3266204|2013-02-23 00:39:23|Brulea|Andrei||M|1982-11-15|Prahova|PLOIESTI|Al. Petrochimistilor|4|53b|B|3|75|0732767775||admin@bestkaraoke.ro|DUNFCSB||0 Sobranie KS Black (8 mg) Pack|Yes|Yes||PH001430|OLD NICK BAR CAFFE PUB|Brasov|BVHRKBA16|99|CCC HRK MULTI Iarna 2013|121|Horeca|0
0|CS3266243|2013-02-23 00:49:35|Rusu|Alina||F|1982-04-22|Brasov|BRASOV|Lunga|112|||||0723546876|||PMECBK||0 Winston 100s Clasic (10 mg)  Pack|Yes|No||PH001430|OLD NICK BAR CAFFE PUB|Brasov|BVHRKBA12|99|CCC HRK MULTI Iarna 2013|121|Horeca|0
0|CS3266258|2013-02-23 00:54:51|Popa|Andreea||F|1983-04-08|Brasov|BRASOV|Plevnei|23|||||0734266277|||WIBLH||0 Winston 100s Blue (6 mg)  Pack|Yes|No||BV001512|SOFIMATI CLUB|Brasov|BVHRKBA23|99|CCC HRK MULTI Iarna 2013|121|Horeca|0
0|CS3266259|2013-02-23 00:54:58|Florea|Adriana||F|1980-11-30|Brasov|BRASOV|De Mijloc|134|||||0723245332||adriadyflores@yahoo.com|PARRSSH||0 Sobranie SS Pink (3 mg) Pack|Yes|No||BV001512|SOFIMATI CLUB|Brasov|BVHRKBA17|99|CCC HRK MULTI Iarna 2013|121|Horeca|0
0|CS3266267|2013-02-23 00:57:41|Ciulica|Alexandru||M|1983-08-25|Brasov|BRASOV|Jepilor|46|||0|0|0730190444||c_alex_tequila@yahoo.com|WIBL||0 Winston Blue (6mg) Pack|Yes|Yes||BV001512|SOFIMATI CLUB|Brasov|BVHRKBA24|99|CCC HRK MULTI Iarna 2013|121|Horeca|0
0|CS3266269|2013-02-23 00:57:47|Sebastyen|Alexandru||M|1988-05-18|Brasov|BRASOV|Visinului|18|C1|C|4|20|0747417663||alexandruseb@yahoo.com|WIBL||0 Winston Blue (6mg) Pack|Yes|Yes||BV001512|SOFIMATI CLUB|Brasov|BVHRKBA21|99|CCC HRK MULTI Iarna 2013|121|Horeca|0
0|CS3266273|2013-02-23 00:58:51|Burlacu|Alexandru||M|1989-04-22|Brasov|BRASOV|Lacurilor|15|11|1|1|5|0741538558||allexburlacu@yahoo.com|WIBL||0 Winston Blue (6mg) Pack|Yes|Yes||BV001512|SOFIMATI CLUB|Brasov|BVHRKBA17|99|CCC HRK MULTI Iarna 2013|121|Horeca|0
0|CS3266290|2013-02-23 01:03:01|Cristian|Alexandri||M|1992-08-29|Brasov|BRASOV|Aleea lacramioarelor|9|18b|B|4|20|0755362986||cristialexandru_2006@yahoo.com|DUNFCSB||0 Sobranie KS Black (8 mg) Pack|Yes|Yes||BV001512|SOFIMATI CLUB|Brasov|BVHRKBA23|99|CCC HRK MULTI Iarna 2013|121|Horeca|0
0|CS3266294|2013-02-23 01:03:53|Iacob|Daniel||M|1976-07-23|Brasov|BRASOV|Sitarului|20|||||0763872409|||SBKSBK||0 Sobranie KS Black (8 mg) Pack|Yes|No||BV001512|SOFIMATI CLUB|Brasov|BVHRKBA21|99|CCC HRK MULTI Iarna 2013|121|Horeca|0
0|CS3266299|2013-02-23 01:04:57|Andone|Irina||F|1986-09-17|Prahova|PLOIESTIORI|Mare|14|||||0765444345|||DUNFCBB||0 Sobranie KS Gold (4 mg) Pack|Yes|Yes||BV001512|SOFIMATI CLUB|Brasov|BVHRKBA24|99|CCC HRK MULTI Iarna 2013|121|Horeca|0
0|CS3266305|2013-02-23 01:06:15|Tica|Aurel||M|1970-07-20|Brasov|SACELE|Principala|34|||||0753217785|||KTSV||0 Camel White (1 mg) Pack|Yes|No||BV001512|SOFIMATI CLUB|Brasov|BVHRKBA23|99|CCC HRK MULTI Iarna 2013|121|Horeca|0
0|CS3266310|2013-02-23 01:07:09|Andone|Marius||M|1982-05-28|Prahova|PLOIESTIORI|Mare|14|||||0754432167||marius.andone@gmail.com|KTSV||0 Camel White (1 mg) Pack|Yes|Yes||BV001512|SOFIMATI CLUB|Brasov|BVHRKBA24|99|CCC HRK MULTI Iarna 2013|121|Horeca|0
0|CS3266313|2013-02-23 01:07:23|Vladan|Iulian||M|1975-08-01|Brasov|RASNOV|Garofitei|23|||||0723789671||vladyiuly@yahoo.com|KTSV||0 Camel White (1 mg) Pack|Yes|Yes||BV001512|SOFIMATI CLUB|Brasov|BVHRKBA17|99|CCC HRK MULTI Iarna 2013|121|Horeca|0
0|CS3266314|2013-02-23 01:07:30|Cristea|Cosmin||M|1984-04-01|Covasna|SFANTU GHEORGHE|Principala|15|||||0734256987|||KTSV||0 Camel White (1 mg) Pack|Yes|No||BV001512|SOFIMATI CLUB|Brasov|BVHRKBA21|99|CCC HRK MULTI Iarna 2013|121|Horeca|0
0|CS3266320|2013-02-23 01:09:31|Gordan|Andrada||F|1984-05-29|Brasov|BRASOV|Valea cetatii|54|||||0763576457|||CAWH||0 Camel White (1 mg) Pack|Yes|No||BV001512|SOFIMATI CLUB|Brasov|BVHRKBA23|99|CCC HRK MULTI Iarna 2013|121|Horeca|0
0|CS3266325|2013-02-23 01:11:09|Marin|Adriana||F|1990-10-19|Brasov|SANPETRU|Bisericii|256|||||0743275907|||MBRGLFT||0 Camel White (1 mg) Pack|Yes|No||BV001512|SOFIMATI CLUB|Brasov|BVHRKBA21|99|CCC HRK MULTI Iarna 2013|121|Horeca|0
0|CS3266326|2013-02-23 01:11:56|Ionescu|Maria||F|1989-11-07|Brasov|BRASOV|1 mai|48|||||0766545327|||KTSV||0 Camel White (1 mg) Pack|Yes|No||BV001512|SOFIMATI CLUB|Brasov|BVHRKBA24|99|CCC HRK MULTI Iarna 2013|121|Horeca|0
0|CS3266330|2013-02-23 01:12:45|Lumb|Mariana||F|1989-05-29|Brasov|Brasov|Lunga|145|||||0723110855||marymaryana@yahoo.com|KTSV||0 Camel White (1 mg) Pack|Yes|No||BV001512|SOFIMATI CLUB|Brasov|BVHRKBA17|99|CCC HRK MULTI Iarna 2013|121|Horeca|0
0|CS3266337|2013-02-23 01:14:22|Duta|Elena||F|1981-09-17|Prahova|Azuga|Ritivoiu|123|||||0721788665|||KTSV||0 Camel White (1 mg) Pack|Yes|No||BV001512|SOFIMATI CLUB|Brasov|BVHRKBA23|99|CCC HRK MULTI Iarna 2013|121|Horeca|0
0|CS3266341|2013-02-23 01:14:52|Bucaloiu|Adrian||M|1983-05-26|Covasna|COVASNA|Scolii|16|||||0724432436||buk_adi83@yahoo.com|CAWH||0 Camel White (1 mg) Pack|Yes|Yes||BV001512|SOFIMATI CLUB|Brasov|BVHRKBA24|99|CCC HRK MULTI Iarna 2013|121|Horeca|0
0|CS3266351|2013-02-23 01:17:40|Crisan|Vlad||M|1980-07-03|Brasov|BRASOV|Lanii|23|||||0727886553||vladycrish80@yahoo.com|MBRGLFT||0 Camel White (1 mg) Pack|Yes|No||BV001512|SOFIMATI CLUB|Brasov|BVHRKBA17|99|CCC HRK MULTI Iarna 2013|121|Horeca|0
0|CS3266356|2013-02-23 01:19:23|Serban|Radu||M|1991-05-25|Brasov|BRASOV|Eroilor|24|||||0723569837||serban.radu@yahoo.com|KTSV||0 Camel White (1 mg) Pack|Yes|Yes||BV001512|SOFIMATI CLUB|Brasov|BVHRKBA21|99|CCC HRK MULTI Iarna 2013|121|Horeca|0
0|CS3266357|2013-02-23 01:19:29|Duda|Florian||M|1983-10-30|Brasov|BRASOV|Lanii|26|||||0770546809|||KTSV||0 Camel White (1 mg) Pack|Yes|No||BV001512|SOFIMATI CLUB|Brasov|BVHRKBA17|99|CCC HRK MULTI Iarna 2013|121|Horeca|0
0|CS3266360|2013-02-23 01:19:56|Suciu|Florin||M|1988-07-20|Braila|INSURATEI|Parcului|38|||||0732553655||suciu_florin@yahoo.com|MBRGLFT||0 Camel White (1 mg) Pack|Yes|Yes||BV001512|SOFIMATI CLUB|Brasov|BVHRKBA24|99|CCC HRK MULTI Iarna 2013|121|Horeca|0
0|CS3267164|2013-02-23 19:24:56|Solyom|Iosif||M|1986-02-12|Mures|TARGU MURES|Surianu|22|0|0|0|0|0751173065||solyom.ioji@yahoo.com|KTBL||1 Winston XStyle Blue (6mg) Pack|Yes|Yes||BV004282|EURO XXL SRL|Brasov|BVHRKBA20|99|CCC HRK MULTI Iarna 2013|121|Horeca|0
0|CS3267169|2013-02-23 19:26:47|Din|Florentina||F|1974-10-13|Calarasi|BORCEA|Soldat costica dobre lungu|25|||||0735900957|||GLMMNT||1 Glamour Menthol (5mg) Pack|Yes|No||BV004282|EURO XXL SRL|Brasov|BVHRKBA12|99|CCC HRK MULTI Iarna 2013|121|Horeca|0
0|CS3267192|2013-02-23 19:37:16|Dobrescu|Andrei||M|1991-07-09|Prahova|AZUGA|Parcului|3|||0|0|0730697169||andreydobrescu91@yahoo.com|DUNFCMBB||1 Sobranie KS Blue (6 mg) Pack|Yes|Yes||BVR02270|MATTINO-CONSTRUCT SRL|Brasov|BVHRKBA16|99|CCC HRK MULTI Iarna 2013|121|Horeca|0
0|CS3267195|2013-02-23 19:37:58|Damian|Claudiu||M|1988-06-24|Braila|BRAILA|Calea calarasilor|68|15|2|0|31|0746066490||the_high_roler@yahoo.com|DUNGL||1 Sobranie KS Gold (4 mg) Pack|Yes|Yes||BVR02270|MATTINO-CONSTRUCT SRL|Brasov|BVHRKBA12|99|CCC HRK MULTI Iarna 2013|121|Horeca|0
0|CS3267196|2013-02-23 19:38:29|Buzatu|Maria||F|1988-05-29|Bucuresti|SECTOR 3|Tudor vasile|34|||||0745667544|||DUNFCBB||1 Sobranie KS Gold (4 mg) Pack|Yes|No||BVR02270|MATTINO-CONSTRUCT SRL|Brasov|BVHRKBA13|99|CCC HRK MULTI Iarna 2013|121|Horeca|0
0|CS3267197|2013-02-23 19:38:34|Paraschivescu|Paul||M|1990-11-17|Prahova|AZUGA|Traian|2d|-|-|0|0|0752116156||paul_prschtv@yahoo.com|DUNFCMBB||1 Sobranie KS Blue (6 mg) Pack|Yes|Yes||BVR02270|MATTINO-CONSTRUCT SRL|Brasov|BVHRKBA16|99|CCC HRK MULTI Iarna 2013|121|Horeca|0
0|CS3267198|2013-02-23 19:38:35|Anghel|Ionela||F|1979-05-23|Brasov|Predeal|Poiana narciselor|0|9||0|0|0766449855|||WIBLH||1 Winston 100s Blue (6 mg)  Pack|Yes|Yes||BVR02270|MATTINO-CONSTRUCT SRL|Brasov|BVHRKBA20|99|CCC HRK MULTI Iarna 2013|121|Horeca|0
0|CS3267200|2013-02-23 19:40:50|Amelin|Dumitru||M|1990-04-02|Prahova|PLAVIA|-|200|||||0733271031|||DUNFCMBB||1 Sobranie KS Blue (6 mg) Pack|Yes|No||BVR02270|MATTINO-CONSTRUCT SRL|Brasov|BVHRKBA16|99|CCC HRK MULTI Iarna 2013|121|Horeca|0
0|CS3267226|2013-02-23 19:52:29|Axinte|Sorin||M|1980-12-05|Suceava|SUCEAVA|Mihai Eminescu|19|||||0744761759||axintesorin@gmail.com|DUNGL||1 Sobranie KS Gold (4 mg) Pack|Yes|Yes||BV006156|D  R COMPANY SRL|Brasov|BVHRKBA21|99|CCC HRK MULTI Iarna 2013|121|Horeca|0
0|CS3267263|2013-02-23 20:01:59|Purice|Cosmin||M|1982-06-14|Brasov|BRASOV|Soarelui|6|||0|0|0762639922||cosmintiberiu82@yahoo.com|WIBL||1 Winston Blue (6mg) Pack|Yes|No||BV006156|D  R COMPANY SRL|Brasov|BVHRKBA23|99|CCC HRK MULTI Iarna 2013|121|Horeca|0
0|CS3267268|2013-02-23 20:03:49|Stanescu|Geanina||F|1991-06-25|Arges|RECEA|Recea|514|||||0766579830|||KTSWIT||1 Winston Fresh XSpression (5mg) Pack|Yes|Yes||BV001637|SC Comacri Expert SRL|Brasov|BVHRKBA13|99|CCC HRK MULTI Iarna 2013|121|Horeca|0
0|CS3267277|2013-02-23 20:07:21|Dodan|Catalin||M|1974-10-08|Bucuresti|Bucuresti|Partiturii|13|66|1|2|10|0733691757|||WICL||1 Winston Classic Pack|Yes|Yes||BV001637|SC Comacri Expert SRL|Brasov|BVHRKBA13|99|CCC HRK MULTI Iarna 2013|121|Horeca|0
0|CS3267280|2013-02-23 20:08:51|Mihai|Mariana||F|1988-04-10|Prahova|PREDEAL|Eroilor|12|||0|0||0268455852||LSRD||1 Winston Classic Pack|Yes|Yes||BV001637|SC Comacri Expert SRL|Brasov|BVHRKBA13|99|CCC HRK MULTI Iarna 2013|121|Horeca|0
0|CS3267287|2013-02-23 20:11:06|Manu|Lucian||M|1988-07-14|Prahova|PREDEAL|Mihail Saulescu|9|||0|0|0768840228||luci_88148@yahoo.com|DUNFCSB||1 Sobranie KS Black (8 mg) Pack|Yes|Yes||BV001637|SC Comacri Expert SRL|Brasov|BVHRKBA13|99|CCC HRK MULTI Iarna 2013|121|Horeca|0
0|CS3267292|2013-02-23 20:12:16|Rusu|Eleana||F|1976-10-05|Brasov|PREDEAL|Eroilor|1|||0|0|0760534747|||PARNBH||1 Sobranie KS Black (8 mg) Pack|Yes|Yes||BV001637|SC Comacri Expert SRL|Brasov|BVHRKBA13|99|CCC HRK MULTI Iarna 2013|121|Horeca|0
0|CS3267297|2013-02-23 20:13:13|Pop|Adrian||M|1991-02-21|Brasov|PREDEAL|Mihail sinulescu|8|||||0769232268||popadrian91@yahoo.com|MBRRD||1 Camel Filters (10mg) Pack|Yes|Yes||BV001637|SC Comacri Expert SRL|Brasov|BVHRKBA12|99|CCC HRK MULTI Iarna 2013|121|Horeca|0
0|CS3267303|2013-02-23 20:15:19|Toma|Ioana||F|1984-02-14|Prahova|PREDEAL|Poiana verde|16a|||0|0|0733092596|||GLMLIL||1 Glamour Lilac (5mg) Pack|Yes|Yes||BV001637|SC Comacri Expert SRL|Brasov|BVHRKBA20|99|CCC HRK MULTI Iarna 2013|121|Horeca|0
0|CS3267308|2013-02-23 20:16:38|Goidea|Cristian||M|1977-09-26|Constanta|Constanta|Eroilor|50|22|A|0|16|0722514244||cri_50@yahoo.com|GLMLIL||1 Glamour Lilac (5mg) Pack|Yes|Yes||BV001637|SC Comacri Expert SRL|Brasov|BVHRKBA20|99|CCC HRK MULTI Iarna 2013|121|Horeca|0
0|CS3267311|2013-02-23 20:17:30|Mihailescu|Monica||F|1986-06-19|Constanta|EFORIE SUD|Republicii|12|||||0765495838|||VIRSV||1 Glamour Azure (3mg) Pack|Yes|No||BV001637|SC Comacri Expert SRL|Brasov|BVHRKBA12|99|CCC HRK MULTI Iarna 2013|121|Horeca|0
0|CS3267314|2013-02-23 20:18:13|Bucur|Mihai||M|1985-10-07|Dambovita|TARGOVISTE|Aburesti|12|||||0741962980||bucur.mihai.111@yahoo.com|VOGDV||1 Glamour Lilac (5mg) Pack|Yes|No||BV001637|SC Comacri Expert SRL|Brasov|BVHRKBA16|99|CCC HRK MULTI Iarna 2013|121|Horeca|0
0|CS3267316|2013-02-23 20:18:34|Muntean|Silvia||F|1989-04-07|Brasov|BRASOV|Lunga|14|||||0746661127|||VIRSPR||1 Sobranie SS Black (6 mg) Pack|Yes|No||BV001637|SC Comacri Expert SRL|Brasov|BVHRKBA20|99|CCC HRK MULTI Iarna 2013|121|Horeca|0
0|CS3267343|2013-02-23 20:27:28|Motea|Ionel||M|1981-06-12|Brasov|Brasov|Vasile Alecsandri|2|||||0729926913|||CABL||1 Camel Blue (6 mg) Pack|Yes|Yes||BV001033|OLIN FOODS SRL|Brasov|BVHRKBA24|99|CCC HRK MULTI Iarna 2013|121|Horeca|0
0|CS3267344|2013-02-23 20:27:30|Dinu|Cristina||F|1984-06-18|Brasov|Brasov|Simion Barnutiu|17|||||0729935021||cristina_ionas@yahoo.com|KTNBK||1 Sobranie SS White (1 mg) Pack|Yes|No||BV001033|OLIN FOODS SRL|Brasov|BVHRKBA17|99|CCC HRK MULTI Iarna 2013|121|Horeca|0
0|CS3267360|2013-02-23 20:31:28|Mihaescu|Violeta||F|1967-06-30|Brasov|Brasov|Muresului|5|||||0744322833||mihaescu_violeta@gmail.com|GLMBL||1 Glamour Azure (3mg) Pack|Yes|Yes||BV001033|OLIN FOODS SRL|Brasov|BVHRKBA17|99|CCC HRK MULTI Iarna 2013|121|Horeca|0
0|CS3267365|2013-02-23 20:32:45|Cioaca|Manuela||F|1983-05-23|Brasov|BRASOV|Lunga|47|||||0727742446||ellacioaca@gmail.com|SOBCOK||1 Sobranie KS Gold (4 mg) Pack|Yes|Yes||BV001033|OLIN FOODS SRL|Brasov|BVHRKBA21|99|CCC HRK MULTI Iarna 2013|121|Horeca|0
0|CS3267386|2013-02-23 20:39:59|Rosca|Andreea||F|1992-11-23|Cluj|CLUJ NAPOCA|Teodor mihail|1|||||0741372033||rosca.andreea@transilvanialook.ro|SBSSBK||1 Sobranie SS Black (6 mg) Pack|Yes|Yes||BV001033|OLIN FOODS SRL|Brasov|BVHRKBA24|99|CCC HRK MULTI Iarna 2013|121|Horeca|0
0|CS3267389|2013-02-23 20:40:51|Tufan|Maria||F|1990-06-13|Brasov|BRASOV|Aleea petuniei|4|24|A|0|15|0746693262||mymyshor_bv@yahoo.com|WISSM||1 Winston Super Slims Menthol (5mg) Pack|Yes|Yes||BV001033|OLIN FOODS SRL|Brasov|BVHRKBA21|99|CCC HRK MULTI Iarna 2013|121|Horeca|0
0|CS3267395|2013-02-23 20:43:10|Vlaic|Olimpiu||M|1984-10-29|Brasov|BRASOV|Carpatilor|8|27||4|17|0747227808||olyitzu@yahoo.com|SBKSBL||1 Sobranie KS Blue (6 mg) Pack|Yes|Yes||BV001033|OLIN FOODS SRL|Brasov|BVHRKBA23|99|CCC HRK MULTI Iarna 2013|121|Horeca|0
0|CS3267396|2013-02-23 20:43:13|Stan|CristiAn||M|1986-09-03|Brasov|BRASOV|Jepilor|2|||0|0|0761608117||crisianrazvan25@yahoo.com|KTBL||1 Winston XStyle Blue (6mg) Pack|Yes|Yes||BV001033|OLIN FOODS SRL|Brasov|BVHRKBA24|99|CCC HRK MULTI Iarna 2013|121|Horeca|0
0|CS3267405|2013-02-23 20:44:55|Musina|Daniel||M|1984-06-28|Brasov|Brașov|Harmanului|97|||0|23|0741765617||dani_musina@yahoo.com|WISSM||1 Winston Super Slims Menthol (5mg) Pack|Yes|No||BV001033|OLIN FOODS SRL|Brasov|BVHRKBA23|99|CCC HRK MULTI Iarna 2013|121|Horeca|0
0|CS3267411|2013-02-23 20:46:15|Botofan|Adriana||F|1976-09-03|Brasov|BRASOV|Harmanului|2|||||0748517465|||WIXSTSV||1 Winston XStyle Silver (4mg) Pack|Yes|No||BV001033|OLIN FOODS SRL|Brasov|BVHRKBA21|99|CCC HRK MULTI Iarna 2013|121|Horeca|0
0|CS3267418|2013-02-23 20:47:28|Marcu|Iulian||M|1986-11-30|Brasov|Brasov|Harmanului|84|||||0757548027||marcuiulian86@yahoo.com|PMBL||1 Winston Blue (6mg) Pack|Yes|No||BV001033|OLIN FOODS SRL|Brasov|BVHRKBA17|99|CCC HRK MULTI Iarna 2013|121|Horeca|0
0|CS3267423|2013-02-23 20:50:35|Pendos|Ionut||M|1983-07-16|Brasov|BRASOV|Sitarului|30|||0|0|0741071190||ionutpendos@gmail.com|WISSS||1 Winston Super Slims Silver (3mg) Pack|Yes|No||BV001033|OLIN FOODS SRL|Brasov|BVHRKBA23|99|CCC HRK MULTI Iarna 2013|121|Horeca|0
0|CS3267457|2013-02-23 21:00:25|Feraru|Mirela||F|1983-08-19|Brasov|BRASOV|Berzei|20|C9|A|3|13|0730622563||mititica_bv@yahoo.com|CABL||1 Camel Blue (6 mg) Pack|Yes|No||BV001033|OLIN FOODS SRL|Brasov|BVHRKBA17|99|CCC HRK MULTI Iarna 2013|121|Horeca|0
0|CS3267464|2013-02-23 21:01:59|Mocanu|Mihaela||F|1981-09-23|Brasov|Brasov|Ciceu|1|30|D|4|13|0764148785|||KTBL||1 Camel Black (6 mg) Pack|Yes|Yes||BV001033|OLIN FOODS SRL|Brasov|BVHRKBA24|99|CCC HRK MULTI Iarna 2013|121|Horeca|0
0|CS3267518|2013-02-23 21:20:38|Cibi|Alina||F|1985-04-26|Bucuresti|SECTOR 3|Dristorului|112|||||0745043904||alina.cibi@gmail.com|WIBL||1 Winston Blue (6mg) Pack|Yes|Yes||PH001375|VILAMONT (TAVERNA SARBULUI)|Brasov|BVHRKBA20|99|CCC HRK MULTI Iarna 2013|121|Horeca|0
0|CS3267523|2013-02-23 21:21:06|Stefan|Bogdan||M|1989-06-05|Bucuresti|SECTOR 2|Maior Bravu|30|G3|1|9|194|0767223789||bogdan_stfn@yahoo.com|KTBL||1 Camel Black (6 mg) Pack|Yes|No||BV006143|CASA ROMA SRL 2|Brasov|BVHRKBA17|99|CCC HRK MULTI Iarna 2013|121|Horeca|0
0|CS3267526|2013-02-23 21:22:39|Popescu|Daniela||F|1977-03-18|Bucuresti|SECTOR 4|Vitan Barzesti|7d|1||0|101|0755153082||dtrifonescu@yahoo.com|SBSSWH||1 Sobranie SS White (1 mg) Pack|Yes|Yes||PH001375|VILAMONT (TAVERNA SARBULUI)|Brasov|BVHRKBA20|99|CCC HRK MULTI Iarna 2013|121|Horeca|0
0|CS3267528|2013-02-23 21:23:04|Banciu|Alin||M|1984-06-29|Bucuresti|2|Sergiu nicolaescu|56|||||0723798009||banciu.alin@yahoo.com|DUNFCBB||1 Sobranie KS Gold (4 mg) Pack|Yes|No||PH001375|VILAMONT (TAVERNA SARBULUI)|Brasov|BVHRKBA13|99|CCC HRK MULTI Iarna 2013|121|Horeca|0
0|CS3267529|2013-02-23 21:23:24|Andronic|Cristian||M|1988-02-11|Brasov|BRASOV|Dimitrie anghel|15||E|0|13|0749334614||papycry@yahoo.com|DUNFCBB||1 Sobranie KS Gold (4 mg) Pack|Yes|No||PH001375|VILAMONT (TAVERNA SARBULUI)|Brasov|BVHRKBA16|99|CCC HRK MULTI Iarna 2013|121|Horeca|0
0|CS3267533|2013-02-23 21:24:55|Berasoaie|Maria||F|1984-05-29|Bucuresti|6|Bucium|69|||||0767443222|||VIRSPR||1 Sobranie SS Black (6 mg) Pack|Yes|No||PH001375|VILAMONT (TAVERNA SARBULUI)|Brasov|BVHRKBA13|99|CCC HRK MULTI Iarna 2013|121|Horeca|0
0|CS3267535|2013-02-23 21:26:47|Sovaiala|Liliana||F|1985-09-20|Prahova|SINAIA|Horia closca si crisan|2|||0|0|0720374469||lilianasovaiala@yahoo.com|KTSWIT||1 Winston Fresh XSpression (5mg) Pack|Yes|Yes||PH001375|VILAMONT (TAVERNA SARBULUI)|Brasov|BVHRKBA16|99|CCC HRK MULTI Iarna 2013|121|Horeca|0
0|CS3267537|2013-02-23 21:27:05|Piuaru|Andrei||M|1989-01-27|Brasov|BRASOV|Campului|11|||||0746647854||hubrus1@gmail.com|DUNFCMBB||1 Sobranie KS Blue (6 mg) Pack|Yes|Yes||BV006143|CASA ROMA SRL 2|Brasov|BVHRKBA23|99|CCC HRK MULTI Iarna 2013|121|Horeca|0
0|CS3267539|2013-02-23 21:27:16|Paunescu|Ovidiu||M|1978-04-07|Bucuresti|SECTOR 1|Avram iancu|10|||||0722110993|||DUNGL||1 Sobranie KS Gold (4 mg) Pack|Yes|No||PH001375|VILAMONT (TAVERNA SARBULUI)|Brasov|BVHRKBA20|99|CCC HRK MULTI Iarna 2013|121|Horeca|0
0|CS3267541|2013-02-23 21:27:37|Dumitru|Alexandru||M|1981-05-05|Brasov|BRASOV|Toporasilor|15|||||0745778456||dumitrualexandru@gmail.com|DAVGLSS||1 Sobranie SS Black (6 mg) Pack|Yes|No||PH001375|VILAMONT (TAVERNA SARBULUI)|Brasov|BVHRKBA12|99|CCC HRK MULTI Iarna 2013|121|Horeca|0
0|CS3267546|2013-02-23 21:28:21|Kelemen|Andreea||F|1990-05-27|Brasov|SACELE|Aleea episcop popeea|12|3||0|400|0749174161||deea_bv_sunshine@yahoo.com|KTNBL||1 Sobranie SS Black (6 mg) Pack|Yes|No||PH001375|VILAMONT (TAVERNA SARBULUI)|Brasov|BVHRKBA16|99|CCC HRK MULTI Iarna 2013|121|Horeca|0
0|CS3267556|2013-02-23 21:30:38|Pinta|Razvan||M|1991-09-11|Prahova|SINAIA|Prundului|1|||0|0|0734464589|||SBKSBL||1 Sobranie KS Blue (6 mg) Pack|Yes|Yes||PH001375|VILAMONT (TAVERNA SARBULUI)|Brasov|BVHRKBA12|99|CCC HRK MULTI Iarna 2013|121|Horeca|0
0|CS3267565|2013-02-23 21:33:11|Spranceana|Mihail||M|1994-12-30|Prahova|SINAIA|Avram iancu|16|||||0723725691|||SBKSBL||1 Sobranie KS Blue (6 mg) Pack|Yes|Yes||PH001375|VILAMONT (TAVERNA SARBULUI)|Brasov|BVHRKBA12|99|CCC HRK MULTI Iarna 2013|121|Horeca|0
0|CS3267576|2013-02-23 21:37:19|Vasile|Alexandru||M|1993-01-24|Prahova|SINAIA|Spitalului|1|7|||3|0725144856||alex_sinaia_2008@yahoo.com|DUNFCMBR||1 Sobranie KS Black (8 mg) Pack|Yes|Yes||PH001375|VILAMONT (TAVERNA SARBULUI)|Brasov|BVHRKBA16|99|CCC HRK MULTI Iarna 2013|121|Horeca|0
0|CS3267583|2013-02-23 21:38:21|Lupusor|Alina||F|1984-04-09|Prahova|BUSTENI|Independetei|75|||||0722881327|||WISV||1 Winston Silver (4 mg) Pack|Yes|Yes||PH001375|VILAMONT (TAVERNA SARBULUI)|Brasov|BVHRKBA12|99|CCC HRK MULTI Iarna 2013|121|Horeca|0
0|CS3267584|2013-02-23 21:38:28|Acasandrei|Roxana Carmen||F|1990-08-26|Hunedoara|HUNEDOARA|Oltului|4|c49|B|3|35|0766322838||acasandreiroxana@yahoo.com|VOGBL||1 Sobranie SS Black (6 mg) Pack|Yes|Yes||BV006143|CASA ROMA SRL 2|Brasov|BVHRKBA24|99|CCC HRK MULTI Iarna 2013|121|Horeca|0
0|CS3267587|2013-02-23 21:40:00|Moldoveanu|Iulian||M|1965-07-19|Prahova|SINAIA|Calea moroieni|23a|||0|0|0720891722|||WIBL||1 Winston Blue (6mg) Pack|Yes|Yes||PH001375|VILAMONT (TAVERNA SARBULUI)|Brasov|BVHRKBA13|99|CCC HRK MULTI Iarna 2013|121|Horeca|0
0|CS3267588|2013-02-23 21:40:13|Biro|Attilo||M|1987-01-23|Brasov|BRASOV|Calea bucuresti|94|1|A|3|33|0740231210||aty_atex@yahoo.com|PMECBK||1 Sobranie SS Black (6 mg) Pack|Yes|Yes||BV006143|CASA ROMA SRL 2|Brasov|BVHRKBA21|99|CCC HRK MULTI Iarna 2013|121|Horeca|0
0|CS3267593|2013-02-23 21:41:05|Stupu|Eugenia||F|1967-11-21|Bucuresti|Bucuresti|Aleea scorusului|1|||||0733833120|||KTWH||1 Sobranie SS White (1 mg) Pack|Yes|Yes||PH001375|VILAMONT (TAVERNA SARBULUI)|Brasov|BVHRKBA20|99|CCC HRK MULTI Iarna 2013|121|Horeca|0
0|CS3267610|2013-02-23 21:46:50|Todasca|Leonard||M|1989-04-12|Brasov|BRASOV|Bulevardul muncii|6|E 19|B|1|2|0753664144||leopino_23@yahoo.com|WIBL||1 Winston Blue (6mg) Pack|Yes|Yes||BV006143|CASA ROMA SRL 2|Brasov|BVHRKBA21|99|CCC HRK MULTI Iarna 2013|121|Horeca|0
0|CS3267621|2013-02-23 21:50:57|Ardelean|Csilla||F|1990-01-11|Brasov|BRASOV|General Mociulski|30|||2|209|0756513536||ardeleancsilla@yahoo.com|SBKSGD||1 Sobranie KS Gold (4 mg) Pack|Yes|Yes||BV006143|CASA ROMA SRL 2|Brasov|BVHRKBA23|99|CCC HRK MULTI Iarna 2013|121|Horeca|0
0|CS3267624|2013-02-23 21:52:33|Musat|Alexandru||M|1988-06-27|Prahova|SINAIA|Stanjeneilor|3|||||0766521820||alexmusat@yahoo.com|WIBL||1 Winston Blue (6mg) Pack|Yes|Yes||PH001375|VILAMONT (TAVERNA SARBULUI)|Brasov|BVHRKBA16|99|CCC HRK MULTI Iarna 2013|121|Horeca|0
0|CS3267632|2013-02-23 21:54:15|Giurca|Camelia||F|1991-03-05|Brasov|Brasov|Filiasi|1|5|A|0|3|0752511113||cameliagiurca99@yahoo.com|WISSS||1 Winston Super Slims Silver (3mg) Pack|Yes|No||BV006143|CASA ROMA SRL 2|Brasov|BVHRKBA17|99|CCC HRK MULTI Iarna 2013|121|Horeca|0
0|CS3267681|2013-02-23 22:09:29|Albu|Calin||M|1976-11-20|Brasov|Bran|Principala|501|||0|0|0721150106||burgos1881@yahoo.com|WIXSTBL||1 Winston XStyle Blue (6mg) Pack|Yes|Yes||BV001858|Tircolea Zamfira Mariana I.I.|Brasov|BVHRKBA23|99|CCC HRK MULTI Iarna 2013|121|Horeca|0
0|CS3267686|2013-02-23 22:10:57|Abghel|Daniel||M|1987-05-08|Brasov|BRASOV|Zizinului|38|32|B|6|30|0768486988||angheltop@gmail.com|WIBL||1 Winston Blue (6mg) Pack|Yes|Yes||BV001858|Tircolea Zamfira Mariana I.I.|Brasov|BVHRKBA17|99|CCC HRK MULTI Iarna 2013|121|Horeca|0
0|CS3267692|2013-02-23 22:12:56|Leen|Geanina||F|1983-11-30|Prahova|Sinaia|Piata Unirii|22|-|-|0|0|0721236545||leengeanina@yahoo.com|WISSB||1 Winston Super Slims Blue (5mg) Pack|Yes|Yes||PH005085|SC Irish Resort SRL|Brasov|BVHRKBA20|99|CCC HRK MULTI Iarna 2013|121|Horeca|0
0|CS3267693|2013-02-23 22:13:05|Postelnicu|Laura||F|1987-04-09|Brasov|BRASOV|Grivitei|71|||||0753290797||laura2006_p@yahoo.com|PMSSBL||1 Winston Super Slims Blue (5mg) Pack|Yes|Yes||BV001858|Tircolea Zamfira Mariana I.I.|Brasov|BVHRKBA23|99|CCC HRK MULTI Iarna 2013|121|Horeca|0
0|CS3267694|2013-02-23 22:13:07|Petre|Silvia||F|1994-10-23|Prahova|AZUGA|Prahovei|32|24|||5|0720901707||silvik4you@yahoo.com|KTSWIT||1 Winston Fresh XSpression (5mg) Pack|Yes|Yes||PH005085|SC Irish Resort SRL|Brasov|BVHRKBA16|99|CCC HRK MULTI Iarna 2013|121|Horeca|0
0|CS3267695|2013-02-23 22:13:11|Moraru|Oana andreea||F|1989-10-27|Suceava|SUCEAVA|Petru rares|35|||||0747520437|0230530535|morarel_oana_andreea@yahoo.com|CAWH||1 Camel Silver (4 mg) Pack|Yes|Yes||PH005085|SC Irish Resort SRL|Brasov|BVHRKBA13|99|CCC HRK MULTI Iarna 2013|121|Horeca|0
0|CS3267696|2013-02-23 22:13:22|Carcean|Liliana||F|1988-01-08|Bucuresti|SECTOR 3|Cultul patriei|32|||||0764899182|||KTSV|CAWH|1 Camel White (1 mg) Pack|Yes|No||PH005085|SC Irish Resort SRL|Brasov|BVHRKBA12|99|CCC HRK MULTI Iarna 2013|121|Horeca|0
0|CS3267701|2013-02-23 22:14:05|Grigoras|Iulian||M|1990-05-31|Constanta|CONSTANTA|13decembrie|69|||0|0|0757284164||grigoras.iulian31@gmail.com|SBKSGD||1 Sobranie KS Gold (4 mg) Pack|Yes|Yes||BV001858|Tircolea Zamfira Mariana I.I.|Brasov|BVHRKBA17|99|CCC HRK MULTI Iarna 2013|121|Horeca|0
0|CS3267708|2013-02-23 22:16:25|Andrei|Sabrina mihaela||F|1989-11-02|Brasov|BRASOV|Mihai eminescu|16|||0|0|0742920926||sabrynutza_4u@yahoo.com|PARRSSH||1 Sobranie SS Pink (3 mg) Pack|Yes|Yes||BV001858|Tircolea Zamfira Mariana I.I.|Brasov|BVHRKBA17|99|CCC HRK MULTI Iarna 2013|121|Horeca|0
0|CS3267716|2013-02-23 22:18:25|Titei|Bogdan||M|1987-11-13|Brasov|BRASOV|Mestecanis|2|48|E|6|26|0742450083||bogdan_elnino@yahoo.com|SBKSGD||1 Sobranie KS Blue (6 mg) Pack|Yes|Yes||BV001858|Tircolea Zamfira Mariana I.I.|Brasov|BVHRKBA24|99|CCC HRK MULTI Iarna 2013|121|Horeca|0
0|CS3267720|2013-02-23 22:19:12|Nicolae|Simona||F|1963-08-02|Prahova|SINAIA|Calea moroieni|30|12|B||40||0244533539||DUNFCBB||1 Sobranie SS Pink (3 mg) Pack|Yes|No||PH005085|SC Irish Resort SRL|Brasov|BVHRKBA12|99|CCC HRK MULTI Iarna 2013|121|Horeca|0
0|CS3267724|2013-02-23 22:20:52|Ababei|Cristian||M|1988-04-16|Prahova|Azuga|Prahovei|78|||||0729163725||cristi_aa88@yahoo.com|DUNFCBB||1 Sobranie KS Gold (4 mg) Pack|Yes|No||PH005085|SC Irish Resort SRL|Brasov|BVHRKBA16|99|CCC HRK MULTI Iarna 2013|121|Horeca|0
0|CS3267728|2013-02-23 22:21:35|Pascu|Adrian||M|1984-02-05|Bucuresti|6|Teiului|14|||||0734556443||pascu.adi@yahoo.com|MCRD||1 Winston Classic Pack|Yes|No||PH005085|SC Irish Resort SRL|Brasov|BVHRKBA13|99|CCC HRK MULTI Iarna 2013|121|Horeca|0
0|CS3267730|2013-02-23 22:22:20|Ciocalten|Adrian||M|1945-01-30|Prahova|SINAIA|Prahovei|36||||||0244312682||DUNFCBB||1 Sobranie KS Gold (4 mg) Pack|Yes|No||PH005085|SC Irish Resort SRL|Brasov|BVHRKBA12|99|CCC HRK MULTI Iarna 2013|121|Horeca|0
0|CS3267738|2013-02-23 22:24:15|Stauceanu|Iulian||M|1976-12-29|Bucuresti|Bucuresti|Principala|6|||||0744333112||iulyiuly@gmail.com|LMRD||1 Winston Classic Pack|Yes|No||PH005085|SC Irish Resort SRL|Brasov|BVHRKBA20|99|CCC HRK MULTI Iarna 2013|121|Horeca|0
0|CS3267746|2013-02-23 22:26:06|Dimitri|Codrut||M|1981-09-24|Timis|TIMISOARA|Paris|68|23|D|6|45|0729153836||dimitri_codrut@gmail.com|MBRRD||1 Winston Classic Pack|Yes|No||PH005085|SC Irish Resort SRL|Brasov|BVHRKBA16|99|CCC HRK MULTI Iarna 2013|121|Horeca|0
0|CS3267748|2013-02-23 22:26:34|Rosca|Marius||M|1989-05-28|Prahova|SINAIA|Prahovei|34|||||0758364758||sikk_rosc@yahoo.com|PHMQBKH||1 Winston Classic Pack|Yes|No||PH005085|SC Irish Resort SRL|Brasov|BVHRKBA12|99|CCC HRK MULTI Iarna 2013|121|Horeca|0
0|CS3267749|2013-02-23 22:27:00|Muntean|Iulian||M|1975-04-07|Bucuresti|Bucuresti|Principala|10|||||0722119776||muntean11876@gmail.com|LMRD||1 Winston Classic Pack|Yes|No||PH005085|SC Irish Resort SRL|Brasov|BVHRKBA20|99|CCC HRK MULTI Iarna 2013|121|Horeca|0
0|CS3267750|2013-02-23 22:27:04|Jitaru|Bianca||F|1988-06-05|Prahova|SINAIA|Florilor|56|||||0745334898||bianca.jitaru@yahoo.com|LMRD||1 Winston Classic Pack|Yes|No||PH005085|SC Irish Resort SRL|Brasov|BVHRKBA13|99|CCC HRK MULTI Iarna 2013|121|Horeca|0
0|CS3267757|2013-02-23 22:29:39|Minulescu|Monica||F|1988-04-05|Prahova|SINAIA|Prahovei|34|||||0734907536||monicuta_mini@yahoo.com|KTSV||1 Sobranie KS Gold (4 mg) Pack|Yes|No||PH005085|SC Irish Resort SRL|Brasov|BVHRKBA12|99|CCC HRK MULTI Iarna 2013|121|Horeca|0
0|CS3267759|2013-02-23 22:30:56|Radu|Raluca||F|1983-01-29|Neamt|BALTATESTI|Comunala|87|||||0767344292|||KTSWIT||1 Winston Fresh XSpression (5mg) Pack|Yes|No||PH005085|SC Irish Resort SRL|Brasov|BVHRKBA13|99|CCC HRK MULTI Iarna 2013|121|Horeca|0
0|CS3267767|2013-02-23 22:37:29|Susu|Raluca||F|1987-07-05|Brasov|BRASOV|Izvor|7|||||0722986020||raluca_susu@yahoo.com|KTSWIT||1 Winston Fresh XSpression (5mg) Pack|Yes|Yes||BV001017|CASA ROMA SRL DA VINCI|Brasov|BVHRKBA24|99|CCC HRK MULTI Iarna 2013|121|Horeca|0
0|CS3267785|2013-02-23 22:42:25|Tudor|Ionut||M|1988-11-03|Prahova|COMARNIC|Ghiosesti|111|-|-|0|0|0762679683||asu_asilor_88@yahoo.com|CAFI||1 Camel Filters (10mg) Pack|Yes|Yes||PH005085|SC Irish Resort SRL|Brasov|BVHRKBA20|99|CCC HRK MULTI Iarna 2013|121|Horeca|0
0|CS3267798|2013-02-23 22:44:54|Mihailescu|Andrei||M|1981-05-22|Bucuresti|SECTOR 6|Crangasi|22|||||0726269492||andrei@traindgroup.ro|PMECBL||1 Winston Blue (6mg) Pack|Yes|Yes||BV001017|CASA ROMA SRL DA VINCI|Brasov|BVHRKBA24|99|CCC HRK MULTI Iarna 2013|121|Horeca|0
0|CS3267776|2013-02-23 22:47:19|Budescu|Bogdan||M|1987-03-03|Brasov|BRASOV|Vlahuta|63|139|A|10|39|0728141821||bbudescu@gmail.com|MBRRD||1 Camel Filters (10mg) Pack|Yes|Yes||BV001017|CASA ROMA SRL DA VINCI|Brasov|BVHRKBA23|99|CCC HRK MULTI Iarna 2013|121|Horeca|0
0|CS3267796|2013-02-23 22:47:31|Nema|Maria||F|1956-07-19|Brasov|BRASOV|Jepilor|4|||||0744489906|||KTBL||1 Camel Black (6 mg) Pack|Yes|No||BV001017|CASA ROMA SRL DA VINCI|Brasov|BVHRKBA17|99|CCC HRK MULTI Iarna 2013|121|Horeca|0
0|CS3267819|2013-02-23 22:50:42|Dragan|Vasile||M|1982-05-25|Bacau|BACAU|Carbunari|56|||||0745876905|||WIBLH||1 Winston 100s Blue (6 mg)  Pack|Yes|Yes||BV001017|CASA ROMA SRL DA VINCI|Brasov|BVHRKBA21|99|CCC HRK MULTI Iarna 2013|121|Horeca|0
0|CS3267824|2013-02-23 22:51:41|Pintilie|Georgiana||F|1990-08-17|Vrancea|ADJUD|Ruginesti|34|||||0781114377||geo_p03@yahoo.com|KTSWIT||1 Winston Fresh XSpression (5mg) Pack|Yes|Yes||BV001017|CASA ROMA SRL DA VINCI|Brasov|BVHRKBA24|99|CCC HRK MULTI Iarna 2013|121|Horeca|0
0|CS3267831|2013-02-23 22:52:59|Vladimir|Diana||M|1990-08-26|Bucuresti|SECTOR 2|Grivitei|69|||||0734900666||dia.vladimir@yahoo.com|KTH||1 Winston 100s Blue (6 mg)  Pack|Yes|Yes||BV001017|CASA ROMA SRL DA VINCI|Brasov|BVHRKBA21|99|CCC HRK MULTI Iarna 2013|121|Horeca|0
0|CS3267833|2013-02-23 22:53:23|Nichifor|Vlad||M|1990-08-01|Brasov|Sinaia|Aleea bratei|1|||0|0|0727885056||vnichifor@yahoo.com|SBSSPK||1 Sobranie SS Pink (3 mg) Pack|Yes|Yes||PH001373|OLD NICK BAR CAFFE CAFENEA (CAFENEAUA PARCULUI)|Brasov|BVHRKBA13|99|CCC HRK MULTI Iarna 2013|121|Horeca|0
0|CS3267836|2013-02-23 22:53:52|Tudorica|Cristian||M|1974-07-17|Prahova|CAMPINA|Bp hasdeu|1|||||0723380496|||DUNFCMBB||1 Sobranie KS Blue (6 mg) Pack|Yes|Yes||PH001373|OLD NICK BAR CAFFE CAFENEA (CAFENEAUA PARCULUI)|Brasov|BVHRKBA20|99|CCC HRK MULTI Iarna 2013|121|Horeca|0
0|CS3267842|2013-02-23 22:55:11|Chivu|Anca||F|1976-10-01|Prahova|SINAIA|George enescu|9|||||0722641657||ancasarbescu@yahoo.com|SBSSBK||1 Sobranie SS Black (6 mg) Pack|Yes|No||PH001373|OLD NICK BAR CAFFE CAFENEA (CAFENEAUA PARCULUI)|Brasov|BVHRKBA12|99|CCC HRK MULTI Iarna 2013|121|Horeca|0
0|CS3267844|2013-02-23 22:55:36|Petre|Vlad||M|1990-07-31|Prahova|Comarnic|CostisulUi|21|||0|0|0736041803||vladp_13@yahoo.com|WIBLH||1 Winston 100s Blue (6 mg)  Pack|Yes|Yes||PH001373|OLD NICK BAR CAFFE CAFENEA (CAFENEAUA PARCULUI)|Brasov|BVHRKBA16|99|CCC HRK MULTI Iarna 2013|121|Horeca|0
0|CS3267850|2013-02-23 22:56:52|Garbovan|Ioan||M|1982-07-28|Brasov|BRASOV|Lunga|145|||||0768566788|||WIXSTFX||1 Winston Fresh XSpression (5mg) Pack|Yes|Yes||BV001017|CASA ROMA SRL DA VINCI|Brasov|BVHRKBA21|99|CCC HRK MULTI Iarna 2013|121|Horeca|0
0|CS3267859|2013-02-23 22:59:09|Viteazu|Darius||M|1983-04-05|Bucuresti|SECTOR 2|Harmanului|67||||5|0723783411||viteazu.darius@gmail.com|KTBL||1 Camel Blue (6 mg) Pack|Yes|No||PH001373|OLD NICK BAR CAFFE CAFENEA (CAFENEAUA PARCULUI)|Brasov|BVHRKBA13|99|CCC HRK MULTI Iarna 2013|121|Horeca|0
0|CS3267862|2013-02-23 22:59:35|Olaru|Felix||M|1977-01-11|Prahova|CAMPINA|Hasdeu|1|||||0743333116|||MBRGL||1 Camel Blue (6 mg) Pack|Yes|No||PH001373|OLD NICK BAR CAFFE CAFENEA (CAFENEAUA PARCULUI)|Brasov|BVHRKBA20|99|CCC HRK MULTI Iarna 2013|121|Horeca|0
0|CS3267863|2013-02-23 22:59:58|Ganea|Paul||M|1988-05-01|Prahova|SINAIA|Independentei|17|||||0721864985|||MBRGL||1 Camel Blue (6 mg) Pack|Yes|No||PH001373|OLD NICK BAR CAFFE CAFENEA (CAFENEAUA PARCULUI)|Brasov|BVHRKBA12|99|CCC HRK MULTI Iarna 2013|121|Horeca|0
0|CS3267865|2013-02-23 23:00:13|Badita|Marius||M|1978-02-10|Giurgiu|GIURGIU|Stefan cel Mare|12|24|A||9|0739163829||badita_marius@gmail.com|MBRFP||1 Camel Blue (6 mg) Pack|Yes|No||PH001373|OLD NICK BAR CAFFE CAFENEA (CAFENEAUA PARCULUI)|Brasov|BVHRKBA16|99|CCC HRK MULTI Iarna 2013|121|Horeca|0
0|CS3267872|2013-02-23 23:01:04|Gligor|Miruna||F|1988-06-04|Constanta|CONSTANTA|Principala|23|||||0754299865||miru_1988@yahoo.com|KTSWIT||1 Winston Fresh XSpression (5mg) Pack|Yes|No||PH001373|OLD NICK BAR CAFFE CAFENEA (CAFENEAUA PARCULUI)|Brasov|BVHRKBA12|99|CCC HRK MULTI Iarna 2013|121|Horeca|0
0|CS3267875|2013-02-23 23:02:46|Pislaru|Ioana||F|1980-06-09|Giurgiu|GIURGIU|Mihai Viteazu|48|48|A||12|0729387616||ioana_pislaru_82@yahoo.com|MBRGLA||1 Camel Blue (6 mg) Pack|Yes|No||PH001373|OLD NICK BAR CAFFE CAFENEA (CAFENEAUA PARCULUI)|Brasov|BVHRKBA16|99|CCC HRK MULTI Iarna 2013|121|Horeca|0
0|CS3267877|2013-02-23 23:04:52|Oancea|Mihai||M|1981-12-22|Bucuresti|Bucuresti|Miron Costin|14|||||0763112449||mihaioancea@yahoo.com|KTBL||1 Camel Black (6 mg) Pack|Yes|No||PH001373|OLD NICK BAR CAFFE CAFENEA (CAFENEAUA PARCULUI)|Brasov|BVHRKBA20|99|CCC HRK MULTI Iarna 2013|121|Horeca|0
0|CS3267881|2013-02-23 23:06:28|Teodor|Vasile||M|1986-03-05|Bucuresti|Bucuresti|Avram Iancu|2|||||0722114557||vasy449@yahoo.com|KTBL||1 Camel Black (6 mg) Pack|Yes|No||PH001373|OLD NICK BAR CAFFE CAFENEA (CAFENEAUA PARCULUI)|Brasov|BVHRKBA20|99|CCC HRK MULTI Iarna 2013|121|Horeca|0
0|CS3267885|2013-02-23 23:08:59|Degan|Alexandra||F|1988-08-19|Brasov|BRASOV|Mircea Cel Batran|49|36|A|3|14|0744996142||dalexa7@yahoo.com|VIRSM||1 Glamour Menthol (5mg) Pack|Yes|Yes||BV001173|ALDAR REZIDENTIAL SRL|Brasov|BVHRKBA17|99|CCC HRK MULTI Iarna 2013|121|Horeca|0
0|CS3267888|2013-02-23 23:11:07|Mintulescu|Ilinca||F|1993-02-28|Bucuresti|SECTOR 1|Veronica micle|22|||||0722629489||green_lime4u@yahoo.com|DUNBL||1 Sobranie KS Blue (6 mg) Pack|Yes|Yes||BV001173|ALDAR REZIDENTIAL SRL|Brasov|BVHRKBA23|99|CCC HRK MULTI Iarna 2013|121|Horeca|0
0|CS3267889|2013-02-23 23:11:21|Zabara|Oana Andreea||F|1987-10-09|Bucuresti|SECTOR 2|Aleea Cobita|6|||||0748770202||oana.zabat@yahoo.com|PHMQBKH||1 Camel Black (6 mg) Pack|Yes|Yes||BV001173|ALDAR REZIDENTIAL SRL|Brasov|BVHRKBA21|99|CCC HRK MULTI Iarna 2013|121|Horeca|0
0|CS3267894|2013-02-23 23:12:32|Papuse|Stan||M|1967-03-15|Brasov|BRASOV|Toamnei|77|||||0766555756|||PMBL||1 Winston Blue (6mg) Pack|Yes|No||BV001173|ALDAR REZIDENTIAL SRL|Brasov|BVHRKBA17|99|CCC HRK MULTI Iarna 2013|121|Horeca|0
0|CS3267896|2013-02-23 23:14:11|Ploscariu|Ciprian||M|1977-08-20|Brasov|Brasov|Rozelor|2|||||0732163111||autocipexa@yahoo.com|DUNFCMBB||1 Sobranie KS Blue (6 mg) Pack|Yes|Yes||BV001173|ALDAR REZIDENTIAL SRL|Brasov|BVHRKBA21|99|CCC HRK MULTI Iarna 2013|121|Horeca|0
0|CS3267899|2013-02-23 23:16:16|Paraschiv|Simona||M|1976-09-13|Brasov|Brasov|Saturn|41|0|H|5|23|0744914706||paraschivssicoo@yahoo.com|DUNFCMBB||1 Sobranie KS Blue (6 mg) Pack|Yes|Yes||BV001173|ALDAR REZIDENTIAL SRL|Brasov|BVHRKBA21|99|CCC HRK MULTI Iarna 2013|121|Horeca|0
0|CS3267906|2013-02-23 23:22:08|Ungurean|Florin||M|1987-04-17|Brasov|BRASOV|Visinului|9|13||4|58|0747927123||floppy_sara@yahoo.it|DUNFCBB||1 Sobranie KS Gold (4 mg) Pack|Yes|Yes||BV001173|ALDAR REZIDENTIAL SRL|Brasov|BVHRKBA24|99|CCC HRK MULTI Iarna 2013|121|Horeca|0
0|CS3267917|2013-02-23 23:26:25|Prodan|Daniel||M|1987-11-03|Brasov|Brasov|Racovita|9|31|A|10|43|0755561136||bunicutzu2003@yahoo.com|WIBLH||1 Winston 100s Blue (6 mg)  Pack|Yes|Yes||BV001173|ALDAR REZIDENTIAL SRL|Brasov|BVHRKBA24|99|CCC HRK MULTI Iarna 2013|121|Horeca|0
0|CS3267965|2013-02-23 23:37:55|Vilcu|Gabriela||F|1980-11-24|Bucuresti|1|Belizaria|22-24|C1|C|2|34|0723807617||gabriela_vilcu24@yahoo.com|CAWH||0 Camel White (1 mg) Pack|Yes|Yes||PH001430|OLD NICK BAR CAFFE PUB|Brasov|BVHRKBA12|99|CCC HRK MULTI Iarna 2013|121|Horeca|0
0|CS3267976|2013-02-23 23:39:36|Ivan|Robert||M|1985-07-30|Bucuresti|SECTOR 6|Rosia Montana|1|17|2||42|0768476522||robert_mihai2007@yahoo.com|DAVGL||0 Sobranie KS Blue (6 mg) Pack|Yes|Yes||PH001430|OLD NICK BAR CAFFE PUB|Brasov|BVHRKBA16|99|CCC HRK MULTI Iarna 2013|121|Horeca|0
0|CS3267978|2013-02-23 23:40:10|Popescu|Maria||F|1991-11-06|Bucuresti|Bucuresti|Natiunile unite|105|||||0722378840||popescu.maria8@gmail.com|KTSV||0 Camel White (1 mg) Pack|Yes|Yes||PH001430|OLD NICK BAR CAFFE PUB|Brasov|BVHRKBA20|99|CCC HRK MULTI Iarna 2013|121|Horeca|0
0|CS3267979|2013-02-23 23:40:15|Balan|Vali||M|1984-02-10|Prahova|SINAIA|Calea moroeni|39|||||0734602805||valibalan498@yahoo.com|CASV||0 Camel Silver (4 mg) Pack|Yes|Yes||PH001430|OLD NICK BAR CAFFE PUB|Brasov|BVHRKBA13|99|CCC HRK MULTI Iarna 2013|121|Horeca|0
0|CS3268077|2013-02-23 23:41:32|Egobescu|Cristina||F|1968-08-30|Ilfov|VOLUNTARI|Vrajari|39|||||0741020594|||VOGM||0 Glamour Menthol (5mg) Pack|Yes|No||PH001430|OLD NICK BAR CAFFE PUB|Brasov|BVHRKBA12|99|CCC HRK MULTI Iarna 2013|121|Horeca|0
0|CS3267986|2013-02-23 23:41:44|Ivan|Ioana||F|1985-07-14|Bucuresti|SECTOR 6|Rosia Montana|1|17|2||42|0765472135||ioana_bulete@yahoo.com|WISSB||0 Winston Super Slims Blue (5mg) Pack|Yes|Yes||PH001430|OLD NICK BAR CAFFE PUB|Brasov|BVHRKBA16|99|CCC HRK MULTI Iarna 2013|121|Horeca|0
0|CS3267991|2013-02-23 23:42:31|Serban|Ioana||F|1991-01-25|Bucuresti|Bucuresti|Iancu de hunedoara|64|||||0741076768||serban.ion@gmail.com|KTSV||0 Camel White (1 mg) Pack|Yes|Yes||PH001430|OLD NICK BAR CAFFE PUB|Brasov|BVHRKBA20|99|CCC HRK MULTI Iarna 2013|121|Horeca|0
0|CS3268005|2013-02-23 23:44:27|Hulpe|Alexandra||F|1986-06-19|Prahova|Sinaia|Zorelelor|2|||||0765330487||panselandra@yaho.com|VOGJSN|VOGLL|0 Glamour PB Menthol FT (5mg) Pack|Yes|Yes||PH001430|OLD NICK BAR CAFFE PUB|Brasov|BVHRKBA13|99|CCC HRK MULTI Iarna 2013|121|Horeca|0
0|CS3268011|2013-02-23 23:46:01|Barbu|Silviana||F|1990-04-29|Bucuresti|Bucuresti|Postavarului|11|||||0767018110||kitty_silvicutza@yahoo.com|DUNFCMBB||0 Sobranie KS Blue (6 mg) Pack|Yes|Yes||PH001430|OLD NICK BAR CAFFE PUB|Brasov|BVHRKBA20|99|CCC HRK MULTI Iarna 2013|121|Horeca|0
0|CS3268012|2013-02-23 23:46:04|Constantin|Mihaela||F|1977-12-08|Bucuresti|SECTOR 6|Drumul Sarii|2||||4|0726175945||misaali01@yahoo.com|DUNFCMBB||0 Sobranie KS Blue (6 mg) Pack|Yes|Yes||PH001430|OLD NICK BAR CAFFE PUB|Brasov|BVHRKBA16|99|CCC HRK MULTI Iarna 2013|121|Horeca|0
0|CS3268078|2013-02-23 23:47:54|Ioachim|Cosmin||M|1980-06-10|Prahova|PLOIESTI|Spatar milescu|27a|141c|B||30|0723336836||cosmin_gsm1@yahoo.com|KTWH||0 Sobranie SS White (1 mg) Pack|Yes|Yes||PH001430|OLD NICK BAR CAFFE PUB|Brasov|BVHRKBA12|99|CCC HRK MULTI Iarna 2013|121|Horeca|0
0|CS3268028|2013-02-23 23:48:59|Ionescu|Mircea||M|1987-02-02|Bucuresti|1|Bratianu|2|D1|B|3|54|0732422065|||CABK||0 Camel Black (6 mg) Pack|Yes|Yes||PH001430|OLD NICK BAR CAFFE PUB|Brasov|BVHRKBA13|99|CCC HRK MULTI Iarna 2013|121|Horeca|0
0|CS3268032|2013-02-23 23:49:40|Balas|Radu||M|1978-12-01|Bucuresti|Bucuresti|Aviatorilor|10|||||0721220597||radu_balas@yahoo.com|SOBWR||0 Sobranie KS Blue (6 mg) Pack|Yes|Yes||PH001430|OLD NICK BAR CAFFE PUB|Brasov|BVHRKBA20|99|CCC HRK MULTI Iarna 2013|121|Horeca|0
0|CS3268038|2013-02-23 23:50:26|Constantin|Nicoleta||F|1982-12-07|Bucuresti|SECTOR 2|Elev Stefanescu|63|||0|0|0745661683||nicoleta.constantin2011@gmail.com|VOGLL||1 Sobranie SS White (1 mg) Pack|Yes|Yes||BV001229|KEBO DESIGN SRL|Brasov|BVHRKBA24|99|CCC HRK MULTI Iarna 2013|121|Horeca|0
0|CS3268041|2013-02-23 23:50:59|Vasilescu|Andrei||M|1992-05-10|Bucuresti|SECTOR 3|Foisorului|23|||||0721189222||vasilescuandrei92@yahoo.com|MBRGLFT||0 Winston XStyle Silver (4mg) Pack|Yes|Yes||PH001430|OLD NICK BAR CAFFE PUB|Brasov|BVHRKBA16|99|CCC HRK MULTI Iarna 2013|121|Horeca|0
0|CS3268079|2013-02-23 23:51:43|Matei|Geanin||M|1981-03-16|Prahova|PLOIESTI|Aleea lasiei|7|5|B||26|0727576364||mgeanin@yahoo.com|DUNFCMBB||0 Sobranie KS Blue (6 mg) Pack|Yes|Yes||PH001430|OLD NICK BAR CAFFE PUB|Brasov|BVHRKBA12|99|CCC HRK MULTI Iarna 2013|121|Horeca|0
0|CS3268049|2013-02-23 23:52:13|Petre|Casandra||F|1991-04-16|Prahova|SINAIA|Republicii|14|||0|0|0720171586||casandrapetre@yahoo.com|SBSSPK||0 Sobranie SS Pink (3 mg) Pack|Yes|Yes||PH001430|OLD NICK BAR CAFFE PUB|Brasov|BVHRKBA13|99|CCC HRK MULTI Iarna 2013|121|Horeca|0
0|CS3268054|2013-02-23 23:52:55|Tineghe|Florin||M|1981-12-11|Bucuresti|Bucuresti|Porumbacu|11|||||0740782742||florisda@yahoo.com|KTSV||0 Winston Silver (4 mg) Pack|Yes|Yes||PH001430|OLD NICK BAR CAFFE PUB|Brasov|BVHRKBA20|99|CCC HRK MULTI Iarna 2013|121|Horeca|0
0|CS3268056|2013-02-23 23:53:17|Mirica|Mircea||M|1990-09-11|Brasov|BRASOV|Muncii|15|||0|0|0756536669|||SBKSGD||1 Sobranie KS Gold (4 mg) Pack|Yes|No||BV001229|KEBO DESIGN SRL|Brasov|BVHRKBA23|99|CCC HRK MULTI Iarna 2013|121|Horeca|0
0|CS3268060|2013-02-23 23:53:51|Popescu|Adrian||M|1987-02-05|Bucuresti|SECTOR 5|Splaiul Independentei|290|||||0737339085||p0werdarth@gmail.com|KTBL||0 Camel Black (6 mg) Pack|Yes|Yes||PH001430|OLD NICK BAR CAFFE PUB|Brasov|BVHRKBA16|99|CCC HRK MULTI Iarna 2013|121|Horeca|0
0|CS3268069|2013-02-23 23:54:54|Mihai|Alina||F|1986-11-01|Bucuresti|SECTOR 3|Dimitrie cantemir|16|||||0726027258|||DAVSVSS||0 Sobranie SS Black (6 mg) Pack|Yes|Yes||PH001430|OLD NICK BAR CAFFE PUB|Brasov|BVHRKBA13|99|CCC HRK MULTI Iarna 2013|121|Horeca|0
0|CS3268073|2013-02-23 23:55:13|Ioachim|Cristian||M|1986-05-04|Prahova|PLOIESTI|Spatari milescu|27|141|B||30|0724387274||cristi_040506@yahoo.com|DUNFCBB||0 Sobranie KS Gold (4 mg) Pack|Yes|Yes||PH001430|OLD NICK BAR CAFFE PUB|Brasov|BVHRKBA12|99|CCC HRK MULTI Iarna 2013|121|Horeca|0
0|CS3268075|2013-02-23 23:55:29|Rosu|Alexandra||F|1989-10-21|Brasov|Brasov|Saturn|41|0|E|1|4|0723453249|||DAVGLS||1 Sobranie SS Black (6 mg) Pack|Yes|Yes||BV001229|KEBO DESIGN SRL|Brasov|BVHRKBA24|99|CCC HRK MULTI Iarna 2013|121|Horeca|0
0|CS3268080|2013-02-23 23:55:36|Arz|Andreas||M|1988-08-21|Brasov|BRASOV|Octavian goga|35|||0|0|0720122096|||SBKSGD||1 Sobranie KS Gold (4 mg) Pack|Yes|No||BV001229|KEBO DESIGN SRL|Brasov|BVHRKBA23|99|CCC HRK MULTI Iarna 2013|121|Horeca|0
0|CS3268083|2013-02-23 23:56:28|Nistor|Maierean||M|1988-01-30|Covasna|SFANTU GHEORGHE|Banki donath|40|||||0728213460||nistorm06@yahoo.com|CABK||0 Camel Black (6 mg) Pack|Yes|Yes||PH001430|OLD NICK BAR CAFFE PUB|Brasov|BVHRKBA16|99|CCC HRK MULTI Iarna 2013|121|Horeca|0
0|CS3268084|2013-02-23 23:56:46|Ganea|Cristina||F|1990-10-10|Prahova|SINAIA|Valea prahovei|20|||||0727928210||ganeacristina90@yahoo.com|KTSV||0 Camel White (1 mg) Pack|Yes|Yes||PH001430|OLD NICK BAR CAFFE PUB|Brasov|BVHRKBA13|99|CCC HRK MULTI Iarna 2013|121|Horeca|0
0|CS3268089|2013-02-23 23:57:17|Epuras|Roxana||F|1983-02-01|Bucuresti|Bucuresti|Turda|94|||||0740250667||epurasroxana@yahoo.com|WISV||0 Winston Silver (4 mg) Pack|Yes|Yes||PH001430|OLD NICK BAR CAFFE PUB|Brasov|BVHRKBA20|99|CCC HRK MULTI Iarna 2013|121|Horeca|0
0|CS3268099|2013-02-23 23:58:57|Aldescu|Oana||F|1987-01-18|Prahova|SINAIA|Manastirii|3|||||0727701333|||DUNFCMBB||0 Sobranie KS Black (8 mg) Pack|Yes|Yes||PH001430|OLD NICK BAR CAFFE PUB|Brasov|BVHRKBA13|99|CCC HRK MULTI Iarna 2013|121|Horeca|0
0|CS3268102|2013-02-23 23:59:29|Andrei|Cristina||F|1985-05-17|Calarasi|CALARASI|Liliacului|29|||||0736689844||andrei_cristina@hotmail.com|KTBL||0 Camel Black (6 mg) Pack|Yes|Yes||PH001430|OLD NICK BAR CAFFE PUB|Brasov|BVHRKBA12|99|CCC HRK MULTI Iarna 2013|121|Horeca|0
0|CS3268105|2013-02-23 23:59:46|Vilceleanu|Vlad||M|1987-09-03|Bucuresti|SECTOR 1|Hrisovului|13|D3|E||34|0766795554||vladvalceleanu@gmail.com|WIXSTBL||0 Winston XStyle Blue (6mg) Pack|Yes|Yes||PH001430|OLD NICK BAR CAFFE PUB|Brasov|BVHRKBA16|99|CCC HRK MULTI Iarna 2013|121|Horeca|0
0|CS3268110|2013-02-24 00:00:51|Barbulescu|Bianca||F|1990-02-25|Prahova|SINAIA|Branduselor|7|10|C|0|7|0730420540||byank25@yahoo.com|VOGLL||0 Glamour Lilac (5mg) Pack|Yes|Yes||PH001430|OLD NICK BAR CAFFE PUB|Brasov|BVHRKBA13|99|CCC HRK MULTI Iarna 2013|121|Horeca|0
0|CS3268118|2013-02-24 00:01:05|Bogza|Radu||M|1987-05-16|Brasov|BRASOV|Zizinului|40|40|B|7|23|0769703923||radubogza@gmail.com|DAVGLS||1 Sobranie SS Black (6 mg) Pack|Yes|No||BV001229|KEBO DESIGN SRL|Brasov|BVHRKBA17|99|CCC HRK MULTI Iarna 2013|121|Horeca|0
0|CS3268120|2013-02-24 00:01:16|Stan|Alin||M|1991-06-17|Prahova|CAMPINA|Calea doftanei|172|||||0756364666||alinstan22@gmail.com|KTBL||0 Winston XStyle Blue (6mg) Pack|Yes|Yes||PH001430|OLD NICK BAR CAFFE PUB|Brasov|BVHRKBA20|99|CCC HRK MULTI Iarna 2013|121|Horeca|0
0|CS3268121|2013-02-24 00:01:24|Radu|Ana-maria||F|1986-08-10|Brasov|BRASOV|Drumul Cetatii|22|||||0744560234||raduanamaria10@gmail.com|PARRSSH||1 Sobranie SS Pink (3 mg) Pack|Yes|Yes||BV001229|KEBO DESIGN SRL|Brasov|BVHRKBA21|99|CCC HRK MULTI Iarna 2013|121|Horeca|0
0|CS3268123|2013-02-24 00:01:37|Papazi|Nelu||M|1977-02-22|Calarasi|CALARASI|Nicolae balcescu|33|||||0720031881||papazi3@yahoo.com|KTNBK||0 Winston XStyle Silver (4mg) Pack|Yes|Yes||PH001430|OLD NICK BAR CAFFE PUB|Brasov|BVHRKBA12|99|CCC HRK MULTI Iarna 2013|121|Horeca|0
0|CS3268135|2013-02-24 00:04:35|Sovaiala|Ruxandra||F|1991-07-19|Brasov|BRASOV|Lunga|12|||||0732456784|||SBSSPK||1 Sobranie SS Pink (3 mg) Pack|Yes|No||BV001229|KEBO DESIGN SRL|Brasov|BVHRKBA23|99|CCC HRK MULTI Iarna 2013|121|Horeca|0
0|CS3268152|2013-02-24 00:09:37|Fodor|Marian||M|1983-04-29|Bucuresti|4|Carpatilor|4|||||0745778990|||DUNFCSB||0 Sobranie KS Black (8 mg) Pack|Yes|No||PH001430|OLD NICK BAR CAFFE PUB|Brasov|BVHRKBA13|99|CCC HRK MULTI Iarna 2013|121|Horeca|0
0|CS3268153|2013-02-24 00:09:55|Busuioc|Marius||M|1980-08-13|Brasov|BRASOV|Mimozei|21|||||0735467894|||CAFI||0 Camel Filters (10mg) Pack|Yes|No||PH001430|OLD NICK BAR CAFFE PUB|Brasov|BVHRKBA12|99|CCC HRK MULTI Iarna 2013|121|Horeca|0
0|CS3268157|2013-02-24 00:10:36|Robu|Ionut||M|1976-03-05|Brasov|BRASOV|Carpatilor|14|||||0744332116|||KTBL||0 Camel Black (6 mg) Pack|Yes|No||PH001430|OLD NICK BAR CAFFE PUB|Brasov|BVHRKBA20|99|CCC HRK MULTI Iarna 2013|121|Horeca|0
0|CS3268161|2013-02-24 00:11:15|Bodean|Raluca||M|1991-01-10|Brasov|BRASOV|Ion luca caragiale|9||B|0|11|0743253413||ralu_bodean@yahoo.co.uk|DUNFCBB||0 Sobranie KS Gold (4 mg) Pack|Yes|Yes||PH001430|OLD NICK BAR CAFFE PUB|Brasov|BVHRKBA12|99|CCC HRK MULTI Iarna 2013|121|Horeca|0
0|CS3268409|2013-02-24 00:55:26|Necea|Daniela||F|1992-10-31|Brasov|BRASOV|Simeria|2|||||0741511141||danuttzza_bv@yahoo.com|VIRSV||0 Glamour Azure (3mg) Pack|Yes|Yes||BV001512|SOFIMATI CLUB|Brasov|BVHRKBA17|99|CCC HRK MULTI Iarna 2013|121|Horeca|0
0|CS3268415|2013-02-24 00:55:50|Kozma|Cristina||F|1991-02-01|Brasov|BRASOV|Harmanului|92|3|A|1|3|0744264312||crisa_bv@yahoo.com|KTBL||0 Camel Black (6 mg) Pack|Yes|Yes||BV001512|SOFIMATI CLUB|Brasov|BVHRKBA21|99|CCC HRK MULTI Iarna 2013|121|Horeca|0
0|CS3268421|2013-02-24 00:56:53|Proorocu|Cornelia ana||F|1991-09-25|Brasov|Brasov|Aleea violetelor|2|60|D|1|7|0755335060||proorocuana@yahoo.com|PMSV||0 Winston XStyle Silver (4mg) Pack|Yes|Yes||BV001512|SOFIMATI CLUB|Brasov|BVHRKBA24|99|CCC HRK MULTI Iarna 2013|121|Horeca|0
0|CS3268424|2013-02-24 00:57:30|Dumitru|Ciprian||M|1988-03-13|Prahova|PLOIESTI|Fantanele|1|25c|B|0|20|0732681703||dumitruiliecipria@gmail.com|KTBL||0 Camel Black (6 mg) Pack|Yes|Yes||BV001512|SOFIMATI CLUB|Brasov|BVHRKBA23|99|CCC HRK MULTI Iarna 2013|121|Horeca|0
0|CS3268431|2013-02-24 00:58:23|Vlad|Claudia||F|1994-03-22|Brasov|BRASOV|Aleea Constructorilor|17|17|0|0|20|0744454496||claudiaa.aaaa@yahoo.com|PARRSSH||0 Sobranie SS Pink (3 mg) Pack|Yes|Yes||BV001512|SOFIMATI CLUB|Brasov|BVHRKBA17|99|CCC HRK MULTI Iarna 2013|121|Horeca|0
0|CS3268433|2013-02-24 00:58:40|Stupar|Remus||M|1981-07-07|Brasov|BRASOV|Dimitrie Anghel|12|||||0745026411|||KTSV||0 Camel White (1 mg) Pack|Yes|No||BV001512|SOFIMATI CLUB|Brasov|BVHRKBA21|99|CCC HRK MULTI Iarna 2013|121|Horeca|0
0|CS3268443|2013-02-24 01:00:10|Tomescu|Alina||F|1993-03-05|Brasov|ZARNESTI|Zorilor|10|10|B|2|12|0756319246||alynuttza_93@yahoo.com|KTBL||0 Camel Black (6 mg) Pack|Yes|Yes||BV001512|SOFIMATI CLUB|Brasov|BVHRKBA23|99|CCC HRK MULTI Iarna 2013|121|Horeca|0
0|CS3268444|2013-02-24 01:00:22|Buzincu|Cristian||M|1985-04-16|Brasov|BRASOV|Drumul Cernatului|14a|1a|A|1|3|0727653003||cris_ti_an90@yahoo.com|PMECBL||0 Winston 100s Blue (6 mg)  Pack|Yes|Yes||BV001512|SOFIMATI CLUB|Brasov|BVHRKBA24|99|CCC HRK MULTI Iarna 2013|121|Horeca|0
0|CS3268446|2013-02-24 01:00:41|Bortos|Roxana||F|1993-07-11|Brasov|Brasov|Deda|2|17|B|3|10|0749800439||roxy_iulia2008@yahoo.com|VIRSV||0 Glamour Azure (3mg) Pack|Yes|Yes||BV001512|SOFIMATI CLUB|Brasov|BVHRKBA17|99|CCC HRK MULTI Iarna 2013|121|Horeca|0
0|CS3268456|2013-02-24 01:02:31|Baban|Carmina||F|1994-02-13|Brasov|Brasov|Movilei|0|20|C|2|7|0746672338||carmy.lora@yahoo.com|PMECBL||0 Winston Blue (6mg) Pack|Yes|Yes||BV001512|SOFIMATI CLUB|Brasov|BVHRKBA24|99|CCC HRK MULTI Iarna 2013|121|Horeca|0
0|CS3268463|2013-02-24 01:03:00|Selaru|Luiza||F|1993-04-23|Brasov|Brasov|Pascani|1|19|B|1|4|0751412131||luiza_lula@yahoo.com|GLMLIL||0 Glamour Lilac (5mg) Pack|Yes|Yes||BV001512|SOFIMATI CLUB|Brasov|BVHRKBA17|99|CCC HRK MULTI Iarna 2013|121|Horeca|0
0|CS3268464|2013-02-24 01:03:04|Sandor|Lazar||M|1981-05-23|Brasov|BRASOV|Mierlei|20|C23|B|3|14|0744642898||sonyy20@yahoo.com|PMBL||0 Winston XStyle Blue (6mg) Pack|Yes|Yes||BV001512|SOFIMATI CLUB|Brasov|BVHRKBA21|99|CCC HRK MULTI Iarna 2013|121|Horeca|0
0|CS3268469|2013-02-24 01:03:49|Chelmu|Monalisa||F|1986-08-19|Galati|TECUCI|Capitan gheorghe decuseara|7|||||0762135896||mona.lyyssa@yahoo.com|KTSV||0 Camel White (1 mg) Pack|Yes|Yes||BV001512|SOFIMATI CLUB|Brasov|BVHRKBA23|99|CCC HRK MULTI Iarna 2013|121|Horeca|0
0|CS3268481|2013-02-24 01:05:42|Kis|Bea||F|1991-03-06|Mures|Tg mures|Voinicenilor|70a|||||0746702743||bea_kis69@yaho.com|KTBL||0 Camel Black (6 mg) Pack|Yes|Yes||BV001512|SOFIMATI CLUB|Brasov|BVHRKBA24|99|CCC HRK MULTI Iarna 2013|121|Horeca|0
0|CS3268485|2013-02-24 01:06:17|Ciobaca|Adrian||M|1992-05-25|Brasov|BRASOV|Karl Lehmann|5|||||0747519072||donncioby@yahoo.com|DUNFCMBB||0 Sobranie KS Blue (6 mg) Pack|Yes|Yes||BV001512|SOFIMATI CLUB|Brasov|BVHRKBA17|99|CCC HRK MULTI Iarna 2013|121|Horeca|0
0|CS3268500|2013-02-24 01:07:51|Guragata|Ionut||M|1987-11-01|Brasov|ZARNESTI|Mare|173|5|41|2|41|0731600697||guragataionut@yahoo.com|PARRSSH||0 Sobranie SS Black (6 mg) Pack|Yes|Yes||BV001512|SOFIMATI CLUB|Brasov|BVHRKBA23|99|CCC HRK MULTI Iarna 2013|121|Horeca|0
0|CS3268505|2013-02-24 01:08:38|Ciurea|Lucian||M|1986-11-23|Brasov|BRASOV|Grivitei|62|6||1|6|0723543481||lucian.ciurea@yahoo.com|KTBL||0 Camel Black (6 mg) Pack|Yes|Yes||BV001512|SOFIMATI CLUB|Brasov|BVHRKBA21|99|CCC HRK MULTI Iarna 2013|121|Horeca|0
0|CS3268522|2013-02-24 01:11:36|Raduc|Valentin||M|1991-05-05|Brasov|Brasov|Mociulschi|30|16|A|4|401|0748385946||raduc_91@yahoo.com|DUNFCBB||0 Sobranie KS Gold (4 mg) Pack|Yes|Yes||BV001512|SOFIMATI CLUB|Brasov|BVHRKBA24|99|CCC HRK MULTI Iarna 2013|121|Horeca|0
0|CS3268524|2013-02-24 01:11:39|Domescu|Andra||F|1987-09-12|Brasov|BRASOV|Grivitei|40|77|A|7|40|0726488428||tomi_andra@yahoo.com|KTSWIT||0 Winston Fresh XSpression (5mg) Pack|Yes|Yes||BV001512|SOFIMATI CLUB|Brasov|BVHRKBA21|99|CCC HRK MULTI Iarna 2013|121|Horeca|0
0|CS3268533|2013-02-24 01:13:27|Nicula|Sorana||F|1990-03-21|Brasov|BRASOV|Cicanului|4|||||0744216331||sweet_duchess90@yahoo.com|PMECBL||0 Winston Blue (6mg) Pack|Yes|Yes||BV001512|SOFIMATI CLUB|Brasov|BVHRKBA23|99|CCC HRK MULTI Iarna 2013|121|Horeca|0
0|CS3268539|2013-02-24 01:14:21|Burlacu|Ionut||M|1986-12-18|Brasov|BRASOV|Sitei|75|||||0723453332||ionutzburlacutzul@yahoo.com|KTBL||0 Camel Black (6 mg) Pack|Yes|No||BV001512|SOFIMATI CLUB|Brasov|BVHRKBA17|99|CCC HRK MULTI Iarna 2013|121|Horeca|0
0|CS3268543|2013-02-24 01:15:18|Silaghi|Cristina||F|1987-10-24|Brasov|BRASOV|Harmanului|21|31|A|2|9|0765461893||cristinasilaghi24@yahoo.com|KTSWIT||0 Winston Fresh XSpression (5mg) Pack|Yes|Yes||BV001512|SOFIMATI CLUB|Brasov|BVHRKBA21|99|CCC HRK MULTI Iarna 2013|121|Horeca|0
0|CS3268548|2013-02-24 01:16:04|Cozma|Marius||M|1988-06-13|Suceava|DRAGUSENI|Hanul draguseni|482|||||0757136750|||PMECBK||0 Winston 100s Clasic (10 mg)  Pack|Yes|Yes||BV001512|SOFIMATI CLUB|Brasov|BVHRKBA23|99|CCC HRK MULTI Iarna 2013|121|Horeca|0
0|CS3268571|2013-02-24 01:20:29|Vranceanu|Raul||M|1984-02-23|Brasov|BRASOV|Alexandru Cel Bun|26|F7|A|4|19|0765530134||raul_vranceanu@yahoo.com|DUNFCMBB||0 Sobranie KS Blue (6 mg) Pack|Yes|Yes||BV001512|SOFIMATI CLUB|Brasov|BVHRKBA17|99|CCC HRK MULTI Iarna 2013|121|Horeca|0
0|FS748726|2013-02-22 20:18:05||||M|||||||||||||KTSWIT||||||||||99|CCC HRK MULTI Iarna 2013|121|Horeca|0
0|FS749122|2013-02-22 21:22:16||||M|||||||||||||DAVGL||||||||||99|CCC HRK MULTI Iarna 2013|121|Horeca|0
0|FS749126|2013-02-22 21:24:07||||M|||||||||||||KTBL||||||||||99|CCC HRK MULTI Iarna 2013|121|Horeca|0
0|FS749127|2013-02-22 21:24:20||||F|||||||||||||KTBL||||||||||99|CCC HRK MULTI Iarna 2013|121|Horeca|0
0|FS749137|2013-02-22 21:26:16||||M|||||||||||||DAVGLS||||||||||99|CCC HRK MULTI Iarna 2013|121|Horeca|0
0|FS749153|2013-02-22 21:31:28||||F|||||||||||||DAVGL||||||||||99|CCC HRK MULTI Iarna 2013|121|Horeca|0
0|FS749154|2013-02-22 21:32:19||||M|||||||||||||KTBL||||||||||99|CCC HRK MULTI Iarna 2013|121|Horeca|0
0|FS749305|2013-02-22 22:11:30||||M|||||||||||||MBRFPEX||||||||||99|CCC HRK MULTI Iarna 2013|121|Horeca|0
0|FS749310|2013-02-22 22:16:41|||||||||||||||||PARABH||||||||||99|CCC HRK MULTI Iarna 2013|121|Horeca|0
0|FS749320|2013-02-22 22:18:16|||||||||||||||||DAVGL||||||||||99|CCC HRK MULTI Iarna 2013|121|Horeca|0
0|FS749331|2013-02-22 22:26:27||||M|||||||||||||KTBLH||||||||||99|CCC HRK MULTI Iarna 2013|121|Horeca|0
0|FS749471|2013-02-22 22:54:58||||M|||||||||||||MBRFP||||||||||99|CCC HRK MULTI Iarna 2013|121|Horeca|0
0|FS749655|2013-02-22 23:51:35|||||||||||||||||PARRSSH||||||||||99|CCC HRK MULTI Iarna 2013|121|Horeca|0
0|FS749662|2013-02-22 23:53:51|||||||||||||||||KTSWIT||||||||||99|CCC HRK MULTI Iarna 2013|121|Horeca|0
0|FS750806|2013-02-23 19:26:36||||M|||||||||||||KTBL||||||||||99|CCC HRK MULTI Iarna 2013|121|Horeca|0
0|FS750839|2013-02-23 19:40:00|||||||||||||||||VOGLL||||||||||99|CCC HRK MULTI Iarna 2013|121|Horeca|0
0|FS750858|2013-02-23 19:44:22|||||||||||||||||LSRD||||||||||99|CCC HRK MULTI Iarna 2013|121|Horeca|0
0|FS750886|2013-02-23 19:50:35||||F|||||||||||||DUNFCBB||||||||||99|CCC HRK MULTI Iarna 2013|121|Horeca|0
0|FS750989|2013-02-23 20:14:43|||||||||||||||||KTBL6||||||||||99|CCC HRK MULTI Iarna 2013|121|Horeca|0
0|FS751218|2013-02-23 21:14:35|||||||||||||||||DUNFCMBB||||||||||99|CCC HRK MULTI Iarna 2013|121|Horeca|0
0|FS751258|2013-02-23 21:21:48||||F|||||||||||||DAVGLS||||||||||99|CCC HRK MULTI Iarna 2013|121|Horeca|0
0|FS751276|2013-02-23 21:25:48|||||||||||||||||MBRGLT||||||||||99|CCC HRK MULTI Iarna 2013|121|Horeca|0
0|FS751297|2013-02-23 21:30:39||||F|||||||||||||VIRSPR||||||||||99|CCC HRK MULTI Iarna 2013|121|Horeca|0
0|FS751324|2013-02-23 21:40:25||||F|||||||||||||VIRSM||||||||||99|CCC HRK MULTI Iarna 2013|121|Horeca|0
0|FS751329|2013-02-23 21:41:34||||M|||||||||||||DUNFCMBB||||||||||99|CCC HRK MULTI Iarna 2013|121|Horeca|0
0|FS751335|2013-02-23 21:42:14||||F|||||||||||||MBRGL||||||||||99|CCC HRK MULTI Iarna 2013|121|Horeca|0
0|FS751463|2013-02-23 22:14:37||||F|||||||||||||KTBL||||||||||99|CCC HRK MULTI Iarna 2013|121|Horeca|0
