0|CS219190|2012-06-29 20:06:01|Grigorov |Nicu||M|1955-12-22|Constanta|CONSTANTA|Aleea prieteniei|7|||||0724652405|||PMBL||Winston Blue (6mg) Pack|Yes|Yes||CTR00091|Bia Mary|Constanta|CTHRKBA33|45|CCC HRK WIN FAM Vara 2012|121|Horeca|0
0|CS219196|2012-06-29 20:08:03|Orasanu|Mihai||M|1976-05-26|Constanta|MANGALIA|Tomis|5|0|0|0|0||0241810240||KTBL|WIBL|Winston Blue (6mg) Pack|Yes|No||CTR00091|Bia Mary|Constanta|CTHRKBA31|45|CCC HRK WIN FAM Vara 2012|121|Horeca|0
0|CS219206|2012-06-29 20:11:35|Androni|Ecaterina||F|1945-08-29|Tulcea|Tulcea||0|0|0|0|0|0730754267|||KTWH|KTWH|Winston Blue (6mg) Pack|Yes|Yes||CTR00091|Bia Mary|Constanta|CTHRKBA30|45|CCC HRK WIN FAM Vara 2012|121|Horeca|0
0|CS219207|2012-06-29 20:11:37|Vanca|Roxana||F|1985-06-01|Constanta|CONSTANTA|Unirii|4|||||0732568543|||KTBL||Winston Blue (6mg) Pack|Yes|Yes||CTR00091|Bia Mary|Constanta|CTHRKBA33|45|CCC HRK WIN FAM Vara 2012|121|Horeca|0
0|CS219218|2012-06-29 20:15:20|Dona|Violeta||F|1977-10-16|Constanta|CONSTANTA|Pescarilor|3|0|0|0|0||0||KTCON|WISSM|Winston Super Slims Menthol (5mg) Pack|Yes|No||CTR00091|Bia Mary|Constanta|CTHRKBA31|45|CCC HRK WIN FAM Vara 2012|121|Horeca|0
0|CS219220|2012-06-29 20:17:28|Panait|Florentina||F|1989-10-05|Calarasi|Calarasi|||||||0730045916|||KTWH|KTWH|Winston Silver (4 mg) Pack|Yes|Yes||CTR00091|Bia Mary|Constanta|CTHRKBA30|45|CCC HRK WIN FAM Vara 2012|121|Horeca|0
0|CS219226|2012-06-29 20:19:41|Boicu|Monica||F|1989-03-16|Constanta|CONSTANTA|Portitei|32||||||||KTH|KTH|Winston 100s Blue (6 mg)  Pack|Yes|No||CTR00091|Bia Mary|Constanta|CTHRKBA31|45|CCC HRK WIN FAM Vara 2012|121|Horeca|0
0|CS219227|2012-06-29 20:19:58|Balasa |Daniela||F|1976-06-28|Constanta|MANGALIA|Rozelor||E2|||57|0755151837|||PARAB||Winston Blue (6mg) Pack|Yes|Yes||CTR00091|Bia Mary|Constanta|CTHRKBA33|45|CCC HRK WIN FAM Vara 2012|121|Horeca|0
0|CS219228|2012-06-29 20:20:04|Nastase|Marian||M|1982-10-11|Constanta|CONSTANTA|Pescarus|28|0|0|0|0|0723276846|0|mary82@yahoo.com|KTBL||Winston Blue (6mg) Pack|Yes|Yes||CTR00091|Bia Mary|Constanta|CTHRKBA32|45|CCC HRK WIN FAM Vara 2012|121|Horeca|0
0|CS219230|2012-06-29 20:21:09|Dona|Vasile||M|1979-08-03|Constanta|CONSTANTA|Portitei|23||||||||PMBL|PMBK|Winston 100s Blue (6 mg)  Pack|Yes|No||CTR00091|Bia Mary|Constanta|CTHRKBA31|45|CCC HRK WIN FAM Vara 2012|121|Horeca|0
0|CS219240|2012-06-29 20:26:36|Barza|Stefan||M|1989-02-19|Constanta|CONSTANTA|Mircea cel batran|20||||||||DUNFCDB|KTBL|Winston Blue (6mg) Pack|Yes|No||CTR00091|Bia Mary|Constanta|CTHRKBA31|45|CCC HRK WIN FAM Vara 2012|121|Horeca|0
0|CS219265|2012-06-29 20:41:40|Nicorescu|Radu||M|1986-07-30|Prahova|AZUGA|Azuga|21||||||||WIBLH|WIBLH|Winston Blue (6mg) Pack|Yes|Yes||CTR01410|Bia Mary|Constanta|CTHRKBA31|45|CCC HRK WIN FAM Vara 2012|121|Horeca|0
0|CS219278|2012-06-29 20:46:58|Iepure|Marineta||F|1984-11-03|Galati|Galati|Brailei|256|||||0729873515|||WIBL||Winston Blue (6mg) Pack|Yes|Yes||CTR01410|Bia Mary|Constanta|CTHRKBA33|45|CCC HRK WIN FAM Vara 2012|121|Horeca|0
0|CS219280|2012-06-29 20:47:16|Neagoe|Daniela||F|1986-11-26|Prahova|BUSTENI|Poporului|15||||||||WIBLH|WIBLH|Winston Blue (6mg) Pack|Yes|No||CTR01410|Bia Mary|Constanta|CTHRKBA31|45|CCC HRK WIN FAM Vara 2012|121|Horeca|0
0|CS219284|2012-06-29 20:48:17|Dinu|Cristian||M|1974-07-30|Prahova|Ploiesti|||||||0723266599|||WIBL|WIBL|Winston Blue (6mg) Pack|Yes|Yes||CTR01410|Bia Mary|Constanta|CTHRKBA30|45|CCC HRK WIN FAM Vara 2012|121|Horeca|0
0|CS219286|2012-06-29 20:48:38|Popa|George||M|1988-02-09|Olt|Slatina|Primaverii|36|0|0|0|0|0748669981|||WIBL||Winston Blue (6mg) Pack|Yes|Yes||CTR01410|Bia Mary|Constanta|CTHRKBA32|45|CCC HRK WIN FAM Vara 2012|121|Horeca|0
0|CS219291|2012-06-29 20:51:09|Soare|Angel||M|1985-03-25|Constanta|CONSTANTA|Caraiman|15||||||||MBRGL|VIRSPR|Winston Super Slims Blue (5mg) Pack|Yes|No||CTR01410|Bia Mary|Constanta|CTHRKBA31|45|CCC HRK WIN FAM Vara 2012|121|Horeca|0
0|CS219292|2012-06-29 20:51:26|Dima|Elena||F|1976-01-21|Prahova|Ploiesti|||||||0731348815|||WIBL|WIBL|Winston Super Slims Silver (3mg) Pack|Yes|Yes||CTR01410|Bia Mary|Constanta|CTHRKBA30|45|CCC HRK WIN FAM Vara 2012|121|Horeca|0
0|CS219298|2012-06-29 20:54:19|Dima|Steluta||F|1964-04-04|Prahova|PLOIESTI|Eremia grigorescu|13|||||0727423799|||WISSS||Winston Super Slims Silver (3mg) Pack|Yes|Yes||CTR01410|Bia Mary|Constanta|CTHRKBA33|45|CCC HRK WIN FAM Vara 2012|121|Horeca|0
0|CS219299|2012-06-29 20:54:25|Lint|Ileana||F|1984-05-03|Constanta|CONSTANTA|Ion ratiu|68|0|0|0|0|0724543986|||KTBL||Winston Blue (6mg) Pack|Yes|Yes||CTR01410|Bia Mary|Constanta|CTHRKBA32|45|CCC HRK WIN FAM Vara 2012|121|Horeca|0
0|CS219306|2012-06-29 20:57:02|Andrei|Alina||F|1986-01-01|Constanta|Constanta|||||||0730873214|||WICL|WICL|Winston Classic Pack|Yes|Yes||CTR01410|Bia Mary|Constanta|CTHRKBA30|45|CCC HRK WIN FAM Vara 2012|121|Horeca|0
0|CS219308|2012-06-29 20:58:02|Popescu|Mihai||M|1986-01-01|Braila|Braila|Grivitei|5|||||0734234512|||PMBL||Winston Blue (6mg) Pack|Yes|Yes||CTR01410|Bia Mary|Constanta|CTHRKBA33|45|CCC HRK WIN FAM Vara 2012|121|Horeca|0
0|CS219340|2012-06-29 21:09:02|Tucinescu|Constanta||F|1962-01-28|Galati|GALATI|Ion ratiu|0|0|0|0|0|0741426894|||WIBL||Winston Blue (6mg) Pack|Yes|Yes||CT002746|Deo  Dez D-G|Constanta|CTHRKBA32|45|CCC HRK WIN FAM Vara 2012|121|Horeca|0
0|CS219342|2012-06-29 21:10:04|Radulescu|Maria||F|1986-01-01|Alba|ALBA IULIA|Kogalniceanu|2|||||0756423123|||PARAB||Winston Blue (6mg) Pack|Yes|Yes||CT002746|Deo  Dez D-G|Constanta|CTHRKBA33|45|CCC HRK WIN FAM Vara 2012|121|Horeca|0
0|CS219345|2012-06-29 21:11:27|Buzea|Simona||F|1989-04-24|Braila|Braila|||||||0740763145|||LMBL|LMBL|Winston Blue (6mg) Pack|Yes|Yes||CT002746|Deo  Dez D-G|Constanta|CTHRKBA30|45|CCC HRK WIN FAM Vara 2012|121|Horeca|0
0|CS219349|2012-06-29 21:12:43|Cozma|Cristinel||M|1982-08-20|Bacau|ONESTI|||||||0747066759|||MBRGLH|WICLH|Winston 100s Blue (6 mg)  Pack|Yes|Yes||CT002746|Deo  Dez D-G|Constanta|CTHRKBA31|45|CCC HRK WIN FAM Vara 2012|121|Horeca|0
0|CS219355|2012-06-29 21:14:00|Coman|Crizantema||F|1988-03-02|Constanta|CONSTANTA|Mamaia|12|Mz|C|7|79|0724568359|||DUNFCSV||Winston Silver (4 mg) Pack|Yes|Yes||CT002746|Deo  Dez D-G|Constanta|CTHRKBA32|45|CCC HRK WIN FAM Vara 2012|121|Horeca|0
0|CS219359|2012-06-29 21:16:01|Popescu|Lucian||M|1984-05-28|Botosani|DIMACHENI|||||||0756985164||popescu.lucian@yahoo.com|KTH|LMBL|Winston Blue (6mg) Pack|Yes|No||CT002746|Deo  Dez D-G|Constanta|CTHRKBA31|45|CCC HRK WIN FAM Vara 2012|121|Horeca|0
0|CS219404|2012-06-29 21:34:48|Mihart|Dan||F|1984-04-17|Mehedinti|Turnu severin|Blv tudor vladimirescu||||||0745212201|||KTBLH||Winston 100s Blue (6 mg)  Pack|Yes|Yes||CT002367|Neptun Summer Club|Constanta|CTHRKBA33|45|CCC HRK WIN FAM Vara 2012|121|Horeca|0
0|CS219409|2012-06-29 21:37:47|Iliuta|Valentin||M|1985-03-30|Arges|DOMNESTI|||||||0742223055|||DUNFCDB||Winston Silver (4 mg) Pack|Yes|No||CT002367|Neptun Summer Club|Constanta|CTHRKBA31|45|CCC HRK WIN FAM Vara 2012|121|Horeca|0
0|CS219416|2012-06-29 21:40:54|Avram|Alexandru||M|1986-07-22|Hunedoara|Deva|Bejan||75|2|1||0728012443||flo86avram@yahoo.com|WIBLH||Winston 100s Blue (6 mg)  Pack|Yes|Yes||CT002367|Neptun Summer Club|Constanta|CTHRKBA33|45|CCC HRK WIN FAM Vara 2012|121|Horeca|0
0|CS219422|2012-06-29 21:42:51|Carp|Mihai||M|1988-05-12|Bucuresti|Bucuresti|||||||0721214078|||KTBL|KTBL|Winston Blue (6mg) Pack|Yes|Yes||CT002367|Neptun Summer Club|Constanta|CTHRKBA30|45|CCC HRK WIN FAM Vara 2012|121|Horeca|0
0|CS219423|2012-06-29 21:42:56|Ionescu|Costin||M|1986-05-21|Constanta|CONSTANTA|||||||0754284194|||KTBL||Winston Blue (6mg) Pack|Yes|No||CT002367|Neptun Summer Club|Constanta|CTHRKBA31|45|CCC HRK WIN FAM Vara 2012|121|Horeca|0
0|CS219428|2012-06-29 21:43:42|Iancu|Catalin||M|1990-01-31|Bistrita Nasaud|BISTRITA|Spiru haret|4|||||0732145654||catalin.bis@yahoo.com|KTBLH||Winston 100s Blue (6 mg)  Pack|Yes|Yes||CT002367|Neptun Summer Club|Constanta|CTHRKBA33|45|CCC HRK WIN FAM Vara 2012|121|Horeca|0
0|CS219431|2012-06-29 21:45:06|Cristea|Andra||F|1979-02-06|Bucuresti|Bucuresti|||||||0730974312|||KTBL|KTBL|Winston Blue (6mg) Pack|Yes|Yes||CT002367|Neptun Summer Club|Constanta|CTHRKBA30|45|CCC HRK WIN FAM Vara 2012|121|Horeca|0
0|CS219440|2012-06-29 21:47:46|Ochesel|Crin||M|1977-08-10|Bacau|Bacau|Maramures|7|Ds|C|5|56|0745234873|||DUNFCSV||Winston Silver (4 mg) Pack|Yes|Yes||CT002367|Neptun Summer Club|Constanta|CTHRKBA32|45|CCC HRK WIN FAM Vara 2012|121|Horeca|0
0|CS219462|2012-06-29 21:58:07|Lacatus |Anton||M|1975-11-14|Bistrita Nasaud|LIVEZILE|Principala|252|||||0744624323|||KTBLH||Winston 100s Blue (6 mg)  Pack|Yes|Yes||CTR01410|Bia Mary|Constanta|CTHRKBA33|45|CCC HRK WIN FAM Vara 2012|121|Horeca|0
0|CS219468|2012-06-29 22:00:48|Popa |Claudiu||M|1988-03-01|Arad|ALDESTI|||||||0765113228||popa.claudiu@yahoo.com|KTH||Winston 100s Clasic (10 mg)  Pack|Yes|No||CTR01410|Bia Mary|Constanta|CTHRKBA31|45|CCC HRK WIN FAM Vara 2012|121|Horeca|0
0|CS219469|2012-06-29 22:00:49|Hatieganu|Cristian||M|1990-04-01|Bihor|BISTRA|||||||0765543276||cristii.hatie@yahoo.com|PARSB||Winston Silver (4 mg) Pack|Yes|Yes||CTR01410|Bia Mary|Constanta|CTHRKBA33|45|CCC HRK WIN FAM Vara 2012|121|Horeca|0
0|CS219470|2012-06-29 22:01:08|CojocAru|Robert||M|1983-11-01|Constanta|CONSTANTA|Doroganilor|9|||||0744810040|||KTSV||Winston Silver (4 mg) Pack|Yes|Yes||CTR01410|Bia Mary|Constanta|CTHRKBA32|45|CCC HRK WIN FAM Vara 2012|121|Horeca|0
0|CS219479|2012-06-29 22:03:29|Dumitru|Iulian||M|1986-01-08|Constanta|Constanta|||||||0727687025|||MBRGL|MBRGL|Winston Blue (6mg) Pack|Yes|Yes||CTR01410|Bia Mary|Constanta|CTHRKBA30|45|CCC HRK WIN FAM Vara 2012|121|Horeca|0
0|CS219487|2012-06-29 22:08:43|Gherghina|Gabriel||M|1981-08-24|Constanta|CONSTANTA|Exercitiu|56|||||0754888826|||KTSV||Winston Silver (4 mg) Pack|Yes|Yes||CTR01410|Bia Mary|Constanta|CTHRKBA32|45|CCC HRK WIN FAM Vara 2012|121|Horeca|0
0|CS219493|2012-06-29 22:10:48|Groza|Paula||F|1986-01-01|Alba|BAIA DE ARIES|||||||0744358240||paula.groza@yahoo.com|PMSSBL||Winston Blue (6mg) Pack|Yes|No||CTR01410|Bia Mary|Constanta|CTHRKBA31|45|CCC HRK WIN FAM Vara 2012|121|Horeca|0
0|CS219497|2012-06-29 22:11:50|Ionila|Constantin||M|1988-02-05|Braila|Braila|||||||0745652785|||PMOR||Winston Silver (4 mg) Pack|Yes|Yes||CTR01410|Bia Mary|Constanta|CTHRKBA32|45|CCC HRK WIN FAM Vara 2012|121|Horeca|0
0|CS219502|2012-06-29 22:14:07|Creanga|Alexandru||M|1987-05-07|Valcea|Ramnicu valcea|||||||0743118239|||KTBL|KTBL|Winston Blue (6mg) Pack|Yes|Yes||CTR01410|Bia Mary|Constanta|CTHRKBA30|45|CCC HRK WIN FAM Vara 2012|121|Horeca|0
0|CS219505|2012-06-29 22:14:44|Barbulescu|Nicolae||M|1985-07-09|Constanta|CONSTANTA|Principala||||||0766477702|||KTBL||Winston Blue (6mg) Pack|Yes|Yes||CTR01410|Bia Mary|Constanta|CTHRKBA32|45|CCC HRK WIN FAM Vara 2012|121|Horeca|0
0|CS219509|2012-06-29 22:17:01|Sarana|Simona||F|1991-10-07|Constanta|Mangalia|||||||0742574523|||KTBL|KTBL|Winston Blue (6mg) Pack|Yes|Yes||CTR01410|Bia Mary|Constanta|CTHRKBA30|45|CCC HRK WIN FAM Vara 2012|121|Horeca|0
0|CS219513|2012-06-29 22:17:45|Iurascu|Ionut||M|1980-02-10|Bucuresti|Bucuresti|Prevederii|13a|||||0721378339||iurascuionut@yahoo.com|KTH||Winston Classic Pack|Yes|Yes||CTR01410|Bia Mary|Constanta|CTHRKBA33|45|CCC HRK WIN FAM Vara 2012|121|Horeca|0
0|CS219518|2012-06-29 22:22:50|Parvu|Mihaela||F|1975-02-20|Constanta|Mangalia|||||||0754019217|||VOGLL|VOGLL|Winston Super Slims Silver (3mg) Pack|Yes|Yes||CTR01410|Bia Mary|Constanta|CTHRKBA30|45|CCC HRK WIN FAM Vara 2012|121|Horeca|0
0|CS219519|2012-06-29 22:27:54|Creanga|Adrina||F|1960-05-29|Constanta|Mangalia|||||||0722238958|||KTWH|KTWH|Winston Super Slims Silver (3mg) Pack|Yes|Yes||CTR01410|Bia Mary|Constanta|CTHRKBA30|45|CCC HRK WIN FAM Vara 2012|121|Horeca|0
0|CS219521|2012-06-29 22:33:17|Constantin|Andreea||F|1991-09-10|Bucuresti|Bucuresti|||||||0723752180|||KTBL|KTBL|Winston Blue (6mg) Pack|Yes|Yes||CTR01410|Bia Mary|Constanta|CTHRKBA30|45|CCC HRK WIN FAM Vara 2012|121|Horeca|0
0|CS219561|2012-06-29 23:15:40|Blebea|George||M|1990-03-07|Constanta|MANGALIA|Ion creanga|5|C7b|B|4|37|0769273282|||WICL||Winston Classic Pack|Yes|Yes||CT003878|Mi-Gev|Constanta|CTHRKBA32|45|CCC HRK WIN FAM Vara 2012|121|Horeca|0
0|CS219564|2012-06-29 23:21:42|Zioe|Datila||M|1985-01-04|Maramures|Tg mures|Hunedoarei|9|P|38|||0743513320|||KTSV||Winston Silver (4 mg) Pack|Yes|Yes||CT003879|Mi-Gev|Constanta|CTHRKBA32|45|CCC HRK WIN FAM Vara 2012|121|Horeca|0
0|CS219565|2012-06-29 23:22:21|Ionescu|Marcel||M|1981-08-25|Bucuresti|SECTOR 5|||||||0765443229||ionescu.marcel@yahoo.com|KTSV||Winston Silver (4 mg) Pack|Yes|No||CT003879|Mi-Gev|Constanta|CTHRKBA31|45|CCC HRK WIN FAM Vara 2012|121|Horeca|0
0|CS219566|2012-06-29 23:23:31|Zoie|Borbana||F|1986-01-29|Maramures|Tg mures|Lebei |31|||||0724681909|||KTSV||Winston Silver (4 mg) Pack|Yes|Yes||CT003879|Mi-Gev|Constanta|CTHRKBA32|45|CCC HRK WIN FAM Vara 2012|121|Horeca|0
0|CS219568|2012-06-29 23:24:24|Soare|Dorina||F|1978-06-28|Bacau|FLORESTI (CAIUTI)|||||||0788459321|0241876532|dorinasoare@yahoo.com|DUNFCBK||Winston 100s Blue (6 mg)  Pack|Yes|No||CT003879|Mi-Gev|Constanta|CTHRKBA31|45|CCC HRK WIN FAM Vara 2012|121|Horeca|0
0|CS219569|2012-06-29 23:24:32|Cristache|Razvan||M|1988-07-01|Giurgiu|GIURGIU|||||||0754326453||raz_23@yahoo.com|KTBLH||Winston 100s Blue (6 mg)  Pack|Yes|Yes||CT003879|Mi-Gev|Constanta|CTHRKBA33|45|CCC HRK WIN FAM Vara 2012|121|Horeca|0
0|CS219570|2012-06-29 23:24:37|Matei|Alexndru||M|1980-01-01|Brasov|Brasov|||||||0745621798|||KTBL|KTBL|Winston 100s Blue (6 mg)  Pack|Yes|Yes||CT003879|Mi-Gev|Constanta|CTHRKBA30|45|CCC HRK WIN FAM Vara 2012|121|Horeca|0
0|CS219575|2012-06-29 23:27:22|Costin|Costea||M|1989-08-27|Bacau|BACAU|Bolotesti|56|Fc|21|7|87|0756423769|||KTBLH||Winston 100s Blue (6 mg)  Pack|Yes|Yes||CT003879|Mi-Gev|Constanta|CTHRKBA32|45|CCC HRK WIN FAM Vara 2012|121|Horeca|0
0|CS219592|2012-06-29 23:49:20|Popa|Mihail||M|1984-04-01|Bacau|BACAU|||||||0723167456||popamihail@yahoo.com|PMOR||Winston Silver (4 mg) Pack|Yes|No||CT003697|ITI-BITI SRL|Constanta|CTHRKBA31|45|CCC HRK WIN FAM Vara 2012|121|Horeca|0
0|CS219593|2012-06-29 23:51:03|Lemonakis|Luminita||F|1970-04-25|Bucuresti|Bucuresti|Mariuca|4|||||0722501767|||WIBL||Winston Blue (6mg) Pack|Yes|Yes||CT003697|ITI-BITI SRL|Constanta|CTHRKBA33|45|CCC HRK WIN FAM Vara 2012|121|Horeca|0
0|CS219594|2012-06-29 23:51:05|Atomei|Adriana||F|1991-06-22|Neamt|Piatra neamt|||||||0723692178|||PMBL|PMBL|Winston 100s Blue (6 mg)  Pack|Yes|Yes||CT003697|ITI-BITI SRL|Constanta|CTHRKBA30|45|CCC HRK WIN FAM Vara 2012|121|Horeca|0
0|CS219595|2012-06-29 23:51:28|Popi|Ioana||F|1986-01-20|Botosani|HORLACENI|||||||0762389401|0341226532|popiioana@yahoo.com|VOGLL||Winston Super Slims Silver (3mg) Pack|Yes|No||CT003697|ITI-BITI SRL|Constanta|CTHRKBA31|45|CCC HRK WIN FAM Vara 2012|121|Horeca|0
0|CS219598|2012-06-29 23:53:05|ComanIc|Daniel||M|1969-02-13|Bucuresti|Bucuresti|Moreni|21|C|B|8|87|0743900012||dandan.69@yahoomail.com|DUNSV||Winston Silver (4 mg) Pack|Yes|Yes||CT003697|ITI-BITI SRL|Constanta|CTHRKBA32|45|CCC HRK WIN FAM Vara 2012|121|Horeca|0
0|CS219599|2012-06-29 23:53:19|Ionescu|Andrei||M|1992-05-16|Vaslui|HUSI|||||||0789654231||ionescu.andrei@yahoo.com|WIBLH||Winston Blue (6mg) Pack|Yes|No||CT003697|ITI-BITI SRL|Constanta|CTHRKBA31|45|CCC HRK WIN FAM Vara 2012|121|Horeca|0
0|CS219600|2012-06-29 23:54:13|Guna|Raluca||F|1992-03-01|Calarasi|CALARASI|Unirea||||||0765432145||guna.sweet@yahoo.com|WIBL||Winston Blue (6mg) Pack|Yes|Yes||CT003697|ITI-BITI SRL|Constanta|CTHRKBA33|45|CCC HRK WIN FAM Vara 2012|121|Horeca|0
0|CS220302|2012-06-30 20:14:06|Irimie|Dumitru||M|1981-03-23|Iasi|Iasi|||||||0742232563|||WIBLH|WIBLH|Winston Blue (6mg) Pack|Yes|Yes||CTR00091|Bia Mary|Constanta|CTHRKBA30|45|CCC HRK WIN FAM Vara 2012|121|Horeca|0
0|CS220305|2012-06-30 20:14:30|Popescu|Andrei||M|1986-10-10|Arad|HODIS|||||||0745285193||popescu@yahoo.com|KTH||Winston 100s Blue (6 mg)  Pack|Yes|No||CTR00091|Bia Mary|Constanta|CTHRKBA31|45|CCC HRK WIN FAM Vara 2012|121|Horeca|0
0|CS220307|2012-06-30 20:14:52|Midrea|Razvan||M|1989-03-01|Bihor|Bihor|Bihur|3|||||0765432123||razv_mi@yahoo.com|KTBL||Winston Blue (6mg) Pack|Yes|Yes||CTR00091|Bia Mary|Constanta|CTHRKBA33|45|CCC HRK WIN FAM Vara 2012|121|Horeca|0
0|CS220312|2012-06-30 20:15:54|HAmpu|Ana||F|1982-03-01|Botosani|MOVILA RUPTA|||||||0745321765||hampuana@yahoo.com|KTBL||Winston Blue (6mg) Pack|Yes|No||CTR00091|Bia Mary|Constanta|CTHRKBA31|45|CCC HRK WIN FAM Vara 2012|121|Horeca|0
0|CS220315|2012-06-30 20:16:25|Timofte|Mariana||F|1967-11-12|Iasi|Iasi|||||||0720006010|||WIBLH|WIBLH|Winston Blue (6mg) Pack|Yes|Yes||CTR00091|Bia Mary|Constanta|CTHRKBA30|45|CCC HRK WIN FAM Vara 2012|121|Horeca|0
0|CS220316|2012-06-30 20:16:36|Costea|Claudia||F|1983-08-01|Bucuresti|Bucuresti|Magura||5|A|3|12|0754367546||clau_costea@yahoo.com|DUNBL||Winston Blue (6mg) Pack|Yes|Yes||CTR00091|Bia Mary|Constanta|CTHRKBA33|45|CCC HRK WIN FAM Vara 2012|121|Horeca|0
0|CS220321|2012-06-30 20:17:35|Barza|Stefan||M|1986-01-01|Brasov|LOVNIC|||||||0765483085|0241276985|barzza@yahoo.com|MBRBI||Winston Blue (6mg) Pack|Yes|No||CTR00091|Bia Mary|Constanta|CTHRKBA31|45|CCC HRK WIN FAM Vara 2012|121|Horeca|0
0|CS220325|2012-06-30 20:17:48|Dada|Trandafir||M|1980-04-04|Constanta|CONSTANTA|Ion adam|45|Ds|C|6|89|0754687839|||KTBLH||Winston 100s Blue (6 mg)  Pack|Yes|Yes||CTR00091|Bia Mary|Constanta|CTHRKBA32|45|CCC HRK WIN FAM Vara 2012|121|Horeca|0
0|CS220335|2012-06-30 20:20:02|Irimia|Florian||M|1986-01-22|Bacau|Bacau|||||||0740856246|||DUNBL|DUNBL|Winston Blue (6mg) Pack|Yes|Yes||CTR00091|Bia Mary|Constanta|CTHRKBA30|45|CCC HRK WIN FAM Vara 2012|121|Horeca|0
0|CS220340|2012-06-30 20:21:30|Cornea|Iulia||F|1986-01-01|Bucuresti|Bucuresti|||||||0730956213|||WISSM|WISSM|Winston Super Slims Menthol (5mg) Pack|Yes|Yes||CTR00091|Bia Mary|Constanta|CTHRKBA30|45|CCC HRK WIN FAM Vara 2012|121|Horeca|0
0|CS220353|2012-06-30 20:26:00|Trandafir|Georgel||M|1987-01-14|Buzau|Buzau|Amzei|85|||||0763428336|||WIBL||Winston Blue (6mg) Pack|Yes|Yes||CTR00091|Bia Mary|Constanta|CTHRKBA32|45|CCC HRK WIN FAM Vara 2012|121|Horeca|0
0|CS220388|2012-06-30 20:32:54|Sanda|Camelia||F|1979-12-04|Bacau|Bacau|Babadag|45|||||0768457238||sanda.cma@yahoo.com|WISV||Winston Silver (4 mg) Pack|Yes|Yes||CTR00091|Bia Mary|Constanta|CTHRKBA32|45|CCC HRK WIN FAM Vara 2012|121|Horeca|0
0|CS220462|2012-06-30 20:57:36|Buga|Costin||M|1987-02-22|Calarasi|ARTARI|||||||0768392652||roby@yahoo.com|LSRD||Winston Classic Pack|Yes|No||CT002367|Neptun Summer Club|Constanta|CTHRKBA31|45|CCC HRK WIN FAM Vara 2012|121|Horeca|0
0|CS220465|2012-06-30 20:57:49|Raducu|Costi||M|1989-06-01|Bucuresti|Bucuresti|Pescarilor|2|||||0765876345||raducu4you@yahoo.com|KTBL||Winston Blue (6mg) Pack|Yes|Yes||CT002367|Neptun Summer Club|Constanta|CTHRKBA33|45|CCC HRK WIN FAM Vara 2012|121|Horeca|0
0|CS220485|2012-06-30 21:02:14|Scutu|Stefania||F|1993-12-01|Constanta|Constanta|Burlea||3|A|2|13|0765436234|||PARAB||Winston Blue (6mg) Pack|Yes|Yes||CT002367|Neptun Summer Club|Constanta|CTHRKBA33|45|CCC HRK WIN FAM Vara 2012|121|Horeca|0
0|CS220488|2012-06-30 21:02:27|Rotaru|Liviu||M|1985-04-08|Bucuresti|SECTOR 4|Aleea daliei|30|0|0|0|0||||MBRGL||Winston Silver (4 mg) Pack|Yes|No||CT002367|Neptun Summer Club|Constanta|CTHRKBA31|45|CCC HRK WIN FAM Vara 2012|121|Horeca|0
0|CS220494|2012-06-30 21:05:02|Culea|Dragos||M|1992-12-10|Neamt|Piatra neamt|||||||0723621598|||DUNFCSV|DUNFCSV|Winston Silver (4 mg) Pack|Yes|Yes||CT002367|Neptun Summer Club|Constanta|CTHRKBA30|45|CCC HRK WIN FAM Vara 2012|121|Horeca|0
0|CS220497|2012-06-30 21:06:02|Ablachim|Alesia||M|1974-04-04|Cluj|CLUJ NAPOCA|Peblea|21|||||0735873257|||LMBLH||Winston 100s Blue (6 mg)  Pack|Yes|Yes||CT002367|Neptun Summer Club|Constanta|CTHRKBA32|45|CCC HRK WIN FAM Vara 2012|121|Horeca|0
0|CS220524|2012-06-30 21:15:51|Manea|Florin||M|1986-11-03|Ilfov|BUFTEA|||||||0766499666|||PMBL||Winston 100s Blue (6 mg)  Pack|Yes|No||CTR01410|Bia Mary|Constanta|CTHRKBA31|45|CCC HRK WIN FAM Vara 2012|121|Horeca|0
0|CS220529|2012-06-30 21:16:53|Bugiu|Alina||F|1981-07-02|Sibiu|Sibiu|||||||0721243034|||VIRSM|VIRSM|Winston Super Slims Menthol (5mg) Pack|Yes|Yes||CTR01410|Bia Mary|Constanta|CTHRKBA30|45|CCC HRK WIN FAM Vara 2012|121|Horeca|0
0|CS220536|2012-06-30 21:17:37|Tulea|Flavius||M|1977-10-30|Timis|GHIRODA|Parang|22|||||0745051122||tuneaf@yahoo.com|WIBL||Winston Blue (6mg) Pack|Yes|Yes||CTR01410|Bia Mary|Constanta|CTHRKBA33|45|CCC HRK WIN FAM Vara 2012|121|Horeca|0
0|CS220548|2012-06-30 21:20:36|Bagiu|Maria Lucia||F|1956-01-31|Alba|Sebes||0|0|0|0|0|0724864219|0258734207||KTSV|KTSV|Winston Silver (4 mg) Pack|Yes|Yes||CTR01410|Bia Mary|Constanta|CTHRKBA30|45|CCC HRK WIN FAM Vara 2012|121|Horeca|0
0|CS220553|2012-06-30 21:22:01|Muja|Claudiu||M|1989-06-16|Constanta|CONSTANTA|||||||0735388768|||KTBL||Winston Blue (6mg) Pack|Yes|No||CTR01410|Bia Mary|Constanta|CTHRKBA31|45|CCC HRK WIN FAM Vara 2012|121|Horeca|0
0|CS220561|2012-06-30 21:23:45|Bran|Constanta||F|1978-05-03|Dambovita|PIETROSITA|Valea nucului|382|||||0734381379||clarabran7805@yahoo.com|WIBL||Winston Blue (6mg) Pack|Yes|Yes||CTR01410|Bia Mary|Constanta|CTHRKBA33|45|CCC HRK WIN FAM Vara 2012|121|Horeca|0
0|CS220567|2012-06-30 21:26:07|Opinca|Ion||M|1977-05-31|Dambovita|Pietrosita|Dealul frumos|70|||||0726750435|||WIBL||Winston Blue (6mg) Pack|Yes|Yes||CTR01410|Bia Mary|Constanta|CTHRKBA33|45|CCC HRK WIN FAM Vara 2012|121|Horeca|0
0|CS220577|2012-06-30 21:29:50|Opinca|Nicoleta||F|1980-06-24|Dambovita|Pucioasa|Zorele||18|||1|0720064138||nicoleta_dealulfrumos@yahoo.com|WIBL||Winston Blue (6mg) Pack|Yes|Yes||CTR01410|Bia Mary|Constanta|CTHRKBA33|45|CCC HRK WIN FAM Vara 2012|121|Horeca|0
0|CS220584|2012-06-30 21:32:54|Vecu|Nicolae||M|1991-09-24|Constanta|COGEALAC|Zorile|1|G1|B|3|29|||vecu_nicu@yahoo.com|DUNFCBK||Winston Classic Pack|Yes|Yes||CTR01410|Bia Mary|Constanta|CTHRKBA33|45|CCC HRK WIN FAM Vara 2012|121|Horeca|0
0|CS220591|2012-06-30 21:35:54|Curt|Mihaela||F|1991-03-01|Bacau|Bacau|||||||0786574234||mihajust@yahoo.com|WICL||Winston Classic Pack|Yes|Yes||CTR01410|Bia Mary|Constanta|CTHRKBA33|45|CCC HRK WIN FAM Vara 2012|121|Horeca|0
0|CS220594|2012-06-30 21:36:05|Manole|Marius||M|1986-01-18|Dambovita|ALUNIS|Poporului|34|U5|B|4|23||||KTSV||Winston Silver (4 mg) Pack|Yes|No||CTR01410|Bia Mary|Constanta|CTHRKBA31|45|CCC HRK WIN FAM Vara 2012|121|Horeca|0
0|CS220595|2012-06-30 21:36:06|Serban |Adriana||M|1986-12-23|Bucuresti|Bucuresti|||||||0737087236|||MBRGL|MBRGL|Winston Blue (6mg) Pack|Yes|Yes||CTR01410|Bia Mary|Constanta|CTHRKBA30|45|CCC HRK WIN FAM Vara 2012|121|Horeca|0
0|CS220598|2012-06-30 21:36:32|Bartos|Andrei||M|1975-04-21|Calarasi|CALARASI|Viiturii|45|||||0745268462|||VOGLL||Winston Super Slims Silver (3mg) Pack|Yes|Yes||CTR01410|Bia Mary|Constanta|CTHRKBA32|45|CCC HRK WIN FAM Vara 2012|121|Horeca|0
0|CS220614|2012-06-30 21:41:24|Serbanescu|Paula||F|1984-07-23|Constanta|Navodari|||||||0732175531|||DUNBL|DUNBL|Winston Blue (6mg) Pack|Yes|Yes||CTR01410|Bia Mary|Constanta|CTHRKBA30|45|CCC HRK WIN FAM Vara 2012|121|Horeca|0
0|CS220620|2012-06-30 21:42:52|Tudorache|George||M|1985-05-10|Iasi|Iasi|Burada|56|C2|F|6|34|0735563856||gig.85@yahoo.com|DUNSV||Winston Silver (4 mg) Pack|Yes|Yes||CTR01410|Bia Mary|Constanta|CTHRKBA32|45|CCC HRK WIN FAM Vara 2012|121|Horeca|0
0|CS220632|2012-06-30 21:45:01|Serban |Cristi||M|1990-02-28|Bihor|Bihor|Scurteni|5|||||0734213456|||WIBL||Winston Blue (6mg) Pack|Yes|Yes||CTR01410|Bia Mary|Constanta|CTHRKBA33|45|CCC HRK WIN FAM Vara 2012|121|Horeca|0
0|CS220650|2012-06-30 21:50:29|Moise|Cristiana||F|1986-05-01|Covasna|FILIA|||||||0765431890||moisecristian@yahoo.com|WICL||Winston Classic Pack|Yes|No||CTR01410|Bia Mary|Constanta|CTHRKBA31|45|CCC HRK WIN FAM Vara 2012|121|Horeca|0
0|CS220709|2012-06-30 22:21:06|Rizea|Elena||F|1986-01-04|Arges|PITESTI|||||||0789654123|||VOGLL||Winston Super Slims Silver (3mg) Pack|Yes|No||CT003697|ITI-BITI SRL|Constanta|CTHRKBA31|45|CCC HRK WIN FAM Vara 2012|121|Horeca|0
0|CS220715|2012-06-30 22:24:49|Jitariu|Gabriela||F|1986-01-03|Arges|ARGESANI|||||||0754386195||jitariugabi@yahoo.com|WICL||Winston Classic Pack|Yes|No||CT003697|ITI-BITI SRL|Constanta|CTHRKBA31|45|CCC HRK WIN FAM Vara 2012|121|Horeca|0
0|CS220716|2012-06-30 22:24:57|Eremia|Florin||M|1989-10-28|Braila|Braila|||||||0730513865|||KTCON|KTCON|Winston Blue (6mg) Pack|Yes|Yes||CT003697|ITI-BITI SRL|Constanta|CTHRKBA30|45|CCC HRK WIN FAM Vara 2012|121|Horeca|0
0|CS220717|2012-06-30 22:25:36|Radustu|Silviu||M|1989-07-08|Bucuresti|Bucuresti|Caraiman|3|||||0765456342||silviu.ra@yahoo.com|KTBL||Winston Blue (6mg) Pack|Yes|Yes||CT003697|ITI-BITI SRL|Constanta|CTHRKBA33|45|CCC HRK WIN FAM Vara 2012|121|Horeca|0
0|CS220719|2012-06-30 22:26:22|Ioanovici|Lidia||F|1965-09-17|Bucuresti|Bucuresti|||||||0744691745|||WISSM||Winston Super Slims Menthol (5mg) Pack|Yes|Yes||CT003697|ITI-BITI SRL|Constanta|CTHRKBA32|45|CCC HRK WIN FAM Vara 2012|121|Horeca|0
0|CS220727|2012-06-30 22:31:36|Curtmola|Ilke||F|1986-12-28|Constanta|MANGALIA|||||||0735634595|||WISSM||Winston Super Slims Menthol (5mg) Pack|Yes|Yes||CT003697|ITI-BITI SRL|Constanta|CTHRKBA32|45|CCC HRK WIN FAM Vara 2012|121|Horeca|0
0|CS220737|2012-06-30 22:43:13|Breazu|Adrian||M|1978-01-01|Bacau|Bacau|||||||0745324211|||WIBL|WIBL|Winston Blue (6mg) Pack|Yes|Yes||CT003697|ITI-BITI SRL|Constanta|CTHRKBA30|45|CCC HRK WIN FAM Vara 2012|121|Horeca|0
0|CS220780|2012-06-30 23:22:47|Bogdan|Alexandra||F|1990-07-29|Bucuresti|Bucuresti|||||||0745431321|||KTSV|KTSV|Winston Silver (4 mg) Pack|Yes|Yes||CT003878|Mi-Gev|Constanta|CTHRKBA30|45|CCC HRK WIN FAM Vara 2012|121|Horeca|0
0|CS220781|2012-06-30 23:23:04|Barlad|Valentin||M|1985-10-18|Bucuresti|Bucuresti|Cristian radu|4|||||0765657199||barladvalentin@yahoo.com|WIBL||Winston Blue (6mg) Pack|Yes|Yes||CT003878|Mi-Gev|Constanta|CTHRKBA33|45|CCC HRK WIN FAM Vara 2012|121|Horeca|0
0|CS220782|2012-06-30 23:27:17|Dragomir|Elena||F|1981-09-30|Constanta|CONSTANTA|Tineretului|10|||||0727859825|||KTSV||Winston Silver (4 mg) Pack|Yes|Yes||CT003878|Mi-Gev|Constanta|CTHRKBA32|45|CCC HRK WIN FAM Vara 2012|121|Horeca|0
0|CS220795|2012-06-30 23:42:07|Gherban|Lorena||F|1976-07-11|Arad|ARAD|||||||0721431875||copacel25@yahoo.com|WISV||Winston Silver (4 mg) Pack|Yes|Yes||CT003879|Mi-Gev|Constanta|CTHRKBA31|45|CCC HRK WIN FAM Vara 2012|121|Horeca|0
0|CS220796|2012-06-30 23:42:31|Cseh|Robert||M|1980-04-23|Brasov|BRASOV|Noiembrie|15|||||0740151112|||KTH||Winston 100s Clasic (10 mg)  Pack|Yes|Yes||CT003879|Mi-Gev|Constanta|CTHRKBA32|45|CCC HRK WIN FAM Vara 2012|121|Horeca|0
0|CS220799|2012-06-30 23:43:56|Constantin|Octavian||M|1984-11-26|Dambovita|Moreni|||||||0727668989|||DUNFCSV|DUNFCSV|Winston Silver (4 mg) Pack|Yes|Yes||CT003879|Mi-Gev|Constanta|CTHRKBA30|45|CCC HRK WIN FAM Vara 2012|121|Horeca|0
0|CS220803|2012-06-30 23:46:42|Curtian|Stelian||M|1988-03-01|Bihor|Bihor|Pestilor|2|||||0786543123||steli_yo@yahoo.com|KTBL||Winston Blue (6mg) Pack|Yes|Yes||CT003879|Mi-Gev|Constanta|CTHRKBA33|45|CCC HRK WIN FAM Vara 2012|121|Horeca|0
0|CS220807|2012-06-30 23:47:54|Andan|Chim||F|1989-04-05|Bacau|BALANEASA|||||||0754634853|||MBRBI||Winston Super Slims Menthol (5mg) Pack|Yes|Yes||CT003879|Mi-Gev|Constanta|CTHRKBA32|45|CCC HRK WIN FAM Vara 2012|121|Horeca|0
0|CS220809|2012-06-30 23:48:46|Ciocarlan|Maria||F|1984-05-21|Constanta|Constanta|||||||0753167853|||DUNFCSV|DUNFCSV|Winston Silver (4 mg) Pack|Yes|Yes||CT003879|Mi-Gev|Constanta|CTHRKBA30|45|CCC HRK WIN FAM Vara 2012|121|Horeca|0
0|CS220810|2012-06-30 23:49:24|Ion|Constantin||M|1986-01-08|Buzau|LOPATAREASA|||||||0765251854|0241789432|ionconstantin@yahoo.com|PARSB||Winston Silver (4 mg) Pack|Yes|No||CT003879|Mi-Gev|Constanta|CTHRKBA31|45|CCC HRK WIN FAM Vara 2012|121|Horeca|0
0|CS220813|2012-06-30 23:53:55|Zaraban|Mitica||M|1986-03-01|Constanta|CONSTANTA|Nufarului|3|||||0767407336|||KTBL||Winston Blue (6mg) Pack|Yes|Yes||CT003879|Mi-Gev|Constanta|CTHRKBA32|45|CCC HRK WIN FAM Vara 2012|121|Horeca|0
0|CS220827|2012-07-01 00:05:12|Voinea|Bianca||F|1973-10-27|Caras Severin|CAMPIA|||||||0765437561|||PMECBK||Winston 100s Clasic (10 mg)  Pack|Yes|No||CT003697|ITI-BITI SRL|Constanta|CTHRKBA32|45|CCC HRK WIN FAM Vara 2012|121|Horeca|0
0|CS221511|2012-07-01 19:58:53|Grigoras|Radu||M|1984-09-01|Constanta|Constanta|Unirii|4|||||0786543567||radu.grigo@yahoo.com|MBRFP||Winston Blue (6mg) Pack|Yes|Yes||CT000546|Flow Office|Constanta|CTHRKBA33|45|CCC HRK WIN FAM Vara 2012|121|Horeca|0
0|CS221518|2012-07-01 20:00:44|Anghelescu|Dorina||F|1957-02-07|Constanta|CONSTANTA|Lapusneanu|151|C|N|5|78|0725634872|||KTM||Winston Super Slims Menthol (5mg) Pack|Yes|Yes||CT000546|Flow Office|Constanta|CTHRKBA32|45|CCC HRK WIN FAM Vara 2012|121|Horeca|0
0|CS221528|2012-07-01 20:07:49|Rosu|Mihaela||F|1987-03-01|Alba|ALBA IULIA|Rozelor|3|||||0754324123||mihaellaaa@yahoo.com|KTBLH||Winston 100s Blue (6 mg)  Pack|Yes|Yes||CT000546|Flow Office|Constanta|CTHRKBA33|45|CCC HRK WIN FAM Vara 2012|121|Horeca|0
0|CS221589|2012-07-01 20:34:16|Luca|Gabriel||M|1978-07-04|Bihor|Alest|||||||0746282235|||WIBL|WIBL|Winston Blue (6mg) Pack|Yes|No||CTR00091|Bia Mary|Constanta|CTHRKBA30|45|CCC HRK WIN FAM Vara 2012|121|Horeca|0
0|CS221601|2012-07-01 20:36:48|Trandafir|Andrei||M|1992-03-20|Galati|BERESTI|Trandafirilor|86|||||0746143108|||WIBLH||Winston 100s Blue (6 mg)  Pack|Yes|Yes||CTR00091|Bia Mary|Constanta|CTHRKBA32|45|CCC HRK WIN FAM Vara 2012|121|Horeca|0
0|CS221610|2012-07-01 20:38:22|Lojnita|Aurelia||F|1986-05-01|Bucuresti|Sector 4|||||||0756421863||lojnita@yahoo.com|WIBL||Winston Blue (6mg) Pack|Yes|No||CTR00091|Bia Mary|Constanta|CTHRKBA31|45|CCC HRK WIN FAM Vara 2012|121|Horeca|0
0|CS221611|2012-07-01 20:38:23|Balasa |Daniela||F|1976-06-28|Constanta|MANGALIA|Rozelor||E2||0|57|0755151837|||WIBL||Winston Blue (6mg) Pack|Yes|Yes||CTR00091|Bia Mary|Constanta|CTHRKBA33|45|CCC HRK WIN FAM Vara 2012|121|Horeca|0
0|CS221622|2012-07-01 20:41:43|Islam|Techin||M|1989-02-21|Constanta|MAMAIA|Tepes voda|35|||||0729673357|||WIBL||Winston Blue (6mg) Pack|Yes|Yes||CTR00091|Bia Mary|Constanta|CTHRKBA32|45|CCC HRK WIN FAM Vara 2012|121|Horeca|0
0|CS221624|2012-07-01 20:41:45|Bobe|Marius||M|1984-10-11|Constanta|Medgidia|||||||0765483923||bobebobe@yahoo.com|VOGLL||Winston Super Slims Silver (3mg) Pack|Yes|No||CTR00091|Bia Mary|Constanta|CTHRKBA31|45|CCC HRK WIN FAM Vara 2012|121|Horeca|0
0|CS221657|2012-07-01 20:53:58|Crinu|Petronela||F|1988-10-27|Constanta|Constanta|||||||0723698421|||DUNBL|DUNBL|Winston Blue (6mg) Pack|Yes|No||CTR00091|Bia Mary|Constanta|CTHRKBA30|45|CCC HRK WIN FAM Vara 2012|121|Horeca|0
0|CS221661|2012-07-01 20:55:07|Burnaz|Anton||M|1989-06-05|Galati|GALATI|Babadag|95|||||0745243751|||VOGM||Winston Super Slims Menthol (5mg) Pack|Yes|Yes||CTR00091|Bia Mary|Constanta|CTHRKBA32|45|CCC HRK WIN FAM Vara 2012|121|Horeca|0
0|CS221663|2012-07-01 20:55:24|Suciu|Mihaela||F|1989-04-01|Brasov|BRASOV|Rosiori|3|||||0756423154||mihaielajustnice@yahoo.com|KTH||Winston Classic Pack|Yes|Yes||CTR00091|Bia Mary|Constanta|CTHRKBA33|45|CCC HRK WIN FAM Vara 2012|121|Horeca|0
0|CS221668|2012-07-01 20:57:13|Ciocarlan|Raluca||F|1983-05-05|Constanta|CONSTANTA|||||||0726853198|||KTCON|KTCON|Winston Blue (6mg) Pack|Yes|No||CTR00091|Bia Mary|Constanta|CTHRKBA30|45|CCC HRK WIN FAM Vara 2012|121|Horeca|0
0|CS221704|2012-07-01 21:09:28|Nastase|Jana||F|1970-11-01|Bucuresti|Bucuresti|Aleea campul mosilor|2||A|3|10|0741646581|||VOGBL||Winston Super Slims Blue (5mg) Pack|Yes|Yes||CTR00091|Bia Mary|Constanta|CTHRKBA33|45|CCC HRK WIN FAM Vara 2012|121|Horeca|0
0|CS221715|2012-07-01 21:14:54|Andoni|Catalin||M|1986-01-05|Bucuresti|Bucuresti|||||||0745321764|||WIBLH|WIBLH|Winston 100s Blue (6 mg)  Pack|Yes|No||CTR00091|Bia Mary|Constanta|CTHRKBA30|45|CCC HRK WIN FAM Vara 2012|121|Horeca|0
0|CS221743|2012-07-01 21:26:19|Onea|Florina||F|1964-01-06|Valcea|Valcea|||||||0765284108||oneaonea@yahoo.com|PARONE||Winston Silver (4 mg) Pack|Yes|No||CT000546|Flow Office|Constanta|CTHRKBA31|45|CCC HRK WIN FAM Vara 2012|121|Horeca|0
0|CS221744|2012-07-01 21:26:51|Costineanu|Stefan||M|1990-07-01|Cluj|Cluj|Balcescu|12|||||0754356745||stefi_2000@yahoo.com|MBRGL||Winston Blue (6mg) Pack|Yes|Yes||CT000546|Flow Office|Constanta|CTHRKBA33|45|CCC HRK WIN FAM Vara 2012|121|Horeca|0
0|CS221746|2012-07-01 21:27:45|Velisa|Techin||M|1967-03-13|Brasov|Brasov|||||||0740843861|||DUNFCMB||Winston 100s Clasic (10 mg)  Pack|Yes|No||CT000546|Flow Office|Constanta|CTHRKBA31|45|CCC HRK WIN FAM Vara 2012|121|Horeca|0
0|CS221793|2012-07-01 21:53:36|Precup|Mihai||M|1981-05-27|Cluj|Turda|||||||0744398447|||WIBL||Winston Blue (6mg) Pack|Yes|No||CT002746|Deo  Dez D-G|Constanta|CTHRKBA31|45|CCC HRK WIN FAM Vara 2012|121|Horeca|0
0|CS221804|2012-07-01 21:56:58|Bocanet|Daniel||M|1987-01-28|Braila|Braila|||||||0740452107|||KTBL||Winston Blue (6mg) Pack|Yes|No||CT002746|Deo  Dez D-G|Constanta|CTHRKBA31|45|CCC HRK WIN FAM Vara 2012|121|Horeca|0
0|CS221829|2012-07-01 22:28:08|Postolea|Lorena||F|1973-10-10|Bucuresti|Sector1|||||||0765143853||postolea.lore@yahoo.com|MBRRD||Winston Classic Pack|Yes|Yes||CT002746|Deo  Dez D-G|Constanta|CTHRKBA31|45|CCC HRK WIN FAM Vara 2012|121|Horeca|0
0|CS221830|2012-07-01 22:28:36|Rodoneanu|Claudiu||M|1989-07-01|Botosani|Botosani|Razboieni|2|6|A|3|15|0768546234||claudiu_raz@yahoo.com|KTBL6||Winston Blue (6mg) Pack|Yes|Yes||CT002746|Deo  Dez D-G|Constanta|CTHRKBA33|45|CCC HRK WIN FAM Vara 2012|121|Horeca|0
0|CS221831|2012-07-01 22:31:15|Chirana|Silvana||M|1990-09-05|Calarasi|Calarasi|||||||0730614865|||LMGR|LMGR|Winston Super Slims Menthol (5mg) Pack|Yes|Yes||CT002746|Deo  Dez D-G|Constanta|CTHRKBA30|45|CCC HRK WIN FAM Vara 2012|121|Horeca|0
0|CS221832|2012-07-01 22:31:33|Tudoran|Luminita||F|1975-03-11|Cluj|CLUJ NAPOCA|Lapuneanu|23|||||0747425863||lumi.lum@yahoo.com|MBRGLH||Winston 100s Blue (6 mg)  Pack|Yes|Yes||CT002746|Deo  Dez D-G|Constanta|CTHRKBA32|45|CCC HRK WIN FAM Vara 2012|121|Horeca|0
0|CS221842|2012-07-01 22:47:01|Rrosca|Alexandra||F|1982-04-09|Constanta|Constanta|||||||0764385106||roscaalexa@yahoo.com|KTH||Winston 100s Clasic (10 mg)  Pack|Yes|Yes||CT002367|Neptun Summer Club|Constanta|CTHRKBA31|45|CCC HRK WIN FAM Vara 2012|121|Horeca|0
0|CS221843|2012-07-01 22:47:35|Parizianu|Teodor||M|1989-12-01|Constanta|CONSTANTA|Paralela|3|7|A|3|21|0768564123||teo_ujust@yahoo.com|KTBL6||Winston Blue (6mg) Pack|Yes|Yes||CT002367|Neptun Summer Club|Constanta|CTHRKBA33|45|CCC HRK WIN FAM Vara 2012|121|Horeca|0
0|CS221849|2012-07-01 22:50:36|Pavel|Ionel||M|1972-01-01|Braila|Braila|||||||0737113600|||WIBL|WIBL|Winston Blue (6mg) Pack|Yes|Yes||CT002367|Neptun Summer Club|Constanta|CTHRKBA30|45|CCC HRK WIN FAM Vara 2012|121|Horeca|0
0|CS221850|2012-07-01 22:51:21|Closea|Catalin||M|1983-03-01|Bucuresti|Bucuresti|Rodica|3|6|A|4|27|0756435234||clauu.clos@yahoo.com|DUNBL||Winston Blue (6mg) Pack|Yes|Yes||CT002367|Neptun Summer Club|Constanta|CTHRKBA33|45|CCC HRK WIN FAM Vara 2012|121|Horeca|0
0|CS221851|2012-07-01 22:54:23|Grama|Victoria||F|1987-10-17|Constanta|Mangalia|||||||0731754862|||WIBL|WIBL|Winston Blue (6mg) Pack|Yes|Yes||CT002367|Neptun Summer Club|Constanta|CTHRKBA30|45|CCC HRK WIN FAM Vara 2012|121|Horeca|0
0|CS221852|2012-07-01 22:56:15|Mijea|Daniela||F|1966-06-02|Arges|Pitesti|||||||0730863167|||WIBL|WIBL|Winston Blue (6mg) Pack|Yes|Yes||CT002367|Neptun Summer Club|Constanta|CTHRKBA30|45|CCC HRK WIN FAM Vara 2012|121|Horeca|0
0|CS221854|2012-07-01 22:58:11|Tudor|Elena||F|1957-02-13|Neamt|PIATRA NEAMT|Pescarus|67|||||0723652895||elii_t@yahoo.com|KTM||Winston Super Slims Menthol (5mg) Pack|Yes|Yes||CT002367|Neptun Summer Club|Constanta|CTHRKBA32|45|CCC HRK WIN FAM Vara 2012|121|Horeca|0
0|CS221855|2012-07-01 22:58:18|Mondiru|Adrian||M|1982-12-07|Arges|PITESTI|||||||0766437369|||WIBL|WIBL|Winston Blue (6mg) Pack|Yes|Yes||CT002367|Neptun Summer Club|Constanta|CTHRKBA30|45|CCC HRK WIN FAM Vara 2012|121|Horeca|0
0|CS221856|2012-07-01 22:59:29|Calin|Marius||M|1984-08-05|Constanta|Mangalia|||||||0751406350||calinmarius29@yahoo.com|WIBL||Winston Blue (6mg) Pack|Yes|Yes||CT002367|Neptun Summer Club|Constanta|CTHRKBA31|45|CCC HRK WIN FAM Vara 2012|121|Horeca|0
0|CS221858|2012-07-01 23:00:22|Staicu|Ionela||F|1990-01-29|Constanta|MANGALIA|Ts.saveanu|10|||||0733570914||staicu_ione_la@yahoo.com|WIBL||Winston Blue (6mg) Pack|Yes|Yes||CT002367|Neptun Summer Club|Constanta|CTHRKBA32|45|CCC HRK WIN FAM Vara 2012|121|Horeca|0
0|CS221861|2012-07-01 23:02:16|Dobrila|Ana-maria||F|1981-01-28|Constanta|Mangalia|Plopilor||B2|C|3|53|0756975529||anamaria2581@yahoo.com|WIBL||Winston Blue (6mg) Pack|Yes|Yes||CT002367|Neptun Summer Club|Constanta|CTHRKBA31|45|CCC HRK WIN FAM Vara 2012|121|Horeca|0
0|CS221863|2012-07-01 23:02:35|Dervis|Sezen||F|1987-12-20|Constanta|Constanta|Mihai viteazu|66|O12|A|1|6|0767993506||devissezen@yahoo.com|WIBL||Winston Blue (6mg) Pack|Yes|Yes||CT002367|Neptun Summer Club|Constanta|CTHRKBA33|45|CCC HRK WIN FAM Vara 2012|121|Horeca|0
0|CS221869|2012-07-01 23:04:50|Curca|Mihaela||F|1994-07-08|Iasi|HARLAU|Parcovaci|699|||||0743937338||mitza_hot_babe94@yahoo.com|KTBL||Winston Blue (6mg) Pack|Yes|Yes||CT002367|Neptun Summer Club|Constanta|CTHRKBA32|45|CCC HRK WIN FAM Vara 2012|121|Horeca|0
0|CS221880|2012-07-01 23:11:39|Dobrica|Gabriela||F|1973-08-31|Iasi|Iasi|Lotrului|3|0|0|0|0|0745172946||drobrica.gabriela191@yahoo.com|LMSV||Winston Silver (4 mg) Pack|Yes|Yes||CT002367|Neptun Summer Club|Constanta|CTHRKBA31|45|CCC HRK WIN FAM Vara 2012|121|Horeca|0
0|CS221881|2012-07-01 23:16:23|Coman|Dana||F|1965-07-20|Tulcea|Tulcea|Hunedoarei|56|||||0742648526||daniela.c@yahoo.com|MBRGL||Winston 100s Blue (6 mg)  Pack|Yes|Yes||CT002367|Neptun Summer Club|Constanta|CTHRKBA32|45|CCC HRK WIN FAM Vara 2012|121|Horeca|0
0|CS221894|2012-07-01 23:35:26|Dinca|Sandu||M|1954-11-07|Buzau|Buzau|||||||0731886426|||WICL|WICL|Winston Classic Pack|Yes|Yes||CTR01410|Bia Mary|Constanta|CTHRKBA30|45|CCC HRK WIN FAM Vara 2012|121|Horeca|0
0|CS221898|2012-07-01 23:37:45|Munteanu|Mircea||M|1978-05-03|Alba|ALBA IULIA|Ilarion  ciobanu|2|5|A|3|12|0721730031||ciobanumircea@gmail.com|WISSS||Winston Super Slims Silver (3mg) Pack|Yes|Yes||CTR01410|Bia Mary|Constanta|CTHRKBA33|45|CCC HRK WIN FAM Vara 2012|121|Horeca|0
0|CS221899|2012-07-01 23:37:49|Fotache|Ionel||M|1969-06-20|Covasna|COVASNA|Unirii|54|||||0734632469||f_ionel@yahoo.com|KTH||Winston 100s Clasic (10 mg)  Pack|Yes|Yes||CTR01410|Bia Mary|Constanta|CTHRKBA32|45|CCC HRK WIN FAM Vara 2012|121|Horeca|0
0|CS221910|2012-07-01 23:45:05|Dragnea|Silvia||F|1984-04-04|Constanta|CONSTANTA|||||||0721587431|||WIBL|WIBL|Winston Blue (6mg) Pack|Yes|Yes||CTR01410|Bia Mary|Constanta|CTHRKBA30|45|CCC HRK WIN FAM Vara 2012|121|Horeca|0
0|CS221911|2012-07-01 23:47:17|Florea|Radu||M|1973-10-01|Constanta|Tuzla|Garii|34|B5|B|4|20|0745134289||radu34@yahoo.com|LMRD||Winston Classic Pack|Yes|Yes||CTR01410|Bia Mary|Constanta|CTHRKBA31|45|CCC HRK WIN FAM Vara 2012|121|Horeca|0
0|CS221919|2012-07-02 00:17:29|Ghitiu|Cotina||F|1987-05-11|Bucuresti|Bucuresti|||||||0766454204||joynt_cory@yahoo.com|KTBL|KTBL|Winston Blue (6mg) Pack|Yes|Yes||CT003878|Mi-Gev|Constanta|CTHRKBA30|45|CCC HRK WIN FAM Vara 2012|121|Horeca|0
0|CS221920|2012-07-02 00:17:42|Neagu|Mariw||F|1989-05-19|Bucuresti|Bucuresti|Pantelimon|293|1|A|3|17|0769855733||lmarya89@yahoo.com|VIRSBL||Winston Super Slims Blue (5mg) Pack|Yes|Yes||CT003878|Mi-Gev|Constanta|CTHRKBA33|45|CCC HRK WIN FAM Vara 2012|121|Horeca|0
0|CS221923|2012-07-02 00:18:40|Durac|Oana||F|1970-05-12|Constanta|Constanta|Traian|43|L12|B|3|23|0745238945||oanascumpica@yahoo.com|DUNSV||Winston Silver (4 mg) Pack|Yes|Yes||CT003878|Mi-Gev|Constanta|CTHRKBA31|45|CCC HRK WIN FAM Vara 2012|121|Horeca|0
0|CS221926|2012-07-02 00:20:08|Bodorin|Sabina||F|1985-01-11|Neamt|PIATRA NEAMT|Prima|1|Ds|B|6|78|0735764275||saby.bi@yahoo.com|VOGBL||Winston Super Slims Blue (5mg) Pack|Yes|Yes||CT003878|Mi-Gev|Constanta|CTHRKBA32|45|CCC HRK WIN FAM Vara 2012|121|Horeca|0
0|CS221928|2012-07-02 00:20:34|Matei|Crina||F|1988-07-21|Bucuresti|Bucuresti|||||||0740964214|||KTBL|KTBL|Winston Blue (6mg) Pack|Yes|Yes||CT003878|Mi-Gev|Constanta|CTHRKBA30|45|CCC HRK WIN FAM Vara 2012|121|Horeca|0
0|FS318430|2012-06-29 20:04:38|Orasanu|Mihai||M|1976-05-26|Constanta|Mangalia||||||||||GLMLIL|KTBL|||||||||45|CCC HRK WIN FAM Vara 2012|121|Horeca|0
0|FS321453|2012-06-30 23:31:15||||M|1986-01-10||||||||||||PMECBKH||||||||||45|CCC HRK WIN FAM Vara 2012|121|Horeca|0
0|FS323033|2012-07-01 20:37:03|||||||||||||||||KTH||||||||||45|CCC HRK WIN FAM Vara 2012|121|Horeca|0
0|FS323022|2012-07-01 20:37:20|||||||||||||||||KTH||||||||||45|CCC HRK WIN FAM Vara 2012|121|Horeca|0
0|FS323111|2012-07-01 20:53:30||||M|||||||||||||DAVCL||||||||||45|CCC HRK WIN FAM Vara 2012|121|Horeca|0
