0|CS3361715|2013-04-28 11:07:15|Andrei|Livia||F|1988-01-30|Bucuresti|SECTOR 4|Bibescu voda|5|P5a|-|5|26|0753055907||akella22@yahoo.com|DUNFCBB||0 Glamour CPB Lilac (5 mg) Pack|Yes|Yes||BWR05111|TROTTER RESTAURANT SRL|Bucuresti|BWEVENTBA23|125|CCC EVENT GLAM FAM 2013|121|Horeca|0
0|CS3361718|2013-04-28 11:08:41|Mirea|Ruxandra||F|1981-07-13|Bucuresti|SECTOR 2|Colentina|47|||0|0|0745138026||ruxishor@yahoo.com|KTBL||0 Glamour CPB Lilac (5 mg) Pack|Yes|Yes||BWR05111|TROTTER RESTAURANT SRL|Bucuresti|BWEVENTBA23|125|CCC EVENT GLAM FAM 2013|121|Horeca|0
0|CS3361729|2013-04-28 11:11:12|Stoian|Alina||F|1983-08-09|Arges|MIHAESTI|Principala|236|||||0748463463||alina_s07@yahoo.com|KTBL||0 Glamour CPB Lilac (5 mg) Pack|Yes|Yes||BWR05111|TROTTER RESTAURANT SRL|Bucuresti|BWEVENTBA23|125|CCC EVENT GLAM FAM 2013|121|Horeca|0
0|CS3361741|2013-04-28 11:15:11|Moldovanu|Adriana||F|1981-10-17|Bucuresti|SECTOR 6|Iuliu maniu|59|10b|A|4|62|0733169675||moldovan_rodica@yahoo.com|KTBL||0 Glamour CPB Lilac (5 mg) Pack|Yes|Yes||BWR05111|TROTTER RESTAURANT SRL|Bucuresti|BWEVENTBA23|125|CCC EVENT GLAM FAM 2013|121|Horeca|0
0|CS3361749|2013-04-28 11:17:31|Pitic|Roxana||F|1984-05-21|Bucuresti|SECTOR 3|Traian Popovici|130|B4|C|10|155|0730348077||piticroxana@yahoo.com|KTSV||0 Glamour CPB Lilac (5 mg) Pack|Yes|Yes||BWR05111|TROTTER RESTAURANT SRL|Bucuresti|BWEVENTBA23|125|CCC EVENT GLAM FAM 2013|121|Horeca|0
0|CS3361753|2013-04-28 11:19:39|Gavrila|Iuliana||F|1985-04-01|Bucuresti|SECTOR 4|Aleea Trestiana|13|15|2||13|0724900478||iuliana.i.gavrila@yahoo.com|DAVGLSS||0 Glamour CPB Lilac (5 mg) Pack|Yes|Yes||BWR05111|TROTTER RESTAURANT SRL|Bucuresti|BWEVENTBA30|125|CCC EVENT GLAM FAM 2013|121|Horeca|0
0|CS3361755|2013-04-28 11:19:54|Stanciu|Ioana||F|1993-12-08|Bucuresti|SECTOR 1|Padurea Pustnicu|141a|R36|-|-|8|0726725419||deargiulia@yahoo.com|VOGLL||0 Glamour CPB Lilac (5 mg) Pack|Yes|Yes||BWR05111|TROTTER RESTAURANT SRL|Bucuresti|BWEVENTBA77|125|CCC EVENT GLAM FAM 2013|121|Horeca|0
0|CS3361760|2013-04-28 11:21:03|Scarlat|Cristina||F|1983-08-11|Bucuresti|SECTOR 3|Branduselor|11|H1|3||77|0730298250||cristina.scarlat11@gmail.com|VIRSV||0 Glamour CPB Azure (3 mg) Pack|Yes|Yes||BWR05111|TROTTER RESTAURANT SRL|Bucuresti|BWEVENTBA23|125|CCC EVENT GLAM FAM 2013|121|Horeca|0
0|CS3361766|2013-04-28 11:22:15|Alexe|Andreea Maria||F|1987-04-07|Bucuresti|SECTOR 6|Aleea Sorelelor|6A|M10|A||4|0727191167||mary.blue21@yahoo.com|DUNFCBB||0 Glamour CPB Azure (3 mg) Pack|Yes|Yes||BWR05111|TROTTER RESTAURANT SRL|Bucuresti|BWEVENTBA30|125|CCC EVENT GLAM FAM 2013|121|Horeca|0
0|CS3361767|2013-04-28 11:22:29|Scarlat|Raluca||F|1989-05-11|Bucuresti|SECTOR 3|Branduselor|11|H1|3|3|77|0720170124||ralucascarlat11@yahoo.com|VOGDV||0 Glamour CPB Lilac (5 mg) Pack|Yes|Yes||BWR05111|TROTTER RESTAURANT SRL|Bucuresti|BWEVENTBA23|125|CCC EVENT GLAM FAM 2013|121|Horeca|0
0|CS3361772|2013-04-28 11:24:51|Dragna|Larisa||F|1986-10-09|Bucuresti|SECTOR 6|Aleea tincani|4|824||5|154|0744612129||larisa_dragna@yahoo.co.uk|SBSSPK||0 Glamour CPB Azure (3 mg) Pack|Yes|Yes||BWR05111|TROTTER RESTAURANT SRL|Bucuresti|BWEVENTBA23|125|CCC EVENT GLAM FAM 2013|121|Horeca|0
0|CS3361783|2013-04-28 11:27:38|Irinciuc|Alexandra||F|1987-03-08|Bucuresti|SECTOR 1|Sevastopol|11|-|-|2|6|0754753851||alexandra.irinciuc@yahoo.com|PMSSGR||0 Glamour CPB Menthol (5mg) Pack|Yes|Yes||BWR05111|TROTTER RESTAURANT SRL|Bucuresti|BWEVENTBA23|125|CCC EVENT GLAM FAM 2013|121|Horeca|0
0|CS3361792|2013-04-28 11:29:39|Mirescu|Dana||F|1987-07-10|Bucuresti|SECTOR 4|Serbian Voda|145|||0|0|0727720313||mirescudana@yahoo.com|KTBL||0 Glamour CPB Lilac (5 mg) Pack|Yes|Yes||BWR05111|TROTTER RESTAURANT SRL|Bucuresti|BWEVENTBA23|125|CCC EVENT GLAM FAM 2013|121|Horeca|0
0|CS3361799|2013-04-28 11:32:19|Dobos|Irina||F|1989-11-24|Bucuresti|SECTOR 1|Calea grivitei|401|P|B|1|5|0722650066||irinadb24@yahoo.com|KTWH||0 Glamour CPB Azure (3 mg) Pack|Yes|Yes||BWR05111|TROTTER RESTAURANT SRL|Bucuresti|BWEVENTBA23|125|CCC EVENT GLAM FAM 2013|121|Horeca|0
0|CS3361802|2013-04-28 11:33:45|Costan|Cristina||F|1989-05-08|Bucuresti|SECTOR 4|Aleea terasei|2|E1|1|P|4|0729997834||crissa_2005@yahoo.com|KTSV||0 Glamour CPB Lilac (5 mg) Pack|Yes|Yes||BWR05111|TROTTER RESTAURANT SRL|Bucuresti|BWEVENTBA23|125|CCC EVENT GLAM FAM 2013|121|Horeca|0
0|CS3361804|2013-04-28 11:34:11|Copoiu|Florina Luminita||F|1968-09-10|Bucuresti|SECTOR 4|Plaiul Foii|44|||||0736641540||copoiuflorinaluminita@yahoo.com|PMSSBL||0 Glamour CPB Lilac (5 mg) Pack|Yes|Yes||BWR05111|TROTTER RESTAURANT SRL|Bucuresti|BWEVENTBA30|125|CCC EVENT GLAM FAM 2013|121|Horeca|0
0|CS3361816|2013-04-28 11:37:59|Kojanov|Marieta||F|1976-08-14|Bucuresti|SECTOR 3|Soldan ion parjolescu|7|||||0723942833||officeralitza@yahoo.com|WICLSH||0 Glamour CPB Lilac (5 mg) Pack|Yes|Yes||BWR05111|TROTTER RESTAURANT SRL|Bucuresti|BWEVENTBA23|125|CCC EVENT GLAM FAM 2013|121|Horeca|0
0|CS3361828|2013-04-28 11:39:59|Vlasceanu|Ioana||F|1987-03-30|Bucuresti|SECTOR 1|Smaranda Braescu|23|10h|2|P|21|0721226795||ioanarrr@yahoo.com|VIRSPR||0 Glamour CPB Lilac (5 mg) Pack|Yes|Yes||BWR05111|TROTTER RESTAURANT SRL|Bucuresti|BWEVENTBA77|125|CCC EVENT GLAM FAM 2013|121|Horeca|0
0|CS3361835|2013-04-28 11:41:30|Uta|Manuela||F|1964-04-07|Bucuresti|SECTOR 1|Maior Campeanu|2|||||0724564688||muta@yahoo.com|VOGM||0 Glamour CPB Menthol (5mg) Pack|Yes|Yes||BWR05111|TROTTER RESTAURANT SRL|Bucuresti|BWEVENTBA30|125|CCC EVENT GLAM FAM 2013|121|Horeca|0
0|CS3361854|2013-04-28 11:45:36|Negulescu|Petronela||F|1983-09-19|Bucuresti|SECTOR 3|Ramnicu sarat|15|20f|2|9|55|0722529871||petronela.negulescu@yahoo.com|GLMMNT||0 Glamour CPB Menthol (5mg) Pack|Yes|Yes||BWR05111|TROTTER RESTAURANT SRL|Bucuresti|BWEVENTBA23|125|CCC EVENT GLAM FAM 2013|121|Horeca|0
0|CS3361855|2013-04-28 11:45:40|Popescu|Andreea||F|1985-11-19|Bucuresti|SECTOR 1|Barbu de la Vrancea|2c|-|-|-||0721215634||popescuandreea85@yahoo.com|GLMMNT||0 Glamour CPB Menthol (5mg) Pack|Yes|Yes||BWR05111|TROTTER RESTAURANT SRL|Bucuresti|BWEVENTBA77|125|CCC EVENT GLAM FAM 2013|121|Horeca|0
0|CS3361856|2013-04-28 11:45:45|Stere|Liliana||F|1990-01-12|Bucuresti|SECTOR 4|Aleea Borcea|6|16|2||62|0743978129||lylyanas@yahoo.com|WISSB||0 Glamour CPB Lilac (5 mg) Pack|Yes|No||BWR05111|TROTTER RESTAURANT SRL|Bucuresti|BWEVENTBA30|125|CCC EVENT GLAM FAM 2013|121|Horeca|0
0|CS3361863|2013-04-28 11:47:13|Topoloiu|Giorgiana||F|1983-02-10|Bucuresti|SECTOR 2|Fainari|22|55|1|0|7|0723867548||giorgiana_iovanv@yahoo.com|KTSV||0 Glamour CPB Azure (3 mg) Pack|Yes|Yes||BWR05111|TROTTER RESTAURANT SRL|Bucuresti|BWEVENTBA23|125|CCC EVENT GLAM FAM 2013|121|Horeca|0
0|CS3361867|2013-04-28 11:48:30|Marin|Georgiana||F|1984-05-22|Bucuresti|SECTOR 6|9mai|10|11b||8|90|0722319244||georgiana.maryn@gmail.com|VOGM||0 Glamour CPB Menthol (5mg) Pack|Yes|Yes||BWR05111|TROTTER RESTAURANT SRL|Bucuresti|BWEVENTBA30|125|CCC EVENT GLAM FAM 2013|121|Horeca|0
0|CS3361871|2013-04-28 11:49:05|Preda|Mihaela||F|1962-01-09|Prahova|Ploiesti|Democratiei|100|E|C|-|9|0744578345||mihaela.preda@conpet.ro|DAVGLS||0 Glamour CPB Lilac (5 mg) Pack|Yes|Yes||BWR05111|TROTTER RESTAURANT SRL|Bucuresti|BWEVENTBA77|125|CCC EVENT GLAM FAM 2013|121|Horeca|0
0|CS3361877|2013-04-28 11:50:46|Carpen|Stefania||F|1984-06-20|Bucuresti|SECTOR 2|Pescarusului|9|M11|A||22|0729487557||cuteistefy@yahoo.com|VOGM||0 Glamour CPB Menthol (5mg) Pack|Yes|Yes||BWR05111|TROTTER RESTAURANT SRL|Bucuresti|BWEVENTBA30|125|CCC EVENT GLAM FAM 2013|121|Horeca|0
0|CS3361882|2013-04-28 11:51:07|Bularca|Iulia||F|1970-11-16|Bucuresti|SECTOR 1|Arhitect burcus|1|||||0723310273||iuliabio@yahoo.com|KTWH||0 Glamour CPB Azure (3 mg) Pack|Yes|Yes||BWR05111|TROTTER RESTAURANT SRL|Bucuresti|BWEVENTBA23|125|CCC EVENT GLAM FAM 2013|121|Horeca|0
0|CS3361889|2013-04-28 11:54:32|Grec|Horiana||F|1988-08-22|Bucuresti|SECTOR 3|Matei Basarab|65|L109|B|-||0741676801||grec.horiana@gmail.com|VOGM||0 Glamour CPB Menthol (5mg) Pack|Yes|Yes||BWR05111|TROTTER RESTAURANT SRL|Bucuresti|BWEVENTBA77|125|CCC EVENT GLAM FAM 2013|121|Horeca|0
0|CS3361890|2013-04-28 11:54:52|Stangaciu|Alexandra||F|1992-01-26|Vaslui|BARLAD|General magheru|5|C5|2|4|35|0742909206||stangaciu.alexa@yahoo.com|GLPBPKFT||0 Glamour Purse Box Pink FT (5mg) Pack|Yes|Yes||BWR05111|TROTTER RESTAURANT SRL|Bucuresti|BWEVENTBA23|125|CCC EVENT GLAM FAM 2013|121|Horeca|0
0|CS3361897|2013-04-28 11:57:23|Nicolae-neumann|Anne-marie||F|1986-08-15|Bucuresti|SECTOR 1|Borsa|39|7b|1|4|10|0766277295||super_anutza@yahoo.com|DUNFCMBB||0 Glamour CPB Lilac (5 mg) Pack|Yes|Yes||BWR05111|TROTTER RESTAURANT SRL|Bucuresti|BWEVENTBA23|125|CCC EVENT GLAM FAM 2013|121|Horeca|0
0|CS3361909|2013-04-28 12:00:57|Tudorache|Mirela||F|1979-02-26|Bucuresti|SECTOR 4|Calea Serban Voda|213||2|8|35|0745209710||mirelasecan@yahoo.com|SBSSMN|GLMMNT|0 Glamour CPB Menthol (5mg) Pack|Yes|Yes||BWR05111|TROTTER RESTAURANT SRL|Bucuresti|BWEVENTBA23|125|CCC EVENT GLAM FAM 2013|121|Horeca|0
0|CS3361913|2013-04-28 12:03:24|Stoicescu|Monica||F|1990-08-27|Bucuresti|SECTOR 1|Pajurei|20|F3|B|P|22|0761681711||monicastoicescu@yahoo.com|KTBLH||0 Glamour CPB Lilac (5 mg) Pack|Yes|Yes||BWR05111|TROTTER RESTAURANT SRL|Bucuresti|BWEVENTBA23|125|CCC EVENT GLAM FAM 2013|121|Horeca|0
0|CS3361916|2013-04-28 12:06:08|Grigore|Alexandra||F|1983-11-04|Bucuresti|SECTOR 1|Boteanu|3b|||3|11|0722353072||alexandra@paolomarconi.ro|MBRRDRT||0 Glamour CPB Lilac (5 mg) Pack|Yes|Yes||BWR05111|TROTTER RESTAURANT SRL|Bucuresti|BWEVENTBA23|125|CCC EVENT GLAM FAM 2013|121|Horeca|0
0|CS3361924|2013-04-28 12:07:37|Ionescu|Monica||F|1985-01-22|Bucuresti|SECTOR 1|Turda|114|||0|0|0767841447||mocohornicuta@yahoo.com|GLMLIL|GLMMNT|0 Glamour CPB Lilac (5 mg) Pack|Yes|Yes||BWR05111|TROTTER RESTAURANT SRL|Bucuresti|BWEVENTBA23|125|CCC EVENT GLAM FAM 2013|121|Horeca|0
0|CS3361926|2013-04-28 12:09:12|Albulescu|Ana||F|1976-11-15|Ilfov|CIOROGARLA|Ana Ipatescu|88|||0|0|0767081492||comenzi@vintagebazar.ro|PMSSBL||0 Glamour CPB Lilac (5 mg) Pack|Yes|Yes||BWR05111|TROTTER RESTAURANT SRL|Bucuresti|BWEVENTBA23|125|CCC EVENT GLAM FAM 2013|121|Horeca|0
0|CS3361935|2013-04-28 12:12:48|Turcanu|Irina||F|1981-08-21|Bucuresti|SECTOR 1|Aviator stefan protopopescu|1|C6|-|5|22|0722553858||irinnaturcanu@yahoo.co.uk|KTNWH||0 Glamour CPB Azure (3 mg) Pack|Yes|Yes||BWR05111|TROTTER RESTAURANT SRL|Bucuresti|BWEVENTBA23|125|CCC EVENT GLAM FAM 2013|121|Horeca|0
0|CS3361943|2013-04-28 12:15:45|Moga|Ana maria||F|1983-04-08|Constanta|MEDGIDIA|Poporului|7|33|B|1|15|0724282015||ana3320@yahoo.com|VOGM||0 Glamour CPB Menthol (5mg) Pack|Yes|Yes||BWR05111|TROTTER RESTAURANT SRL|Bucuresti|BWEVENTBA23|125|CCC EVENT GLAM FAM 2013|121|Horeca|0
0|CS3361950|2013-04-28 12:19:59|Irimia|Ianina||F|1985-05-30|Bucuresti|SECTOR 3|Popa Nan|185|-|-|10|59|0743182182||iani000@yahoo.com|GLMMNT||0 Glamour CPB Menthol (5mg) Pack|Yes|Yes||BWR05111|TROTTER RESTAURANT SRL|Bucuresti|BWEVENTBA77|125|CCC EVENT GLAM FAM 2013|121|Horeca|0
0|CS3361952|2013-04-28 12:20:02|Banu|Mihaela||F|1986-10-10|Bucuresti|SECTOR 5|Aleea Condorului|59|||||0760883390||mihaela@yahoo.com|VOGABP||0 Glamour CPB Lilac (5 mg) Pack|Yes|Yes||BWR05111|TROTTER RESTAURANT SRL|Bucuresti|BWEVENTBA30|125|CCC EVENT GLAM FAM 2013|121|Horeca|0
0|CS3361954|2013-04-28 12:22:03|Simion|Olimpia||F|1975-05-18|Bucuresti|SECTOR 4|Eroilor|120|||||0764625535||olimpia.simion12@yahoo.com|WISSB||0 Glamour CPB Lilac (5 mg) Pack|Yes|Yes||BWR05111|TROTTER RESTAURANT SRL|Bucuresti|BWEVENTBA30|125|CCC EVENT GLAM FAM 2013|121|Horeca|0
0|CS3361962|2013-04-28 12:25:09|Dancus|Cristiana||F|1951-04-27|Bucuresti|SECTOR 1|Alexandru Constantinescu|39|-|-|-||0722529011||cdancus@yahoo.com|VIRSM||0 Glamour Purse Box Menthol FT (5mg) Pack|Yes|Yes||BWR05111|TROTTER RESTAURANT SRL|Bucuresti|BWEVENTBA77|125|CCC EVENT GLAM FAM 2013|121|Horeca|0
0|CS3361970|2013-04-28 12:27:48|Micu|Anca||F|1985-08-01|Constanta|CONSTANTA|Sergiu celibidache|18|||||0727741670||ancaroxanacoroiu@yahoo.com|VOGDV||0 Glamour CPB Lilac (5 mg) Pack|Yes|Yes||BWR05111|TROTTER RESTAURANT SRL|Bucuresti|BWEVENTBA23|125|CCC EVENT GLAM FAM 2013|121|Horeca|0
0|CS3361977|2013-04-28 12:30:27|Radu|Elida||F|1988-05-06|Constanta|CONSTANTA|Merisor|52|||0|0|0730406876||elida.daineanu@yahoo.com|PARRSSH|PARRSSMH|0 Glamour Purse Box Menthol FT (5mg) Pack|Yes|Yes||BWR05111|TROTTER RESTAURANT SRL|Bucuresti|BWEVENTBA23|125|CCC EVENT GLAM FAM 2013|121|Horeca|0
0|CS3361985|2013-04-28 12:34:02|Chiselef|Andreea||F|1987-08-16|Bucuresti|SECTOR 2|Vergului|1|20|A||100|0720852678||andreea.chiselef@yahoo.com|WISSS||0 Glamour CPB Azure (3 mg) Pack|Yes|Yes||BWR05111|TROTTER RESTAURANT SRL|Bucuresti|BWEVENTBA30|125|CCC EVENT GLAM FAM 2013|121|Horeca|0
0|CS3361986|2013-04-28 12:34:36|Hoffmann|Venera||F|1977-12-27|Bucuresti|SECTOR 2|Blvd Chișinau|28|M23|A|7|26|0723775055||venerahoffmann@yahoo.com|GLMMNT||0 Glamour CPB Menthol (5mg) Pack|Yes|Yes||BWR05111|TROTTER RESTAURANT SRL|Bucuresti|BWEVENTBA77|125|CCC EVENT GLAM FAM 2013|121|Horeca|0
0|CS3361987|2013-04-28 12:35:09|Martinas|Maria||F|1982-08-15|Bucuresti|SECTOR 4|Sos oltenitei|121|31|1|6|27|0742156213||martinas_maria@yahoo.com|VOGBL||0 Glamour CPB Lilac (5 mg) Pack|Yes|Yes||BWR05111|TROTTER RESTAURANT SRL|Bucuresti|BWEVENTBA23|125|CCC EVENT GLAM FAM 2013|121|Horeca|0
0|CS3361992|2013-04-28 12:37:48|Carlig|Luiza||F|1980-09-26|Prahova|SINAIA|Branduselor|7|10|C|0|1|0724320714||luiza_mc2000@yahoo.com|VIRSV||0 Glamour CPB Azure (3 mg) Pack|Yes|Yes||BWR05111|TROTTER RESTAURANT SRL|Bucuresti|BWEVENTBA23|125|CCC EVENT GLAM FAM 2013|121|Horeca|0
0|CS3362029|2013-04-28 12:53:42|Dumitrescu|Raluca||F|1982-08-28|Bucuresti|SECTOR 1|Titulescu|3|A1|1|7|52|0721258214||rlk.zeo@gmail.com|KTSWIT||0 Glamour CPB Menthol (5mg) Pack|Yes|Yes||BWR05111|TROTTER RESTAURANT SRL|Bucuresti|BWEVENTBA23|125|CCC EVENT GLAM FAM 2013|121|Horeca|0
0|CS3362031|2013-04-28 12:54:14|Severin|Bianca||F|1988-11-03|Bucuresti|SECTOR 1|Jules michelet|18|-|-|-||0725346009||bianca_severin@mccannpr.ro|VOGM||0 Glamour Purse Box Menthol FT (5mg) Pack|Yes|Yes||BWR05111|TROTTER RESTAURANT SRL|Bucuresti|BWEVENTBA77|125|CCC EVENT GLAM FAM 2013|121|Horeca|0
0|CS3362034|2013-04-28 12:56:05|Dorobantu|Delia||F|1986-05-13|Bucuresti|SECTOR 1|Nordului|96|||||0721953507||delia_dorobantu@yahoo.com|VOGM||0 Glamour Purse Box Menthol FT (5mg) Pack|Yes|Yes||BWR05111|TROTTER RESTAURANT SRL|Bucuresti|BWEVENTBA23|125|CCC EVENT GLAM FAM 2013|121|Horeca|0
0|CS3362050|2013-04-28 13:03:01|Roman|Ana||F|1989-08-12|Bucuresti|SECTOR 3|Ciucea|1|P16|4||44|0728461072||ana.roman_m@yahoo.com|VOGABP||0 Glamour Purse Box Pink FT (5mg) Pack|Yes|Yes||BWR05111|TROTTER RESTAURANT SRL|Bucuresti|BWEVENTBA30|125|CCC EVENT GLAM FAM 2013|121|Horeca|0
0|CS3362053|2013-04-28 13:04:47|Baydar|Mihaela||F|1977-08-24|Bucuresti|SECTOR 5|Malcoci|1|45|1|3|15|0722563411||mihaelabaydar@yahoo.com|KTBL||0 Glamour CPB Lilac (5 mg) Pack|Yes|Yes||BWR05111|TROTTER RESTAURANT SRL|Bucuresti|BWEVENTBA23|125|CCC EVENT GLAM FAM 2013|121|Horeca|0
0|CS3362054|2013-04-28 13:05:03|Buduleci|Elena||F|1983-04-25|Bucuresti|SECTOR 3|Nicolae Grigorescu|14|V20|1||14|0728044576||buduleci_mirabela@yahoo.com|KTSV||0 Glamour Purse Box Pink FT (5mg) Pack|Yes|Yes||BWR05111|TROTTER RESTAURANT SRL|Bucuresti|BWEVENTBA30|125|CCC EVENT GLAM FAM 2013|121|Horeca|0
0|CS3362066|2013-04-28 13:10:15|Chioseaua|Alina||F|1987-05-26|Bucuresti|SECTOR 2|AleeaPiatra Mare|5|6|4||47|0724159592||alinutza2605@yahoo.com|VIRSV||0 Glamour Purse Box Pink FT (5mg) Pack|Yes|Yes||BWR05111|TROTTER RESTAURANT SRL|Bucuresti|BWEVENTBA30|125|CCC EVENT GLAM FAM 2013|121|Horeca|0
0|CS3362068|2013-04-28 13:10:38|Zlataru|Corina||F|1968-06-25|Bucuresti|SECTOR 5|Aleea dealul mitropoliei|5|-|-|P|3|0722539757||corinazlataru@yahoo.com|VIRSM||0 Glamour CPB Menthol (5mg) Pack|Yes|Yes||BWR05111|TROTTER RESTAURANT SRL|Bucuresti|BWEVENTBA23|125|CCC EVENT GLAM FAM 2013|121|Horeca|0
0|CS3362074|2013-04-28 13:12:37|Pencea|Raluca||F|1984-08-19|Bucuresti|SECTOR 6|Valea Ialomitei|6|C10|C||136|0765420136||raluca.pencea@yahoo.com|VIRSV||0 Glamour Purse Box Pink FT (5mg) Pack|Yes|Yes||BWR05111|TROTTER RESTAURANT SRL|Bucuresti|BWEVENTBA30|125|CCC EVENT GLAM FAM 2013|121|Horeca|0
0|CS3362128|2013-04-28 13:35:03|Liescu|Adina||F|1982-04-22|Bucuresti|SECTOR 1|Dorobanti|74|13|3|8|76|0723546116||enciuadina@gmail.com|SBSSPK||0 Glamour CPB Azure (3 mg) Pack|Yes|Yes||BWR05111|TROTTER RESTAURANT SRL|Bucuresti|BWEVENTBA23|125|CCC EVENT GLAM FAM 2013|121|Horeca|0
0|CS3362129|2013-04-28 13:35:06|Dascalu|Cora Elena||F|1989-09-23|Bucuresti|SECTOR 3|Firidei|1|H15|1||91|0768152873||dascalu.cora@gmail.com|KTSV||0 Glamour Purse Box Pink FT (5mg) Pack|Yes|Yes||BWR05111|TROTTER RESTAURANT SRL|Bucuresti|BWEVENTBA30|125|CCC EVENT GLAM FAM 2013|121|Horeca|0
0|CS3362159|2013-04-28 13:45:28|Turcu|Florentina||F|1984-02-22|Bucuresti|SECTOR 3|Mihai bravu|12|||||0766212133||flory_t@yahoo.com|DUNFCMBB||0 Glamour CPB Lilac (5 mg) Pack|Yes|Yes||BWR05111|TROTTER RESTAURANT SRL|Bucuresti|BWEVENTBA23|125|CCC EVENT GLAM FAM 2013|121|Horeca|0
0|CS3362163|2013-04-28 13:47:18|Colesa|Raluca||F|1989-10-05|Bucuresti|SECTOR 2|Rauseni|1|31|3|3|46|0737245605||coleasa_raluca@yahoo.com|KTSV||0 Glamour CPB Azure (3 mg) Pack|Yes|Yes||BWR05111|TROTTER RESTAURANT SRL|Bucuresti|BWEVENTBA23|125|CCC EVENT GLAM FAM 2013|121|Horeca|0
0|CS3362168|2013-04-28 13:49:32|Tonca|Monica||F|1981-01-24|Bucuresti|SECTOR 1|Pajurei|16|A5|B|3|36|0723264545||pajura_16@yahoo.com|VIRSV||0 Glamour CPB Azure (3 mg) Pack|Yes|Yes||BWR05111|TROTTER RESTAURANT SRL|Bucuresti|BWEVENTBA77|125|CCC EVENT GLAM FAM 2013|121|Horeca|0
0|CS3362174|2013-04-28 13:51:34|Pupaza|Alina||F|1980-12-31|Bucuresti|SECTOR 5|Vicina|8|37|2|4|33|0736635035||alina.pupaza@superbet.ro|VOGLL||0 Glamour CPB Azure (3 mg) Pack|Yes|Yes||BWR05111|TROTTER RESTAURANT SRL|Bucuresti|BWEVENTBA77|125|CCC EVENT GLAM FAM 2013|121|Horeca|0
0|CS3362190|2013-04-28 13:56:57|Beresteanu|Mihaela||F|1988-03-31|Bucuresti|SECTOR 4|Aparatorii patriei|4|1a|A|2|11|0721706516||miha.ella@yahoo.com|MBRGLT||0 Glamour Purse Box Pink FT (5mg) Pack|Yes|Yes||BWR05111|TROTTER RESTAURANT SRL|Bucuresti|BWEVENTBA23|125|CCC EVENT GLAM FAM 2013|121|Horeca|0
0|CS3362192|2013-04-28 13:57:40|Finta|Andreea||F|1985-02-26|Bucuresti|SECTOR 1|Pajurei|14|19|A|3|16|0746113352||andreea_finta@yahoo.com|PARRSSH||0 Glamour CPB Lilac (5 mg) Pack|Yes|Yes||BWR05111|TROTTER RESTAURANT SRL|Bucuresti|BWEVENTBA77|125|CCC EVENT GLAM FAM 2013|121|Horeca|0
0|CS3362201|2013-04-28 13:59:14|Hotca|Lucia||F|1978-03-21|Bucuresti|SECTOR 2|Garibaldi|1||A||12|0742028486||lucica_hotca@yahoo.com|KTNBK||0 Glamour Purse Box Pink FT (5mg) Pack|Yes|Yes||BWR05111|TROTTER RESTAURANT SRL|Bucuresti|BWEVENTBA30|125|CCC EVENT GLAM FAM 2013|121|Horeca|0
0|CS3362211|2013-04-28 14:03:16|Trifan|Nora||F|1968-05-27|Bucuresti|SECTOR 4|Barbu Nicolae|4|15|2||25|0724505355||aron682002@yahoo.com|KTSWIT||0 Glamour CPB Menthol (5mg) Pack|Yes|Yes||BWR05111|TROTTER RESTAURANT SRL|Bucuresti|BWEVENTBA30|125|CCC EVENT GLAM FAM 2013|121|Horeca|0
0|CS3362214|2013-04-28 14:04:16|Pana|Ioana||F|1988-06-25|Bucuresti|SECTOR 1|Muntii tatra|9|||||0742792657||ioanapana.pi@gmail.com|VIRSV||0 Glamour CPB Azure (3 mg) Pack|Yes|Yes||BWR05111|TROTTER RESTAURANT SRL|Bucuresti|BWEVENTBA77|125|CCC EVENT GLAM FAM 2013|121|Horeca|0
0|CS3362219|2013-04-28 14:08:32|Nedef|Miruna||F|1989-04-19|Bucuresti|SECTOR 2|Plantelor|41|||||0726282452||miruna.nedef@yahoo.com|GLPBPKFT||0 Glamour CPB Lilac (5 mg) Pack|Yes|No||BWR05111|TROTTER RESTAURANT SRL|Bucuresti|BWEVENTBA30|125|CCC EVENT GLAM FAM 2013|121|Horeca|0
0|CS3362236|2013-04-28 14:13:06|Mandruta|Ionela||F|1987-12-06|Bucuresti|SECTOR 3|Aleea moruti|8|4|1|1|15|0767600279||ionelamandruta@yahoo.com|KTSWIT||0 Glamour Purse Box Menthol FT (5mg) Pack|Yes|Yes||BWR05111|TROTTER RESTAURANT SRL|Bucuresti|BWEVENTBA23|125|CCC EVENT GLAM FAM 2013|121|Horeca|0
0|CS3362238|2013-04-28 14:13:11|Iscu|Andreea||F|1985-07-02|Bucuresti|SECTOR 1|DrumulPadurea Neagra|2|9|A||4|0746227227||andreea_mpty@yahoo.com|KTSWIT||0 Glamour CPB Menthol (5mg) Pack|Yes|No||BWR05111|TROTTER RESTAURANT SRL|Bucuresti|BWEVENTBA30|125|CCC EVENT GLAM FAM 2013|121|Horeca|0
0|CS3362244|2013-04-28 14:14:49|Cristea|Andreea||F|1988-11-30|Bucuresti|SECTOR 3|Gheorghe sincai|15|5a|3|6|91|0756881130||office@medicalpr.ro|DUNFCBB||0 Glamour CPB Azure (3 mg) Pack|Yes|Yes||BWR05111|TROTTER RESTAURANT SRL|Bucuresti|BWEVENTBA23|125|CCC EVENT GLAM FAM 2013|121|Horeca|0
0|CS3362265|2013-04-28 14:20:17|Luca|Mirabela||F|1983-08-25|Bucuresti|SECTOR 3|Vasile toneanu|23|||0|0|0743551551||lukmyra@yahoo.com|VIRSM||0 Glamour CPB Menthol (5mg) Pack|Yes|Yes||BWR05111|TROTTER RESTAURANT SRL|Bucuresti|BWEVENTBA77|125|CCC EVENT GLAM FAM 2013|121|Horeca|0
0|CS3362287|2013-04-28 14:32:09|Croitoriu|Diana||F|1983-01-09|Bucuresti|SECTOR 3|Calea Vitan|109|V14|4||97|0745210994||croitoriudiana@yahoo.com|KTSV||0 Glamour CPB Lilac (5 mg) Pack|Yes|Yes||BWR05111|TROTTER RESTAURANT SRL|Bucuresti|BWEVENTBA30|125|CCC EVENT GLAM FAM 2013|121|Horeca|0
0|CS3362290|2013-04-28 14:32:44|Rus|Alina||F|1976-04-14|Bucuresti|SECTOR 2|Stefan cel mare|29|29|B|8|68|0722571519||alina_rus_ro@yahoo.com|SBSSPK||0 Glamour CPB Lilac (5 mg) Pack|Yes|Yes||BWR05111|TROTTER RESTAURANT SRL|Bucuresti|BWEVENTBA23|125|CCC EVENT GLAM FAM 2013|121|Horeca|0
0|CS3362292|2013-04-28 14:34:13|Danielescu|Dana||F|1988-02-28|Bucuresti|SECTOR 2|Aleea hobita|8|303|A|10|42|0730601990||thestretchclothing@gmail.com|GLMBL||0 Glamour CPB Azure (3 mg) Pack|Yes|Yes||BWR05111|TROTTER RESTAURANT SRL|Bucuresti|BWEVENTBA77|125|CCC EVENT GLAM FAM 2013|121|Horeca|0
0|CS3362313|2013-04-28 14:45:08|Ghita|Catalina||F|1992-10-24|Bucuresti|SECTOR 4|Serban voda|199|||||0721826626||catalinayvb@yahoo.com|DUNFCBB||0 Glamour CPB Azure (3 mg) Pack|Yes|Yes||BWR05111|TROTTER RESTAURANT SRL|Bucuresti|BWEVENTBA77|125|CCC EVENT GLAM FAM 2013|121|Horeca|0
0|CS3362317|2013-04-28 14:46:25|Voicu|Roxana||F|1992-05-31|Bucuresti|SECTOR 5|Gheorghe popescu|23|||||0751718377||roxanna.voicu@yahoo.com|DUNFCBB||0 Glamour CPB Azure (3 mg) Pack|Yes|Yes||BWR05111|TROTTER RESTAURANT SRL|Bucuresti|BWEVENTBA77|125|CCC EVENT GLAM FAM 2013|121|Horeca|0
0|CS3362322|2013-04-28 14:48:21|Popa|Andreea Beatrice||F|1992-02-27|Bucuresti|SECTOR 4|Soseaua oltenitei|162|3|2|1|41|0762054109||andreeapopa889@yahoo.com|DUNFCBB||0 Glamour CPB Azure (3 mg) Pack|Yes|Yes||BWR05111|TROTTER RESTAURANT SRL|Bucuresti|BWEVENTBA77|125|CCC EVENT GLAM FAM 2013|121|Horeca|0
0|CS3362324|2013-04-28 14:49:30|Burlacu|Iuliana||F|1984-07-28|Bucuresti|SECTOR 3|Decebal|5|||||0721499567||iulianaburlacu28@yahoo.com|DUNFCBB||0 Glamour Purse Box Pink FT (5mg) Pack|Yes|Yes||BWR05111|TROTTER RESTAURANT SRL|Bucuresti|BWEVENTBA23|125|CCC EVENT GLAM FAM 2013|121|Horeca|0
0|CS3362330|2013-04-28 14:51:54|Pitur|Clara||F|1982-04-19|Bucuresti|SECTOR 1|Petofi Sandor|47|||0|0|0724279630||clara_pitur@yahoo.com|GLMBL||0 Glamour Purse Box Pink FT (5mg) Pack|Yes|Yes||BWR05111|TROTTER RESTAURANT SRL|Bucuresti|BWEVENTBA23|125|CCC EVENT GLAM FAM 2013|121|Horeca|0
0|CS3362331|2013-04-28 14:52:37|Flutur|Iulia||F|1987-06-01|Bucuresti|SECTOR 6|Iuliu maniu|53a|18b|5|4|191|0754758567||iuliaflutur@gmail.com|DUNFCBB||0 Glamour CPB Azure (3 mg) Pack|Yes|Yes||BWR05111|TROTTER RESTAURANT SRL|Bucuresti|BWEVENTBA77|125|CCC EVENT GLAM FAM 2013|121|Horeca|0
0|CS3362346|2013-04-28 15:04:48|Rosala|Iuliana||F|1987-07-20|Bucuresti|SECTOR 2|Opanez|5|||||0728280858||iully_ana@yahoo.com|MBRFP||0 Glamour CPB Lilac (5 mg) Pack|Yes|No||BWR05111|TROTTER RESTAURANT SRL|Bucuresti|BWEVENTBA30|125|CCC EVENT GLAM FAM 2013|121|Horeca|0
0|CS3362348|2013-04-28 15:06:28|Rosca|Madalina||F|1981-01-20|Bucuresti|SECTOR 2|Pantelimon|256|53|A||47|0731200671||madlenero@yahoo.com|VOGLL||0 Glamour CPB Lilac (5 mg) Pack|Yes|Yes||BWR05111|TROTTER RESTAURANT SRL|Bucuresti|BWEVENTBA30|125|CCC EVENT GLAM FAM 2013|121|Horeca|0
0|CS3362350|2013-04-28 15:13:33|Barbulescu|Florina||F|1977-12-28|Bucuresti|SECTOR 6|1Mai|22|S15|1||100|0735027760||pistru@googlemail.com|VOGBL||0 Glamour CPB Lilac (5 mg) Pack|Yes|Yes||BWR05111|TROTTER RESTAURANT SRL|Bucuresti|BWEVENTBA30|125|CCC EVENT GLAM FAM 2013|121|Horeca|0
0|CS3362354|2013-04-28 15:21:07|Scarlat|Maria||F|1987-07-25|Bucuresti|SECTOR 3|Branduselor|11|H1|3||77|0768802780||songsaboutme25@yahoo.com|VIRSFA||0 Glamour Purse Box Pink FT (5mg) Pack|Yes|Yes||BWR05111|TROTTER RESTAURANT SRL|Bucuresti|BWEVENTBA30|125|CCC EVENT GLAM FAM 2013|121|Horeca|0
0|CS3362356|2013-04-28 15:23:18|Cretu|Alina||F|1986-09-19|Bucuresti|SECTOR 1|Julies michelete|10|-|-|2|6|0729947079||cretualinaelena@yahoo.com|VOGM||0 Glamour CPB Menthol (5mg) Pack|Yes|Yes||BWR05111|TROTTER RESTAURANT SRL|Bucuresti|BWEVENTBA23|125|CCC EVENT GLAM FAM 2013|121|Horeca|0
0|CS3362358|2013-04-28 15:27:16|Arseni|Tatiana||F|1990-04-24|Bucuresti|SECTOR 6|Aleea Dumbravita|2|Itn|A|1|110|0785695111||dr.arseni.tatiana@gmail.com|GLMLIL||0 Glamour CPB Lilac (5 mg) Pack|Yes|Yes||BWR05111|TROTTER RESTAURANT SRL|Bucuresti|BWEVENTBA23|125|CCC EVENT GLAM FAM 2013|121|Horeca|0
0|CS3362359|2013-04-28 15:27:24|Negulescu|Mihaela||F|1956-10-04|Bucuresti|SECTOR 3|Ramnicu Sarat|15|20F|2||55|0722323439||migaela.negulescu@yahoo.com|CAWH||0 Glamour CPB Azure (3 mg) Pack|Yes|Yes||BWR05111|TROTTER RESTAURANT SRL|Bucuresti|BWEVENTBA30|125|CCC EVENT GLAM FAM 2013|121|Horeca|0
0|CS3362362|2013-04-28 15:29:07|Almajan|Raluca||F|1990-06-07|Bucuresti|SECTOR 5|Sebastian|29|S7|A|2|48|0755261659||dr.almajanraluca@yahoo.com|DAVGLS||0 Glamour Purse Box Pink FT (5mg) Pack|Yes|Yes||BWR05111|TROTTER RESTAURANT SRL|Bucuresti|BWEVENTBA23|125|CCC EVENT GLAM FAM 2013|121|Horeca|0
0|CS3362366|2013-04-28 15:37:52|Ostroveanu|Roxana||F|1984-02-28|Bucuresti|SECTOR 2|Dobrina|7|49|A||26|0730797095||ostroxana@yahoo.ro|VIRSM||0 Glamour Purse Box Menthol FT (5mg) Pack|Yes|No||BWR05111|TROTTER RESTAURANT SRL|Bucuresti|BWEVENTBA30|125|CCC EVENT GLAM FAM 2013|121|Horeca|0
0|CS3362372|2013-04-28 15:49:27|Mirescu|Hermiona||F|1988-07-10|Bucuresti|SECTOR 4|Serban Voda|145|||||0766521432||mirescudana@yahoo.com|KTBL||0 Glamour Purse Box Pink FT (5mg) Pack|Yes|No||BWR05111|TROTTER RESTAURANT SRL|Bucuresti|BWEVENTBA30|125|CCC EVENT GLAM FAM 2013|121|Horeca|0
0|CS3362385|2013-04-28 16:05:01|Alexandru|Elena||F|1976-01-03|Bucuresti|SECTOR 2|Tunari|62|-|-|-||0749099929||elena@bestpromo.ro|SBKSGD||0 Glamour Purse Box Pink FT (5mg) Pack|Yes|Yes||BWR05111|TROTTER RESTAURANT SRL|Bucuresti|BWEVENTBA23|125|CCC EVENT GLAM FAM 2013|121|Horeca|0
0|CS3362398|2013-04-28 16:14:31|Stanciu|Ioana Madalina||F|1991-01-24|Bucuresti|SECTOR 4|Gladitei|42|T7|||203|0734021855||madyymada@yahoo.com|DUNFCBB||0 Glamour CPB Azure (3 mg) Pack|Yes|Yes||BWR05111|TROTTER RESTAURANT SRL|Bucuresti|BWEVENTBA30|125|CCC EVENT GLAM FAM 2013|121|Horeca|0
0|CS3362402|2013-04-28 16:19:10|Andronic|Iulia||F|1991-06-01|Bacau|ONESTI|George bacovia|6|6|A|0|18|0743149612||iulia_andr@yahoo.com|VOGLL||0 Glamour CPB Azure (3 mg) Pack|Yes|Yes||BWR05111|TROTTER RESTAURANT SRL|Bucuresti|BWEVENTBA30|125|CCC EVENT GLAM FAM 2013|121|Horeca|0
0|CS3362404|2013-04-28 16:20:29|Copaceanu|Alexandra||F|1988-09-01|Bucuresti|SECTOR 4|Maria tanase|3|13|1|0|15|0745890479||alexandracopaceanu@gmail.com|VIRSPR||0 Glamour Purse Box Pink FT (5mg) Pack|Yes|Yes||BWR05111|TROTTER RESTAURANT SRL|Bucuresti|BWEVENTBA30|125|CCC EVENT GLAM FAM 2013|121|Horeca|0
0|CS3362405|2013-04-28 16:21:57|Stanca|Teodora||F|1989-08-20|Bucuresti|SECTOR 6|Aleea bujoreni|2|P1|C|3|54|0723014235||theo_teos@yahoo.com|KTBL||0 Glamour CPB Azure (3 mg) Pack|Yes|Yes||BWR05111|TROTTER RESTAURANT SRL|Bucuresti|BWEVENTBA30|125|CCC EVENT GLAM FAM 2013|121|Horeca|0
0|CS3362412|2013-04-28 16:31:17|Savu|Cristina||F|1982-07-03|Bucuresti|SECTOR 3|Nicolae Pascu|2|R1A|A||35|0722166007||krisiu371@yahoo.com|KTSV||0 Glamour Purse Box Menthol FT (5mg) Pack|Yes|Yes||BWR05111|TROTTER RESTAURANT SRL|Bucuresti|BWEVENTBA30|125|CCC EVENT GLAM FAM 2013|121|Horeca|0
0|CS3362414|2013-04-28 16:33:55|Nistor|Manuela||F|1988-03-29|Bucuresti|SECTOR 3|Traian|2|F1|1||4|0743835288||manuella_nistor@yahoo.com|VOGLL||0 Glamour CPB Azure (3 mg) Pack|Yes|Yes||BWR05111|TROTTER RESTAURANT SRL|Bucuresti|BWEVENTBA30|125|CCC EVENT GLAM FAM 2013|121|Horeca|0
0|CS3362423|2013-04-28 16:39:06|Romanescu|Livia||F|1984-12-03|Valcea|RAMNICU VALCEA|Mihail Eminescu|22|B12|E||17|0765398394||liviaromanesco@yahoo.com|VOGM||0 Glamour Purse Box Menthol FT (5mg) Pack|Yes|Yes||BWR05111|TROTTER RESTAURANT SRL|Bucuresti|BWEVENTBA30|125|CCC EVENT GLAM FAM 2013|121|Horeca|0
0|CS3362427|2013-04-28 16:41:28|Cazacu|Andreea Roxana||F|1986-07-20|Bucuresti|SECTOR 4|Piscului|9|79|A|-|57|0729256633||jahre_noire@yahoo.com|GLMBL||0 Glamour CPB Azure (3 mg) Pack|Yes|Yes||BWR05111|TROTTER RESTAURANT SRL|Bucuresti|BWEVENTBA23|125|CCC EVENT GLAM FAM 2013|121|Horeca|0
0|CS3362430|2013-04-28 16:46:13|Gustave|Elodie||F|1988-05-15|Bucuresti|SECTOR 1|Ion campineanu|31|5|A|1|7|0730187840||kshooe@gmail.com|MBRBI||0 Glamour CPB Menthol (5mg) Pack|Yes|Yes||BWR05111|TROTTER RESTAURANT SRL|Bucuresti|BWEVENTBA77|125|CCC EVENT GLAM FAM 2013|121|Horeca|0
0|CS3362432|2013-04-28 16:47:50|Voinoiu|Nicoleta||F|1983-07-08|Bucuresti|SECTOR 4|Mircea Voda|46|20|1||35|0727732703||little_nicolle@yahoo.com|DUNFCBB||0 Glamour CPB Azure (3 mg) Pack|Yes|Yes||BWR05111|TROTTER RESTAURANT SRL|Bucuresti|BWEVENTBA30|125|CCC EVENT GLAM FAM 2013|121|Horeca|0
0|CS3362433|2013-04-28 16:47:55|Voinoiu|Octavia||F|1981-11-01|Bucuresti|SECTOR 3|Brailita|9|Dnb|1|2|35|0734864222||octavia24_1981@yahoo.com|KTSV||0 Glamour Purse Box Pink FT (5mg) Pack|Yes|Yes||BWR05111|TROTTER RESTAURANT SRL|Bucuresti|BWEVENTBA23|125|CCC EVENT GLAM FAM 2013|121|Horeca|0
0|CS3362446|2013-04-28 17:01:56|Portasa|Oana||F|1989-04-26|Bucuresti|SECTOR 5|Ileana cosanzeana|1|P10|1|1|4|0743326495||so_anao@yahoo.com|VOGDV||0 Glamour CPB Lilac (5 mg) Pack|Yes|Yes||BWR05111|TROTTER RESTAURANT SRL|Bucuresti|BWEVENTBA77|125|CCC EVENT GLAM FAM 2013|121|Horeca|0
0|CS3362448|2013-04-28 17:04:38|Andronic|Andreea||F|1987-08-11|Bucuresti|6|Crangasi|26|||0|0|0722329826||andreeandronic@yahoo.com|VOGLL||0 Glamour CPB Azure (3 mg) Pack|Yes|Yes||BWR05111|TROTTER RESTAURANT SRL|Bucuresti|BWEVENTBA77|125|CCC EVENT GLAM FAM 2013|121|Horeca|0
0|CS3362452|2013-04-28 17:07:48|Vladila|Roxana||F|1985-08-27|Bucuresti|SECTOR 1|Elna caragiani|3|2g|2|4|27|0724276512||roxana_vladila@yahoo.com|KTSWIT||0 Glamour Purse Box Menthol FT (5mg) Pack|Yes|Yes||BWR05111|TROTTER RESTAURANT SRL|Bucuresti|BWEVENTBA30|125|CCC EVENT GLAM FAM 2013|121|Horeca|0
0|CS3362455|2013-04-28 17:08:28|Cristali|Corina||F|1985-07-19|Bucuresti|SECTOR 5|Barnova|5|M117|A|-|27|0725348837||corina_kristaly@yahoo.com|GLPBMNFT||0 Glamour Purse Box Menthol FT (5mg) Pack|Yes|Yes||BWR05111|TROTTER RESTAURANT SRL|Bucuresti|BWEVENTBA23|125|CCC EVENT GLAM FAM 2013|121|Horeca|0
0|CS3362457|2013-04-28 17:11:09|Voicu|Malina||F|1983-04-13|Bucuresti|SECTOR 3|Aleea ianca|1|V17|1|P|3|0721376814||malinavoicu13@yahoo.ca|GLPBMNFT||0 Glamour Purse Box Menthol FT (5mg) Pack|Yes|Yes||BWR05111|TROTTER RESTAURANT SRL|Bucuresti|BWEVENTBA30|125|CCC EVENT GLAM FAM 2013|121|Horeca|0
0|CS3362474|2013-04-28 17:29:43|Papaghiuc|Andreea||F|1984-01-03|Bucuresti|SECTOR 1|Nicolae Titulescu|10|-|-|-|92|0728928468||andreea.papaghiuc@yahoo.com|VOGM||0 Glamour CPB Menthol (5mg) Pack|Yes|Yes||BWR05111|TROTTER RESTAURANT SRL|Bucuresti|BWEVENTBA30|125|CCC EVENT GLAM FAM 2013|121|Horeca|0
0|CS3362475|2013-04-28 17:38:42|Cretescu|Mihaela||F|1976-11-09|Bucuresti|SECTOR 3|Blanari|11|A|A|0|0|0721875896||mihaelacretescu@yahoo.com|SBSSWH||0 Glamour CPB Azure (3 mg) Pack|Yes|Yes||BWR05111|TROTTER RESTAURANT SRL|Bucuresti|BWEVENTBA23|125|CCC EVENT GLAM FAM 2013|121|Horeca|0
0|CS3362476|2013-04-28 17:44:18|Lupescu|Roxana||F|1984-12-01|Bucuresti|SECTOR 2|Aleea baiut|3|P3a|1|2|14|0766316990||roxanaoffice@yahoo.com|DAVGLS||0 Glamour Purse Box Pink FT (5mg) Pack|Yes|Yes||BWR05111|TROTTER RESTAURANT SRL|Bucuresti|BWEVENTBA23|125|CCC EVENT GLAM FAM 2013|121|Horeca|0
0|CS3362498|2013-04-28 18:13:42|Oprea|Alexandra||F|1986-11-26|Bucuresti|SECTOR 3|Popa Farcas|86|-|-|-|7|0743155855||oprea_alexandra_maria@yahoo.com|VOGLL||0 Glamour Purse Box Pink FT (5mg) Pack|Yes|Yes||BWR05111|TROTTER RESTAURANT SRL|Bucuresti|BWEVENTBA30|125|CCC EVENT GLAM FAM 2013|121|Horeca|0
0|CS3362504|2013-04-28 18:22:23|Zamfir|Ioana||F|1984-05-27|Bucuresti|SECTOR 2|Stefan cel mare|21p|A|2|6|33|0721312122||z.ioana@gmail.com|PMSSGR||0 Glamour Purse Box Menthol FT (5mg) Pack|Yes|Yes||BWR05111|TROTTER RESTAURANT SRL|Bucuresti|BWEVENTBA23|125|CCC EVENT GLAM FAM 2013|121|Horeca|0
