0|CS3553151|2013-08-10 13:43:54|Nicula|Paula||F|1991-04-14|Sibiu|SIBIU|Somesului|16|0|0|0|0|0755229182||babypaula91@yahoo.com|KTSWITH|KTSWIT|1 Bricheta XST|Yes|Yes||CT004093|CRICOROM TURISM SRL TERASA AZA|Constanta|CTDTCBA59|162|CCC HRK MULTI Vara 2013|121|Retail|0
0|CS3553190|2013-08-10 13:49:15|Pana|Mariana|2830708032539|F|1983-07-08|Arges|Pitesti|Petru rares|4|P28|B||11|0729121085||Marimars89@yahoo.com|KTNWH||1 Sobranie SS White (1mg) Pack|Yes|Yes||CTR01165|Lascu-Bros|Constanta|CTDTCBA101|162|CCC HRK MULTI Vara 2013|121|Retail|0
0|CS3553205|2013-08-10 13:50:36|Savoaia|George||M|1978-07-25|Bucuresti|SECTOR 2|Baitului|2|||||0752191454|||MBRFP|KTSV|1 Camel White (4 mg) Pack|Yes|Yes||CT004093|CRICOROM TURISM SRL TERASA AZA|Constanta|CTDTCBA59|162|CCC HRK MULTI Vara 2013|121|Retail|0
0|CS3553224|2013-08-10 13:52:57|Cristea|Andrei||M|1985-09-21|Bucuresti|SECTOR 2|Badea cartan|66||Sec|||0740920174|||DUNFCBB||1 Sobranie KS Gold  (4mg) Pack|Yes|Yes||CT004093|CRICOROM TURISM SRL TERASA AZA|Constanta|CTDTCBA96|162|CCC HRK MULTI Vara 2013|121|Retail|0
0|CS3553233|2013-08-10 13:53:31|Simion|Raul||M|1993-06-22|Brasov|BRASOV|Visinului|24|||||0752177292||Raulik_ryki@yahoo.com|KTBL|CABK|1 Camel Black (6 mg) Pack|Yes|Yes||CT004093|CRICOROM TURISM SRL TERASA AZA|Constanta|CTDTCBA59|162|CCC HRK MULTI Vara 2013|121|Retail|0
0|CS3553237|2013-08-10 13:54:30|Dumitru|Amedeo||M|1970-01-10|Prahova|PLOPENI|Tineretului|3|A2|A|P|8|0726170062||Pyna30@yahoo.com|DUNFCBB|DUNFCBB|1 Sobranie KS Gold  (4mg) Pack|Yes|Yes||CTR01165|Lascu-Bros|Constanta|CTDTCBA98|162|CCC HRK MULTI Vara 2013|121|Retail|0
0|CS3553245|2013-08-10 13:55:51|Dofin|Teo||M|1987-02-02|Neamt|PIATRA NEAMT|Dumitru leonard|8|||||0752834732|||DUNFCSB||1 Sobranie KS Black (8mg) Pack|Yes|Yes||CT004093|CRICOROM TURISM SRL TERASA AZA|Constanta|CTDTCBA96|162|CCC HRK MULTI Vara 2013|121|Retail|0
0|CS3553255|2013-08-10 13:56:54|Breoto|Andrei|1900124161873|M|1990-01-24|Bucuresti|Sector 6|Fabricii|47|J|J||94|0724352842||Andrei.breoto@yahoo.com|VIRSPR||1 Sobranie KS Black (8mg) Pack|Yes|Yes||CTR01165|Lascu-Bros|Constanta|CTDTCBA101|162|CCC HRK MULTI Vara 2013|121|Retail|0
0|CS3553261|2013-08-10 13:58:04|Muscalu|Gabriel||M|1979-09-17|Tulcea|BABADAG|Marasesti|9a|||||0720469577||Muscalugbrl@yahoo.com|KTNWH|KTNWH|1 Sobranie SS White (1mg) Pack|Yes|Yes||CTR01165|Lascu-Bros|Constanta|CTDTCBA98|162|CCC HRK MULTI Vara 2013|121|Retail|0
0|CS3553264|2013-08-10 13:58:40|Mengheris|Ioana||F|1991-01-20|Bacau|TARGU OCNA|Iernii|1|||0|0|0754762112||ioana_mengheris@yahoo.ro|VIRSPR||1 Sobranie SS Black (6mg) Pack|Yes|Yes||CTR01165|Lascu-Bros|Constanta|CTDTCBA101|162|CCC HRK MULTI Vara 2013|121|Retail|0
0|CS3553284|2013-08-10 14:01:46|Gheorghita|Florin||M|1985-04-07|Bacau|BACAU|Mihai Viteazu|3|2|C|2|12|0751724192||Florin070485@yahoo.com|KTSV|KTBL|1 Sobranie KS Blue (6mg) Pack|Yes|Yes||CTR01165|Lascu-Bros|Constanta|CTDTCBA98|162|CCC HRK MULTI Vara 2013|121|Retail|0
0|CS3553313|2013-08-10 14:04:32|Ghiga|Stefan||M|1987-09-15|Bucuresti|SECTOR 6|Virtutii|10|R11b|2|2|44|0723293899||vsghiga@yahoo.com|DAVGL|DAVGL|1 Sobranie KS Blue (6mg) Pack|Yes|No||CTR01165|Lascu-Bros|Constanta|CTDTCBA98|162|CCC HRK MULTI Vara 2013|121|Retail|0
0|CS3553326|2013-08-10 14:06:58|Nastase|Marius||M|1980-11-17|Braila|BRAILA|Oborului|4|Ag6|2|3|31|0757038538||Unlim2000@yahoo.co.uk|KTSV|KTSV|1 Sobranie KS Blue (6mg) Pack|Yes|Yes||CTR01165|Lascu-Bros|Constanta|CTDTCBA98|162|CCC HRK MULTI Vara 2013|121|Retail|0
0|CS3553334|2013-08-10 14:08:24|Badica|Carmen|2860403080021|F|1986-04-03|Bucuresti|Sector 3|Lucretiu patrascanu|3|Y1|1|7|240|0745112389|||DUNFCBB||1 Sobranie SS Pink (3mg) Pack|Yes|Yes||CTR01165|Lascu-Bros|Constanta|CTDTCBA101|162|CCC HRK MULTI Vara 2013|121|Retail|0
0|CS3553340|2013-08-10 14:09:13|Iosif|Cristina||F|1992-06-23|Braila|BRAILA|Bld.Independentei|286|||||0743875186||iosif.oanacristina@gmail.com|DAVGL|DAVGL|1 Sobranie KS Blue (6mg) Pack|Yes|Yes||CTR01165|Lascu-Bros|Constanta|CTDTCBA98|162|CCC HRK MULTI Vara 2013|121|Retail|0
0|CS3553357|2013-08-10 14:12:04|Baba|Gabriel||M|1990-07-06|Constanta|Navodari|Frunzelor|10|160|B|4|39|0761370848||Gaby.warr_andrey@yahoo.com|DAVCL||1 Sobranie KS Black (8mg) Pack|Yes|Yes||CTR01165|Lascu-Bros|Constanta|CTDTCBA101|162|CCC HRK MULTI Vara 2013|121|Retail|0
0|CS3553371|2013-08-10 14:14:39|Nichita|Roxana||M|1989-04-29|Vrancea|Focsani|Capitan stoenescu|8|||||0765336323|||SBSSBK||1 Sobranie SS Black (6mg) Pack|Yes|Yes||CT003940|CRICOROM TURISM SRL TERASA MOTOR|Constanta|CTDTCBA96|162|CCC HRK MULTI Vara 2013|121|Retail|0
0|CS3553379|2013-08-10 14:15:47|Maxim|Septimium||M|1993-07-07|Constanta|Mangalia|Basarabiei|1|||0|0|0786922757||Maxim_septimium@yahoo.com|SBKSBL||1 Sobranie KS Blue (6mg) Pack|Yes|Yes||CTR01165|Lascu-Bros|Constanta|CTDTCBA101|162|CCC HRK MULTI Vara 2013|121|Retail|0
0|CS3553385|2013-08-10 14:16:27|Constantin|Laurentiu||M|1987-04-23|Vrancea|Focsani|Islazului|2|||||0764468173|||SBSSPK||1 Sobranie SS Pink (3mg) Pack|Yes|Yes||CT003940|CRICOROM TURISM SRL TERASA MOTOR|Constanta|CTDTCBA96|162|CCC HRK MULTI Vara 2013|121|Retail|0
0|CS3553397|2013-08-10 14:17:54|Constantin|Alin||M|1986-01-04|Vrancea|Focsani|Islazului|2|||||0764467824|||SBSSBK||1 Sobranie SS Black (6mg) Pack|Yes|Yes||CT003940|CRICOROM TURISM SRL TERASA MOTOR|Constanta|CTDTCBA96|162|CCC HRK MULTI Vara 2013|121|Retail|0
0|CS3553398|2013-08-10 14:17:58|Ionescu|Catalin|1921029134129|M|1992-10-29|Constanta|CONSTANTA|Ion luca caragiale|41|-|-|0|0|0768558132||Ionescucatalin@yahoo.com|DAVCL|DAVCL|1 Sobranie SS Black (6mg) Pack|Yes|Yes||CTR01165|Lascu-Bros|Constanta|CTDTCBA98|162|CCC HRK MULTI Vara 2013|121|Retail|0
0|CS3553416|2013-08-10 14:20:25|Deianu|Marinela||F|1990-06-20|Braila|Maras|Uzinei|8|||||0768378225|||SBKSBK||1 Sobranie KS Black (8mg) Pack|Yes|Yes||CTR01165|Lascu-Bros|Constanta|CTDTCBA101|162|CCC HRK MULTI Vara 2013|121|Retail|0
0|CS3553428|2013-08-10 14:23:03|Iacob|Andrei||M|1984-12-03|Bucuresti|SECTOR 4|Sergent Gheorghe Condurache|60|||||0726101569||andreiiacob_23@yahoo.com|MBRGLFT|MBRGLFT|1 Winston XStyle Silver (4mg) Pack|Yes|Yes||CTR01165|Lascu-Bros|Constanta|CTDTCBA98|162|CCC HRK MULTI Vara 2013|121|Retail|0
0|CS3553431|2013-08-10 14:23:17|Merlus|Georgel||M|1963-02-10|Prahova|Comanesti|Moldovei|79|||||0721234920|||KTSWIT|KTSWITH|1 Bricheta XST|Yes|Yes||CT003940|CRICOROM TURISM SRL TERASA MOTOR|Constanta|CTDTCBA59|162|CCC HRK MULTI Vara 2013|121|Retail|0
0|CS3553433|2013-08-10 14:23:21|Boteanu|Virgil|1850322440051|M|1985-03-22|Bucuresti|Sector 4|Florescu nicolae|65a|||||0766858966||Virgilboteanu@yahoo.com|DUNFCMBB||1 Sobranie KS Gold  (4mg) Pack|Yes|Yes||CTR01165|Lascu-Bros|Constanta|CTDTCBA101|162|CCC HRK MULTI Vara 2013|121|Retail|0
0|CS3553461|2013-08-10 14:29:11|Nedelcu|Elena||F|1991-06-21|Ilfov|CERNICA|Stefan cel mare|22|||||0767244461||Roxananedelcu91@yahoo.com|KTNBK|VIRSV|1 Bricheta GLM|Yes|Yes||CT003940|CRICOROM TURISM SRL TERASA MOTOR|Constanta|CTDTCBA59|162|CCC HRK MULTI Vara 2013|121|Retail|0
0|CS3553469|2013-08-10 14:30:54|Purcarea|Bogdan||M|1994-05-31|Constanta|VALU LUI TRAIAN|Constantin pariano|9|-|-|0|0|0726794333||Bogdan_alex2010@yahoo.com|DAVCL|DAVCL|1 Sobranie KS Black (8mg) Pack|Yes|Yes||CTR01165|Lascu-Bros|Constanta|CTDTCBA98|162|CCC HRK MULTI Vara 2013|121|Retail|0
0|CS3553472|2013-08-10 14:31:09|Adam|Felicia|2841217460045|F|1984-12-17|Bucuresti|Sector 2|Maica domnului|8|T55|A|1|6|0769601235||Neagu_8felicia@yahoo.com|VOGBL||1 Sobranie SS Black (6mg) Pack|Yes|Yes||CTR01165|Lascu-Bros|Constanta|CTDTCBA101|162|CCC HRK MULTI Vara 2013|121|Retail|0
0|CS3553480|2013-08-10 14:32:37|Rosan|Crina||F|1977-01-15|Bucuresti|SECTOR 2|Bv lacul 3|19|||||0746890013||Crinarosan@gmail.ro|KTWH||1 Sobranie SS White (1mg) Pack|Yes|Yes||CT003940|CRICOROM TURISM SRL TERASA MOTOR|Constanta|CTDTCBA96|162|CCC HRK MULTI Vara 2013|121|Retail|0
0|CS3553499|2013-08-10 14:35:37|Rotaru|Iulie||M|1968-07-23|Bacau|MOINESTI|Zorilor|I2|||||0749562539|||KTSWIT||1 Bricheta XST|Yes|Yes||CT003940|CRICOROM TURISM SRL TERASA MOTOR|Constanta|CTDTCBA59|162|CCC HRK MULTI Vara 2013|121|Retail|0
0|CS3553503|2013-08-10 14:36:15|Mirica|Corina||F|1986-01-05|Constanta|Constanta|Bv tomis|350|Tav1|1|||0721778304|||DUNFCBB||1 Sobranie KS Gold  (4mg) Pack|Yes|Yes||CTR01165|Lascu-Bros|Constanta|CTDTCBA101|162|CCC HRK MULTI Vara 2013|121|Retail|0
0|CS3553519|2013-08-10 14:38:13|Horyath|Mihai||M|1990-01-29|Constanta|Constants|8martie|8|||||0732924035||Horyath90@yahoo.com|KTBL||1 Sobranie KS Black (8mg) Pack|Yes|Yes||CTR01165|Lascu-Bros|Constanta|CTDTCBA101|162|CCC HRK MULTI Vara 2013|121|Retail|0
0|CS3553526|2013-08-10 14:39:06|Marin|Andreea||F|1989-11-06|Cluj|CLUJ NAPOCA|Corneliu coposu|174|||||0752731820|||VIRSPR||1 Glamour Purse Box Pink FT (5mg) Pack|Yes|Yes||CT003940|CRICOROM TURISM SRL TERASA MOTOR|Constanta|CTDTCBA96|162|CCC HRK MULTI Vara 2013|121|Retail|0
0|CS3553535|2013-08-10 14:40:22|Bacargiu|Adrian|1890119213520|M|1989-01-19|Ialomita|FIERBINTII DE SUS|Calea urziceni|32|0|0|0|0|0768818686||bacargiu_2oo7@yahoo.com|KTSV|MBRGLFT|1 Camel White (4 mg) Pack|Yes|Yes||CT003940|CRICOROM TURISM SRL TERASA MOTOR|Constanta|CTDTCBA59|162|CCC HRK MULTI Vara 2013|121|Retail|0
0|CS3553542|2013-08-10 14:41:52|Mihut|Florin||M|1964-02-28|Cluj|Medias|Baznei|10|||||0744368888|||GLMBL||1 Glamour CPB Azure (3 mg) Pack|Yes|No||CT003940|CRICOROM TURISM SRL TERASA MOTOR|Constanta|CTDTCBA96|162|CCC HRK MULTI Vara 2013|121|Retail|0
0|CS3553555|2013-08-10 14:45:03|Stan|Ana Maria||F|1992-08-07|Ialomita|OGRADA|Marasesti|20|||||0760876457||Anamaria92@yahoo.com|VOGM|VOGM|1 Glamour CPB Menthol (5mg) Pack|Yes|Yes||CTR01165|Lascu-Bros|Constanta|CTDTCBA98|162|CCC HRK MULTI Vara 2013|121|Retail|0
0|CS3553558|2013-08-10 14:45:15|Raclea|Romeo||M|1973-03-14|Constanta|CONSTANTA|Badea cartan|3|||0|0|0746253906|||DUNFCMBB||1 Sobranie KS Blue (6mg) Pack|Yes|Yes||CT003940|CRICOROM TURISM SRL TERASA MOTOR|Constanta|CTDTCBA96|162|CCC HRK MULTI Vara 2013|121|Retail|0
0|CS3553560|2013-08-10 14:45:31|Serban|Emilian||M|1986-03-16|Constanta|CONSTANTA|Cutezatorilor|1|||0|0|0721946026||Serban_emilia2000@yahoo.com|DUNFCMBB|MBRFP|1 Sobranie KS Blue (6mg) Pack|Yes|Yes||CT003940|CRICOROM TURISM SRL TERASA MOTOR|Constanta|CTDTCBA59|162|CCC HRK MULTI Vara 2013|121|Retail|0
0|CS3553581|2013-08-10 14:49:07|Lazarescu|Andrei|1890519134199|M|1989-03-19|Constanta|CONSTANTA|Voievozilor|5|||||0733515641||Handucapat@yahoo.com|PARSB|KTBL6|1 Sobranie KS Blue (6mg) Pack|Yes|Yes||CT003940|CRICOROM TURISM SRL TERASA MOTOR|Constanta|CTDTCBA59|162|CCC HRK MULTI Vara 2013|121|Retail|0
0|CS3553582|2013-08-10 14:49:08|Trusca|Alexandru iulian||M|1987-07-19|Constanta|Constanta|Aleea fragilor|4|P3|B|3|35|0723545541||Alexandru_viteazu@yahoo.com|DUNFCMBB||1 Sobranie KS Blue (6mg) Pack|Yes|Yes||CT003940|CRICOROM TURISM SRL TERASA MOTOR|Constanta|CTDTCBA96|162|CCC HRK MULTI Vara 2013|121|Retail|0
0|CS3553589|2013-08-10 14:50:29|Buibas|Cosmin||M|1994-05-01|Arad|Arad|Principala|886|||0|0|0756315700|||LSRD||1 Camel Filters (10 mg) Pack|Yes|Yes||CT003940|CRICOROM TURISM SRL TERASA MOTOR|Constanta|CTDTCBA96|162|CCC HRK MULTI Vara 2013|121|Retail|0
0|CS3553610|2013-08-10 14:55:38|Kassai|Stefan||M|1982-05-24|Maramures|BAIA MARE|Iuliu maniu|40a|||0|0|0746704866|||MBRGL|KTBL|1 Sobranie KS Black (8mg) Pack|Yes|Yes||CT003940|CRICOROM TURISM SRL TERASA MOTOR|Constanta|CTDTCBA59|162|CCC HRK MULTI Vara 2013|121|Retail|0
0|CS3553616|2013-08-10 14:57:21|Veliu|Luana||F|1989-06-19|Constanta|CONSTANTA|Aurel Vlaicu|90A|Av26|F|3|95|0760324811||Luana.veliu@gmail.com|MBRGLT|MBRGLT|1 Winston XStyle Blue (6mg) Pack|Yes|Yes||CTR01165|Lascu-Bros|Constanta|CTDTCBA98|162|CCC HRK MULTI Vara 2013|121|Retail|0
0|CS3553617|2013-08-10 14:58:16|Pominciuc|Ruxandra|2950725410016|F|1995-07-25|Bucuresti|SECTOR 3|Mircea voda|38|M9|2|4|53|0726182524||Popinciuc.ruxandra@yahoo.ro|DUNFCBB||1 Sobranie KS Gold  (4mg) Pack|Yes|Yes||CT003940|CRICOROM TURISM SRL TERASA MOTOR|Constanta|CTDTCBA96|162|CCC HRK MULTI Vara 2013|121|Retail|0
0|CS3553620|2013-08-10 14:58:43|Florea|Alin||M|1990-04-20|Iasi|IASI|Tudor vladimirescu|12|||0|0|0749490499||Alin.floreaa@yahoo.com|CAFI|DUNFCSB|1 Camel Filters (10 mg) Pack|Yes|Yes||CT003940|CRICOROM TURISM SRL TERASA MOTOR|Constanta|CTDTCBA59|162|CCC HRK MULTI Vara 2013|121|Retail|0
0|CS3553625|2013-08-10 15:00:11|Dumitru|Luciana||F|1983-08-22|Bucuresti|Sector 1|Aleea somesului|C22|3|2|||0737214384||Lucianadumitru@yahoo.com|KTNBK||1 Sobranie SS White (1mg) Pack|Yes|Yes||CTR01165|Lascu-Bros|Constanta|CTDTCBA101|162|CCC HRK MULTI Vara 2013|121|Retail|0
0|CS3553626|2013-08-10 15:00:12|Manole|Daniela||F|1985-12-22|Constanta|CONSTANTA|Palas|10|C|A|1|10|0761845392||Manole_daniela22@yahoo.com|KTSV|KTSV|1 Camel White (4 mg) Pack|Yes|Yes||CTR01165|Lascu-Bros|Constanta|CTDTCBA98|162|CCC HRK MULTI Vara 2013|121|Retail|0
0|CS3553629|2013-08-10 15:01:11|Badea|Alexandru||M|1967-09-06|Bucuresti|3|Spiridon matei|1|||0|0|0720116146||ssandu67@yahoo.com|PMSSBL|WISSB|1 Winston SS Blue (5mg) Pack|Yes|Yes||CT003940|CRICOROM TURISM SRL TERASA MOTOR|Constanta|CTDTCBA59|162|CCC HRK MULTI Vara 2013|121|Retail|0
0|CS3553638|2013-08-10 15:04:10|Bogdan|Florentina||F|1990-02-09|Constanta|CONSTANTA|Linistei|4|||||0769490524||Flori_just4you@yahoo.com|PMBL|WIBL|1 Winston Blue (6mg) Pack|Yes|Yes||CT003940|CRICOROM TURISM SRL TERASA MOTOR|Constanta|CTDTCBA59|162|CCC HRK MULTI Vara 2013|121|Retail|0
0|CS3553646|2013-08-10 15:08:56|Cojan|Ionut||M|1984-07-11|Constanta|CONSTANTA|Dezdrobirii|143|Iv22|B|4|30|0721738283||Ionutz_seduction@yahoo.com|KTSV|KTSV|1 Camel White (4 mg) Pack|Yes|Yes||CTR01165|Lascu-Bros|Constanta|CTDTCBA98|162|CCC HRK MULTI Vara 2013|121|Retail|0
0|CS3553653|2013-08-10 15:11:10|Stoica|Dan||M|1976-01-24|Bucuresti|Sector 3|Vlad dracu|13|C13|1|5|56|0742640080||John9@yahoo.com|KTBL||1 Sobranie KS Blue (6mg) Pack|Yes|Yes||CTR01165|Lascu-Bros|Constanta|CTDTCBA101|162|CCC HRK MULTI Vara 2013|121|Retail|0
0|CS3553655|2013-08-10 15:11:39|Lazar|Alina||F|1980-02-03|Constanta|COBADIN|Principala|30|||||0729320609|||DAVCL|DAVCL|1 Sobranie KS Black (8mg) Pack|Yes|Yes||CTR01165|Lascu-Bros|Constanta|CTDTCBA98|162|CCC HRK MULTI Vara 2013|121|Retail|0
0|CS3553669|2013-08-10 15:16:49|Scipanov|Andreea gabriela||F|1987-02-01|Constanta|Constanta|Ovidiu|7|||||0727041123||Eu_andreea01@yahoo.com|WISSB||1 Winston SS Blue (5mg) Pack|Yes|Yes||CTR01165|Lascu-Bros|Constanta|CTDTCBA101|162|CCC HRK MULTI Vara 2013|121|Retail|0
0|CS3553673|2013-08-10 15:18:14|Burlacu|Stefan||M|1961-07-21|Mehedinti|Turnu Severin|Chiselef|39|||||0744567897||Stefanbrlacu@yahoo.com|MBRRD|MBRRD|1 Camel Filters (10 mg) Pack|Yes|No||CTR01165|Lascu-Bros|Constanta|CTDTCBA98|162|CCC HRK MULTI Vara 2013|121|Retail|0
0|CS3553679|2013-08-10 15:19:37|Carabatache|Oana||F|1977-07-29|Constanta|Constanta|Luntei|7|||||0740196939||Oannizzle@yahoo.com|DAVGL||1 Sobranie KS Blue (6mg) Pack|Yes|Yes||CTR01165|Lascu-Bros|Constanta|CTDTCBA101|162|CCC HRK MULTI Vara 2013|121|Retail|0
0|CS3553681|2013-08-10 15:20:23|Marina|Mihai||M|1969-10-25|Constanta|NAVODARI|Dc86|83||2|1|15|0740020609||mihai.marina@yahoo.com|ROTH|ROTH|1 Camel Filters (10 mg) Pack|Yes|No||CTR01165|Lascu-Bros|Constanta|CTDTCBA98|162|CCC HRK MULTI Vara 2013|121|Retail|0
0|CS3553689|2013-08-10 15:21:55|Putaru|Carmen||F|1975-01-17|Bucuresti|SECTOR 2|Sos pantelimon|251|45|1|P|3|0765599968|||DUNFCSB|SBKSBK|1 Sobranie KS Black (8mg) Pack|Yes|Yes||CT002735|CRICOROM TURISM SRL|Constanta|CTDTCBA59|162|CCC HRK MULTI Vara 2013|121|Retail|0
0|CS3553694|2013-08-10 15:23:49|Dinu|Ionela||F|1978-04-13|Ilfov|CERNICA|Decebal|169|||0|0|0762073176||Delly_adyyy@yahoo.com|KTBL|SBKSBK|1 Sobranie KS Black (8mg) Pack|Yes|Yes||CT002735|CRICOROM TURISM SRL|Constanta|CTDTCBA59|162|CCC HRK MULTI Vara 2013|121|Retail|0
0|CS3553695|2013-08-10 15:24:18|Dinu|Nadia Silvia||F|1975-06-14|Mehedinti|Turnu Severin|Calonfirescu|83|||||0741901487||Nadia.silviadinu@yahoo.com|MBRRD|MBRRD|1 Camel Filters (10 mg) Pack|Yes|No||CTR01165|Lascu-Bros|Constanta|CTDTCBA98|162|CCC HRK MULTI Vara 2013|121|Retail|0
0|CS3553700|2013-08-10 15:26:05|Dinu|Adrian||M|1974-05-18|Ilfov|Cernica|Decebal|169|0|0|0|0|0762082844||nelly_adyyy@yahoo.com|DUNFCSB|SBKSBK|1 Sobranie KS Black (8mg) Pack|Yes|Yes||CT002735|CRICOROM TURISM SRL|Constanta|CTDTCBA59|162|CCC HRK MULTI Vara 2013|121|Retail|0
0|CS3553701|2013-08-10 15:26:17|Gabara|Dragos|1900227046250|M|1990-02-27|Bacau|Bacau|22decembrie|4|A4|A|1|4|0745950007|||DUNFCSB||1 Sobranie KS Black (8mg) Pack|Yes|Yes||CT002735|CRICOROM TURISM SRL|Constanta|CTDTCBA96|162|CCC HRK MULTI Vara 2013|121|Retail|0
0|CS3553707|2013-08-10 15:28:24|Solont|Marius||M|1987-08-23|Bacau|MARGINENI|Lebedelor|10|||||0751157001|||DUNFCSB||1 Sobranie KS Black (8mg) Pack|Yes|Yes||CT002735|CRICOROM TURISM SRL|Constanta|CTDTCBA96|162|CCC HRK MULTI Vara 2013|121|Retail|0
0|CS3553713|2013-08-10 15:30:00|Putaru|Gabriel||M|1971-07-26|Bucuresti|SECTOR 2|Sos pantelimon|251|45|1|P|3|0765599968|||DAVCL|DUNFCSB|1 Sobranie KS Black (8mg) Pack|Yes|Yes||CT002735|CRICOROM TURISM SRL|Constanta|CTDTCBA59|162|CCC HRK MULTI Vara 2013|121|Retail|0
0|CS3553715|2013-08-10 15:30:15|Gutenschi|Marian||F|1988-09-08|Constanta|Constanta|Pescarilor|11|Fz11|B|1|18|0742096952|||DUNFCMBB||1 Sobranie KS Blue (6mg) Pack|Yes|Yes||CT002735|CRICOROM TURISM SRL|Constanta|CTDTCBA96|162|CCC HRK MULTI Vara 2013|121|Retail|0
0|CS3553722|2013-08-10 15:32:54|Draganescu|Corina|2821012420065|F|1988-10-12|Bucuresti|Sector 4|Berceni|51|129|2|3|41|0721378302||Corinagologus@yahoo.com|VIRSM||1 Sobranie SS Menthol (5 mg) Pack|Yes|Yes||CTR01165|Lascu-Bros|Constanta|CTDTCBA101|162|CCC HRK MULTI Vara 2013|121|Retail|0
0|CS3553725|2013-08-10 15:33:10|Filip|Gabriel|1740529441512|M|1974-05-29|Bucuresti|SECTOR 2|Scartar ion|31|||||0761000074||Gbr.filip@gmail.com|KTNWH|SBSSWH|1 Sobranie SS White (1mg) Pack|Yes|Yes||CT002735|CRICOROM TURISM SRL|Constanta|CTDTCBA59|162|CCC HRK MULTI Vara 2013|121|Retail|0
0|CS3553731|2013-08-10 15:35:40|Lupu|Ionut||M|1977-08-30|Bucuresti|Sector 4|Berceni|51|129|2|3|41|0721378302||Valerio_husky@yahoo.uk|SBSSMN||1 Sobranie SS Menthol (5 mg) Pack|Yes|Yes||CTR01165|Lascu-Bros|Constanta|CTDTCBA101|162|CCC HRK MULTI Vara 2013|121|Retail|0
0|CS3553736|2013-08-10 15:37:53|Pacuraru|Adrian||M|1988-11-29|Bucuresti|SECTOR 6|Timisoara|51|F7|3|4|54|0728341884||adrian.pacuraru@genpact.com|DUNFCBB|DUNFCBB|1 Sobranie KS Blue (6mg) Pack|Yes|Yes||CTR01165|Lascu-Bros|Constanta|CTDTCBA98|162|CCC HRK MULTI Vara 2013|121|Retail|0
0|CS3553737|2013-08-10 15:38:11|Caraman|Cosmin||M|1989-07-10|Constanta|Constanta|Timonei|12|C6|A|0|24|0766361420||grasutu2oo5@yahoo.com|KTBL||1 Camel Black (6 mg) Pack|Yes|Yes||CT002735|CRICOROM TURISM SRL|Constanta|CTDTCBA96|162|CCC HRK MULTI Vara 2013|121|Retail|0
0|CS3553738|2013-08-10 15:39:38|Stoian|Mihai|1880711134276|M|1988-07-11|Constanta|CONSTANTA|Tineretului|30|||||0723263567||Yayu11@yahoo.com|KTSV|WISV|1 Bricheta XST|Yes|Yes||CT002735|CRICOROM TURISM SRL|Constanta|CTDTCBA59|162|CCC HRK MULTI Vara 2013|121|Retail|0
0|CS3553743|2013-08-10 15:41:41|Bajdechi|Irina||F|1988-06-14|Constanta|CONSTANTA|Bld Mamaia|93|Ls10|B|1|26|0726042032||irina_bajdechi88@yahoo.com|DUNFCMBB|DUNFCMBB|1 Sobranie KS Blue (6mg) Pack|Yes|Yes||CTR01165|Lascu-Bros|Constanta|CTDTCBA98|162|CCC HRK MULTI Vara 2013|121|Retail|0
0|CS3553749|2013-08-10 15:43:45|Filip|Andreea||F|1983-11-29|Bucuresti|SECTOR 2|Scortar ion|31|||||0761000047||Andreea_greenshop@yahoo.com|SBSSWH|KTNWH|1 Sobranie SS White (1mg) Pack|Yes|Yes||CT002735|CRICOROM TURISM SRL|Constanta|CTDTCBA59|162|CCC HRK MULTI Vara 2013|121|Retail|0
0|CS3553750|2013-08-10 15:44:33|Malinovschi|Alexandra||F|1989-02-07|Bucuresti|SECTOR 2|Barbu Vacarescu|4|1|4|2|107|0722698399||Giulia_072002@yahoo.com|MBRRDH|MBRRDH|1 Sobranie KS Black (8mg) Pack|Yes|Yes||CTR01165|Lascu-Bros|Constanta|CTDTCBA98|162|CCC HRK MULTI Vara 2013|121|Retail|0
0|CS3553754|2013-08-10 15:45:51|Dobre|Codrin||M|1978-01-30|Constanta|MANGALIA|Sos mangaliei|3|||||0787908767||Codrincodri@yahoo.com|CABK||1 Camel Black (6 mg) Pack|Yes|Yes||CTR01165|Lascu-Bros|Constanta|CTDTCBA101|162|CCC HRK MULTI Vara 2013|121|Retail|0
0|CS3553755|2013-08-10 15:46:31|Ivan|Nicusor||M|1991-08-28|Calarasi|GALDAU|Tudor vladimirescu|1|||||0727910238|||WIXSTBL||1 Winston XStyle Blue (6mg) Pack|Yes|Yes||CT002735|CRICOROM TURISM SRL|Constanta|CTDTCBA96|162|CCC HRK MULTI Vara 2013|121|Retail|0
0|CS3553764|2013-08-10 15:48:49|Nedelcu|Eduard||M|1991-08-21|Constanta|LUMINA|Mare|154|-|-|0|0|0726271202||Eddy/game1@yahoo.com|CABK||1 Camel Black (6 mg) Pack|Yes|Yes||CTR01165|Lascu-Bros|Constanta|CTDTCBA101|162|CCC HRK MULTI Vara 2013|121|Retail|0
0|CS3553766|2013-08-10 15:49:00|Beldie|Adrian||M|1987-07-30|Constanta|NAVODARI|Cabanei|10|C6|A|4|406|0721668440||Zambaretzu_adi@yahoo.com|KTBL|KTBL|1 Camel Black (6 mg) Pack|Yes|Yes||CTR01165|Lascu-Bros|Constanta|CTDTCBA98|162|CCC HRK MULTI Vara 2013|121|Retail|0
0|CS3553771|2013-08-10 15:52:11|Burcus|Daniel||M|1991-09-25|Braila|BRAILA|Focsani|89|-|-|0|0|0757500133||Ciukidani@yahoo.com|DUNFCSB||1 Sobranie KS Black (8mg) Pack|Yes|Yes||CTR01165|Lascu-Bros|Constanta|CTDTCBA101|162|CCC HRK MULTI Vara 2013|121|Retail|0
0|CS3553781|2013-08-10 15:54:49|Amanditei|Andreea||F|1994-09-25|Bucuresti|SECTOR 3|Agata barsescu|10|B19|A|2|13|0733288590||My_andreutza_cool@yahoo.com|KTSWIT|WIXSTFX|1 Winston Fresh XSpression (5mg) Pack|Yes|Yes||CT002735|CRICOROM TURISM SRL|Constanta|CTDTCBA59|162|CCC HRK MULTI Vara 2013|121|Retail|0
0|CS3553789|2013-08-10 15:57:08|Caraignat|Relu|1850914134170|M|1985-09-14|Constanta|Constanta|Aleea brizei|15|Fa1|A|1|8|0764653811|||WIXSTFX||1 Bricheta XST|Yes|Yes||CTR01165|Lascu-Bros|Constanta|CTDTCBA101|162|CCC HRK MULTI Vara 2013|121|Retail|0
0|CS3553794|2013-08-10 15:59:23|Burdulea|Gabriel||M|1988-11-07|Constanta|CONSTANTA|Bd 1mai|33a|Pf8|A|4|17|0761442262||Www_denny_ra@yahoo.com|WICLH|WIBL|1 Winston Blue (6mg) Pack|Yes|Yes||CT002735|CRICOROM TURISM SRL|Constanta|CTDTCBA59|162|CCC HRK MULTI Vara 2013|121|Retail|0
0|CS3553798|2013-08-10 16:00:37|Petre|Stefan daniel||M|1984-03-22|Constanta|CONSTANTA|Aleea topolog|6|B3|G|4|138|0729472119||Fotbalist20@yahoo.com|LSRD||1 Camel Filters (10 mg) Pack|Yes|Yes||CT002735|CRICOROM TURISM SRL|Constanta|CTDTCBA96|162|CCC HRK MULTI Vara 2013|121|Retail|0
0|CS3553802|2013-08-10 16:02:26|Milan|Cosmin||M|1990-05-24|Constanta|Constanta|Eugen lovinescu|3|||||0728195909|||LSRD||1 Camel Filters (10 mg) Pack|Yes|Yes||CT002735|CRICOROM TURISM SRL|Constanta|CTDTCBA96|162|CCC HRK MULTI Vara 2013|121|Retail|0
0|CS3553818|2013-08-10 16:06:50|Buzatu|Madalin||M|1985-03-07|Constanta|Constanta|Tulcei|18|Tl4|A|0|1|0726989635||Madalin_mosul@yahoo.com|KTBL|CABK|1 Camel Black (6 mg) Pack|Yes|Yes||CT002735|CRICOROM TURISM SRL|Constanta|CTDTCBA59|162|CCC HRK MULTI Vara 2013|121|Retail|0
0|CS3553842|2013-08-10 16:12:54|Beldie|Ionut||M|1990-07-02|Constanta|Navodari|Pescarilor|1|||||0728574929|||CABK||1 Camel Black (6 mg) Pack|Yes|Yes||CTR01165|Lascu-Bros|Constanta|CTDTCBA101|162|CCC HRK MULTI Vara 2013|121|Retail|0
0|CS3553851|2013-08-10 16:14:40|Nistor|Ovidiu||M|1990-06-20|Bucuresti|SECTOR 3|Nicolae Grigorescu|36|S1d|B|6|86|0765572781||Nistor.ovidiu@yahoo.com|DUNFCMBB|DUNFCMBR|1 Sobranie KS Black (8mg) Pack|Yes|Yes||CTR01165|Lascu-Bros|Constanta|CTDTCBA98|162|CCC HRK MULTI Vara 2013|121|Retail|0
0|CS3553854|2013-08-10 16:15:04|Belgian|Murat||F|1989-10-01|Neamt|PIATRA NEAMT|Republicii|24|I2||||0789678432||Murat12@gmail.com|CABK||1 Camel Black (6 mg) Pack|Yes|Yes||CTR01165|Lascu-Bros|Constanta|CTDTCBA101|162|CCC HRK MULTI Vara 2013|121|Retail|0
0|CS3553868|2013-08-10 16:19:01|Pintilie|Irina||F|1986-05-16|Bucuresti|SECTOR 2|Pancota|9|11N|6|1|159|0728736548||Irinapintile86@yahoo.com|PMSSBL|KTSV|1 Winston SS Silver (3mg) Pack|Yes|Yes||CTR01165|Lascu-Bros|Constanta|CTDTCBA98|162|CCC HRK MULTI Vara 2013|121|Retail|0
0|CS3553870|2013-08-10 16:19:25|Capet|Diana||F|1992-04-05|Giurgiu|ROATA DE JOS|Olteni|21|||||0766960864||Rosse.diiana@yahoo.com|SBSSPK|GLMBL|1 Sobranie SS Pink (3mg) Pack|Yes|Yes||CT002935|Trotter Restaurant|Constanta|CTDTCBA59|162|CCC HRK MULTI Vara 2013|121|Retail|0
0|CS3553874|2013-08-10 16:19:57|Paraschiv|Ramona||F|1991-05-11|Ilfov|Snagov|Florilor|15|||||0737774764|||KTSWIT||1 Winston Fresh XSpression (5mg) Pack|Yes|Yes||CT002935|Trotter Restaurant|Constanta|CTDTCBA96|162|CCC HRK MULTI Vara 2013|121|Retail|0
0|CS3553882|2013-08-10 16:22:06|Moldoveanu|Florentina||F|1989-03-27|Ialomita|SINESTI|Principala|10|||||0768696085|||GLPBMNFT||1 Bricheta GLM|Yes|Yes||CT002935|Trotter Restaurant|Constanta|CTDTCBA96|162|CCC HRK MULTI Vara 2013|121|Retail|0
0|CS3553883|2013-08-10 16:22:39|Petrescu|Costin||M|1984-06-07|Bucuresti|SECTOR 3|Aleea Florin Ciungan|5|66|1|4|23|0723616990||petrescu_costin84@yahoo.com|PMECBL|PMECAFBL|1 Winston 100s Blue (6mg) Pack|Yes|Yes||CTR01165|Lascu-Bros|Constanta|CTDTCBA98|162|CCC HRK MULTI Vara 2013|121|Retail|0
0|CS3553895|2013-08-10 16:26:05|Calin|Daniela||F|1971-09-15|Constanta|Medgidia|Olteniei|5|||||0730857413||Cdaniela85@yahoo.com|WIXSTBL||1 Winston XStyle Blue (6mg) Pack|Yes|Yes||CTR01165|Lascu-Bros|Constanta|CTDTCBA101|162|CCC HRK MULTI Vara 2013|121|Retail|0
0|CS3553911|2013-08-10 16:28:36|Diaconu|Andrei||M|1982-08-20|Constanta|Navodari|Albinelor|16|A6|B|1|23|0735285911||No_paith_82@yahoo.com|WIBL||1 Winston Blue (6mg) Pack|Yes|Yes||CTR01165|Lascu-Bros|Constanta|CTDTCBA101|162|CCC HRK MULTI Vara 2013|121|Retail|0
0|CS3553919|2013-08-10 16:31:07|Sitoianu|Mihaela||F|1967-06-04|Bucuresti|SECTOR 6|Chilia veche|6|A8|3|3|41|0722715995||andreeai95@yahoo.com|MBRGL||1 Bricheta XST|Yes|Yes||CT002935|Trotter Restaurant|Constanta|CTDTCBA96|162|CCC HRK MULTI Vara 2013|121|Retail|0
0|CS3553921|2013-08-10 16:31:54|Volinschi|Victoria||F|1985-08-08|Ilfov|BRAGADIRU|Sos alexandrei|480|D32|1|3|13|0784111351||Vvoleschi@yahoo.com|VOGABP|GLMLIL|1 Glamour Purse Box Pink FT (5mg) Pack|Yes|Yes||CT002935|Trotter Restaurant|Constanta|CTDTCBA59|162|CCC HRK MULTI Vara 2013|121|Retail|0
0|CS3553928|2013-08-10 16:34:15|Durac|Marinela||F|1972-10-01|Constanta|Navodari|Campului|46|||||0722803967||Durac_marinela_a6@yahoo.com|WIBL||1 Winston Blue (6mg) Pack|Yes|Yes||CTR01165|Lascu-Bros|Constanta|CTDTCBA101|162|CCC HRK MULTI Vara 2013|121|Retail|0
0|CS3553932|2013-08-10 16:35:18|Panaioti|Andreea||F|1991-06-19|Bucuresti|SECTOR 6|Chilia Veche|6|A8|3|3|41|0737778778||Andreeai95@yahoo.com|WISSB||1 Winston SS Blue (5mg) Pack|Yes|Yes||CT002935|Trotter Restaurant|Constanta|CTDTCBA96|162|CCC HRK MULTI Vara 2013|121|Retail|0
0|CS3553937|2013-08-10 16:37:30|Georgescu|Calin||M|1991-05-11|Dambovita|TARGOVISTE|Revolutiei|0|C10|A|2|5|0727688233||calin1607@yahoo.com|KTBLH|WIBLH|1 Winston 100s Blue (6mg) Pack|Yes|Yes||CT002935|Trotter Restaurant|Constanta|CTDTCBA59|162|CCC HRK MULTI Vara 2013|121|Retail|0
0|CS3553939|2013-08-10 16:37:43|Stefan|Iulian||M|1984-11-16|Bucuresti|SECTOR 4|Sincai|5|1|B|2|27|0721639329||iulian1stefan@yahoo.com|LSRD||1 Camel Filters (10 mg) Pack|Yes|Yes||CT002935|Trotter Restaurant|Constanta|CTDTCBA96|162|CCC HRK MULTI Vara 2013|121|Retail|0
0|CS3553948|2013-08-10 16:39:12|Ciora|Marius||M|1978-07-15|Bucuresti|SECTOR 5|Panselelor|2|||0|0|0731041596|||GLMBL||1 Glamour CPB Azure (3 mg) Pack|Yes|Yes||CT002935|Trotter Restaurant|Constanta|CTDTCBA96|162|CCC HRK MULTI Vara 2013|121|Retail|0
0|CS3553952|2013-08-10 16:41:42|Cazan|Alexandra||M|1991-11-19|Constanta|CONSTANTA|Alexandru lapusneanu|32b|||||0726799303|||SBSSBK|SBSSPK|1 Sobranie SS Pink (3mg) Pack|Yes|Yes||CT002935|Trotter Restaurant|Constanta|CTDTCBA59|162|CCC HRK MULTI Vara 2013|121|Retail|0
0|CS3557800|2013-08-11 13:19:28|Vidu|Cristina||F|1969-04-11|Bucuresti|Bucuresti|Spiridon Matei|1|9|2|9|120|0733598233||Viducamelia@gmail.com|PMSSOR|WISSS|1 Winston SS Silver (3mg) Pack|Yes|Yes||CT004093|CRICOROM TURISM SRL TERASA AZA|Constanta|CTDTCBA59|162|CCC HRK MULTI Vara 2013|121|Retail|0
0|CS3557821|2013-08-11 13:25:06|Ghiocel|Ionut||M|1987-12-02|Constanta|CONSTANTA|Viceamiral ion murgescu|46|||0|0|0761140186|||KTSV||1 Camel White (4 mg) Pack|Yes|Yes||CT004093|CRICOROM TURISM SRL TERASA AZA|Constanta|CTDTCBA59|162|CCC HRK MULTI Vara 2013|121|Retail|0
0|CS3557832|2013-08-11 13:28:37|Vistu|Andrei||M|1988-04-10|Brasov|BRASOV|Ungheni|2|24|B|1|14|0758800827|||KTSWIT||1 Winston Fresh XSpression (5mg) Pack|Yes|Yes||CT004093|CRICOROM TURISM SRL TERASA AZA|Constanta|CTDTCBA59|162|CCC HRK MULTI Vara 2013|121|Retail|0
0|CS3557865|2013-08-11 13:39:04|Constantin|Adrian||M|1992-05-11|Constanta|CONSTANTA|Bravilor|2|Ipl|A|4|54|0767233663||andu_c_4u@yahoo.com|DUNFCSB||1 Sobranie KS Black (8mg) Pack|Yes|Yes||CT004093|CRICOROM TURISM SRL TERASA AZA|Constanta|CTDTCBA59|162|CCC HRK MULTI Vara 2013|121|Retail|0
0|CS3557871|2013-08-11 13:40:33|Dumitru|Lucia||F|1976-08-22|Bucuresti|SECTOR 6|Vintila mihailescu|19|62|1|2|20|0763165746||Adrianboss10@yahoo.com|KTBL||1 Camel Black (6 mg) Pack|Yes|Yes||CT004093|CRICOROM TURISM SRL TERASA AZA|Constanta|CTDTCBA97|162|CCC HRK MULTI Vara 2013|121|Retail|0
0|CS3557878|2013-08-11 13:42:23|Nicolae|Adrian||M|1976-02-17|Bucuresti|SECTOR 6|Mihailescu vintila|19|62|1|3|20|0728700003||adrianboss10@yahoo.com|MBRRD||1 Camel Black (6 mg) Pack|Yes|Yes||CT004093|CRICOROM TURISM SRL TERASA AZA|Constanta|CTDTCBA97|162|CCC HRK MULTI Vara 2013|121|Retail|0
0|CS3557879|2013-08-11 13:42:24|Munteanu|Mihai||M|1976-05-23|Vaslui|Vaslui|Gh racovits|194|194|A|2||0740856493||Mihaicatalin@yahoo.uk|PMECAFBL||1 Winston Blue (6mg) Pack|Yes|Yes||CTR01165|Lascu-Bros|Constanta|CTDTCBA101|162|CCC HRK MULTI Vara 2013|121|Retail|0
0|CS3557883|2013-08-11 13:43:07|Bruchental|Gheorghe||M|1965-09-21|Cluj|CLUJ NAPOCA|Plopilor|81|P19|2|2|18|0755644283|||PMECBL|PMECAFBL|1 Winston Blue (6mg) Pack|Yes|Yes||CTR01165|Lascu-Bros|Constanta|CTDTCBA98|162|CCC HRK MULTI Vara 2013|121|Retail|0
0|CS3557897|2013-08-11 13:46:25|Zamfir|Teodor||M|1991-09-18|Tulcea|TULCEA|Principala|61|-|-|0|0|0757827912||Zamfirteodor@yahoo.com|DUNFCMBB|DUNFCMBB|1 Sobranie KS Blue (6mg) Pack|Yes|Yes||CTR01165|Lascu-Bros|Constanta|CTDTCBA98|162|CCC HRK MULTI Vara 2013|121|Retail|0
0|CS3557905|2013-08-11 13:48:22|Cimpan|Raluca||F|1993-03-09|Constanta|CONSTANTA|Justitiei|7|-|-|-||0727740832||Cimpan.raluca@yahoo.com|CABK||1 Camel Black (6 mg) Pack|Yes|Yes||CT004093|CRICOROM TURISM SRL TERASA AZA|Constanta|CTDTCBA97|162|CCC HRK MULTI Vara 2013|121|Retail|0
0|CS3557916|2013-08-11 13:51:01|Birnescu|Iustina||F|1979-09-08|Bucuresti|Sector 1|Stefan cel mare|4|14|A||8|0723132040||Abirnescu@yahoo.com|KTNBL||1 Sobranie SS Pink (3mg) Pack|Yes|Yes||CTR01165|Lascu-Bros|Constanta|CTDTCBA101|162|CCC HRK MULTI Vara 2013|121|Retail|0
0|CS3557931|2013-08-11 13:53:51|Nicolae|Monica||F|1990-03-19|Ilfov|DOBROESTI|Melodiei|18|||||0765281753||Mona_liss19x@yahoo.com|KTSWIT||1 Winston Fresh XSpression (5mg) Pack|Yes|Yes||CT004093|CRICOROM TURISM SRL TERASA AZA|Constanta|CTDTCBA59|162|CCC HRK MULTI Vara 2013|121|Retail|0
0|CS3557940|2013-08-11 13:56:35|Stan|George||M|1982-03-23|Constanta|CONSTANTA|Tomis|315|3a|A|9|38|0772421910||Georgestan2006@yahoo.com|MBRGLT|MBRGLT|1 Winston XStyle Blue (6mg) Pack|Yes|No||CTR01165|Lascu-Bros|Constanta|CTDTCBA98|162|CCC HRK MULTI Vara 2013|121|Retail|0
0|CS3557947|2013-08-11 13:58:09|Nichita|Roxana||M|1989-04-29|Vrancea|Focsani|Capitan stoenescu|8|||0|0|0765336323|||VOGABP||1 Sobranie SS Black (6mg) Pack|Yes|Yes||CT004093|CRICOROM TURISM SRL TERASA AZA|Constanta|CTDTCBA59|162|CCC HRK MULTI Vara 2013|121|Retail|0
0|CS3557948|2013-08-11 13:58:21|Constantin|Catalin||M|1987-04-23|Vrancea|FOCSANI|Islazului|2|-|-|-||0764468972||Catalinboboc@yahoo.com|KTNBK||1 Sobranie SS Pink (3mg) Pack|Yes|Yes||CT004093|CRICOROM TURISM SRL TERASA AZA|Constanta|CTDTCBA97|162|CCC HRK MULTI Vara 2013|121|Retail|0
0|CS3557950|2013-08-11 13:59:04|Mujdei|Cristian||M|1986-06-09|Constanta|CONSTANTA|Fundatura garii|2|||0|0|0722161422||nujdelinho@yahoo.com|DAVCL|DAVCL|1 Sobranie KS Black (8mg) Pack|Yes|Yes||CTR01165|Lascu-Bros|Constanta|CTDTCBA98|162|CCC HRK MULTI Vara 2013|121|Retail|0
0|CS3557955|2013-08-11 14:00:11|Constantin|Alin||M|1986-01-04|Vrancea|Focsani|Islazului|2|||0|0|0764467824|||SBSSBK||1 Sobranie SS Black (6mg) Pack|Yes|Yes||CT004093|CRICOROM TURISM SRL TERASA AZA|Constanta|CTDTCBA59|162|CCC HRK MULTI Vara 2013|121|Retail|0
0|CS3557959|2013-08-11 14:00:41|Iacob|Andreea||F|1987-03-14|Vrancea|FOCSANI|Islazului|2|-|-|-||0765147386|||KTNBK||1 Sobranie SS Pink (3mg) Pack|Yes|No||CT004093|CRICOROM TURISM SRL TERASA AZA|Constanta|CTDTCBA97|162|CCC HRK MULTI Vara 2013|121|Retail|0
0|CS3557964|2013-08-11 14:03:25|Toia|Andrei||M|1993-05-17|Tulcea|TULCEA|Alunisului|9|E1|A|1|41|0752201181||andrei.andy935@yahoo.com|KTSV||1 Camel White (4 mg) Pack|Yes|Yes||CT004093|CRICOROM TURISM SRL TERASA AZA|Constanta|CTDTCBA97|162|CCC HRK MULTI Vara 2013|121|Retail|0
0|CS3557970|2013-08-11 14:04:51|Iftime|Sorin||M|1984-08-14|Constanta|Constanta|Aleea pelicanului|8|||||0761052531||Sorin_iftime@yahoo.com|MBRGLFT||1 Winston XStyle Silver (4mg) Pack|Yes|Yes||CTR01165|Lascu-Bros|Constanta|CTDTCBA101|162|CCC HRK MULTI Vara 2013|121|Retail|0
0|CS3557972|2013-08-11 14:05:34|Asproiu|Adrian||M|1985-10-09|Constanta|CONSTANTA|Topolog|24|F3|D|1|67|0723387683|||KTBL||1 Camel Black (6 mg) Pack|Yes|Yes||CT004093|CRICOROM TURISM SRL TERASA AZA|Constanta|CTDTCBA59|162|CCC HRK MULTI Vara 2013|121|Retail|0
0|CS3557981|2013-08-11 14:07:24|Pavel|Catalin|1820406222083|M|1982-04-06|Constanta|MURFATLAR|Mihai eminescu|40|||||0773099305|||MBRRDH||1 Winston Classic (10mg) Pack|Yes|Yes||CTR01165|Lascu-Bros|Constanta|CTDTCBA101|162|CCC HRK MULTI Vara 2013|121|Retail|0
0|CS3557989|2013-08-11 14:10:25|Subredu|Daniela Florentina||F|1984-04-17|Teleorman|PLOSCA|Ruscai|1|||||0784242211||Danutza_flory@yahoo.com|VIRSM|VOGM|1 Glamour CPB Menthol (5mg) Pack|Yes|Yes||CTR01165|Lascu-Bros|Constanta|CTDTCBA98|162|CCC HRK MULTI Vara 2013|121|Retail|0
0|CS3557995|2013-08-11 14:12:39|Hublea|Lucian||M|1992-09-26|Calarasi|FUNDULEA|Muncii|32|||||0734396461||Luk_hb@hotmail.com|KTBL|KTBL|1 Sobranie KS Blue (6mg) Pack|Yes|Yes||CTR01165|Lascu-Bros|Constanta|CTDTCBA98|162|CCC HRK MULTI Vara 2013|121|Retail|0
0|CS3558004|2013-08-11 14:16:05|Olteanu|Corina|2880820100195|F|1988-08-20|Buzau|Buzau|Cartier brosteni|1|J2|A|1|10|0756818111||Corinapetcu20@yahoo.com|MCBL||1 Winston Blue (6mg) Pack|Yes|Yes||CTR01165|Lascu-Bros|Constanta|CTDTCBA101|162|CCC HRK MULTI Vara 2013|121|Retail|0
0|CS3558008|2013-08-11 14:17:39|Dobre|Elena||F|1974-06-12|Bucuresti|SECTOR 5|Calea rahovei|326|53|A|P|55|0786559553|||DAVGLS||1 Bricheta GLM|Yes|Yes||CT003940|CRICOROM TURISM SRL TERASA MOTOR|Constanta|CTDTCBA59|162|CCC HRK MULTI Vara 2013|121|Retail|0
0|CS3558009|2013-08-11 14:17:58|Alexe|Victor||M|1989-12-13|Constanta|NAVODARI|Panselutelor|6|67|A|4|18|0768566505||Kmt_djk@yahoo.com|KTBL|KTBL|1 Sobranie KS Blue (6mg) Pack|Yes|Yes||CTR01165|Lascu-Bros|Constanta|CTDTCBA98|162|CCC HRK MULTI Vara 2013|121|Retail|0
0|CS3558010|2013-08-11 14:18:30|Olteanu|George|1870422100153|M|1987-04-22|Buzau|Buzau|Cartierul brosteni|1|J2|A|1|10|0741302176|||MCBL||1 Winston 100s Blue (6mg) Pack|Yes|Yes||CTR01165|Lascu-Bros|Constanta|CTDTCBA101|162|CCC HRK MULTI Vara 2013|121|Retail|0
0|CS3558013|2013-08-11 14:20:10|Tuta|Tiberiu||M|1989-12-21|Bucuresti|SECTOR 3|Baba novac|8a|B|1|0|402|0721228321||tiberiu.tuta@gmail.com|DUNFCBB|SBKSGD|1 Sobranie KS Gold  (4mg) Pack|Yes|Yes||CT003940|CRICOROM TURISM SRL TERASA MOTOR|Constanta|CTDTCBA59|162|CCC HRK MULTI Vara 2013|121|Retail|0
0|CS3558014|2013-08-11 14:20:22|Dragomir|Cosmin||M|1986-10-10|Bucuresti|SECTOR 5|Splaiul independentei|204|||3|331|0766219040||cosmin333it@yahoo.com|WIBLH||1 Winston 100s Blue (6mg) Pack|Yes|Yes||CTR01165|Lascu-Bros|Constanta|CTDTCBA101|162|CCC HRK MULTI Vara 2013|121|Retail|0
0|CS3558020|2013-08-11 14:22:35|Moala|Liliana||F|1985-08-15|Buzau|Buzau|Dorobanti|1|33|C||14|0785943338||Lili_moala@yahoo.com|WCHRDS||1 Winston 100s Blue (6mg) Pack|Yes|Yes||CTR01165|Lascu-Bros|Constanta|CTDTCBA101|162|CCC HRK MULTI Vara 2013|121|Retail|0
0|CS3558021|2013-08-11 14:22:52|Calin|Laura||F|1981-09-29|Bacau|ONESTI|Garii|1|1|B|3|26|0720543705||Issa_091@yahoo.com|VOGJSN||1 Sobranie SS Menthol (5 mg) Pack|Yes|Yes||CT003940|CRICOROM TURISM SRL TERASA MOTOR|Constanta|CTDTCBA97|162|CCC HRK MULTI Vara 2013|121|Retail|0
0|CS3558023|2013-08-11 14:23:14|Toader|Andrei||M|1989-05-30|Bucuresti|SECTOR 3|Aleea rotunda|4|H6|B|4|38|0727772382||Andrei_qk@yahoo.com|DUNFCBB||1 Sobranie KS Gold  (4mg) Pack|Yes|Yes||CT003940|CRICOROM TURISM SRL TERASA MOTOR|Constanta|CTDTCBA59|162|CCC HRK MULTI Vara 2013|121|Retail|0
0|CS3558027|2013-08-11 14:24:32|Grecu|Aurel||M|1981-02-08|Constanta|CONSTANTA|Aleea Egretei|8|15|1a|P|3|0727639528||Edy_28sp@yahoo.com|KTBL|KTBL|1 Sobranie KS Black (8mg) Pack|Yes|Yes||CTR01165|Lascu-Bros|Constanta|CTDTCBA98|162|CCC HRK MULTI Vara 2013|121|Retail|0
0|CS3558028|2013-08-11 14:24:43|Marin|Liviu|1820424100131|M|1982-04-24|Buzau|Buzau|Nimfelor|33|||||0766362620||Liviu_a82@yahoo.com|LMBLH||1 Winston 100s Blue (6mg) Pack|Yes|Yes||CTR01165|Lascu-Bros|Constanta|CTDTCBA101|162|CCC HRK MULTI Vara 2013|121|Retail|0
0|CS3558033|2013-08-11 14:27:14|Dragomir|Gabriela|2900614100143|F|1990-06-14|Buzau|Buzau|Cartier brosteni|1|R3|A|2|9|0765968782||Dragomir_gabriela90@yahoo.com|LMBLH||1 Winston 100s Blue (6mg) Pack|Yes|Yes||CTR01165|Lascu-Bros|Constanta|CTDTCBA101|162|CCC HRK MULTI Vara 2013|121|Retail|0
0|CS3558036|2013-08-11 14:27:47|Nedelciu|Loredana||F|1978-07-09|Tulcea|TULCEA|Alexandru cel Bun|13|||||0751256076|||DAVGL|DAVGL|1 Sobranie KS Blue (6mg) Pack|Yes|Yes||CTR01165|Lascu-Bros|Constanta|CTDTCBA98|162|CCC HRK MULTI Vara 2013|121|Retail|0
0|CS3558037|2013-08-11 14:27:55|Zinel|Alexandra|2890203410085|F|1989-02-03|Bucuresti|SECTOR 3|Liviu rebreanu|39|Pm22|A|6|26|0727327341||Alicezine@ymail.com|VOGJSN||1 Sobranie SS Menthol (5 mg) Pack|Yes|Yes||CT003940|CRICOROM TURISM SRL TERASA MOTOR|Constanta|CTDTCBA59|162|CCC HRK MULTI Vara 2013|121|Retail|0
0|CS3558046|2013-08-11 14:30:06|Calin|Lucian||M|1990-10-09|Giurgiu|ROATA DE JOS|Scolii|13|-|-|-||0765199522|||DUNFCMBB||1 Camel Black (6 mg) Pack|Yes|Yes||CT003940|CRICOROM TURISM SRL TERASA MOTOR|Constanta|CTDTCBA97|162|CCC HRK MULTI Vara 2013|121|Retail|0
0|CS3558052|2013-08-11 14:32:13|Costea|Marian||M|1992-09-01|Constanta|NAVODARI|Randunelelor|12|4sud|C|2|31|0731517776||Tanaka.lucian@gmail.com|KTBL|KTBL|1 Camel Black (6 mg) Pack|Yes|Yes||CTR01165|Lascu-Bros|Constanta|CTDTCBA98|162|CCC HRK MULTI Vara 2013|121|Retail|0
0|CS3558054|2013-08-11 14:32:52|Lazarescu|Andrei|1890519134199|M|1989-03-19|Constanta|CONSTANTA|Voievozilor|5|||0|0|0733515641||Handucapat@yahoo.com|KTBL6||1 Sobranie KS Blue (6mg) Pack|Yes|Yes||CT003940|CRICOROM TURISM SRL TERASA MOTOR|Constanta|CTDTCBA59|162|CCC HRK MULTI Vara 2013|121|Retail|0
0|CS3558055|2013-08-11 14:33:13|Popa|Sorin||M|1990-01-12|Bucuresti|SECTOR 6|Iuliu maniu|186|E|A|5|68|0722519380|||DUNFCMBB||1 Sobranie KS Black (8mg) Pack|Yes|No||CT003940|CRICOROM TURISM SRL TERASA MOTOR|Constanta|CTDTCBA97|162|CCC HRK MULTI Vara 2013|121|Retail|0
0|CS3558059|2013-08-11 14:34:24|Raclea|Romeo||M|1988-03-14|Galati|GALATI|Dunare|44|B7|0|3|53|0746253906||raclea.romeo@yahoo.com|SBKSBL||1 Sobranie KS Blue (6mg) Pack|Yes|Yes||CT003940|CRICOROM TURISM SRL TERASA MOTOR|Constanta|CTDTCBA59|162|CCC HRK MULTI Vara 2013|121|Retail|0
0|CS3558064|2013-08-11 14:35:55|Moronas|Lavinia||F|1992-10-25|Constanta|CONSTANTA|Al lapusneanu|79|Lv7|B|3|32|0729529878||sw3t_music_me@yahoo.es|VIRSV||1 Sobranie SS Pink (3mg) Pack|Yes|Yes||CT003940|CRICOROM TURISM SRL TERASA MOTOR|Constanta|CTDTCBA59|162|CCC HRK MULTI Vara 2013|121|Retail|0
0|CS3558066|2013-08-11 14:36:02|Balasa|Mihaita||M|1990-03-04|Giurgiu|ROATA DE JOS|Sobarului|1|-|-|-||0742222834|||KTBL||1 Sobranie KS Blue (6mg) Pack|Yes|No||CT003940|CRICOROM TURISM SRL TERASA MOTOR|Constanta|CTDTCBA97|162|CCC HRK MULTI Vara 2013|121|Retail|0
0|CS3558078|2013-08-11 14:39:33|Purcareanu|Andrei|1841004450037|M|1984-10-04|Bucuresti|Sector 4|Raul soimului|2|46|2||36|0767008536||Aandu_andrei@yahoo.com|WIBL||1 Winston Blue (6mg) Pack|Yes|Yes||CTR01165|Lascu-Bros|Constanta|CTDTCBA101|162|CCC HRK MULTI Vara 2013|121|Retail|0
0|CS3558088|2013-08-11 14:43:12|Serban|Emilian||M|1986-03-16|Constanta|CONSTANTA|Cutezatorilor|1|||0|0|0721946026||Serban_emilia2000@yahoo.com|DUNFCMBB||1 Sobranie KS Blue (6mg) Pack|Yes|Yes||CT003940|CRICOROM TURISM SRL TERASA MOTOR|Constanta|CTDTCBA59|162|CCC HRK MULTI Vara 2013|121|Retail|0
0|CS3558095|2013-08-11 14:44:32|Nedelcu|Eduard||M|1991-08-21|Constanta|LUMINA|Mare|154|-|-|0|0|0726271202||Eddy/game1@yahoo.com|KTBL|KTBL|1 Camel Black (6 mg) Pack|Yes|Yes||CTR01165|Lascu-Bros|Constanta|CTDTCBA98|162|CCC HRK MULTI Vara 2013|121|Retail|0
0|CS3558096|2013-08-11 14:44:44|Popescu|Alexandra||F|1991-06-14|Galati|GALATI|Aviatorul vasile craiul|5|N7|2|3|35|0740791798||Sashaalejandra@yahoo.fr|KTSV||1 Bricheta CA BW|Yes|No||CT003940|CRICOROM TURISM SRL TERASA MOTOR|Constanta|CTDTCBA97|162|CCC HRK MULTI Vara 2013|121|Retail|0
0|CS3558098|2013-08-11 14:45:45|Purcareanu|Gentiana|2880918440016|F|1988-09-18|Bucuresti|Sector 4|Raul soimului|2|46|3|1|36|0766726274||Gentiana.claudia@yahoo.com|WIBL||1 Winston Blue (6mg) Pack|Yes|Yes||CTR01165|Lascu-Bros|Constanta|CTDTCBA101|162|CCC HRK MULTI Vara 2013|121|Retail|0
0|CS3558110|2013-08-11 14:51:05|Biciila|Daniel||M|1990-05-01|Braila|BRAILA|Inului|39|||0|0|0757065408||Yodanutzz@yahoo.com|DUNFCMBB||1 Sobranie KS Black (8mg) Pack|Yes|Yes||CT003940|CRICOROM TURISM SRL TERASA MOTOR|Constanta|CTDTCBA97|162|CCC HRK MULTI Vara 2013|121|Retail|0
0|CS3558114|2013-08-11 14:53:32|Popa Jianu|Constantin||M|1986-05-21|Arges|PITESTI|Smeurei|29|Ps|A|P|2|0721837613||Constantin-viorel@hotmail.com|KTBL||1 Camel Black (6 mg) Pack|Yes|No||CT003940|CRICOROM TURISM SRL TERASA MOTOR|Constanta|CTDTCBA59|162|CCC HRK MULTI Vara 2013|121|Retail|0
0|CS3558116|2013-08-11 14:53:40|Kassai|Stefan||M|1982-05-24|Maramures|BAIA MARE|Iuliu maniu|40a|||0|0|0746704866||Kassaistefan@yahoo.ro|DUNFCSB||1 Sobranie KS Black (8mg) Pack|Yes|Yes||CT003940|CRICOROM TURISM SRL TERASA MOTOR|Constanta|CTDTCBA97|162|CCC HRK MULTI Vara 2013|121|Retail|0
0|CS3558122|2013-08-11 14:55:21|Dobrescu|Theodor||M|1986-07-26|Constanta|CONSTANTA|Aleea Crinilor|32|L43|C|2|14|0727091245||Dobrescutheodor@yahoo.com|KTBL|KTBL|1 Sobranie KS Black (8mg) Pack|Yes|Yes||CTR01165|Lascu-Bros|Constanta|CTDTCBA98|162|CCC HRK MULTI Vara 2013|121|Retail|0
0|CS3558123|2013-08-11 14:55:30|Vladescu|Mihaela||F|1988-11-20|Constanta|CONSTANTA|Tineretului|47|||0|0|0730439805||Yasmina_blonda_19@yahoo.com|KTBLH||1 Winston 100s Blue (6mg) Pack|Yes|Yes||CT003940|CRICOROM TURISM SRL TERASA MOTOR|Constanta|CTDTCBA97|162|CCC HRK MULTI Vara 2013|121|Retail|0
0|CS3558126|2013-08-11 14:57:01|Florea|Mirela||F|1994-02-11|Constanta|CERNAVODA|9 mai|3|D2|B|2|23|0786606134||Mirella_ella15@yahoo.com|DAVCL||1 Sobranie KS Black (8mg) Pack|Yes|Yes||CT003940|CRICOROM TURISM SRL TERASA MOTOR|Constanta|CTDTCBA59|162|CCC HRK MULTI Vara 2013|121|Retail|0
0|CS3558129|2013-08-11 14:57:49|Balanescu|Vlad||M|1991-09-18|Constanta|CONSTANTA|Dionisie cel mic|65|68a|A|1|4|0729894605||balanescuvlad@yahoo.com|KTBL||1 Sobranie KS Blue (6mg) Pack|Yes|Yes||CT003940|CRICOROM TURISM SRL TERASA MOTOR|Constanta|CTDTCBA97|162|CCC HRK MULTI Vara 2013|121|Retail|0
0|CS3558130|2013-08-11 14:58:21|Hostina|Cosmin||M|1987-08-14|Constanta|CONSTANTA|Aleea Crinilor|19|L92|D|3|10|0723052294||Cosminhostina@yahoo.com|DAVCL|DAVCL|1 Sobranie KS Black (8mg) Pack|Yes|Yes||CTR01165|Lascu-Bros|Constanta|CTDTCBA98|162|CCC HRK MULTI Vara 2013|121|Retail|0
0|CS3558131|2013-08-11 14:58:44|Pavalache|Claudio||M|1989-12-10|Constanta|CONSTANTA|Badea cartan|29|K14|B|3|35|0735865767||Claudyo@yahoo.com|DAVGL||1 Sobranie KS Blue (6mg) Pack|Yes|Yes||CT003940|CRICOROM TURISM SRL TERASA MOTOR|Constanta|CTDTCBA59|162|CCC HRK MULTI Vara 2013|121|Retail|0
0|CS3558133|2013-08-11 15:00:09|Ionescu|Catalin|1921029134129|M|1992-10-29|Constanta|CONSTANTA|Ion luca caragiale|41|-|-|0|0|0768558132||Ionescucatalin@yahoo.com|KTBL||1 Sobranie SS Black (6mg) Pack|Yes|Yes||CTR01165|Lascu-Bros|Constanta|CTDTCBA101|162|CCC HRK MULTI Vara 2013|121|Retail|0
0|CS3558134|2013-08-11 15:01:04|Coconea|Bogdan|1841220080118|M|1984-12-20|Brasov|BRASOV|Jepilor|7|C3|A|3|11|0741777104||Catav3ncu@yahoo.com|WIBL||1 Winston Blue (6mg) Pack|Yes|Yes||CT003940|CRICOROM TURISM SRL TERASA MOTOR|Constanta|CTDTCBA59|162|CCC HRK MULTI Vara 2013|121|Retail|0
0|CS3558135|2013-08-11 15:01:30|Popescu|Oana Nicoleta||F|1981-05-07|Constanta|CONSTANTA|Sarmi Segetuza|26|||||0761966254||Ady_bogdan4@yahoo.com|DAVGLS|DAVGLS|1 Sobranie SS Black (6mg) Pack|Yes|Yes||CTR01165|Lascu-Bros|Constanta|CTDTCBA98|162|CCC HRK MULTI Vara 2013|121|Retail|0
0|CS3558137|2013-08-11 15:01:48|Chitu|Silvia||F|1987-01-22|Constanta|CONSTANTA|Soveja|116|Dr34|B|0|16|0767490306||Sylvy20_sylvy20@yahoo.com|SBSSBK||1 Sobranie SS Black (6mg) Pack|Yes|Yes||CTR01165|Lascu-Bros|Constanta|CTDTCBA101|162|CCC HRK MULTI Vara 2013|121|Retail|0
0|CS3558138|2013-08-11 15:02:42|Dodan|Florentina||F|1990-02-09|Constanta|Lumina|Linistii|3|||0|0|0769490524|||DUNFCMBB||1 Sobranie KS Blue (6mg) Pack|Yes|No||CT003940|CRICOROM TURISM SRL TERASA MOTOR|Constanta|CTDTCBA97|162|CCC HRK MULTI Vara 2013|121|Retail|0
0|CS3558139|2013-08-11 15:03:47|Turan|Denis||M|1992-01-05|Constanta|MEDGIDIA|Independentei|0|A2|C|P|44|0760799231||Denis_cream@yahoo.com|CABK||1 Camel Black (6 mg) Pack|Yes|Yes||CT003940|CRICOROM TURISM SRL TERASA MOTOR|Constanta|CTDTCBA59|162|CCC HRK MULTI Vara 2013|121|Retail|0
0|CS3558144|2013-08-11 15:07:03|Marton|Irina||F|1992-12-20|Prahova|PLOIESTI|Spatarul nicolae mirescu|14a|139f|B|3|32|0740795442||Irinamarton@gmail.com|DUNFCSB||1 Sobranie KS Blue (6mg) Pack|Yes|No||CT003940|CRICOROM TURISM SRL TERASA MOTOR|Constanta|CTDTCBA97|162|CCC HRK MULTI Vara 2013|121|Retail|0
0|CS3558145|2013-08-11 15:07:54|Verbina|Ana-maria|2820908360046|F|1982-09-08|Bucuresti|Sector 3|Vitan|104|V42|3|1|71|0749155475||Ana.verbina@bnro.ro|VIRSPR||1 Sobranie SS Black (6mg) Pack|Yes|Yes||CTR01165|Lascu-Bros|Constanta|CTDTCBA101|162|CCC HRK MULTI Vara 2013|121|Retail|0
0|CS3558153|2013-08-11 15:12:02|Dobrescu|Georgeta||F|1958-09-20|Constanta|CONSTANTA|Aleea Crinilor|32|L43|C|2|17|0723629659|||DUNFCSB|DUNFCSB|1 Sobranie KS Black (8mg) Pack|Yes|Yes||CTR01165|Lascu-Bros|Constanta|CTDTCBA98|162|CCC HRK MULTI Vara 2013|121|Retail|0
0|CS3558158|2013-08-11 15:14:23|Dobrescu|Victor||M|1952-10-16|Constanta|CONSTANTA|Aleea Crinilor|43|L43|C|2|14|0724699474|||DAVCL|DAVCL|1 Sobranie KS Black (8mg) Pack|Yes|Yes||CTR01165|Lascu-Bros|Constanta|CTDTCBA98|162|CCC HRK MULTI Vara 2013|121|Retail|0
0|CS3558166|2013-08-11 15:18:01|Hostina|Daniel||M|1968-11-07|Constanta|CONSTANTA|Aleea Crinilor|30|92|B|3|10|0720052094|||KTBL|KTBL|1 Sobranie KS Black (8mg) Pack|Yes|Yes||CTR01165|Lascu-Bros|Constanta|CTDTCBA98|162|CCC HRK MULTI Vara 2013|121|Retail|0
0|CS3558173|2013-08-11 15:20:47|Baba|Dumitru|1820204134124|M|1982-02-04|Constanta|CONSTANTA|Dionisie cel mic|53c|50a|B|1|22|0722657379||Tu_camity@yahoo.com|SBSSWH||1 Sobranie SS White (1mg) Pack|Yes|Yes||CT002735|CRICOROM TURISM SRL|Constanta|CTDTCBA59|162|CCC HRK MULTI Vara 2013|121|Retail|0
0|CS3558179|2013-08-11 15:21:59|Ion|Elvira|2860206420019|F|1986-02-06|Bucuresti|SECTOR 2|Bv chisinau|11|||||0728826115||Elviraion86@yahoo.com|KTBL6||1 Camel Black (6 mg) Pack|Yes|Yes||CTR01165|Lascu-Bros|Constanta|CTDTCBA101|162|CCC HRK MULTI Vara 2013|121|Retail|0
0|CS3558182|2013-08-11 15:22:47|Forascu|Alexandra||F|1986-10-19|Iasi|IASI|Pompieri|6|649|B|4|18|0742099727||alexandra.forascu@gmail.com|DUNFCMBB|DUNFCMBB|1 Sobranie KS Blue (6mg) Pack|Yes|Yes||CTR01165|Lascu-Bros|Constanta|CTDTCBA98|162|CCC HRK MULTI Vara 2013|121|Retail|0
0|CS3558185|2013-08-11 15:25:09|Badragan|Vlad||M|1986-05-31|Iasi|IASI|Tudor Vladimirescu|91D|91|B|3|10|0743158996||Cutume@gmail.com|MBRRDH|MBRRDH|1 Sobranie KS Blue (6mg) Pack|Yes|Yes||CTR01165|Lascu-Bros|Constanta|CTDTCBA98|162|CCC HRK MULTI Vara 2013|121|Retail|0
0|CS3558195|2013-08-11 15:28:44|Siminiceanu|Cristian||M|1984-07-07|Constanta|CONSTANTA|Trotus|30|||0|0|0768888156||Yotupeu05@yahoo.com|KTBL|KTBL|1 Sobranie KS Blue (6mg) Pack|Yes|Yes||CTR01165|Lascu-Bros|Constanta|CTDTCBA98|162|CCC HRK MULTI Vara 2013|121|Retail|0
0|CS3558198|2013-08-11 15:29:53|Costache|Andrei||M|1983-11-25|Arges|PITESTI|Eremia grigorescu|23|P15|C|1|4|0735546501|||KTBLH||1 Camel Black (6 mg) Pack|Yes|Yes||CT002735|CRICOROM TURISM SRL|Constanta|CTDTCBA59|162|CCC HRK MULTI Vara 2013|121|Retail|0
0|CS3558200|2013-08-11 15:30:34|Comotarceanu|Bogdan||M|1987-05-06|Mures|TARGU MURES|Trotusului|3|-|-|-||0729573334||Bagdancovartaceanu@yahoo.com|KTNWH||1 Sobranie SS White (1mg) Pack|Yes|No||CT002735|CRICOROM TURISM SRL|Constanta|CTDTCBA97|162|CCC HRK MULTI Vara 2013|121|Retail|0
0|CS3558204|2013-08-11 15:33:03|Vasiliu|Alexandru||M|1984-03-06|Galati|GALATI|Victor Vancovici|2|G13|4|P|130|0745589025||Pis_pis_91@yahoo.com|WIBLH|WIBLH|1 Winston 100s Blue (6mg) Pack|Yes|Yes||CTR01165|Lascu-Bros|Constanta|CTDTCBA98|162|CCC HRK MULTI Vara 2013|121|Retail|0
0|CS3558212|2013-08-11 15:38:02|Sanda|Gabriela||F|1966-04-01|Constanta|Navodari|Randunelelor|21|R7|A|||0722679382||Ladie_yoz@yahoo.com|DUNFCMBB||1 Sobranie KS Blue (6mg) Pack|Yes|Yes||CTR01165|Lascu-Bros|Constanta|CTDTCBA101|162|CCC HRK MULTI Vara 2013|121|Retail|0
0|CS3558215|2013-08-11 15:38:26|Moise|Maria||F|1992-01-20|Constanta|CONSTANTA|Soveja|71|7a|A|3|43|0745951562||Ciumflyx@yahoo.com|KTBL|KTBL|1 Camel Black (6 mg) Pack|Yes|Yes||CTR01165|Lascu-Bros|Constanta|CTDTCBA98|162|CCC HRK MULTI Vara 2013|121|Retail|0
0|CS3558217|2013-08-11 15:38:42|Grosu|Florin||M|1987-10-02|Bucuresti|SECTOR 6|Aleea camp cu flori|2b|C17a|A|7|31|0768990441||Horiq.foto@yahoo.com|MBRGLT||1 Bricheta XST|Yes|Yes||CT002735|CRICOROM TURISM SRL|Constanta|CTDTCBA97|162|CCC HRK MULTI Vara 2013|121|Retail|0
0|CS3558222|2013-08-11 15:40:57|Serban|Irina||F|1993-03-20|Constanta|Navodari|Nuferilor|7|C|C|3|46|0767437727||Irinutza_iubitzika_mika@yahoo.com|KTBL||1 Sobranie KS Black (8mg) Pack|Yes|Yes||CTR01165|Lascu-Bros|Constanta|CTDTCBA101|162|CCC HRK MULTI Vara 2013|121|Retail|0
0|CS3558225|2013-08-11 15:42:21|Vladescu|Horia||M|1986-05-08|Bucuresti|SECTOR 3|Nicolae grigorescu|37|||||0751516712|||SBKSBL||1 Sobranie KS Blue (6mg) Pack|Yes|Yes||CT002735|CRICOROM TURISM SRL|Constanta|CTDTCBA59|162|CCC HRK MULTI Vara 2013|121|Retail|0
0|CS3558227|2013-08-11 15:43:03|Nouhad|Osman||F|1986-12-21|Bucuresti|SECTOR 1|Radu beler|25|-|-|3|8|0735838383||Nouhadosman@ymail.com|VOGBL|PARRSSH|1 Sobranie SS Black (6mg) Pack|Yes|Yes||CT002735|CRICOROM TURISM SRL|Constanta|CTDTCBA97|162|CCC HRK MULTI Vara 2013|121|Retail|0
0|CS3558233|2013-08-11 15:44:54|Tirdea|Bogdan||M|1985-03-13|Bucuresti|SECTOR 2|Sos pantelimon|249|48|1|12|45|0727330305||Bogdan_tirdea@yahoo.com|SBSSBK||1 Sobranie SS Black (6mg) Pack|Yes|Yes||CT002735|CRICOROM TURISM SRL|Constanta|CTDTCBA59|162|CCC HRK MULTI Vara 2013|121|Retail|0
0|CS3558240|2013-08-11 15:47:04|Trandafilide|Loredana||F|1978-04-01|Constanta|Constanta|Aleea Hortensiei|8|F|C|1|45|0769211711||lore_beyy@yahoo.com|VIRSM||1 Sobranie SS Menthol (5 mg) Pack|Yes|Yes||CTR01165|Lascu-Bros|Constanta|CTDTCBA101|162|CCC HRK MULTI Vara 2013|121|Retail|0
0|CS3558242|2013-08-11 15:47:32|Osman|Silvia||F|1965-12-25|Bucuresti|SECTOR 1|Radu belet|25|-|-|3|8|0726392639||Baybchica@hotmail.com|DAVGLS||1 Sobranie SS Black (6mg) Pack|Yes|No||CT002735|CRICOROM TURISM SRL|Constanta|CTDTCBA97|162|CCC HRK MULTI Vara 2013|121|Retail|0
0|CS3558248|2013-08-11 15:48:40|Chiriac|Sofia Bianca||F|1954-09-13|Tulcea|TULCEA|Grivitei|34|||||0740072984|||VOGM|VOGM|1 Sobranie SS Menthol (5 mg) Pack|Yes|Yes||CTR01165|Lascu-Bros|Constanta|CTDTCBA98|162|CCC HRK MULTI Vara 2013|121|Retail|0
0|CS3558256|2013-08-11 15:55:35|Paraschiv|Marian||M|1986-10-23|Bucuresti|SECTOR 5|Telita|20|119c|1|7|42|0767288395|||KTNBK||1 Sobranie SS Pink (3mg) Pack|Yes|Yes||CT002735|CRICOROM TURISM SRL|Constanta|CTDTCBA59|162|CCC HRK MULTI Vara 2013|121|Retail|0
0|CS3558259|2013-08-11 15:56:50|Tina|Tiner||F|1970-03-05|Tulcea|Tulcea|Isaccea|3|I9|B||2|0766431226|||KTBL||1 Sobranie KS Black (8mg) Pack|Yes|Yes||CTR01165|Lascu-Bros|Constanta|CTDTCBA101|162|CCC HRK MULTI Vara 2013|121|Retail|0
0|CS3558263|2013-08-11 15:59:10|Hrubaru|Daniel||M|1972-10-13|Vrancea|FOCSANI|Lupeni|8|-|4|P|61|0772350015||Danhrubarul@yahoo.it|CABL||1 Camel Blue (6 mg) Pack|Yes|Yes||CT002735|CRICOROM TURISM SRL|Constanta|CTDTCBA97|162|CCC HRK MULTI Vara 2013|121|Retail|0
0|CS3558265|2013-08-11 15:59:31|Flaviu|Daniel||M|1988-02-22|Bucuresti|SECTOR 6|Ion vlad|6|||||0768883456|||SBSSBK||1 Sobranie SS Black (6mg) Pack|Yes|Yes||CT002735|CRICOROM TURISM SRL|Constanta|CTDTCBA59|162|CCC HRK MULTI Vara 2013|121|Retail|0
0|CS3558267|2013-08-11 16:00:18|Duma|Virgil||M|1972-05-18|Constanta|Navodari|Principals|9|||||0767507500|||KTBL||1 Sobranie KS Black (8mg) Pack|Yes|Yes||CTR01165|Lascu-Bros|Constanta|CTDTCBA101|162|CCC HRK MULTI Vara 2013|121|Retail|0
0|CS3558269|2013-08-11 16:01:23|Burdulea|Gabriel||M|1988-11-07|Constanta|CONSTANTA|Bd 1mai|33a|Pf8|A|4|17|0761442262||Www_denny_ra@yahoo.com|LMBL||1 Winston Blue (6mg) Pack|Yes|Yes||CT002735|CRICOROM TURISM SRL|Constanta|CTDTCBA59|162|CCC HRK MULTI Vara 2013|121|Retail|0
0|CS3558272|2013-08-11 16:02:26|Caraman|Cosmin||M|1989-07-10|Constanta|Constanta|Timonei|12|C6|A|0|24|0766361420||grasutu2oo5@yahoo.com|WIBL||1 Winston Blue (6mg) Pack|Yes|Yes||CT002735|CRICOROM TURISM SRL|Constanta|CTDTCBA59|162|CCC HRK MULTI Vara 2013|121|Retail|0
0|CS3558273|2013-08-11 16:02:37|Hrubaru|Adina||F|1980-07-27|Vrancea|FOCSANI|Lupeni|8|-|4|P|61|0772350015||Danhrubarul@yahoo.it|WIBL||1 Camel Blue (6 mg) Pack|Yes|Yes||CT002735|CRICOROM TURISM SRL|Constanta|CTDTCBA97|162|CCC HRK MULTI Vara 2013|121|Retail|0
0|CS3558279|2013-08-11 16:04:42|Duman|Florentina||F|1955-12-10|Constanta|Navodari|Principala|3|||||0784843707|||KTBL||1 Sobranie KS Black (8mg) Pack|Yes|Yes||CTR01165|Lascu-Bros|Constanta|CTDTCBA101|162|CCC HRK MULTI Vara 2013|121|Retail|0
0|CS3558281|2013-08-11 16:05:51|Bucur|Gheorghe||M|1986-01-01|Constanta|CONSTANTA|Bd 1 mai|33a|Pf8|A|||0763860780||Robualex_92@yahoo.com|KTBL6||1 Camel Blue (6 mg) Pack|Yes|Yes||CT002735|CRICOROM TURISM SRL|Constanta|CTDTCBA59|162|CCC HRK MULTI Vara 2013|121|Retail|0
0|CS3558285|2013-08-11 16:07:12|Duca|Mihai|1900311134205|M|1990-03-11|Constanta|CONSTANTA|Fragilor|4|P3|D|1|67|0728714270||Duca_mihai_06@yahoo.com|VOGLL||1 Sobranie SS Black (6mg) Pack|Yes|Yes||CT002735|CRICOROM TURISM SRL|Constanta|CTDTCBA97|162|CCC HRK MULTI Vara 2013|121|Retail|0
0|CS3558288|2013-08-11 16:10:11|Negoi|Daniela||F|1986-01-01|Constanta|Histria|Stanelor|10|||0|0|0769915101||Negoidaniela@yahoo.com|KTSWIT|KTSWIT|1 Winston Fresh XSpression (5mg) Pack|Yes|Yes||CTR01165|Lascu-Bros|Constanta|CTDTCBA98|162|CCC HRK MULTI Vara 2013|121|Retail|0
0|CS3558293|2013-08-11 16:13:26|Grigore|Alexandru|1900331420088|M|1990-03-31|Bucuresti|Sector 3|Cazangiilor|26a||3|||0727368983||Alexandru@evolutionservice.ro|KTBL||1 Camel Black (6 mg) Pack|Yes|Yes||CTR01165|Lascu-Bros|Constanta|CTDTCBA101|162|CCC HRK MULTI Vara 2013|121|Retail|0
0|CS3558298|2013-08-11 16:14:43|Eremia|Oana||F|1986-08-31|Bucuresti|SECTOR 6|Cetatuia|1|M21|1|6|39|0745159316||Oanna_eremia@yahoo.com|KTH|KTH|1 Winston 100s Blue (6mg) Pack|Yes|Yes||CTR01165|Lascu-Bros|Constanta|CTDTCBA98|162|CCC HRK MULTI Vara 2013|121|Retail|0
0|CS3558301|2013-08-11 16:16:53|Visinoia|Marcels||F|1976-05-26|Constanta|Constanta|Aleea heracleei|3|||||0755862930|||WIBL||1 Winston 100s Blue (6mg) Pack|Yes|Yes||CTR01165|Lascu-Bros|Constanta|CTDTCBA101|162|CCC HRK MULTI Vara 2013|121|Retail|0
0|CS3558304|2013-08-11 16:20:50|Neculceanu|Dorin||M|1979-11-25|Bucuresti|SECTOR 2|Aleea Piatra Mare|7|7|2|P|22|0730557384|||CAFI|CAFI|1 Camel Filters (10 mg) Pack|Yes|Yes||CTR01165|Lascu-Bros|Constanta|CTDTCBA98|162|CCC HRK MULTI Vara 2013|121|Retail|0
0|CS3558309|2013-08-11 16:23:02|Trica|Cici||F|1974-04-18|Bucuresti|SECTOR 2|Aleea Piatra Mare|7|7|2|P|22|0748489767|||VOGLL|PMSSBL|1 Winston SS Blue (5mg) Pack|Yes|Yes||CTR01165|Lascu-Bros|Constanta|CTDTCBA98|162|CCC HRK MULTI Vara 2013|121|Retail|0
0|CS3558312|2013-08-11 16:24:01|Florea|Florin||M|1995-05-24|Constanta|Cernavoda|9mai|3|||||0768822297||Herelon_floo@yahoo.com|PMECBK||1 Winston XStyle Blue (6mg) Pack|Yes|Yes||CTR01165|Lascu-Bros|Constanta|CTDTCBA101|162|CCC HRK MULTI Vara 2013|121|Retail|0
0|CS3558328|2013-08-11 16:31:19|Butuc|Alexandru|1870418090016|M|1987-04-18|Braila|Braila|Radu negru|4|41bis|1|4|20|0747506567||Best_dill2007@yahoo.com|SBKSBL||1 Sobranie KS Blue (6mg) Pack|Yes|Yes||CTR01165|Lascu-Bros|Constanta|CTDTCBA101|162|CCC HRK MULTI Vara 2013|121|Retail|0
0|FS1105111|2013-08-10 13:34:35||||F|||||||||||||KTBL||||||||||162|CCC HRK MULTI Vara 2013|121|Retail|0
0|FS1105130|2013-08-10 13:38:18||||M|||||||||||||DUNFCMBB||||||||||162|CCC HRK MULTI Vara 2013|121|Retail|0
0|FS1105255|2013-08-10 14:07:01||||F|||||||||||||VOGABP||||||||||162|CCC HRK MULTI Vara 2013|121|Retail|0
0|FS1105308|2013-08-10 14:15:52||||F|||||||||||||VIRSV||||||||||162|CCC HRK MULTI Vara 2013|121|Retail|0
0|FS1105319|2013-08-10 14:18:14||||M|||||||||||||DAVGL||||||||||162|CCC HRK MULTI Vara 2013|121|Retail|0
0|FS1105330|2013-08-10 14:19:12||||M|||||||||||||DUNFCSB||||||||||162|CCC HRK MULTI Vara 2013|121|Retail|0
0|FS1105327|2013-08-10 14:19:14||||M|||||||||||||DUNFCSB||||||||||162|CCC HRK MULTI Vara 2013|121|Retail|0
0|FS1105331|2013-08-10 14:19:27||||M|||||||||||||DUNFCSB||||||||||162|CCC HRK MULTI Vara 2013|121|Retail|0
0|FS1105333|2013-08-10 14:19:43||||M|||||||||||||DUNFCSB||||||||||162|CCC HRK MULTI Vara 2013|121|Retail|0
0|FS1105493|2013-08-10 14:54:19||||F|||||||||||||DUNFCMBB||||||||||162|CCC HRK MULTI Vara 2013|121|Retail|0
0|FS1105584|2013-08-10 15:22:54||||M|||||||||||||KTSV||||||||||162|CCC HRK MULTI Vara 2013|121|Retail|0
0|FS1105590|2013-08-10 15:35:10||||F|||||||||||||KTBL||||||||||162|CCC HRK MULTI Vara 2013|121|Retail|0
0|FS1105610|2013-08-10 15:46:36||||M|||||||||||||PMBL||||||||||162|CCC HRK MULTI Vara 2013|121|Retail|0
0|FS1105655|2013-08-10 16:11:04||||F|||||||||||||KTSV||||||||||162|CCC HRK MULTI Vara 2013|121|Retail|0
0|FS1105658|2013-08-10 16:12:24||||M|||||||||||||DUNFCBB||||||||||162|CCC HRK MULTI Vara 2013|121|Retail|0
0|FS1109481|2013-08-11 13:04:43||||M|||||||||||||MBRGLT||||||||||162|CCC HRK MULTI Vara 2013|121|Retail|0
0|FS1109491|2013-08-11 13:05:31|||||||||||||||||KTSWIT||||||||||162|CCC HRK MULTI Vara 2013|121|Retail|0
0|FS1109501|2013-08-11 13:07:25||||M|||||||||||||MBRGLT||||||||||162|CCC HRK MULTI Vara 2013|121|Retail|0
0|FS1109507|2013-08-11 13:08:17|||||||||||||||||VOGLL||||||||||162|CCC HRK MULTI Vara 2013|121|Retail|0
0|FS1109518|2013-08-11 13:12:09|||||||||||||||||KTBL||||||||||162|CCC HRK MULTI Vara 2013|121|Retail|0
0|FS1109521|2013-08-11 13:13:12||||F|||||||||||||KTSV||||||||||162|CCC HRK MULTI Vara 2013|121|Retail|0
0|FS1109522|2013-08-11 13:13:15|||||||||||||||||KTBL6||||||||||162|CCC HRK MULTI Vara 2013|121|Retail|0
0|FS1109545|2013-08-11 13:19:24|||||||||||||||||DUNFCBB||||||||||162|CCC HRK MULTI Vara 2013|121|Retail|0
0|FS1109594|2013-08-11 13:33:32|||||||||||||||||PARRSSH||||||||||162|CCC HRK MULTI Vara 2013|121|Retail|0
0|FS1109604|2013-08-11 13:36:23|||||||||||||||||WISV||||||||||162|CCC HRK MULTI Vara 2013|121|Retail|0
0|FS1109610|2013-08-11 13:38:51||||M|||||||||||||KTBL||||||||||162|CCC HRK MULTI Vara 2013|121|Retail|0
0|FS1109620|2013-08-11 13:41:02||||M|||||||||||||KTSV||||||||||162|CCC HRK MULTI Vara 2013|121|Retail|0
0|FS1109753|2013-08-11 14:35:31||||M|||||||||||||VOGJSN||||||||||162|CCC HRK MULTI Vara 2013|121|Retail|0
0|FS1109755|2013-08-11 14:36:57|||||||||||||||||DUNFCBB||||||||||162|CCC HRK MULTI Vara 2013|121|Retail|0
0|FS1109830|2013-08-11 15:24:01||||M|||||||||||||KTNBK||||||||||162|CCC HRK MULTI Vara 2013|121|Retail|0
0|FS1109834|2013-08-11 15:31:26||||M|||||||||||||KTBL||||||||||162|CCC HRK MULTI Vara 2013|121|Retail|0
0|FS1109835|2013-08-11 15:32:16||||M|||||||||||||MBRFPH||||||||||162|CCC HRK MULTI Vara 2013|121|Retail|0
0|FS1109848|2013-08-11 15:50:11|||||||||||||||||VIRSM||||||||||162|CCC HRK MULTI Vara 2013|121|Retail|0
