0|CS3624031|2013-09-21 00:44:07|DORILA|LAURA||F|1984-02-13|BUCURESTI|SECTOR 3|CAMPIA LIBERTATII|29|B6|3|1|84|0759017257||DORILA.LAURA@YAHOO.COM|KTSV||1 Sobranie KS Gold  (4mg) Pack|Yes|Yes||BW031636|TWINS CAFE SRL LOUNGE|Bucuresti|BWHRKBA80|153|CCC HRK SOBR FAM Fratelli 2013|121|Horeca|0
0|CS3624033|2013-09-21 00:44:34|COCOS|MARIUS FLORIN|1841119460010|M|1984-11-19|BUCURESTI|SECTOR 4|TATULESTI|5|100B|F|1|81|0722220057||COOCS_MARIUSFLORIN@YAHOO.COM|DAVGL||1 Sobranie KS Gold  (4mg) Pack|Yes|Yes||BW031636|TWINS CAFE SRL LOUNGE|Bucuresti|BWHRKBA111|153|CCC HRK SOBR FAM Fratelli 2013|121|Horeca|0
0|CS3624034|2013-09-21 00:45:22|DELCEA|DENISE||F|1989-03-04|TELEORMAN|ALEXANDRIA|CUZA VODA|4BIS|||0|0|0766790888||DLC_DENISE2COOL@YAHOO.COM|SBSSPK||0 Sobranie SS Pink (3mg) Pack|Yes|Yes||BW031636|TWINS CAFE SRL LOUNGE|Bucuresti|BWHRKBA38|153|CCC HRK SOBR FAM Fratelli 2013|121|Horeca|0
0|CS3624037|2013-09-21 00:46:52|IANCU|ADELINA||F|1988-06-02|BUCURESTI|SECTOR 6|TIMISOARA|51|||||0730004182||ADE_BURN@YAHOO.COM|KTBL||1 Sobranie KS Blue (6mg) Pack|Yes|Yes||BW031636|TWINS CAFE SRL LOUNGE|Bucuresti|BWHRKBA38|153|CCC HRK SOBR FAM Fratelli 2013|121|Horeca|0
0|CS3624038|2013-09-21 00:47:25|NEDELCU|CORNELIU|1831202430011|M|1983-12-02|BUCURESTI|SECTOR 3|MAGNETULUI|37|||||0754229999||CORNELIU.NEDELCU@GMAIL.COM|SBKSGD||0 Sobranie KS Gold  (4mg) Pack|Yes|Yes||BW031636|TWINS CAFE SRL LOUNGE|Bucuresti|BWHRKBA111|153|CCC HRK SOBR FAM Fratelli 2013|121|Horeca|0
0|CS3624041|2013-09-21 00:48:47|VASILE|ANDREEA||F|1987-09-12|BUCURESTI|SECTOR 3|STEFAN OCTAVIAN IOSIF|4|||||0768998208||ANDREEA.VASILE87@YAHOO.COM|KTNBK||1 Sobranie SS Black (6mg) Pack|Yes|Yes||BW031636|TWINS CAFE SRL LOUNGE|Bucuresti|BWHRKBA35|153|CCC HRK SOBR FAM Fratelli 2013|121|Horeca|0
0|CS3624043|2013-09-21 00:49:14|MANDRESCU|IONELA||F|1989-06-15|BUCURESTI|SECTOR 1|GARII DE NORD|2|||||0720033116||IONELA.MANDRESCU@GMAIL.COM|VIRSM||1 Sobranie SS Menthol (5 mg) Pack|Yes|Yes||BW031636|TWINS CAFE SRL LOUNGE|Bucuresti|BWHRKBA38|153|CCC HRK SOBR FAM Fratelli 2013|121|Horeca|0
0|CS3624044|2013-09-21 00:49:22|BARBU|CRISTIAN||M|1989-12-01|BUCURESTI|SECTOR 3|MIHAI BRAVU|303|18A|A|8|35|0766238088||CRISTIAN.CBARBU@YAHOO.COM|SBKSGD||0 Sobranie KS Gold  (4mg) Pack|Yes|Yes||BW031636|TWINS CAFE SRL LOUNGE|Bucuresti|BWHRKBA111|153|CCC HRK SOBR FAM Fratelli 2013|121|Horeca|0
0|CS3624045|2013-09-21 00:49:37|SALMEN|CRISTIAN||M|1987-11-09|GALATI|GALATI|BRAVILOR|49|||||0749113134||CRISTIAN.SALMEN@GMAIL.COM|DUNFCMBB||1 Sobranie KS Black (8mg) Pack|Yes|Yes||BW031636|TWINS CAFE SRL LOUNGE|Bucuresti|BWHRKBA80|153|CCC HRK SOBR FAM Fratelli 2013|121|Horeca|0
0|CS3624046|2013-09-21 00:51:56|NEGARA|BOGDAN||M|1972-01-18|VASLUI|VASLUI|MERCUR|2|V3|2|3|36|0721945558|||DUNFCSB||1 Sobranie KS Black (8mg) Pack|Yes|Yes||BW031636|TWINS CAFE SRL LOUNGE|Bucuresti|BWHRKBA80|153|CCC HRK SOBR FAM Fratelli 2013|121|Horeca|0
0|CS3624054|2013-09-21 00:54:11|PANAIT|MONICA||F|1985-09-17|BUCURESTI|SECTOR 6|CRANGASI|14|40|A|5|18|0743781417||PANAITRAMONA@YAHOO.COM|SBSSBK||0 Sobranie SS Black (6mg) Pack|Yes|Yes||BW031636|TWINS CAFE SRL LOUNGE|Bucuresti|BWHRKBA80|153|CCC HRK SOBR FAM Fratelli 2013|121|Horeca|0
0|CS3624055|2013-09-21 00:54:26|GRIGORE|ALEXANDRU||M|1990-03-31|BUCURESTI|SECTOR 3|CAZANGIILOR|26|||||0727368983||ALEXANDRU@EVOLUTIONSERVICE.RO|KTBL||1 Sobranie KS Gold  (4mg) Pack|Yes|Yes||BW031636|TWINS CAFE SRL LOUNGE|Bucuresti|BWHRKBA111|153|CCC HRK SOBR FAM Fratelli 2013|121|Horeca|0
0|CS3624056|2013-09-21 00:55:38|PROCOP|STEFAN||M|1988-07-14|BUCURESTI|SECTOR 2|ZAGORIT|3|||||0724626141||FLY_PROMOTIONS@YAHOO.COM|KTSWIT||1 Sobranie KS Blue (6mg) Pack|Yes|Yes||BW031636|TWINS CAFE SRL LOUNGE|Bucuresti|BWHRKBA38|153|CCC HRK SOBR FAM Fratelli 2013|121|Horeca|0
0|CS3624058|2013-09-21 00:57:08|CHIRITA|CRISTINA||F|1987-04-03|BUCURESTI|SECTOR 1|MOLDOVEI|86|86|1|3|14|0731027740||CRIS.CHIRITA@GMAIL.COM|SBSSWH||0 Sobranie SS White (1mg) Pack|Yes|Yes||BW031636|TWINS CAFE SRL LOUNGE|Bucuresti|BWHRKBA80|153|CCC HRK SOBR FAM Fratelli 2013|121|Horeca|0
0|CS3624062|2013-09-21 00:58:39|NICOLAE|DRAGOS||M|1986-02-19|BUCURESTI|SECTOR 3|COL. IOSIF ALBU|80|||||0723578995||FLY_PROMOTIONS@YAHOO.COM|KTBL||1 Sobranie KS Blue (6mg) Pack|Yes|Yes||BW031636|TWINS CAFE SRL LOUNGE|Bucuresti|BWHRKBA38|153|CCC HRK SOBR FAM Fratelli 2013|121|Horeca|0
0|CS3624065|2013-09-21 01:00:02|PUSCA|ADRIANA||F|1991-04-11|DOLJ|CRAIOVA|RAHOVA|2|||||0744256582||ADRIANAPUSCA20@YAHOO.COM|VIRSPR||1 Sobranie SS Black (6mg) Pack|Yes|Yes||BW031636|TWINS CAFE SRL LOUNGE|Bucuresti|BWHRKBA80|153|CCC HRK SOBR FAM Fratelli 2013|121|Horeca|0
0|CS3624067|2013-09-21 01:02:51|NEATU|ADRIAN||M|1985-02-05|BUCURESTI|SECTOR 5|CONTESTI|6|||||0768813997||NEATAADRIANVALENTIN@GMAIL.COM|SBKSGD||0 Sobranie KS Gold  (4mg) Pack|Yes|Yes||BW031636|TWINS CAFE SRL LOUNGE|Bucuresti|BWHRKBA38|153|CCC HRK SOBR FAM Fratelli 2013|121|Horeca|0
0|CS3624068|2013-09-21 01:03:19|VLADARAU|STEFANIA||F|1992-06-15|BUCURESTI|SECTOR 4|MOLDOVITA|15|7|B|4|28|0737348190||STEFANIA.VLADARAU@GMAIL.COM|VOGLL||1 Sobranie SS Pink (3mg) Pack|Yes|Yes||BW031636|TWINS CAFE SRL LOUNGE|Bucuresti|BWHRKBA80|153|CCC HRK SOBR FAM Fratelli 2013|121|Horeca|0
0|CS3624070|2013-09-21 01:04:16|MOSTENARU|DANIEL||M|1988-01-20|BUCURESTI|SECTOR 4|OLDOVEI|14|||||0758880954|||DUNFCMBB||1 Sobranie KS Black (8mg) Pack|Yes|Yes||BW031636|TWINS CAFE SRL LOUNGE|Bucuresti|BWHRKBA35|153|CCC HRK SOBR FAM Fratelli 2013|121|Horeca|0
0|CS3624071|2013-09-21 01:05:22|BALCU|RAZVAN||M|1985-07-09|BUCURESTI|SECTOR 1|ION CAMPINEANU|23|||||0725144410||RAZVAN_BALCU@YAHOO.COM|KTWH||1 Sobranie KS Gold  (4mg) Pack|Yes|Yes||BW031636|TWINS CAFE SRL LOUNGE|Bucuresti|BWHRKBA111|153|CCC HRK SOBR FAM Fratelli 2013|121|Horeca|0
0|CS3624073|2013-09-21 01:06:19|DESANTIS|ANDREI||M|1987-03-10|BUCURESTI|SECTOR 1|ROMA|1|||||0721387257||ANDREI_DSANTIS@YAHOO.COM|SBKSGD||0 Sobranie KS Gold  (4mg) Pack|Yes|Yes||BW031636|TWINS CAFE SRL LOUNGE|Bucuresti|BWHRKBA35|153|CCC HRK SOBR FAM Fratelli 2013|121|Horeca|0
0|CS3624074|2013-09-21 01:06:22|VADIM|KATZNELSON||M|1986-08-02|BUCURESTI|SECTOR 3|ALEXANDRU VLAHUTA|3|||||0745338565||VADIM.BENKATZ@GMAIL.COM|MBRGL||1 Sobranie KS Blue (6mg) Pack|Yes|Yes||BW031636|TWINS CAFE SRL LOUNGE|Bucuresti|BWHRKBA80|153|CCC HRK SOBR FAM Fratelli 2013|121|Horeca|0
0|CS3624075|2013-09-21 01:07:09|MIRICA|CARMEN||F|1988-03-20|BUCURESTI|SECTOR 6|FRATILOR|1|||||0728978274||CARMEN.MIRICA2003@YAHOO.COM|SBSSMN||0 Sobranie SS Menthol (5 mg) Pack|Yes|Yes||BW031636|TWINS CAFE SRL LOUNGE|Bucuresti|BWHRKBA38|153|CCC HRK SOBR FAM Fratelli 2013|121|Horeca|0
0|CS3624079|2013-09-21 01:09:23|PASLARU|CAMELIA||F|1989-10-14|BUCURESTI|SECTOR 3|FOISORULUI|15|F9C|2|4|151|0727036060||P.CAMELIA@ROCKETMAIL.COM|SBKSGD||0 Sobranie KS Gold  (4mg) Pack|Yes|Yes||BW031636|TWINS CAFE SRL LOUNGE|Bucuresti|BWHRKBA111|153|CCC HRK SOBR FAM Fratelli 2013|121|Horeca|0
0|CS3624080|2013-09-21 01:10:05|CRAITEANU|ANDRADA||F|1987-11-07|BUCURESTI|SECTOR 2|MATEI VOIEVOD|115-12|O2|B|7|82|0735662829||ANDRADA4UK_4K@YAHOO.COM|VOGLL||1 Sobranie SS White (1mg) Pack|Yes|Yes||BW031636|TWINS CAFE SRL LOUNGE|Bucuresti|BWHRKBA80|153|CCC HRK SOBR FAM Fratelli 2013|121|Horeca|0
0|CS3624081|2013-09-21 01:10:50|TIRZA|OVIDIUU||M|1987-09-26|BUCURESTI|SECTOR 6|ION MANOLESCU|6|||||0721936261||OVIDIU.TIRZA@GMAIL.COM|SBKSBL||0 Sobranie KS Blue (6mg) Pack|Yes|Yes||BW031636|TWINS CAFE SRL LOUNGE|Bucuresti|BWHRKBA38|153|CCC HRK SOBR FAM Fratelli 2013|121|Horeca|0
0|CS3624084|2013-09-21 01:12:19|ANGHELESCU|ANA-MARIA||F|1990-01-18|BUCURESTI|SECTOR 3|MIHAI BRAVU|386|B2A|1|||0728260849||ANNAMARIA.ANGHELESCU@GMAIL.COM|SBKSBK|DAVCL|0 Sobranie KS Black (8mg) Pack|Yes|Yes||BW031636|TWINS CAFE SRL LOUNGE|Bucuresti|BWHRKBA111|153|CCC HRK SOBR FAM Fratelli 2013|121|Horeca|0
0|CS3624085|2013-09-21 01:13:00|LUNGU|MARIUS||M|1975-01-30|BUCURESTI|SECTOR 1|FAUREI|1|P11|1|1|30|0747014022||EMAILDANI30@YAHOO.COM|KTSV||1 Sobranie KS Gold  (4mg) Pack|Yes|Yes||BW031636|TWINS CAFE SRL LOUNGE|Bucuresti|BWHRKBA80|153|CCC HRK SOBR FAM Fratelli 2013|121|Horeca|0
0|CS3624089|2013-09-21 01:15:03|POPA|CARMEN||F|1983-08-14|BUCURESTI|SECTOR 1|DINICU GOLESCU|31||A|4|83|0723511217||FLORENTA.POPA@GMAIL.COM|SBKSBK|KTBL|0 Sobranie KS Black (8mg) Pack|Yes|Yes||BW031636|TWINS CAFE SRL LOUNGE|Bucuresti|BWHRKBA111|153|CCC HRK SOBR FAM Fratelli 2013|121|Horeca|0
0|CS3624090|2013-09-21 01:15:30|MIHALACHE|ALEXANDRA||F|1983-07-12|BUCURESTI|SECTOR 4|VISANA|3|44|B|2|63|0757747473||DENISIA_DENI@YAHOO.COM|SBSSPK||0 Sobranie SS Pink (3mg) Pack|Yes|Yes||BW031636|TWINS CAFE SRL LOUNGE|Bucuresti|BWHRKBA80|153|CCC HRK SOBR FAM Fratelli 2013|121|Horeca|0
0|CS3624094|2013-09-21 01:16:19|OLSAVSZKY|VICTOR||M|1988-07-31|BUCURESTI|SECTOR 4|OLTENITEI|73|||||0726570745||OLSAVSZKY@GMAIL.COM|KTSV||1 Sobranie KS Gold  (4mg) Pack|Yes|Yes||BW031636|TWINS CAFE SRL LOUNGE|Bucuresti|BWHRKBA35|153|CCC HRK SOBR FAM Fratelli 2013|121|Horeca|0
0|CS3624096|2013-09-21 01:16:59|CHESLER|LUIZA||F|1979-06-12|BUCURESTI|SECTOR 6|VINTILAMIHAILESCU|16|||||0748030391||LUIZAKE@YAHOO.COM|MBRBI||1 Sobranie SS Menthol (5 mg) Pack|Yes|Yes||BW031636|TWINS CAFE SRL LOUNGE|Bucuresti|BWHRKBA38|153|CCC HRK SOBR FAM Fratelli 2013|121|Horeca|0
0|CS3624097|2013-09-21 01:17:28|VARDIE|ORIANA||F|1990-03-24|BUCURESTI|SECTOR 5|DOCTOR LISTER|86|||||0765535022||ORIANA.VARDIE@YAHOO.COM|SBSSPK||0 Sobranie SS Pink (3mg) Pack|Yes|Yes||BW031636|TWINS CAFE SRL LOUNGE|Bucuresti|BWHRKBA111|153|CCC HRK SOBR FAM Fratelli 2013|121|Horeca|0
0|CS3624098|2013-09-21 01:18:36|SEREA|MARINELA||F|1984-08-02|BUCURESTI|SECTOR 2|CERNAUTI|46|||||0730121122||MARINELA.SEREA@BAMBOOCLUB.RO|DUNFCMBB||1 Sobranie KS Blue (6mg) Pack|Yes|Yes||BW031636|TWINS CAFE SRL LOUNGE|Bucuresti|BWHRKBA80|153|CCC HRK SOBR FAM Fratelli 2013|121|Horeca|0
0|CS3624100|2013-09-21 01:20:12|IBANESCU|IULIA||F|1970-05-24|BUCURESTI|SECTOR 3|BARAJUL LOTRU|4|||||0724579345||IULIAIBANESCU@YAHOO.COM|SBSSWH||0 Sobranie SS White (1mg) Pack|Yes|Yes||BW031636|TWINS CAFE SRL LOUNGE|Bucuresti|BWHRKBA38|153|CCC HRK SOBR FAM Fratelli 2013|121|Horeca|0
0|CS3624101|2013-09-21 01:21:06|PROTOPOPESCU|CRISTINA|2820419420017|F|1982-04-19|BUCURESTI|SECTOR 6|DRUMUL TABEREI|64|F4|5|P|78|0722231656||CRISTINAPROTO@YAHOO.COM|SBSSPK||0 Sobranie SS Pink (3mg) Pack|Yes|Yes||BW031636|TWINS CAFE SRL LOUNGE|Bucuresti|BWHRKBA111|153|CCC HRK SOBR FAM Fratelli 2013|121|Horeca|0
0|CS3624105|2013-09-21 01:23:55|SAFER|PATRICIA||F|1986-06-15|BUCURESTI|SECTOR 2|CAROL I|52|||||0721232764||PATRICIA_SAFER@YAHOO.COM|SBSSWH||0 Sobranie SS White (1mg) Pack|Yes|Yes||BW031636|TWINS CAFE SRL LOUNGE|Bucuresti|BWHRKBA80|153|CCC HRK SOBR FAM Fratelli 2013|121|Horeca|0
0|CS3624106|2013-09-21 01:23:58|PATULEA|SANDRA||F|1979-02-22|BUCURESTI|SECTOR 6|VALEA OLTULUI|6|A4|F|1|79|0723168549||SANDRA.MEREALBE@YAHOO.COM|SBKSGD||0 Sobranie KS Gold  (4mg) Pack|Yes|Yes||BW031636|TWINS CAFE SRL LOUNGE|Bucuresti|BWHRKBA111|153|CCC HRK SOBR FAM Fratelli 2013|121|Horeca|0
0|CS3624108|2013-09-21 01:25:51|DOBRESCU|MADALINA||F|1989-11-11|BUCURESTI|SECTOR 5|CALEA FERENTARI|4A|||||0727066204||MADALINA1DOBRESCU@GMAIL.COM|SBSSPK||0 Sobranie SS Pink (3mg) Pack|Yes|Yes||BW031636|TWINS CAFE SRL LOUNGE|Bucuresti|BWHRKBA35|153|CCC HRK SOBR FAM Fratelli 2013|121|Horeca|0
0|CS3624109|2013-09-21 01:26:48|TRUICA|ADRIANA||F|1991-04-16|OLT|SLATINA|NICOLAE TITULESCU|5|5|A|4|16|0723307075||CARLATRUICA@YAHOO.COM|SBKSGD||0 Sobranie KS Gold  (4mg) Pack|Yes|Yes||BW031636|TWINS CAFE SRL LOUNGE|Bucuresti|BWHRKBA80|153|CCC HRK SOBR FAM Fratelli 2013|121|Horeca|0
0|CS3624111|2013-09-21 01:27:45|VEISA|MADALINA||F|1982-09-20|ILFOV|MOGOSOAIA|LIVEZILOR|28A|||||0747281882||MADALINAVEISA@YAHOO.COM|SBSSWH||0 Sobranie SS White (1mg) Pack|Yes|Yes||BW031636|TWINS CAFE SRL LOUNGE|Bucuresti|BWHRKBA38|153|CCC HRK SOBR FAM Fratelli 2013|121|Horeca|0
0|CS3624113|2013-09-21 01:28:52|KIMELMAN|LAURA||F|1987-02-28|BUCURESTI|SECTOR 5|CALEA FERENTARI|4A|117A||8|50|0768401493||NAOMY_LAURA@YAHOO.COM|KTNBK||1 Sobranie SS Pink (3mg) Pack|Yes|Yes||BW031636|TWINS CAFE SRL LOUNGE|Bucuresti|BWHRKBA35|153|CCC HRK SOBR FAM Fratelli 2013|121|Horeca|0
0|CS3624114|2013-09-21 01:29:08|CIORAN|ELENA|2810813303312|F|1981-08-13|BUCURESTI|SECTOR 5|UNIRII|1|1A|1|8|29|0742056510||ELENA_CIORAN@YAHOO.COM|SBSSPK|VOGLL|0 Sobranie SS Pink (3mg) Pack|Yes|Yes||BW031636|TWINS CAFE SRL LOUNGE|Bucuresti|BWHRKBA111|153|CCC HRK SOBR FAM Fratelli 2013|121|Horeca|0
0|CS3624118|2013-09-21 01:30:22|CALOTA|MARIUS||M|1984-03-01|BRASOV|BRASOV|TUFANELELOR|19|||||0725824568||CALOTA.MARIUS@YAHOO.COM|DUNFCSB||1 Sobranie KS Black (8mg) Pack|Yes|Yes||BW031636|TWINS CAFE SRL LOUNGE|Bucuresti|BWHRKBA80|153|CCC HRK SOBR FAM Fratelli 2013|121|Horeca|0
0|CS3624119|2013-09-21 01:30:43|CURTEANU|MONICA||F|1986-10-26|BUCURESTI|SECTOR 2|SOS MIHAI BRAVU|88A|||||0724834386||MONICA.CURTEANU@YAHOO.COM|SBSSWH||0 Sobranie SS White (1mg) Pack|Yes|Yes||BW031636|TWINS CAFE SRL LOUNGE|Bucuresti|BWHRKBA38|153|CCC HRK SOBR FAM Fratelli 2013|121|Horeca|0
0|CS3624120|2013-09-21 01:32:02|BOTOGAN|ALINA||F|1978-05-24|BUCURESTI|SECTOR 2|MIHAI BRAVU|88A|P7A|1||9|0726155787||ALNABOTOGAN@YAHOO.COM|SBSSWH||0 Sobranie SS White (1mg) Pack|Yes|Yes||BW031636|TWINS CAFE SRL LOUNGE|Bucuresti|BWHRKBA35|153|CCC HRK SOBR FAM Fratelli 2013|121|Horeca|0
0|CS3624123|2013-09-21 01:33:37|CRISTEA|EUGEN||M|1979-12-12|BUCURESTI|SECTOR 1|PLOPENI|2|||||0730633699|||VOGLL||1 Sobranie SS Pink (3mg) Pack|Yes|Yes||BW031636|TWINS CAFE SRL LOUNGE|Bucuresti|BWHRKBA80|153|CCC HRK SOBR FAM Fratelli 2013|121|Horeca|0
0|CS3624124|2013-09-21 01:33:55|TERCIU|MIHAI||M|1988-07-04|BUCURESTI|SECTOR 3|STEFAN CEL MARE|128|||||0723478092||MIHAITERCIU@YAHOO.COM|DUNFCSB||1 Sobranie KS Black (8mg) Pack|Yes|Yes||BW031636|TWINS CAFE SRL LOUNGE|Bucuresti|BWHRKBA38|153|CCC HRK SOBR FAM Fratelli 2013|121|Horeca|0
0|CS3624125|2013-09-21 01:34:49|BOTOGAN|VIVI||M|1981-06-20|BUCURESTI|SECTOR 2|MIHAI BRAVU|88|A7P|1|2|9|0720425557||VIVI.BOTOGAN@YAHOO.COM|SBKSBL||0 Sobranie KS Blue (6mg) Pack|Yes|Yes||BW031636|TWINS CAFE SRL LOUNGE|Bucuresti|BWHRKBA35|153|CCC HRK SOBR FAM Fratelli 2013|121|Horeca|0
0|CS3624126|2013-09-21 01:37:15|LUNGEANU|ANDREI||M|1986-05-05|BUCURESTI|SECTOR 2|LACUL TEI|74|||||0731780431||LUNGEANUANDREI@YAHOO.COM|DUNFCSB||1 Sobranie KS Black (8mg) Pack|Yes|Yes||BW031636|TWINS CAFE SRL LOUNGE|Bucuresti|BWHRKBA38|153|CCC HRK SOBR FAM Fratelli 2013|121|Horeca|0
0|CS3624127|2013-09-21 01:38:03|TURCU|ADI||M|1981-07-12|BUCURESTI|SECTOR 3|DRISTORULUI|78||A|P|3|0732544665||TURCUADI@YAHOO.COM|KTBL||1 Sobranie KS Black (8mg) Pack|Yes|Yes||BW031636|TWINS CAFE SRL LOUNGE|Bucuresti|BWHRKBA35|153|CCC HRK SOBR FAM Fratelli 2013|121|Horeca|0
0|CS3625560|2013-09-22 00:33:19|TARCAVU|RODICA||F|1976-12-01|BUCURESTI|SECTOR 1|BARAJUL ARGESULUI|41||B||3|0721240357||RODITZ@YAHOO.COM|SBSSWH||0 Sobranie SS White (1mg) Pack|Yes|Yes||BW031636|TWINS CAFE SRL LOUNGE|Bucuresti|BWHRKBA111|153|CCC HRK SOBR FAM Fratelli 2013|121|Horeca|0
0|CS3625561|2013-09-22 00:33:33|PINTEA|ANA MARIA||F|1985-09-19|BUCURESTI|SECTOR 3|VLAHITA|1|PM18B|3|7|177|0724763068||CAPSHUNIK_SCUMPIK@YAHOO.COM|SBSSBK||0 Sobranie SS Black (6mg) Pack|Yes|Yes||BW031636|TWINS CAFE SRL LOUNGE|Bucuresti|BWHRKBA80|153|CCC HRK SOBR FAM Fratelli 2013|121|Horeca|0
0|CS3625562|2013-09-22 00:34:23|ALMASAN|SILVIU||M|1980-03-18|BUCURESTI|SECTOR 3|DRISTORULUI|5|||||0722389345||SILVIU.ALMASAN@YAHOO.COM|SBKSGD||0 Sobranie KS Gold  (4mg) Pack|Yes|Yes||BW031636|TWINS CAFE SRL LOUNGE|Bucuresti|BWHRKBA38|153|CCC HRK SOBR FAM Fratelli 2013|121|Horeca|0
0|CS3625564|2013-09-22 00:34:27|TUFISI|MIHAELA||F|1978-12-26|BUCURESTI|SECTOR 1|SOMESUL RECE|29|||||0724390393||MIHAELATUFISI@YAHOO.COM|SBSSMN||0 Sobranie SS Menthol (5 mg) Pack|Yes|Yes||BW031636|TWINS CAFE SRL LOUNGE|Bucuresti|BWHRKBA35|153|CCC HRK SOBR FAM Fratelli 2013|121|Horeca|0
0|CS3625569|2013-09-22 00:35:58|GURAN|ANDRA||F|1980-03-10|BUCURESTI|SECTOR 4|CALEA VACARESTI|342|||0|0|0724303290||ANDRA.GURAN@YAHOO.COM|KTSV||1 Sobranie KS Gold  (4mg) Pack|Yes|Yes||BW031636|TWINS CAFE SRL LOUNGE|Bucuresti|BWHRKBA111|153|CCC HRK SOBR FAM Fratelli 2013|121|Horeca|0
0|CS3625571|2013-09-22 00:36:36|CRISTU|SMARANDA||F|1983-07-28|BUCURESTI|SECTOR 2|DELENI|6|||||0745900666||SMARANDA.CRISTU@YAHOO.COM|SBKSGD||0 Sobranie KS Gold  (4mg) Pack|Yes|Yes||BW031636|TWINS CAFE SRL LOUNGE|Bucuresti|BWHRKBA38|153|CCC HRK SOBR FAM Fratelli 2013|121|Horeca|0
0|CS3625572|2013-09-22 00:37:05|TUDOR|LAURA||F|1983-09-12|BUCURESTI|SECTOR 1|TURDA|182|||||0721347556||ARUAL_TUDOR83@YAHOO.COM|VIRSM||1 Sobranie SS Menthol (5 mg) Pack|Yes|Yes||BW031636|TWINS CAFE SRL LOUNGE|Bucuresti|BWHRKBA35|153|CCC HRK SOBR FAM Fratelli 2013|121|Horeca|0
0|CS3625573|2013-09-22 00:37:29|DIACONITA|MADALINA||F|1992-05-07|BACAU|RACACIUNI|MIHAI EMINESCU|643|||||0740011498||MADALINA.DIACONUTA@GMAIL.COM|KTSV||1 Sobranie SS White (1mg) Pack|Yes|Yes||BW031636|TWINS CAFE SRL LOUNGE|Bucuresti|BWHRKBA80|153|CCC HRK SOBR FAM Fratelli 2013|121|Horeca|0
0|CS3625576|2013-09-22 00:38:58|NEDELCU|CRISTINA||F|1974-05-16|BUCURESTI|SECTOR 4|CONSTANTIN RADULESCU MOTRU|6|35|A|2|7|0722171059||CRISTINA.NEDELCU@YAHOO.COM|SBSSWH|MBRFPEX|0 Sobranie SS White (1mg) Pack|Yes|Yes||BW031636|TWINS CAFE SRL LOUNGE|Bucuresti|BWHRKBA111|153|CCC HRK SOBR FAM Fratelli 2013|121|Horeca|0
0|CS3625577|2013-09-22 00:39:12|TEPELUS|ROXANA MARIA||F|1987-04-01|BUCURESTI|SECTOR 6|BD TIMISOARA|77|||||0732386659||ROXANATEPELUS@YAHOO.COM|SBSSPK||0 Sobranie SS Pink (3mg) Pack|Yes|Yes||BW031636|TWINS CAFE SRL LOUNGE|Bucuresti|BWHRKBA38|153|CCC HRK SOBR FAM Fratelli 2013|121|Horeca|0
0|CS3625578|2013-09-22 00:39:17|NICHITUS|ANDREI||M|1980-10-08|BUCURESTI|SECTOR 1|JIULUI|77|||0|0|0722907553||ANDREINICHITUS@YAHOO.COM|SBSSWH||0 Sobranie SS White (1mg) Pack|Yes|Yes||BW031636|TWINS CAFE SRL LOUNGE|Bucuresti|BWHRKBA80|153|CCC HRK SOBR FAM Fratelli 2013|121|Horeca|0
0|CS3625581|2013-09-22 00:41:32|BALANOIU|ADRIAN||M|1981-04-28|BUCURESTI|SECTOR 2|ENACHE SANDU|72|||||0725211252||ADRIAN.BALANOIU@YAHOO.COM|SBKSBK||0 Sobranie KS Black (8mg) Pack|Yes|Yes||BW031636|TWINS CAFE SRL LOUNGE|Bucuresti|BWHRKBA38|153|CCC HRK SOBR FAM Fratelli 2013|121|Horeca|0
0|CS3625582|2013-09-22 00:42:07|FATHI|CLAUDIA||F|1976-12-14|BUCURESTI|SECTOR 1|ARON COTRUS|55||||44|0737755355||CLAIVN@YAHOO.COM|SBSSWH||0 Sobranie SS White (1mg) Pack|Yes|Yes||BW031636|TWINS CAFE SRL LOUNGE|Bucuresti|BWHRKBA111|153|CCC HRK SOBR FAM Fratelli 2013|121|Horeca|0
0|CS3625586|2013-09-22 00:43:16|IACOBICI|NICOLETA||F|1983-01-23|CONSTANTA|CONSTANTA|STEJARULUI|10|M5|A|2|11|0761433323||NIKONICOLL@YAHOO.COM|SBSSPK||0 Sobranie SS Pink (3mg) Pack|Yes|Yes||BW031636|TWINS CAFE SRL LOUNGE|Bucuresti|BWHRKBA35|153|CCC HRK SOBR FAM Fratelli 2013|121|Horeca|0
0|CS3625588|2013-09-22 00:43:47|IACOB|MAIA||F|1991-04-28|BUCURESTI|SECTOR 6|HAIDUCULUI|6|6|1|1|8|0720314834||IACOB.LUCIANA@YAHOO.COM|DUNFCBB||1 Sobranie KS Gold  (4mg) Pack|Yes|Yes||BW031636|TWINS CAFE SRL LOUNGE|Bucuresti|BWHRKBA80|153|CCC HRK SOBR FAM Fratelli 2013|121|Horeca|0
0|CS3625589|2013-09-22 00:43:52|DRAGNE|ALINW||F|1989-04-27|TELEORMAN|ALEXANDRIA|DUNARII|119|||||0761908564||ALINA.DRAGNE@YAHOO.COM|VIRSV||1 Sobranie SS Pink (3mg) Pack|Yes|Yes||BW031636|TWINS CAFE SRL LOUNGE|Bucuresti|BWHRKBA38|153|CCC HRK SOBR FAM Fratelli 2013|121|Horeca|0
0|CS3625595|2013-09-22 00:46:38|STOIAN|VALENTINA||F|1983-10-27|CONSTANTA|CONSTANTA|DOBRILA EUGEN|17|V4|D|4|77|0721177027||VALISOR83@YAHOO.COM|GLMMNT||1 Sobranie SS Menthol (5 mg) Pack|Yes|Yes||BW031636|TWINS CAFE SRL LOUNGE|Bucuresti|BWHRKBA35|153|CCC HRK SOBR FAM Fratelli 2013|121|Horeca|0
0|CS3625597|2013-09-22 00:47:39|CUICAN|IULIA||F|1992-07-28|BUCURESTI|SECTOR 3|GHEORGHE PETRASCU|2|B|3|3|15|0785199333||IULIECU00@YAHOO.COM|SBKSBL||0 Sobranie KS Blue (6mg) Pack|Yes|Yes||BW031636|TWINS CAFE SRL LOUNGE|Bucuresti|BWHRKBA111|153|CCC HRK SOBR FAM Fratelli 2013|121|Horeca|0
0|CS3625600|2013-09-22 00:48:29|POPESCU|CARINA||F|1989-04-23|BUCURESTI|SECTOR 1|ELENA CLUCEREASA|41|||||0721548168||CARINAPOPESCU23@YAHOO.COM|SBKSGD|DUNFCBB|0 Sobranie KS Gold  (4mg) Pack|Yes|Yes||BW031636|TWINS CAFE SRL LOUNGE|Bucuresti|BWHRKBA38|153|CCC HRK SOBR FAM Fratelli 2013|121|Horeca|0
0|CS3625604|2013-09-22 00:49:37|OLARU|MIHAI||M|1986-06-18|ARGES|PITESTI|DOBROGEANU GHEREA|21|||||0729017588||MIHAI.OLARU86@YAHOO.COM|DUNFCMBB||1 Sobranie KS Blue (6mg) Pack|Yes|Yes||BW031636|TWINS CAFE SRL LOUNGE|Bucuresti|BWHRKBA80|153|CCC HRK SOBR FAM Fratelli 2013|121|Horeca|0
0|CS3625608|2013-09-22 00:51:39|DUMITRESCU|LAURENTIU||M|1988-10-02|BUCURESTI|SECTOR 3|VULCAN JUDETU|31|B3A|2|4|82|0726201308||DUMITRESCU_LAURENTIU05@YAHOO.COM|DUNFCBB||1 Sobranie KS Gold  (4mg) Pack|Yes|Yes||BW031636|TWINS CAFE SRL LOUNGE|Bucuresti|BWHRKBA80|153|CCC HRK SOBR FAM Fratelli 2013|121|Horeca|0
0|CS3625610|2013-09-22 00:51:54|NICULESCU|MIHAELA||F|1989-03-13|BUCURESTI|SECTOR 1|BANU MANTA|18|||||0723581063||NICULESCUMIHAELA13@YAHOO.COM|SBKSGD||0 Sobranie KS Gold  (4mg) Pack|Yes|Yes||BW031636|TWINS CAFE SRL LOUNGE|Bucuresti|BWHRKBA38|153|CCC HRK SOBR FAM Fratelli 2013|121|Horeca|0
0|CS3625614|2013-09-22 00:54:00|MIHUTESCU|ANDREEA||F|1990-02-15|BUCURESTI|SECTOR 2|TUDOR GEORGE BOGDAN|4|20B1||8|40|0749628040||ANDREEA.MIHUTESCU@YAHOO.COM|MBRFP||1 Sobranie KS Gold  (4mg) Pack|Yes|Yes||BW031636|TWINS CAFE SRL LOUNGE|Bucuresti|BWHRKBA111|153|CCC HRK SOBR FAM Fratelli 2013|121|Horeca|0
0|CS3625619|2013-09-22 00:55:41|MOISESCU|ALINA||F|1984-02-17|BUCURESTI|SECTOR 3|LIVIU REBREANU|9A|||||0744769611|||KTNBK||1 Sobranie SS Pink (3mg) Pack|Yes|Yes||BW031636|TWINS CAFE SRL LOUNGE|Bucuresti|BWHRKBA80|153|CCC HRK SOBR FAM Fratelli 2013|121|Horeca|0
0|CS3625626|2013-09-22 00:58:17|TURCU|PAULA||F|1986-06-28|BUCURESTI|SECTOR 1|VERDI|12|||||0740650169||PAULA.TURCU@YAHOO.COM|SBKSGD||0 Sobranie KS Gold  (4mg) Pack|Yes|Yes||BW031636|TWINS CAFE SRL LOUNGE|Bucuresti|BWHRKBA38|153|CCC HRK SOBR FAM Fratelli 2013|121|Horeca|0
0|CS3625629|2013-09-22 00:58:48|NINE|DANA||F|1990-03-24|BUCURESTI|SECTOR 3|GH.TATARESCU|8|||||0726795408||DANNA_IT@YAHOO.COM|DUNFCMBB||1 Sobranie KS Blue (6mg) Pack|Yes|Yes||BW031636|TWINS CAFE SRL LOUNGE|Bucuresti|BWHRKBA35|153|CCC HRK SOBR FAM Fratelli 2013|121|Horeca|0
0|CS3625630|2013-09-22 00:58:59|COCOS|MARIUS FLORIN|1841119460010|M|1984-11-19|BUCURESTI|SECTOR 4|TATULESTI|5|100B|F|1|81|0722220057||COOCS_MARIUSFLORIN@YAHOO.COM|DAVGL||1 Sobranie KS Gold  (4mg) Pack|Yes|Yes||BW031636|TWINS CAFE SRL LOUNGE|Bucuresti|BWHRKBA80|153|CCC HRK SOBR FAM Fratelli 2013|121|Horeca|0
0|CS3625632|2013-09-22 00:59:29|NEDELCU|VALENTIN||M|1987-02-26|BUCURESTI|SECTOR 3|ALEXANDRU VLAHUTA|1|||0|0|0740169000||VALINEDELCU26@GMAIL.COM|SBSSPK||0 Sobranie SS Pink (3mg) Pack|Yes|Yes||BW031636|TWINS CAFE SRL LOUNGE|Bucuresti|BWHRKBA111|153|CCC HRK SOBR FAM Fratelli 2013|121|Horeca|0
0|CS3625637|2013-09-22 01:01:10|CIOCAN|IONUT||M|1979-01-03|BUCURESTI|SECTOR 2|GHICA TEI|14|||||0720589321||IONUTCIOCAN@YMAIL.COM|MBRGLH||1 Sobranie KS Blue (6mg) Pack|Yes|Yes||BW031636|TWINS CAFE SRL LOUNGE|Bucuresti|BWHRKBA38|153|CCC HRK SOBR FAM Fratelli 2013|121|Horeca|0
0|CS3625640|2013-09-22 01:02:17|NAE|ADRIANA||F|1974-01-02|ILFOV|CORBEANCA|PARADISUL VERDE|11|||||0722621041||ADI_HYS@YAHOO.COM|VIRSM||1 Sobranie SS Menthol (5 mg) Pack|Yes|Yes||BW031636|TWINS CAFE SRL LOUNGE|Bucuresti|BWHRKBA80|153|CCC HRK SOBR FAM Fratelli 2013|121|Horeca|0
0|CS3625648|2013-09-22 01:05:16|VALIMAREANU|VALENTIN IONUT||M|1981-06-30|BUCURESTI|SECTOR 3|CAMIL RESSU|64|||||0724221484||VALIMAREANUIONUT@GMAIL.COM|KTBL||1 Sobranie KS Blue (6mg) Pack|Yes|Yes||BW031636|TWINS CAFE SRL LOUNGE|Bucuresti|BWHRKBA38|153|CCC HRK SOBR FAM Fratelli 2013|121|Horeca|0
0|CS3625652|2013-09-22 01:06:07|CRISTEA|SILVIU||M|1990-01-18|BUCURESTI|SECTOR 5|NOVACI|6|P78A|1|3|12|0720537213||SILVIU.CRISTEA90@GMAIL.COM|SBKSBL|KTBL|0 Sobranie KS Blue (6mg) Pack|Yes|Yes||BW031636|TWINS CAFE SRL LOUNGE|Bucuresti|BWHRKBA111|153|CCC HRK SOBR FAM Fratelli 2013|121|Horeca|0
0|CS3625654|2013-09-22 01:06:17|CRISTINOIU|ARMAND||M|1985-07-17|BUCURESTI|SECTOR 3|THEODOR PALLADY|21|||||0727070007|||SBKSGD||0 Sobranie KS Gold  (4mg) Pack|Yes|Yes||BW031636|TWINS CAFE SRL LOUNGE|Bucuresti|BWHRKBA35|153|CCC HRK SOBR FAM Fratelli 2013|121|Horeca|0
0|CS3625655|2013-09-22 01:07:01|DIAMANDESCU|ANDREEA||F|1971-12-19|BUCURESTI|SECTOR 1|CORALILOR|69B|||||0722208777||UTZA@YAHOO.COM|SBSSBK||0 Sobranie SS Black (6mg) Pack|Yes|Yes||BW031636|TWINS CAFE SRL LOUNGE|Bucuresti|BWHRKBA80|153|CCC HRK SOBR FAM Fratelli 2013|121|Horeca|0
0|CS3625661|2013-09-22 01:10:13|NANAU|ANCA||F|1979-09-17|BUCURESTI|SECTOR 2|VIITORULUI|5|||||0728708431||PALASANANCA@YAHOO.COM|SBSSWH||0 Sobranie SS White (1mg) Pack|Yes|Yes||BW031636|TWINS CAFE SRL LOUNGE|Bucuresti|BWHRKBA80|153|CCC HRK SOBR FAM Fratelli 2013|121|Horeca|0
0|CS3625664|2013-09-22 01:10:36|MANțU|DAN||M|1984-03-13|BUCURESTI|SECTOR 2|FAINARI|26|||||0733331333||DANMANTU@YAHOO.COM|KTSV||1 Sobranie KS Gold  (4mg) Pack|Yes|Yes||BW031636|TWINS CAFE SRL LOUNGE|Bucuresti|BWHRKBA35|153|CCC HRK SOBR FAM Fratelli 2013|121|Horeca|0
0|CS3625666|2013-09-22 01:10:43|STAN|COSMINA||F|1989-08-12|BUCURESTI|SECTOR 1|SOS NORDULUI|293|||||0751293013||STAN.COSMINA@YAHOO.COM|SBSSWH||0 Sobranie SS White (1mg) Pack|Yes|Yes||BW031636|TWINS CAFE SRL LOUNGE|Bucuresti|BWHRKBA38|153|CCC HRK SOBR FAM Fratelli 2013|121|Horeca|0
0|CS3625667|2013-09-22 01:11:01|NAZAT|IRINA||F|1991-07-12|BUCURESTI|SECTOR 4|EPISCOP CHESARIE|15|B||2|21|0758653652||NAZATINA@YAHOO.COM|SBSSWH||0 Sobranie SS White (1mg) Pack|Yes|Yes||BW031636|TWINS CAFE SRL LOUNGE|Bucuresti|BWHRKBA111|153|CCC HRK SOBR FAM Fratelli 2013|121|Horeca|0
0|CS3625674|2013-09-22 01:13:16|PANAIT|MONICA||F|1985-09-17|BUCURESTI|SECTOR 6|CRANGASI|14|40|A|5|18|0743781417||PANAITRAMONA@YAHOO.COM|SBSSBK||0 Sobranie SS Black (6mg) Pack|Yes|Yes||BW031636|TWINS CAFE SRL LOUNGE|Bucuresti|BWHRKBA80|153|CCC HRK SOBR FAM Fratelli 2013|121|Horeca|0
0|CS3625676|2013-09-22 01:13:41|BOND|ALINA||F|1984-01-19|BUCURESTI|SECTOR 1|HORIA MACELARIU|65|||||0747010204||ALINA_HEIDI@YAHOO.COM|SBSSWH||0 Sobranie SS White (1mg) Pack|Yes|Yes||BW031636|TWINS CAFE SRL LOUNGE|Bucuresti|BWHRKBA38|153|CCC HRK SOBR FAM Fratelli 2013|121|Horeca|0
0|CS3625677|2013-09-22 01:14:04|VARDIE|ORIANA||F|1990-03-24|BUCURESTI|SECTOR 5|DOCTOR LISTER|86|||0|0|0765535022||ORIANA.VARDIE@YAHOO.COM|SBSSPK||0 Sobranie SS Pink (3mg) Pack|Yes|Yes||BW031636|TWINS CAFE SRL LOUNGE|Bucuresti|BWHRKBA111|153|CCC HRK SOBR FAM Fratelli 2013|121|Horeca|0
0|CS3625680|2013-09-22 01:15:15|DINU|CRISTIAN||M|1984-04-11|PRAHOVA|PLOIESTI|ION LUCA CARAGIALE|13|B|1|4|31|0737964235||DINU.CRISTIAN@YAHOO.COM|DUNFCSB||1 Sobranie KS Black (8mg) Pack|Yes|Yes||BW031636|TWINS CAFE SRL LOUNGE|Bucuresti|BWHRKBA80|153|CCC HRK SOBR FAM Fratelli 2013|121|Horeca|0
0|CS3625683|2013-09-22 01:18:35|TANASE|ALEXANDRU||M|1993-06-09|BUCURESTI|SECTOR 5|NASAUD|17|31|2|P|38|0745189959||ALEXANDRU.TANASE93@GMAIL.COM|DAVGL|DUNBL|1 Sobranie KS Blue (6mg) Pack|Yes|Yes||BW031636|TWINS CAFE SRL LOUNGE|Bucuresti|BWHRKBA35|153|CCC HRK SOBR FAM Fratelli 2013|121|Horeca|0
0|CS3625684|2013-09-22 01:21:07|TANASE|DANIELA||F|1970-08-21|BUCURESTI|SECTOR 5|NASAUD|17|||||0744759759||D.TANASE@ASIGEST.RO|DUNFCBB||1 Sobranie KS Blue (6mg) Pack|Yes|Yes||BW031636|TWINS CAFE SRL LOUNGE|Bucuresti|BWHRKBA35|153|CCC HRK SOBR FAM Fratelli 2013|121|Horeca|0
0|CS3625692|2013-09-22 01:22:10|DINU|GABRIELA||F|1989-03-30|BUCURESTI|SECTOR 2|MASINA DE PAINE|2|||||0722114875||DINU.GABRIELA@GMAIL.COM|SBSSPK||0 Sobranie SS Pink (3mg) Pack|Yes|Yes||BW031636|TWINS CAFE SRL LOUNGE|Bucuresti|BWHRKBA111|153|CCC HRK SOBR FAM Fratelli 2013|121|Horeca|0
0|CS3625693|2013-09-22 01:22:27|FILIP|CRISTINA||F|1982-09-05|BUCURESTI|SECTOR 3|PAPAZOGLU|10|||||0757577800||CRISTINAVALEANU@HOTMAIL.COM|SBSSPK||0 Sobranie SS Pink (3mg) Pack|Yes|Yes||BW031636|TWINS CAFE SRL LOUNGE|Bucuresti|BWHRKBA38|153|CCC HRK SOBR FAM Fratelli 2013|121|Horeca|0
0|CS3625696|2013-09-22 01:25:50|BUTNARU|ALINA||F|1984-10-01|BUCURESTI|SECTOR 2|COLENTINA|16|A5|1|5|44|0724219816||ALINA_M_BUTNARU@YAHOO.COM|SBSSPK||0 Sobranie SS Pink (3mg) Pack|Yes|Yes||BW031636|TWINS CAFE SRL LOUNGE|Bucuresti|BWHRKBA111|153|CCC HRK SOBR FAM Fratelli 2013|121|Horeca|0
0|CS3625698|2013-09-22 01:27:41|GRIGORIU|MARIA||F|1988-11-15|BUCURESTI|SECTOR 3|N.BALCESCU|18|||||0736042824||MARY_MARYA88@YAHOO.COM|VOGLL||1 Sobranie SS Pink (3mg) Pack|Yes|Yes||BW031636|TWINS CAFE SRL LOUNGE|Bucuresti|BWHRKBA35|153|CCC HRK SOBR FAM Fratelli 2013|121|Horeca|0
0|CS3625700|2013-09-22 01:30:24|MACUS|DIANA||F|1989-06-10|ILFOV|VOLUNTARI|CLABUCET|29A|||||0722535998||DIANA.ARCUS@YMAIL.COM|DAVGL||1 Sobranie KS Black (8mg) Pack|Yes|Yes||BW031636|TWINS CAFE SRL LOUNGE|Bucuresti|BWHRKBA35|153|CCC HRK SOBR FAM Fratelli 2013|121|Horeca|0
0|FS1183473|2013-09-21 00:41:52||||M|||||||||||||DUNFCBB||||||||||153|CCC HRK SOBR FAM Fratelli 2013|121|Horeca|0
0|FS1183474|2013-09-21 00:41:53||||M|||||||||||||DUNFCBB||||||||||153|CCC HRK SOBR FAM Fratelli 2013|121|Horeca|0
0|FS1183522|2013-09-21 00:50:14||||F|||||||||||||DUNFCBB||||||||||153|CCC HRK SOBR FAM Fratelli 2013|121|Horeca|0
0|FS1183523|2013-09-21 00:50:15||||F|||||||||||||DUNFCBB||||||||||153|CCC HRK SOBR FAM Fratelli 2013|121|Horeca|0
0|FS1183528|2013-09-21 00:50:50||||F|||||||||||||DUNFCMBB||||||||||153|CCC HRK SOBR FAM Fratelli 2013|121|Horeca|0
0|FS1183547|2013-09-21 00:57:27||||F|||||||||||||KTNWH||||||||||153|CCC HRK SOBR FAM Fratelli 2013|121|Horeca|0
0|FS1183551|2013-09-21 00:58:08||||F|||||||||||||DUNFCMBB||||||||||153|CCC HRK SOBR FAM Fratelli 2013|121|Horeca|0
0|FS1183558|2013-09-21 00:58:47||||F|||||||||||||VOGLL||||||||||153|CCC HRK SOBR FAM Fratelli 2013|121|Horeca|0
0|FS1183576|2013-09-21 00:59:50||||M|||||||||||||KTBL||||||||||153|CCC HRK SOBR FAM Fratelli 2013|121|Horeca|0
0|FS1183610|2013-09-21 01:00:44||||F|||||||||||||PARRSSH||||||||||153|CCC HRK SOBR FAM Fratelli 2013|121|Horeca|0
0|FS1183588|2013-09-21 01:00:49||||F|||||||||||||PARRSSH||||||||||153|CCC HRK SOBR FAM Fratelli 2013|121|Horeca|0
0|FS1183648|2013-09-21 01:18:50||||F|||||||||||||VOGBL||||||||||153|CCC HRK SOBR FAM Fratelli 2013|121|Horeca|0
0|FS1183657|2013-09-21 01:25:56||||F|||||||||||||DUNFCMBB||||||||||153|CCC HRK SOBR FAM Fratelli 2013|121|Horeca|0
0|FS1185802|2013-09-22 00:34:33||||F|||||||||||||MBRFP||||||||||153|CCC HRK SOBR FAM Fratelli 2013|121|Horeca|0
0|FS1185803|2013-09-22 00:34:34||||F|||||||||||||MBRFP||||||||||153|CCC HRK SOBR FAM Fratelli 2013|121|Horeca|0
0|FS1185831|2013-09-22 00:43:53||||F|||||||||||||KTBL6||||||||||153|CCC HRK SOBR FAM Fratelli 2013|121|Horeca|0
0|FS1185832|2013-09-22 00:43:54||||F|||||||||||||KTBL6||||||||||153|CCC HRK SOBR FAM Fratelli 2013|121|Horeca|0
0|FS1185837|2013-09-22 00:44:36||||F|||||||||||||KTNWH||||||||||153|CCC HRK SOBR FAM Fratelli 2013|121|Horeca|0
0|FS1185855|2013-09-22 00:48:51||||F|||||||||||||DUNFCMBB||||||||||153|CCC HRK SOBR FAM Fratelli 2013|121|Horeca|0
0|FS1185857|2013-09-22 00:49:21||||F|||||||||||||KTSV||||||||||153|CCC HRK SOBR FAM Fratelli 2013|121|Horeca|0
0|FS1185906|2013-09-22 00:55:26||||F|||||||||||||KTSWITH||||||||||153|CCC HRK SOBR FAM Fratelli 2013|121|Horeca|0
0|FS1185935|2013-09-22 01:00:43||||M|||||||||||||DUNFCMBB||||||||||153|CCC HRK SOBR FAM Fratelli 2013|121|Horeca|0
0|FS1185971|2013-09-22 01:12:39||||M|||||||||||||DUNFCBB||||||||||153|CCC HRK SOBR FAM Fratelli 2013|121|Horeca|0
