0|CS3715360|2014-01-03 20:43:38|POLICALA|FLAVIUS||M|1978-08-05|BUCURESTI|SECTOR 3|CAMIL RESSU|21|56|A||20|0721832941||FLAVIUSPD@YAHOO.COM|MBRFPEX||0 Sobranie KS Gold  (4mg) Pack|Yes|Yes||BV001286|JUST COFFE SRL|Brasov|BVHRKBA08|192|CCC HRK SOBR KS 2014|121|Horeca|0
0|CS3715361|2014-01-03 20:44:26|GERGELY|VILMOS|1850627080119|M|1985-06-27|BRASOV|BRASOV|BISERICII ROMANE|30|||||0742014734||GERGELY.VILMOS@GMAIL.COM|DUNFCBB||0 Sobranie KS Gold  (4mg) Pack|Yes|No||BV001286|JUST COFFE SRL|Brasov|BVHRKBA01|192|CCC HRK SOBR KS 2014|121|Horeca|0
0|CS3715362|2014-01-03 20:44:56|SUCIU|LAURA||F|1987-03-26|BRASOV|BRASOV|LUCHIAN|8|||||0765396651||LORA_12001@YAHOO.COM|KTSWIT||0 Sobranie KS Black (8mg) Pack|Yes|No||BV001286|JUST COFFE SRL|Brasov|BVHRKBA30|192|CCC HRK SOBR KS 2014|121|Horeca|0
0|CS3715363|2014-01-03 20:47:43|POPESCU|ANDRA||F|1987-10-24|BRASOV|BRASOV|GRIVITEI|46|22|B||8|0752724163||POPESCU.ANDRA2009@GMAIL.COM|KTSWIT||0 Sobranie KS Blue (6mg) Pack|Yes|No||BV001286|JUST COFFE SRL|Brasov|BVHRKBA30|192|CCC HRK SOBR KS 2014|121|Horeca|0
0|CS3715364|2014-01-03 20:48:08|PASCAL|ANDREEA|2860606080051|F|1986-06-06|BRASOV|BRASOV|ENUPARULUI|3|||||0763838081||MARYLU_ANDREEA@YAHOO.COM|KTSV||0 Sobranie KS Gold  (4mg) Pack|Yes|Yes||BV001286|JUST COFFE SRL|Brasov|BVHRKBA08|192|CCC HRK SOBR KS 2014|121|Horeca|0
0|CS3715366|2014-01-03 20:50:22|STOIAN|ANA SIMINA|2940316080031|F|1994-03-16|BRASOV|BRASOV|MINERVA|9||A||3|0745133200||STOIAN.SIMINA@YAHOO.COM|DUNFCMBB|PMBL|0 Sobranie KS Blue (6mg) Pack|Yes|Yes||BV001286|JUST COFFE SRL|Brasov|BVHRKBA01|192|CCC HRK SOBR KS 2014|121|Horeca|0
0|CS3715367|2014-01-03 20:50:52|LAZAR|DORIN||M|1979-01-10|BRASOV|BRASOV|AUREL VLAICU|13|||||0729003508||DORIN.LAZAR@GMAIL.COM|SBKSBK||0 Sobranie KS Black (8mg) Pack|Yes|Yes||BV001286|JUST COFFE SRL|Brasov|BVHRKBA08|192|CCC HRK SOBR KS 2014|121|Horeca|0
0|CS3715377|2014-01-03 21:05:00|UNGUREANU|VASILE||M|1960-05-23|BRASOV|BRASOV|PIATA SFATULUI|10|||||0722268350||VASILE.VHI@GMAIL.COM|CAWH|DUNFCBB|0 Sobranie KS Gold  (4mg) Pack|Yes|No||BV001173|ALDAR REZIDENTIAL SRL|Brasov|BVHRKBA01|192|CCC HRK SOBR KS 2014|121|Horeca|0
0|CS3715378|2014-01-03 21:13:14|GORUN|ANDREEA|2790607080087|F|1979-06-07|BRASOV|BRASOV|MACIESULUI|26|||||0766711547|||SBKSGD||0 Sobranie KS Gold  (4mg) Pack|Yes|Yes||BV001173|ALDAR REZIDENTIAL SRL|Brasov|BVHRKBA01|192|CCC HRK SOBR KS 2014|121|Horeca|0
0|CS3715379|2014-01-03 21:47:20|VOICA|ELENA||F|1986-07-04|BUCURESTI|SECTOR 5|SERGENT MAJOR ION CARPEN|26|||||0724790902||VOICAELENA@YAHOO.COM|DUNFCMBB||0 Sobranie KS Gold  (4mg) Pack|Yes|Yes||BV006156|D  R COMPANY SRL|Brasov|BVHRKBA08|192|CCC HRK SOBR KS 2014|121|Horeca|0
0|CS3715380|2014-01-03 21:47:54|MEHEDINTU|BOGDAN||M|1978-03-10|BUCURESTI|BUCURESTI|13SEPTEMBRIE|208|V39|1||20|0723325095||BOGMEHEDINCU@YAHOO.COM|KTSWITH||0 Sobranie KS Blue (6mg) Pack|Yes|Yes||BV006156|D  R COMPANY SRL|Brasov|BVHRKBA30|192|CCC HRK SOBR KS 2014|121|Horeca|0
0|CS3715381|2014-01-03 21:49:12|NADOLEANU|ELENA||F|1983-09-10|BUCURESTI|BUCURESTI|SG MAJ IOAN CARPEN|5|||||0726375791||NADOLEANU ELENA@YAHOO.COM|DUNFCMBB||0 Sobranie KS Black (8mg) Pack|Yes|Yes||BV006156|D  R COMPANY SRL|Brasov|BVHRKBA01|192|CCC HRK SOBR KS 2014|121|Horeca|0
0|CS3715382|2014-01-03 21:54:11|TUDORACHE|IULIAN||M|1979-10-05|VRANCEA|FOCSANI|LUPENI|4|||||0765272079||GONDR004@YAHOO.COM|PARAB||0 Sobranie KS Gold  (4mg) Pack|Yes|Yes||BV006156|D  R COMPANY SRL|Brasov|BVHRKBA30|192|CCC HRK SOBR KS 2014|121|Horeca|0
0|CS3715386|2014-01-03 22:20:16|ALEXANDRU|VLAD||M|1989-12-23|VASLUI|VASLUI|TRAIAN|241|241|2||11|0746231289||VLAD@VASCAR.RO|DUNFCBB||0 Sobranie KS Gold  (4mg) Pack|Yes|Yes||BV001033|OLIN FOODS SRL|Brasov|BVHRKBA08|192|CCC HRK SOBR KS 2014|121|Horeca|0
0|CS3715387|2014-01-03 22:21:36|DUMITRU|BOGDAN||M|1980-08-16|PRAHOVA|PLOIESTI|REPUBLICII|4|||||0725680080||BOGDAN_DE_ROMANIA@YAHOO.COM|KTNBL||0 Sobranie KS Gold  (4mg) Pack|Yes|No||BV001033|OLIN FOODS SRL|Brasov|BVHRKBA30|192|CCC HRK SOBR KS 2014|121|Horeca|0
0|CS3715388|2014-01-03 22:22:35|ANGHEL|CRISTINA||F|1986-06-13|BRASOV|BRASOV|SMICULUI|24|||||0745531191||CRISTINA.ANGHEL_BV@YAHOO.COM|KTSWITH|SBSSPK|0 Sobranie KS Black (8mg) Pack|Yes|Yes||BV001033|OLIN FOODS SRL|Brasov|BVHRKBA01|192|CCC HRK SOBR KS 2014|121|Horeca|0
0|CS3715389|2014-01-03 22:22:51|DUMITRU|IONUT||M|1980-04-02|ARGES|PITESTI|BASARABIA|38|B41|B||8|0723701444||JOHNNY_D_2011@YAHOO.COM|DUNFCBB|SBKSGD|0 Sobranie KS Gold  (4mg) Pack|Yes|Yes||BV001033|OLIN FOODS SRL|Brasov|BVHRKBA08|192|CCC HRK SOBR KS 2014|121|Horeca|0
0|CS3715390|2014-01-03 22:25:20|VLAD|IULIA||F|1983-11-13|BRASOV|BRASOV|CODRUL COSMINULUI|46|||||0745097863||IULIA_CRISTA@YAHOO.COM|KTNBK||0 Sobranie KS Gold  (4mg) Pack|Yes|No||BV001033|OLIN FOODS SRL|Brasov|BVHRKBA30|192|CCC HRK SOBR KS 2014|121|Horeca|0
0|CS3715391|2014-01-03 22:25:56|ADAM|ALEXANDRU|1880503046259|M|1988-05-03|BACAU|BACAU|NUCULUI|2|2|A|1|4|0742476681||ALEXADAM3@YAHOO.COM|KTNBK||0 Sobranie KS Gold  (4mg) Pack|Yes|Yes||BV001033|OLIN FOODS SRL|Brasov|BVHRKBA01|192|CCC HRK SOBR KS 2014|121|Horeca|0
0|CS3715392|2014-01-03 22:29:04|VIRGOLICI|DUMITRITA||F|1987-10-26|BACAU|BACAU|NICOLAE BALCESCU|12|12|F|10||0757423034||DUMY_DEE@YAHOO.COM|KTNBK||0 Sobranie KS Gold  (4mg) Pack|Yes|No||BV001033|OLIN FOODS SRL|Brasov|BVHRKBA01|192|CCC HRK SOBR KS 2014|121|Horeca|0
0|CS3715395|2014-01-03 22:47:23|PASCU|ANDREI|1850130080071|M|1985-01-30|BRASOV|BRASOV|NEPTUN|12|56|A|2|9|0726543150||PASCUANDRE1@YAHOO.COM|CAWH||0 Sobranie KS Gold  (4mg) Pack|Yes|Yes||BV001858|Tircolea Zamfira Mariana I.I.|Brasov|BVHRKBA01|192|CCC HRK SOBR KS 2014|121|Horeca|0
0|CS3715396|2014-01-03 22:48:13|ARABEI|SORIN|1760525080103|M|1976-05-25|BRASOV|BRASOV|BISERICII ROMANE|52|||||0731431500||ARADEIS@YAHOO.COM|MBRFP||0 Sobranie KS Gold  (4mg) Pack|Yes|Yes||BV001858|Tircolea Zamfira Mariana I.I.|Brasov|BVHRKBA30|192|CCC HRK SOBR KS 2014|121|Horeca|0
0|CS3715397|2014-01-03 22:48:30|ONICA|BIANCA||F|1988-07-04|BRASOV|BRASOV|DRUMUL CERNATULUI|12|C5|A|92||0756313603||BBY07@YAHOO.COM|KTSV||0 Sobranie KS Gold  (4mg) Pack|Yes|Yes||BV001858|Tircolea Zamfira Mariana I.I.|Brasov|BVHRKBA08|192|CCC HRK SOBR KS 2014|121|Horeca|0
0|CS3715398|2014-01-03 22:50:44|BRAESCU|BOGDAN||M|1980-09-23|BRASOV|BRASOV|NEPTUN|12||B||15|0723559661||BOGDANBRAESCU@YAHOO.COM|DUNFCBB|PARSB|0 Sobranie KS Gold  (4mg) Pack|Yes|Yes||BV001858|Tircolea Zamfira Mariana I.I.|Brasov|BVHRKBA01|192|CCC HRK SOBR KS 2014|121|Horeca|0
0|CS3715400|2014-01-03 22:51:44|BRAILESCU|SORIN||M|1976-11-30|BRASOV|BRASOV|MERCUR|2|29|A||20|0758087988||SORIN.BRAILESCU@GMAIL.COM|DUNFCBB||0 Sobranie KS Gold  (4mg) Pack|Yes|Yes||BV001858|Tircolea Zamfira Mariana I.I.|Brasov|BVHRKBA30|192|CCC HRK SOBR KS 2014|121|Horeca|0
0|CS3715401|2014-01-03 22:51:56|ROMAN|IONEL||M|1989-12-03|BRASOV|BRASOV|ZIZINULUI|118|118|A||32|0749861135||ROMANTZIGANU@YAHOO.COM|KTBL||0 Sobranie KS Black (8mg) Pack|Yes|Yes||BV001858|Tircolea Zamfira Mariana I.I.|Brasov|BVHRKBA08|192|CCC HRK SOBR KS 2014|121|Horeca|0
0|CS3715402|2014-01-03 22:53:58|MARINESCU|TEODOR|1821118080034|M|1982-11-18|BRASOV|SACELE|VIITORULUI|0|38|B||4|0743166004||MRNSCTEO@GMAIL.COM|DAVGLS||0 Sobranie KS Gold  (4mg) Pack|No|Yes||BV001858|Tircolea Zamfira Mariana I.I.|Brasov|BVHRKBA01|192|CCC HRK SOBR KS 2014|121|Horeca|0
0|CS3715403|2014-01-03 22:54:49|ROTOPANESCU|DIANA||F|1985-10-26|BRASOV|BRASOV|CALEA BUCURESTI|49||B||17|0727275828||EA.ELLE00@YAHOO.COM|KTBL|PARAB|0 Sobranie KS Black (8mg) Pack|Yes|Yes||BV001858|Tircolea Zamfira Mariana I.I.|Brasov|BVHRKBA08|192|CCC HRK SOBR KS 2014|121|Horeca|0
0|CS3715404|2014-01-03 22:56:28|VRANCEANU|MIHAELA||F|1982-08-28|BRASOV|BRASOV|SATURN|37A||||50|0743150180||MIHA_VRANCEANU@YAHOO.COM|KTBL|SBKSBL|0 Sobranie KS Blue (6mg) Pack|Yes|Yes||BV001858|Tircolea Zamfira Mariana I.I.|Brasov|BVHRKBA08|192|CCC HRK SOBR KS 2014|121|Horeca|0
0|CS3715405|2014-01-03 22:56:48|SORLESCU|DANA|2850609080078|F|1985-06-09|BRASOV|BRASOV|CALEA BUCURESTI|74|||||0724080125||SORLYDANA@YAHOO.COM|MBRFP||0 Sobranie KS Black (8mg) Pack|Yes|No||BV001858|Tircolea Zamfira Mariana I.I.|Brasov|BVHRKBA30|192|CCC HRK SOBR KS 2014|121|Horeca|0
0|CS3715406|2014-01-03 22:58:44|MIRCESCU|ALEX|1940828410026|M|1994-08-28|BUCURESTI|BUCURESTI|GHEORGHE VASILESCU|14|||||0730620029||MERCER_GB@YAHOO.COM|SBKSBK|DUNFCCB|0 Sobranie KS Black (8mg) Pack|Yes|No||BV001858|Tircolea Zamfira Mariana I.I.|Brasov|BVHRKBA01|192|CCC HRK SOBR KS 2014|121|Horeca|0
0|CS3715407|2014-01-03 22:59:25|ADAMEK|FLAVIA|2881019080018|F|1988-10-19|BRASOV|BRASOV|IANCU JIANU|10|||||0725351082||ADAMEKFL@YAHOO.COM|MBRFP||0 Sobranie KS Black (8mg) Pack|Yes|Yes||BV001858|Tircolea Zamfira Mariana I.I.|Brasov|BVHRKBA30|192|CCC HRK SOBR KS 2014|121|Horeca|0
0|CS3715408|2014-01-03 23:02:44|CALIN|ADRIAN|1791025080063|M|1979-10-25|BRASOV|BRASOV|SOARELUI|5|||||0722787478||CALIN_ADRIAN@YAHOO.COM|KTBL||0 Sobranie KS Black (8mg) Pack|Yes|Yes||BV001858|Tircolea Zamfira Mariana I.I.|Brasov|BVHRKBA01|192|CCC HRK SOBR KS 2014|121|Horeca|0
0|CS3715409|2014-01-03 23:05:07|CALIN|BRUTUS||M|1979-07-04|BRASOV|BRASOV|SOARELUI|5|||||0758076282|||MBRFP||0 Sobranie KS Blue (6mg) Pack|Yes|Yes||BV001858|Tircolea Zamfira Mariana I.I.|Brasov|BVHRKBA01|192|CCC HRK SOBR KS 2014|121|Horeca|0
0|CS3715410|2014-01-03 23:19:42|POTCOAVA|MIHNEA||M|1984-02-16|BRASOV|BRASOV|VULCAN|82|||||0744611316||MIHNEA.POTCOAVA@YAHOO.COM|KTBL||0 Sobranie KS Black (8mg) Pack|Yes|Yes||20285300|IL CAMINETTO SRL|Brasov|BVHRKBA08|192|CCC HRK SOBR KS 2014|121|Horeca|0
0|CS3715412|2014-01-03 23:21:24|BANCIU|ANDREEA|2890412080061|F|1989-04-12|BRASOV|BRASOV|BRANDUSELOR|13|1|A|1|7|0768683585||DE3A_BV@YAHOO.COM|DUNFCBB||0 Sobranie KS Gold  (4mg) Pack|Yes|Yes||20285300|IL CAMINETTO SRL|Brasov|BVHRKBA01|192|CCC HRK SOBR KS 2014|121|Horeca|0
0|CS3715413|2014-01-03 23:21:37|TONTEA|SEBASTIAN||M|1983-03-28|BRASOV|BRASOV|VICTORIEI|10|||||0724966063||SEBI_HOME@YAHOO.COM|KTSWIT||0 Sobranie KS Black (8mg) Pack|Yes|Yes||20285300|IL CAMINETTO SRL|Brasov|BVHRKBA08|192|CCC HRK SOBR KS 2014|121|Horeca|0
0|CS3715414|2014-01-03 23:22:15|ROSCULET|RALUCA||F|1982-05-10|BRASOV|BRASOV|GENERAL DUMITRACHE|20|||||0745371483||RALUCAROSCULET@YAHOO.COM|MBRFP||0 Sobranie KS Black (8mg) Pack|Yes|Yes||20285300|IL CAMINETTO SRL|Brasov|BVHRKBA30|192|CCC HRK SOBR KS 2014|121|Horeca|0
0|CS3715416|2014-01-03 23:24:45|MIKES|ATTILA|1840103080057|M|1984-01-03|BRASOV|BRASOV|GRIVITEI|88||||11|0745314730||OTHELLO_1ST@YAHOO.COM|DUNFCBB|SBKSGD|0 Sobranie KS Gold  (4mg) Pack|Yes|Yes||20285300|IL CAMINETTO SRL|Brasov|BVHRKBA01|192|CCC HRK SOBR KS 2014|121|Horeca|0
0|CS3715417|2014-01-03 23:25:12|ABABEI|ROXANA|2821202080101|F|1982-12-02|BRASOV|BRASOV|GALAXIEI|7|26|C||10|0746135212||ROXANA_MER@YAHOO.COM|KTSV||0 Sobranie KS Blue (6mg) Pack|Yes|Yes||20285300|IL CAMINETTO SRL|Brasov|BVHRKBA30|192|CCC HRK SOBR KS 2014|121|Horeca|0
0|CS3715418|2014-01-03 23:25:31|JAKAB|CARMEN||F|1966-04-06|BRASOV|BRASOV|OLTULUI|6||||5|0722684221||CARMEN.JAKAB@YAHOO.COM|KTSV||0 Sobranie KS Gold  (4mg) Pack|Yes|Yes||20285300|IL CAMINETTO SRL|Brasov|BVHRKBA08|192|CCC HRK SOBR KS 2014|121|Horeca|0
0|CS3715419|2014-01-03 23:27:26|MURESAN|RAZVAN||M|1969-10-13|BRASOV|BRASOV|OVIDIU|13|||||0722467823||RITM4ART@YAHOO.COM|SBKSGD||0 Sobranie KS Gold  (4mg) Pack|Yes|Yes||20285300|IL CAMINETTO SRL|Brasov|BVHRKBA08|192|CCC HRK SOBR KS 2014|121|Horeca|0
0|CS3715420|2014-01-03 23:28:25|COCU|OCTAVIAN|1850720080105|M|1985-07-20|BRASOV|BRASOV|ZIZINULUI|84A||||2|0726262660||OCTAVIAN_COCU@YAHOO.COM|MBRGLFT||0 Sobranie KS Gold  (4mg) Pack|Yes|Yes||20285300|IL CAMINETTO SRL|Brasov|BVHRKBA30|192|CCC HRK SOBR KS 2014|121|Horeca|0
0|CS3715421|2014-01-03 23:28:36|NEAGU|CAMELIA ILEANA||F|1984-03-19|BRASOV|BRASOV|GRIVITEI|57|42|B|0|38|0741393335||CAMELIANEGUKAMY@YAHOO.COM|KTSV||0 Sobranie KS Gold  (4mg) Pack|Yes|Yes||20285300|IL CAMINETTO SRL|Brasov|BVHRKBA08|192|CCC HRK SOBR KS 2014|121|Horeca|0
0|CS3715422|2014-01-03 23:28:52|SOOS|REKA|2910613080062|F|1991-06-13|BRASOV|SACELE|ADY ENDRE|11|||||0757727616|0268273533|SS_RK@YAHOO.COM|SBKSBL||0 Sobranie KS Blue (6mg) Pack|Yes|Yes||20285300|IL CAMINETTO SRL|Brasov|BVHRKBA01|192|CCC HRK SOBR KS 2014|121|Horeca|0
0|CS3715423|2014-01-03 23:30:16|TRIF|ANDREEA||F|1987-08-18|BRASOV|BRASOV|CRISULUI|6|B16|A||1|0746239887||TRIF.ANDREEA@GMAIL.COM|DUNFCBB||0 Sobranie KS Gold  (4mg) Pack|Yes|Yes||20285300|IL CAMINETTO SRL|Brasov|BVHRKBA08|192|CCC HRK SOBR KS 2014|121|Horeca|0
0|CS3715424|2014-01-03 23:32:21|STOIAN|ELENA|2850323105026|F|1985-03-23|BRASOV|BRASOV|LUNGA|78|||||0730244371||STOIAN_ELENA@YAHOO.COM|KTNBK||0 Sobranie KS Gold  (4mg) Pack|Yes|Yes||20285300|IL CAMINETTO SRL|Brasov|BVHRKBA30|192|CCC HRK SOBR KS 2014|121|Horeca|0
0|CS3715425|2014-01-03 23:33:06|MECA|IULIAN||M|1971-02-13|BUCURESTI|SECTOR 2|CHISINAU|18|M8|A||165|0729874193||NUNI.MECA@GMAIL.COM|KTSV|SBKSGD|0 Sobranie KS Gold  (4mg) Pack|Yes|Yes||20285300|IL CAMINETTO SRL|Brasov|BVHRKBA08|192|CCC HRK SOBR KS 2014|121|Horeca|0
0|CS3715427|2014-01-03 23:35:49|MARITA|SIMONA||F|1977-10-12|BRASOV|BRASOV|MUNCII|21|D9|B||13|0722969532||SIMONA.AVRAMESCU@YAHOO.COM|KTBL||0 Sobranie KS Blue (6mg) Pack|Yes|Yes||20285300|IL CAMINETTO SRL|Brasov|BVHRKBA08|192|CCC HRK SOBR KS 2014|121|Horeca|0
0|CS3715428|2014-01-03 23:36:02|MERLUSCA|ANDREI||M|1982-09-01|BRASOV|BRASOV|GALAXIEI|7|26|C|3|10|0746132767|||KTSV||0 Sobranie KS Gold  (4mg) Pack|Yes|Yes||20285300|IL CAMINETTO SRL|Brasov|BVHRKBA01|192|CCC HRK SOBR KS 2014|121|Horeca|0
0|CS3715429|2014-01-03 23:36:51|ARPAD|MAGHIAR||M|1983-09-06|BRASOV|BRASOV|VALEA CETATII|40|B|A||20|0755894061||ARPADMAGHAR@YAHOO.COM|MBRFP||0 Sobranie KS Blue (6mg) Pack|Yes|No||20285300|IL CAMINETTO SRL|Brasov|BVHRKBA30|192|CCC HRK SOBR KS 2014|121|Horeca|0
0|CS3715430|2014-01-03 23:37:21|AVRAMESCU|GEANINA||F|1978-11-18|BRASOV|BRASOV|GENERAL MOCIULSCHI|9|B3|C|0|1|0722898655||GINA.AVEAMESCU@GMAIL.COM|DUNFCMBB||0 Sobranie KS Blue (6mg) Pack|Yes|Yes||20285300|IL CAMINETTO SRL|Brasov|BVHRKBA08|192|CCC HRK SOBR KS 2014|121|Horeca|0
0|CS3715431|2014-01-03 23:37:48|COCIORAN|MONICA||F|1983-11-27|BRASOV|BRASOV|BRANDUSELOR|13|1|A|1|6|0766547652||MONI_AMINA@YAHOO.COM|KTSV||0 Sobranie KS Gold  (4mg) Pack|Yes|Yes||20285300|IL CAMINETTO SRL|Brasov|BVHRKBA01|192|CCC HRK SOBR KS 2014|121|Horeca|0
0|CS3715433|2014-01-03 23:38:58|DUMITRESCU|MIHAI||M|1973-10-25|BRASOV|BRASOV|MAGNOLIEI|14|100|D|3|14|0723195634||MIHAICRISTIANDUMITRESCU@YAHOO.COM|KTBL||0 Sobranie KS Black (8mg) Pack|Yes|Yes||20285300|IL CAMINETTO SRL|Brasov|BVHRKBA08|192|CCC HRK SOBR KS 2014|121|Horeca|0
0|CS3715434|2014-01-03 23:40:42|BUCATARU|CELINA||F|1980-07-14|BUCURESTI|SECTOR 1|GRIVITEI|24|K|||25|0723630791||BUCATARUCELINS@GMAIL.COM|DUNFCBB||0 Sobranie KS Gold  (4mg) Pack|Yes|Yes||20285300|IL CAMINETTO SRL|Brasov|BVHRKBA08|192|CCC HRK SOBR KS 2014|121|Horeca|0
0|CS3715435|2014-01-03 23:41:32|FEJER|ARPAD||M|1985-04-15|BRASOV|BRASOV|SOARELUI|7|15|A||18|0742892029||ARPAD_FEJERR@YAHOO.COM|KTSV||0 Sobranie KS Black (8mg) Pack|Yes|Yes||20285300|IL CAMINETTO SRL|Brasov|BVHRKBA30|192|CCC HRK SOBR KS 2014|121|Horeca|0
0|CS3715436|2014-01-03 23:43:02|ISAC|CORNEL|1800626142595|M|1980-06-26|BRASOV|BRASOV|LIVEZII|10|||0|0|0727060065||CORNELISAC@YAHOO.COM|SBKSBK||0 Sobranie KS Black (8mg) Pack|Yes|Yes||20285300|IL CAMINETTO SRL|Brasov|BVHRKBA01|192|CCC HRK SOBR KS 2014|121|Horeca|0
0|CS3715438|2014-01-03 23:47:56|MARINESCU|SORIN|1680610133670|M|1968-06-10|BRASOV|BRASOV|MERILOR|1|||||0726789278||CALISTRATES@YAHOO.ES|DUNFCBB||0 Sobranie KS Gold  (4mg) Pack|Yes|Yes||20285300|IL CAMINETTO SRL|Brasov|BVHRKBA01|192|CCC HRK SOBR KS 2014|121|Horeca|0
0|CS3715443|2014-01-04 00:23:05|KOPE|IZABELLA||F|1991-05-28|BRASOV|BRASOV|CIBINULUI|16|||||0743142942||IZI_BV91@YAHOO.COM|KTSWIT||0 Sobranie KS Gold  (4mg) Pack|Yes|Yes||BV001961|Deverona SRL|Brasov|BVHRKBA30|192|CCC HRK SOBR KS 2014|121|Horeca|0
0|CS3715444|2014-01-04 00:24:21|STAN|MARIAN|1880704080070|M|1988-07-04|BRASOV|BRASOV|MOCIULSCHI|8|8|B|4|19|0727272721||MARIAN.STAN@LEGENDOPTIC.RO|KTSWIT||0 Sobranie KS Blue (6mg) Pack|Yes|Yes||BV001961|Deverona SRL|Brasov|BVHRKBA01|192|CCC HRK SOBR KS 2014|121|Horeca|0
0|CS3715445|2014-01-04 00:24:46|HURJUI|ADRIANA||F|1988-08-07|BRASOV|BRASOV|LAMINOARELOR|9|3|B||2|0747915646||BEIBY_ME@YAHOO.COM|KTSV||0 Sobranie KS Gold  (4mg) Pack|Yes|Yes||BV001961|Deverona SRL|Brasov|BVHRKBA08|192|CCC HRK SOBR KS 2014|121|Horeca|0
0|CS3715446|2014-01-04 00:26:53|URSU|DIANA|2910504080023|F|1991-05-04|BRASOV|BRASOV|LACRAMIOARELOR|7|8|D|1|5|0753873656||UTZU_DIA@YAHOO.COM|MBRFP||0 Sobranie KS Gold  (4mg) Pack|Yes|Yes||BV001961|Deverona SRL|Brasov|BVHRKBA30|192|CCC HRK SOBR KS 2014|121|Horeca|0
0|CS3715447|2014-01-04 00:27:38|DEORDICA|BIANCA|2910516080040|F|1991-05-16|BRASOV|PREJMER|BRASOVULUI|162|6|A|3|10|0799000053||BIANCA.DEORDICA@GMAIL.COM|DUNFCBB||0 Sobranie KS Gold  (4mg) Pack|Yes|Yes||BV001961|Deverona SRL|Brasov|BVHRKBA01|192|CCC HRK SOBR KS 2014|121|Horeca|0
0|CS3715449|2014-01-04 00:30:34|SZASZ|ANDREEA|2910724081816|F|1991-07-24|BRASOV|BOD|TUDOR VLADIMIRESCU|19|||||0730219099||ANDREEAELISABETA.SZASZ@GMAIL.COM|KTSWIT||0 Sobranie KS Gold  (4mg) Pack|Yes|No||BV001961|Deverona SRL|Brasov|BVHRKBA30|192|CCC HRK SOBR KS 2014|121|Horeca|0
0|CS3715450|2014-01-04 00:42:58|MIHAI|RARES||M|1988-05-01|BRASOV|BRASOV|NEPTUN|28|75|B|4|17|0754539846||M.RARESSTEFAN@GMAIL.COM|KTBL||0 Sobranie KS Blue (6mg) Pack|Yes|Yes||BV001961|Deverona SRL|Brasov|BVHRKBA08|192|CCC HRK SOBR KS 2014|121|Horeca|0
0|CS3715695|2014-01-04 20:19:10|TURICA|HORIA||M|1995-03-31|BRASOV|BRASOV|BDUL MUNCII|12|E.17|||19|0752287502||TURICA_HORIA@YAHOO.COM|DUNFCMBB||0 Sobranie KS Blue (6mg) Pack|Yes|No||BV001286|JUST COFFE SRL|Brasov|BVHRKBA08|192|CCC HRK SOBR KS 2014|121|Horeca|0
0|CS3715696|2014-01-04 20:19:32|UNGUREANU|CRISTI||M|1995-10-08|BRASOV|BRASOV|TOAMNEI|1|3|C|2|4|0727955365||CRISTIUNGUREANU@GMAIL.COM|KTBL6||0 Sobranie KS Blue (6mg) Pack|Yes|Yes||BV001286|JUST COFFE SRL|Brasov|BVHRKBA30|192|CCC HRK SOBR KS 2014|121|Horeca|0
0|CS3715697|2014-01-04 20:19:49|VITALIE|VASILE||M|1975-06-26|BUCURESTI|3|SOLDAT GRIGORE IANCU|43|||||0730072620|||KTSWIT||0 Sobranie KS Black (8mg) Pack|Yes|Yes||BV001286|JUST COFFE SRL|Brasov|BVHRKBA01|192|CCC HRK SOBR KS 2014|121|Horeca|0
0|CS3715698|2014-01-04 20:21:36|ANGHEL|LOREDANA||F|1985-02-17|BRASOV|BRASOV|ZIZINULUI|12|37|A||25|0740106831||ANGHEL_LOREDANA_E@YAHOO.COM|KTSWIT||0 Sobranie KS Blue (6mg) Pack|Yes|Yes||BV001286|JUST COFFE SRL|Brasov|BVHRKBA08|192|CCC HRK SOBR KS 2014|121|Horeca|0
0|CS3715699|2014-01-04 20:24:06|OLARU|MARIA||F|1985-11-12|BRASOV|BRASOV|VICTORIEI|6|6|C|0|181|0744242624||MARIA_AURA24@YAHOO.COM|PARABH||0 Sobranie KS Blue (6mg) Pack|Yes|Yes||BV001286|JUST COFFE SRL|Brasov|BVHRKBA08|192|CCC HRK SOBR KS 2014|121|Horeca|0
0|CS3715700|2014-01-04 20:24:13|GUSTESCU|MIRCEA||M|1987-08-13|BRASOV|BRASOV|CONSTRUCTORILOR|2|||0|22|0744963642||MIRCEA_GUSTESCU@YAHOO.COM|DUNFCBB||0 Sobranie KS Gold  (4mg) Pack|Yes|Yes||BV001286|JUST COFFE SRL|Brasov|BVHRKBA01|192|CCC HRK SOBR KS 2014|121|Horeca|0
0|CS3715701|2014-01-04 20:26:45|GOIDEA|TEODORA||F|1995-10-25|BRASOV|BRASOV|NICOPOLE|56|14|D||20|0746083016||TEODORA.GOIDEA@YAHOO.COM|MBRGLT||0 Sobranie KS Blue (6mg) Pack|Yes|Yes||BV001286|JUST COFFE SRL|Brasov|BVHRKBA30|192|CCC HRK SOBR KS 2014|121|Horeca|0
0|CS3715702|2014-01-04 20:30:21|SERBANUTA|RAZVAN||M|1989-06-01|BRASOV|BRASOV|MARE|53|||||0766491485||SERBANUTAR@YAHOO.COM|KTBL|KTBL6|0 Sobranie KS Black (8mg) Pack|Yes|Yes||BV001286|JUST COFFE SRL|Brasov|BVHRKBA01|192|CCC HRK SOBR KS 2014|121|Horeca|0
0|CS3715704|2014-01-04 20:43:08|COMSA|COSMIN||M|1988-12-07|BUCURESTI|SECTOR 2|CALEA MOSILOR|213|||||0754293789||COSMINCOMSA1@GMAIL.COM|DUNFCBB||0 Sobranie KS Gold  (4mg) Pack|Yes|Yes||BV001173|ALDAR REZIDENTIAL SRL|Brasov|BVHRKBA08|192|CCC HRK SOBR KS 2014|121|Horeca|0
0|CS3715703|2014-01-04 20:43:12|CIOBANU|MARIA||F|1968-08-06|BRASOV|BRASOV|LACURILOR|15|||||0740127453|||DUNBL||0 Sobranie KS Black (8mg) Pack|Yes|Yes||BV001173|ALDAR REZIDENTIAL SRL|Brasov|BVHRKBA01|192|CCC HRK SOBR KS 2014|121|Horeca|0
0|CS3715709|2014-01-04 21:10:12|NEAGOE|ALINA||F|1983-09-06|BRASOV|BRASOV|DRUMUL CERNATULUI|16|2|A||9|0752100727||SIMIONALINUTA@YAHOO.COM|KTBL||0 Sobranie KS Black (8mg) Pack|Yes|Yes||BV001033|OLIN FOODS SRL|Brasov|BVHRKBA08|192|CCC HRK SOBR KS 2014|121|Horeca|0
0|CS3715710|2014-01-04 21:12:30|CIOBANU|CIPRIAN||M|1982-05-03|BRASOV|BRASOV|CARPATILOR|44|B1|B||20|0745026488||CIPRIAN.CIOBANU@YAHOO.COM|KTSV||0 Sobranie KS Gold  (4mg) Pack|Yes|Yes||BV001033|OLIN FOODS SRL|Brasov|BVHRKBA08|192|CCC HRK SOBR KS 2014|121|Horeca|0
0|CS3715711|2014-01-04 21:13:45|CARMEN|ZAINESCU||F|1972-05-10|PRAHOVA|PLOIESTI|COSMINELE|17|181|A|P|1|0723550979||CARMENZAINESCU@YAHOO.COM|DAVGL||0 Sobranie KS Black (8mg) Pack|Yes|Yes||BV001033|OLIN FOODS SRL|Brasov|BVHRKBA01|192|CCC HRK SOBR KS 2014|121|Horeca|0
0|CS3715712|2014-01-04 21:16:31|ROSCA|VALERIU||M|1968-06-22|PRAHOVA|PLOIESTI|GRIGORE TOCILESCU|10||B|||0722513181|||DAVGL||0 Sobranie KS Black (8mg) Pack|Yes|Yes||BV001033|OLIN FOODS SRL|Brasov|BVHRKBA01|192|CCC HRK SOBR KS 2014|121|Horeca|0
0|CS3715713|2014-01-04 21:21:50|GOREA|MARIUS||M|1984-06-04|BRASOV|BRASOV|PASUNII|279|||||0747112601||MARIUS.GOREA@YAHOO.COM|KTBL6||0 Sobranie KS Blue (6mg) Pack|Yes|No||BV001033|OLIN FOODS SRL|Brasov|BVHRKBA30|192|CCC HRK SOBR KS 2014|121|Horeca|0
0|CS3715714|2014-01-04 21:30:25|DUMITRU|FLORIN||M|1987-03-17|CONSTANTA|CONSTANTA|COM COAGHEALAC|50|||||0743822712||FRASIN_ENI@KAPPA.RO|KTNBK||0 Sobranie KS Gold  (4mg) Pack|Yes|Yes||BV001033|OLIN FOODS SRL|Brasov|BVHRKBA30|192|CCC HRK SOBR KS 2014|121|Horeca|0
0|CS3715715|2014-01-04 21:43:26|ANGHEL|ALEXANDRU|1850829134213|M|1985-08-29|CONSTANTA|TECHIRGHIOL|MIHAI EMINESCU|49|||||0722446373||ALEX.C.ANGHEL@GMAIL.COM|MBRGL||0 Sobranie KS Gold  (4mg) Pack|Yes|Yes||BV001858|Tircolea Zamfira Mariana I.I.|Brasov|BVHRKBA30|192|CCC HRK SOBR KS 2014|121|Horeca|0
0|CS3715716|2014-01-04 21:43:45|MAXIM|CIPRIAN DANIEL|1840716080087|M|1984-07-16|BRASOV|BRASOV|URANUS|3|3|B||4|0741365802||MAXIM.CIPRIANDANIEL@YAHOO.COM|KTSV||0 Sobranie KS Gold  (4mg) Pack|Yes|Yes||BV001858|Tircolea Zamfira Mariana I.I.|Brasov|BVHRKBA01|192|CCC HRK SOBR KS 2014|121|Horeca|0
0|CS3715717|2014-01-04 21:43:48|MORAR|DENISA||F|1987-10-29|BRASOV|BRASOV|COCORULUI|7|223|A||6|0723188886||DENISSA_MORAR@YAHOO.COM|DUNFCBB||0 Sobranie KS Blue (6mg) Pack|Yes|Yes||BV001858|Tircolea Zamfira Mariana I.I.|Brasov|BVHRKBA08|192|CCC HRK SOBR KS 2014|121|Horeca|0
0|CS3715718|2014-01-04 21:46:02|COMANARIU|ANDA||F|1986-07-15|BRASOV|BRASOV|HARMANULUI|108|5|A||4|0744852249||ANDA.COMANARIU@YAHOO.COM|DUNFCBB||0 Sobranie KS Blue (6mg) Pack|Yes|Yes||BV001858|Tircolea Zamfira Mariana I.I.|Brasov|BVHRKBA08|192|CCC HRK SOBR KS 2014|121|Horeca|0
0|CS3715720|2014-01-04 21:46:48|RADU|IOANA||F|1990-01-24|BRASOV|BRASOV|SATURN|60|3|C|0|3|0721880013||RADUIOANA@YAHOO.COM|DUNFCBB||0 Sobranie KS Gold  (4mg) Pack|Yes|Yes||BV001858|Tircolea Zamfira Mariana I.I.|Brasov|BVHRKBA08|192|CCC HRK SOBR KS 2014|121|Horeca|0
0|CS3715721|2014-01-04 21:48:48|BUNGAU|ROXANA||F|1987-10-02|BRASOV|BRASOV|JEPILOR|24|A29|A||14|0747771877||THE_DAYDREAMER@YAHOO.COM|KTSWITH||0 Sobranie KS Black (8mg) Pack|Yes|No||BV001858|Tircolea Zamfira Mariana I.I.|Brasov|BVHRKBA30|192|CCC HRK SOBR KS 2014|121|Horeca|0
0|CS3715722|2014-01-04 21:49:07|CRISAN|ANDREEA||F|1985-11-15|BRASOV|BRASOV|SOMESULUI|9|14|A||8|0744180108||ANDREEA_GODRI@YAHOO.COM|PARSB||0 Sobranie KS Gold  (4mg) Pack|Yes|Yes||BV001858|Tircolea Zamfira Mariana I.I.|Brasov|BVHRKBA08|192|CCC HRK SOBR KS 2014|121|Horeca|0
0|CS3715723|2014-01-04 21:51:44|CRISAN|ANDREEA|2820215080073|F|1982-02-15|BRASOV|BRASOV|C. PORUMBESCU|11|A9|A||12|0745521538||ANDREEA.CRISAN@GMAIL.COM|KTSWIT||0 Sobranie KS Blue (6mg) Pack|Yes|Yes||BV001858|Tircolea Zamfira Mariana I.I.|Brasov|BVHRKBA01|192|CCC HRK SOBR KS 2014|121|Horeca|0
0|CS3715724|2014-01-04 21:52:53|POPA|LILIANA||F|1954-08-18|BRASOV|BRASOV|NEGOIULUI|10|||||0743151160||LILIANA@YAHOO.COM|MBRGLH||0 Sobranie KS Gold  (4mg) Pack|Yes|No||BV001858|Tircolea Zamfira Mariana I.I.|Brasov|BVHRKBA30|192|CCC HRK SOBR KS 2014|121|Horeca|0
0|CS3715725|2014-01-04 21:53:35|HARPA|SEBASTIAN||M|1979-12-08|BRASOV|BRASOV|INDEPENDENTEI|104|513|D||2|0737845524||HSA_BV@YAHOO.COM|MBRGL||0 Sobranie KS Blue (6mg) Pack|Yes|Yes||BV001858|Tircolea Zamfira Mariana I.I.|Brasov|BVHRKBA08|192|CCC HRK SOBR KS 2014|121|Horeca|0
0|CS3715726|2014-01-04 21:55:19|NEAGU|MAGDALENA||F|1960-10-16|BRASOV|BRASOV|TITULESCU|2|||||0728321356||MAGDALENANEAGU@YAHOO.COM|MBRGLH||0 Sobranie KS Gold  (4mg) Pack|Yes|No||BV001858|Tircolea Zamfira Mariana I.I.|Brasov|BVHRKBA30|192|CCC HRK SOBR KS 2014|121|Horeca|0
0|CS3715727|2014-01-04 21:59:35|TITEI|BOGDAN||M|1987-11-13|BRASOV|BRASOV|MESTECANIS|2|A38|E||26|0742450083||BOGDAN_ELNINO@YAHOO.COM|KTSV||0 Sobranie KS Gold  (4mg) Pack|Yes|No||BV001858|Tircolea Zamfira Mariana I.I.|Brasov|BVHRKBA30|192|CCC HRK SOBR KS 2014|121|Horeca|0
0|CS3715728|2014-01-04 22:01:50|SERBANICA|ALEXANDRU||M|1986-05-17|BRASOV|BRASOV|POSTAVARU|1|||0|0|0754670296||ALEXANDRUSERBANICA@GMAIL.COM|KTBL||0 Sobranie KS Gold  (4mg) Pack|Yes|No||BV001858|Tircolea Zamfira Mariana I.I.|Brasov|BVHRKBA30|192|CCC HRK SOBR KS 2014|121|Horeca|0
0|CS3715729|2014-01-04 22:03:34|VRINCEANU|RAUL|1840223080123|M|1984-02-23|BRASOV|BRASOV|ALEXANDRU CEL BUN|26|F7|A|4|19|0765530134||RAUL_VRINCEANU@YAHOO.COM|DUNFCMBB||0 Sobranie KS Black (8mg) Pack|Yes|No||BV001858|Tircolea Zamfira Mariana I.I.|Brasov|BVHRKBA30|192|CCC HRK SOBR KS 2014|121|Horeca|0
0|CS3715730|2014-01-04 22:06:56|ROMAN|IONEL||M|1989-12-03|BRASOV|BRASOV|ZIZINULUI|118|118|A|1|32|0749861135||ROMANTZIGANU@YAHOO.COM|KTBL||0 Sobranie KS Black (8mg) Pack|Yes|Yes||BV001858|Tircolea Zamfira Mariana I.I.|Brasov|BVHRKBA01|192|CCC HRK SOBR KS 2014|121|Horeca|0
0|CS3715731|2014-01-04 22:10:10|ELISEI|CONSTANTIN||M|1979-08-26|BRASOV|BRASOV|ZIZINULUI|106|106||||0740287818||COSTICA_ELISEI@YAHOO.COM|KTBL||0 Sobranie KS Black (8mg) Pack|Yes|Yes||BV001858|Tircolea Zamfira Mariana I.I.|Brasov|BVHRKBA01|192|CCC HRK SOBR KS 2014|121|Horeca|0
0|CS3715732|2014-01-04 22:12:41|MIHAI|ANDREI||M|1986-10-05|BRASOV|BRASOV|DR CERNATULUI|20|4|A|1|4|0752117389||MATEI_MATEY@YAHOO.COM|MBRGLT||0 Sobranie KS Blue (6mg) Pack|Yes|Yes||BV001858|Tircolea Zamfira Mariana I.I.|Brasov|BVHRKBA01|192|CCC HRK SOBR KS 2014|121|Horeca|0
0|CS3715734|2014-01-04 22:15:59|BOHILTEANU|SIMONA|2881129080041|F|1988-11-29|BRASOV|BRASOV|DR CERNATULUI|20|4|B|2|11|0755571530||SYMO_DEEUTZA@YAHOO.COM|KTSV||0 Sobranie KS Gold  (4mg) Pack|Yes|Yes||BV001858|Tircolea Zamfira Mariana I.I.|Brasov|BVHRKBA01|192|CCC HRK SOBR KS 2014|121|Horeca|0
0|CS3715735|2014-01-04 22:19:42|BOROIANU|ADRIAN||M|1989-01-25|BRASOV|BRASOV|DRUMU CERNATULUI|20|4|A|4|16|0741516198||ADYTZA_BV_JE@YAHOO.COM|MBRGLT||0 Sobranie KS Blue (6mg) Pack|Yes|Yes||BV001858|Tircolea Zamfira Mariana I.I.|Brasov|BVHRKBA01|192|CCC HRK SOBR KS 2014|121|Horeca|0
0|CS3715736|2014-01-04 22:36:24|BREAZU|TEODOR|1741121080081|M|1974-11-21|BRASOV|BRASOV|GARII|38|34|B|0|27|0724270786||TEODOR.BREAZU@BITSOFTWARE.RO|DUNFCMBB||0 Sobranie KS Blue (6mg) Pack|Yes|Yes||BV002008|LE RAISIN|Brasov|BVHRKBA01|192|CCC HRK SOBR KS 2014|121|Horeca|0
0|CS3715737|2014-01-04 22:37:29|POPESCU|MARIA||F|1979-01-12|BRASOV|CODLEA|PETUNIEI|22|22|C|0|2|0721496897||POPESCU_MARIA@YAHOO.COM|SBKSBK||0 Sobranie KS Black (8mg) Pack|Yes|Yes||BV002008|LE RAISIN|Brasov|BVHRKBA08|192|CCC HRK SOBR KS 2014|121|Horeca|0
0|CS3715738|2014-01-04 22:38:19|VASU|MARIA|2870408080023|F|1987-04-08|BRASOV|BRASOV|VALEA CETATII|40|43||||0722193295||MARIA.VASU.MV@GMAIL.COM|KTBL||0 Sobranie KS Black (8mg) Pack|Yes|Yes||BV002008|LE RAISIN|Brasov|BVHRKBA30|192|CCC HRK SOBR KS 2014|121|Horeca|0
0|CS3715739|2014-01-04 22:39:39|GLADCA|MIHAELA||F|1973-10-18|BRASOV|BRASOV|GRIVITEI|64|F16|||6|0722527432||MARAGLADCA@YAHOO.COM|SBKSBK||0 Sobranie KS Black (8mg) Pack|Yes|Yes||BV002008|LE RAISIN|Brasov|BVHRKBA08|192|CCC HRK SOBR KS 2014|121|Horeca|0
0|CS3715740|2014-01-04 22:40:04|NAGHEL|RADU|1890816044872|M|1989-08-16|BACAU|BACAU|LIBERTATII|61|||||0721899427||NAGHELRADU89@GMAIL.COM|SBKSBK||0 Sobranie KS Black (8mg) Pack|Yes|Yes||BV002008|LE RAISIN|Brasov|BVHRKBA01|192|CCC HRK SOBR KS 2014|121|Horeca|0
0|CS3715742|2014-01-04 22:41:30|GEORGESCU|NICOLAIE||M|1980-07-29|BRASOV|BRASOV|DOBROGEANU|75|||0|0|0732654751||GEORGESCU_NICU@YAHOO.COM|KTBL||0 Sobranie KS Black (8mg) Pack|Yes|No||BV002008|LE RAISIN|Brasov|BVHRKBA30|192|CCC HRK SOBR KS 2014|121|Horeca|0
0|CS3715744|2014-01-04 22:42:41|CHELBA|VIOREL||M|1990-01-07|BRASOV|BRASOV|TIMIS TRIAJ|10|10|||1|0746943482||VIOREL.CHELBA@GMAIL.COM|CABK||0 Sobranie KS Black (8mg) Pack|Yes|Yes||BV002008|LE RAISIN|Brasov|BVHRKBA08|192|CCC HRK SOBR KS 2014|121|Horeca|0
0|CS3715748|2014-01-04 23:03:45|BAILA|VASILICA|2760617080037|F|1976-06-17|BRASOV|BRASOV|GENERAL MOLCHIULSCHI|10|1|F|4|20|0723457252||BAILAVASI@YAHOO.COM|KTNBK||0 Sobranie KS Gold  (4mg) Pack|Yes|Yes||20285300|IL CAMINETTO SRL|Brasov|BVHRKBA01|192|CCC HRK SOBR KS 2014|121|Horeca|0
0|CS3715749|2014-01-04 23:03:50|MOLDOVAN|ALEXANDRU||M|1989-12-26|BRASOV|BRASOV|FAGARASULUI|34|1|B||1|0726828655||ALEXMOLDOVANBV@GMAIL.COM|KTBL||0 Sobranie KS Black (8mg) Pack|Yes|Yes||20285300|IL CAMINETTO SRL|Brasov|BVHRKBA08|192|CCC HRK SOBR KS 2014|121|Horeca|0
0|CS3715750|2014-01-04 23:05:13|CODREANU|THEA|2911206080029|F|1991-12-06|BRASOV|BRASOV|MARTE|11|9|A||2|0752537293||THEA_CODREANU@HOTMAIL.COM|KTBL||0 Sobranie KS Black (8mg) Pack|Yes|Yes||20285300|IL CAMINETTO SRL|Brasov|BVHRKBA30|192|CCC HRK SOBR KS 2014|121|Horeca|0
0|CS3715751|2014-01-04 23:06:15|HUMELNICU|ADINA||F|1987-10-25|BRASOV|BRASOV|CONSTRUCTORILOR|20|20|||41|0754484792||HUMELNICU_ADINA@YAHOO.COM|KTBL||0 Sobranie KS Black (8mg) Pack|Yes|Yes||20285300|IL CAMINETTO SRL|Brasov|BVHRKBA08|192|CCC HRK SOBR KS 2014|121|Horeca|0
0|CS3715752|2014-01-04 23:09:36|VLASE|STEFAN||M|1984-12-27|BRASOV|BRASOV|VIDIN|20|||||0726575752||SLV.STEFAN@GMAIL.COM|DUNFCBB||0 Sobranie KS Gold  (4mg) Pack|Yes|Yes||20285300|IL CAMINETTO SRL|Brasov|BVHRKBA30|192|CCC HRK SOBR KS 2014|121|Horeca|0
0|CS3715756|2014-01-04 23:45:37|BOCOS|CLAUDIA||F|1994-12-11|BRASOV|BRASOV|SIMERIA|4|11|B||16|0758976830||CLAUDIAA_BV@YAHOO.COM|KTBL||0 Sobranie KS Black (8mg) Pack|Yes|Yes||BV001961|Deverona SRL|Brasov|BVHRKBA30|192|CCC HRK SOBR KS 2014|121|Horeca|0
0|CS3715759|2014-01-04 23:47:46|BRAN|ANDREI CATALIN|1940522082561|M|1994-05-22|BRASOV|ZARNESTI|DR. TIBERIU SPARCHEZ|22|||||0757454056||CATALINUS_2007@YAHOO.COM|SBKSGD||0 Sobranie KS Gold  (4mg) Pack|Yes|Yes||BV001961|Deverona SRL|Brasov|BVHRKBA01|192|CCC HRK SOBR KS 2014|121|Horeca|0
0|CS3715760|2014-01-04 23:48:14|COLTOFEANU|ANCA|2950518080022|F|1995-05-18|BRASOV|BRASOV|MURESULUI|9|E21|B||10|0720962299||ANCA.COLTOFEANU@YAHOO.COM|DUNFCMBB||0 Sobranie KS Blue (6mg) Pack|Yes|Yes||BV001961|Deverona SRL|Brasov|BVHRKBA30|192|CCC HRK SOBR KS 2014|121|Horeca|0
0|CS3715762|2014-01-04 23:51:44|SALAVASTRU|ROXANA||F|1991-10-05|BRASOV|TELIU|ANA IPATESCU|562|||||0751651554||SALAVASTRU-ROXANA@YAHOO.COM|SBKSGD|SBSSPK|0 Sobranie KS Gold  (4mg) Pack|Yes|Yes||BV001961|Deverona SRL|Brasov|BVHRKBA01|192|CCC HRK SOBR KS 2014|121|Horeca|0
0|CS3715755|2014-01-04 23:52:08|BUTA|MIRUNA||F|1995-10-19|BRASOV|BRASOV|SARMISEGETUZA|6|42|B||17|0745559818||MIRUNARAMONA@YAHOO.COM|DUNFCMBB||0 Sobranie KS Blue (6mg) Pack|Yes|Yes||BV001961|Deverona SRL|Brasov|BVHRKBA08|192|CCC HRK SOBR KS 2014|121|Horeca|0
0|CS3715757|2014-01-04 23:52:08|SUDITU|TUDOR|1921107080067|M|1992-11-07|BRASOV|BRASOV|INDEPENDENTEI|9|341|A|2|6|0752684095||TUDOR33SUD@YAHOO.COM|DUNBL||0 Sobranie KS Black (8mg) Pack|Yes|Yes||BV001961|Deverona SRL|Brasov|BVHRKBA08|192|CCC HRK SOBR KS 2014|121|Horeca|0
0|CS3715761|2014-01-04 23:52:08|ARDELEANU|GEORGE||M|1988-09-18|BRASOV|BRASOV|MIJLOC|33|||||0723432388||ARDELEANU.GEORGE@GMAIL.COM|MBRGLFT||0 Sobranie KS Gold  (4mg) Pack|Yes|No||BV001961|Deverona SRL|Brasov|BVHRKBA08|192|CCC HRK SOBR KS 2014|121|Horeca|0
0|CS3715763|2014-01-04 23:53:18|BESCHEA|CIPRIAN||M|1990-05-12|BRASOV|BRASOV|CALEA BUCURESTI|30|A3|B||15|0760297223||CIPRIBESCH_90@YAHOO.COM|KTSV||0 Sobranie KS Gold  (4mg) Pack|Yes|No||BV001961|Deverona SRL|Brasov|BVHRKBA30|192|CCC HRK SOBR KS 2014|121|Horeca|0
0|CS3715765|2014-01-04 23:55:18|RAILEANU|LOREDANA||F|1994-10-10|BRASOV|ZARNESTI|MARE|173|3||2|40|0745690455||LORE_BV44@YAHOO.COM|SBKSGD||0 Sobranie KS Gold  (4mg) Pack|Yes|Yes||BV001961|Deverona SRL|Brasov|BVHRKBA01|192|CCC HRK SOBR KS 2014|121|Horeca|0
0|CS3715766|2014-01-04 23:57:19|BANCILA|MARIUS||M|1988-04-06|BRASOV|BRASOV|HARMANULUI|12|||||0756443556|||DUNFCBB||0 Sobranie KS Gold  (4mg) Pack|Yes|No||BV001961|Deverona SRL|Brasov|BVHRKBA01|192|CCC HRK SOBR KS 2014|121|Horeca|0
0|FS1300353|2014-01-03 20:50:13||||F|||||||||||||KTSV||||||||||192|CCC HRK SOBR KS 2014|121|Horeca|0
0|FS1300354|2014-01-03 20:50:31||||M|||||||||||||ROTH||||||||||192|CCC HRK SOBR KS 2014|121|Horeca|0
0|FS1300355|2014-01-03 20:50:50||||M|||||||||||||CAFI||||||||||192|CCC HRK SOBR KS 2014|121|Horeca|0
0|FS1300356|2014-01-03 20:50:56||||M|||||||||||||ROTH||||||||||192|CCC HRK SOBR KS 2014|121|Horeca|0
0|FS1300364|2014-01-03 20:53:03||||M|||||||||||||ROTH||||||||||192|CCC HRK SOBR KS 2014|121|Horeca|0
0|FS1300365|2014-01-03 20:55:17||||M|||||||||||||ROTH||||||||||192|CCC HRK SOBR KS 2014|121|Horeca|0
0|FS1300376|2014-01-03 21:20:28||||M|||||||||||||MBRRD||||||||||192|CCC HRK SOBR KS 2014|121|Horeca|0
0|FS1300379|2014-01-03 21:20:49||||M|||||||||||||MBRRD||||||||||192|CCC HRK SOBR KS 2014|121|Horeca|0
0|FS1300382|2014-01-03 21:21:47||||M|||||||||||||PARAB||||||||||192|CCC HRK SOBR KS 2014|121|Horeca|0
0|FS1300387|2014-01-03 21:48:24||||M|||||||||||||MBRRD||||||||||192|CCC HRK SOBR KS 2014|121|Horeca|0
0|FS1300401|2014-01-03 21:54:49||||F|||||||||||||VOGLL||||||||||192|CCC HRK SOBR KS 2014|121|Horeca|0
0|FS1300409|2014-01-03 22:28:26||||F|||||||||||||KTBLH||||||||||192|CCC HRK SOBR KS 2014|121|Horeca|0
0|FS1300410|2014-01-03 22:28:29||||F|||||||||||||VIRSPR||||||||||192|CCC HRK SOBR KS 2014|121|Horeca|0
0|FS1300412|2014-01-03 22:28:55|||||||||||||||||VIRSPR||||||||||192|CCC HRK SOBR KS 2014|121|Horeca|0
0|FS1300415|2014-01-03 22:52:20||||F|||||||||||||PMSSGR||||||||||192|CCC HRK SOBR KS 2014|121|Horeca|0
0|FS1300416|2014-01-03 23:01:43||||M|||||||||||||KTH||||||||||192|CCC HRK SOBR KS 2014|121|Horeca|0
0|FS1300417|2014-01-03 23:02:01||||F|||||||||||||VOGABP||||||||||192|CCC HRK SOBR KS 2014|121|Horeca|0
0|FS1300438|2014-01-03 23:42:44||||F|||||||||||||VIRSM||||||||||192|CCC HRK SOBR KS 2014|121|Horeca|0
0|FS1300441|2014-01-03 23:43:25||||F|||||||||||||VIRSPR||||||||||192|CCC HRK SOBR KS 2014|121|Horeca|0
0|FS1300447|2014-01-03 23:44:24||||M|||||||||||||WIBL||||||||||192|CCC HRK SOBR KS 2014|121|Horeca|0
0|FS1300703|2014-01-04 20:20:28||||F|||||||||||||SBSSWH||||||||||192|CCC HRK SOBR KS 2014|121|Horeca|0
0|FS1300704|2014-01-04 20:20:41|||||||||||||||||MBRRDH||||||||||192|CCC HRK SOBR KS 2014|121|Horeca|0
0|FS1300705|2014-01-04 20:21:57||||F|||||||||||||CNTBD||||||||||192|CCC HRK SOBR KS 2014|121|Horeca|0
0|FS1300719|2014-01-04 20:44:47||||F|||||||||||||DUNFCMBB||||||||||192|CCC HRK SOBR KS 2014|121|Horeca|0
0|FS1300726|2014-01-04 21:10:09||||F|||||||||||||MBRGL||||||||||192|CCC HRK SOBR KS 2014|121|Horeca|0
0|FS1300728|2014-01-04 21:14:44||||F|||||||||||||KTBL6||||||||||192|CCC HRK SOBR KS 2014|121|Horeca|0
0|FS1300729|2014-01-04 21:15:27||||M|||||||||||||CHSTRD||||||||||192|CCC HRK SOBR KS 2014|121|Horeca|0
0|FS1300744|2014-01-04 21:44:03||||F|||||||||||||VOGBL||||||||||192|CCC HRK SOBR KS 2014|121|Horeca|0
0|FS1300747|2014-01-04 21:52:00|||||||||||||||||GLMMNT||||||||||192|CCC HRK SOBR KS 2014|121|Horeca|0
0|FS1300748|2014-01-04 21:52:31||||M|||||||||||||KTNWH||||||||||192|CCC HRK SOBR KS 2014|121|Horeca|0
0|FS1300749|2014-01-04 21:52:53||||F|||||||||||||DAVGLS||||||||||192|CCC HRK SOBR KS 2014|121|Horeca|0
0|FS1300764|2014-01-04 22:42:26||||M|||||||||||||LSRD||||||||||192|CCC HRK SOBR KS 2014|121|Horeca|0
0|FS1300769|2014-01-04 23:11:25||||M|||||||||||||DAVCL||||||||||192|CCC HRK SOBR KS 2014|121|Horeca|0
