0|CS194053|2012-06-09 10:53:13|Dumitru|Maria||F|1993-06-04|Bucuresti|SECTOR 6|Visternicul stavrinos|17|56|C|3|37|0727349076||maria.irina.dumitru@gmail.com|GLMLIL||Glamour Lilac (5mg) 0 Pack|Yes|Yes||BWR05111|TROTTER RESTAURANT SRL|Bucuresti|BWEVENTBA11|35|CCC EVENT GLAM BASE 2012|121|Horeca|0
0|CS194142|2012-06-09 11:20:36|Mirea|Georgiana||F|1985-10-08|Bucuresti|SECTOR 2|||||||0723132265||gia.mirea@gmail.com|KTBL||Glamour Lilac (5mg) 0 Pack|Yes|Yes||BWR05111|TROTTER RESTAURANT SRL|Bucuresti|BWEVENTBA13|35|CCC EVENT GLAM BASE 2012|121|Horeca|0
0|CS194145|2012-06-09 11:20:55|Stefan|Andreea||F|1984-08-10|Bucuresti|SECTOR 4|Aleea covasna|2|F14|1|4|25|0720807060||ratzushk20@yahoo.com|DAVSVSS||Glamour Azure (3mg) 0 Pack|Yes|Yes||BWR05111|TROTTER RESTAURANT SRL|Bucuresti|BWEVENTBA11|35|CCC EVENT GLAM BASE 2012|121|Horeca|0
0|CS194158|2012-06-09 11:23:25|Mirea|Ruxandra||F|1981-07-13|Bucuresti|SECTOR 2|||||||0745138026||ruxishor@yahoo.com|KTBL|GLMLIL|Glamour Lilac (5mg) 0 Pack|Yes|Yes||BWR05111|TROTTER RESTAURANT SRL|Bucuresti|BWEVENTBA13|35|CCC EVENT GLAM BASE 2012|121|Horeca|0
0|CS194161|2012-06-09 11:24:11|Parvulet|Roxana||F|1984-07-13|Bucuresti|SECTOR 4|Izvorul crisului|10|D3|D|0|34|0726369240||parvuletroxana@yahoo.com|KTSV||Glamour Azure (3mg) 0 Pack|Yes|Yes||BWR05111|TROTTER RESTAURANT SRL|Bucuresti|BWEVENTBA11|35|CCC EVENT GLAM BASE 2012|121|Horeca|0
0|CS194178|2012-06-09 11:27:48|Dascalu|Cora||F|1989-01-01|Bucuresti|SECTOR 2|||||||0768152873||dascalu.cora@gmail.com|KTCON|KTSV|Glamour Azure (3mg) 0 Pack|Yes|Yes||BWR05111|TROTTER RESTAURANT SRL|Bucuresti|BWEVENTBA13|35|CCC EVENT GLAM BASE 2012|121|Horeca|0
0|CS194182|2012-06-09 11:28:57|Nicolae|Diana||F|1985-04-04|Bucuresti|SECTOR 1|Prometeu|6|12g|1|0|3|0726322279||nicolae_diana2004@yahoo.com|VOGM||Glamour Menthol (5mg) 0 Pack|Yes|Yes||BWR05111|TROTTER RESTAURANT SRL|Bucuresti|BWEVENTBA11|35|CCC EVENT GLAM BASE 2012|121|Horeca|0
0|CS194186|2012-06-09 11:30:58|Crăciun|Anca||F|1985-06-06|Constanta|CONSTANTA|||||||0751456564||craciunanca85@yahoo.com|VOGLL||Glamour Lilac (5mg) 0 Pack|Yes|Yes||BWR05111|TROTTER RESTAURANT SRL|Bucuresti|BWEVENTBA13|35|CCC EVENT GLAM BASE 2012|121|Horeca|0
0|CS194187|2012-06-09 11:31:16|Vlasceanu|Ioana||F|1987-03-30|Bucuresti|SECTOR 1|Smaranda braescu|23|10h|2|2|26|0721226795||ioanarrr@yahoo.com|VIRSPR||Glamour Lilac (5mg) 0 Pack|Yes|Yes||BWR05111|TROTTER RESTAURANT SRL|Bucuresti|BWEVENTBA11|35|CCC EVENT GLAM BASE 2012|121|Horeca|0
0|CS194203|2012-06-09 11:34:54|Dragos|Klara||F|1986-11-16|Bucuresti|SECTOR 2|||||||0763621149||k_klary@yahoo.com|GLMBL|MBRGLT|Glamour Azure (3mg) 0 Pack + accesoriu|Yes|Yes||BWR05111|TROTTER RESTAURANT SRL|Bucuresti|BWEVENTBA13|35|CCC EVENT GLAM BASE 2012|121|Horeca|0
0|CS194249|2012-06-09 11:48:01|Tanase|Carmen||F|1981-12-09|Bucuresti|SECTOR 1|Marinarilor|17-19|6/3|C|0|32|0744815764||cathy_tanase@hotmail.com|VOGM||Glamour Menthol (5mg) 0 Pack + accesoriu|Yes|Yes||BWR05111|TROTTER RESTAURANT SRL|Bucuresti|BWEVENTBA11|35|CCC EVENT GLAM BASE 2012|121|Horeca|0
0|CS194309|2012-06-09 12:07:59|Tudorache|Mirela||F|1979-02-26|Bucuresti|SECTOR 4|||||||0745209710||mirelasecan@yahoo.com|GLMMNT|VOGM|Glamour Menthol (5mg) 0 Pack|Yes|Yes||BWR05111|TROTTER RESTAURANT SRL|Bucuresti|BWEVENTBA13|35|CCC EVENT GLAM BASE 2012|121|Horeca|0
0|CS194311|2012-06-09 12:08:22|Zisi|Alexandra||F|1985-11-22|Bucuresti|SECTOR 1|||||||0722309131||alexandrazisi@yahoo.com|MBRFPEX||Glamour Azure (3mg) 0 Pack|Yes|Yes||BWR05111|TROTTER RESTAURANT SRL|Bucuresti|BWEVENTBA11|35|CCC EVENT GLAM BASE 2012|121|Horeca|0
0|CS194344|2012-06-09 12:18:29|Chiscop|Tesa||F|1988-11-14|Bucuresti|SECTOR 1|||||||0732313772||tess.chiscop@gmail.com|GLMBL||Glamour Azure (3mg) 0 Pack|Yes|Yes||BWR05111|TROTTER RESTAURANT SRL|Bucuresti|BWEVENTBA13|35|CCC EVENT GLAM BASE 2012|121|Horeca|0
0|CS194366|2012-06-09 12:23:23|Tabusca|Alina||F|1986-07-05|Bucuresti|SECTOR 3|||||||0757834251||alina.tabusca@gmail.com|GLMMNT||Glamour Menthol (5mg) 0 Pack|Yes|No||BWR05111|TROTTER RESTAURANT SRL|Bucuresti|BWEVENTBA13|35|CCC EVENT GLAM BASE 2012|121|Horeca|0
0|CS194468|2012-06-09 12:50:39|Ghica|Alexandra||F|1973-11-30|Bucuresti|SECTOR 1|Barbu Delavrancea|51|||||0743019269||alexgh73@yahoo.de|GLMBL||Glamour Azure (3mg) 0 Pack|Yes|Yes||BWR05111|TROTTER RESTAURANT SRL|Bucuresti|BWEVENTBA13|35|CCC EVENT GLAM BASE 2012|121|Horeca|0
0|CS194480|2012-06-09 12:53:41|Gheorghe|Andreia||F|1976-12-18|Bucuresti|SECTOR 5|Mihail Sebastian|133|||||0724235672||gandreia2000@yahoo.co.uk|DUNFCSV||Glamour Lilac (5mg) 0 Pack + accesoriu|Yes|Yes||BWR05111|TROTTER RESTAURANT SRL|Bucuresti|BWEVENTBA13|35|CCC EVENT GLAM BASE 2012|121|Horeca|0
0|CS194563|2012-06-09 13:14:17|Omat|Irina||F|1983-02-28|Bucuresti|SECTOR 3|||||||0732063063||ira_herself@yahoo.com|MBRFPEX||Glamour Azure (3mg) 0 Pack|Yes|Yes||BWR05111|TROTTER RESTAURANT SRL|Bucuresti|BWEVENTBA13|35|CCC EVENT GLAM BASE 2012|121|Horeca|0
0|CS194696|2012-06-09 13:51:26|Tanase|Lidia||F|1983-03-16|Bucuresti|SECTOR 6|Zboina neagra|6|||||0723677588||lid_tan@yahoo.com|VOGLL||Glamour Azure (3mg) 0 Pack|Yes|Yes||BWR05111|TROTTER RESTAURANT SRL|Bucuresti|BWEVENTBA11|35|CCC EVENT GLAM BASE 2012|121|Horeca|0
0|CS194721|2012-06-09 13:59:59|Pitur|Clara||F|1982-04-19|Olt|SLATINA|||||||0724279630||clara_pitur@yahoo.com|GLMBL||Glamour Azure (3mg) 0 Pack|Yes|Yes||BWR05111|TROTTER RESTAURANT SRL|Bucuresti|BWEVENTBA11|35|CCC EVENT GLAM BASE 2012|121|Horeca|0
0|CS194758|2012-06-09 14:12:35|Topa|Alexandra||F|1988-05-13|Bucuresti|SECTOR 1|||||||0749242951||axee2ss@yahoo.com|VOGM||Glamour Menthol (5mg) 0 Pack|Yes|Yes||BWR05111|TROTTER RESTAURANT SRL|Bucuresti|BWEVENTBA11|35|CCC EVENT GLAM BASE 2012|121|Horeca|0
0|CS194794|2012-06-09 14:27:37|Manole|Corina||F|1979-08-22|Bucuresti|SECTOR 3|||||||0722312600||cmanole@yahoo.com|GLMBL||Glamour Azure (3mg) 0 Pack|Yes|Yes||BWR05111|TROTTER RESTAURANT SRL|Bucuresti|BWEVENTBA13|35|CCC EVENT GLAM BASE 2012|121|Horeca|0
0|CS194835|2012-06-09 14:39:13|Boca|Andrada||F|1982-04-02|Bucuresti|SECTOR 3|||||||0723534095||corbeanu_andradacamelia@yahoo.ro|MBRFP||Glamour Lilac (5mg) 0 Pack + accesoriu|Yes|No||BWR05111|TROTTER RESTAURANT SRL|Bucuresti|BWEVENTBA11|35|CCC EVENT GLAM BASE 2012|121|Horeca|0
0|CS194845|2012-06-09 14:42:14|Blasianu|Ilinca||F|1985-07-17|Bucuresti|SECTOR 5|Dr lister|21|||0|0|0721956978||ilinca.blasianu@yahoo.com|VIRSM||Glamour Menthol (5mg) 0 Pack|Yes|Yes||BWR05111|TROTTER RESTAURANT SRL|Bucuresti|BWEVENTBA11|35|CCC EVENT GLAM BASE 2012|121|Horeca|0
0|CS194856|2012-06-09 14:44:49|Ateia|Shadia||F|1984-12-31|Bucuresti|SECTOR 5|||||||0728305521||mizu_ays@yahoo.com|MBRFP||Glamour Lilac (5mg) 0 Pack|Yes|No||BWR05111|TROTTER RESTAURANT SRL|Bucuresti|BWEVENTBA11|35|CCC EVENT GLAM BASE 2012|121|Horeca|0
0|CS194865|2012-06-09 14:48:02|Boca|Alexandra||F|1985-02-14|Bucuresti|SECTOR 3|Alexandra Vlahuta|2|||0|0|0722967715||lexyboca@gmail.com|PMSSOR||Glamour Azure (3mg) 0 Pack|Yes|Yes||BWR05111|TROTTER RESTAURANT SRL|Bucuresti|BWEVENTBA11|35|CCC EVENT GLAM BASE 2012|121|Horeca|0
0|CS194911|2012-06-09 15:05:36|Cioflan|Gabriela||F|1992-01-01|Prahova|BARCANESTI|||||||0761277564||gabitza_si_atat@yahoo.com|SBSSWH||Glamour Azure (3mg) 0 Pack|Yes|Yes||BWR05111|TROTTER RESTAURANT SRL|Bucuresti|BWEVENTBA11|35|CCC EVENT GLAM BASE 2012|121|Horeca|0
0|CS194912|2012-06-09 15:05:40|Ciovica|Mihaela||F|1991-09-19|Bucuresti|SECTOR 1|Bd marasti|3|||||0743309434||ubitzyk_miky@yahoo.com|SBSSWH||Glamour Azure (3mg) 0 Pack|Yes|Yes||BWR05111|TROTTER RESTAURANT SRL|Bucuresti|BWEVENTBA13|35|CCC EVENT GLAM BASE 2012|121|Horeca|0
0|CS194964|2012-06-09 15:25:02|Albulescu|Ana||F|1976-11-15|Ilfov|CIOROGARLA|Ana ipatescu|88|||||0767081492||anaalbulescu@yahoo.com|PMSSBL||Glamour Lilac (5mg) 0 Pack|Yes|Yes||BWR05111|TROTTER RESTAURANT SRL|Bucuresti|BWEVENTBA13|35|CCC EVENT GLAM BASE 2012|121|Horeca|0
0|CS194974|2012-06-09 15:28:38|Cristescu|Silvia||F|1988-12-06|Bucuresti|SECTOR 2|Filipide|13|||||0742867302||silvia.cristescu@amelie.ro|MBRFPEX||Glamour Lilac (5mg) 0 Pack + accesoriu|Yes|No||BWR05111|TROTTER RESTAURANT SRL|Bucuresti|BWEVENTBA13|35|CCC EVENT GLAM BASE 2012|121|Horeca|0
0|CS194986|2012-06-09 15:34:57|Moldovan|Andreea||F|1990-12-08|Bucuresti|SECTOR 5|Dumbrava noua|33|P3|5|5|133|0757077607||andreeac.moldovan@yahoo.com|GLMMNT||Glamour Menthol (5mg) 0 Pack|Yes|Yes||BWR05111|TROTTER RESTAURANT SRL|Bucuresti|BWEVENTBA13|35|CCC EVENT GLAM BASE 2012|121|Horeca|0
0|CS194995|2012-06-09 15:40:10|Raru|Tatiana||F|1984-10-23|Bucuresti|SECTOR 3|Gheorghe petrascu|10|7|4|6|143|0785567298||t23r@mail.ru|PARSS||Glamour Lilac (5mg) 0 Pack|Yes|Yes||BWR05111|TROTTER RESTAURANT SRL|Bucuresti|BWEVENTBA13|35|CCC EVENT GLAM BASE 2012|121|Horeca|0
0|CS195073|2012-06-09 16:19:57|Balcan|Crina||F|1985-07-30|Ilfov|DOBROESTI|||||||0764446002||crina.balcan@gmail.com|KTSV|DUNBL|Glamour Lilac (5mg) 0 Pack|Yes|Yes||BWR05111|TROTTER RESTAURANT SRL|Bucuresti|BWEVENTBA13|35|CCC EVENT GLAM BASE 2012|121|Horeca|0
0|CS195156|2012-06-09 16:54:44|Pavel|Andreea||F|1989-06-13|Bucuresti|SECTOR 2|Doamna Ghica|5|3|2|9|76|0765707589||deea_jewelish@yahoo.com|SBSSPK|SBSSWH|Glamour Azure (3mg) 0 Pack|Yes|Yes||BWR05111|TROTTER RESTAURANT SRL|Bucuresti|BWEVENTBA13|35|CCC EVENT GLAM BASE 2012|121|Horeca|0
0|CS195240|2012-06-09 17:29:21|Butu|Oana||F|1981-02-04|Bucuresti|SECTOR 1|||||||0758407532||oanabutu@yahoo.com|DUNFCSV||Glamour Azure (3mg) 0 Pack + accesoriu|Yes|Yes||BWR05111|TROTTER RESTAURANT SRL|Bucuresti|BWEVENTBA11|35|CCC EVENT GLAM BASE 2012|121|Horeca|0
0|CS195246|2012-06-09 17:30:21|Agavriloaei|Diana||F|1986-08-06|Iasi|IASI|Ștefan cel mare|8|||||0733519540||diana-mirela.agavriloaei@yahoo.com|GLMBL||Glamour Azure (3mg) 0 Pack + accesoriu|Yes|No||BWR05111|TROTTER RESTAURANT SRL|Bucuresti|BWEVENTBA13|35|CCC EVENT GLAM BASE 2012|121|Horeca|0
0|CS195292|2012-06-09 17:57:21|Sandu|Raluca||F|1981-08-31|Bucuresti|SECTOR 4|Soseaua Vitan barzesti|7d|4|B|10|552|0722591776||ralucapaltanea@yahoo.com|KTBL||Glamour Lilac (5mg) 0 Pack|Yes|Yes||BWR05111|TROTTER RESTAURANT SRL|Bucuresti|BWEVENTBA13|35|CCC EVENT GLAM BASE 2012|121|Horeca|0
0|CS195309|2012-06-09 18:06:22|Savu|Andra||F|1985-10-30|Bucuresti|SECTOR 1|Nicolae golescu|5|||||0762666660||andra.savu@yahoo.com|KTBL||Glamour Lilac (5mg) 0 Pack|Yes|No||BWR05111|TROTTER RESTAURANT SRL|Bucuresti|BWEVENTBA11|35|CCC EVENT GLAM BASE 2012|121|Horeca|0
0|CS195315|2012-06-09 18:08:32|Sichitiu|Loredana||F|1985-01-06|Bucuresti|SECTOR 1|Pieței|3|||||0766688499||roredana2006@yahoo.com|VIRSUPK||Glamour Lilac (5mg) 0 Pack|Yes|Yes||BWR05111|TROTTER RESTAURANT SRL|Bucuresti|BWEVENTBA13|35|CCC EVENT GLAM BASE 2012|121|Horeca|0
0|CS195328|2012-06-09 18:18:04|Ciorei|Catalina||F|1988-04-09|Valcea|RAMNICU VALCEA|||||||0741202810||catalina.ciorei@gmail.com|VOGM||Glamour Menthol (5mg) 0 Pack|Yes|Yes||BWR05111|TROTTER RESTAURANT SRL|Bucuresti|BWEVENTBA13|35|CCC EVENT GLAM BASE 2012|121|Horeca|0
0|CS195332|2012-06-09 18:18:48|Safer|Alinw||F|1988-10-26|Bucuresti|SECTOR 1|Stefan stoica|22|||||0734523566||alina.safer@yahoo.com|VOGLL||Glamour Azure (3mg) 0 Pack|Yes|No||BWR05111|TROTTER RESTAURANT SRL|Bucuresti|BWEVENTBA11|35|CCC EVENT GLAM BASE 2012|121|Horeca|0
0|CS195337|2012-06-09 18:21:28|Galeriu|Alina||F|1987-08-07|Bucuresti|SECTOR 4|Aleea Izvorul crisului|4|A5|C|3|42|0763610387||alina.galeriu@yahoo.com|PMGR||Glamour Menthol (5mg) 0 Pack|Yes|No||BWR05111|TROTTER RESTAURANT SRL|Bucuresti|BWEVENTBA13|35|CCC EVENT GLAM BASE 2012|121|Horeca|0
0|CS195339|2012-06-09 18:23:59|Topor|Andreea corina||F|1991-01-29|Bucuresti|SECTOR 3|Petre ionescu|2|||||0766962943||corina.topor@yahoo.com|GLMBL||Glamour Azure (3mg) 0 Pack|Yes|No||BWR05111|TROTTER RESTAURANT SRL|Bucuresti|BWEVENTBA11|35|CCC EVENT GLAM BASE 2012|121|Horeca|0
0|CS195349|2012-06-09 18:28:08|Tabusca|Maricica||F|1948-08-09|Vaslui|DANESTI|||||||0745768449|||GLMBL||Glamour Azure (3mg) 0 Pack|Yes|No||BWR05111|TROTTER RESTAURANT SRL|Bucuresti|BWEVENTBA11|35|CCC EVENT GLAM BASE 2012|121|Horeca|0
0|CS195353|2012-06-09 18:30:10|Apostol|Alexandra||F|1983-09-05|Bucuresti|SECTOR 2|Colentina|16|A3||5|46|0755503584||alexandra@alexandra-apostol.com|GLMLIL||Glamour Lilac (5mg) 0 Pack + accesoriu|Yes|Yes||BWR05111|TROTTER RESTAURANT SRL|Bucuresti|BWEVENTBA13|35|CCC EVENT GLAM BASE 2012|121|Horeca|0
0|CS195356|2012-06-09 18:31:35|Dinu|Andreea||F|1989-02-16|Bucuresti|SECTOR 4|Poterasi|12|||||0730552898||andreea.dinu@bodyexprim.ro|KTBL|GLMLIL|Glamour Lilac (5mg) 0 Pack + accesoriu|Yes|Yes||BWR05111|TROTTER RESTAURANT SRL|Bucuresti|BWEVENTBA11|35|CCC EVENT GLAM BASE 2012|121|Horeca|0
0|CS195368|2012-06-09 18:37:36|Veron|Alexandra||F|1985-11-25|Bucuresti|2|||||||0721683515||alexa_veron@yahoo.fr|KTBL||Glamour Lilac (5mg) 0 Pack|Yes|Yes||BWR05111|TROTTER RESTAURANT SRL|Bucuresti|BWEVENTBA11|35|CCC EVENT GLAM BASE 2012|121|Horeca|0
0|FS288980|2012-06-09 18:01:58||||F|||||||||||||SOBCOK||||||||||35|CCC EVENT GLAM BASE 2012|121|Horeca|0
0|FS288981|2012-06-09 18:01:59||||F|||||||||||||SOBCOK||||||||||35|CCC EVENT GLAM BASE 2012|121|Horeca|0
