0|CS237087|2012-07-14 11:41:55|Gunta|Daniela||F|1976-12-16|Bihor|ORADEA|Simion Barnutiu|32|C8|-|6|17|0758477988||danagunta2005@yahoo.com|PMBL||Winston Blue (6mg) Pack|Yes|Yes||BH000841|SARILMA COM SRL|Oradea|BHDTCBA01|46|CCC MULTI Tim 2012|121|Retail|0
0|CS237102|2012-07-14 11:50:12|Opris|Georgiana||F|1989-06-05|Salaj|TREZNEA|Principala|270|--|-|-|1|0745678988|0260658093|dana_opris89@yahoo.com|WIBL||Winston Blue (6mg) Pack|Yes|Yes||BH004682|GERARDANI SRL|Oradea|BHDTCBA05|46|CCC MULTI Tim 2012|121|Retail|0
0|CS237118|2012-07-14 11:53:53|Chioreanu|Ana||F|1950-02-06|Bihor|Oradea|Sovata|42|Pb9|-|5|33|0740705231|0259455677|chioreanu567@yahoo.com|GLPBMN||Bricheta Glamour|Yes|Yes||BH004682|GERARDANI SRL|Oradea|BHDTCBA05|46|CCC MULTI Tim 2012|121|Retail|0
0|CS237131|2012-07-14 11:59:58|Kaszpnyi|Marcela||F|1951-07-16|Cluj|CAMPIA TURZII|Piata Mihai Viteazu|11|142|C32|1|32|0740374612||kaszonyiarcela@yahoo.com|WICLH||Winston 100s Clasic (10 mg)  Pack|Yes|Yes||BH000841|SARILMA COM SRL|Oradea|BHDTCBA01|46|CCC MULTI Tim 2012|121|Retail|0
0|CS237170|2012-07-14 12:21:15|Karancsi|Bogdan||M|1983-05-28|Cluj|AGHIRESU FABRICI|Principala|276|276|1|0|3|0740559108||for_3v3r_young_28@yahoo.com|CABK||Camel Black (6mg) Pack|Yes|Yes||BH000841|SARILMA COM SRL|Oradea|BHDTCBA01|46|CCC MULTI Tim 2012|121|Retail|0
0|CS237193|2012-07-14 12:29:33|Tarau |Cristian||M|1991-11-08|Bihor|ORADEA|Arany Janos|12|-|-|-|2|0747985671||speedy_g_91@yahoo.com|LMBL||Winston 100s Blue (6 mg)  Pack|Yes|Yes||BH000841|SARILMA COM SRL|Oradea|BHDTCBA01|46|CCC MULTI Tim 2012|121|Retail|0
0|CS237195|2012-07-14 12:31:04|Martin|Ramona||F|1986-04-01|Bihor|Oradea|Andritoiu|9|Pb8|-|-|2|0757718383|0259788865|martin54@yahoo.com|GLPBMNFT||Bricheta Glamour|Yes|No||BH004682|GERARDANI SRL|Oradea|BHDTCBA05|46|CCC MULTI Tim 2012|121|Retail|0
0|CS237222|2012-07-14 12:44:28|Peneac|Mario||M|1990-07-01|Bihor|ORADEA|Sovata|57|Pb36|-|4|16|0745932344|0259000000|peneacmario@yahoo.com|KTBL||Bricheta Camel|Yes|Yes||BH000841|SARILMA COM SRL|Oradea|BHDTCBA01|46|CCC MULTI Tim 2012|121|Retail|0
0|CS237226|2012-07-14 12:47:15|Fasie|Ionela||F|1987-05-03|Bihor|ORADEA|Gradinarilor|31|Pc10|-|4|9|0743808266|0259000000|ionelafasie@ymail.com|VIRSUPK||Bricheta Glamour|Yes|Yes||BH000841|SARILMA COM SRL|Oradea|BHDTCBA01|46|CCC MULTI Tim 2012|121|Retail|0
0|CS237241|2012-07-14 12:52:37|Miron|Maria||F|1963-01-02|Bihor|Oradea|Drumul hotarului|19a|-|-|-||0745678988|0259777888|mitonmaria@yahoo.com|GLMBL||Bricheta Glamour|Yes|Yes||BH004682|GERARDANI SRL|Oradea|BHDTCBA05|46|CCC MULTI Tim 2012|121|Retail|0
0|CS237272|2012-07-14 13:07:31|Laczi|Stefan||M|1964-05-08|Cluj|CLUJ NAPOCA|Ciucas|7|Q4|2|4|37|0747214425|0264555777|pisti44@yahoo.com|WIBL||Winston Blue (6mg) Pack|Yes|Yes||BH004682|GERARDANI SRL|Oradea|BHDTCBA05|46|CCC MULTI Tim 2012|121|Retail|0
0|CS237300|2012-07-14 13:15:00|Sfarle|Patricia||F|1991-07-05|Bihor|Oradea|Nufarului|15|D136|-|1|5|0743488483|0259888866|patry17_crazy_girl@yahoo.com|CABK||Bricheta Camel|Yes|Yes||BH004682|GERARDANI SRL|Oradea|BHDTCBA05|46|CCC MULTI Tim 2012|121|Retail|0
0|CS237308|2012-07-14 13:18:44|Popa|Vlad||M|1989-07-14|Bihor|Oradea|Menumorut|2|B105|-|5|17|0741964457|0259777888|mafio_tu_89@yahoo.com|WIBL||Winston Blue (6mg) Pack|Yes|Yes||BH004682|GERARDANI SRL|Oradea|BHDTCBA05|46|CCC MULTI Tim 2012|121|Retail|0
0|CS237322|2012-07-14 13:25:43|Salajan|Ioan||M|1986-06-04|Bihor|Oradea|Bumbacului|27|Pb33|-|3|15|0746077506|0259888777|salajanioan@yahoo.com|WIBLH||Winston 100s Blue (6 mg)  Pack|Yes|Yes||BH004682|GERARDANI SRL|Oradea|BHDTCBA05|46|CCC MULTI Tim 2012|121|Retail|0
0|CS237324|2012-07-14 13:26:44|Luca|Alex||M|1982-06-28|Bistrita Nasaud|CICEU MIHAIESTI|Principala|36|-|-|-||0743005667|0259000000|alex_dutch@yahoo.com|WIBL||Bricheta Winston|Yes|Yes||BH000841|SARILMA COM SRL|Oradea|BHDTCBA01|46|CCC MULTI Tim 2012|121|Retail|0
0|CS237333|2012-07-14 13:30:38|Sicoe|Gheorghe||M|1976-04-21|Alba|Abrud|Aleea plopului|O|R|2|4|15|0729399125|0245666777|gsicoe@gmail.com|WISSS||Bricheta Winston|Yes|Yes||BH004682|GERARDANI SRL|Oradea|BHDTCBA05|46|CCC MULTI Tim 2012|121|Retail|0
0|CS237343|2012-07-14 13:33:53|Marcu|Cristina||F|1989-12-14|Sibiu|SIBIU|Decebal|2|_|-|-||0754626763|0259000000|crystinutzza_2005@yahoo.com|KTSV||Bricheta Camel|Yes|Yes||BH000841|SARILMA COM SRL|Oradea|BHDTCBA01|46|CCC MULTI Tim 2012|121|Retail|0
0|CS237346|2012-07-14 13:35:04|Salajan|Teodora||F|1988-07-25|Bihor|SANMARTIN|Principala|-|Q1|-|2|10|0753509094|0259788866|dora_d27@yahoo.com|WIBLH||Winston 100s Blue (6 mg)  Pack|Yes|Yes||BH004682|GERARDANI SRL|Oradea|BHDTCBA05|46|CCC MULTI Tim 2012|121|Retail|0
0|CS237356|2012-07-14 13:38:41|Chirila|Nicolae||M|1954-08-02|Alba|ALBA IULIA|Poienitei|7|-|-|-||0754980650|0258810067|chirilanicolae@yahoo.com|MBRRD||Bricheta Camel|Yes|Yes||BH000841|SARILMA COM SRL|Oradea|BHDTCBA01|46|CCC MULTI Tim 2012|121|Retail|0
0|CS237358|2012-07-14 13:38:52|Popa|Lucian Bogdan||M|1989-07-12|Bihor|Oradea|Menumorut|2|D105|-|5|17|0745548398|0259888777|lucibumbi@yahoo.com|WIBLH||Winston 100s Blue (6 mg)  Pack|Yes|Yes||BH004682|GERARDANI SRL|Oradea|BHDTCBA05|46|CCC MULTI Tim 2012|121|Retail|0
0|CS237376|2012-07-14 13:45:06|Jeler|Mihaela||F|1981-01-02|Salaj|Zalau|Simion barnutiu|31h|H10|-|2|12|0742004298|0265888999|mihaela_jeker2000@yahoo.com|WISSS||Bricheta Winston|Yes|Yes||BH004682|GERARDANI SRL|Oradea|BHDTCBA05|46|CCC MULTI Tim 2012|121|Retail|0
0|CS237377|2012-07-14 13:45:59|Damsa|Calin||M|1961-02-18|Cluj|CLUJ NAPOCA|Cipariu|9|1a|3|3|30|0723239836|0259000000|calindamsa@hotmail.com|DAVGL||Bricheta Camel|Yes|Yes||BH000841|SARILMA COM SRL|Oradea|BHDTCBA01|46|CCC MULTI Tim 2012|121|Retail|0
0|CS237384|2012-07-14 13:47:23|Pop|Anca||F|1980-07-25|Salaj|Zalau|Simion barnutiu|31|H10|A|2|12|0733410229|0265777666|mihaele_jeler2000@yahoo.com|WISSB||Bricheta Winston|Yes|Yes||BH004682|GERARDANI SRL|Oradea|BHDTCBA05|46|CCC MULTI Tim 2012|121|Retail|0
0|CS237391|2012-07-14 13:48:51|Zamfir|Mihai||M|1976-12-09|Bihor|STEI|Independentei|40|40|-|1|6|0742830314|0259000000|misu_zamfir@yahoo.com|MBRRD||Bricheta Camel|Yes|Yes||BH000841|SARILMA COM SRL|Oradea|BHDTCBA01|46|CCC MULTI Tim 2012|121|Retail|0
0|CS237395|2012-07-14 13:50:55|Sicoe|Manuela||F|1979-12-22|Alba|Abrud|Alea plopului|1|8|-|4|15|0733085672|0265777888|manuela.sicoe@gmail.com|WIBL||Bricheta Winston|Yes|Yes||BH004682|GERARDANI SRL|Oradea|BHDTCBA05|46|CCC MULTI Tim 2012|121|Retail|0
0|CS237465|2012-07-14 14:27:45|Buksa|Ovidiu||M|1988-05-22|Bihor|ORADEA|D. Cantemir|47|U47||4|20|0746282805|0359433210|buksaovidiu@gmail.com|WIBLH||Bricheta Winston|Yes|Yes||BH000841|SARILMA COM SRL|Oradea|BHDTCBA01|46|CCC MULTI Tim 2012|121|Retail|0
0|CS237473|2012-07-14 14:38:01|Abrudan|Diana||F|1985-11-11|Bihor|ORADEA|Dacia|110| B1|D|1|85|0743142703|0259000000|dragos.diana@yahoo.com|KTSV||Bricheta Camel|Yes|Yes||BH000841|SARILMA COM SRL|Oradea|BHDTCBA01|46|CCC MULTI Tim 2012|121|Retail|0
0|CS237477|2012-07-14 14:40:23|Abrudan|Florian||M|1972-03-25|Bihor|SANMARTIN|Stefan cel Mare|61/a|-|-|-||0744580715|0259000000|f_abrudan@yahoo.com|PHMQBL||Bricheta Winston|Yes|Yes||BH000841|SARILMA COM SRL|Oradea|BHDTCBA01|46|CCC MULTI Tim 2012|121|Retail|0
0|CS237479|2012-07-14 14:42:18|Tanca|Florin||M|1974-02-14|Bihor|Oradea|Sextil puscariu|1|-a|-|2|14|0728990716|0269766544|tancaflorin@yahoo.com|CAFI||Bricheta Camel|Yes|Yes||BH004682|GERARDANI SRL|Oradea|BHDTCBA05|46|CCC MULTI Tim 2012|121|Retail|0
0|CS237497|2012-07-14 14:58:13|Stan|Florin||M|1986-01-29|Arad|Arad|Calea timisoarei|12|W2|A|1|6|0745677566|0257444555|stanflorin@yahoo.com|CAFI||Bricheta Camel|Yes|Yes||BH004682|GERARDANI SRL|Oradea|BHDTCBA05|46|CCC MULTI Tim 2012|121|Retail|0
0|CS237503|2012-07-14 15:15:50|Varga|Istvan||M|1972-09-21|Bihor|Oradea|Nufarului|76|N76|-|7|26|0756557654|0259888777|norbyjudo1992@yahoo.com|WISSS||Winston Super Slims Silver (3mg) Pack|Yes|Yes||BH004682|GERARDANI SRL|Oradea|BHDTCBA05|46|CCC MULTI Tim 2012|121|Retail|0
0|CS237504|2012-07-14 15:18:03|Lechintan|Ionut||M|1980-05-30|Bihor|ORADEA|Moldovei|11d|Pb12|-|1|7|0740220518|0259000000|ionut.lechintan@yahoo.com|DUNBL||Bricheta Camel|Yes|Yes||BH000841|SARILMA COM SRL|Oradea|BHDTCBA01|46|CCC MULTI Tim 2012|121|Retail|0
0|CS237505|2012-07-14 15:18:39|Varga|Piroska||F|1986-10-01|Bihor|ORADEA|Nufarului|76|An76|-|7|26|0756557655|0259777666|piroska1233@yahoo.com|WISSS||Bricheta Winston|Yes|Yes||BH004682|GERARDANI SRL|Oradea|BHDTCBA05|46|CCC MULTI Tim 2012|121|Retail|0
0|CS237507|2012-07-14 15:22:15|Pop|Alexandru||M|1984-07-04|Salaj|Treznea|Principala|300|A|A|A|6|0746377665|0265444777|marius_popa84@yahoo.com|WIBLH||Winston 100s Blue (6 mg)  Pack|Yes|Yes||BH004682|GERARDANI SRL|Oradea|BHDTCBA05|46|CCC MULTI Tim 2012|121|Retail|0
0|CS237508|2012-07-14 15:24:41|Criste|Monica||F|1973-08-31|Salaj|Treznea|Principala|123|A|A|A|4|0747022167|0265444666|monica.criste@yahoo.com|WIBL||Winston Blue (6mg) Pack|Yes|Yes||BH004682|GERARDANI SRL|Oradea|BHDTCBA05|46|CCC MULTI Tim 2012|121|Retail|0
0|CS237514|2012-07-14 15:31:31|Groza|Daniel||M|1977-10-24|Bihor|Marghita|Aleea tineretului|1|1|A|1|4|0746797604|0265777888|dandanyel34@yahoo.ro|CABK||Camel Black (6mg) Pack|Yes|Yes||BH004682|GERARDANI SRL|Oradea|BHDTCBA05|46|CCC MULTI Tim 2012|121|Retail|0
0|CS237517|2012-07-14 15:34:59|Trip|Daniela||F|1986-07-14|Bihor|ORADEA|Tuberozelor|15|-|-|-||0751527790||daniela_consuela@yahoo.com|KTBL||Bricheta Camel|Yes|Yes||BH000841|SARILMA COM SRL|Oradea|BHDTCBA01|46|CCC MULTI Tim 2012|121|Retail|0
0|CS237520|2012-07-14 15:41:19|Soroceanu|Danut||M|1958-03-22|Neamt|PIATRA NEAMT|Bd .traian|78|H2|C76|6|76|0745424633|0259000000|soro.ceanu@yahoo.com|WISV||Winston Silver (4 mg) Pack|Yes|Yes||BH000841|SARILMA COM SRL|Oradea|BHDTCBA01|46|CCC MULTI Tim 2012|121|Retail|0
0|CS237525|2012-07-14 15:45:50|Naghi|Cristian-ovidiu||M|1986-08-26|Bihor|ORADEA|Octavian Goga|21|-|-|-|2|0754846257|0259000000|cristian.naghi@yahoo.com|MBRRDH||Winston 100s Clasic (10 mg)  Pack|Yes|Yes||BH000841|SARILMA COM SRL|Oradea|BHDTCBA01|46|CCC MULTI Tim 2012|121|Retail|0
0|CS237527|2012-07-14 15:49:12|Salajan|Anca||F|1971-06-23|Bihor|Oradea|Bumbacului|27|Pb33|A|3|15|0751098207|0259888777|salajanyuo@yahoo.com|GLMLIL||Glamour Lilac (5mg) Pack|Yes|Yes||BH004682|GERARDANI SRL|Oradea|BHDTCBA05|46|CCC MULTI Tim 2012|121|Retail|0
0|CS237531|2012-07-14 15:51:21|Hobinca|Daniela||F|1984-12-26|Neamt|AGAPIA|Principala|561|-|-|-||0740042763|0259000000|danielah@gmail.com|WIBL||Winston Blue (6mg) Pack|Yes|Yes||BH000841|SARILMA COM SRL|Oradea|BHDTCBA01|46|CCC MULTI Tim 2012|121|Retail|0
0|CS237533|2012-07-14 15:58:32|Nase|Sandor||M|1977-11-27|Cluj|CLUJ NAPOCA|Mehedinti|35|84|A|-|21|0743096413|0264555444|gabibarbymanasses@yahoo.it|WIBL||Winston Blue (6mg) Pack|Yes|Yes||BH004682|GERARDANI SRL|Oradea|BHDTCBA05|46|CCC MULTI Tim 2012|121|Retail|0
0|CS237535|2012-07-14 16:01:52|Buda|Gabriela||F|1977-12-26|Cluj|CLUJ NAPOCA|Mehedinti|35|84|1|2|10|0745190060|0264555666|gabymanaszes@yahoo.it|WIBL||Bricheta Winston|Yes|Yes||BH004682|GERARDANI SRL|Oradea|BHDTCBA05|46|CCC MULTI Tim 2012|121|Retail|0
0|CS237538|2012-07-14 16:03:35|Giurgiu|Gheorghe||M|1949-04-22|Mures|SIGHISOARA|Dragos Voda|21|-|-|-||0743000000|0265777949|gheorghe.giurgiu@ymail.com|KTBL6||Bricheta Camel|Yes|Yes||BH000841|SARILMA COM SRL|Oradea|BHDTCBA01|46|CCC MULTI Tim 2012|121|Retail|0
0|CS237541|2012-07-14 16:15:23|Nagy|Dana||F|1976-07-28|Bihor|ORADEA|Aleea Rogerius|2c|N3|A|2|29|0747860042|0359467489|danutanagy@yahoo.com|PMBL||Bricheta Winston|Yes|Yes||BH000841|SARILMA COM SRL|Oradea|BHDTCBA01|46|CCC MULTI Tim 2012|121|Retail|0
0|CS237599|2012-07-14 17:20:54|Geamana|Alexandru||M|1987-09-20|Botosani|Botosani|Aleea Mihail kogalniceanu|2|I2|C|2|9|0757395920||geambo_alex@yahoo.com|DUNFCDB||Bricheta Camel|Yes|Yes||IS002034|VIOBET IMPEX SRL|Iasi|ISDTCBA02|46|CCC MULTI Tim 2012|121|Retail|0
0|CS237603|2012-07-14 17:23:54|Nazarcu|Bogdan||M|1992-06-09|Botosani|Rauseni|Sărăciei|17|0|0|0|0|0742706255||bogdan_nazy@yahoo.com|DUNFCDB||Bricheta Camel|Yes|Yes||IS002034|VIOBET IMPEX SRL|Iasi|ISDTCBA02|46|CCC MULTI Tim 2012|121|Retail|0
0|CS237613|2012-07-14 17:28:46|Maric|Ovidiu||M|1979-08-16|Suceava|Suceava|Obcinilor|11|45|A|21||0745139225||taniabobu79@yahoo.com|DUNFCDB||Camel Black (6mg) Pack|Yes|Yes||IS002034|VIOBET IMPEX SRL|Iasi|ISDTCBA02|46|CCC MULTI Tim 2012|121|Retail|0
0|CS237621|2012-07-14 17:33:22|Tudor|Iuliana||F|1986-07-16|Bucuresti|Bucuresti|Calea ferentari|12|123|3|6|111|0727852692||nicoletaiuliana.tudor@yahoo.com|KTBL||Camel Black (6mg) Pack|Yes|Yes||IS002034|VIOBET IMPEX SRL|Iasi|ISDTCBA02|46|CCC MULTI Tim 2012|121|Retail|0
0|CS237623|2012-07-14 17:34:52|Pana|Daniel||M|1982-04-02|Bucuresti|SECTOR 5|Al Bacău|2|H2|1|0|14|0762372350||panadaniel2009@yahoo.com|CABK||Bricheta Camel|Yes|Yes||IS002034|VIOBET IMPEX SRL|Iasi|ISDTCBA02|46|CCC MULTI Tim 2012|121|Retail|0
0|CS237639|2012-07-14 17:40:42|Marin|Mircea||M|1979-05-08|Dambovita|Târgoviște|Ploii fără soț|41|0||0|0|0742479056||marinmircea@yahoo.com|KTBL||Bricheta Winston|Yes|Yes||IS002034|VIOBET IMPEX SRL|Iasi|ISDTCBA02|46|CCC MULTI Tim 2012|121|Retail|0
0|CS237649|2012-07-14 17:46:02|Andrei|Bogdan||M|1985-08-29|Iasi|Iasi|Hatman sendrea|21|H3|C|1|4|0756282492||ozibogdan@yahoo.com|KTBL|WIBL|Bricheta Camel|Yes|Yes||IS002034|VIOBET IMPEX SRL|Iasi|ISDTCBA02|46|CCC MULTI Tim 2012|121|Retail|0
0|CS237664|2012-07-14 17:52:05|Stefan|Valeriu||M|1971-04-26|Bucuresti|Sector 2|Pantelimon|255|43|C|10|120|0727700134||puiut_71@yahoo.com|CAFI||Bricheta Camel|Yes|Yes||IS002034|VIOBET IMPEX SRL|Iasi|ISDTCBA02|46|CCC MULTI Tim 2012|121|Retail|0
0|CS237694|2012-07-14 18:03:02|Ianculescu|Codin||M|1964-09-07|Vaslui|Vaslui|Scaricica|6|0|0|0|5|0744905901||masterweb@easynet.ro|MBRFPEX||Camel White (4 mg) Pack|Yes|Yes||IS002034|VIOBET IMPEX SRL|Iasi|ISDTCBA02|46|CCC MULTI Tim 2012|121|Retail|0
0|CS237703|2012-07-14 18:07:36|Pascariu|Cristian||M|1985-04-30|Iasi|IASI|Hamciuc|9|384|B|3|15|0746866089||pascariu.cristian@yahoo.com|KTBL||Camel Black (6mg) Pack|Yes|Yes||IS002034|VIOBET IMPEX SRL|Iasi|ISDTCBA04|46|CCC MULTI Tim 2012|121|Retail|0
0|CS237705|2012-07-14 18:07:59|Scarlat|Ioana||F|1988-01-28|Iasi|Fantaneni|Principala|10|0|0|0|0|0748839728||ioana_scarlat@yahoo.com|WIBL||Bricheta Winston|Yes|Yes||IS002034|VIOBET IMPEX SRL|Iasi|ISDTCBA02|46|CCC MULTI Tim 2012|121|Retail|0
0|CS237727|2012-07-14 18:19:16|Cozma|Cristina||F|1979-04-20|Iasi|Iasi|Izvor|14|629|C|8|29|0740209538||karla_2love@yahoo.com|KTBL||Winston Blue (6mg) Pack|Yes|Yes||IS002034|VIOBET IMPEX SRL|Iasi|ISDTCBA04|46|CCC MULTI Tim 2012|121|Retail|0
0|CS237728|2012-07-14 18:19:21|Baicanescu|Alexandra||F|1988-06-10|Neamt|Agapia|Principala|10|||0|0|0744284868||baik_alexandra@yahoo.com|KTSV||Bricheta Camel|Yes|Yes||IS002034|VIOBET IMPEX SRL|Iasi|ISDTCBA02|46|CCC MULTI Tim 2012|121|Retail|0
0|CS237760|2012-07-14 18:32:31|Paraschiv|Petru||M|1978-06-28|Iasi|Iasi|Calea galata|16|E4a|E|4|16|0743690535||el_pedros@yahoo.com|KTSV||Bricheta Camel|Yes|Yes||IS002034|VIOBET IMPEX SRL|Iasi|ISDTCBA03|46|CCC MULTI Tim 2012|121|Retail|0
0|CS237768|2012-07-14 18:36:15|Dascalu|Viorel||M|1979-07-12|Iasi|Iasi|Cuza voda|33|D|C|1|30|0743803663||viodascalu79@yahoo.com|WIBLH|KTH|Winston 100s Blue (6 mg)  Pack|Yes|Yes||IS002034|VIOBET IMPEX SRL|Iasi|ISDTCBA02|46|CCC MULTI Tim 2012|121|Retail|0
0|CS237770|2012-07-14 18:36:58|Grama|Cristina||F|1992-04-12|Buzau|RAMNICU SARAT|Piața halelor|0|9C|0|2|14|0767088186||cry_babyblue@yahoo.com|VOGM||Bricheta Glamour|Yes|Yes||IS002034|VIOBET IMPEX SRL|Iasi|ISDTCBA04|46|CCC MULTI Tim 2012|121|Retail|0
0|CS237782|2012-07-14 18:42:30|Idelbi|Mazen||M|1961-07-11|Iasi|Iasi|Moara de foc|9|B|B|1|1|0751680018||idelbimazen@yahoo.com|MBRRD||Camel Filters (10mg) Pack|Yes|Yes||IS002034|VIOBET IMPEX SRL|Iasi|ISDTCBA03|46|CCC MULTI Tim 2012|121|Retail|0
0|CS237783|2012-07-14 18:43:04|Zamfir|Daniela||F|1989-05-30|Iasi|Iasi|Bradului|27|H12|A|1|5|0747714754||pryntzessa_mika@yahoo.com|KTSV||Bricheta Camel|Yes|Yes||IS002034|VIOBET IMPEX SRL|Iasi|ISDTCBA02|46|CCC MULTI Tim 2012|121|Retail|0
0|CS237798|2012-07-14 18:50:52|Nicolae|Lucia||F|1955-12-12|Bucuresti|Bucuresti|Aleea barajul rovinari|14|M7a|1|1|5|0740657101||nicolae_lucia@yahoo.com|GLMMNT||Bricheta Glamour|Yes|Yes||IS002034|VIOBET IMPEX SRL|Iasi|ISDTCBA03|46|CCC MULTI Tim 2012|121|Retail|0
0|CS237804|2012-07-14 18:53:10|Livadaru|Elena||F|1975-04-14|Iasi|Iasi|Socială|4b|Q1|A|4|19|0748772849||llivadaru.elena@yahoo.com|KTCON||Bricheta Camel|Yes|Yes||IS002034|VIOBET IMPEX SRL|Iasi|ISDTCBA02|46|CCC MULTI Tim 2012|121|Retail|0
0|CS237822|2012-07-14 18:57:51|Gagea|Alexandra||F|1985-08-18|Iasi|Iasi|Pantelimon|10|F5|A|3|13|0748709801||anca_alove@yahoo.com|VOGABP||Bricheta Glamour|Yes|Yes||IS002034|VIOBET IMPEX SRL|Iasi|ISDTCBA02|46|CCC MULTI Tim 2012|121|Retail|0
0|CS237830|2012-07-14 19:00:41|Ivascu|Gabriel||M|1962-02-15|Iasi|IASI|Socola|4|C4|A|4|17|0722568981|||CAFI||Camel Filters (10mg) Pack|Yes|Yes||IS002034|VIOBET IMPEX SRL|Iasi|ISDTCBA04|46|CCC MULTI Tim 2012|121|Retail|0
0|CS237835|2012-07-14 19:02:53|Lungu|Cosmin||M|1990-02-12|Iasi|Iasi|Radu voda|18|770|A|4|17|0753928533||lungu_cosmin90@yahoo.com|KTBL||Bricheta Camel|Yes|Yes||IS002034|VIOBET IMPEX SRL|Iasi|ISDTCBA03|46|CCC MULTI Tim 2012|121|Retail|0
0|CS237842|2012-07-14 19:05:33|Turcanu|Angelica||F|1964-01-07|Iasi|IASI|Vasile lupu|87|L2|A|3|1|0722564898||angelica.turcanu@yahoo.com|KTH||Bricheta Camel|Yes|Yes||IS002034|VIOBET IMPEX SRL|Iasi|ISDTCBA04|46|CCC MULTI Tim 2012|121|Retail|0
0|CS237851|2012-07-14 19:11:21|Dascalu|Alina||F|1981-03-07|Iasi|IASI|Cuza voda|33bis|D|C|1|30|0740682148||alidascalu@yahoo.com|WIBLH||Winston 100s Blue (6 mg)  Pack|Yes|Yes||IS002034|VIOBET IMPEX SRL|Iasi|ISDTCBA04|46|CCC MULTI Tim 2012|121|Retail|0
0|CS237855|2012-07-14 19:14:24|Buduroi|Stefania||F|1973-11-20|Iasi|Iasi|Sarariei|47|0|0|0|0|0756620248|||WIBLH||Winston 100s Blue (6 mg)  Pack|Yes|Yes||IS002034|VIOBET IMPEX SRL|Iasi|ISDTCBA02|46|CCC MULTI Tim 2012|121|Retail|0
0|CS237872|2012-07-14 19:21:55|Pruteanu|Razvan||M|1986-01-11|Iasi|Iasi|Calea nationala|56|7|A|4|13|0756646082||rpruteanu27@gmail.com|WIBL|KTBL|Bricheta Winston|Yes|Yes||IS002034|VIOBET IMPEX SRL|Iasi|ISDTCBA02|46|CCC MULTI Tim 2012|121|Retail|0
0|CS237878|2012-07-14 19:23:34|Amitroae|Marian||M|1982-08-21|Iasi|Iasi|Tudor neculai|21|A2|D|1|4|0745145092||amitroaemarian@yahoo.com|KTBL||Bricheta Camel|Yes|Yes||IS002034|VIOBET IMPEX SRL|Iasi|ISDTCBA03|46|CCC MULTI Tim 2012|121|Retail|0
0|CS237886|2012-07-14 19:25:26|Bulai|Ovidiu||F|1979-05-23|Iasi|IASI|Salciilor|7|829|C|4|17|0740575690||bulai_ovidiu@yahoo.com|KTH||Bricheta Winston|Yes|Yes||IS002034|VIOBET IMPEX SRL|Iasi|ISDTCBA04|46|CCC MULTI Tim 2012|121|Retail|0
0|CS237888|2012-07-14 19:25:53|Sandru|Marius||M|1988-10-23|Iasi|IASI|Culmea domnitei|3|0|0|0|0|0749475923||eu_marius_17@yahoo.com|CAWH|MBRGLFT|Bricheta Camel|Yes|Yes||IS002034|VIOBET IMPEX SRL|Iasi|ISDTCBA02|46|CCC MULTI Tim 2012|121|Retail|0
0|CS237896|2012-07-14 19:28:47|Dinca|Adrian||M|1978-06-30|Iasi|Iasi|Mircea cel batran|18|R8|B|2|9|0742989168||dincadrian@yahoo.com|PMBL||Winston Blue (6mg) Pack|Yes|Yes||IS002034|VIOBET IMPEX SRL|Iasi|ISDTCBA03|46|CCC MULTI Tim 2012|121|Retail|0
0|CS237917|2012-07-14 19:33:43|Stoleru|Oana||F|1984-07-12|Iasi|Iasi|Calea galata|2|0|0|0|0|0745943101||oana_stoleru@yahoo.com|KTBL|PMBL|Camel Black (6mg) Pack|Yes|Yes||IS002034|VIOBET IMPEX SRL|Iasi|ISDTCBA02|46|CCC MULTI Tim 2012|121|Retail|0
0|CS237955|2012-07-14 19:43:41|Rata|Razvan||M|1989-05-22|Iasi|Iasi|Ciurchi|7|0|0|0|0|0755244703||panteraleo17@yahoo.com|WIBL||Winston Blue (6mg) Pack|Yes|Yes||IS002034|VIOBET IMPEX SRL|Iasi|ISDTCBA03|46|CCC MULTI Tim 2012|121|Retail|0
0|CS237970|2012-07-14 19:45:53|Tanasa|Claudiu||M|1975-12-02|Iasi|Iasi|Diminetii|18|791|A|2|9|0745974143||amalia_tanasa@yahoo.com|WIBL||Winston Blue (6mg) Pack|Yes|Yes||IS002034|VIOBET IMPEX SRL|Iasi|ISDTCBA02|46|CCC MULTI Tim 2012|121|Retail|0
0|CS237994|2012-07-14 19:49:57|Stan|Ionel||M|1982-08-07|Iasi|Iasi|Galata|2|O9|A|1|6|0753460010||oana_stoleru@yahoo.com|KTSV||Bricheta Camel|Yes|Yes||IS002034|VIOBET IMPEX SRL|Iasi|ISDTCBA02|46|CCC MULTI Tim 2012|121|Retail|0
0|CS238000|2012-07-14 19:51:40|Dumitrascu|Bogdan||M|1986-08-08|Iasi|Iasi|Potiers|177|60|B|1|6|0747751165||ttypu@yahoo.com|MBRFP||Bricheta Camel|Yes|Yes||IS002034|VIOBET IMPEX SRL|Iasi|ISDTCBA03|46|CCC MULTI Tim 2012|121|Retail|0
0|CS238010|2012-07-14 19:52:54|Bighiu|Oana||F|1989-02-19|Iasi|Iasi|Naționala|38|251|0|7|30|0742689072||oana_vexa@yahoo.com|KTH||Winston 100s Clasic (10 mg)  Pack|Yes|Yes||IS002034|VIOBET IMPEX SRL|Iasi|ISDTCBA04|46|CCC MULTI Tim 2012|121|Retail|0
0|CS238012|2012-07-14 19:53:14|Dinca|George||M|1985-04-16|Iasi|Iasi|Mircea cel batran|18|R8|B|2|9|0756362580||dincageorge@yahoo.com|PMBL||Winston Blue (6mg) Pack|Yes|Yes||IS002034|VIOBET IMPEX SRL|Iasi|ISDTCBA03|46|CCC MULTI Tim 2012|121|Retail|0
0|CS238038|2012-07-14 19:59:25|Tofan|Marius||M|1987-08-11|Iasi|Iasi|Pojarniciei|20|0|0|0|0|0741742386||marius_eu42@yahoo.com|KTBL||Camel Black (6mg) Pack|Yes|Yes||IS002034|VIOBET IMPEX SRL|Iasi|ISDTCBA03|46|CCC MULTI Tim 2012|121|Retail|0
0|CS238051|2012-07-14 20:01:34|Enascut|Camelia||F|1990-10-02|Iasi|Iasi|Codrescu|20|E1|A|P|5|0747352294||cameliaenescut@yahoo.com|KTBL||Bricheta Camel|Yes|Yes||IS002034|VIOBET IMPEX SRL|Iasi|ISDTCBA03|46|CCC MULTI Tim 2012|121|Retail|0
0|CS238080|2012-07-14 20:07:17|Samson|Nicu||M|1967-09-21|Iasi|Iasi|Prof inculet|19|679|B|3|14|0771357926||nicusamson@yahoo.com|KTBL||Bricheta Camel|Yes|Yes||IS002034|VIOBET IMPEX SRL|Iasi|ISDTCBA02|46|CCC MULTI Tim 2012|121|Retail|0
0|CS238092|2012-07-14 20:09:07|Pindariu|Florin||M|1975-07-14|Galati|GALATI|Feroviarilor|4|1|B|0|22|0751101606||florinpindariu@yahoo.com|CAFI||Bricheta Camel|Yes|Yes||IS002034|VIOBET IMPEX SRL|Iasi|ISDTCBA04|46|CCC MULTI Tim 2012|121|Retail|0
0|CS238106|2012-07-14 20:13:10|Butnarasu|Andrei||M|1985-10-22|Iasi|IASI|Garii|8|L20|0|0|11|0761146826||andrei.butarasu@gmail.com|DUNBL||Bricheta Camel|Yes|Yes||IS002034|VIOBET IMPEX SRL|Iasi|ISDTCBA03|46|CCC MULTI Tim 2012|121|Retail|0
0|CS238112|2012-07-14 20:14:52|Augustin|Johhny||M|1989-11-25|Iasi|Iasi|Musatini|51|B2|B|3|13|0762846488||augustin_johnny@yahoo.com|DUNFCDB||Bricheta Camel|Yes|Yes||IS002034|VIOBET IMPEX SRL|Iasi|ISDTCBA02|46|CCC MULTI Tim 2012|121|Retail|0
0|CS238116|2012-07-14 20:15:27|Mihaita|Valentina||F|1965-02-21|Vaslui|HUSI|Jos Ion roata|13|0|0|0|0|0766363515||valentinamihaita@yahoo.com|PMBL||Winston 100s Blue (6 mg)  Pack|Yes|Yes||IS002034|VIOBET IMPEX SRL|Iasi|ISDTCBA04|46|CCC MULTI Tim 2012|121|Retail|0
0|CS238143|2012-07-14 20:18:59|Sfarc|Alexandra||F|1984-04-02|Iasi|Iasi|Sf lazar|18|K1|0|2|8|0742018159||georgiana_alexxa@yahoo.com|GLMBL||Glamour Azure (3mg) Pack|Yes|Yes||IS002034|VIOBET IMPEX SRL|Iasi|ISDTCBA03|46|CCC MULTI Tim 2012|121|Retail|0
0|CS238147|2012-07-14 20:19:15|Siminica|Claudiu||M|1992-03-15|Iasi|IASI|Mitropolit Varlam|5|C4|0|4|123|0746429008||cr3tzu_92@yahoo.com|KTBL||Bricheta Camel|Yes|Yes||IS002034|VIOBET IMPEX SRL|Iasi|ISDTCBA04|46|CCC MULTI Tim 2012|121|Retail|0
0|CS238174|2012-07-14 20:22:45|Atomuresei|Ion||M|1983-12-06|Iasi|Iasi|Musatini|19|0|0|0|0|0743920366||ionato@yahoo.com|KTBL||Camel Black (6mg) Pack|Yes|Yes||IS002034|VIOBET IMPEX SRL|Iasi|ISDTCBA02|46|CCC MULTI Tim 2012|121|Retail|0
0|CS238214|2012-07-14 20:27:09|Craus|Clement||M|1979-05-25|Iasi|Iasi|Vasile lupu|112|C2|A|1|3|0744598800||clement_craus@yahoo.com|PMBL||Winston Blue (6mg) Pack|Yes|Yes||IS002034|VIOBET IMPEX SRL|Iasi|ISDTCBA02|46|CCC MULTI Tim 2012|121|Retail|0
0|CS238247|2012-07-14 20:31:20|Bateala|Anca||F|1984-07-02|Iasi|IASI|Rufeni|31|0|0|0|0|0752902555||anca.bateala@gmail.com|DUNFCDB||Camel Black (6mg) Pack|Yes|Yes||IS002034|VIOBET IMPEX SRL|Iasi|ISDTCBA04|46|CCC MULTI Tim 2012|121|Retail|0
0|CS238277|2012-07-14 20:35:15|Morosan|Madalina||M|1990-08-26|Iasi|IASI|Nicolina|2A|G9|0|10|66|0744952929||madalinamorosan@yahoo.com|WIBL||Winston Blue (6mg) Pack|Yes|Yes||IS002034|VIOBET IMPEX SRL|Iasi|ISDTCBA04|46|CCC MULTI Tim 2012|121|Retail|0
0|CS238308|2012-07-14 20:38:17|Caras|Dorina||F|1980-11-26|Iasi|Iasi|Galata|1|G1a|Tr3|1|3|0723076385||ecaterinae@yahoo.com|LMBL||Bricheta Winston|Yes|Yes||IS002034|VIOBET IMPEX SRL|Iasi|ISDTCBA03|46|CCC MULTI Tim 2012|121|Retail|0
0|CS238323|2012-07-14 20:40:23|Moraru|Vlad||M|1991-05-10|Iasi|Iasi|Vasile lupu|154|H2-2|0|4|3|0740971477||vervecaffevents@yahoo.com|PMEKRD||Bricheta Winston|Yes|Yes||IS002034|VIOBET IMPEX SRL|Iasi|ISDTCBA04|46|CCC MULTI Tim 2012|121|Retail|0
0|CS238324|2012-07-14 20:40:26|Caras|Gabriel||F|1979-11-17|Iasi|Iasi|Galata|1|G1a|Tr3|1|3|0724002875||caras_gabriel@yahoo.com|LMBLH||Winston 100s Blue (6 mg)  Pack|Yes|Yes||IS002034|VIOBET IMPEX SRL|Iasi|ISDTCBA03|46|CCC MULTI Tim 2012|121|Retail|0
0|CS238365|2012-07-14 20:44:29|Tofan|Dragos||M|1991-07-26|Bacau|Bacău|Nicu enea|54|54|B|2|26|0747464288||tofifi_dragos@yahoo.com|KTBL||Bricheta Camel|Yes|Yes||IS002034|VIOBET IMPEX SRL|Iasi|ISDTCBA02|46|CCC MULTI Tim 2012|121|Retail|0
0|CS238405|2012-07-14 20:48:47|Onica|Margareta||F|1974-07-10|Iasi|Iasi|Libertatii|48|615|B|5|4|0742945610||miki_monica@yahoo.com|MBRGLFT||Bricheta Camel|Yes|Yes||IS002034|VIOBET IMPEX SRL|Iasi|ISDTCBA02|46|CCC MULTI Tim 2012|121|Retail|0
0|CS238433|2012-07-14 20:51:11|Androne|Eduard||M|1980-01-01|Iasi|Aroneanu|Principala|1|0|0|0|0|0741149170||eandrone@yahoo.com|LSRD||Bricheta Camel|Yes|Yes||IS002034|VIOBET IMPEX SRL|Iasi|ISDTCBA02|46|CCC MULTI Tim 2012|121|Retail|0
0|CS238462|2012-07-14 20:54:33|Farga|Marius||M|1972-02-27|Iasi|Iasi|Bucium|36|D|0|P|1|0723232619||mariusfarga@gmail.com|PMBL||Winston 100s Blue (6 mg)  Pack|Yes|Yes||IS002034|VIOBET IMPEX SRL|Iasi|ISDTCBA03|46|CCC MULTI Tim 2012|121|Retail|0
0|CS238471|2012-07-14 20:55:38|Grămadă|Dan||M|1980-10-05|Iasi|Iasi|Crisului|8|A12|A|2|3|0744433787||dan.gramada@gmail.com|KTNBK||Bricheta Winston|Yes|Yes||IS002034|VIOBET IMPEX SRL|Iasi|ISDTCBA02|46|CCC MULTI Tim 2012|121|Retail|0
0|CS238515|2012-07-14 21:00:47|Rusu|Ana Maria||F|1985-01-15|Iasi|Iasi|Ciurchi|105|F5|F|1|1|0754492605||rusu.ana_maria@yahoo.com|WISSB||Winston Super Slims Blue (5mg) Pack|Yes|Yes||IS002034|VIOBET IMPEX SRL|Iasi|ISDTCBA02|46|CCC MULTI Tim 2012|121|Retail|0
0|CS238564|2012-07-14 21:05:45|Bargan|Vasile||M|1969-03-24|Iasi|Iasi|Egalitatii|10|840|A|1|5|0723218690||vasilemar@yahoo.com|WISSS||Bricheta Winston|Yes|Yes||IS002034|VIOBET IMPEX SRL|Iasi|ISDTCBA03|46|CCC MULTI Tim 2012|121|Retail|0
0|CS238574|2012-07-14 21:06:40|Dragan|Bogdan||M|1987-06-12|Iasi|Iasi|Strapungerii Silvestru|52|T3-4|B|4|13|0749844402||xaon_87@yahoo.com|KTBL||Bricheta Camel|Yes|Yes||IS002034|VIOBET IMPEX SRL|Iasi|ISDTCBA02|46|CCC MULTI Tim 2012|121|Retail|0
0|CS238612|2012-07-14 21:10:23|Panainte|Cristian||M|1985-03-13|Iasi|IASI|Primăverii|23|D3|A|4|20|0741408236||dj_pandan@yahoo.com|PMBL||Bricheta Winston|Yes|Yes||IS002034|VIOBET IMPEX SRL|Iasi|ISDTCBA04|46|CCC MULTI Tim 2012|121|Retail|0
0|CS238620|2012-07-14 21:11:17|Tifui|Diana||F|1987-12-22|Neamt|Patria neamt|Mihai viteazu|0|0|0|0|0|0751352091||dianutza_tifiu@yahoo.com|KTBL||Camel Black (6mg) Pack|Yes|Yes||IS002034|VIOBET IMPEX SRL|Iasi|ISDTCBA04|46|CCC MULTI Tim 2012|121|Retail|0
0|CS238671|2012-07-14 21:16:04|Sofronie|Daniel||M|1984-03-05|Iasi|Iasi|Marta|39|0|0|0|0|0743952494||new_dany@yahoo.com|KTH||Winston 100s Clasic (10 mg)  Pack|Yes|Yes||IS002034|VIOBET IMPEX SRL|Iasi|ISDTCBA03|46|CCC MULTI Tim 2012|121|Retail|0
0|CS238684|2012-07-14 21:17:21|Borhan|Iulian||M|1987-04-21|Iasi|IASI|Orientului|20|806|B|3|14|0746682387||andrey_pac@yahoo.com|WIBL|KTBL|Bricheta Winston|Yes|Yes||IS002034|VIOBET IMPEX SRL|Iasi|ISDTCBA04|46|CCC MULTI Tim 2012|121|Retail|0
0|CS238718|2012-07-14 21:21:04|Capatana|Andrei||M|1985-09-11|Iasi|Iasi|Silvestru strapungerii|48|T34|D|P|1|0758938340||andreicapatana911@gmail.com|KTH||Bricheta Camel|Yes|Yes||IS002034|VIOBET IMPEX SRL|Iasi|ISDTCBA02|46|CCC MULTI Tim 2012|121|Retail|0
0|CS238732|2012-07-14 21:22:25|Mandes|Aurelian||M|1981-10-20|Iasi|Iasi|Sf lazar|31|D2|0|2|6|0740514866||lynu_am@yahoo.com|CABL||Camel Blue (6mg) Pack|Yes|Yes||IS002034|VIOBET IMPEX SRL|Iasi|ISDTCBA03|46|CCC MULTI Tim 2012|121|Retail|0
0|CS238756|2012-07-14 21:24:15|Dimu|Gabriel||M|1980-12-29|Iasi|Iași|Al. Cel bun|17|A5|A|6|26|0741025045||gabi_dimu@yahoo.com|PMBL||Winston Blue (6mg) Pack|Yes|Yes||IS002034|VIOBET IMPEX SRL|Iasi|ISDTCBA04|46|CCC MULTI Tim 2012|121|Retail|0
0|CS238810|2012-07-14 21:30:10|Ilies|Adrian||M|1985-09-11|Iasi|IASI|Rozelor|23|A11|B|2|15|0753399689||iliesadriand@yahoo.com|KTBL||Bricheta Camel|Yes|Yes||IS002034|VIOBET IMPEX SRL|Iasi|ISDTCBA04|46|CCC MULTI Tim 2012|121|Retail|0
0|CS238826|2012-07-14 21:31:33|Sofronie|Minodora||F|1989-12-08|Iasi|Iasi|Marta|13|0|0|0|0|0743952494||lacrima_ce_curge@yahoo.com|KTH||Winston 100s Clasic (10 mg)  Pack|Yes|Yes||IS002034|VIOBET IMPEX SRL|Iasi|ISDTCBA03|46|CCC MULTI Tim 2012|121|Retail|0
0|CS238868|2012-07-14 21:35:20|Chelariu|Daniel||M|1979-07-25|Iasi|IASI|Pallady Theodor|5|0|0|0|2|0753188448||chelariudaniel@yahoo.com|WIBLH||Bricheta Winston|Yes|Yes||IS002034|VIOBET IMPEX SRL|Iasi|ISDTCBA04|46|CCC MULTI Tim 2012|121|Retail|0
0|CS238885|2012-07-14 21:36:42|Ciurea|Carmen||F|1972-06-09|Neamt|PIATRA NEAMT|Iulian antonescu|2|T4|B|4|28|0745639485||elenacarmenus@yahoo.com|CAWH||Bricheta Camel|Yes|Yes||IS002034|VIOBET IMPEX SRL|Iasi|ISDTCBA03|46|CCC MULTI Tim 2012|121|Retail|0
0|CS238895|2012-07-14 21:37:55|Cislariu|Catalina||F|1986-09-06|Iasi|Iasi|Buridava|1|Sc4|0|1|1|0725541878||cislariu.catalina@gmail.com|WIBLH||Bricheta Winston|Yes|Yes||IS002034|VIOBET IMPEX SRL|Iasi|ISDTCBA02|46|CCC MULTI Tim 2012|121|Retail|0
0|CS238918|2012-07-14 21:39:54|Mangiu|Marius||M|1982-02-19|Iasi|IASI|Dacia|56|D9|0|4|12|0745262953||magiusergiu@yahoo.com|KTSV||Bricheta Camel|Yes|Yes||IS002034|VIOBET IMPEX SRL|Iasi|ISDTCBA04|46|CCC MULTI Tim 2012|121|Retail|0
0|CS238922|2012-07-14 21:40:01|Teodorescu|Geta||F|1967-05-18|Neamt|ROMAN|Fundatura crizantemelor|0|2|C|1|27|0768760449|||KTSV||Bricheta Camel|Yes|Yes||IS002034|VIOBET IMPEX SRL|Iasi|ISDTCBA03|46|CCC MULTI Tim 2012|121|Retail|0
0|CS238964|2012-07-14 21:44:50|Zorila|Carmen||F|1971-07-24|Iasi|Iasi|Bularga|16|Tomir||3|91|0746467871||andreilambart_chelsea@yahoo.com|WISV||Winston Silver (4 mg) Pack|Yes|Yes||IS002034|VIOBET IMPEX SRL|Iasi|ISDTCBA02|46|CCC MULTI Tim 2012|121|Retail|0
0|CS239000|2012-07-14 21:48:05|Pogor|Ionut||M|1979-09-26|Iasi|Iasi|Stramosilor|33|Df8|0|4|17|0744842548||ionut_pogor@yahoo.com|WIBLH|KTBL|Bricheta Winston|Yes|Yes||IS002034|VIOBET IMPEX SRL|Iasi|ISDTCBA02|46|CCC MULTI Tim 2012|121|Retail|0
0|CS239024|2012-07-14 21:51:03|Grumazescu|Stefan||M|1988-10-10|Neamt|ROMAN|Eternitate|1|2|A|8|56|0785788034||fenike_molotov@yahoo.com|DUNFF||Bricheta Camel|Yes|Yes||IS002034|VIOBET IMPEX SRL|Iasi|ISDTCBA04|46|CCC MULTI Tim 2012|121|Retail|0
0|CS239197|2012-07-14 22:00:07|Platon|Tatiana||F|1990-11-27|Iasi|Iasi|Dolhesti|10|0|0|0|0|0769649843||tanea_zangutza@yahoo.com|GLMLIL||Bricheta Glamour|Yes|Yes||IS002034|VIOBET IMPEX SRL|Iasi|ISDTCBA03|46|CCC MULTI Tim 2012|121|Retail|0
0|CS239245|2012-07-14 22:05:07|Mariutei|Liviu||M|1993-08-05|Iasi|IASI|Cânta|40|521|A|1|4|0740825626||liviuu93@yahoo.com|KTBL||Bricheta Camel|Yes|Yes||IS002034|VIOBET IMPEX SRL|Iasi|ISDTCBA04|46|CCC MULTI Tim 2012|121|Retail|0
0|CS239252|2012-07-14 22:05:40|Stavar|Alina||F|1976-01-29|Braila|BRAILA|OborUlui|96|26|2|3|36|0768865468||smaki00@yahoo.com|CABK||Bricheta Camel|Yes|Yes||IS002034|VIOBET IMPEX SRL|Iasi|ISDTCBA03|46|CCC MULTI Tim 2012|121|Retail|0
0|CS239271|2012-07-14 22:07:23|Fusaru|Iulian||M|1992-07-05|Iasi|IASI|Silvestru|9|Cl11|A|3|11|0749527929||ionut_86@yahoo.com|KTBL||Bricheta Camel|Yes|Yes||IS002034|VIOBET IMPEX SRL|Iasi|ISDTCBA04|46|CCC MULTI Tim 2012|121|Retail|0
0|CS239312|2012-07-14 22:10:53|Burlacu|Andrei||M|1986-08-03|Iasi|IASI|Hlincea|14|994|3|0|3|0740460489||burlacu.andrey@yahoo.com|KTH||Camel Filters (10mg) Pack|Yes|Yes||IS002034|VIOBET IMPEX SRL|Iasi|ISDTCBA04|46|CCC MULTI Tim 2012|121|Retail|0
0|CS239332|2012-07-14 22:13:25|Cocieriu|Dorin||M|1991-01-03|Iasi|IASI|Rozelor|32|K3|A|2|10|0740333734||doryn_amerycan@yahoo.com|KTSV||Bricheta Camel|Yes|Yes||IS002034|VIOBET IMPEX SRL|Iasi|ISDTCBA04|46|CCC MULTI Tim 2012|121|Retail|0
0|CS239345|2012-07-14 22:14:48|Spaiuc|Ionut||M|1988-06-24|Botosani|BOTOSANI|Drobeta|0|5|0|3|14|0755595967||spaiuc_ionutz@yahoo.com|PMEKRD||Bricheta Winston|Yes|Yes||IS002034|VIOBET IMPEX SRL|Iasi|ISDTCBA03|46|CCC MULTI Tim 2012|121|Retail|0
0|CS239353|2012-07-14 22:15:43|Nica|Raluca||F|1983-07-03|Iasi|Iasi|Aleea nicolina|2a|G9|0|P|2|0745916999||acular2005@yahoo.com|KTBL||Bricheta Camel|Yes|Yes||IS002034|VIOBET IMPEX SRL|Iasi|ISDTCBA02|46|CCC MULTI Tim 2012|121|Retail|0
0|CS239387|2012-07-14 22:20:43|Burlacu|Florin||M|1970-06-04|Iasi|IASI|Nicolina|4|G7|0|3|24|0740138114||lucianzamfirescu78@yahoo.com|WIBLH||Winston 100s Blue (6 mg)  Pack|Yes|Yes||IS002034|VIOBET IMPEX SRL|Iasi|ISDTCBA04|46|CCC MULTI Tim 2012|121|Retail|0
0|CS239407|2012-07-14 22:23:07|Ilie|Razvan||M|1992-10-15|Iasi|Iasi|Mihail sturza|22|C13|A|1|47|0740262407||razvanilie@yahoo.com|KTBL||Camel Black (6mg) Pack|Yes|Yes||IS002034|VIOBET IMPEX SRL|Iasi|ISDTCBA03|46|CCC MULTI Tim 2012|121|Retail|0
0|CS239414|2012-07-14 22:24:05|Burlacu|Roxana||F|1982-02-04|Iasi|Iasi|Aleea nicolina|4|G7|0|3|24|0758803978||souflakicatering@gmail.com|WISSB||Winston Super Slims Blue (5mg) Pack|Yes|Yes||IS002034|VIOBET IMPEX SRL|Iasi|ISDTCBA04|46|CCC MULTI Tim 2012|121|Retail|0
0|CS239423|2012-07-14 22:24:48|Dorcu|Eduard||M|1985-07-17|Iasi|Iasi|Nucilor|1|0|0|0|0|0746318922||edydorcu@yahoo.com|PMBL||Winston Blue (6mg) Pack|Yes|Yes||IS002034|VIOBET IMPEX SRL|Iasi|ISDTCBA02|46|CCC MULTI Tim 2012|121|Retail|0
0|CS239442|2012-07-14 22:26:15|Calmatui|Elena||F|1986-02-09|Iasi|IASI|Nicolina|75|986|A|4|18|0746789735||alinacalmatui@yahoo.com|WISSB||Winston Super Slims Blue (5mg) Pack|Yes|Yes||IS002034|VIOBET IMPEX SRL|Iasi|ISDTCBA04|46|CCC MULTI Tim 2012|121|Retail|0
0|CS239459|2012-07-14 22:28:28|Zamfirescu|Lucian||M|1978-05-01|Iasi|IASI|Nationala|90|C2|B|1|8|0744899087||lucianzamfirescu78@yahoo.com|WISSB||Winston Super Slims Blue (5mg) Pack|Yes|Yes||IS002034|VIOBET IMPEX SRL|Iasi|ISDTCBA04|46|CCC MULTI Tim 2012|121|Retail|0
0|CS239494|2012-07-14 22:32:31|Boghiu|Elena||F|1991-05-11|Iasi|Iasi|Ciric|52|L5|C|4|4|0749451668||ella_czr@yahoo.com|VOGBL||Bricheta Glamour|Yes|Yes||IS002034|VIOBET IMPEX SRL|Iasi|ISDTCBA03|46|CCC MULTI Tim 2012|121|Retail|0
0|CS239540|2012-07-14 22:36:41|Marciuc|Teodora||F|1992-10-25|Iasi|Iasi|Aleea basarabi|1|M1|A|3|2|0753493678||doramarciuc@yahoo.com|VOGM||Glamour Menthol (5mg) Pack|Yes|Yes||IS002034|VIOBET IMPEX SRL|Iasi|ISDTCBA03|46|CCC MULTI Tim 2012|121|Retail|0
0|CS239572|2012-07-14 22:39:24|Baduca|Bogdan||M|1991-07-13|Bucuresti|Bucuresti|Berceni|22|6|0|3|12|0736479591||baduca.bogdan.valentin@gmail.com|KTBL||Winston Blue (6mg) Pack|Yes|Yes||IS002034|VIOBET IMPEX SRL|Iasi|ISDTCBA03|46|CCC MULTI Tim 2012|121|Retail|0
0|CS239595|2012-07-14 22:41:41|Leonte|Andrei||M|1988-11-27|Iasi|PASCANI|Cuza Voda|10|D11|A|3|12|0733769878||leonte_andrey@yahoo.com|PMBL||Winston Blue (6mg) Pack|Yes|Yes||IS002034|VIOBET IMPEX SRL|Iasi|ISDTCBA03|46|CCC MULTI Tim 2012|121|Retail|0
0|CS241016|2012-07-15 11:12:37|Tarau|Adriana||F|1979-03-25|Salaj|ZALAU|Ioan Nechita|38|F1|-|4|18|0751257664|0259000000|adriana_tarau@yahoo.com|PMECBK||Winston Classic Pack|Yes|Yes||BH000841|SARILMA COM SRL|Oradea|BHDTCBA01|46|CCC MULTI Tim 2012|121|Retail|0
0|CS241024|2012-07-15 11:16:04|Roi|Lucica||F|1979-02-28|Alba|ALBA IULIA|Gheorghe Pop de Basesti|18|-|-|4|17|0746086340|0259000000|luci_roi@yahoo.com|PMOR||Bricheta Winston|Yes|Yes||BH000841|SARILMA COM SRL|Oradea|BHDTCBA01|46|CCC MULTI Tim 2012|121|Retail|0
0|CS241031|2012-07-15 11:19:21|Pop|Vlad ioan||M|1989-03-23|Bihor|Oradea|Alea calnuluo|16|X17|-|4|20|0746479848|0264555577|vladioan@yahoo.com|KTH||Camel Filters (10mg) Pack|Yes|Yes||BH004682|GERARDANI SRL|Oradea|BHDTCBA05|46|CCC MULTI Tim 2012|121|Retail|0
0|CS241033|2012-07-15 11:20:21|Varo|Teodor||M|1963-09-18|Cluj|CLUJ NAPOCA|Calea Floresti|58|-|-|6|53|0740216047|0259000000|the_varo@ymail.com|WIBL||Bricheta Winston|Yes|Yes||BH000841|SARILMA COM SRL|Oradea|BHDTCBA01|46|CCC MULTI Tim 2012|121|Retail|0
0|CS241037|2012-07-15 11:21:35|Laczi|Monica||F|1971-08-26|Cluj|CLUJ NAPOCA|Ciucas|7|Q|2|4|37|0747214425|0265444777|pisti42@yahoo.com|WIBL||Bricheta Winston|Yes|Yes||BH004682|GERARDANI SRL|Oradea|BHDTCBA05|46|CCC MULTI Tim 2012|121|Retail|0
0|CS241040|2012-07-15 11:23:24|Burca|Teodor||M|1977-01-29|Bihor|FINIS|Pri cipala|436|-|-|-|1|0728925060|0259778884|melindabur a@yahoo.com|WIBLH||Bricheta Winston|Yes|Yes||BH004682|GERARDANI SRL|Oradea|BHDTCBA05|46|CCC MULTI Tim 2012|121|Retail|0
0|CS241043|2012-07-15 11:24:39|Cerasela|Adrian||M|1970-01-11|Cluj|CAMPIA TURZII|Emil Racovita|7|-|-|-||0762625299|0259000000|cadrian@yahoo.com|WICLH||Winston 100s Clasic (10 mg)  Pack|Yes|Yes||BH000841|SARILMA COM SRL|Oradea|BHDTCBA01|46|CCC MULTI Tim 2012|121|Retail|0
0|CS241045|2012-07-15 11:26:08|Goron|Dorel||M|1977-05-11|Salaj|Zalau|Simion barnutiu|22|H6|A|W|7|0745355091|0265444777|salad@yahoo.com|WISSS||Bricheta Winston|Yes|Yes||BH004682|GERARDANI SRL|Oradea|BHDTCBA05|46|CCC MULTI Tim 2012|121|Retail|0
0|CS241047|2012-07-15 11:27:59|Varga|Monica||F|1982-03-02|Cluj|FLORESTI|Porii|7|B2|-|3|12|0751103502|0259000000|marya_mony06@yahoo.com|PMSSBL||Winston Super Slims Blue (5mg) Pack|Yes|Yes||BH000841|SARILMA COM SRL|Oradea|BHDTCBA01|46|CCC MULTI Tim 2012|121|Retail|0
0|CS241051|2012-07-15 11:29:12|Vataman|Ana||F|1981-07-25|Bihor|Oradea|Sovata|42|C9|-|5|33|0740705231|0259788677|vatananans@yahoo.com|CABK||Bricheta Camel|Yes|Yes||BH004682|GERARDANI SRL|Oradea|BHDTCBA05|46|CCC MULTI Tim 2012|121|Retail|0
0|CS241062|2012-07-15 11:35:28|Kurila|Anca||F|1990-05-15|Timis|Timisoara|Steaua|22|47|C|1|5|0742600379|0256777888|kurila_anca@yahoo.com|CABK||Bricheta Camel|Yes|Yes||BH004682|GERARDANI SRL|Oradea|BHDTCBA05|46|CCC MULTI Tim 2012|121|Retail|0
0|CS241066|2012-07-15 11:38:46|Popa|Dan||M|1977-09-18|Timis|TIMISOARA|Borzesti|15|A40|B|M|13|0728145455|0356177277|popa_padre@yahoo.com|WIBLH||Winston 100s Blue (6 mg)  Pack|Yes|Yes||BH000841|SARILMA COM SRL|Oradea|BHDTCBA01|46|CCC MULTI Tim 2012|121|Retail|0
0|CS241072|2012-07-15 11:44:19|Secosan|Florin||M|1969-04-12|Bihor|ORADEA|Aradului|36|18|-|4|18|0771722027|0259000000|secoflorin@yahoo.com|GLMBL||Glamour Azure (3mg) Pack|Yes|Yes||BH000841|SARILMA COM SRL|Oradea|BHDTCBA01|46|CCC MULTI Tim 2012|121|Retail|0
0|CS241073|2012-07-15 11:44:29|Manzan|Alina||F|1981-09-16|Cluj|CLUJ NAPOCA|Decebal|12|12|2|2|9|0749542894|0265777888|nanzanalina@yahoo.com|WIBL||Winston Blue (6mg) Pack|Yes|Yes||BH004682|GERARDANI SRL|Oradea|BHDTCBA05|46|CCC MULTI Tim 2012|121|Retail|0
0|CS241078|2012-07-15 11:47:18|Secosan|Mihaela||F|1973-09-07|Bihor|ORADEA|Aradului|36|D18|-|4|18|0771722033|0259000000|secoflorin@yahoo.com|GLMBL||Glamour Azure (3mg) Pack|Yes|Yes||BH000841|SARILMA COM SRL|Oradea|BHDTCBA01|46|CCC MULTI Tim 2012|121|Retail|0
0|CS241080|2012-07-15 11:48:45|Cozma|Andrei||M|1991-03-03|Bihor|Oradea|Nufarului|75|C71|-|7|21|0757426772|0259455667|andreicozma91@gmail.com|WIBL||Bricheta Winston|Yes|Yes||BH004682|GERARDANI SRL|Oradea|BHDTCBA05|46|CCC MULTI Tim 2012|121|Retail|0
0|CS241086|2012-07-15 11:53:05|Ilisie|Maria||F|1956-10-23|Bihor|ORADEA|Emil racovita|21/a|-|-|-||0745434582|0259000000|sarilma_com@yahoo.com|WISSS||Glamour Azure (3mg) Pack|Yes|Yes||BH000841|SARILMA COM SRL|Oradea|BHDTCBA01|46|CCC MULTI Tim 2012|121|Retail|0
0|CS241095|2012-07-15 11:59:50|Dlh|Adrian Vasile||M|1991-01-25|Salaj|JIBOU|Castanilor|6|B31|-|4|14|0745643550|0260641927|doolha_25@yahoo.com|KTSV||Camel White (4 mg) Pack|Yes|Yes||BH000841|SARILMA COM SRL|Oradea|BHDTCBA01|46|CCC MULTI Tim 2012|121|Retail|0
0|CS241107|2012-07-15 12:06:01|Buza|Dana||F|1988-05-18|Bihor|ORADEA|Liszt Ferent|8|Pb81|-|4|17|0744612329|0259000000|danutzzza_ella@yahoo.com|GLMBL||Glamour Azure (3mg) Pack|Yes|Yes||BH000841|SARILMA COM SRL|Oradea|BHDTCBA01|46|CCC MULTI Tim 2012|121|Retail|0
0|CS241111|2012-07-15 12:10:44|Ignat|Adrian ioan||M|1992-02-06|Arad|SEBIS|Victoriei|-|C1-2|1|1|2|0748708222|0265788990|adi_bibarttt@yahoo.com|WIBLH||Winston 100s Blue (6 mg)  Pack|Yes|Yes||BH004682|GERARDANI SRL|Oradea|BHDTCBA05|46|CCC MULTI Tim 2012|121|Retail|0
0|CS241119|2012-07-15 12:13:30|Streulea|Flavius||M|1987-11-14|Arad|BOCSIG|Principala|419|A|A|A|1|0756509801|0254666777|bocsigmmm@yahoo.com|WIBLH||Winston 100s Blue (6 mg)  Pack|Yes|Yes||BH004682|GERARDANI SRL|Oradea|BHDTCBA05|46|CCC MULTI Tim 2012|121|Retail|0
0|CS241121|2012-07-15 12:15:23|Porga|Nicolae||M|1990-05-10|Arad|Bocsig|Principala|405|A|A|A|1|0755327074|0265444555|porga@yahoo.com|WIBLH||Winston 100s Blue (6 mg)  Pack|Yes|Yes||BH004682|GERARDANI SRL|Oradea|BHDTCBA05|46|CCC MULTI Tim 2012|121|Retail|0
0|CS241125|2012-07-15 12:17:29|Cilan|Paulioan||M|1988-06-29|Arad|BOCSIG|Principala339|339|A|A|A|1|0758687046|0256444888|paulioan@yahoo.com|WIBLH||Winston 100s Blue (6 mg)  Pack|Yes|Yes||BH004682|GERARDANI SRL|Oradea|BHDTCBA05|46|CCC MULTI Tim 2012|121|Retail|0
0|CS241127|2012-07-15 12:18:53|Filimon|Claudiu||M|1993-07-15|Arad|GURAHONT|Stefan Cicio Pop|3|-|-|-||0743161503|0259000000|claus993@yahoo.com|CABK||Bricheta Camel|Yes|Yes||BH000841|SARILMA COM SRL|Oradea|BHDTCBA01|46|CCC MULTI Tim 2012|121|Retail|0
0|CS241130|2012-07-15 12:19:32|Dudas|Catalin||M|1988-07-09|Arad|Bocsig|Principal|515b|A|A|A|1|0741292531|0256777888|piticata@yahoo.com|WIBLH||Winston 100s Blue (6 mg)  Pack|Yes|Yes||BH004682|GERARDANI SRL|Oradea|BHDTCBA05|46|CCC MULTI Tim 2012|121|Retail|0
0|CS241134|2012-07-15 12:22:44|Lauff|Lazslo||M|1978-02-26|Bihor|Oradea|Moldovei|11|C9|A|-|1|0753212919|0259888777|lazslo@yahoo.com|WIBL||Winston Blue (6mg) Pack|Yes|Yes||BH004682|GERARDANI SRL|Oradea|BHDTCBA05|46|CCC MULTI Tim 2012|121|Retail|0
0|CS241140|2012-07-15 12:24:34|Lauff|Ildiko beata||F|1980-05-31|Bihor|Oradea|Moldovei|11|Pc9|A-|-|1|0721212941|0259888999|lauffbeata@yahoo.com|WIBL||Winston Blue (6mg) Pack|Yes|Yes||BH004682|GERARDANI SRL|Oradea|BHDTCBA05|46|CCC MULTI Tim 2012|121|Retail|0
0|CS241143|2012-07-15 12:26:05|Lauff|Tunde melinda||F|1983-05-21|Bihor|Oradea|Constantin noica|1|Rr|A|1|18|0742485397|0259888777|tunde_tatar@yahoo.com|WIBL||Winston Blue (6mg) Pack|Yes|Yes||BH004682|GERARDANI SRL|Oradea|BHDTCBA05|46|CCC MULTI Tim 2012|121|Retail|0
0|CS241146|2012-07-15 12:27:32|Nagy|Istvan||M|1972-10-13|Harghita|PRAID|Principala|511|-|-|-||0747299701|0259000000|dobozwab@yahoo.com|MBRRD||Bricheta Winston|Yes|Yes||BH000841|SARILMA COM SRL|Oradea|BHDTCBA01|46|CCC MULTI Tim 2012|121|Retail|0
0|CS241172|2012-07-15 12:40:28|Vele|Paula||F|1986-11-23|Cluj|TRITENII DE JOS|Plopului|86|A|A||1|0740863848|0264555777|pinguinalexandra@yahoo.com|WISSB||Winston Super Slims Blue (5mg) Pack|Yes|Yes||BH004682|GERARDANI SRL|Oradea|BHDTCBA05|46|CCC MULTI Tim 2012|121|Retail|0
0|CS241178|2012-07-15 12:46:00|Todorut|Razvan||M|1988-09-02|Bihor|ORADEA|Cerbului|3|Pb24|-|3|12|0752632771|0259000000|razvan.todorut@yahooo.com|KTBL||Camel Black (6mg) Pack|Yes|Yes||BH000841|SARILMA COM SRL|Oradea|BHDTCBA01|46|CCC MULTI Tim 2012|121|Retail|0
0|CS241211|2012-07-15 12:59:18|Pop|Viorel||M|1984-11-25|Bihor|Oradea|Sovata|23|C9|A|3|24|0743567899|0259888999|popviorel678@yahoo.com|CAFI||Bricheta Camel|Yes|Yes||BH004682|GERARDANI SRL|Oradea|BHDTCBA05|46|CCC MULTI Tim 2012|121|Retail|0
0|CS241213|2012-07-15 13:00:41|Orzac|Dan||M|1971-10-21|Cluj|CLUJ NAPOCA|Moldoveanu|7|U1|1|2|1|0745429335|0259000000|danoo@yahoo.com|VCRRD||Camel Filters (10mg) Pack|Yes|Yes||BH000841|SARILMA COM SRL|Oradea|BHDTCBA01|46|CCC MULTI Tim 2012|121|Retail|0
0|CS241218|2012-07-15 13:03:26|Popa|Vlad||M|1989-07-14|Bihor|Oradea|Menimorut|2|D105|-|T|17|0741964457|0259888666|mafio_doru_89@yahoo.com|WIBLH||Winston Blue (6mg) Pack|Yes|Yes||BH004682|GERARDANI SRL|Oradea|BHDTCBA05|46|CCC MULTI Tim 2012|121|Retail|0
0|CS241219|2012-07-15 13:04:28|Both|Ioan||M|1965-09-28|Cluj|VALENI (CALATELE)|Principala|160|-|-|-||0736651799|0264891337|ioan.both@gmail.com|WIBL||Winston Blue (6mg) Pack|Yes|Yes||BH000841|SARILMA COM SRL|Oradea|BHDTCBA01|46|CCC MULTI Tim 2012|121|Retail|0
0|CS241221|2012-07-15 13:05:29|Puiulet|Lucia||F|1975-03-16|Hunedoara|Brad|Cuza voda|6|16|E|2|51|0729936119|0254666777|roby_puiuletz@yahoo.com|WISSS||Bricheta Winston|Yes|Yes||BH004682|GERARDANI SRL|Oradea|BHDTCBA05|46|CCC MULTI Tim 2012|121|Retail|0
0|CS241234|2012-07-15 13:11:13|Ignat|Adriana||F|1985-12-05|Bihor|ORADEA|Gavril Muzicescu|11|-|-|-||0746045501|0259223162|adryana_ignat@yahoo.com|WICLH||Bricheta Winston|Yes|Yes||BH000841|SARILMA COM SRL|Oradea|BHDTCBA01|46|CCC MULTI Tim 2012|121|Retail|0
0|CS241237|2012-07-15 13:13:13|Mandrila|Danut||M|1971-07-16|Timis|Timisoara|Pan halipa|-|A11|1|3|19|0723433001|0256788990|dan_mandrila@yahoo.com|WIBL||Winston Blue (6mg) Pack|Yes|Yes||BH004682|GERARDANI SRL|Oradea|BHDTCBA05|46|CCC MULTI Tim 2012|121|Retail|0
0|CS241240|2012-07-15 13:15:19|Chis|Gyorgy||M|1988-07-02|Cluj|CLUJ NAPOCA|Godeanu|12|6|6|-|62|0747612139|0259000000|gyuri_gyuny@yahoo.com|DUNBL||Bricheta Camel|Yes|Yes||BH000841|SARILMA COM SRL|Oradea|BHDTCBA01|46|CCC MULTI Tim 2012|121|Retail|0
0|CS241244|2012-07-15 13:17:01|Popa|Mihaela||F|1983-02-09|Vaslui|Husi|Sfintii apostoli petru si pavel|15|10|B|5|13|0726310570|0345677888|kintheratetmiky2001@yahoo.com|WIBL||Winston Blue (6mg) Pack|Yes|Yes||BH004682|GERARDANI SRL|Oradea|BHDTCBA05|46|CCC MULTI Tim 2012|121|Retail|0
0|CS241256|2012-07-15 13:20:13|Manase|Sandor||M|1975-11-27|Cluj|CLUJ NAPOCA|Mehedinti|35|U4|2|-|21|0743096413|0345577788|manaședdd@yahoo.com|WIBL||Bricheta Winston|Yes|Yes||BH004682|GERARDANI SRL|Oradea|BHDTCBA05|46|CCC MULTI Tim 2012|121|Retail|0
0|CS241258|2012-07-15 13:21:18|Karancsi|Bogdan||M|1983-05-28|Cluj|AGHIRESU FABRICI|Principala|276|276|1|0|3|0740559108||for_3v3r_young_28@yahoo.com|KTBL||Camel Black (6mg) Pack|Yes|Yes||BH000841|SARILMA COM SRL|Oradea|BHDTCBA01|46|CCC MULTI Tim 2012|121|Retail|0
0|CS241268|2012-07-15 13:24:52|Tuduce|Adrian||M|1984-02-03|Bihor|Oradea|Nufarului|D107|12|A|2|15|0745677899|0358777888|tuduce@yahoo.com|WIBLH||Bricheta Winston|Yes|Yes||BH004682|GERARDANI SRL|Oradea|BHDTCBA05|46|CCC MULTI Tim 2012|121|Retail|0
0|CS241274|2012-07-15 13:26:32|Karancsi|Melinda||F|1982-09-07|Cluj|AGHIRESU FABRICI|Principala|295|-|-|-||0745574150|0259000000|for_3v3r_young_28@yahoo.com|KTBL||Camel Black (6mg) Pack|Yes|Yes||BH000841|SARILMA COM SRL|Oradea|BHDTCBA01|46|CCC MULTI Tim 2012|121|Retail|0
0|CS241298|2012-07-15 13:32:51|Burta|Norinel||M|1974-08-28|Bihor|Izbuc|Ori cipala|1|A|A|A|1|0744194240|0258777666|nori el@yahoo.com|WIBL||Bricheta Winston|Yes|Yes||BH004682|GERARDANI SRL|Oradea|BHDTCBA05|46|CCC MULTI Tim 2012|121|Retail|0
0|CS241304|2012-07-15 13:36:11|Sibinescu|Nicolina||F|1986-03-13|Bihor|Oradea|Leonardo da vibci|16|Pb24|-|3|18|0740843755|0259888777|sibibescu@yahoo.com|WISSB||Winston Super Slims Blue (5mg) Pack|Yes|Yes||BH004682|GERARDANI SRL|Oradea|BHDTCBA05|46|CCC MULTI Tim 2012|121|Retail|0
0|CS241311|2012-07-15 13:40:14|Kacsandi|Zsolt||M|1990-01-13|Bihor|ORADEA|Filatov|8|-|-|-||0740850224|0259000000|zsoltika_bvl@yahoo.com|PMRD||Winston Classic Pack|Yes|Yes||BH000841|SARILMA COM SRL|Oradea|BHDTCBA01|46|CCC MULTI Tim 2012|121|Retail|0
0|CS241314|2012-07-15 13:41:53|Bonta|Remus||M|1994-06-17|Bihor|Oradea|Nufarului|69|C67|-|3|7|0751011812|0259888777|remus_rapid94@yahoo.com|CABK||Camel Black (6mg) Pack|Yes|Yes||BH004682|GERARDANI SRL|Oradea|BHDTCBA05|46|CCC MULTI Tim 2012|121|Retail|0
0|CS241361|2012-07-15 14:27:01|Pop|Florica||F|1987-12-31|Bihor|Oradea|Decebal|42|-|A|4|14|0743567666|0259788677|floricica99@yahoo.com|WISSB||Winston Super Slims Blue (5mg) Pack|Yes|Yes||BH004682|GERARDANI SRL|Oradea|BHDTCBA05|46|CCC MULTI Tim 2012|121|Retail|0
0|CS241364|2012-07-15 14:29:42|Adi|Mihai||M|1967-08-06|Cluj|CAMPIA TURZII|Emil Racovita|7|-|-|-||0740407659|0264327878|misuadi@yahoo.com|PMSSBL||Winston Super Slims Blue (5mg) Pack|Yes|Yes||BH000841|SARILMA COM SRL|Oradea|BHDTCBA01|46|CCC MULTI Tim 2012|121|Retail|0
0|CS241367|2012-07-15 14:34:13|Bota|Sorin||M|1967-03-18|Cluj|CAMPIA TURZII|1 Decembrie 1918|1|13|A|1|7|0745577368|0259000000|bota.sorin@yahoo.com|KTBL||Camel Black (6mg) Pack|Yes|Yes||BH000841|SARILMA COM SRL|Oradea|BHDTCBA01|46|CCC MULTI Tim 2012|121|Retail|0
0|CS241368|2012-07-15 14:34:23|Deac|Alexandru||M|1982-02-28|Cluj|CLUJ NAPOCA|Luncii|23|A|A|A|1|0755894118|0264566788|alex.deac@yahoo.com|WICLSH||Winston 100s Clasic (10 mg)  Pack|Yes|Yes||BH004682|GERARDANI SRL|Oradea|BHDTCBA05|46|CCC MULTI Tim 2012|121|Retail|0
0|CS241369|2012-07-15 14:36:35|Felecan|Corina||F|1983-08-26|Cluj|CLUJ NAPOCA|Patriciu barbu|20|A|A|A|1|0745053118|0265444777|felecancorina@yahoo.com|WISSS||Bricheta Winston|Yes|Yes||BH004682|GERARDANI SRL|Oradea|BHDTCBA05|46|CCC MULTI Tim 2012|121|Retail|0
0|CS241372|2012-07-15 14:39:03|Muntean|Maria||F|1984-08-11|Hunedoara|VAIDEI|Principala|204|A|A|A|1|0721176902|0344567543|abrudeangabriel@yahoo.com|WICLH||Bricheta Winston|Yes|Yes||BH004682|GERARDANI SRL|Oradea|BHDTCBA05|46|CCC MULTI Tim 2012|121|Retail|0
0|CS241373|2012-07-15 14:39:17|Veres|Kalman||M|1959-07-05|Mures|TARGU MURES|Stefan Cicio Pop|27/1|-|-|-|1|0744405930|0259000000|jimmyyahooveres@yahoo.com|PMBL||Winston Blue (6mg) Pack|Yes|Yes||BH000841|SARILMA COM SRL|Oradea|BHDTCBA01|46|CCC MULTI Tim 2012|121|Retail|0
0|CS241383|2012-07-15 14:52:16|Sabau|David||M|1989-02-25|Bihor|SALARD|Tudor Vladimirescu|731|-|-|-||0756512936|0259000000|sabau.david@yahoo.com|PMBL||Winston 100s Blue (6 mg)  Pack|Yes|Yes||BH000841|SARILMA COM SRL|Oradea|BHDTCBA01|46|CCC MULTI Tim 2012|121|Retail|0
0|CS241385|2012-07-15 15:09:30|Tot|Ancuta||F|1989-09-16|Hunedoara|CRISCIOR|Valea morii|17|-|-|-||0754665394|0259000000|ancutza_dotz@yahoo.com|KTBL||Camel Black (6mg) Pack|Yes|Yes||BH000841|SARILMA COM SRL|Oradea|BHDTCBA01|46|CCC MULTI Tim 2012|121|Retail|0
0|CS241386|2012-07-15 15:20:39|Botis|Ioan||M|1973-01-29|Cluj|Baleni|Principala|160|-|-|-||0727922137|0259000000|ioanbotis@yahoo.com|WIBL||Winston Blue (6mg) Pack|Yes|Yes||BH000841|SARILMA COM SRL|Oradea|BHDTCBA01|46|CCC MULTI Tim 2012|121|Retail|0
0|CS241387|2012-07-15 15:21:06|Lauff|Robert||M|1979-08-06|Bihor|Oradea|Costaforu|1|Pc9|A|2|8|0743959411|0259777666|robertynio@yahoo.com|WIBL||Winston Blue (6mg) Pack|Yes|Yes||BH004682|GERARDANI SRL|Oradea|BHDTCBA05|46|CCC MULTI Tim 2012|121|Retail|0
0|CS241390|2012-07-15 15:23:54|Popa|Lucian bogdan||M|1993-07-12|Bihor|Oradea|Menumorut|2|D105|-|5|17|0745548398|0259777666|luci_bogdy_93@yahoo.com|WICLH||Winston 100s Clasic (10 mg)  Pack|Yes|Yes||BH004682|GERARDANI SRL|Oradea|BHDTCBA05|46|CCC MULTI Tim 2012|121|Retail|0
0|CS241391|2012-07-15 15:25:30|Broienas|Cristian||M|1979-04-21|Bihor|LUGASU DE SUS|Principala|173|-|-|-||0749153332|0259000000|alexis_florentin16@yahoo.com|WIBLH||Winston 100s Blue (6 mg)  Pack|Yes|Yes||BH000841|SARILMA COM SRL|Oradea|BHDTCBA01|46|CCC MULTI Tim 2012|121|Retail|0
0|CS241392|2012-07-15 15:29:11|Lal|Florin||M|1993-09-18|Bihor|LUGASU DE SUS|Principala|139|-|-|-||0749229588|0259000000|florin_the_first2000@yahoo.com|PHMQBL||Winston 100s Blue (6 mg)  Pack|Yes|Yes||BH000841|SARILMA COM SRL|Oradea|BHDTCBA01|46|CCC MULTI Tim 2012|121|Retail|0
0|CS241393|2012-07-15 15:32:03|Bolojan|Bogdan||M|1993-08-01|Bihor|Oradea|Lapusului|3|P9|-|2|9|0755519684|0259777888|bogdan.bolojan@yahoo.com|KTBL||Camel Black (6mg) Pack|Yes|Yes||BH004682|GERARDANI SRL|Oradea|BHDTCBA05|46|CCC MULTI Tim 2012|121|Retail|0
0|CS241396|2012-07-15 15:35:38|Duma|Cristina||F|1980-09-07|Bihor|ORADEA|Morii|13|X15|B|-|1|0744855721|0259000000|ionelduma@yahoo.com|MBRRD||Camel Filters (10mg) Pack|Yes|Yes||BH000841|SARILMA COM SRL|Oradea|BHDTCBA01|46|CCC MULTI Tim 2012|121|Retail|0
0|CS241398|2012-07-15 15:37:07|Sibinescu|Liliana||F|1968-04-29|Bihor|Osorhri|Principala|280b|A|A|A|1|0742963439|0259777888|lilianasibinescu@yahoo.com|WISSS||Winston Super Slims Silver (3mg) Pack|Yes|Yes||BH004682|GERARDANI SRL|Oradea|BHDTCBA05|46|CCC MULTI Tim 2012|121|Retail|0
0|CS241400|2012-07-15 15:39:06|Popica|Virgil||M|1986-01-27|Bihor|Oradea|Sovata|18|C8|A|2|12|0756788455|0259888777|popicaminciunel@yahoo.com|CABK||Bricheta Camel|Yes|Yes||BH004682|GERARDANI SRL|Oradea|BHDTCBA05|46|CCC MULTI Tim 2012|121|Retail|0
0|CS241404|2012-07-15 15:42:05|Seutiut|Mariana||F|1974-07-04|Bihor|MIERLAU|Principala|99|-|-|-||0741486314|0359449908|mariana.s@yahoo.com|MBRRDH||Bricheta Winston|Yes|Yes||BH000841|SARILMA COM SRL|Oradea|BHDTCBA01|46|CCC MULTI Tim 2012|121|Retail|0
0|CS241415|2012-07-15 15:57:55|Tig|Andrei||M|1985-07-13|Bihor|ORADEA|Ciheiului|1|D112|-|7|21|0724691933|0259000000|andreitig13@yahoo.com|PMBL||Bricheta Winston|Yes|Yes||BH000841|SARILMA COM SRL|Oradea|BHDTCBA01|46|CCC MULTI Tim 2012|121|Retail|0
0|CS241417|2012-07-15 16:01:02|Birta|Vlad ionut||M|1994-05-03|Bihor|Oradea|Principala|203|A|A|A|1|0751522483|0259888777|birta_vlad@yahoo.com|CABK||Camel Black (6mg) Pack|Yes|Yes||BH004682|GERARDANI SRL|Oradea|BHDTCBA05|46|CCC MULTI Tim 2012|121|Retail|0
0|CS241419|2012-07-15 16:03:43|Copos|Ana||F|1971-06-01|Bihor|Oradea|Nufarului|211a|A|A|A|1|0724238355|0259888777|anicopos@yahoo.com|GLPBMNFT||Bricheta Glamour|Yes|Yes||BH004682|GERARDANI SRL|Oradea|BHDTCBA05|46|CCC MULTI Tim 2012|121|Retail|0
0|CS241420|2012-07-15 16:07:51|Culda|Sebastian||M|1985-06-21|Bihor|ORADEA|Constantin Noica|12|Pb14|-|4|17|0745377599|0259000000|sebastianmihai85@yahoo.com|KTBL||Bricheta Winston|Yes|Yes||BH000841|SARILMA COM SRL|Oradea|BHDTCBA01|46|CCC MULTI Tim 2012|121|Retail|0
0|CS241424|2012-07-15 16:08:29|Rusu|Ca elia||F|1978-06-07|Bihor|RONTAU|Principala|90|-|-|-||0749135309|0259315180|rusudancami@yahoo.com|KTBL||Camel Black (6mg) Pack|Yes|Yes||BH000841|SARILMA COM SRL|Oradea|BHDTCBA01|46|CCC MULTI Tim 2012|121|Retail|0
0|CS241426|2012-07-15 16:10:24|Comerdeli|Adela||F|1984-12-16|Timis|DETA|Marasesti|40|-|-|-||0766106177|0259000000|dani21ade@yahoo.com|WISSB||Winston Super Slims Blue (5mg) Pack|Yes|Yes||BH000841|SARILMA COM SRL|Oradea|BHDTCBA01|46|CCC MULTI Tim 2012|121|Retail|0
0|CS241429|2012-07-15 16:12:12|Comerdeli|Sasa||M|1986-09-20|Timis|DETA|Marasesti|10|-|-|-||0766106088|0259000000|comerdeli@yahoo.com|WIBL||Winston Blue (6mg) Pack|Yes|Yes||BH000841|SARILMA COM SRL|Oradea|BHDTCBA01|46|CCC MULTI Tim 2012|121|Retail|0
0|CS241430|2012-07-15 16:19:45|Dura|Mihai||M|1982-01-29|Bihor|ORADEA|Gobori|4a|-|-|-||0742274059|0259000000|dura_mihai@yahoo.com|WIBL||Winston Blue (6mg) Pack|Yes|Yes||BH000841|SARILMA COM SRL|Oradea|BHDTCBA01|46|CCC MULTI Tim 2012|121|Retail|0
0|CS241432|2012-07-15 16:21:44|Dura|Anca||F|1982-03-10|Bihor|ORADEA|Gobori|4a|-|-|-||0723172290|0259000000|dura_anca@yahoo.com|GLPBMN||Glamour Menthol (5mg) Pack|Yes|Yes||BH000841|SARILMA COM SRL|Oradea|BHDTCBA01|46|CCC MULTI Tim 2012|121|Retail|0
0|CS241434|2012-07-15 16:24:02|Deac|Iulia||F|1986-04-08|Bihor|BEIUS|Aviatorilor|13|-|-|-||0741061439|0259000000|iulia.deac@yahoo.com|PMBL||Winston 100s Blue (6 mg)  Pack|Yes|Yes||BH000841|SARILMA COM SRL|Oradea|BHDTCBA01|46|CCC MULTI Tim 2012|121|Retail|0
0|CS241438|2012-07-15 16:39:07|Vandici|Alin||M|1968-10-24|Bihor|ORADEA|Nufarului|75|C71|-|8|24|0753858128|0259000000|alinvandici@yahoo.com|GLMBL||Glamour Azure (3mg) Pack|Yes|Yes||BH000841|SARILMA COM SRL|Oradea|BHDTCBA01|46|CCC MULTI Tim 2012|121|Retail|0
0|CS241439|2012-07-15 16:41:33|Sandor|Cristian||M|1990-05-16|Bihor|ORADEA|Ciheiului|1|D112|-|7|21|0721140832|0788383064|the_cr15t1@yahoo.com|GLMBL||Glamour Azure (3mg) Pack|Yes|Yes||BH000841|SARILMA COM SRL|Oradea|BHDTCBA01|46|CCC MULTI Tim 2012|121|Retail|0
0|CS241442|2012-07-15 16:43:58|Manea|Florentina||F|1975-10-12|Bihor|SANNICOLAU ROMAN|Principala|718|-|-|-||0752091995|0259395142|florimanea@yahoo.com|GLMBL||Glamour Azure (3mg) Pack|Yes|Yes||BH000841|SARILMA COM SRL|Oradea|BHDTCBA01|46|CCC MULTI Tim 2012|121|Retail|0
0|CS241446|2012-07-15 16:46:19|Nagy|Tiberiu||M|1970-09-15|Bihor|ORADEA|Aleea rogerius|2c|N3|A|2|29|0751144523|0359467489|alex_fotbalist90@yahoo.com|GLMBL||Bricheta Glamour|Yes|Yes||BH000841|SARILMA COM SRL|Oradea|BHDTCBA01|46|CCC MULTI Tim 2012|121|Retail|0
0|CS241476|2012-07-15 17:09:16|Nistoroiu|Marian||M|1979-08-30|Bucuresti|SECTOR 5|Alexandru lapusteanu|4|77b|1|4|17|0761507573||nistoroiucristian@yahoo.com|KTH|KTBL|Bricheta Camel|Yes|Yes||IS002034|VIOBET IMPEX SRL|Iasi|ISDTCBA02|46|CCC MULTI Tim 2012|121|Retail|0
0|CS241483|2012-07-15 17:11:46|Baduca|Bogdan||M|1991-07-13|Bucuresti|Sector 4|Berceni|22|6|0|3|12|0726479591||baduca.bogdan.valentin@gmail.com|KTBL|WIBL|Bricheta Winston|Yes|Yes||IS002034|VIOBET IMPEX SRL|Iasi|ISDTCBA02|46|CCC MULTI Tim 2012|121|Retail|0
0|CS241497|2012-07-15 17:17:44| Brici|Ioana||F|1993-12-03|Bucuresti|Sector 6|Delinesti|4|Td45|A|4|27|0786890103||eugeniaioana_68@yahoo.com|GLMMNT|DUNFCSV|Bricheta Glamour|Yes|Yes||IS002034|VIOBET IMPEX SRL|Iasi|ISDTCBA02|46|CCC MULTI Tim 2012|121|Retail|0
0|CS241509|2012-07-15 17:23:43|Branduse|Madalina||F|1987-03-26|Brasov|BRASOV|Aurel Vlaicu|112|0|0|0|0|0721546491||madalina.brandusa@yahoo.com|WISSS|GLPBBS|Winston Super Slims Silver (3mg) Pack|Yes|Yes||IS002034|VIOBET IMPEX SRL|Iasi|ISDTCBA02|46|CCC MULTI Tim 2012|121|Retail|0
0|CS241514|2012-07-15 17:26:16|Muraru|Marian||M|1981-08-31|Iasi|Iasi|Clopotari|40|654|C|3|16|0746132132||muraru.marian@yahoo.com|WIBLH||Winston 100s Blue (6 mg)  Pack|Yes|Yes||IS002034|VIOBET IMPEX SRL|Iasi|ISDTCBA02|46|CCC MULTI Tim 2012|121|Retail|0
0|CS241517|2012-07-15 17:27:55|Mureș|Mihai||M|1980-12-05|Iasi|Iasi|Clopotari|48|0|0|0|0|0753005059||mihaialbustian@yahoo.com|WIBLH||Winston 100s Blue (6 mg)  Pack|Yes|Yes||IS002034|VIOBET IMPEX SRL|Iasi|ISDTCBA02|46|CCC MULTI Tim 2012|121|Retail|0
0|CS241552|2012-07-15 17:39:43|Ilas|Sabina||F|1987-09-08|Iasi|POPRICANI|Principala|10|0|0|0|0|0752515850||ilas_sabina@yahoo.com|KTSV||Bricheta Camel|Yes|Yes||IS002034|VIOBET IMPEX SRL|Iasi|ISDTCBA02|46|CCC MULTI Tim 2012|121|Retail|0
0|CS241559|2012-07-15 17:43:19|Mihai|Daniel||M|1984-04-02|Bucuresti|Sector 4|Alea Bacău|1|2m|4|3|164|0763372450||troakl2009@yahoo.com|KTBL|VIRSPR|Bricheta Camel|Yes|Yes||IS002034|VIOBET IMPEX SRL|Iasi|ISDTCBA02|46|CCC MULTI Tim 2012|121|Retail|0
0|CS241573|2012-07-15 17:51:22|Onica|Dragos||M|1992-07-07|Iasi|IASI|Nationala|53|C1|B|7|32|0755377044||dragos_the_gangboy@yahoo.com|KTBL||Camel Black (6mg) Pack|Yes|Yes||IS002034|VIOBET IMPEX SRL|Iasi|ISDTCBA02|46|CCC MULTI Tim 2012|121|Retail|0
0|CS241608|2012-07-15 18:04:33|Hutanu|Liviu||M|1988-05-13|Iasi|Iasi|Valea adanca|1|0|0|0|0|0753493508||hutanu_liviu@yahoo.com|PMBL|WIBLH|Winston 100s Blue (6 mg)  Pack|Yes|Yes||IS002034|VIOBET IMPEX SRL|Iasi|ISDTCBA02|46|CCC MULTI Tim 2012|121|Retail|0
0|CS241634|2012-07-15 18:22:30|Tudor|Alina||F|1989-10-21|Iasi|Iasi|Poitiers|27|I7|B|3|13|0752294455||alinutza_nebunatik@yahoo.com|GLMBL|VIRSPR|Bricheta Glamour|Yes|Yes||IS002034|VIOBET IMPEX SRL|Iasi|ISDTCBA02|46|CCC MULTI Tim 2012|121|Retail|0
0|CS241655|2012-07-15 18:27:24|Lungu|Bogdan||M|1990-04-22|Iasi|Iasi|Ciurchi|31|0|0|0|0|0757642834||bogdan_shadowb@yahoo.com|WIBLH||Bricheta Winston|Yes|Yes||IS002034|VIOBET IMPEX SRL|Iasi|ISDTCBA03|46|CCC MULTI Tim 2012|121|Retail|0
0|CS241658|2012-07-15 18:28:41|Bulai|Ovidiu||F|1979-05-23|Iasi|IASI|Salciilor|7|829|C|4|17|0740575690||bulai_ovidiu@yahoo.com|PMBL||Winston Blue (6mg) Pack|Yes|Yes||IS002034|VIOBET IMPEX SRL|Iasi|ISDTCBA04|46|CCC MULTI Tim 2012|121|Retail|0
0|CS241664|2012-07-15 18:31:30|Dinca|Adrian||M|1978-06-30|Iasi|Iasi|Mircea cel batran|18|R8|B|2|9|0742989168||dincadrian@yahoo.com|PMBL||Winston Blue (6mg) Pack|Yes|Yes||IS002034|VIOBET IMPEX SRL|Iasi|ISDTCBA03|46|CCC MULTI Tim 2012|121|Retail|0
0|CS241682|2012-07-15 18:41:57|Radu|Gavril||M|1986-09-17|Iasi|Iasi|Prof cujba|25|Frei|A|4|10|0755535172||gavrilradu14@yahoo.com|DUNFCSV|KTSV|Bricheta Camel|Yes|Yes||IS002034|VIOBET IMPEX SRL|Iasi|ISDTCBA02|46|CCC MULTI Tim 2012|121|Retail|0
0|CS241691|2012-07-15 18:45:51|Damian|Dumitrita||F|1992-03-06|Iasi|Iasi|Petru schiopu|24|F1a|B|P|2|0760862721||damian.dumitrita@yahoo.com|PMBL||Winston 100s Blue (6 mg)  Pack|Yes|Yes||IS002034|VIOBET IMPEX SRL|Iasi|ISDTCBA03|46|CCC MULTI Tim 2012|121|Retail|0
0|CS241694|2012-07-15 18:47:35|Dimu|Gabriel||M|1980-12-29|Iasi|Iași|Al. Cel bun|17|A5|A|6|26|0741025045||gabi_dimu@yahoo.com|DUNFCSV||Camel White (4 mg) Pack|Yes|Yes||IS002034|VIOBET IMPEX SRL|Iasi|ISDTCBA04|46|CCC MULTI Tim 2012|121|Retail|0
0|CS241709|2012-07-15 18:52:23|Matei|Ionut||M|1980-05-30|Iasi|Iasi|Arcu|22|0|0|0|0|0755191188||iozomat_is@yahoo.ro|MBRRD||Bricheta Camel|Yes|Yes||IS002034|VIOBET IMPEX SRL|Iasi|ISDTCBA03|46|CCC MULTI Tim 2012|121|Retail|0
0|CS241720|2012-07-15 18:54:43|Frunzete|Adrian||M|1984-08-18|Botosani|Boots anti|Impart train|11|0|0|0|0|0745410415||afrunzete@yahoo.com|KTSV||Bricheta Camel|Yes|Yes||IS002034|VIOBET IMPEX SRL|Iasi|ISDTCBA02|46|CCC MULTI Tim 2012|121|Retail|0
0|CS241739|2012-07-15 19:04:51|Cucos|Emanuel||M|1990-10-20|Iasi|Iasi|Socola|57|A|A|6|22|0753569800||rapidystu_90@yahoo.com|KTBL||Bricheta Camel|Yes|Yes||IS002034|VIOBET IMPEX SRL|Iasi|ISDTCBA03|46|CCC MULTI Tim 2012|121|Retail|0
0|CS241749|2012-07-15 19:08:51|Leonte|Andrei||M|1988-11-27|Iasi|Iasi|Cuza voda|10|D11|A|3|12|0733769878||leonte_andrey@yahoo.com|MCRD||Winston Classic Pack|Yes|Yes||IS002034|VIOBET IMPEX SRL|Iasi|ISDTCBA04|46|CCC MULTI Tim 2012|121|Retail|0
0|CS241755|2012-07-15 19:13:44|Zaharia|Cosmin||M|1985-08-29|Iasi|PASCANI|Moldovei|10|Crinu|B|7|28|0755927285||zaharia_cosmin_constantin@yaho|WIBLH||Winston 100s Blue (6 mg)  Pack|Yes|Yes||IS002034|VIOBET IMPEX SRL|Iasi|ISDTCBA03|46|CCC MULTI Tim 2012|121|Retail|0
0|CS241756|2012-07-15 19:13:58|Mititelu|Alexandra||F|1990-11-10|Neamt|ROMAN|Roman Musat|1|31|B|2|23|0768263095||alexcat_10@yahoo.com|WIBLH||Winston 100s Blue (6 mg)  Pack|Yes|Yes||IS002034|VIOBET IMPEX SRL|Iasi|ISDTCBA04|46|CCC MULTI Tim 2012|121|Retail|0
0|CS241764|2012-07-15 19:18:44|Rosu|Andrada||F|1983-04-06|Iasi|Iasi|Roman voda|1b|F2bis|B|0|1|0742377906||adardna83@yahoo.com|WIBLH||Winston 100s Blue (6 mg)  Pack|Yes|Yes||IS002034|VIOBET IMPEX SRL|Iasi|ISDTCBA02|46|CCC MULTI Tim 2012|121|Retail|0
0|CS241773|2012-07-15 19:22:42|Drobota|Radu||M|1972-04-20|Iasi|Iasi|Alexandru cel bun|21|B2|A|2|4|0740521918||radu_drobota@yahoo.com|MBRFP||Bricheta Camel|Yes|Yes||IS002034|VIOBET IMPEX SRL|Iasi|ISDTCBA02|46|CCC MULTI Tim 2012|121|Retail|0
0|CS241813|2012-07-15 19:36:34|Baetu|Ionut||M|1981-05-07|Iasi|Iasi|Musatini|4|M8|B|0|1|0744522747||johnnzy@yahoo.com|KTSV||Camel White (4 mg) Pack|Yes|Yes||IS002034|VIOBET IMPEX SRL|Iasi|ISDTCBA02|46|CCC MULTI Tim 2012|121|Retail|0
0|CS241828|2012-07-15 19:41:43|Cutar|Ionut||M|1980-07-07|Iasi|IASI|Strapungere Silvestru|7 |I5|B|4|18|0747412626||johnny_boy190@yahoo.com|WISSB||Bricheta Winston|Yes|Yes||IS002034|VIOBET IMPEX SRL|Iasi|ISDTCBA03|46|CCC MULTI Tim 2012|121|Retail|0
0|CS241832|2012-07-15 19:42:44|Buga|Sorina||F|1989-10-03|Iasi|Iasi|Fundac paun|29|0|0|0|0|0757356346||sorina.buga@yahoo.com|MBRFP||Bricheta Camel|Yes|Yes||IS002034|VIOBET IMPEX SRL|Iasi|ISDTCBA02|46|CCC MULTI Tim 2012|121|Retail|0
0|CS241863|2012-07-15 19:47:50|Fedeles|Adrian||M|1991-02-19|Iasi|Iasi|Ion roata|2|0|0|0|0|0755872224||fedeles_adrian@yahoo.com|KTBL||Bricheta Camel|Yes|Yes||IS002034|VIOBET IMPEX SRL|Iasi|ISDTCBA03|46|CCC MULTI Tim 2012|121|Retail|0
0|CS241868|2012-07-15 19:48:25|Neagu|Iulian||M|1982-06-20|Iasi|IASI|Paul|1|337|C|2|11|0744546744||utidavascout@gmail.com|KTSV||Bricheta Camel|Yes|Yes||IS002034|VIOBET IMPEX SRL|Iasi|ISDTCBA04|46|CCC MULTI Tim 2012|121|Retail|0
0|CS241884|2012-07-15 19:50:22|Halceanu|Iulian||M|1989-07-21|Botosani|BUCECEA|Garii |12|0|0|0|0|0761613790||julian_yo_07@yahoo.com|KTBL||Bricheta Camel|Yes|Yes||IS002034|VIOBET IMPEX SRL|Iasi|ISDTCBA03|46|CCC MULTI Tim 2012|121|Retail|0
0|CS241910|2012-07-15 19:54:15|Soimaru|Luana||F|1985-12-04|Iasi|Iasi|Ciric|32|X2|B|6|40|0746054775||luanamarina2000@yahoo.com|PMBL||Winston 100s Blue (6 mg)  Pack|Yes|Yes||IS002034|VIOBET IMPEX SRL|Iasi|ISDTCBA03|46|CCC MULTI Tim 2012|121|Retail|0
0|CS241925|2012-07-15 19:57:35|Constantin|Catalina||F|1979-03-06|Iasi|Iasi|Nicolina|2|0|0|0|0|0742673519||catalina.constantin@yahoo.com|GLMLIL||Glamour Lilac (5mg) Pack|Yes|Yes||IS002034|VIOBET IMPEX SRL|Iasi|ISDTCBA02|46|CCC MULTI Tim 2012|121|Retail|0
0|CS241941|2012-07-15 20:00:31|Ciobanu|Dan||M|1960-06-26|Iasi|IASI|Mircea cel bătrân|18|R8|B|1|5|0743759961|||WIBLH||Winston 100s Blue (6 mg)  Pack|Yes|Yes||IS002034|VIOBET IMPEX SRL|Iasi|ISDTCBA04|46|CCC MULTI Tim 2012|121|Retail|0
0|CS241946|2012-07-15 20:01:23|Valinti|Irina||F|1989-06-23|Iasi|Iasi|Luca arbore|4|516|B|2|8|0746036559||valinti_irina@yahoo.com|PMBL||Winston 100s Blue (6 mg)  Pack|Yes|Yes||IS002034|VIOBET IMPEX SRL|Iasi|ISDTCBA03|46|CCC MULTI Tim 2012|121|Retail|0
0|CS241947|2012-07-15 20:01:36|Agripina|Tudor||M|1986-01-01|Vaslui|Husi|Iuliu maniu|1|20|B|P|1|0742332821||tudor89_agripina@yahoo.com|PMBL||Winston Blue (6mg) Pack|Yes|Yes||IS002034|VIOBET IMPEX SRL|Iasi|ISDTCBA02|46|CCC MULTI Tim 2012|121|Retail|0
0|CS241954|2012-07-15 20:04:02|Malciu|Constantin||M|1987-01-29|Ilfov|POPESTI LEORDENI|Unirii|19|2|2|0|21|0767061131||konstanyne_2009@yahoo.com|KTBL||Winston Blue (6mg) Pack|Yes|Yes||IS002034|VIOBET IMPEX SRL|Iasi|ISDTCBA04|46|CCC MULTI Tim 2012|121|Retail|0
0|CS241955|2012-07-15 20:04:16|Soimaru|Tudor||M|1983-05-28|Iasi|Iasi|Ciric|32|X2|B|6|40|0745992268||tudorsoimaru@yahoo.com|PMBL||Winston 100s Blue (6 mg)  Pack|Yes|Yes||IS002034|VIOBET IMPEX SRL|Iasi|ISDTCBA03|46|CCC MULTI Tim 2012|121|Retail|0
0|CS241964|2012-07-15 20:07:23|Bargan|Maria||F|1961-02-09|Iasi|Iasi|Valea adanca|33|0|0|0|0|0741663838||barganmaria@yahoo.com|PMEKBL||Winston 100s Blue (6 mg)  Pack|Yes|Yes||IS002034|VIOBET IMPEX SRL|Iasi|ISDTCBA03|46|CCC MULTI Tim 2012|121|Retail|0
0|CS241965|2012-07-15 20:07:24|Bran|Andrei||M|1992-04-16|Valcea|RAMNICU VALCEA|Independentei|239|P3|A|5|535|0740325683||bran.andrei1992@yahoo.com|PMBL||Winston Blue (6mg) Pack|Yes|Yes||IS002034|VIOBET IMPEX SRL|Iasi|ISDTCBA04|46|CCC MULTI Tim 2012|121|Retail|0
0|CS241969|2012-07-15 20:08:12|Fraitor|Sorin||M|1984-08-14|Dolj|Craiova|Brancoveanu|41|201|S1|3|13|0760065004||fraitor@yahoo.com|KTBL||Bricheta Camel|Yes|Yes||IS002034|VIOBET IMPEX SRL|Iasi|ISDTCBA02|46|CCC MULTI Tim 2012|121|Retail|0
0|CS241971|2012-07-15 20:08:44|Manole|Ionut||M|1980-12-17|Iasi|Iasi|Columnei|25|E2|0|0|3|0743294396||mano_delaiasi@yahoo.com|PMBL||Winston Blue (6mg) Pack|Yes|Yes||IS002034|VIOBET IMPEX SRL|Iasi|ISDTCBA03|46|CCC MULTI Tim 2012|121|Retail|0
0|CS241972|2012-07-15 20:09:23|Baetu|Ionut||M|1981-05-07|Iasi|Iasi|Musatini|4|M8|B|0|1|0744522747||johnnzy@yahoo.com|KTBL||Winston Blue (6mg) Pack|Yes|Yes||IS002034|VIOBET IMPEX SRL|Iasi|ISDTCBA03|46|CCC MULTI Tim 2012|121|Retail|0
0|CS241974|2012-07-15 20:10:30|Pricopie|Daniel||M|1978-09-17|Iasi|Iasi|Socola|32|Z2|0|3|22|0740835932||danpricopie@yahoo.com|PMBL||Winston Blue (6mg) Pack|Yes|Yes||IS002034|VIOBET IMPEX SRL|Iasi|ISDTCBA03|46|CCC MULTI Tim 2012|121|Retail|0
0|CS241977|2012-07-15 20:11:44|Cojocariu|Alexandru||M|1989-02-06|Iasi|Iasi|Tabacului|33|J2|0|4|17|0731900170||sanduu_d@yahoo.com|PMBL||Winston Blue (6mg) Pack|Yes|Yes||IS002034|VIOBET IMPEX SRL|Iasi|ISDTCBA03|46|CCC MULTI Tim 2012|121|Retail|0
0|CS241982|2012-07-15 20:13:04|Marin|Bogdan||M|1982-08-08|Iasi|Iasi|Tabacului|35|J1|A|3|13|0747806633||gava_20@yahoo.com|PMBL||Winston Blue (6mg) Pack|Yes|Yes||IS002034|VIOBET IMPEX SRL|Iasi|ISDTCBA03|46|CCC MULTI Tim 2012|121|Retail|0
0|CS242006|2012-07-15 20:18:04|Cozma|Cristina||F|1970-03-19|Iasi|Iasi|Nicolaie Iorga|49|G1|B|4|14|0745047426||cryssta_san@yahoo.com|PMBL||Winston 100s Blue (6 mg)  Pack|Yes|Yes||IS002034|VIOBET IMPEX SRL|Iasi|ISDTCBA04|46|CCC MULTI Tim 2012|121|Retail|0
0|CS242014|2012-07-15 20:19:31|Patrautanu|Andrei||M|1986-10-13|Iasi|Iasi|Primaverii|25|T3|A|1|5|0755926140||patrautanu_andrei@yahoo.com|KTBL6||Winston 100s Blue (6 mg)  Pack|Yes|Yes||IS002034|VIOBET IMPEX SRL|Iasi|ISDTCBA04|46|CCC MULTI Tim 2012|121|Retail|0
0|CS242020|2012-07-15 20:20:32|Soimaru|Alin||F|1983-04-10|Iasi|Pascani|Stefan cel mare|3|43b|A|2|7|0744317863||soimaruralin@yahoo.com|KTBL6||Winston 100s Blue (6 mg)  Pack|Yes|Yes||IS002034|VIOBET IMPEX SRL|Iasi|ISDTCBA04|46|CCC MULTI Tim 2012|121|Retail|0
0|CS242025|2012-07-15 20:22:03|Condurache|Marian||M|1993-08-04|Iasi|IASI|Valea Lupului|24|0|0|0|0|0742515730||marian.condurache@yahoo.com|PMBL||Winston 100s Blue (6 mg)  Pack|Yes|Yes||IS002034|VIOBET IMPEX SRL|Iasi|ISDTCBA04|46|CCC MULTI Tim 2012|121|Retail|0
0|CS242029|2012-07-15 20:23:11|Perju|Lacramioara||F|1978-05-09|Iasi|Iasi|Tabacului|33|J2|0|1|5|0749922977||ela_lacri@yahoo.com|PMBL||Winston 100s Blue (6 mg)  Pack|Yes|Yes||IS002034|VIOBET IMPEX SRL|Iasi|ISDTCBA04|46|CCC MULTI Tim 2012|121|Retail|0
0|CS242035|2012-07-15 20:24:37|Dinca|George||M|1985-04-16|Iasi|Iasi|Mircea cel batran|18|R8|B|2|9|0756362580||dincageorge@yahoo.com|PMBL||Winston Blue (6mg) Pack|Yes|Yes||IS002034|VIOBET IMPEX SRL|Iasi|ISDTCBA03|46|CCC MULTI Tim 2012|121|Retail|0
0|CS242037|2012-07-15 20:25:13|Valinti|Alin||M|1987-09-14|Iasi|IASI|Luca Arbore|4|516|B|2|8|0746036559||alin_gabryell@yahoo.com|LMBL||Winston Blue (6mg) Pack|Yes|Yes||IS002034|VIOBET IMPEX SRL|Iasi|ISDTCBA04|46|CCC MULTI Tim 2012|121|Retail|0
0|CS242039|2012-07-15 20:26:24|Burlacu|Ion||M|1990-05-12|Iasi|IASI|Soarelui|6|T4|B|2|9|0755979878||ionutz_ionutz18@yahoo.com|LMBL||Winston Blue (6mg) Pack|Yes|Yes||IS002034|VIOBET IMPEX SRL|Iasi|ISDTCBA03|46|CCC MULTI Tim 2012|121|Retail|0
0|CS242045|2012-07-15 20:27:31|Ichim|Alexandru||M|1990-10-03|Iasi|IASI|Pacurari|114|186|B|3|10|0749047595||alex.ichim90@yahoo.com|PMBL||Winston Blue (6mg) Pack|Yes|Yes||IS002034|VIOBET IMPEX SRL|Iasi|ISDTCBA03|46|CCC MULTI Tim 2012|121|Retail|0
0|CS242049|2012-07-15 20:28:07|Bargan|Petru||M|1959-05-17|Iasi|Iasi|Valea adanca|33|0|0|0|0|0746054775||petru.bargan@yahoo.com|LMBLH||Winston Blue (6mg) Pack|Yes|Yes||IS002034|VIOBET IMPEX SRL|Iasi|ISDTCBA04|46|CCC MULTI Tim 2012|121|Retail|0
0|CS242050|2012-07-15 20:28:33|Cojocaru|Sorin||M|1986-07-03|Iasi|IASI|Vasile Lupu|99|0|0|0|0|0732177531||cojocaru_sorin@yahoo.com|KTBL||Winston Blue (6mg) Pack|Yes|Yes||IS002034|VIOBET IMPEX SRL|Iasi|ISDTCBA03|46|CCC MULTI Tim 2012|121|Retail|0
0|CS242055|2012-07-15 20:29:15|Bobeica|Alexandra||F|1983-02-24|Bacau|Bacau|Nordului|8|8|0|3|14|0743261998||alexsweety@yahoo.com|MBRFP||Winston Blue (6mg) Pack|Yes|Yes||IS002034|VIOBET IMPEX SRL|Iasi|ISDTCBA04|46|CCC MULTI Tim 2012|121|Retail|0
0|CS242057|2012-07-15 20:30:00|Baltatu|Eduard||M|1992-04-22|Iasi|HOLBOCA|Holboca|66|0|0|0|0|0769302478||eduard.baltatu@yahoo.com|PMBL||Winston Blue (6mg) Pack|Yes|Yes||IS002034|VIOBET IMPEX SRL|Iasi|ISDTCBA03|46|CCC MULTI Tim 2012|121|Retail|0
0|CS242060|2012-07-15 20:30:45|Mititelu|Georgiana||F|1992-04-21|Neamt|ROMAN|Roman Musat|0|31|B|2|23|0766465926||geo_mititelu@yahoo.com|KTBL||Winston Blue (6mg) Pack|Yes|Yes||IS002034|VIOBET IMPEX SRL|Iasi|ISDTCBA04|46|CCC MULTI Tim 2012|121|Retail|0
0|CS242065|2012-07-15 20:31:40|Tudose|Marius||M|1980-11-23|Iasi|Iasi|Tudor vladimirescu|14|P14|C|0|3|0752384199||tudosemarius@yahoo.com|LMBL||Winston Blue (6mg) Pack|Yes|Yes||IS002034|VIOBET IMPEX SRL|Iasi|ISDTCBA03|46|CCC MULTI Tim 2012|121|Retail|0
0|CS242073|2012-07-15 20:33:04|Panaite|Nicu||M|1987-06-15|Iasi|Iasi|Independentei|30|Y5|A|9|54|0742159833||ucin_nicu@yahoo.com|KTBL||Winston Blue (6mg) Pack|Yes|Yes||IS002034|VIOBET IMPEX SRL|Iasi|ISDTCBA03|46|CCC MULTI Tim 2012|121|Retail|0
0|CS242076|2012-07-15 20:34:00|Dascalu|Petrica||M|1983-07-06|Iasi|Iasi|Leticani|3|0|0|0|0|0749147763||dascalescupetrica@yahoo.com|PHMQBL||Winston Blue (6mg) Pack|Yes|Yes||IS002034|VIOBET IMPEX SRL|Iasi|ISDTCBA03|46|CCC MULTI Tim 2012|121|Retail|0
0|CS242082|2012-07-15 20:35:07|Ancuta|Iulian||M|1983-09-23|Iasi|Iasi|Gradinari|14|M4|B|3|17|0757433988||iulian_iulik@yahoo.com|PHMQBL||Winston Blue (6mg) Pack|Yes|Yes||IS002034|VIOBET IMPEX SRL|Iasi|ISDTCBA03|46|CCC MULTI Tim 2012|121|Retail|0
0|CS242086|2012-07-15 20:35:48|Gradinaru|Bogdan||M|1986-01-01|Iasi|Iasi|Orientului|1|850|A|3|12|0742838980||bogdan_florinel88@yahoo.com|PMBL||Bricheta Winston|Yes|Yes||IS002034|VIOBET IMPEX SRL|Iasi|ISDTCBA04|46|CCC MULTI Tim 2012|121|Retail|0
0|CS242087|2012-07-15 20:35:55|Iosub|Tudor||M|1993-09-06|Vaslui|BARLAD|Republicii|18|0|0|0|0|0741124740||yo.tudor15@yahoo.com|LMBL||Winston Blue (6mg) Pack|Yes|Yes||IS002034|VIOBET IMPEX SRL|Iasi|ISDTCBA03|46|CCC MULTI Tim 2012|121|Retail|0
0|CS242102|2012-07-15 20:40:52|Bardasu|Ramona||F|1987-07-11|Bacau|Bacau|Miron Costin|1|1|B|1|7|0743614857||ramonaiuliana87@yahoo.com|KTSV||Bricheta Camel|Yes|Yes||IS002034|VIOBET IMPEX SRL|Iasi|ISDTCBA12|46|CCC MULTI Tim 2012|121|Retail|0
0|CS242104|2012-07-15 20:40:57|Ciobanu|Marius||M|1993-09-04|Neamt|BICAZ|Piatra corpului|13|0|0|0|0|0749930487||killer_kalu@yahoo.com|DUNFCDB||Bricheta Camel|Yes|Yes||IS002034|VIOBET IMPEX SRL|Iasi|ISDTCBA04|46|CCC MULTI Tim 2012|121|Retail|0
0|CS242114|2012-07-15 20:45:59|Dobranschi|Marian||M|1986-03-01|Suceava|CAMPULUNG MOLDOVENESC|Codrescu|1|C|0|4|133|0727121856||dobrica_3@yahoo.com|PHMQBL||Bricheta Winston|Yes|Yes||IS002034|VIOBET IMPEX SRL|Iasi|ISDTCBA12|46|CCC MULTI Tim 2012|121|Retail|0
0|CS242115|2012-07-15 20:46:34|Bolohan|Catalina||F|1992-10-08|Iasi|PASCANI|Gradinitei|21|0|0|0|0|0722286738||bolohan_catalina@yahoo.com|PMRD||Winston 100s Clasic (10 mg)  Pack|Yes|Yes||IS002034|VIOBET IMPEX SRL|Iasi|ISDTCBA04|46|CCC MULTI Tim 2012|121|Retail|0
0|CS242119|2012-07-15 20:47:37|Mardari|Adrian||M|1988-09-04|Iasi|Iasi|Vasile lupu|114|A1|A|9|4|0748904819||adi.mardari@gmail.com|KTNBK||Bricheta Winston|Yes|Yes||IS002034|VIOBET IMPEX SRL|Iasi|ISDTCBA03|46|CCC MULTI Tim 2012|121|Retail|0
0|CS242138|2012-07-15 20:52:30|Arnautu|Andrei||M|1983-02-21|Iasi|Iasi|Sf. Lazar|15|K6|0|2|7|0740814486||liviuandrei21@yahoo.com|KTBL||Bricheta Camel|Yes|Yes||IS002034|VIOBET IMPEX SRL|Iasi|ISDTCBA04|46|CCC MULTI Tim 2012|121|Retail|0
0|CS242143|2012-07-15 20:53:41|Baltariu|Ionut||M|1986-02-20|Iasi|Iasi|Sarmisegetuza|1|252|A|P|2|0749070347||john_eu8@yahoo.com|KTBL||Bricheta Camel|Yes|Yes||IS002034|VIOBET IMPEX SRL|Iasi|ISDTCBA03|46|CCC MULTI Tim 2012|121|Retail|0
0|CS242146|2012-07-15 20:54:28|Pavel|Liviu||M|1982-06-12|Iasi|IASI|Prof. a. Sesan|34|L3|A|3|13|0742336709||lypooo82@yahoo.com|KTBL||Camel Black (6mg) Pack|Yes|Yes||IS002034|VIOBET IMPEX SRL|Iasi|ISDTCBA04|46|CCC MULTI Tim 2012|121|Retail|0
0|CS242152|2012-07-15 20:56:29|Tifachi|Lucian||M|1980-06-06|Iasi|Iasi|Tabacului|33|J2|0|2|6|0740406593||tifachilucian@yahoo.com|KTBL||Camel Black (6mg) Pack|Yes|Yes||IS002034|VIOBET IMPEX SRL|Iasi|ISDTCBA03|46|CCC MULTI Tim 2012|121|Retail|0
0|CS242172|2012-07-15 20:59:08|Zamurca|Stefan||M|1965-12-23|Iasi|IASI|Vasile lupu|150|J1-3|3|0|2|0728236183||zamurca69@yahoo.com|MCBL||Winston Blue (6mg) Pack|Yes|Yes||IS002034|VIOBET IMPEX SRL|Iasi|ISDTCBA04|46|CCC MULTI Tim 2012|121|Retail|0
0|CS242206|2012-07-15 21:04:35|Craciunas|Vasile||M|1961-04-07|Iasi|IASI|Vasile Lupu|150|J13|3|2|3|0744528455||vasile.craciunas@yahoo.com|WIBL||Winston Blue (6mg) Pack|Yes|Yes||IS002034|VIOBET IMPEX SRL|Iasi|ISDTCBA04|46|CCC MULTI Tim 2012|121|Retail|0
0|CS242233|2012-07-15 21:10:26|Sencu|Francisc Ciprian||M|1984-09-22|Iasi|IASI|Nicolae Iorga|39|1|A|4|13|0754254532||crantzcypy@yahoo.com|PHMQBL||Winston Blue (6mg) Pack|Yes|Yes||IS002034|VIOBET IMPEX SRL|Iasi|ISDTCBA04|46|CCC MULTI Tim 2012|121|Retail|0
0|CS242244|2012-07-15 21:12:22|Grosu|Bogdan||M|1986-10-15|Iasi|Iasi|Prof.a.sesan|16|I1|-|0|2|0742990269||bobi_talibanul@yahoo.com|KTSV||Bricheta Camel|Yes|Yes||IS002034|VIOBET IMPEX SRL|Iasi|ISDTCBA04|46|CCC MULTI Tim 2012|121|Retail|0
0|CS242263|2012-07-15 21:15:28|Zecheru|Catalin||M|1984-03-25|Bucuresti|SECTOR 3|Sos Mihai Bravu|292|5|C|1|82|0731044009||catalinzecheru@yahoo.com|KTSV||Bricheta Camel|Yes|Yes||IS002034|VIOBET IMPEX SRL|Iasi|ISDTCBA03|46|CCC MULTI Tim 2012|121|Retail|0
0|CS242294|2012-07-15 21:20:04|Anatoly|Gubsky||M|1987-09-02|Iasi|Iasi|Unirii|3|0|0|0|0|0745673445||gubsky@yahoo.com|KTH||Bricheta Camel|Yes|Yes||IS002034|VIOBET IMPEX SRL|Iasi|ISDTCBA03|46|CCC MULTI Tim 2012|121|Retail|0
0|CS242303|2012-07-15 21:22:49|Ursache|Victor||M|1989-12-22|Iasi|Iasi|Crisului|17|C22|0|3|15|0756514267||victoras_ursache@yahoo.com|LMRD||Winston Classic Pack|Yes|Yes||IS002034|VIOBET IMPEX SRL|Iasi|ISDTCBA03|46|CCC MULTI Tim 2012|121|Retail|0
0|CS242315|2012-07-15 21:25:33|Condurachi|Constantin||M|1978-03-17|Iasi|Iasi|Tudor vladimirescu|12|P14|B|4|17|0753676725||condurache.costel@yahoo.com|WICLH||Winston 100s Clasic (10 mg)  Pack|Yes|Yes||IS002034|VIOBET IMPEX SRL|Iasi|ISDTCBA04|46|CCC MULTI Tim 2012|121|Retail|0
0|CS242318|2012-07-15 21:26:15|Mocanu|Dorinela||F|1991-09-18|Iasi|Iasi|Tutora|15|0|0|6|42|0746693127||dorina_mocanu18@yahoo.com|PMEKBL||Winston 100s Blue (6 mg)  Pack|Yes|Yes||IS002034|VIOBET IMPEX SRL|Iasi|ISDTCBA03|46|CCC MULTI Tim 2012|121|Retail|0
0|CS242322|2012-07-15 21:27:19|Pralea|Vasile||M|1986-03-01|Iasi|Focsani|Tudor Vladimirescu|2|21|A1|9|33|0744459001||vasi2000@yHoo.com|PMBL||Winston Blue (6mg) Pack|Yes|Yes||IS002034|VIOBET IMPEX SRL|Iasi|ISDTCBA12|46|CCC MULTI Tim 2012|121|Retail|0
0|CS242341|2012-07-15 21:33:14|Zamfir|Paul||M|1985-07-06|Neamt|Roman|Rahovei|1|32|I|9|33|0768522110||paulmoreno2009@yahoo.com|WICLH|WIBLH|Winston Classic Pack|Yes|Yes||IS002034|VIOBET IMPEX SRL|Iasi|ISDTCBA12|46|CCC MULTI Tim 2012|121|Retail|0
0|CS242342|2012-07-15 21:33:26|Pasca|Magda||F|1961-09-16|Iasi|Iasi|Pacurari|48|553|B|6|21|0747565536||pascamagda@yahoo.com|PMSSGR||Bricheta Winston|Yes|Yes||IS002034|VIOBET IMPEX SRL|Iasi|ISDTCBA03|46|CCC MULTI Tim 2012|121|Retail|0
0|CS242348|2012-07-15 21:35:22|Ștefan|Valeriu||M|1971-04-26|Bucuresti|SECTOR 2|Pantelimon|255|43|C|10|120|0727700134||puiut_71@yahoo.com|CAFI||Bricheta Camel|Yes|Yes||IS002034|VIOBET IMPEX SRL|Iasi|ISDTCBA04|46|CCC MULTI Tim 2012|121|Retail|0
0|CS242356|2012-07-15 21:37:02|Sofronie|Mihai||M|1974-11-08|Iasi|Iasi|Radu voda|10|767|B|P|2|0758242523||cata_michi2@yahoo.com|WIBL||Bricheta Winston|Yes|Yes||IS002034|VIOBET IMPEX SRL|Iasi|ISDTCBA03|46|CCC MULTI Tim 2012|121|Retail|0
0|CS242398|2012-07-15 21:47:22|Nour|Valentin||M|1988-03-09|Iasi|Iasi|Cornesti|3|0|0|0|0|0751782771||valy_casanova@yahoo.com|KTBL||Camel Black (6mg) Pack|Yes|Yes||IS002034|VIOBET IMPEX SRL|Iasi|ISDTCBA12|46|CCC MULTI Tim 2012|121|Retail|0
0|CS242399|2012-07-15 21:47:39|Istrate|George||M|1986-04-20|Iasi|IASI|Naționala|192|152|A|4|19|0767547029||istrategeorgealexandru@yahoo.com|WIBL||Bricheta Winston|Yes|Yes||IS002034|VIOBET IMPEX SRL|Iasi|ISDTCBA04|46|CCC MULTI Tim 2012|121|Retail|0
0|CS242401|2012-07-15 21:48:21|Crevelescu|Ioana||F|1989-06-13|Bucuresti|Bucuresti|Duzilor|36|0|0|0|0|0761801522||pysy_myk17@yahoo.com|MBRFP||Bricheta Camel|Yes|Yes||IS002034|VIOBET IMPEX SRL|Iasi|ISDTCBA03|46|CCC MULTI Tim 2012|121|Retail|0
0|CS242415|2012-07-15 21:56:05|Balteanu|Adrian||M|1984-09-21|Neamt|Roman|Bogdan Dragoș|0|7|C|1|33|0765091585||adibalteanu@yahoo.com|KTBL||Bricheta Camel|Yes|Yes||IS002034|VIOBET IMPEX SRL|Iasi|ISDTCBA12|46|CCC MULTI Tim 2012|121|Retail|0
0|CS242426|2012-07-15 21:58:17|Urda|Gabriela||F|1982-06-23|Bucuresti|SECTOR 5|Fruntas gurita Ilie|31|0|0|0|0|0724395358||urdagabriela@yahoo.com|MBRGL||Bricheta Camel|Yes|Yes||IS002034|VIOBET IMPEX SRL|Iasi|ISDTCBA04|46|CCC MULTI Tim 2012|121|Retail|0
0|CS242429|2012-07-15 21:58:53|Badarau|Florin||M|1978-04-23|Iasi|Iasi|Socola|28|Z3|A|8|53|0751391147||djshadow111111@yahoo.com|WIBLH||Winston Blue (6mg) Pack|Yes|Yes||IS002034|VIOBET IMPEX SRL|Iasi|ISDTCBA03|46|CCC MULTI Tim 2012|121|Retail|0
0|CS242439|2012-07-15 22:01:13|Chebac|Liviu||M|1986-09-08|Iasi|IASI|Bucium|17|C1|0|3|10|0753347675||papioane_mario@yahoo.com|KTBL||Winston Blue (6mg) Pack|Yes|Yes||IS002034|VIOBET IMPEX SRL|Iasi|ISDTCBA04|46|CCC MULTI Tim 2012|121|Retail|0
0|CS242447|2012-07-15 22:02:34|Disca|Paul||M|1988-06-23|Iasi|Iasi|Dancu|46|0|0|0|0|0748050910||disches@yahoo.com|KTBL||Bricheta Camel|Yes|Yes||IS002034|VIOBET IMPEX SRL|Iasi|ISDTCBA03|46|CCC MULTI Tim 2012|121|Retail|0
0|CS242456|2012-07-15 22:04:51|Fortu|Rares||M|1985-01-09|Iasi|IASI|Clopotari|8|922B|A|3|14|0744653088||cont0market@gmail.com|KTCON||Bricheta Camel|Yes|Yes||IS002034|VIOBET IMPEX SRL|Iasi|ISDTCBA04|46|CCC MULTI Tim 2012|121|Retail|0
0|CS242462|2012-07-15 22:05:36|Rusu|Florin||M|1990-03-09|Iasi|Iasi|Buridava|14|P6|A|0|3|0753685066||europeanul@yahoo.com|PMBL||Winston Blue (6mg) Pack|Yes|Yes||IS002034|VIOBET IMPEX SRL|Iasi|ISDTCBA03|46|CCC MULTI Tim 2012|121|Retail|0
0|CS242468|2012-07-15 22:06:32|Nemesu|Liviu||M|1986-06-27|Neamt|ROMAN|Revolutiei|1|1|A|3|12|0740089323||lyvyu@yaho.com|WIBL|KTBL|Winston Blue (6mg) Pack|Yes|Yes||IS002034|VIOBET IMPEX SRL|Iasi|ISDTCBA12|46|CCC MULTI Tim 2012|121|Retail|0
0|CS242478|2012-07-15 22:09:14|Popina|Catalin||M|1985-04-26|Buzau|BUZAU|Dorobanti|1|29-1|0|3|15|0763638578||p_c_razvan@yahoo.com|KTBL||Winston Blue (6mg) Pack|Yes|Yes||IS002034|VIOBET IMPEX SRL|Iasi|ISDTCBA04|46|CCC MULTI Tim 2012|121|Retail|0
0|CS242490|2012-07-15 22:13:41|Tiganu|Marius||M|1986-08-15|Iasi|Iasi|Tudor Vladimirescu|0|T7|0|1|129|0746475242||tiganumarius@yahoo.com|MBRRD||Camel Filters (10mg) Pack|Yes|Yes||IS002034|VIOBET IMPEX SRL|Iasi|ISDTCBA12|46|CCC MULTI Tim 2012|121|Retail|0
0|CS242495|2012-07-15 22:14:58|Taran|Rares||M|1986-09-16|Iasi|Iasi|Tudor Vladimirescu|1|T7|0|1|129|0740396721||rares_rgt16@yahoo.com|KTH||Camel Filters (10mg) Pack|Yes|Yes||IS002034|VIOBET IMPEX SRL|Iasi|ISDTCBA12|46|CCC MULTI Tim 2012|121|Retail|0
0|CS242501|2012-07-15 22:17:48|Larion|Ciprian||M|1987-06-18|Suceava|Falticeni|Bradului|45|0|0|0|0|0767231180||larry@yahoo.com|KTH||Camel Filters (10mg) Pack|Yes|Yes||IS002034|VIOBET IMPEX SRL|Iasi|ISDTCBA12|46|CCC MULTI Tim 2012|121|Retail|0
0|CS242504|2012-07-15 22:18:22|Cazacu|Marian||M|1973-03-06|Iasi|IASI|Principala|15|0|0|0|0|0752523180||zoom34is@yahoo.com|WIBL||Bricheta Winston|Yes|Yes||IS002034|VIOBET IMPEX SRL|Iasi|ISDTCBA04|46|CCC MULTI Tim 2012|121|Retail|0
0|CS242516|2012-07-15 22:25:14|Tenchiu|Valentin||M|1985-12-02|Bacau|TARGU OCNA|Viitorului|7|0|0|0|0|0748207820||tepos_bau@yahoo.com|KTBL||Bricheta Camel|Yes|Yes||IS002034|VIOBET IMPEX SRL|Iasi|ISDTCBA12|46|CCC MULTI Tim 2012|121|Retail|0
0|CS242517|2012-07-15 22:26:45|Rusu|Raluca||F|1985-10-14|Iasi|Iasi|Pantelimon halipa|6a|H4b|B|4|19|0748789783||racutz_85@yahoo.com|KTSV||Bricheta Camel|Yes|Yes||IS002034|VIOBET IMPEX SRL|Iasi|ISDTCBA03|46|CCC MULTI Tim 2012|121|Retail|0
0|CS242521|2012-07-15 22:27:32|Onofrei|Alina||F|1980-04-17|Iasi|IASI|Nicolae Iorga|18|904A|A|0|1|0747334778||alynuta1980@yahoo.com|WISSM||Winston Super Slims Menthol (5mg) Pack|Yes|Yes||IS002034|VIOBET IMPEX SRL|Iasi|ISDTCBA04|46|CCC MULTI Tim 2012|121|Retail|0
0|CS242522|2012-07-15 22:28:04|Chebac|Andreea||F|1989-04-08|Iasi|SANGERI|Principala|1|0|0|0|0|0753347675||sirena855555@yahoo.com|WIBLH||Winston 100s Blue (6 mg)  Pack|Yes|Yes||IS002034|VIOBET IMPEX SRL|Iasi|ISDTCBA12|46|CCC MULTI Tim 2012|121|Retail|0
0|CS242523|2012-07-15 22:28:56|Thaci|Dragos||M|1985-05-01|Iasi|Iasi|Hatman sendrea|25|H3|A|2|8|0744284198||dragos_thaci@yahoo.com|WIBL||Winston Blue (6mg) Pack|Yes|Yes||IS002034|VIOBET IMPEX SRL|Iasi|ISDTCBA03|46|CCC MULTI Tim 2012|121|Retail|0
0|CS242529|2012-07-15 22:31:11|Micu|Dan||M|1985-04-19|Iasi|IASI|Vasile Alexandri|131|S2|2|4|7|0743028524||micudanstefan@yahoo.com|KTBL||Bricheta Camel|Yes|Yes||IS002034|VIOBET IMPEX SRL|Iasi|ISDTCBA04|46|CCC MULTI Tim 2012|121|Retail|0
0|CS242535|2012-07-15 22:33:10|Rusu|Ionut||M|1982-03-01|Iasi|Iasi|Stejar|37|A1|D|P|4|0747631206||dyck_u_duck@yahoo.com|KTBL||Camel Black (6mg) Pack|Yes|Yes||IS002034|VIOBET IMPEX SRL|Iasi|ISDTCBA03|46|CCC MULTI Tim 2012|121|Retail|0
0|CS242540|2012-07-15 22:35:44|Zamfir|Cornelia||F|1951-11-17|Iasi|Iasi|Decebal|18|C2|B|4|20|0741316715||zamfir_cornelia@yahoo.com|WIBL||Winston Blue (6mg) Pack|Yes|Yes||IS002034|VIOBET IMPEX SRL|Iasi|ISDTCBA12|46|CCC MULTI Tim 2012|121|Retail|0
0|CS242545|2012-07-15 22:36:32|Durnea|Gabriel||M|1986-03-30|Iasi|Iasi|Columnei|41|K7|0|4|14|0755845791||durneagabriel@yahoo.com|WIBL||Winston Blue (6mg) Pack|Yes|Yes||IS002034|VIOBET IMPEX SRL|Iasi|ISDTCBA03|46|CCC MULTI Tim 2012|121|Retail|0
0|CS242561|2012-07-15 22:42:09|Munteanu|Andrei||M|1994-04-03|Iasi|Iași|Canta|24|324|B|3|16|0746454903||acid_burn_augustin@yahoo.com|CAFI||Camel Filters (10mg) Pack|Yes|Yes||IS002034|VIOBET IMPEX SRL|Iasi|ISDTCBA12|46|CCC MULTI Tim 2012|121|Retail|0
0|CS242569|2012-07-15 22:44:04|Gazea|Andrei||M|1991-01-25|Iasi|Iasi|Tudor vladimirescu|0|T7|0|2|227|0722223340||gazea@yahoo.com|KTH||Camel Filters (10mg) Pack|Yes|Yes||IS002034|VIOBET IMPEX SRL|Iasi|ISDTCBA12|46|CCC MULTI Tim 2012|121|Retail|0
0|CS242579|2012-07-15 22:48:53|Ionescu|Daniel||M|1978-12-31|Iasi|Iasi|Bd Tudor vladimirescu|105|105|B|3|16|0746943942||dannhc@yahoo.com|WIBLH||Winston Blue (6mg) Pack|Yes|Yes||IS002034|VIOBET IMPEX SRL|Iasi|ISDTCBA04|46|CCC MULTI Tim 2012|121|Retail|0
0|CS242583|2012-07-15 22:57:08|Avadani|Mihai||M|1979-06-17|Iasi|IASI|Sarmisegetuza|11|I2|C|0|2|0747895354||avadanimihai44@yahoo.com|KTBL||Winston Blue (6mg) Pack|Yes|Yes||IS002034|VIOBET IMPEX SRL|Iasi|ISDTCBA04|46|CCC MULTI Tim 2012|121|Retail|0
0|CS242585|2012-07-15 23:05:16|Haciu|Florin||M|1979-01-03|Iasi|Iasi|Simionescu|11|L3|0|2|10|0740429034||florinhapciu@yahoo.com|WIBL||Winston Blue (6mg) Pack|Yes|Yes||IS002034|VIOBET IMPEX SRL|Iasi|ISDTCBA03|46|CCC MULTI Tim 2012|121|Retail|0
0|CS242584|2012-07-15 23:05:16|Simionica|Claudiu||M|1992-03-15|Iasi|IASI|Mitropolit Varlam|5|C4|0|4|123|0746429008||cr3tzu_92@yahoo.com|KTBL||Bricheta Camel|Yes|Yes||IS002034|VIOBET IMPEX SRL|Iasi|ISDTCBA04|46|CCC MULTI Tim 2012|121|Retail|0
0|FS343347|2012-07-14 11:33:14||||M|||||||||||||KTBL6||||||||||46|CCC MULTI Tim 2012|121|Retail|0
0|FS343356|2012-07-14 11:36:43||||M|||||||||||||KTBL||||||||||46|CCC MULTI Tim 2012|121|Retail|0
0|FS343358|2012-07-14 11:37:24|||||||||||||||||KTBL||||||||||46|CCC MULTI Tim 2012|121|Retail|0
0|FS343370|2012-07-14 11:40:14|||||||||||||||||KTSV||||||||||46|CCC MULTI Tim 2012|121|Retail|0
0|FS343418|2012-07-14 11:57:01|||||||||||||||||KTBL||||||||||46|CCC MULTI Tim 2012|121|Retail|0
0|FS343449|2012-07-14 12:05:30|||||||||||||||||MBRGLFT||||||||||46|CCC MULTI Tim 2012|121|Retail|0
0|FS343464|2012-07-14 12:09:55||||M|||||||||||||KTBL6||||||||||46|CCC MULTI Tim 2012|121|Retail|0
0|FS343668|2012-07-14 13:03:42|||||||||||||||||DUNFCDB||||||||||46|CCC MULTI Tim 2012|121|Retail|0
0|FS343680|2012-07-14 13:08:58|||||||||||||||||WCHRDS||||||||||46|CCC MULTI Tim 2012|121|Retail|0
0|FS343744|2012-07-14 13:27:01|||||||||||||||||KTBL||||||||||46|CCC MULTI Tim 2012|121|Retail|0
0|FS343912|2012-07-14 14:18:46|||||||||||||||||KTBL||||||||||46|CCC MULTI Tim 2012|121|Retail|0
0|FS343944|2012-07-14 14:34:04|||||||||||||||||PMBL||||||||||46|CCC MULTI Tim 2012|121|Retail|0
0|FS344019|2012-07-14 15:26:22|||||||||||||||||LMGR||||||||||46|CCC MULTI Tim 2012|121|Retail|0
0|FS344354|2012-07-14 17:49:15||||M|||||||||||||MBRFPEX||||||||||46|CCC MULTI Tim 2012|121|Retail|0
0|FS344442|2012-07-14 18:07:21|||||||||||||||||KTH||||||||||46|CCC MULTI Tim 2012|121|Retail|0
0|FS344506|2012-07-14 18:21:51||||F|||||||||||||PMEBLH||||||||||46|CCC MULTI Tim 2012|121|Retail|0
0|FS344618|2012-07-14 18:49:37||||M|||||||||||||LMBL||||||||||46|CCC MULTI Tim 2012|121|Retail|0
0|FS344628|2012-07-14 18:51:54||||M|||||||||||||PARAB||||||||||46|CCC MULTI Tim 2012|121|Retail|0
0|FS344663|2012-07-14 18:57:42||||M|||||||||||||PMECBK||||||||||46|CCC MULTI Tim 2012|121|Retail|0
0|FS344678|2012-07-14 19:00:31||||F|||||||||||||KTBL||||||||||46|CCC MULTI Tim 2012|121|Retail|0
0|FS344715|2012-07-14 19:10:51|||||||||||||||||LMRD||||||||||46|CCC MULTI Tim 2012|121|Retail|0
0|FS344818|2012-07-14 19:42:28||||M|||||||||||||KTBL||||||||||46|CCC MULTI Tim 2012|121|Retail|0
0|FS344830|2012-07-14 19:45:46||||M|||||||||||||KTBL||||||||||46|CCC MULTI Tim 2012|121|Retail|0
0|FS345025|2012-07-14 20:16:29||||F|||||||||||||KTWH||||||||||46|CCC MULTI Tim 2012|121|Retail|0
0|FS345432|2012-07-14 21:07:47||||M|||||||||||||KTBL6||||||||||46|CCC MULTI Tim 2012|121|Retail|0
0|FS345509|2012-07-14 21:17:27||||M|||||||||||||KTNBK||||||||||46|CCC MULTI Tim 2012|121|Retail|0
0|FS345683|2012-07-14 21:40:46||||M|||||||||||||DUNBL||||||||||46|CCC MULTI Tim 2012|121|Retail|0
0|FS345869|2012-07-14 22:00:13||||M|||||||||||||DUNFCSV||||||||||46|CCC MULTI Tim 2012|121|Retail|0
0|FS345877|2012-07-14 22:03:13||||M|||||||||||||KTBL||||||||||46|CCC MULTI Tim 2012|121|Retail|0
0|FS347210|2012-07-15 11:36:35|||||||||||||||||KTBLH||||||||||46|CCC MULTI Tim 2012|121|Retail|0
0|FS347211|2012-07-15 11:37:04|||||||||||||||||KTH||||||||||46|CCC MULTI Tim 2012|121|Retail|0
0|FS347243|2012-07-15 11:46:44|||||||||||||||||KTH||||||||||46|CCC MULTI Tim 2012|121|Retail|0
0|FS347258|2012-07-15 11:50:24|||||||||||||||||KTH||||||||||46|CCC MULTI Tim 2012|121|Retail|0
0|FS347402|2012-07-15 12:30:23|||||||||||||||||KTCON||||||||||46|CCC MULTI Tim 2012|121|Retail|0
0|FS347407|2012-07-15 12:31:32|||||||||||||||||KTBL||||||||||46|CCC MULTI Tim 2012|121|Retail|0
0|FS347472|2012-07-15 12:49:17|||||||||||||||||MBRFP||||||||||46|CCC MULTI Tim 2012|121|Retail|0
0|FS347473|2012-07-15 12:49:18|||||||||||||||||MBRFP||||||||||46|CCC MULTI Tim 2012|121|Retail|0
0|FS347816|2012-07-15 14:40:24|||||||||||||||||KTBL||||||||||46|CCC MULTI Tim 2012|121|Retail|0
0|FS347817|2012-07-15 14:41:14|||||||||||||||||KTCON||||||||||46|CCC MULTI Tim 2012|121|Retail|0
0|FS347822|2012-07-15 14:42:45|||||||||||||||||MBRFP||||||||||46|CCC MULTI Tim 2012|121|Retail|0
0|FS348151|2012-07-15 17:46:35||||M|||||||||||||SBKSBL||||||||||46|CCC MULTI Tim 2012|121|Retail|0
0|FS348217|2012-07-15 18:09:38|||||||||||||||||KTBL||||||||||46|CCC MULTI Tim 2012|121|Retail|0
0|FS348504|2012-07-15 19:27:52||||M|||||||||||||DUNFCBK||||||||||46|CCC MULTI Tim 2012|121|Retail|0
0|FS348547|2012-07-15 19:42:48||||F|||||||||||||DUNFCDB||||||||||46|CCC MULTI Tim 2012|121|Retail|0
0|FS348565|2012-07-15 19:46:03||||M|||||||||||||DUNFCSV||||||||||46|CCC MULTI Tim 2012|121|Retail|0
0|FS348765|2012-07-15 20:42:48||||M|||||||||||||WIBLH||||||||||46|CCC MULTI Tim 2012|121|Retail|0
