0|CS3449046|2013-07-10 17:02:58|Mola|Cristian||M|1991-06-01|Constanta|CONSTANTA|Izvorului|40b|||0|0|0729190422||mola_cristian91@yahoo.com|SBKSBK||2 Sobranie KS Black (8mg) Pack|Yes|Yes||CT008874|CMS EUROFAVORIT|Constanta|CTDTCBA89|150|CCC SOBR FAM Vara 2013|121|Retail|0
0|CS3449120|2013-07-10 17:14:55|Lapos|Veronica|2750707312957|F|1975-07-07|Salaj|Zalau|Mihai viteazul|75|Mv6|14|4|14|0740353017|||KTBL||1 Accesoriu SBR|Yes|Yes||CT008874|CMS EUROFAVORIT|Constanta|CTDTCBA89|150|CCC SOBR FAM Vara 2013|121|Retail|0
0|CS3449265|2013-07-10 17:34:54|Oltean|Violeta||F|1961-11-04|Maramures|RECEA|Ioan|10|||||0744394148||Violetaoltean@yahoo.com|KTWH||1 Accesoriu SBR|Yes|Yes||CT008899|OXFIX MARKET|Constanta|CTDTCBA42|150|CCC SOBR FAM Vara 2013|121|Retail|0
0|CS3449286|2013-07-10 17:37:24|Moldovan|Gabriela||F|1968-04-18|Mures|REGHIN|Vasule nicolescu|15|||||0740051687|||KTWH||1 Accesoriu SBR|Yes|Yes||CT008899|OXFIX MARKET|Constanta|CTDTCBA42|150|CCC SOBR FAM Vara 2013|121|Retail|0
0|CS3449288|2013-07-10 17:38:34|Carjealiu|Elena catalina||F|1990-06-16|Constanta|Navodari|Liliacului|7|1sud|C|3|38|0730340188||Catutza_4you@yahoo.com|GLPBMNFT||2 Sobranie SS Menthol (5 mg) Pack|Yes|Yes||CT008899|OXFIX MARKET|Constanta|CTDTCBA42|150|CCC SOBR FAM Vara 2013|121|Retail|0
0|CS3449303|2013-07-10 17:41:25|Tihan|Roxana||F|1990-08-13|Constanta|NAVODARI|Scolii|1|48|A|0|4|0722791675||Rooxxyy_90@yahoo.com|DUNFCMBB||2 Sobranie KS Blue (6mg) Pack|Yes|Yes||CT008899|OXFIX MARKET|Constanta|CTDTCBA42|150|CCC SOBR FAM Vara 2013|121|Retail|0
0|CS3449318|2013-07-10 17:43:37|Neagu|Ionut||M|1991-07-16|Constanta|CONSTANTA|Mamaia|68|||||0758030598||Nbady_16@yahoo.com|KTWH||2 Sobranie SS White (1mg) Pack|Yes|Yes||CT008899|OXFIX MARKET|Constanta|CTDTCBA42|150|CCC SOBR FAM Vara 2013|121|Retail|0
0|CS3449393|2013-07-10 17:56:58|Irimia|Camelia elena||F|1988-10-04|Vrancea|Focsani|Bucegi|23|23|||10|0763482057||Kamy_irima@yahoo.com|VIRSM||2 Sobranie SS Menthol (5 mg) Pack|Yes|Yes||CT008874|CMS EUROFAVORIT|Constanta|CTDTCBA89|150|CCC SOBR FAM Vara 2013|121|Retail|0
0|CS3449460|2013-07-10 18:11:38|Zanfir|George||M|1978-06-19|Constanta|NAVODARI|Ogorului|9ra6||C||40|0742336575||Geogik_zanfir@yahoo.com|KTBL||1 Bratara SBR|Yes|Yes||CT008899|OXFIX MARKET|Constanta|CTDTCBA42|150|CCC SOBR FAM Vara 2013|121|Retail|0
0|CS3449480|2013-07-10 18:16:26|Albu|Virgil|1690419035001|M|1969-04-19|Arges|Pitesti|Craiovei|121|22|D||1|0746288388||Albu_virgil2000@yahoo.com|MBRRDH||2 Sobranie KS Black (8mg) Pack|Yes|Yes||CT008874|CMS EUROFAVORIT|Constanta|CTDTCBA89|150|CCC SOBR FAM Vara 2013|121|Retail|0
0|CS3449532|2013-07-10 18:25:52|Adam|Victor|1910701134202|M|1991-07-01|Constanta|CONSTANTA|Murelor|2|R1|C|3|56|0729778434|||DUNFCBB||1 Bratara SBR|Yes|Yes||CT008899|OXFIX MARKET|Constanta|CTDTCBA42|150|CCC SOBR FAM Vara 2013|121|Retail|0
0|CS3449614|2013-07-10 18:39:36|Sandu|Alexandra||F|1991-01-23|Bucuresti|Bucuresti|Vasile soldat Croitoru|5|3|2|4|77|0785373369||Alexisschriss@yahoo.com|SBSSPK||1 Accesoriu SBR|Yes|Yes||CT008899|OXFIX MARKET|Constanta|CTDTCBA42|150|CCC SOBR FAM Vara 2013|121|Retail|0
0|CS3449676|2013-07-10 18:50:09|Zaharia|Dana|2820225070012|F|1982-02-25|Constanta|CONSTANTA|Farului|5|Td11|A|4|18|0726435360||Susandana56@yahoo.com|SBSSWH||2 Sobranie SS White (1mg) Pack|Yes|Yes||CT008899|OXFIX MARKET|Constanta|CTDTCBA42|150|CCC SOBR FAM Vara 2013|121|Retail|0
0|CS3449694|2013-07-10 18:53:55|Dima|Ionel||M|1991-05-06|Galati|GALATI|Traian|35|||||0747320709||Nobody_else_91@yahoo.com|KTSWIT||2 Sobranie SS Menthol (5 mg) Pack|Yes|Yes||CT008899|OXFIX MARKET|Constanta|CTDTCBA42|150|CCC SOBR FAM Vara 2013|121|Retail|0
0|CS3449721|2013-07-10 18:57:28|Cajaliu|Cosmin|1910716174577|M|1991-07-16|Constanta|NAVODARI|Liliacului|7|1s|C|3|38|0737060394||Cosmin_cool_xxL@yahoo.com|DUNFCSB||2 Sobranie KS Black (8mg) Pack|Yes|Yes||CT008899|OXFIX MARKET|Constanta|CTDTCBA42|150|CCC SOBR FAM Vara 2013|121|Retail|0
0|CS3449862|2013-07-10 19:19:08|Damian|Alexandru||M|1959-06-20|Dolj|Craiova|Elena farago|5|123|1|0|1|0786322240||mioara_damian@yahoo.com|MBRRDH||2 Sobranie KS Black (8mg) Pack|Yes|Yes||CT008874|CMS EUROFAVORIT|Constanta|CTDTCBA89|150|CCC SOBR FAM Vara 2013|121|Retail|0
0|CS3450018|2013-07-10 19:37:28|Lucaciu|Adriana||F|1984-10-13|Cluj|CLUJ NAPOCA|Ghioceilor|8|||0|0|0741186213||cj84lsa@yahoo.com|VIRSV||2 Sobranie SS Pink (3mg) Pack|Yes|Yes||CT008874|CMS EUROFAVORIT|Constanta|CTDTCBA89|150|CCC SOBR FAM Vara 2013|121|Retail|0
0|CS3450049|2013-07-10 19:42:37|Brais|Corina||F|1981-07-24|Constanta|CONSTANTA|Bul mamaia|56|||||0725145806||Karynapart@yahoo.com|GLMLIL||2 Sobranie SS Pink (3mg) Pack|Yes|Yes||CT008899|OXFIX MARKET|Constanta|CTDTCBA42|150|CCC SOBR FAM Vara 2013|121|Retail|0
0|CS3450050|2013-07-10 19:42:38|Benche|Dana||F|1978-08-17|Cluj|CLUJ NAPOCA|Ghioceilor|8|||0|0|0747848971||dana_benche@yahoo.com|CAWH||2 Sobranie KS Gold  (4mg) Pack|Yes|Yes||CT008874|CMS EUROFAVORIT|Constanta|CTDTCBA89|150|CCC SOBR FAM Vara 2013|121|Retail|0
0|CS3450120|2013-07-10 19:56:21|Negoiasa|Oana maria|2790203463013|F|1979-02-03|Bucuresti|Sector 6|Cetatea de balta|21|P6|D||54|0722775236||Oana.negoiasa@yahoo.com|SBSSPK||2 Sobranie SS Pink (3mg) Pack|Yes|Yes||CT008874|CMS EUROFAVORIT|Constanta|CTDTCBA89|150|CCC SOBR FAM Vara 2013|121|Retail|0
0|CS3450140|2013-07-10 19:59:56|Manolescu|Rodica|2520816400423|F|1952-08-16|Bucuresti|Sector 1|Inginer zablovschi|1|B13|1||16|0740142417||Manolerodi@gmail.com|SBSSWH||2 Sobranie SS White (1mg) Pack|Yes|Yes||CT008874|CMS EUROFAVORIT|Constanta|CTDTCBA89|150|CCC SOBR FAM Vara 2013|121|Retail|0
0|CS3450161|2013-07-10 20:04:15|Monelescu|Christian|1490903400221|M|1949-09-03|Bucuresti|Sector 1|Inginer zalovschi|1|B13|1||16|0745772829||Manolechr@gmail.com|SBSSPK||2 Sobranie SS Pink (3mg) Pack|Yes|Yes||CT008874|CMS EUROFAVORIT|Constanta|CTDTCBA89|150|CCC SOBR FAM Vara 2013|121|Retail|0
0|CS3450175|2013-07-10 20:07:41|Toma|Sergiu||M|1990-04-22|Constanta|CONSTANTA|Soveja|1|A|A|4|17|0722741716||Tima.tom@yahoo.com|KTSV||2 Sobranie KS Gold  (4mg) Pack|Yes|Yes||CT008899|OXFIX MARKET|Constanta|CTDTCBA42|150|CCC SOBR FAM Vara 2013|121|Retail|0
0|CS3450209|2013-07-10 20:17:16|Ion|Alina||F|1984-01-01|Constanta|MANGALIA|Portului|67|||0|0|0754068490||Ion.alina2@yahoo.com|KTWH||2 Sobranie SS White (1mg) Pack|Yes|Yes||CT008899|OXFIX MARKET|Constanta|CTDTCBA42|150|CCC SOBR FAM Vara 2013|121|Retail|0
0|CS3450215|2013-07-10 20:19:14|Popescu|Mirela||F|1983-11-01|Constanta|CONSTANTA|Sperantei|23|||0|0|0731160015||Mirela.mire@yahoo.com|VOGDV||2 Sobranie SS Black (6mg) Pack|Yes|Yes||CT008899|OXFIX MARKET|Constanta|CTDTCBA42|150|CCC SOBR FAM Vara 2013|121|Retail|0
0|CS3450235|2013-07-10 20:23:42|Goschin|Dumitru||M|1957-07-28|Constanta|Constanta|Lapusneanu|95|Lv31|B||24|0721207057|||KTH||2 Sobranie KS Black (8mg) Pack|Yes|Yes||CT008874|CMS EUROFAVORIT|Constanta|CTDTCBA89|150|CCC SOBR FAM Vara 2013|121|Retail|0
0|CS3450248|2013-07-10 20:25:48|Nastase|Octavian|1740405035068|M|1974-04-05|Arges|Stefanesti|Coasta campului|333|||||0721631703|||KTH||1 Bratara SBR|Yes|Yes||CT008874|CMS EUROFAVORIT|Constanta|CTDTCBA89|150|CCC SOBR FAM Vara 2013|121|Retail|0
0|CS3450261|2013-07-10 20:29:34|Pirlea|Carmen||F|1988-09-23|Constanta|CONSTANTA|Pandurului|55|13|A|4|17|0720668826||Pirleacarmen@yahoo.com|KTBL||2 Sobranie KS Blue (6mg) Pack|Yes|Yes||CT008899|OXFIX MARKET|Constanta|CTDTCBA42|150|CCC SOBR FAM Vara 2013|121|Retail|0
0|CS3450270|2013-07-10 20:30:42|Faitas|Alexandru||M|1989-01-12|Constanta|CONSTANTA|Arcului|12|A8|B|0|86|0766793898||faitas.alexandru@yahoo.com|SBSSPK||2 Sobranie SS Pink (3mg) Pack|Yes|Yes||CT008899|OXFIX MARKET|Constanta|CTDTCBA42|150|CCC SOBR FAM Vara 2013|121|Retail|0
0|CS3450306|2013-07-10 20:40:08|Boca|Mihai||M|1986-06-01|Bucuresti|Bucuresti|Moise|38a|C3|A|4|47|0722295522|||KTWH||1 Bratara SBR|Yes|Yes||CT008899|OXFIX MARKET|Constanta|CTDTCBA42|150|CCC SOBR FAM Vara 2013|121|Retail|0
0|CS3450355|2013-07-10 20:53:58|Lenu|Aurelia||F|1970-01-24|Constanta|Ovidiu|Poporului|22|||||0724754607|||KTSWIT||2 Sobranie SS Menthol (5 mg) Pack|Yes|Yes||CT008874|CMS EUROFAVORIT|Constanta|CTDTCBA89|150|CCC SOBR FAM Vara 2013|121|Retail|0
0|CS3450389|2013-07-10 21:01:32|Negrut|Marian|1860216046191|M|1986-02-16|Bacau|Bacau|Stefan cel Mare|7|7|A||2|0723299815||Marian.negrut@yahoo.com|KTBL||2 Sobranie KS Blue (6mg) Pack|Yes|Yes||CT008899|OXFIX MARKET|Constanta|CTDTCBA42|150|CCC SOBR FAM Vara 2013|121|Retail|0
0|CS3450397|2013-07-10 21:04:12|Muresean|Petrut||M|1984-07-01|Bucuresti|Sector 5|Vicina|1|32|2||80|0728313131||Petrutlucian@rocketmail.com|SBKSBK||1 Bratara SBR|Yes|Yes||CT008874|CMS EUROFAVORIT|Constanta|CTDTCBA89|150|CCC SOBR FAM Vara 2013|121|Retail|0
0|CS3450403|2013-07-10 21:06:23|Serban|Cristian|1830520134158|M|1983-05-20|Constanta|CONSTANTA|Rodica|30||||0|0767896629||Sery2083@yahoo.com|DUNFCMBB||2 Sobranie KS Blue (6mg) Pack|Yes|Yes||CT008899|OXFIX MARKET|Constanta|CTDTCBA42|150|CCC SOBR FAM Vara 2013|121|Retail|0
0|CS3450414|2013-07-10 21:11:12|Farcas|Varginica||F|1956-08-16|Prahova|Ploiesti|Cantacuzino|264|||||0745130090||Ninafarcas@yahoo.com|KTH||2 Sobranie KS Black (8mg) Pack|Yes|No||CT008874|CMS EUROFAVORIT|Constanta|CTDTCBA89|150|CCC SOBR FAM Vara 2013|121|Retail|0
0|CS3450445|2013-07-10 21:20:24|Ciotea|Melania||F|1987-11-02|Dambovita|Goesti|Unirii|24|14|A|2|21|0728996217||Melania.ciotea@siveco.ro|KTBL||1 Accesoriu SBR|Yes|Yes||CT008874|CMS EUROFAVORIT|Constanta|CTDTCBA89|150|CCC SOBR FAM Vara 2013|121|Retail|0
0|CS3450447|2013-07-10 21:21:28|Nistoroiu|Florin|1850622430010|M|1985-06-22|Bucuresti|Bucuresti|Alexandru Locuseanu|4|77b|1|4|17|0764155196||Florin_nistoroiu2006@yahoo.com|DUNFCMBB||1 Bratara SBR|Yes|Yes||CT008899|OXFIX MARKET|Constanta|CTDTCBA42|150|CCC SOBR FAM Vara 2013|121|Retail|0
0|CS3450457|2013-07-10 21:24:13|Farcas|Gabriel||M|1952-09-09|Brasov|Brasov|Stefan cel mare|22|22|A||6|0748824570||Gafarcas@yahoo.com|KTH||2 Sobranie KS Black (8mg) Pack|Yes|Yes||CT008874|CMS EUROFAVORIT|Constanta|CTDTCBA89|150|CCC SOBR FAM Vara 2013|121|Retail|0
0|CS3450466|2013-07-10 21:27:39|Costel|Nicu|1984081313423|M|1984-08-13|Hunedoara|Petrosani|Aviatorilor|0|36|||10|0729450584||Costelnicu_andrei@yahoo.com|DAVGLS||1 Bratara SBR|Yes|Yes||CT008899|OXFIX MARKET|Constanta|CTDTCBA42|150|CCC SOBR FAM Vara 2013|121|Retail|0
0|CS3450470|2013-07-10 21:30:25|Tudor|Octavian||M|1984-10-24|Bucuresti|Sector 6|Bacriului|42|10|B|2|22|0769414956||Gabitudor18@yahoo.com|KTSV||1 Bratara SBR|Yes|Yes||CT008874|CMS EUROFAVORIT|Constanta|CTDTCBA89|150|CCC SOBR FAM Vara 2013|121|Retail|0
0|CS3450478|2013-07-10 21:33:08|Neagu|Carmen||F|1980-10-20|Galati|Galati|Ghecet|10|||||0731038945||Karena_akg@yahoo.com|MBRFP||2 Sobranie KS Gold  (4mg) Pack|Yes|Yes||CT008874|CMS EUROFAVORIT|Constanta|CTDTCBA89|150|CCC SOBR FAM Vara 2013|121|Retail|0
0|CS3450505|2013-07-10 21:42:00|Stani|Bogdan|1900213295899|M|1990-02-13|Prahova|Campina|Carol I|17|7a|A|7|17|0729795717||Bogdan_ctn@yahoo.com|KTBL||1 Bratara SBR|Yes|Yes||CT008874|CMS EUROFAVORIT|Constanta|CTDTCBA89|150|CCC SOBR FAM Vara 2013|121|Retail|0
0|CS3452319|2013-07-11 18:23:04|Ifrim|Alin||M|1988-10-28|Timis|TIMISOARA|C i neculce|L42|||0|0|0747052233||ifrim_alin@yahoo.com|DUNFCSB||2 Sobranie KS Black (8mg) Pack|Yes|Yes||CT008874|CMS EUROFAVORIT|Constanta|CTDTCBA89|150|CCC SOBR FAM Vara 2013|121|Retail|0
0|CS3452391|2013-07-11 18:36:59|Chespi|Sercin|1850107132816|M|1985-01-07|Constanta|Medgidia|Independentei|11|Ip11|C||34|0722774227||Sercy_85@yahoo.com|KTBL||1 Bratara SBR|Yes|Yes||CT008874|CMS EUROFAVORIT|Constanta|CTDTCBA89|150|CCC SOBR FAM Vara 2013|121|Retail|0
0|CS3452541|2013-07-11 18:57:53|Ionescu|Steliana|2780307131256|F|1978-03-07|Constanta|Constanta|Corbului|8|H3|C||57|0721743234||Stelyana.stela@yahoo.com|MBRGLT||1 Accesoriu SBR|Yes|Yes||CT008874|CMS EUROFAVORIT|Constanta|CTDTCBA89|150|CCC SOBR FAM Vara 2013|121|Retail|0
0|CS3452691|2013-07-11 19:21:19|Smeu|Diana||F|1989-09-04|Constanta|CONSTANTA|Tulcei|10|S1a||0|4|0732516846||love_roz19@yahoo.com|VOGBL||1 Accesoriu SBR|Yes|Yes||CT008874|CMS EUROFAVORIT|Constanta|CTDTCBA89|150|CCC SOBR FAM Vara 2013|121|Retail|0
0|CS3452701|2013-07-11 19:22:08|Calin|Veronica||F|1979-06-15|Constanta|CONSTANTA|Tomis|336|B1|G|2|130|0729028535||calin.veronica@yahoo.com|KTNBL||2 Sobranie SS Black (6mg) Pack|Yes|Yes||CT008899|OXFIX MARKET|Constanta|CTDTCBA42|150|CCC SOBR FAM Vara 2013|121|Retail|0
0|CS3452717|2013-07-11 19:24:18|Ion|Ion||F|1975-04-02|Bihor|BIHARIA|Fotei|4|||||0754058489|||KTNBL||2 Sobranie SS Black (6mg) Pack|Yes|Yes||CT008899|OXFIX MARKET|Constanta|CTDTCBA42|150|CCC SOBR FAM Vara 2013|121|Retail|0
0|CS3452765|2013-07-11 19:31:33|Balaceanu|Mihai||M|1982-03-01|Constanta|Constanta|1 decembrie 1918|33|L19|A||2|0732737266||Balaceanumihai@yahoo.com|DUNFCSB||1 Bratara SBR|Yes|Yes||CT008874|CMS EUROFAVORIT|Constanta|CTDTCBA89|150|CCC SOBR FAM Vara 2013|121|Retail|0
0|CS3452805|2013-07-11 19:37:39|Iordache|Tomas||M|1966-01-28|Bucuresti|Ilfov|Mosilor|26|||||0723245187|||MBRRD||2 Sobranie KS Black (8mg) Pack|Yes|Yes||CT008899|OXFIX MARKET|Constanta|CTDTCBA42|150|CCC SOBR FAM Vara 2013|121|Retail|0
0|CS3452817|2013-07-11 19:38:52|Gradinaru|Stela||F|1968-03-10|Suceava|SUCEAVA|Ana Ipatescu|4|F|D|4|15|0745487579||stela.gradinaru@yahoo.it|DUNFCMBB||2 Sobranie KS Blue (6mg) Pack|Yes|Yes||CT008874|CMS EUROFAVORIT|Constanta|CTDTCBA89|150|CCC SOBR FAM Vara 2013|121|Retail|0
0|CS3452828|2013-07-11 19:40:17|Margescu|Maria||F|1966-08-16|Arges|MIOVENI|Dacia|0|S3|B|2|5|0743464715||Lilana_margescu@yahoo.com|VIRSPR||2 Sobranie SS Black (6mg) Pack|Yes|Yes||CT008899|OXFIX MARKET|Constanta|CTDTCBA42|150|CCC SOBR FAM Vara 2013|121|Retail|0
0|CS3452925|2013-07-11 19:53:37|Popescu|Mirela||F|1983-11-01|Constanta|CONSTANTA|Sperantei|23|||0|0|0731160015||Mirela.mire@yahoo.com|GLPBPKFT||2 Sobranie SS Pink (3mg) Pack|Yes|Yes||CT008899|OXFIX MARKET|Constanta|CTDTCBA42|150|CCC SOBR FAM Vara 2013|121|Retail|0
0|CS3452982|2013-07-11 20:01:29|Moldoveanu|Razvan|1780615070020|M|1978-06-15|Iasi|Iasi|Stejar|21|A2|B||29|0756557582||Rmoldo@yahoo.com|DAVCL||1 Bratara SBR|Yes|Yes||CT008874|CMS EUROFAVORIT|Constanta|CTDTCBA89|150|CCC SOBR FAM Vara 2013|121|Retail|0
0|CS3452999|2013-07-11 20:07:01|Pop|Ionut||M|1986-01-01|Bacau|BACAU|Leilor|34|||||0723544455|||KTWH||2 Sobranie SS White (1mg) Pack|Yes|Yes||CT008899|OXFIX MARKET|Constanta|CTDTCBA42|150|CCC SOBR FAM Vara 2013|121|Retail|0
0|CS3453000|2013-07-11 20:07:02|Manolescu|Christian|1490903400221|M|1949-09-03|Bucuresti|Sector 1|Inginer zavlovscki|1|P13|1||16|0745772829||Manolechr@gmail.com|SBSSWH||2 Sobranie SS White (1mg) Pack|Yes|Yes||CT008874|CMS EUROFAVORIT|Constanta|CTDTCBA89|150|CCC SOBR FAM Vara 2013|121|Retail|0
0|CS3453007|2013-07-11 20:08:40|Manolescu|Rodica||F|1952-08-16|Bucuresti|Sector 1|Inginer zablovschi|1|B13|1|0|16|0740142417||Manolerodi@gmail.com|SBSSPK||2 Sobranie SS Pink (3mg) Pack|Yes|Yes||CT008874|CMS EUROFAVORIT|Constanta|CTDTCBA89|150|CCC SOBR FAM Vara 2013|121|Retail|0
0|CS3453138|2013-07-11 20:38:51|Marin|Livia||F|1984-02-09|Arges|ARGESANI|Lituani|O|||||0754332246|||GLPBPKFT||2 Sobranie SS Pink (3mg) Pack|Yes|Yes||CT008899|OXFIX MARKET|Constanta|CTDTCBA42|150|CCC SOBR FAM Vara 2013|121|Retail|0
0|CS3453214|2013-07-11 20:58:48|Zaharia|Beatrice||F|1989-08-16|Dolj|Craiova|Brestei|77|||||0744387912||Beatrice.zaharia@yahoo.com|SBSSPK||2 Sobranie SS Pink (3mg) Pack|Yes|Yes||CT008899|OXFIX MARKET|Constanta|CTDTCBA42|150|CCC SOBR FAM Vara 2013|121|Retail|0
0|CS3453233|2013-07-11 21:04:00|Nicolau|Mugurel||M|1969-04-22|Bucuresti|Bucuresti|Libertatii|67|||||0757543356|||MBRRD||2 Sobranie KS Black (8mg) Pack|Yes|Yes||CT008899|OXFIX MARKET|Constanta|CTDTCBA42|150|CCC SOBR FAM Vara 2013|121|Retail|0
0|CS3453252|2013-07-11 21:08:58|Barbu|Ionel||M|1977-01-20|Calarasi|CALARASI|Bercea|4|O|O|0|9|0736461342||barbuionel1977@yahoo.com|KTWH||1 Bratara SBR|Yes|Yes||CT008874|CMS EUROFAVORIT|Constanta|CTDTCBA89|150|CCC SOBR FAM Vara 2013|121|Retail|0
0|CS3453275|2013-07-11 21:15:28|Popa|Abdreea||F|1978-12-17|Bucuresti|Bucuresti|Pantelimon|91||||||0212507753||SBSSWH||2 Sobranie SS White (1mg) Pack|Yes|Yes||CT008899|OXFIX MARKET|Constanta|CTDTCBA42|150|CCC SOBR FAM Vara 2013|121|Retail|0
0|CS3453283|2013-07-11 21:16:53|Popescu|Adrian||M|1977-01-10|Bucuresti|Bucuresti|Calea Mosilor|256||||||0315300208||KTWH||2 Sobranie SS White (1mg) Pack|Yes|Yes||CT008899|OXFIX MARKET|Constanta|CTDTCBA42|150|CCC SOBR FAM Vara 2013|121|Retail|0
0|CS3453312|2013-07-11 21:24:58|Jarba|Mihai|1820520134256|M|1982-05-20|Constanta|Constanta|Tomis|301|5b|B|7|73|0751920380||Mihai.jalba@gmail.com|KTH||1 Bratara SBR|Yes|Yes||CT008899|OXFIX MARKET|Constanta|CTDTCBA42|150|CCC SOBR FAM Vara 2013|121|Retail|0
0|CS3453330|2013-07-11 21:29:54|Garbacea|Florica||F|1964-11-24|Constanta|CONSTANTA|Pescarilor|7|Mz3|A|7|29|0722999545|||SBSSBK||2 Sobranie SS Black (6mg) Pack|Yes|Yes||CT008874|CMS EUROFAVORIT|Constanta|CTDTCBA89|150|CCC SOBR FAM Vara 2013|121|Retail|0
0|CS3453369|2013-07-11 21:39:14|Penciulescu|Claudia||F|1982-09-20|Constanta|CONSTANTA|Hortensiei|5|||0|0|0720227187||claudia_2083@yahoo.com|DAVSVSS||1 Accesoriu SBR|Yes|Yes||CT008899|OXFIX MARKET|Constanta|CTDTCBA42|150|CCC SOBR FAM Vara 2013|121|Retail|0
0|CS3453380|2013-07-11 21:43:43|Macavei|Aurelia|2780310203136|F|1977-03-10|Timis|Timisoara|Piata istria|5|||||0729009584||Aura_macavei@yahoo.com|SBSSWH||2 Sobranie SS White (1mg) Pack|Yes|Yes||CT008874|CMS EUROFAVORIT|Constanta|CTDTCBA89|150|CCC SOBR FAM Vara 2013|121|Retail|0
0|CS3453436|2013-07-11 22:02:21|Cimpoesu|Bogdan|1930107025262|M|1993-01-07|Arad|Arad|Padurii|2-4|B|B|1|5|0740039165||Cimpoesu_bogdan93@yahoo.com|KTBL||1 Bratara SBR|Yes|Yes||CT008874|CMS EUROFAVORIT|Constanta|CTDTCBA89|150|CCC SOBR FAM Vara 2013|121|Retail|0
0|CS3453453|2013-07-11 22:09:04|Balasa|Liviu adrian||M|1993-09-12|Giurgiu|ROATA DE JOS|Sobarului|1|||||0761533886||Ady_taru@yahoo.com|KTBL||2 Sobranie KS Black (8mg) Pack|Yes|Yes||CT008874|CMS EUROFAVORIT|Constanta|CTDTCBA89|150|CCC SOBR FAM Vara 2013|121|Retail|0
0|CS3453493|2013-07-11 22:24:12|Asim|Edis||M|1989-05-01|Constanta|MEDGIDIA|Independentei|39|49a|B|2|23|0722421689||Asim_edis89@gmail.com|DUNFCMBB||1 Bratara SBR|Yes|Yes||CT008899|OXFIX MARKET|Constanta|CTDTCBA42|150|CCC SOBR FAM Vara 2013|121|Retail|0
0|CS3453498|2013-07-11 22:26:09|Stanciulescu|Diana||F|1993-05-27|Arges|Mosoaia|Gazului|1|||||0720700939|||VIRSPR||1 Accesoriu SBR|Yes|Yes||CT008874|CMS EUROFAVORIT|Constanta|CTDTCBA89|150|CCC SOBR FAM Vara 2013|121|Retail|0
0|CS3453520|2013-07-11 22:33:10|Vaduva|Mihai||M|1979-07-23|Bucuresti|Bucuresti 1|Ion mihalache|213|||||0732806582||Vaduvanecsoiumihai@yahoo.com|DUNFCMBB||1 Bratara SBR|Yes|Yes||CT008899|OXFIX MARKET|Constanta|CTDTCBA42|150|CCC SOBR FAM Vara 2013|121|Retail|0
0|CS3453523|2013-07-11 22:36:17|Onoleata|Eleonora|2840624385571|F|1984-06-24|Valcea|Baile olanesti|Ponor|6a|||||0743125884||Onoleataramona@yahoo.com|SBSSWH||2 Sobranie SS White (1mg) Pack|Yes|Yes||CT008874|CMS EUROFAVORIT|Constanta|CTDTCBA89|150|CCC SOBR FAM Vara 2013|121|Retail|0
0|CS3453559|2013-07-11 22:52:13|Bacula|Stefan||M|1989-12-27|Constanta|Constata|Soveja|3|||||0723246321|||KTSV||2 Sobranie KS Gold  (4mg) Pack|Yes|Yes||CT008899|OXFIX MARKET|Constanta|CTDTCBA42|150|CCC SOBR FAM Vara 2013|121|Retail|0
0|CS3453562|2013-07-11 22:53:16|Ocheanu|Oana mariana||F|1987-01-17|Bucuresti|Sector 1|Privighetorilor|86p|B|||44|0729608114||Onyk_marry@yahoo.com|SBSSWH||2 Sobranie SS White (1mg) Pack|Yes|Yes||CT008874|CMS EUROFAVORIT|Constanta|CTDTCBA89|150|CCC SOBR FAM Vara 2013|121|Retail|0
0|CS3453569|2013-07-11 22:55:01|Toanta|Carmen|2790516360026|F|1979-05-16|Constanta|CONSTANTA|Haiducul|26||||0|0732144371||Carmen_mirela16@yahoo.com|KTNBL||1 Accesoriu SBR|Yes|Yes||CT008899|OXFIX MARKET|Constanta|CTDTCBA42|150|CCC SOBR FAM Vara 2013|121|Retail|0
0|CS3455394|2013-07-12 18:04:04|Busegeanu|Cristian||M|1989-01-16|Constanta|CONSTANTA|Narciselor|54|||||0769981052||Cryc89@yahoo.com|SBSSPK||2 Sobranie SS Pink (3mg) Pack|Yes|Yes||CT008874|CMS EUROFAVORIT|Constanta|CTDTCBA42|150|CCC SOBR FAM Vara 2013|121|Retail|0
0|CS3455424|2013-07-12 18:07:23|Hoinaru|Liliana||F|1950-08-20|Ialomita|SLOBOZIA|Stefan cel Mare|1|||||0723651296||Lilanahoinaru@yahoo.com|KTWH||2 Sobranie SS White (1mg) Pack|Yes|Yes||CT008874|CMS EUROFAVORIT|Constanta|CTDTCBA42|150|CCC SOBR FAM Vara 2013|121|Retail|0
0|CS3455435|2013-07-12 18:09:00|Hoinaru|Lavinia||F|1989-07-23|Ialomita|SLOBOZIA|Stefan Cel Mare|1|||||0723651295||Lavinia.hounaru@yahoo.com|KTWH||2 Sobranie SS White (1mg) Pack|Yes|Yes||CT008874|CMS EUROFAVORIT|Constanta|CTDTCBA42|150|CCC SOBR FAM Vara 2013|121|Retail|0
0|CS3455459|2013-07-12 18:12:12|Toma|Sergiu||M|1990-04-22|Constanta|CONSTANTA|Soveja|1|A|A|4|17|0722741716||Tima.tom@yahoo.com|MBRGLT||2 Sobranie KS Blue (6mg) Pack|Yes|Yes||CT008874|CMS EUROFAVORIT|Constanta|CTDTCBA42|150|CCC SOBR FAM Vara 2013|121|Retail|0
0|CS3455488|2013-07-12 18:19:04|Busageanu|Lucean||M|1994-05-17|Constanta|CONSTANTA|Narciselor|23a|||||0728867789||Eu_lucy_4ever@yahoo.com|DUNFCSB||2 Sobranie KS Black (8mg) Pack|Yes|Yes||CT008874|CMS EUROFAVORIT|Constanta|CTDTCBA42|150|CCC SOBR FAM Vara 2013|121|Retail|0
0|CS3455502|2013-07-12 18:20:49|Dobre|Stefana|2721006364226|F|1972-10-06|Tulcea|Tulcea|Constructorilor|2|||||0743818602||Fanny_draga@yahoo.com|KTBL6||2 Sobranie KS Gold  (4mg) Pack|Yes|Yes||CT008899|OXFIX MARKET|Constanta|CTDTCBA89|150|CCC SOBR FAM Vara 2013|121|Retail|0
0|CS3455513|2013-07-12 18:22:18|Baroian|Dana||F|1965-06-26|Prahova|Ploiesti|Cantacuzino|42b|||||0722537037||Baroiandana@yahoo.com|KTWH||2 Sobranie SS White (1mg) Pack|Yes|Yes||CT008874|CMS EUROFAVORIT|Constanta|CTDTCBA42|150|CCC SOBR FAM Vara 2013|121|Retail|0
0|CS3455558|2013-07-12 18:28:36|Costin|Dumitru||M|1957-06-10|Constanta|CONSTANTA|Lapusneanu|95|||||0721207057||Dumitru.dumi@yahoo.com|MBRGL||2 Sobranie KS Blue (6mg) Pack|Yes|Yes||CT008874|CMS EUROFAVORIT|Constanta|CTDTCBA42|150|CCC SOBR FAM Vara 2013|121|Retail|0
0|CS3455597|2013-07-12 18:34:52|Ioan|Florin||M|1993-09-11|Constanta|Ovidiu|Sagetatorilor|19|||||0731141670||Dovi_dovi18@yahoo.com|DAVGLSS||2 Sobranie KS Black (8mg) Pack|Yes|Yes||CT008874|CMS EUROFAVORIT|Constanta|CTDTCBA42|150|CCC SOBR FAM Vara 2013|121|Retail|0
0|CS3455609|2013-07-12 18:36:25|Lenu|Aurelia||F|1970-01-24|Constanta|OVIDIU|Poporului|21|0|0|0|0|0724754607|||KTSV||2 Sobranie KS Gold  (4mg) Pack|Yes|Yes||CT008874|CMS EUROFAVORIT|Constanta|CTDTCBA42|150|CCC SOBR FAM Vara 2013|121|Retail|0
0|CS3455728|2013-07-12 18:54:07|Matei|Florin||M|1985-05-03|Constanta|Constanta|Unirii|12|U4|A||3|0784069196||Ange_demon_05@yahoo.com|SBKSBK||1 Bratara SBR|Yes|Yes||CT008899|OXFIX MARKET|Constanta|CTDTCBA89|150|CCC SOBR FAM Vara 2013|121|Retail|0
0|CS3455787|2013-07-12 19:01:14|Mehedintiu|Bogdan||M|1981-11-16|Bucuresti|Sector 6|Constructorilor|26|18|2|8|68|0723745115||Chandon58@gmail.com|SBKSGD||2 Sobranie KS Gold  (4mg) Pack|Yes|Yes||CT008899|OXFIX MARKET|Constanta|CTDTCBA89|150|CCC SOBR FAM Vara 2013|121|Retail|0
0|CS3455804|2013-07-12 19:03:34|Stancioiu|Florentina|2850622430063|F|1985-06-22|Bucuresti|3|Rotunda|2|||||0720344923||F.stancoiu@yahoo.com|DAVSVSS||2 Sobranie SS White (1mg) Pack|Yes|Yes||CT008874|CMS EUROFAVORIT|Constanta|CTDTCBA42|150|CCC SOBR FAM Vara 2013|121|Retail|0
0|CS3455815|2013-07-12 19:05:05|Ciobanescu|Cosmin||M|1995-03-06|Constanta|Navodari|Nuferilor|9|G|B|1|27|0785544607||Cosmin_btnh_yo@yaahoo.com|DUNFCMBB||1 Bratara SBR|Yes|Yes||CT008874|CMS EUROFAVORIT|Constanta|CTDTCBA42|150|CCC SOBR FAM Vara 2013|121|Retail|0
0|CS3455839|2013-07-12 19:09:05|Tudor|Monica Afinica||F|1969-07-18|Braila|BRAILA|Victoriei|1|25a|A|1|4|0728213030||monicatdr@yahoo.com|SBSSWH||2 Sobranie SS White (1mg) Pack|Yes|Yes||CT008899|OXFIX MARKET|Constanta|CTDTCBA89|150|CCC SOBR FAM Vara 2013|121|Retail|0
0|CS3455878|2013-07-12 19:13:31|Gusu|Mihaela|2871103134121|F|1987-11-03|Constanta|CONSTANTA|Al. Kapusneanu|76|20b|A|3|9|0736339093||Mihaela.gusu@gmail.com|GLMMNT||1 Accesoriu SBR|Yes|No||CT008874|CMS EUROFAVORIT|Constanta|CTDTCBA42|150|CCC SOBR FAM Vara 2013|121|Retail|0
0|CS3456039|2013-07-12 19:36:28|Ion|Codrut||M|1979-06-28|Bucuresti|5|Ionita Cegan|4|P12|2|6|55|0733972879||Codrut.ion8@yahoo.com|ROTH||2 Sobranie KS Black (8mg) Pack|Yes|Yes||CT008874|CMS EUROFAVORIT|Constanta|CTDTCBA42|150|CCC SOBR FAM Vara 2013|121|Retail|0
0|CS3456108|2013-07-12 19:45:02|Istrate|Razvan||M|1985-05-27|Constanta|Constanta|Rachitas|29|||0|0|0721058643||Razvan.istrate@turo.ro|SBKSBK||2 Sobranie KS Black (8mg) Pack|Yes|Yes||CT008899|OXFIX MARKET|Constanta|CTDTCBA89|150|CCC SOBR FAM Vara 2013|121|Retail|0
0|CS3456242|2013-07-12 20:01:47|Otlogan|Liviu||M|1985-04-02|Constanta|CONSTANTA|Eliberarii|0||||0|0784061916||Otlocanliviu@yahoo.com|SBSSBK||2 Sobranie SS Black (6mg) Pack|Yes|Yes||CT008874|CMS EUROFAVORIT|Constanta|CTDTCBA42|150|CCC SOBR FAM Vara 2013|121|Retail|0
0|CS3456264|2013-07-12 20:05:42|Popescu|Mirela||F|1983-11-01|Constanta|CONSTANTA|Sperantei|23|||0|0|0731160015||Mirela.mire@yahoo.com|KTNBL||2 Sobranie SS Black (6mg) Pack|Yes|Yes||CT008874|CMS EUROFAVORIT|Constanta|CTDTCBA42|150|CCC SOBR FAM Vara 2013|121|Retail|0
0|CS3456268|2013-07-12 20:06:33|Boca|Mihai||M|1974-05-26|Bucuresti|Sector 3|Moise nicoara|38a|C3|1||47|0722295522|||SBSSWH||2 Sobranie SS White (1mg) Pack|Yes|Yes||CT008899|OXFIX MARKET|Constanta|CTDTCBA89|150|CCC SOBR FAM Vara 2013|121|Retail|0
0|CS3456293|2013-07-12 20:09:02|Lutescu|Rudi||M|1992-05-31|Dolj|CRAIOVA|Aleea intai|9||||0|0785775942|||PARABH||2 Sobranie KS Black (8mg) Pack|Yes|Yes||CT008874|CMS EUROFAVORIT|Constanta|CTDTCBA42|150|CCC SOBR FAM Vara 2013|121|Retail|0
0|CS3456323|2013-07-12 20:14:02|Valeanu|Arnold Constantin||M|1992-03-15|Constanta|CONSTANTA|Eliberarii|8|L1|D|4|21|0730612209||vwarlike@yahoo.com|DUNFCMBB||2 Sobranie KS Blue (6mg) Pack|Yes|Yes||CT008874|CMS EUROFAVORIT|Constanta|CTDTCBA42|150|CCC SOBR FAM Vara 2013|121|Retail|0
0|CS3456358|2013-07-12 20:19:31|Galdau|Andreea|2830821410040|F|1983-08-21|Bucuresti|SECTOR 4|Alexandru obregea|50|R11|A|1|7|0721867783||raluca_galdau@hotmail.com|VOGJSN||1 Accesoriu SBR|Yes|No||CT008874|CMS EUROFAVORIT|Constanta|CTDTCBA42|150|CCC SOBR FAM Vara 2013|121|Retail|0
0|CS3456384|2013-07-12 20:22:54|Galeta|Cristian||M|1969-07-18|Bucuresti|Sector 3|Padurea craiului|1|B2|2|1|51|0722329022||Cristi.galetza@gmail.com|MBRFP||2 Sobranie KS Blue (6mg) Pack|Yes|Yes||CT008899|OXFIX MARKET|Constanta|CTDTCBA89|150|CCC SOBR FAM Vara 2013|121|Retail|0
0|CS3456390|2013-07-12 20:24:17|Zaharia|Dana||F|1982-02-25|Constanta|CONSTANTA|Farului|5|Td11|A|4|18|0726435360||Susandana56@yahoo.com|SBSSWH||2 Sobranie SS White (1mg) Pack|Yes|Yes||CT008899|OXFIX MARKET|Constanta|CTDTCBA89|150|CCC SOBR FAM Vara 2013|121|Retail|0
0|CS3456399|2013-07-12 20:25:29|Vasilovici|Mihai|1851027420024|M|1985-10-27|Bucuresti|6|Prelungirea|91f|1|1|3|28|0726353165||Mihai.vasilovici@yahoo.com|KTBL||2 Sobranie KS Blue (6mg) Pack|Yes|No||CT008874|CMS EUROFAVORIT|Constanta|CTDTCBA42|150|CCC SOBR FAM Vara 2013|121|Retail|0
0|CS3456408|2013-07-12 20:27:05|Fleasca|Sanda||F|1962-07-03|Constanta|Navodari|Plopilor|5|||||0762947912|||VIRSM||2 Sobranie SS White (1mg) Pack|Yes|Yes||CT008899|OXFIX MARKET|Constanta|CTDTCBA89|150|CCC SOBR FAM Vara 2013|121|Retail|0
0|CS3456464|2013-07-12 20:36:36|Maria|Robert adrian|1920823100148|M|1992-08-23|Buzau|Buzau|Brosteni|23|1a|2|4|27|0760972835||Dodo14_2007@yahoo.com|MBRGLT||1 Bratara SBR|Yes|Yes||CT008899|OXFIX MARKET|Constanta|CTDTCBA89|150|CCC SOBR FAM Vara 2013|121|Retail|0
0|CS3456504|2013-07-12 20:45:05|Marioara|Cristian||M|1987-04-03|Giurgiu|Giurgiu|Negru voda|1|||0|0|0769908465||Punkforlifep@yahoo.com|SBKSBK||1 Bratara SBR|Yes|Yes||CT008899|OXFIX MARKET|Constanta|CTDTCBA89|150|CCC SOBR FAM Vara 2013|121|Retail|0
0|CS3456561|2013-07-12 20:54:55|Ion|Alina||F|1984-01-01|Constanta|MANGALIA|Portului|67|||0|0|0754068490||Ion.alina2@yahoo.com|KTWH||2 Sobranie SS White (1mg) Pack|Yes|Yes||CT008874|CMS EUROFAVORIT|Constanta|CTDTCBA42|150|CCC SOBR FAM Vara 2013|121|Retail|0
0|CS3456574|2013-07-12 20:56:58|Moldovan|Marius||M|1984-05-10|Bucuresti|Sector 3|Bradului|15|||||0730815622|||VIRSM||1 Bratara SBR|Yes|No||CT008899|OXFIX MARKET|Constanta|CTDTCBA89|150|CCC SOBR FAM Vara 2013|121|Retail|0
0|CS3456608|2013-07-12 21:01:12|Sfarlea|Marian||M|1985-06-20|Giurgiu|Giurgiu|Bucuresti|0|27/85|A||1|0765818846||Maryo_spaniolu@yahoo.com|DUNFCBB||1 Bratara SBR|Yes|Yes||CT008874|CMS EUROFAVORIT|Constanta|CTDTCBA42|150|CCC SOBR FAM Vara 2013|121|Retail|0
0|CS3456712|2013-07-12 21:14:43|Negoiasa|Oana maria||F|1979-02-03|Bucuresti|Sector 6|Cetatea de balta|21|P6|D|0|54|0722775236||Oana.negoiasa@yahoo.com|SBSSPK||2 Sobranie SS Pink (3mg) Pack|Yes|Yes||CT008899|OXFIX MARKET|Constanta|CTDTCBA89|150|CCC SOBR FAM Vara 2013|121|Retail|0
0|CS3456715|2013-07-12 21:15:01|Ionescu|Adrian||M|1975-08-09|Bucuresti|4|Berceni|35|104|1|7|26|0722800205||Adiion75@yahoo.com|DUNFCMBB||2 Sobranie KS Black (8mg) Pack|Yes|Yes||CT008874|CMS EUROFAVORIT|Constanta|CTDTCBA42|150|CCC SOBR FAM Vara 2013|121|Retail|0
0|CS3456745|2013-07-12 21:18:00|Negoiasa|Robert||M|1976-05-20|Bucuresti|Sector 6|Manastirea sihestria|9|||1|5|0733303855||Robert.negoiasa@yahoo.com|SBSSWH||2 Sobranie SS White (1mg) Pack|Yes|Yes||CT008899|OXFIX MARKET|Constanta|CTDTCBA89|150|CCC SOBR FAM Vara 2013|121|Retail|0
0|CS3456747|2013-07-12 21:18:05|Corlateanu|Iulian||M|1975-07-13|Bucuresti|SECTOR 2|Berceni|35|104|2|2|84|0721095400||Auropar30@yahoo.com|DUNFCSB||2 Sobranie KS Black (8mg) Pack|Yes|Yes||CT008874|CMS EUROFAVORIT|Constanta|CTDTCBA42|150|CCC SOBR FAM Vara 2013|121|Retail|0
0|CS3456848|2013-07-12 21:40:26|Serbea|Alina||F|1968-06-16|Prahova|Sinaia|Gohalnicenu|13|||||0722537036||Sebeaalina@yahoo.com|DAVSVSS||2 Sobranie SS White (1mg) Pack|Yes|Yes||CT008874|CMS EUROFAVORIT|Constanta|CTDTCBA42|150|CCC SOBR FAM Vara 2013|121|Retail|0
0|CS3456867|2013-07-12 21:44:23|Madularu|Cristian||M|1972-03-19|Bucuresti|SECTOR 6|Bld timisoara|85|M42|1|7|45|0728306781||madularucristi@yahoo.com|KTH||2 Sobranie KS Black (8mg) Pack|Yes|Yes||CT008874|CMS EUROFAVORIT|Constanta|CTDTCBA42|150|CCC SOBR FAM Vara 2013|121|Retail|0
0|CS3456880|2013-07-12 21:47:54|Ana|Ionela||F|1979-07-11|Arges|CAMPULUNG|C. Constantinescu|12|D2|B|0|4|0749632921||Koka186@yahoo.com|KTNBL||2 Sobranie SS Black (6mg) Pack|Yes|Yes||CT008874|CMS EUROFAVORIT|Constanta|CTDTCBA42|150|CCC SOBR FAM Vara 2013|121|Retail|0
0|CS3456964|2013-07-12 21:59:08|Baroana|Ionel||M|1975-09-01|Arges|PITESTI|Construcorilor|3|E|B||20|0762654321||Bionelb@yahoo.com|KTBL||2 Sobranie KS Black (8mg) Pack|Yes|Yes||CT008874|CMS EUROFAVORIT|Constanta|CTDTCBA42|150|CCC SOBR FAM Vara 2013|121|Retail|0
0|CS3456993|2013-07-12 22:03:41|Tera|Adrian||M|1976-11-05|Constanta|CONSTANTA|Badea Cartan|17|||||0729456314||T.adrian49@yahoo.fr|KTBL||1 Bratara SBR|Yes|Yes||CT008874|CMS EUROFAVORIT|Constanta|CTDTCBA42|150|CCC SOBR FAM Vara 2013|121|Retail|0
0|CS3457019|2013-07-12 22:09:28|Apostol|Daniel|2660902150377|F|1966-09-02|Dambovita|GAESTI|Nicolae|15||||0|0723559270||Daniela.apostol@arctic.ro|KTNBL||2 Sobranie SS Black (6mg) Pack|Yes|Yes||CT008874|CMS EUROFAVORIT|Constanta|CTDTCBA42|150|CCC SOBR FAM Vara 2013|121|Retail|0
0|CS3457091|2013-07-12 22:26:50|Secara|Alex||M|1987-09-27|Constanta|CONSTANTA|Soveja|116|Dr34|A|1|5|0786279967||Alex_sylver87@yahoo.com|KTBL||1 Bratara SBR|Yes|Yes||CT008874|CMS EUROFAVORIT|Constanta|CTDTCBA42|150|CCC SOBR FAM Vara 2013|121|Retail|0
0|CS3457171|2013-07-12 22:42:00|Krisbai|Cristina raluca||F|1983-05-25|Alba|Alba iulia|Lucian blaga|12|||||0740071397||Ralu_k25@yahoo.com|VOGLL||2 Sobranie SS Pink (3mg) Pack|Yes|Yes||CT008899|OXFIX MARKET|Constanta|CTDTCBA89|150|CCC SOBR FAM Vara 2013|121|Retail|0
0|CS3457182|2013-07-12 22:44:52|Puscasu|Andreea||F|1988-11-17|Constanta|Constanta|Al gherghel|14|||0|0|0736522050||andreeapuscasu_17@yahoo.com|SBSSWH||2 Sobranie SS White (1mg) Pack|Yes|Yes||CT008899|OXFIX MARKET|Constanta|CTDTCBA89|150|CCC SOBR FAM Vara 2013|121|Retail|0
0|CS3457186|2013-07-12 22:45:15|Farcas|Alexandru|1680221463071|F|1969-02-21|Bucuresti|SECTOR 6|Valea Calugareasca|8|7|3|4|44|0721890323|||KTBL||2 Sobranie KS Black (8mg) Pack|Yes|Yes||CT008874|CMS EUROFAVORIT|Constanta|CTDTCBA42|150|CCC SOBR FAM Vara 2013|121|Retail|0
0|CS3457231|2013-07-12 22:58:05|Tunsu|Alexandra|2850713170158|F|1985-07-13|Galati|Galati|Rosiori|6|R5|1|9|35|0722645707||Lexa_1385@yahoo.com|DAVSVSS||1 Accesoriu SBR|Yes|Yes||CT008899|OXFIX MARKET|Constanta|CTDTCBA89|150|CCC SOBR FAM Vara 2013|121|Retail|0
0|CS3459509|2013-07-13 18:09:03|Vasilea|Cosmin||M|1993-06-02|Ialomita|FIERBINTI TARG|Lautarilor|89|||||0762195130|||KTBL||1 Bratara SBR|Yes|Yes||CT008874|CMS EUROFAVORIT|Constanta|CTDTCBA42|150|CCC SOBR FAM Vara 2013|121|Retail|0
0|CS3459518|2013-07-13 18:13:02|Voiculescu|Paraschiva||F|1960-05-10|Constanta|Ovidiu|Biserici|10|||0|0|0720862135||Paras.paraschiva@yahoo.com|KTNBK||2 Sobranie SS Pink (3mg) Pack|Yes|Yes||CT008874|CMS EUROFAVORIT|Constanta|CTDTCBA42|150|CCC SOBR FAM Vara 2013|121|Retail|0
0|CS3459532|2013-07-13 18:19:12|Gramada|Robert|1830830450083|M|1983-08-30|Bucuresti|SECTOR 4|Uiora|4|50||3|56|0765222616||Robert_gramada@yahoo.com|DAVCL||2 Sobranie KS Black (8mg) Pack|Yes|Yes||CT008874|CMS EUROFAVORIT|Constanta|CTDTCBA42|150|CCC SOBR FAM Vara 2013|121|Retail|0
0|CS3459538|2013-07-13 18:20:45|Nita|Maria||F|1986-11-01|Bucuresti|Bucuresti|Portului|1|||0|0|0756543356|0241652181|Nita.maria@yahoo.com|GLPBMNFT||2 Sobranie SS Menthol (5 mg) Pack|Yes|Yes||CT008874|CMS EUROFAVORIT|Constanta|CTDTCBA42|150|CCC SOBR FAM Vara 2013|121|Retail|0
0|CS3459540|2013-07-13 18:22:30|Goschin|Olimpia||F|1987-11-24|Constanta|CONSTANTA|Al Lapusneanu|116|||0|0|0723583708||g_olimpia@yahoo.com|VOGM||2 Sobranie SS Menthol (5 mg) Pack|Yes|Yes||CT008874|CMS EUROFAVORIT|Constanta|CTDTCBA42|150|CCC SOBR FAM Vara 2013|121|Retail|0
0|CS3459548|2013-07-13 18:24:20|Nita|Danuta||F|1984-05-04|Arges|ARGESANI|Portului|1||||||0241652188|Dana.danutza@yahoo.com|KTWH||2 Sobranie SS White (1mg) Pack|Yes|Yes||CT008874|CMS EUROFAVORIT|Constanta|CTDTCBA42|150|CCC SOBR FAM Vara 2013|121|Retail|0
0|CS3459572|2013-07-13 18:33:30|Parpala|Marian||M|1980-02-10|Constanta|CONSTANTA|Aurel Vlaicu|99|||||0724775235||Marian.parpala@yahoo.com|MBRRD||1 Bratara SBR|Yes|Yes||CT008874|CMS EUROFAVORIT|Constanta|CTDTCBA42|150|CCC SOBR FAM Vara 2013|121|Retail|0
0|CS3459577|2013-07-13 18:34:21|Costache|Narcisa daniela|2860409521694|F|1986-04-09|Giurgiu|Gaiseni|Postei|314|||||0731485049||Dana_costache2000@yahoo.com|KTNWH||1 Accesoriu SBR|Yes|No||CT008899|OXFIX MARKET|Constanta|CTDTCBA89|150|CCC SOBR FAM Vara 2013|121|Retail|0
0|CS3459620|2013-07-13 18:45:12|Gancerenco|Gabriel||M|1987-01-10|Constanta|Ovidiu|Nationala|195|Cd3|A|1|7|0786448222||Qwe.only@yahoo.com|KTH||1 Bratara SBR|Yes|Yes||CT008899|OXFIX MARKET|Constanta|CTDTCBA89|150|CCC SOBR FAM Vara 2013|121|Retail|0
0|CS3459710|2013-07-13 19:08:19|Epure|Grigore|1800115134253|M|1980-01-15|Constanta|NAVODARI|Garii|3||||0|0724296550|||KTBL||2 Sobranie KS Blue (6mg) Pack|Yes|Yes||CT008874|CMS EUROFAVORIT|Constanta|CTDTCBA42|150|CCC SOBR FAM Vara 2013|121|Retail|0
0|CS3459716|2013-07-13 19:09:44|Dragan|Lorena|2920829211182|F|1992-08-29|Ialomita|Tandarei|Soseaua bucuresti|1|125|B1|1|7|0769874779||Lory92_14@yahoo.com|DUNFCSB||2 Sobranie KS Black (8mg) Pack|Yes|Yes||CT008899|OXFIX MARKET|Constanta|CTDTCBA89|150|CCC SOBR FAM Vara 2013|121|Retail|0
0|CS3459734|2013-07-13 19:14:36|Filipescu|Claudia||F|1974-03-30|Timis|TIMISOARA|Norma|11|-|-|0|0|0730006223||filipescu.claudia@yahoo.ro|VOGBL||1 Accesoriu SBR|Yes|Yes||CT008899|OXFIX MARKET|Constanta|CTDTCBA89|150|CCC SOBR FAM Vara 2013|121|Retail|0
0|CS3459746|2013-07-13 19:16:59|Zlatie|Florina|2800425035283|F|1980-04-25|Arges|PITESTI|Zmeurei|59|Ps5|A|1|4|0749159915||Diaconu.florina@yahoo.com|KTNWH||2 Sobranie SS White (1mg) Pack|Yes|Yes||CT008874|CMS EUROFAVORIT|Constanta|CTDTCBA42|150|CCC SOBR FAM Vara 2013|121|Retail|0
0|CS3459785|2013-07-13 19:29:13|Csontos|Carol|1940120204484|M|1994-01-20|Hunedoara|Deva|Decebal|21|B1|5|2|11|0728312676|||KTH||2 Sobranie KS Black (8mg) Pack|Yes|Yes||CT008899|OXFIX MARKET|Constanta|CTDTCBA89|150|CCC SOBR FAM Vara 2013|121|Retail|0
0|CS3459792|2013-07-13 19:31:47|Ion|Alina||F|1984-01-01|Constanta|MANGALIA|Portului|67|||0|0|0754068490||Ion.alina2@yahoo.com|KTSV||2 Sobranie KS Gold  (4mg) Pack|Yes|Yes||CT008874|CMS EUROFAVORIT|Constanta|CTDTCBA42|150|CCC SOBR FAM Vara 2013|121|Retail|0
0|CS3459800|2013-07-13 19:34:12|Petrov|Alina||F|1988-06-04|Constanta|CONSTANTA|I.L. Caragiale|2|P2|A|8|35|0732914754||alina0488@yahoo.com|VOGBL||2 Sobranie SS Black (6mg) Pack|Yes|Yes||CT008899|OXFIX MARKET|Constanta|CTDTCBA89|150|CCC SOBR FAM Vara 2013|121|Retail|0
0|CS3459830|2013-07-13 19:37:36|Shehata|Mohamed||M|1959-01-01|Constanta|Constanta|Ic bratianu|108|Sr97|A||21|0733220297||Amirhabibiana@yahoo.com|SBSSBK||2 Sobranie SS Black (6mg) Pack|Yes|Yes||CT008899|OXFIX MARKET|Constanta|CTDTCBA89|150|CCC SOBR FAM Vara 2013|121|Retail|0
0|CS3459842|2013-07-13 19:39:22|Chiosea|Marius||M|1989-12-20|Constanta|AGIGEA|Virgil teodorescu|1|||0|0|0765019249||Marusyk_no_1@yahoo.com|KTH||1 Bratara SBR|Yes|Yes||CT008874|CMS EUROFAVORIT|Constanta|CTDTCBA42|150|CCC SOBR FAM Vara 2013|121|Retail|0
0|CS3459990|2013-07-13 20:11:33|Tache|Cristina|2821004420145|F|1982-10-04|Ilfov|Otopeni|Floare de cais|14|A14|2|2|15|0732035332||Crystynatache@yahoo.com|KTWH||2 Sobranie SS White (1mg) Pack|Yes|Yes||CT008899|OXFIX MARKET|Constanta|CTDTCBA89|150|CCC SOBR FAM Vara 2013|121|Retail|0
0|CS3460002|2013-07-13 20:13:31|Constantinescu|Radu||M|1985-01-07|Ilfov|Bucuresti|Zoreleloe|68|0|0|0|0|0723638669||radu_constantinescu41@yahoo.com|SBKSBL||2 Sobranie KS Blue (6mg) Pack|Yes|Yes||CT008899|OXFIX MARKET|Constanta|CTDTCBA89|150|CCC SOBR FAM Vara 2013|121|Retail|0
0|CS3460112|2013-07-13 20:32:34|Iordan|Viorela|2870725280851|F|1987-07-25|Bucuresti|SECTOR 1|Cere Mosului|18||||0|0768785098||Viorela82@yahoo.com|PARRSSH||1 Accesoriu SBR|Yes|Yes||CT008874|CMS EUROFAVORIT|Constanta|CTDTCBA42|150|CCC SOBR FAM Vara 2013|121|Retail|0
0|CS3460145|2013-07-13 20:39:28|Valeanu|Arnold Constantin||M|1992-03-15|Constanta|CONSTANTA|Eliberarii|8|L1|D|4|21|0730612209||vwarlike@yahoo.com|KTBL||2 Sobranie KS Blue (6mg) Pack|Yes|Yes||CT008874|CMS EUROFAVORIT|Constanta|CTDTCBA42|150|CCC SOBR FAM Vara 2013|121|Retail|0
0|CS3460168|2013-07-13 20:43:48|Domogogi|George||M|1974-07-06|Buzau|Buzau|Plop|23|||||0723806796||Geo.ge@yahoo.com|KTBL||1 Bratara SBR|Yes|Yes||CT008874|CMS EUROFAVORIT|Constanta|CTDTCBA42|150|CCC SOBR FAM Vara 2013|121|Retail|0
0|CS3460242|2013-07-13 20:54:07|Moise|Cristian||M|1988-01-24|Bucuresti|SECTOR 1|Calea grivitei|170|||0|0|0767993126||cristi_moise09@yahoo.com|DUNFCBB||1 Bratara SBR|Yes|Yes||CT008874|CMS EUROFAVORIT|Constanta|CTDTCBA42|150|CCC SOBR FAM Vara 2013|121|Retail|0
0|CS3460265|2013-07-13 20:58:30|Tanase|Marius||M|1958-01-20|Constanta|Ovidiu|Margaritarului|27|||||0722804722|||KTSV||2 Sobranie KS Gold  (4mg) Pack|Yes|Yes||CT008899|OXFIX MARKET|Constanta|CTDTCBA89|150|CCC SOBR FAM Vara 2013|121|Retail|0
0|CS3460329|2013-07-13 21:09:19|Pereteanu|Nicolae||M|1981-11-11|Constanta|CONSTANTA|Tomis|215|Ts9|A|2|10|0737537222||Nervultoto@yahoo.com|KTH||1 Bratara SBR|Yes|Yes||CT008874|CMS EUROFAVORIT|Constanta|CTDTCBA42|150|CCC SOBR FAM Vara 2013|121|Retail|0
0|CS3460343|2013-07-13 21:10:56|Ene|Sorin|1820904090051|M|1982-09-04|Braila|Braila|Marului|72|||||0722146873||Plumbiro@yahoo.com|DUNFCBB||1 Bratara SBR|Yes|Yes||CT008899|OXFIX MARKET|Constanta|CTDTCBA89|150|CCC SOBR FAM Vara 2013|121|Retail|0
0|CS3460363|2013-07-13 21:14:00|Popescu|Carmina||F|1986-01-01|Braila|BRAILA|Sadului|1|||||0756433455|||KTWH||1 Accesoriu SBR|Yes|Yes||CT008874|CMS EUROFAVORIT|Constanta|CTDTCBA42|150|CCC SOBR FAM Vara 2013|121|Retail|0
0|CS3460405|2013-07-13 21:21:43|Odica|Cristi||M|1991-06-19|Constanta|CONSTANTA|Dorului|103||||0|0727032220||Never_beack_d0wn03@yahoo.com|KTH||1 Bratara SBR|Yes|Yes||CT008874|CMS EUROFAVORIT|Constanta|CTDTCBA42|150|CCC SOBR FAM Vara 2013|121|Retail|0
0|CS3460411|2013-07-13 21:22:19|Marioara|Cristian||M|1987-04-03|Giurgiu|Giurgiu|Negru voda|1|||0|0|0769908465||Punkforlifep@yahoo.com|SBKSBK||1 Bratara SBR|Yes|Yes||CT008899|OXFIX MARKET|Constanta|CTDTCBA89|150|CCC SOBR FAM Vara 2013|121|Retail|0
0|CS3460446|2013-07-13 21:30:57|Varga|Simona|2691014354748|F|1969-10-14|Timis|Timisoara|Soroca|2|||||0744771469|||VOGJSN||1 Accesoriu SBR|Yes|Yes||CT008899|OXFIX MARKET|Constanta|CTDTCBA89|150|CCC SOBR FAM Vara 2013|121|Retail|0
0|CS3460472|2013-07-13 21:35:55|Pasca|Alexandru||M|1979-09-29|Bucuresti|Sector 4|Ion luca caragiale|1|||||0722345678||Pascalex2000@yahoo.com|SBSSPK||2 Sobranie SS Pink (3mg) Pack|Yes|Yes||CT008899|OXFIX MARKET|Constanta|CTDTCBA89|150|CCC SOBR FAM Vara 2013|121|Retail|0
0|CS3460529|2013-07-13 21:42:40|Marinescu|Ciprian||M|1985-01-01|Bucuresti|SECTOR 5|Rahovei|309|44|1|5|21|0723813398||ciprian.marinescu@ymai.com|MBRGLFT||1 Bratara SBR|Yes|Yes||CT008899|OXFIX MARKET|Constanta|CTDTCBA89|150|CCC SOBR FAM Vara 2013|121|Retail|0
0|CS3460533|2013-07-13 21:43:01|Sirbu|Mihai||M|1980-11-05|Iasi|IASI|Gheorghe|15|822|A|2|9|0757121565||Misculik1980@yahoo.com|KTBL||1 Bratara SBR|Yes|Yes||CT008874|CMS EUROFAVORIT|Constanta|CTDTCBA42|150|CCC SOBR FAM Vara 2013|121|Retail|0
0|CS3460572|2013-07-13 21:50:17|Botici|Andrei||M|1985-07-03|Hunedoara|BRAD|Cuza Voda|23|||||0720500130||Boticiandrei@yahoo.com|DAVGL||1 Bratara SBR|Yes|Yes||CT008874|CMS EUROFAVORIT|Constanta|CTDTCBA42|150|CCC SOBR FAM Vara 2013|121|Retail|0
0|CS3460600|2013-07-13 21:55:35|Diaconu|Elena|2830729046221|F|1983-07-29|Bacau|Bacau|Nicolae balcescu|12|12|E|1|3|0746483316||Diaconu.irina@ymail.com|DAVSVSS||2 Sobranie SS Menthol (5 mg) Pack|Yes|Yes||CT008899|OXFIX MARKET|Constanta|CTDTCBA89|150|CCC SOBR FAM Vara 2013|121|Retail|0
0|CS3460606|2013-07-13 21:57:04|Ali|Ghiulter||F|1980-10-22|Constanta|CONSTANTA|Salcamilor|16||||0|0723180453||Ghiuli80@yahoo.com|SBSSBK||2 Sobranie SS Black (6mg) Pack|Yes|Yes||CT008874|CMS EUROFAVORIT|Constanta|CTDTCBA42|150|CCC SOBR FAM Vara 2013|121|Retail|0
0|CS3460612|2013-07-13 21:58:43|Butcaru|Mihaela||F|1979-01-09|Constanta|CONSTANTA|Tulcea|2a|1c|C|0|52|0722268968||mihaelabutcaru@yahoo.com|VOGLL||2 Sobranie SS Pink (3mg) Pack|Yes|Yes||CT008874|CMS EUROFAVORIT|Constanta|CTDTCBA42|150|CCC SOBR FAM Vara 2013|121|Retail|0
0|CS3460668|2013-07-13 22:09:57|Fazksa|Beata||F|1988-02-21|Covasna|Sfantu gheorghe|Aleea caminului|3|25|B|3|7|0748310247||Fazakasbeata@yahoo.com|DUNFCMBB||1 Accesoriu SBR|Yes|Yes||CT008899|OXFIX MARKET|Constanta|CTDTCBA89|150|CCC SOBR FAM Vara 2013|121|Retail|0
0|CS3460675|2013-07-13 22:11:43|Bleaja|Cornel||M|1975-09-06|Teleorman|ZIMNICEA|Daciei|21|||||0742511932||Bleajacornel@yahoo.com|SBSSBK||1 Bratara SBR|Yes|Yes||CT008874|CMS EUROFAVORIT|Constanta|CTDTCBA42|150|CCC SOBR FAM Vara 2013|121|Retail|0
0|CS3460698|2013-07-13 22:20:25|Toma|Sergiu||M|1990-04-22|Constanta|CONSTANTA|Soveja|1|A|A|4|17|0722741716||Tima.tom@yahoo.com|VOGBL||2 Sobranie SS Black (6mg) Pack|Yes|Yes||CT008874|CMS EUROFAVORIT|Constanta|CTDTCBA42|150|CCC SOBR FAM Vara 2013|121|Retail|0
0|CS3460751|2013-07-13 22:31:25|Chira|Daniel|1630904131218|M|1963-09-04|Constanta|Constanta|Tomis|307|Ob|B||47|0732750700||Kira_daniel@yahoo.com|DUNFCMBB||1 Bratara SBR|Yes|Yes||CT008899|OXFIX MARKET|Constanta|CTDTCBA89|150|CCC SOBR FAM Vara 2013|121|Retail|0
0|CS3460766|2013-07-13 22:33:52|Panainte|Ciprian|1761017221242|M|1976-10-17|Iasi|IASI|Eternitate|117||||0|0741076655||Ehatman@yahoo.com|SBSSWH||2 Sobranie SS White (1mg) Pack|Yes|Yes||CT008874|CMS EUROFAVORIT|Constanta|CTDTCBA42|150|CCC SOBR FAM Vara 2013|121|Retail|0
0|CS3460773|2013-07-13 22:36:37|Marin|Stefan||M|1979-03-02|Arges|PITESTI|Bibescu Voda|1|P3|C|0|3|0744313990||Mugurelstefan@yhoo.com|DUNFCMBB||2 Sobranie KS Blue (6mg) Pack|Yes|Yes||CT008874|CMS EUROFAVORIT|Constanta|CTDTCBA42|150|CCC SOBR FAM Vara 2013|121|Retail|0
0|CS3460788|2013-07-13 22:39:20|Dorobantu|Marinela||F|1970-07-04|Arges|PITESTI|Razboieni|6|||||0745015895||Marlena_d70@yahoo.com|DAVSVSS||2 Sobranie SS White (1mg) Pack|Yes|Yes||CT008874|CMS EUROFAVORIT|Constanta|CTDTCBA42|150|CCC SOBR FAM Vara 2013|121|Retail|0
0|CS3460808|2013-07-13 22:43:00|Radulescu|Ioana||M|1989-03-04|Constanta|CONSTANTA|Tomis|185|||||0735036930||Sambuca_on_fire@yahoo.com|PARRSSH||1 Bratara SBR|Yes|Yes||CT008874|CMS EUROFAVORIT|Constanta|CTDTCBA42|150|CCC SOBR FAM Vara 2013|121|Retail|0
0|CS3462919|2013-07-14 17:29:39|Chiriac|Ionela||F|1979-09-13|Galati|GALATI|Miron Costin|11||||0|0757811984|||KTNBK||1 Accesoriu SBR|Yes|Yes||CT008874|CMS EUROFAVORIT|Constanta|CTDTCBA42|150|CCC SOBR FAM Vara 2013|121|Retail|0
0|CS3462951|2013-07-14 17:40:57|Bogatie|Silvia laura||F|1979-08-05|Constanta|Constanta|Ionutu|50|||0|0|0722998838||laura.bogatie@yahoo.com|DUNFCSB||2 Sobranie SS Black (6mg) Pack|Yes|Yes||CT008874|CMS EUROFAVORIT|Constanta|CTDTCBA42|150|CCC SOBR FAM Vara 2013|121|Retail|0
0|CS3462959|2013-07-14 17:43:28|Puiu|Robert||M|1993-10-24|Giurgiu|GIURGIU|Tudor Vianu|52||||0|0761605294||Puiurobert@yahoo.com|DUNFCMBB||1 Bratara SBR|Yes|Yes||CT008874|CMS EUROFAVORIT|Constanta|CTDTCBA42|150|CCC SOBR FAM Vara 2013|121|Retail|0
0|CS3462960|2013-07-14 17:43:38|Matei|Sorin||M|1975-11-06|Mures|Targu mures|Belsugului|5|||||0743900061||Sorinmatei_ro@yahoo.com|SBKSBL||2 Sobranie KS Blue (6mg) Pack|Yes|Yes||CT008899|OXFIX MARKET|Constanta|CTDTCBA89|150|CCC SOBR FAM Vara 2013|121|Retail|0
0|CS3462974|2013-07-14 17:47:34|Cesa|Gabriel|1901216133255|M|1990-12-16|Constanta|CONSTANTA|Badea Cartn|4|3c|A|2|9|0737750148||Gabi.cesa@yahoo.com|DUNFCMBR||1 Bratara SBR|Yes|Yes||CT008874|CMS EUROFAVORIT|Constanta|CTDTCBA42|150|CCC SOBR FAM Vara 2013|121|Retail|0
0|CS3462976|2013-07-14 17:48:06|Carjealiu|Elena catalina||F|1990-06-16|Constanta|Navodari|Liliacului|7|1sud|C|3|38|0730340188||Catutza_4you@yahoo.com|SBSSMN||2 Sobranie SS Menthol (5 mg) Pack|Yes|Yes||CT008899|OXFIX MARKET|Constanta|CTDTCBA89|150|CCC SOBR FAM Vara 2013|121|Retail|0
0|CS3462984|2013-07-14 17:50:56|Zaharia|Georgian|1790308131239|M|1979-03-08|Constanta|Constanta|Farului|5|Dd11|B|4|20|0735267269||Georgian_1979@yahoo.com|SBSSWH||2 Sobranie SS White (1mg) Pack|Yes|Yes||CT008899|OXFIX MARKET|Constanta|CTDTCBA89|150|CCC SOBR FAM Vara 2013|121|Retail|0
0|CS3463026|2013-07-14 18:02:32|Vrana|George||M|1982-11-26|Constanta|CONSTANTA|Aurel vlaicu|39|||0|0|0726195415||Geoxxx26@yahoo.com|SBKSBK||2 Sobranie KS Black (8mg) Pack|Yes|Yes||CT008874|CMS EUROFAVORIT|Constanta|CTDTCBA42|150|CCC SOBR FAM Vara 2013|121|Retail|0
0|CS3463039|2013-07-14 18:07:31|Neacsu|Maria||F|1993-04-30|Arges|PITESTI|Mihai Viteazu|3|V3|V|1|5|0757043362||Cristina_neacsu04@yahoo.com|DAVSVSS||1 Accesoriu SBR|Yes|No||CT008874|CMS EUROFAVORIT|Constanta|CTDTCBA42|150|CCC SOBR FAM Vara 2013|121|Retail|0
0|CS3463058|2013-07-14 18:14:09|Ionete|Anca|2870713080042|F|1987-07-13|Brasov|SANPETRU|Meschendorfer|343||||0|0765899763||Ioneteanca@yahoo.com|DUNFCSB||1 Accesoriu SBR|Yes|Yes||CT008874|CMS EUROFAVORIT|Constanta|CTDTCBA42|150|CCC SOBR FAM Vara 2013|121|Retail|0
0|CS3463074|2013-07-14 18:21:20|Mocanu|Mariana||F|1951-07-15|Constanta|CONSTANTA|Mircea cel batran|139|Tla|A|1|4|0729055211||marianam1199@yahoo.com|KTNBK||2 Sobranie SS Pink (3mg) Pack|Yes|Yes||CT008874|CMS EUROFAVORIT|Constanta|CTDTCBA42|150|CCC SOBR FAM Vara 2013|121|Retail|0
0|CS3463123|2013-07-14 18:42:35|Fundacescu|Bogdan||M|1994-10-15|Constanta|NAVODARI|Pescarusului|90a||||0|0720737009||B0ogdanash@yahoo.com|DUNFCMBB||1 Bratara SBR|Yes|Yes||CT008874|CMS EUROFAVORIT|Constanta|CTDTCBA42|150|CCC SOBR FAM Vara 2013|121|Retail|0
0|CS3463138|2013-07-14 18:47:36|Negut|Catalin|1770603290455|M|1977-06-03|Prahova|Lipanesti|Principala|164|||||0721111112||Catalinnegut@hotmail.com|KTNBK||1 Bratara SBR|Yes|Yes||CT008899|OXFIX MARKET|Constanta|CTDTCBA89|150|CCC SOBR FAM Vara 2013|121|Retail|0
0|CS3463139|2013-07-14 18:48:05|Hodorog|Bogdan|1740811293146|M|1974-08-11|Prahova|PLOIESTI|Iezerului|9|151|C|8|36|0740028600||Hodorogbogdan@yahoo.com|DUNFCBB||1 Bratara SBR|Yes|Yes||CT008874|CMS EUROFAVORIT|Constanta|CTDTCBA42|150|CCC SOBR FAM Vara 2013|121|Retail|0
0|CS3463155|2013-07-14 18:52:25|Smarandache|Daniel|1930309134150|M|1993-03-09|Constanta|MIHAIL KOGALNICEANU|Primaverii|70||||0|0784081833||Smara_mic@yahoo.com|KTH||1 Bratara SBR|Yes|Yes||CT008874|CMS EUROFAVORIT|Constanta|CTDTCBA42|150|CCC SOBR FAM Vara 2013|121|Retail|0
0|CS3463170|2013-07-14 18:57:25|Resit|Fildis||M|1981-02-08|Constanta|CONSTANTA|Poporului|7||||0|0763626400||Fildisrrr81@yahoo.com|KTSV||2 Sobranie KS Gold  (4mg) Pack|Yes|Yes||CT008874|CMS EUROFAVORIT|Constanta|CTDTCBA42|150|CCC SOBR FAM Vara 2013|121|Retail|0
0|CS3463181|2013-07-14 19:00:28|Mehedintu|Bogdan||M|1981-11-16|Bucuresti|Sector 6|Constructorilor|26|18|2|8|68|0767278045||Chandon5858@yahoo.com|SBKSGD||2 Sobranie KS Gold  (4mg) Pack|Yes|Yes||CT008899|OXFIX MARKET|Constanta|CTDTCBA89|150|CCC SOBR FAM Vara 2013|121|Retail|0
0|CS3463194|2013-07-14 19:03:29|Dobre|Alexandra||F|1987-10-14|Bucuresti|Sectorb4|Aleea tomescu|1|2|1|5|24|0767972297||Alexx_andraa@yahoo.com|SBSSPK||2 Sobranie SS Pink (3mg) Pack|Yes|Yes||CT008899|OXFIX MARKET|Constanta|CTDTCBA89|150|CCC SOBR FAM Vara 2013|121|Retail|0
0|CS3463199|2013-07-14 19:04:49|Atanase|Stelica|1660427280036|M|1966-04-27|Constanta|CONSTANTA|Hortensiei|8|F|C|3|54|0744348308|||VOGLL||2 Sobranie SS Pink (3mg) Pack|Yes|Yes||CT008874|CMS EUROFAVORIT|Constanta|CTDTCBA42|150|CCC SOBR FAM Vara 2013|121|Retail|0
0|CS3463209|2013-07-14 19:06:44|Teodorescu|Marius||M|1958-01-20|Constanta|Ovidiu|Margaritarilor|13|||||0720856722|||SBKSGD||2 Sobranie KS Gold  (4mg) Pack|Yes|Yes||CT008899|OXFIX MARKET|Constanta|CTDTCBA89|150|CCC SOBR FAM Vara 2013|121|Retail|0
0|CS3463372|2013-07-14 19:52:18|Bogdan|George|1921011092055|M|1992-11-11|Constanta|CONSTANTA|Rodica|39||||0|0730596527||Dany95_24@yahoo.com|DUNFCMBB||2 Sobranie KS Blue (6mg) Pack|Yes|Yes||CT008874|CMS EUROFAVORIT|Constanta|CTDTCBA42|150|CCC SOBR FAM Vara 2013|121|Retail|0
0|CS3463415|2013-07-14 20:03:24|Mcparlane|Gina||F|1975-10-18|Constanta|CERNAVODA|Panait|20|B2|||30|0765947806|||VIRSPR||2 Sobranie SS Black (6mg) Pack|Yes|Yes||CT008874|CMS EUROFAVORIT|Constanta|CTDTCBA42|150|CCC SOBR FAM Vara 2013|121|Retail|0
0|CS3463459|2013-07-14 20:12:18|Asofroniei|Ionela|2790808221172|F|1971-08-08|Iasi|Iasi|Titu maiorescu|20|||||0742776563||Ela_aso@yahoo.com|SBSSWH||2 Sobranie SS White (1mg) Pack|Yes|Yes||CT008899|OXFIX MARKET|Constanta|CTDTCBA89|150|CCC SOBR FAM Vara 2013|121|Retail|0
0|CS3463463|2013-07-14 20:12:42|Goschin|Florica||F|1959-08-07|Constanta|CONSTANTA|Alexandru lapusneanu|95|Lv31|B|0|24|0733306279|||KTBL6||2 Sobranie KS Blue (6mg) Pack|Yes|Yes||CT008874|CMS EUROFAVORIT|Constanta|CTDTCBA42|150|CCC SOBR FAM Vara 2013|121|Retail|0
0|CS3463480|2013-07-14 20:16:39|Zugravu|Manuela||F|1985-03-05|Constanta|Kogalniceanu|Poiana|21|||0|0|0726684767|||MBRGLT||2 Sobranie KS Blue (6mg) Pack|Yes|Yes||CT008874|CMS EUROFAVORIT|Constanta|CTDTCBA42|150|CCC SOBR FAM Vara 2013|121|Retail|0
0|CS3463586|2013-07-14 20:45:06|Lupu|Marian|1861120134140|M|1986-11-20|Constanta|CONSTANTA|Tomis|310|Lt4|A|6|22|0745982222||Marianupuoffice@gmail.com|KTSV||1 Bratara SBR|Yes|Yes||CT008874|CMS EUROFAVORIT|Constanta|CTDTCBA42|150|CCC SOBR FAM Vara 2013|121|Retail|0
0|CS3463587|2013-07-14 20:45:24|Marioara|Cristian||M|1987-04-03|Giurgiu|Giurgiu|Negru voda|1|||0|0|0769908465||Punkforlifep@yahoo.com|SBKSBK||1 Bratara SBR|Yes|Yes||CT008899|OXFIX MARKET|Constanta|CTDTCBA89|150|CCC SOBR FAM Vara 2013|121|Retail|0
0|CS3463602|2013-07-14 20:47:54|Margescu|Maria||F|1966-08-16|Arges|MIOVENI|Bl dacia|0|F3|B|2|5|0743464715|||VIRSPR||2 Sobranie SS Black (6mg) Pack|Yes|Yes||CT008899|OXFIX MARKET|Constanta|CTDTCBA89|150|CCC SOBR FAM Vara 2013|121|Retail|0
0|CS3463607|2013-07-14 20:49:18|Margescu|Nicolae||M|1961-07-12|Arges|MIOVENI|Bl dacia|0|S3|B|2|5|0743675526|||SBSSBK||2 Sobranie SS Black (6mg) Pack|Yes|Yes||CT008899|OXFIX MARKET|Constanta|CTDTCBA89|150|CCC SOBR FAM Vara 2013|121|Retail|0
0|CS3463628|2013-07-14 20:53:34|Tanase|Anamaria|2890121205565|F|1989-01-21|Hunedoara|DEVA|Mihai Viteazu|0|45|D|3|42|0724490514||Ana49mda@yahoo.com|MBRRDRT||2 Sobranie KS Black (8mg) Pack|Yes|Yes||CT008874|CMS EUROFAVORIT|Constanta|CTDTCBA42|150|CCC SOBR FAM Vara 2013|121|Retail|0
0|CS3463648|2013-07-14 20:57:14|Chiper|Cristian||M|1984-12-18|Vaslui|BARLAD|Siret|2|||||0757210284||To_saker@yahoo.com|KTBL||2 Sobranie KS Blue (6mg) Pack|Yes|Yes||CT008874|CMS EUROFAVORIT|Constanta|CTDTCBA42|150|CCC SOBR FAM Vara 2013|121|Retail|0
0|CS3463663|2013-07-14 21:00:28|Moldoveanu|Ciprian|1860708295599|M|1986-07-08|Bucuresti|SECTOR 6|Trenului|5|C11|1|1|21|0735523273||Ciprian.v.moldoveanu@gmail.com|KTSV||1 Bratara SBR|Yes|Yes||CT008874|CMS EUROFAVORIT|Constanta|CTDTCBA42|150|CCC SOBR FAM Vara 2013|121|Retail|0
0|CS3463683|2013-07-14 21:04:04|Nagy|Monika||F|1973-08-30|Caras Severin|RESITA|Fagarasului|24|24|C|3|10|0742617888||Po.li.tm@hotmail.com|KTBL||2 Sobranie KS Blue (6mg) Pack|Yes|Yes||CT008874|CMS EUROFAVORIT|Constanta|CTDTCBA42|150|CCC SOBR FAM Vara 2013|121|Retail|0
0|CS3463692|2013-07-14 21:06:29|Stancioiu|Anca||F|1978-04-01|Bucuresti|SECTOR 3|Ion Tuculescu|37|O7|A|3|16|0742220277||Ancalukpa@yahoo.com|KTWH||2 Sobranie SS White (1mg) Pack|Yes|Yes||CT008874|CMS EUROFAVORIT|Constanta|CTDTCBA42|150|CCC SOBR FAM Vara 2013|121|Retail|0
0|CS3463697|2013-07-14 21:08:22|Neculai|Elena|2890822226746|F|1989-08-22|Iasi|IASI|Nationalu|180|A3|A|3|11|0746589999||Focsaelena@yahoo.com|KTH||2 Sobranie KS Black (8mg) Pack|Yes|Yes||CT008874|CMS EUROFAVORIT|Constanta|CTDTCBA42|150|CCC SOBR FAM Vara 2013|121|Retail|0
0|CS3463698|2013-07-14 21:08:27|Calin|Veronica||F|1979-06-15|Constanta|CONSTANTA|Tomis|336|B1|G|2|130|0729028535||calin.veronica@yahoo.com|SBSSBK||2 Sobranie SS Black (6mg) Pack|Yes|Yes||CT008899|OXFIX MARKET|Constanta|CTDTCBA89|150|CCC SOBR FAM Vara 2013|121|Retail|0
0|CS3463708|2013-07-14 21:10:56|Burtan|Catalin iulian||M|1986-06-26|Bucuresti|Sector 1|Calea grivitei|395|||||0730874342||Minlessfsh@yahoo.com|SBKSGD||2 Sobranie KS Gold  (4mg) Pack|Yes|Yes||CT008899|OXFIX MARKET|Constanta|CTDTCBA89|150|CCC SOBR FAM Vara 2013|121|Retail|0
0|CS3463719|2013-07-14 21:12:30|Valeanu|Arnold Constantin||M|1992-03-15|Constanta|CONSTANTA|Eliberarii|8|L1|D|4|21|0730612209||vwarlike@yahoo.com|KTBL||2 Sobranie KS Blue (6mg) Pack|Yes|Yes||CT008874|CMS EUROFAVORIT|Constanta|CTDTCBA42|150|CCC SOBR FAM Vara 2013|121|Retail|0
0|CS3463788|2013-07-14 21:30:32|Eremia|Iulian||M|1983-12-11|Ilfov|PANTELIMON|Sf. gheorghe|47||||0|0724276597||Dtp_iuyyk@yahoo.com|DAVGL||1 Bratara SBR|Yes|Yes||CT008874|CMS EUROFAVORIT|Constanta|CTDTCBA42|150|CCC SOBR FAM Vara 2013|121|Retail|0
0|CS3463859|2013-07-14 21:46:39|Dumitru|Petre||M|1982-06-01|Prahova|PLOIESTI|Bustenari|8||||0|0754666361||Office@riavis.ro|DUNFCMBB||1 Bratara SBR|Yes|Yes||CT008874|CMS EUROFAVORIT|Constanta|CTDTCBA42|150|CCC SOBR FAM Vara 2013|121|Retail|0
0|CS3463864|2013-07-14 21:47:39|Guran|Marius||M|1985-01-06|Brasov|POIANA MARULUI|Principala|225|-|-|0|0|0742468394||guranmarius@yahoo.com|KTBLH||2 Sobranie KS Black (8mg) Pack|Yes|Yes||CT008899|OXFIX MARKET|Constanta|CTDTCBA89|150|CCC SOBR FAM Vara 2013|121|Retail|0
0|CS3463881|2013-07-14 21:53:53|Tudora|Daniela||F|1984-05-13|Arges|Stefanesti|Lalelor|1|21|A|3|16|0732823784||Danielatudora5740@yahoo.com|KTSWIT||1 Accesoriu SBR|Yes|Yes||CT008899|OXFIX MARKET|Constanta|CTDTCBA89|150|CCC SOBR FAM Vara 2013|121|Retail|0
0|CS3463895|2013-07-14 21:58:07|Ster-popa|Alexandru|1890820204492|M|1989-08-20|Hunedoara|PETROSANI|Oituz|1|8|1|1|7|0721774287||Sterissimo@yahoo.com|MBRGLH||2 Sobranie KS Blue (6mg) Pack|Yes|Yes||CT008874|CMS EUROFAVORIT|Constanta|CTDTCBA42|150|CCC SOBR FAM Vara 2013|121|Retail|0
0|CS3463909|2013-07-14 22:02:47|Toma|Sergiu||M|1990-04-22|Constanta|CONSTANTA|Soveja|1|A|A|4|17|0722741716||Tima.tom@yahoo.com|KTSV||2 Sobranie KS Gold  (4mg) Pack|Yes|Yes||CT008874|CMS EUROFAVORIT|Constanta|CTDTCBA42|150|CCC SOBR FAM Vara 2013|121|Retail|0
0|CS3463911|2013-07-14 22:03:39|Preda|Marian|1731001472518|M|1973-10-01|Ilfov|Vidra|Principala|153|||||0766570289||Marian.preda73@yahoo.com|SBSSWH||2 Sobranie SS White (1mg) Pack|Yes|Yes||CT008899|OXFIX MARKET|Constanta|CTDTCBA89|150|CCC SOBR FAM Vara 2013|121|Retail|0
0|FS1006328|2013-07-10 17:11:03||||M|||||||||||||WISSB||||||||||150|CCC SOBR FAM Vara 2013|121|Retail|0
0|FS1006329|2013-07-10 17:11:04||||M|||||||||||||WISSB||||||||||150|CCC SOBR FAM Vara 2013|121|Retail|0
0|FS1006349|2013-07-10 17:13:40||||M|||||||||||||MBRRD||||||||||150|CCC SOBR FAM Vara 2013|121|Retail|0
0|FS1006407|2013-07-10 17:22:44||||F|||||||||||||KTBL6||||||||||150|CCC SOBR FAM Vara 2013|121|Retail|0
0|FS1006608|2013-07-10 17:45:49||||F|||||||||||||VOGABP||||||||||150|CCC SOBR FAM Vara 2013|121|Retail|0
0|FS1006619|2013-07-10 17:47:00||||F|||||||||||||GLMBL||||||||||150|CCC SOBR FAM Vara 2013|121|Retail|0
0|FS1006632|2013-07-10 17:49:11||||F|||||||||||||KTNBK||||||||||150|CCC SOBR FAM Vara 2013|121|Retail|0
0|FS1006690|2013-07-10 17:55:57||||F|||||||||||||WIXSTFX||||||||||150|CCC SOBR FAM Vara 2013|121|Retail|0
0|FS1006747|2013-07-10 18:04:56||||F|||||||||||||MBRBI||||||||||150|CCC SOBR FAM Vara 2013|121|Retail|0
0|FS1006779|2013-07-10 18:08:52||||F|||||||||||||VIRSV||||||||||150|CCC SOBR FAM Vara 2013|121|Retail|0
0|FS1006881|2013-07-10 18:20:31||||F|||||||||||||GLMBL||||||||||150|CCC SOBR FAM Vara 2013|121|Retail|0
0|FS1006887|2013-07-10 18:21:45||||M|||||||||||||DUNFCSB||||||||||150|CCC SOBR FAM Vara 2013|121|Retail|0
0|FS1006938|2013-07-10 18:28:39||||M|||||||||||||KTSV||||||||||150|CCC SOBR FAM Vara 2013|121|Retail|0
0|FS1006965|2013-07-10 18:32:27||||M|||||||||||||KTWH||||||||||150|CCC SOBR FAM Vara 2013|121|Retail|0
0|FS1006985|2013-07-10 18:35:17||||M|||||||||||||MBRGLFT||||||||||150|CCC SOBR FAM Vara 2013|121|Retail|0
0|FS1007027|2013-07-10 18:41:29||||M|||||||||||||PARNBH||||||||||150|CCC SOBR FAM Vara 2013|121|Retail|0
0|FS1007072|2013-07-10 18:46:41||||M|||||||||||||DUNFCMBB||||||||||150|CCC SOBR FAM Vara 2013|121|Retail|0
0|FS1007175|2013-07-10 19:01:17||||M|||||||||||||KTH||||||||||150|CCC SOBR FAM Vara 2013|121|Retail|0
0|FS1007178|2013-07-10 19:01:32||||M|||||||||||||DUNFCMBB||||||||||150|CCC SOBR FAM Vara 2013|121|Retail|0
0|FS1007195|2013-07-10 19:03:10||||F|||||||||||||DUNFCMBB||||||||||150|CCC SOBR FAM Vara 2013|121|Retail|0
0|FS1007278|2013-07-10 19:13:06||||F|||||||||||||VOGABP||||||||||150|CCC SOBR FAM Vara 2013|121|Retail|0
0|FS1007369|2013-07-10 19:25:18||||M|||||||||||||ROTH||||||||||150|CCC SOBR FAM Vara 2013|121|Retail|0
0|FS1007514|2013-07-10 19:48:48||||M|||||||||||||DAVGL||||||||||150|CCC SOBR FAM Vara 2013|121|Retail|0
0|FS1007521|2013-07-10 19:49:52||||F|||||||||||||KTBL6||||||||||150|CCC SOBR FAM Vara 2013|121|Retail|0
0|FS1007560|2013-07-10 19:53:31||||M|||||||||||||KTBLH||||||||||150|CCC SOBR FAM Vara 2013|121|Retail|0
0|FS1007569|2013-07-10 19:54:56||||M|||||||||||||KTBLH||||||||||150|CCC SOBR FAM Vara 2013|121|Retail|0
0|FS1007570|2013-07-10 19:54:57||||M|||||||||||||KTBLH||||||||||150|CCC SOBR FAM Vara 2013|121|Retail|0
0|FS1007615|2013-07-10 19:59:13||||F|||||||||||||KTWH||||||||||150|CCC SOBR FAM Vara 2013|121|Retail|0
0|FS1007642|2013-07-10 20:03:25||||F|||||||||||||WISV||||||||||150|CCC SOBR FAM Vara 2013|121|Retail|0
0|FS1007670|2013-07-10 20:09:38||||M|||||||||||||DUNFCBB||||||||||150|CCC SOBR FAM Vara 2013|121|Retail|0
0|FS1007677|2013-07-10 20:11:40||||F|||||||||||||KTSV||||||||||150|CCC SOBR FAM Vara 2013|121|Retail|0
0|FS1007722|2013-07-10 20:21:21||||F|||||||||||||KTH||||||||||150|CCC SOBR FAM Vara 2013|121|Retail|0
0|FS1007752|2013-07-10 20:28:38||||F|||||||||||||PMBL||||||||||150|CCC SOBR FAM Vara 2013|121|Retail|0
0|FS1007760|2013-07-10 20:30:11||||M|||||||||||||KTSWITH||||||||||150|CCC SOBR FAM Vara 2013|121|Retail|0
0|FS1007777|2013-07-10 20:32:55||||F|||||||||||||DAVGLS||||||||||150|CCC SOBR FAM Vara 2013|121|Retail|0
0|FS1007800|2013-07-10 20:35:26||||F|||||||||||||GLMMNT||||||||||150|CCC SOBR FAM Vara 2013|121|Retail|0
0|FS1007829|2013-07-10 20:44:14||||M|||||||||||||DUNFCMBB||||||||||150|CCC SOBR FAM Vara 2013|121|Retail|0
0|FS1007855|2013-07-10 20:47:32||||M|||||||||||||KTBLH||||||||||150|CCC SOBR FAM Vara 2013|121|Retail|0
0|FS1007887|2013-07-10 20:53:49||||M|||||||||||||KTBLH||||||||||150|CCC SOBR FAM Vara 2013|121|Retail|0
0|FS1007888|2013-07-10 20:53:49||||M|||||||||||||KTBLH||||||||||150|CCC SOBR FAM Vara 2013|121|Retail|0
0|FS1007889|2013-07-10 20:54:03||||M|||||||||||||WIBLH||||||||||150|CCC SOBR FAM Vara 2013|121|Retail|0
0|FS1007916|2013-07-10 20:58:26||||F|||||||||||||KTH||||||||||150|CCC SOBR FAM Vara 2013|121|Retail|0
0|FS1007971|2013-07-10 21:11:37||||F|||||||||||||GLPBMNFT||||||||||150|CCC SOBR FAM Vara 2013|121|Retail|0
0|FS1007980|2013-07-10 21:12:51||||F|||||||||||||PMSV||||||||||150|CCC SOBR FAM Vara 2013|121|Retail|0
0|FS1007990|2013-07-10 21:15:53||||F|||||||||||||KTSWIT||||||||||150|CCC SOBR FAM Vara 2013|121|Retail|0
0|FS1008094|2013-07-10 21:39:33||||M|||||||||||||DUNFF||||||||||150|CCC SOBR FAM Vara 2013|121|Retail|0
0|FS1008100|2013-07-10 21:40:40||||F|||||||||||||VOGLL||||||||||150|CCC SOBR FAM Vara 2013|121|Retail|0
0|FS1008110|2013-07-10 21:43:11||||M|||||||||||||PMRD||||||||||150|CCC SOBR FAM Vara 2013|121|Retail|0
0|FS1008116|2013-07-10 21:44:35||||F|||||||||||||WISSS||||||||||150|CCC SOBR FAM Vara 2013|121|Retail|0
0|FS1008128|2013-07-10 21:51:16||||M|||||||||||||CAFI||||||||||150|CCC SOBR FAM Vara 2013|121|Retail|0
0|FS1009725|2013-07-11 18:04:28||||M|||||||||||||KTBLH||||||||||150|CCC SOBR FAM Vara 2013|121|Retail|0
0|FS1009761|2013-07-11 18:10:10||||F|||||||||||||KTNWH||||||||||150|CCC SOBR FAM Vara 2013|121|Retail|0
0|FS1009764|2013-07-11 18:10:53||||F|||||||||||||KTWH||||||||||150|CCC SOBR FAM Vara 2013|121|Retail|0
0|FS1009798|2013-07-11 18:15:39||||F|||||||||||||KTH||||||||||150|CCC SOBR FAM Vara 2013|121|Retail|0
0|FS1009805|2013-07-11 18:17:13||||M|||||||||||||MBRGLT||||||||||150|CCC SOBR FAM Vara 2013|121|Retail|0
0|FS1009848|2013-07-11 18:22:47||||M|||||||||||||KTBL||||||||||150|CCC SOBR FAM Vara 2013|121|Retail|0
0|FS1009866|2013-07-11 18:25:32||||F|||||||||||||VOGJSN||||||||||150|CCC SOBR FAM Vara 2013|121|Retail|0
0|FS1009877|2013-07-11 18:27:24||||F|||||||||||||VIRSFA||||||||||150|CCC SOBR FAM Vara 2013|121|Retail|0
0|FS1009937|2013-07-11 18:36:41||||M|||||||||||||KTBL||||||||||150|CCC SOBR FAM Vara 2013|121|Retail|0
0|FS1009950|2013-07-11 18:38:11||||M|||||||||||||KTBL||||||||||150|CCC SOBR FAM Vara 2013|121|Retail|0
0|FS1010055|2013-07-11 18:52:04||||F|||||||||||||KTSV||||||||||150|CCC SOBR FAM Vara 2013|121|Retail|0
0|FS1010070|2013-07-11 18:54:34||||M|||||||||||||PARAB||||||||||150|CCC SOBR FAM Vara 2013|121|Retail|0
0|FS1010122|2013-07-11 19:01:39||||M|||||||||||||DUNFCMBB||||||||||150|CCC SOBR FAM Vara 2013|121|Retail|0
0|FS1010171|2013-07-11 19:09:01||||M|||||||||||||DUNFCBB||||||||||150|CCC SOBR FAM Vara 2013|121|Retail|0
0|FS1010179|2013-07-11 19:10:07||||F|||||||||||||DUNFCMBB||||||||||150|CCC SOBR FAM Vara 2013|121|Retail|0
0|FS1010340|2013-07-11 19:26:23||||M|||||||||||||MBRFPEX||||||||||150|CCC SOBR FAM Vara 2013|121|Retail|0
0|FS1010341|2013-07-11 19:26:24||||M|||||||||||||VOGJSN||||||||||150|CCC SOBR FAM Vara 2013|121|Retail|0
0|FS1010476|2013-07-11 19:42:53||||M|||||||||||||LMRD||||||||||150|CCC SOBR FAM Vara 2013|121|Retail|0
0|FS1010477|2013-07-11 19:42:54||||M|||||||||||||LMRD||||||||||150|CCC SOBR FAM Vara 2013|121|Retail|0
0|FS1010493|2013-07-11 19:44:45||||M|||||||||||||ASSFIH||||||||||150|CCC SOBR FAM Vara 2013|121|Retail|0
0|FS1010537|2013-07-11 19:49:13||||M|||||||||||||SBSSPK||||||||||150|CCC SOBR FAM Vara 2013|121|Retail|0
0|FS1010545|2013-07-11 19:50:15||||F|||||||||||||KTBLH||||||||||150|CCC SOBR FAM Vara 2013|121|Retail|0
0|FS1010572|2013-07-11 19:53:51||||F|||||||||||||KTBL||||||||||150|CCC SOBR FAM Vara 2013|121|Retail|0
0|FS1010716|2013-07-11 20:21:18||||M|||||||||||||ROTH||||||||||150|CCC SOBR FAM Vara 2013|121|Retail|0
0|FS1010794|2013-07-11 20:31:08||||M|||||||||||||KTSV||||||||||150|CCC SOBR FAM Vara 2013|121|Retail|0
0|FS1010836|2013-07-11 20:35:37||||M|||||||||||||KTBL6||||||||||150|CCC SOBR FAM Vara 2013|121|Retail|0
0|FS1010887|2013-07-11 20:47:00||||M|||||||||||||KTBL||||||||||150|CCC SOBR FAM Vara 2013|121|Retail|0
0|FS1010897|2013-07-11 20:48:55||||M|||||||||||||SOBCOK||||||||||150|CCC SOBR FAM Vara 2013|121|Retail|0
0|FS1010898|2013-07-11 20:48:55||||M|||||||||||||SOBCOK||||||||||150|CCC SOBR FAM Vara 2013|121|Retail|0
0|FS1010954|2013-07-11 20:55:10||||M|||||||||||||DUNFCSB||||||||||150|CCC SOBR FAM Vara 2013|121|Retail|0
0|FS1010957|2013-07-11 20:55:20||||M|||||||||||||KTBL||||||||||150|CCC SOBR FAM Vara 2013|121|Retail|0
0|FS1010992|2013-07-11 20:58:43||||F|||||||||||||KTSWIT||||||||||150|CCC SOBR FAM Vara 2013|121|Retail|0
0|FS1010993|2013-07-11 20:59:07||||M|||||||||||||KTNWH||||||||||150|CCC SOBR FAM Vara 2013|121|Retail|0
0|FS1011022|2013-07-11 21:02:59||||M|||||||||||||DUNBL||||||||||150|CCC SOBR FAM Vara 2013|121|Retail|0
0|FS1011079|2013-07-11 21:14:07||||M|||||||||||||KTBLH||||||||||150|CCC SOBR FAM Vara 2013|121|Retail|0
0|FS1011125|2013-07-11 21:22:08||||F|||||||||||||MBRFPEX||||||||||150|CCC SOBR FAM Vara 2013|121|Retail|0
0|FS1011181|2013-07-11 21:32:21||||F|||||||||||||KTBL6||||||||||150|CCC SOBR FAM Vara 2013|121|Retail|0
0|FS1011226|2013-07-11 21:41:00|||||||||||||||||VIRSPR||||||||||150|CCC SOBR FAM Vara 2013|121|Retail|0
0|FS1011256|2013-07-11 21:48:29||||M|||||||||||||DUNFCMBR||||||||||150|CCC SOBR FAM Vara 2013|121|Retail|0
0|FS1011263|2013-07-11 21:49:44||||M|||||||||||||CABK||||||||||150|CCC SOBR FAM Vara 2013|121|Retail|0
0|FS1011298|2013-07-11 21:53:43||||M|||||||||||||DUNFCMBB||||||||||150|CCC SOBR FAM Vara 2013|121|Retail|0
0|FS1011310|2013-07-11 21:56:14||||M|||||||||||||DAVIDBL||||||||||150|CCC SOBR FAM Vara 2013|121|Retail|0
0|FS1011334|2013-07-11 22:01:27||||M|||||||||||||MBRFP||||||||||150|CCC SOBR FAM Vara 2013|121|Retail|0
0|FS1011352|2013-07-11 22:05:46||||F|||||||||||||GLMMNT||||||||||150|CCC SOBR FAM Vara 2013|121|Retail|0
0|FS1011355|2013-07-11 22:08:20||||M|||||||||||||DAVGL||||||||||150|CCC SOBR FAM Vara 2013|121|Retail|0
0|FS1011364|2013-07-11 22:11:49||||F|||||||||||||DAVSVSS||||||||||150|CCC SOBR FAM Vara 2013|121|Retail|0
0|FS1011378|2013-07-11 22:13:44||||M|||||||||||||KTNWH||||||||||150|CCC SOBR FAM Vara 2013|121|Retail|0
0|FS1011388|2013-07-11 22:15:21||||F|||||||||||||LSBL||||||||||150|CCC SOBR FAM Vara 2013|121|Retail|0
0|FS1011392|2013-07-11 22:17:21||||M|||||||||||||KTBLH||||||||||150|CCC SOBR FAM Vara 2013|121|Retail|0
0|FS1011395|2013-07-11 22:18:02||||M|||||||||||||LMBL||||||||||150|CCC SOBR FAM Vara 2013|121|Retail|0
0|FS1011396|2013-07-11 22:18:06||||M|||||||||||||MBRFPH||||||||||150|CCC SOBR FAM Vara 2013|121|Retail|0
0|FS1011397|2013-07-11 22:18:46||||M|||||||||||||PMECBK||||||||||150|CCC SOBR FAM Vara 2013|121|Retail|0
0|FS1011405|2013-07-11 22:21:50||||M|||||||||||||KTBL||||||||||150|CCC SOBR FAM Vara 2013|121|Retail|0
0|FS1011408|2013-07-11 22:22:59||||M|||||||||||||KTBL||||||||||150|CCC SOBR FAM Vara 2013|121|Retail|0
0|FS1011411|2013-07-11 22:24:09||||M|||||||||||||PMBL||||||||||150|CCC SOBR FAM Vara 2013|121|Retail|0
0|FS1011417|2013-07-11 22:25:32||||F|||||||||||||KTBLH||||||||||150|CCC SOBR FAM Vara 2013|121|Retail|0
0|FS1011456|2013-07-11 22:38:42||||M|||||||||||||CAFI||||||||||150|CCC SOBR FAM Vara 2013|121|Retail|0
0|FS1011457|2013-07-11 22:38:43||||M|||||||||||||CAFI||||||||||150|CCC SOBR FAM Vara 2013|121|Retail|0
0|FS1011458|2013-07-11 22:38:57||||M|||||||||||||PMECBL||||||||||150|CCC SOBR FAM Vara 2013|121|Retail|0
0|FS1011463|2013-07-11 22:40:01||||M|||||||||||||KTBL6||||||||||150|CCC SOBR FAM Vara 2013|121|Retail|0
0|FS1013430|2013-07-12 18:23:49||||M|||||||||||||DAVCL||||||||||150|CCC SOBR FAM Vara 2013|121|Retail|0
0|FS1013431|2013-07-12 18:23:52||||M|||||||||||||MBRBI||||||||||150|CCC SOBR FAM Vara 2013|121|Retail|0
0|FS1013591|2013-07-12 18:42:56||||M|||||||||||||DAVCL||||||||||150|CCC SOBR FAM Vara 2013|121|Retail|0
0|FS1013605|2013-07-12 18:44:31||||F|||||||||||||MBRGL||||||||||150|CCC SOBR FAM Vara 2013|121|Retail|0
0|FS1013630|2013-07-12 18:47:50||||F|||||||||||||VIRSFA||||||||||150|CCC SOBR FAM Vara 2013|121|Retail|0
0|FS1013648|2013-07-12 18:48:46||||M|||||||||||||PARABH||||||||||150|CCC SOBR FAM Vara 2013|121|Retail|0
0|FS1013692|2013-07-12 18:55:27|||||||||||||||||MBRFP||||||||||150|CCC SOBR FAM Vara 2013|121|Retail|0
0|FS1013693|2013-07-12 18:55:27|||||||||||||||||MBRFP||||||||||150|CCC SOBR FAM Vara 2013|121|Retail|0
0|FS1013721|2013-07-12 18:58:22||||F|||||||||||||PMSSBL||||||||||150|CCC SOBR FAM Vara 2013|121|Retail|0
0|FS1013854|2013-07-12 19:17:30||||M|||||||||||||MBRGL||||||||||150|CCC SOBR FAM Vara 2013|121|Retail|0
0|FS1013857|2013-07-12 19:17:42||||M|||||||||||||GLPBMNFT||||||||||150|CCC SOBR FAM Vara 2013|121|Retail|0
0|FS1013881|2013-07-12 19:21:03||||F|||||||||||||VOGLL||||||||||150|CCC SOBR FAM Vara 2013|121|Retail|0
0|FS1013923|2013-07-12 19:25:18||||M|||||||||||||DAVGLSS||||||||||150|CCC SOBR FAM Vara 2013|121|Retail|0
0|FS1013944|2013-07-12 19:26:40||||M|||||||||||||DAVGLSS||||||||||150|CCC SOBR FAM Vara 2013|121|Retail|0
0|FS1014006|2013-07-12 19:31:05||||M|||||||||||||KTBL6||||||||||150|CCC SOBR FAM Vara 2013|121|Retail|0
0|FS1014131|2013-07-12 19:43:29||||F|||||||||||||GLPBPKFT||||||||||150|CCC SOBR FAM Vara 2013|121|Retail|0
0|FS1014170|2013-07-12 19:47:57||||F|||||||||||||KTSV||||||||||150|CCC SOBR FAM Vara 2013|121|Retail|0
0|FS1014174|2013-07-12 19:48:14||||M|||||||||||||KTBLH||||||||||150|CCC SOBR FAM Vara 2013|121|Retail|0
0|FS1014178|2013-07-12 19:48:43||||F|||||||||||||VOGLL||||||||||150|CCC SOBR FAM Vara 2013|121|Retail|0
0|FS1014239|2013-07-12 19:54:23||||M|||||||||||||KTSWITH||||||||||150|CCC SOBR FAM Vara 2013|121|Retail|0
0|FS1014244|2013-07-12 19:54:40||||M|||||||||||||LMBLH||||||||||150|CCC SOBR FAM Vara 2013|121|Retail|0
0|FS1014254|2013-07-12 19:55:26||||M|||||||||||||PMECBK||||||||||150|CCC SOBR FAM Vara 2013|121|Retail|0
0|FS1014262|2013-07-12 19:56:06||||M|||||||||||||PARNBH||||||||||150|CCC SOBR FAM Vara 2013|121|Retail|0
0|FS1014264|2013-07-12 19:56:26||||F|||||||||||||PHMQGRH||||||||||150|CCC SOBR FAM Vara 2013|121|Retail|0
0|FS1014833|2013-07-12 20:46:56||||F|||||||||||||VIRSV||||||||||150|CCC SOBR FAM Vara 2013|121|Retail|0
0|FS1014876|2013-07-12 20:49:52||||M|||||||||||||KTSV||||||||||150|CCC SOBR FAM Vara 2013|121|Retail|0
0|FS1014927|2013-07-12 20:55:46||||M|||||||||||||DUNFCMBB||||||||||150|CCC SOBR FAM Vara 2013|121|Retail|0
0|FS1014977|2013-07-12 20:59:26||||F|||||||||||||MBRGLH||||||||||150|CCC SOBR FAM Vara 2013|121|Retail|0
0|FS1015022|2013-07-12 21:04:01||||F|||||||||||||DUNFCMBB||||||||||150|CCC SOBR FAM Vara 2013|121|Retail|0
0|FS1015049|2013-07-12 21:06:03||||F|||||||||||||VOGLL||||||||||150|CCC SOBR FAM Vara 2013|121|Retail|0
0|FS1015240|2013-07-12 21:21:25||||F|||||||||||||WIBLH||||||||||150|CCC SOBR FAM Vara 2013|121|Retail|0
0|FS1015237|2013-07-12 21:21:26||||F|||||||||||||GLPBPKFT||||||||||150|CCC SOBR FAM Vara 2013|121|Retail|0
0|FS1015239|2013-07-12 21:21:41||||F|||||||||||||WIBLH||||||||||150|CCC SOBR FAM Vara 2013|121|Retail|0
0|FS1015249|2013-07-12 21:22:46||||M|||||||||||||KTBL||||||||||150|CCC SOBR FAM Vara 2013|121|Retail|0
0|FS1015258|2013-07-12 21:24:04||||F|||||||||||||PARABH||||||||||150|CCC SOBR FAM Vara 2013|121|Retail|0
0|FS1015265|2013-07-12 21:24:58||||F|||||||||||||DAVGLSS||||||||||150|CCC SOBR FAM Vara 2013|121|Retail|0
0|FS1015276|2013-07-12 21:26:35||||F|||||||||||||PARRSSH||||||||||150|CCC SOBR FAM Vara 2013|121|Retail|0
0|FS1015293|2013-07-12 21:28:36||||F|||||||||||||DUNFCMBB||||||||||150|CCC SOBR FAM Vara 2013|121|Retail|0
0|FS1015317|2013-07-12 21:32:35||||F|||||||||||||DAVGL||||||||||150|CCC SOBR FAM Vara 2013|121|Retail|0
0|FS1015318|2013-07-12 21:32:36||||F|||||||||||||DAVGL||||||||||150|CCC SOBR FAM Vara 2013|121|Retail|0
0|FS1015330|2013-07-12 21:34:01||||F|||||||||||||DUNFCMBB||||||||||150|CCC SOBR FAM Vara 2013|121|Retail|0
0|FS1015464|2013-07-12 21:52:39||||F|||||||||||||MBRGLT||||||||||150|CCC SOBR FAM Vara 2013|121|Retail|0
0|FS1015473|2013-07-12 21:54:45||||F|||||||||||||KTSV||||||||||150|CCC SOBR FAM Vara 2013|121|Retail|0
0|FS1015480|2013-07-12 21:55:29||||M|||||||||||||DUNFCBB||||||||||150|CCC SOBR FAM Vara 2013|121|Retail|0
0|FS1015535|2013-07-12 22:03:03||||F|||||||||||||KTSV||||||||||150|CCC SOBR FAM Vara 2013|121|Retail|0
0|FS1015551|2013-07-12 22:05:41||||F|||||||||||||DUNFCSB|SBKSBK|||||||||150|CCC SOBR FAM Vara 2013|121|Retail|0
0|FS1015574|2013-07-12 22:07:51||||M|||||||||||||MBRFPEX||||||||||150|CCC SOBR FAM Vara 2013|121|Retail|0
0|FS1015584|2013-07-12 22:10:37||||F|||||||||||||KTSV||||||||||150|CCC SOBR FAM Vara 2013|121|Retail|0
0|FS1015597|2013-07-12 22:12:23||||F|||||||||||||VIRSPR||||||||||150|CCC SOBR FAM Vara 2013|121|Retail|0
0|FS1015602|2013-07-12 22:14:05||||F|||||||||||||DUNFCSB||||||||||150|CCC SOBR FAM Vara 2013|121|Retail|0
0|FS1015754|2013-07-12 22:29:44||||M|||||||||||||MBRFPH||||||||||150|CCC SOBR FAM Vara 2013|121|Retail|0
0|FS1015779|2013-07-12 22:31:31||||F|||||||||||||PARRSSMH||||||||||150|CCC SOBR FAM Vara 2013|121|Retail|0
0|FS1015829|2013-07-12 22:35:43||||F|||||||||||||KTBL||||||||||150|CCC SOBR FAM Vara 2013|121|Retail|0
0|FS1015849|2013-07-12 22:37:03||||M|||||||||||||CHSTRDH||||||||||150|CCC SOBR FAM Vara 2013|121|Retail|0
0|FS1015866|2013-07-12 22:37:37||||F|||||||||||||KTWH||||||||||150|CCC SOBR FAM Vara 2013|121|Retail|0
0|FS1015909|2013-07-12 22:46:54||||F|||||||||||||DUNFCBB||||||||||150|CCC SOBR FAM Vara 2013|121|Retail|0
0|FS1015913|2013-07-12 22:47:06||||F|||||||||||||GLMBL||||||||||150|CCC SOBR FAM Vara 2013|121|Retail|0
0|FS1015921|2013-07-12 22:47:21||||F|||||||||||||DAVCL||||||||||150|CCC SOBR FAM Vara 2013|121|Retail|0
0|FS1015922|2013-07-12 22:47:22||||F|||||||||||||DAVCL||||||||||150|CCC SOBR FAM Vara 2013|121|Retail|0
0|FS1015923|2013-07-12 22:47:25||||M|||||||||||||KTBLH||||||||||150|CCC SOBR FAM Vara 2013|121|Retail|0
0|FS1015929|2013-07-12 22:47:41||||M|||||||||||||KTBL||||||||||150|CCC SOBR FAM Vara 2013|121|Retail|0
0|FS1015937|2013-07-12 22:48:59||||M|||||||||||||DUNFCMBR||||||||||150|CCC SOBR FAM Vara 2013|121|Retail|0
0|FS1015940|2013-07-12 22:49:24||||M|||||||||||||PMECAFRD||||||||||150|CCC SOBR FAM Vara 2013|121|Retail|0
0|FS1015950|2013-07-12 22:50:53||||M|||||||||||||KTSV||||||||||150|CCC SOBR FAM Vara 2013|121|Retail|0
0|FS1015953|2013-07-12 22:51:43||||F|||||||||||||CABK||||||||||150|CCC SOBR FAM Vara 2013|121|Retail|0
0|FS1015988|2013-07-12 22:56:01||||F|||||||||||||WISV||||||||||150|CCC SOBR FAM Vara 2013|121|Retail|0
0|FS1019855|2013-07-13 18:29:48||||F|||||||||||||DUNFCBB||||||||||150|CCC SOBR FAM Vara 2013|121|Retail|0
0|FS1019860|2013-07-13 18:30:21||||M|||||||||||||DUNFCMBB||||||||||150|CCC SOBR FAM Vara 2013|121|Retail|0
0|FS1019910|2013-07-13 18:39:35||||M|||||||||||||KTBLH||||||||||150|CCC SOBR FAM Vara 2013|121|Retail|0
0|FS1019915|2013-07-13 18:40:03||||M|||||||||||||KTBL||||||||||150|CCC SOBR FAM Vara 2013|121|Retail|0
0|FS1019969|2013-07-13 18:48:00||||F|||||||||||||DUNFCBB||||||||||150|CCC SOBR FAM Vara 2013|121|Retail|0
0|FS1019976|2013-07-13 18:49:56||||M|||||||||||||CAWH||||||||||150|CCC SOBR FAM Vara 2013|121|Retail|0
0|FS1019984|2013-07-13 18:51:13||||F|||||||||||||VIRSPR||||||||||150|CCC SOBR FAM Vara 2013|121|Retail|0
0|FS1019990|2013-07-13 18:53:07||||M|||||||||||||DUNFCMBB||||||||||150|CCC SOBR FAM Vara 2013|121|Retail|0
0|FS1019991|2013-07-13 18:53:07||||F|||||||||||||LMBL||||||||||150|CCC SOBR FAM Vara 2013|121|Retail|0
0|FS1020026|2013-07-13 18:59:30||||F|||||||||||||GLMMNT||||||||||150|CCC SOBR FAM Vara 2013|121|Retail|0
0|FS1020024|2013-07-13 18:59:41||||F|||||||||||||GLMMNT||||||||||150|CCC SOBR FAM Vara 2013|121|Retail|0
0|FS1020093|2013-07-13 19:10:18||||F|||||||||||||MBRFPH||||||||||150|CCC SOBR FAM Vara 2013|121|Retail|0
0|FS1020137|2013-07-13 19:18:52||||F|||||||||||||MBRRDRT||||||||||150|CCC SOBR FAM Vara 2013|121|Retail|0
0|FS1020152|2013-07-13 19:20:24||||F|||||||||||||SBSSWH||||||||||150|CCC SOBR FAM Vara 2013|121|Retail|0
0|FS1020194|2013-07-13 19:24:16||||M|||||||||||||KTBL||||||||||150|CCC SOBR FAM Vara 2013|121|Retail|0
0|FS1020239|2013-07-13 19:30:15||||M|||||||||||||PMSSBL||||||||||150|CCC SOBR FAM Vara 2013|121|Retail|0
0|FS1020289|2013-07-13 19:35:57||||F|||||||||||||MBRFPEX||||||||||150|CCC SOBR FAM Vara 2013|121|Retail|0
0|FS1020331|2013-07-13 19:40:45||||F|||||||||||||KTH||||||||||150|CCC SOBR FAM Vara 2013|121|Retail|0
0|FS1020337|2013-07-13 19:41:51||||M|||||||||||||KTBLH||||||||||150|CCC SOBR FAM Vara 2013|121|Retail|0
0|FS1020349|2013-07-13 19:43:37||||F|||||||||||||KTNBK||||||||||150|CCC SOBR FAM Vara 2013|121|Retail|0
0|FS1020377|2013-07-13 19:47:18||||M|||||||||||||MBRGLT||||||||||150|CCC SOBR FAM Vara 2013|121|Retail|0
0|FS1020392|2013-07-13 19:48:38|||||||||||||||||KTNWH||||||||||150|CCC SOBR FAM Vara 2013|121|Retail|0
0|FS1020393|2013-07-13 19:48:59||||F|||||||||||||KTSWIT||||||||||150|CCC SOBR FAM Vara 2013|121|Retail|0
0|FS1020428|2013-07-13 19:52:44||||F|||||||||||||KTNWH||||||||||150|CCC SOBR FAM Vara 2013|121|Retail|0
0|FS1020621|2013-07-13 20:17:50||||F|||||||||||||MBRGLT||||||||||150|CCC SOBR FAM Vara 2013|121|Retail|0
0|FS1020639|2013-07-13 20:18:58||||M|||||||||||||DUNFCSB||||||||||150|CCC SOBR FAM Vara 2013|121|Retail|0
0|FS1020704|2013-07-13 20:24:58||||F|||||||||||||DUNFCBB||||||||||150|CCC SOBR FAM Vara 2013|121|Retail|0
0|FS1020738|2013-07-13 20:28:58||||F|||||||||||||KTSV||||||||||150|CCC SOBR FAM Vara 2013|121|Retail|0
0|FS1020829|2013-07-13 20:38:22||||M|||||||||||||PMECBK||||||||||150|CCC SOBR FAM Vara 2013|121|Retail|0
0|FS1020851|2013-07-13 20:40:03||||F|||||||||||||WIXSTFX||||||||||150|CCC SOBR FAM Vara 2013|121|Retail|0
0|FS1020896|2013-07-13 20:44:08||||F|||||||||||||DUNFCMBB||||||||||150|CCC SOBR FAM Vara 2013|121|Retail|0
0|FS1020905|2013-07-13 20:45:10||||F|||||||||||||KTSV||||||||||150|CCC SOBR FAM Vara 2013|121|Retail|0
0|FS1020961|2013-07-13 20:54:22||||F|||||||||||||VOGLL||||||||||150|CCC SOBR FAM Vara 2013|121|Retail|0
0|FS1021020|2013-07-13 21:01:46||||M|||||||||||||KTH||||||||||150|CCC SOBR FAM Vara 2013|121|Retail|0
0|FS1021125|2013-07-13 21:17:15||||F|||||||||||||SOBCOK||||||||||150|CCC SOBR FAM Vara 2013|121|Retail|0
0|FS1021130|2013-07-13 21:18:11||||M|||||||||||||KTWH||||||||||150|CCC SOBR FAM Vara 2013|121|Retail|0
0|FS1021285|2013-07-13 21:36:42||||F|||||||||||||DAVGLS||||||||||150|CCC SOBR FAM Vara 2013|121|Retail|0
0|FS1021351|2013-07-13 21:45:45||||F|||||||||||||SBSSMN||||||||||150|CCC SOBR FAM Vara 2013|121|Retail|0
0|FS1021354|2013-07-13 21:46:02||||M|||||||||||||KTBLH||||||||||150|CCC SOBR FAM Vara 2013|121|Retail|0
0|FS1021377|2013-07-13 21:48:02||||M|||||||||||||MBRFP||||||||||150|CCC SOBR FAM Vara 2013|121|Retail|0
0|FS1021552|2013-07-13 22:14:17||||M|||||||||||||KTBLH||||||||||150|CCC SOBR FAM Vara 2013|121|Retail|0
0|FS1021573|2013-07-13 22:18:27||||M|||||||||||||PMSSBL||||||||||150|CCC SOBR FAM Vara 2013|121|Retail|0
0|FS1021595|2013-07-13 22:20:55||||M|||||||||||||DUNFCSB||||||||||150|CCC SOBR FAM Vara 2013|121|Retail|0
0|FS1021625|2013-07-13 22:22:20||||M|||||||||||||PARSB||||||||||150|CCC SOBR FAM Vara 2013|121|Retail|0
0|FS1021656|2013-07-13 22:25:44||||M|||||||||||||MBRFPEX||||||||||150|CCC SOBR FAM Vara 2013|121|Retail|0
0|FS1021663|2013-07-13 22:27:02||||M|||||||||||||DUNFCMBB||||||||||150|CCC SOBR FAM Vara 2013|121|Retail|0
0|FS1021749|2013-07-13 22:38:48||||M|||||||||||||KTBLH||||||||||150|CCC SOBR FAM Vara 2013|121|Retail|0
0|FS1021814|2013-07-13 22:46:13||||M|||||||||||||DUNFCMBB||||||||||150|CCC SOBR FAM Vara 2013|121|Retail|0
0|FS1021829|2013-07-13 22:48:11||||F|||||||||||||WIBLH||||||||||150|CCC SOBR FAM Vara 2013|121|Retail|0
0|FS1021866|2013-07-13 22:57:36||||F|||||||||||||SBSSBK||||||||||150|CCC SOBR FAM Vara 2013|121|Retail|0
0|FS1024875|2013-07-14 17:14:11||||M|||||||||||||KTNWH||||||||||150|CCC SOBR FAM Vara 2013|121|Retail|0
0|FS1024890|2013-07-14 17:17:49||||M|||||||||||||KTH||||||||||150|CCC SOBR FAM Vara 2013|121|Retail|0
0|FS1024906|2013-07-14 17:20:34||||M|||||||||||||MBRFPH||||||||||150|CCC SOBR FAM Vara 2013|121|Retail|0
0|FS1024920|2013-07-14 17:22:53||||M|||||||||||||KTSV||||||||||150|CCC SOBR FAM Vara 2013|121|Retail|0
0|FS1024921|2013-07-14 17:22:54||||M|||||||||||||KTSV||||||||||150|CCC SOBR FAM Vara 2013|121|Retail|0
0|FS1024983|2013-07-14 17:34:03||||F|||||||||||||SBSSWH||||||||||150|CCC SOBR FAM Vara 2013|121|Retail|0
0|FS1024988|2013-07-14 17:35:02||||M|||||||||||||PMBL||||||||||150|CCC SOBR FAM Vara 2013|121|Retail|0
0|FS1024994|2013-07-14 17:35:36||||M|||||||||||||DUNFCMBB||||||||||150|CCC SOBR FAM Vara 2013|121|Retail|0
0|FS1025073|2013-07-14 17:50:38||||M|||||||||||||WISSB||||||||||150|CCC SOBR FAM Vara 2013|121|Retail|0
0|FS1025083|2013-07-14 17:53:05||||M|||||||||||||KTWH||||||||||150|CCC SOBR FAM Vara 2013|121|Retail|0
0|FS1025088|2013-07-14 17:53:45||||F|||||||||||||MBRRDRT||||||||||150|CCC SOBR FAM Vara 2013|121|Retail|0
0|FS1025091|2013-07-14 17:54:07|||||||||||||||||MBRGLH||||||||||150|CCC SOBR FAM Vara 2013|121|Retail|0
0|FS1025100|2013-07-14 17:55:09|||||||||||||||||KTBL6||||||||||150|CCC SOBR FAM Vara 2013|121|Retail|0
0|FS1025118|2013-07-14 17:59:01||||M|||||||||||||MBRGLT||||||||||150|CCC SOBR FAM Vara 2013|121|Retail|0
0|FS1025120|2013-07-14 17:59:57||||M|||||||||||||MBRRDRT||||||||||150|CCC SOBR FAM Vara 2013|121|Retail|0
0|FS1025150|2013-07-14 18:11:33||||M|||||||||||||KTBL||||||||||150|CCC SOBR FAM Vara 2013|121|Retail|0
0|FS1025177|2013-07-14 18:16:29||||F|||||||||||||LSRD||||||||||150|CCC SOBR FAM Vara 2013|121|Retail|0
0|FS1025195|2013-07-14 18:19:12||||M|||||||||||||DUNFCMBB||||||||||150|CCC SOBR FAM Vara 2013|121|Retail|0
0|FS1025208|2013-07-14 18:20:32||||M|||||||||||||KTSV||||||||||150|CCC SOBR FAM Vara 2013|121|Retail|0
0|FS1025219|2013-07-14 18:23:00||||M|||||||||||||DUNFCBB||||||||||150|CCC SOBR FAM Vara 2013|121|Retail|0
0|FS1025237|2013-07-14 18:25:27||||F|||||||||||||VOGDV||||||||||150|CCC SOBR FAM Vara 2013|121|Retail|0
0|FS1025244|2013-07-14 18:26:47||||M|||||||||||||DUNFCMBB||||||||||150|CCC SOBR FAM Vara 2013|121|Retail|0
0|FS1025263|2013-07-14 18:29:33||||M|||||||||||||KTBL||||||||||150|CCC SOBR FAM Vara 2013|121|Retail|0
0|FS1025266|2013-07-14 18:29:49||||M|||||||||||||DUNFCMBB||||||||||150|CCC SOBR FAM Vara 2013|121|Retail|0
0|FS1025269|2013-07-14 18:30:40||||F|||||||||||||DUNFCMBB||||||||||150|CCC SOBR FAM Vara 2013|121|Retail|0
0|FS1025315|2013-07-14 18:35:24||||F|||||||||||||PMECBL||||||||||150|CCC SOBR FAM Vara 2013|121|Retail|0
0|FS1025508|2013-07-14 19:08:35||||F|||||||||||||MBRGLH||||||||||150|CCC SOBR FAM Vara 2013|121|Retail|0
0|FS1025557|2013-07-14 19:18:06||||M|||||||||||||MBRGLT||||||||||150|CCC SOBR FAM Vara 2013|121|Retail|0
0|FS1025699|2013-07-14 19:33:30|||||||||||||||||MBRGLT||||||||||150|CCC SOBR FAM Vara 2013|121|Retail|0
0|FS1025708|2013-07-14 19:34:53||||F|||||||||||||PMECBK||||||||||150|CCC SOBR FAM Vara 2013|121|Retail|0
0|FS1025735|2013-07-14 19:40:26||||M|||||||||||||VIRSV||||||||||150|CCC SOBR FAM Vara 2013|121|Retail|0
0|FS1025738|2013-07-14 19:40:54||||F|||||||||||||VIRSV||||||||||150|CCC SOBR FAM Vara 2013|121|Retail|0
0|FS1025748|2013-07-14 19:42:27||||F|||||||||||||KTH||||||||||150|CCC SOBR FAM Vara 2013|121|Retail|0
0|FS1025760|2013-07-14 19:43:31||||M|||||||||||||GLPBMNFT||||||||||150|CCC SOBR FAM Vara 2013|121|Retail|0
0|FS1025768|2013-07-14 19:44:31||||F|||||||||||||VOGLL||||||||||150|CCC SOBR FAM Vara 2013|121|Retail|0
0|FS1025786|2013-07-14 19:47:27||||F|||||||||||||MBRGLT||||||||||150|CCC SOBR FAM Vara 2013|121|Retail|0
0|FS1025818|2013-07-14 19:51:12||||F|||||||||||||PMSSBL||||||||||150|CCC SOBR FAM Vara 2013|121|Retail|0
0|FS1025864|2013-07-14 19:57:05||||M|||||||||||||KTSV||||||||||150|CCC SOBR FAM Vara 2013|121|Retail|0
0|FS1025874|2013-07-14 19:58:17|||||||||||||||||GLMBL||||||||||150|CCC SOBR FAM Vara 2013|121|Retail|0
0|FS1025881|2013-07-14 19:59:23||||F|||||||||||||PMSSGR||||||||||150|CCC SOBR FAM Vara 2013|121|Retail|0
0|FS1025908|2013-07-14 20:05:19||||F|||||||||||||VIRSFA||||||||||150|CCC SOBR FAM Vara 2013|121|Retail|0
0|FS1025920|2013-07-14 20:08:08||||F|||||||||||||WIBL||||||||||150|CCC SOBR FAM Vara 2013|121|Retail|0
0|FS1025926|2013-07-14 20:08:58||||M|||||||||||||KTNBK||||||||||150|CCC SOBR FAM Vara 2013|121|Retail|0
0|FS1025936|2013-07-14 20:10:06||||F|||||||||||||DUNFCMBB||||||||||150|CCC SOBR FAM Vara 2013|121|Retail|0
0|FS1026012|2013-07-14 20:21:28||||M|||||||||||||DAVCL||||||||||150|CCC SOBR FAM Vara 2013|121|Retail|0
0|FS1026109|2013-07-14 20:30:00||||F|||||||||||||PARABH||||||||||150|CCC SOBR FAM Vara 2013|121|Retail|0
0|FS1026108|2013-07-14 20:30:00||||F|||||||||||||PARABH||||||||||150|CCC SOBR FAM Vara 2013|121|Retail|0
0|FS1026170|2013-07-14 20:36:15||||F|||||||||||||WIXSTBL||||||||||150|CCC SOBR FAM Vara 2013|121|Retail|0
0|FS1026188|2013-07-14 20:38:15||||F|||||||||||||KTSV||||||||||150|CCC SOBR FAM Vara 2013|121|Retail|0
0|FS1026203|2013-07-14 20:39:45||||F|||||||||||||VOGLL||||||||||150|CCC SOBR FAM Vara 2013|121|Retail|0
0|FS1026477|2013-07-14 21:19:13||||F|||||||||||||VOGABP||||||||||150|CCC SOBR FAM Vara 2013|121|Retail|0
0|FS1026499|2013-07-14 21:22:03||||M|||||||||||||KTBLH||||||||||150|CCC SOBR FAM Vara 2013|121|Retail|0
0|FS1026575|2013-07-14 21:33:54||||F|||||||||||||KTSWIT||||||||||150|CCC SOBR FAM Vara 2013|121|Retail|0
0|FS1026676|2013-07-14 21:52:21||||F|||||||||||||MBRGLFT||||||||||150|CCC SOBR FAM Vara 2013|121|Retail|0
