0|CS3684527|2013-11-30 23:45:10|SLAVICI|RAMONA||F|1967-04-03|CONSTANTA|CONSTANTA|CASTANILOR|9|1|B|0|8|0723678946||RAMONASLAVICI@YAHOO.COM|SBSSPK|VIRSV|0 Sobranie SS Pink (3mg) Pack|Yes|Yes||CT008817|Bros Events SRL|Constanta|CTEVENTBA10|154|CCC EVENT SOBR FAM Fratelli 2013|121|Horeca|0
0|CS3684531|2013-11-30 23:45:51|DENISOV|ANA MARIA||F|1984-02-02|CONSTANTA|CONSTANTA|THEODOR BURADA|40|||0|0|0726681433||ANUTADENISOV@GMAIL.COM|SBSSWH||0 Sobranie SS White (1mg) Pack|Yes|Yes||CT008817|Bros Events SRL|Constanta|CTEVENTBA08|154|CCC EVENT SOBR FAM Fratelli 2013|121|Horeca|0
0|CS3684534|2013-11-30 23:46:53|DOBRE|ALEX||M|1988-07-15|CONSTANTA|CONSTANTA|BIRUINTEI|104|||0|0|0732834752||OFFICE@CAUTCEAS.RO|DUNFCMBB||0 Sobranie KS Blue (6mg) Pack|Yes|Yes||CT008817|Bros Events SRL|Constanta|CTEVENTBA08|154|CCC EVENT SOBR FAM Fratelli 2013|121|Horeca|0
0|CS3684539|2013-11-30 23:47:20|ROMAN|LOREDANA||F|1982-08-01|CONSTANTA|CONSTANTA|ZEFIRULUI|12|||0|0|0763669357||LOREDANA.ROMAN@YAHO.COM|VIRSV|SBSSWH|0 Sobranie Side Slide Whites (1mg) Pack|Yes|Yes||CT008817|Bros Events SRL|Constanta|CTEVENTBA10|154|CCC EVENT SOBR FAM Fratelli 2013|121|Horeca|0
0|CS3684541|2013-11-30 23:47:51|ENACHE|LUMINITA||F|1986-09-22|CONSTANTA|CONSTANTA|BD TOMIS|309|B|B|1|47|0727209567||LUMY_ENACHE@YAHOO.COM|SBSSBK|SBSSBK|0 Sobranie SS Black (6mg) Pack|Yes|Yes||CT008817|Bros Events SRL|Constanta|CTEVENTBA30|154|CCC EVENT SOBR FAM Fratelli 2013|121|Horeca|0
0|CS3684543|2013-11-30 23:48:04|TASE|OANA CRISTINA||F|1981-03-29|CONSTANTA|CONSTANTA|PUSKIN|4|||0|0|0723449549||TASE_OANA@YAHOO.COM|VIRSM||0 Sobranie SS Menthol (5 mg) Pack|Yes|Yes||CT008817|Bros Events SRL|Constanta|CTEVENTBA08|154|CCC EVENT SOBR FAM Fratelli 2013|121|Horeca|0
0|CS3684545|2013-11-30 23:48:27|COSTEA|ADRIAN||M|1988-07-08|CONSTANTA|CONSTANTA|UNIRII|22|||0|0|0724619621||IZREVICUB@GMAIL.COM|SBSSWH||0 Sobranie SS White (1mg) Pack|Yes|Yes||CT008817|Bros Events SRL|Constanta|CTEVENTBA10|154|CCC EVENT SOBR FAM Fratelli 2013|121|Horeca|0
0|CS3684546|2013-11-30 23:49:08|BUCULEASA|NICOLETA||F|1964-03-04|CONSTANTA|CONSTANTA|STRAJERULUI|98|0|0|0|0|0748112402||PROXIMUS_ANDREMAR@YAHOO.COM|SBSSWH|SBKSSSWH|0 Sobranie SS White (1mg) Pack|Yes|Yes||CT008817|Bros Events SRL|Constanta|CTEVENTBA30|154|CCC EVENT SOBR FAM Fratelli 2013|121|Horeca|0
0|CS3684547|2013-11-30 23:49:09|SECAREA|GEORGIANA||F|1992-06-04|CONSTANTA|CONSTANTA|YOKOHAMA|15|||0|0|0734770125||DORDE.GEORGIANA@YAHOO.COM|SBSSWH||0 Sobranie SS White (1mg) Pack|Yes|Yes||CT008817|Bros Events SRL|Constanta|CTEVENTBA08|154|CCC EVENT SOBR FAM Fratelli 2013|121|Horeca|0
0|CS3684550|2013-11-30 23:49:46|DUMITROF|CRISTIANA||F|1991-04-15|CONSTANTA|CONSTANTA|XXX|XX|||0|0|0724568618||CRISTIANA.DUMITROF@YAHOO.COM|VIRSPR||0 Sobranie SS Black (6mg) Pack|Yes|Yes||CT008817|Bros Events SRL|Constanta|CTEVENTBA10|154|CCC EVENT SOBR FAM Fratelli 2013|121|Horeca|0
0|CS3684554|2013-11-30 23:50:27|FEDOR|ALEXANDRA||F|1989-11-26|BUCURESTI|SECTOR 3|CALARASILOR|12-40|67|B|7|64|0720499188||FEDOR_ELENA@YAHOO.COM|SBSSWH|SBSSWH|0 Sobranie Side Slide Whites (1mg) Pack|Yes|Yes||CT008817|Bros Events SRL|Constanta|CTEVENTBA30|154|CCC EVENT SOBR FAM Fratelli 2013|121|Horeca|0
0|CS3684555|2013-11-30 23:50:33|BORCEA|OANA||F|1986-02-28|CONSTANTA|CONSTANTA|ION RATIU|1|PA6|A|0|1|0727483037||OANABORCEA@HOTMAIL.COM|SBSSWH||0 Sobranie SS White (1mg) Pack|Yes|Yes||CT008817|Bros Events SRL|Constanta|CTEVENTBA08|154|CCC EVENT SOBR FAM Fratelli 2013|121|Horeca|0
0|CS3684577|2013-11-30 23:51:25|MUNTEANU|DRAGOS||M|1991-09-26|CONSTANTA|CONSTANTA|ELIBERARII|9|IV39|C|0|22|0720223622||MUNTEANUDRAGOS11@YAHOO.COM|VIRSPR||0 Sobranie SS Black (6mg) Pack|Yes|Yes||CT008817|Bros Events SRL|Constanta|CTEVENTBA10|154|CCC EVENT SOBR FAM Fratelli 2013|121|Horeca|0
0|CS3684559|2013-11-30 23:51:50|CULCIDA|TASE||M|1986-07-25|TULCEA|TULCEA|BABADAG|5|INEL|A|5|18|0755378593||AINODEKAM1@YAHOO.COM|KTNBK|SBKSSSBK|0 Sobranie Side Slide Blacks (4mg) Pack|Yes|Yes||CT008817|Bros Events SRL|Constanta|CTEVENTBA30|154|CCC EVENT SOBR FAM Fratelli 2013|121|Horeca|0
0|CS3684560|2013-11-30 23:52:58|PRUTEANU|SABINA||F|1989-09-01|CONSTANTA|CERNAVODA|9MAI|5|C5|E|1|71|0728975202||PRUTEANUDELIASABINA@YAHOO.COM|SBSSPK|SBSSPK|0 Sobranie SS Pink (3mg) Pack|Yes|Yes||CT008817|Bros Events SRL|Constanta|CTEVENTBA30|154|CCC EVENT SOBR FAM Fratelli 2013|121|Horeca|0
0|CS3684561|2013-11-30 23:53:02|DRAGHICI|IULIAN CRISTI||M|1986-07-23|CONSTANTA|CONSTANTA|GAROFITEI|21|||0|0|0761820854|||DUNFCBB||0 Sobranie KS Gold  (4mg) Pack|Yes|No||CT008817|Bros Events SRL|Constanta|CTEVENTBA07|154|CCC EVENT SOBR FAM Fratelli 2013|121|Horeca|0
0|CS3684566|2013-11-30 23:54:09|ACOSTANDEI|GOKAN||M|1987-06-22|CONSTANTA|CONSTANTA|AL LAPUSNEANU|97|LV32|B|1|21|0721882446||G0KN01@YAHOO.COM|KTNBK|SBKSSSBK|0 Sobranie Side Slide Blacks (4mg) Pack|Yes|Yes||CT008817|Bros Events SRL|Constanta|CTEVENTBA30|154|CCC EVENT SOBR FAM Fratelli 2013|121|Horeca|0
0|CS3684569|2013-11-30 23:54:18|CRANOIU|MIHAI||M|1982-06-01|CONSTANTA|CONSTANTA|BUCURESTI|33|||0|0|0745336587||CRANOIU.MIHAI@GMAIL.COM|DUNFCMBB||0 Sobranie KS Blue (6mg) Pack|Yes|Yes||CT008817|Bros Events SRL|Constanta|CTEVENTBA07|154|CCC EVENT SOBR FAM Fratelli 2013|121|Horeca|0
0|CS3684574|2013-11-30 23:55:06|JUMARA|ANAMARIA||F|1980-07-10|CONSTANTA|CONSTANTA|AUREL VLAICU|22|AV21|B|3|20|0740017007||JUMARA.ANAMARIA@YAHOO.COM|SBSSPK|SBSSPK|0 Sobranie SS Pink (3mg) Pack|Yes|Yes||CT008817|Bros Events SRL|Constanta|CTEVENTBA30|154|CCC EVENT SOBR FAM Fratelli 2013|121|Horeca|0
0|CS3684575|2013-11-30 23:55:07|POPA|ADRIANA||F|1984-11-28|CONSTANTA|CONSTANTA|DEZROBIRII|15|C1|A||17|0745312442||ADRIANA.POPA@YAHOO.COM|KTBL||0 Sobranie KS Black (8mg) Pack|Yes|Yes||CT008817|Bros Events SRL|Constanta|CTEVENTBA08|154|CCC EVENT SOBR FAM Fratelli 2013|121|Horeca|0
0|CS3684579|2013-11-30 23:57:04|BECHERU|VICTOR||M|1980-11-20|CONSTANTA|CONSTANTA|1DECEMBRIE1918|10|L52A|C|4|4|0730448440||CT77HVH@YAHOO.COM|KTSV|SBKSGD|0 Sobranie KS Gold  (4mg) Pack|Yes|Yes||CT008817|Bros Events SRL|Constanta|CTEVENTBA30|154|CCC EVENT SOBR FAM Fratelli 2013|121|Horeca|0
0|CS3684580|2013-11-30 23:57:15|GHEORGHE|DUMITRU||M|1976-09-25|CONSTANTA|CONSTANTA|XXX|XX|||0|0|0722436763|||KTBL||0 Sobranie KS Black (8mg) Pack|Yes|Yes||CT008817|Bros Events SRL|Constanta|CTEVENTBA07|154|CCC EVENT SOBR FAM Fratelli 2013|121|Horeca|0
0|CS3684581|2013-11-30 23:58:37|POLOGIA|EMILIA||F|1978-12-12|BUCURESTI|SECTOR 6|ESTACATEI|8|||0|0|0726489345||MYLIECATRINEL@YAHOO.COM|SBKSBK||0 Sobranie KS Black (8mg) Pack|Yes|Yes||CT008817|Bros Events SRL|Constanta|CTEVENTBA07|154|CCC EVENT SOBR FAM Fratelli 2013|121|Horeca|0
0|CS3684583|2013-11-30 23:58:42|NICOLA|VALERIU||M|1991-12-13|CONSTANTA|CONSTANTA|MARASESTI|26|0|0|0|0|0736161517||VALERIU.NICOLA89@YAHOO.COM|SBSSPK|SBSSPK|0 Sobranie SS Pink (3mg) Pack|Yes|Yes||CT008817|Bros Events SRL|Constanta|CTEVENTBA30|154|CCC EVENT SOBR FAM Fratelli 2013|121|Horeca|0
0|CS3684586|2013-11-30 23:59:30|STATE|VLAD||M|1990-02-12|CONSTANTA|CONSTANTA|XXX|XXX|||0|0|0762578399||VLAD90@YAHOO.COM|DUNFCBB||0 Sobranie KS Gold  (4mg) Pack|Yes|Yes||CT008817|Bros Events SRL|Constanta|CTEVENTBA07|154|CCC EVENT SOBR FAM Fratelli 2013|121|Horeca|0
0|CS3684589|2013-12-01 00:00:39|TURTOI|ALEXANDRU||M|1989-02-17|CONSTANTA|CONSTANTA|LAPUSNEANU|87|||0|0|0720027813||ALEX.TURTA@YAHOO.COM|SBKSBL||0 Sobranie KS Blue (6mg) Pack|Yes|Yes||CT008817|Bros Events SRL|Constanta|CTEVENTBA10|154|CCC EVENT SOBR FAM Fratelli 2013|121|Horeca|0
0|CS3684590|2013-12-01 00:01:01|CALIMINTE|DRAGOS||M|1988-11-22|CONSTANTA|CONSTANTA|BD MAMAIA|66|LD5B|B|1|33|0723224576||DAN_MORARU@YAHOO.COM|SBSSBK|SBSSBK|0 Sobranie SS Black (6mg) Pack|Yes|Yes||CT008817|Bros Events SRL|Constanta|CTEVENTBA30|154|CCC EVENT SOBR FAM Fratelli 2013|121|Horeca|0
0|CS3684591|2013-12-01 00:01:52|HALASAG|SORIN||M|1986-10-25|CONSTANTA|CONSTANTA|MARTISORULUI|4|FD19|A|0|4|0769953329||S_A_L_A_S_A_N@YAHOO.COM|MBRGL||0 Sobranie KS Blue (6mg) Pack|Yes|Yes||CT008817|Bros Events SRL|Constanta|CTEVENTBA07|154|CCC EVENT SOBR FAM Fratelli 2013|121|Horeca|0
0|CS3684592|2013-12-01 00:02:37|CALAUZ|CRISTI||M|1984-09-13|CONSTANTA|CONSTANTA|1MAI|78|||0|0|0727301780||CRISTI.CALAUZ@YAHOO.COM|SBKSBL||0 Sobranie KS Blue (6mg) Pack|Yes|Yes||CT008817|Bros Events SRL|Constanta|CTEVENTBA10|154|CCC EVENT SOBR FAM Fratelli 2013|121|Horeca|0
0|CS3684593|2013-12-01 00:02:44|ILIE|ALEXANDRA||F|1991-01-12|CONSTANTA|CONSTANTA|UNIRII|108|U1|B|3|29|0757066474||ALEXANDRAILIE5@YAHOO.COM|SBSSPK|SBSSPK|0 Sobranie SS Pink (3mg) Pack|Yes|Yes||CT008817|Bros Events SRL|Constanta|CTEVENTBA30|154|CCC EVENT SOBR FAM Fratelli 2013|121|Horeca|0
0|CS3684594|2013-12-01 00:04:07|MERGEANE|ALEXANDRA||F|1992-02-25|CONSTANTA|CONSTANTA|SOVEJA|53|I4|D|0|33|0732894575||MERGEANE.ALEXANDRA@YAHOO.COM|SBSSMN|SBSSMN|0 Sobranie SS Menthol (5 mg) Pack|Yes|Yes||CT008817|Bros Events SRL|Constanta|CTEVENTBA30|154|CCC EVENT SOBR FAM Fratelli 2013|121|Horeca|0
0|CS3684595|2013-12-01 00:04:29|SILVIU|LUCIAN||M|1987-05-10|CONSTANTA|CONSTANTA|PANSELUTELOR|2|64|B|0|27|0728608931||DJLUCA01@YAHOO.COM|SBKSBL||0 Sobranie KS Blue (6mg) Pack|Yes|Yes||CT008817|Bros Events SRL|Constanta|CTEVENTBA10|154|CCC EVENT SOBR FAM Fratelli 2013|121|Horeca|0
0|CS3684596|2013-12-01 00:04:32|URSULESCU|CRISTIAN||M|1983-05-01|CONSTANTA|CONSTANTA|INDEPENDENTEI|33|||0|0|0725336472||URSULESCU.CRISTIAN@YAHOO.COM|KTNBL||0 Sobranie Side Slide Blacks (4mg) Pack|Yes|Yes||CT008817|Bros Events SRL|Constanta|CTEVENTBA07|154|CCC EVENT SOBR FAM Fratelli 2013|121|Horeca|0
0|CS3684598|2013-12-01 00:04:40|BABU|MIHAI||M|1984-05-26|CONSTANTA|CONSTANTA|ALEEA ZMEUREI|14|U3|B|0|23|0753300035||BABUMIHAI@YAHOO.COM|KTSV|MBRFP|0 Sobranie KS Blue (6mg) Pack|Yes|Yes||CT008817|Bros Events SRL|Constanta|CTEVENTBA08|154|CCC EVENT SOBR FAM Fratelli 2013|121|Horeca|0
0|CS3684600|2013-12-01 00:05:19|CURT MOLA|ELIS||F|1988-03-17|CONSTANTA|CONSTANTA|ALEEA MURELOR|37|LUX1|0|0|0|0732641154||I.DIE4@YAHOO.COM|SBKSGD|SBKSGD|0 Sobranie KS Gold  (4mg) Pack|Yes|Yes||CT008817|Bros Events SRL|Constanta|CTEVENTBA30|154|CCC EVENT SOBR FAM Fratelli 2013|121|Horeca|0
0|CS3684601|2013-12-01 00:06:49|VICOL|ADRIAN||M|1984-04-05|CONSTANTA|CONSTANTA|CRINULUI|2|||0|0|0734481820||VICOLADRIAN784@YAHOO.COM|SBKSBK||0 Sobranie KS Black (8mg) Pack|Yes|Yes||CT008817|Bros Events SRL|Constanta|CTEVENTBA08|154|CCC EVENT SOBR FAM Fratelli 2013|121|Horeca|0
0|CS3684602|2013-12-01 00:07:08|SACHIR|YENER||M|1988-10-29|CONSTANTA|CONSTANTA|TIMISANEI|60|0|0|0|0|0734402343||SAKIR_88@YAHOO.COM|SBKSBL|KTBL|0 Sobranie KS Black (8mg) Pack|Yes|Yes||CT008817|Bros Events SRL|Constanta|CTEVENTBA10|154|CCC EVENT SOBR FAM Fratelli 2013|121|Horeca|0
0|CS3684605|2013-12-01 00:10:37|ARPASANU|RAZVAN||M|1985-10-13|CONSTANTA|CONSTANTA|BRATIANU|86|||0|0|0723322235||M.REIZVAN@YAHOO.COM|SBKSSSBK||0 Sobranie Side Slide Blacks (4mg) Pack|Yes|Yes||CT008817|Bros Events SRL|Constanta|CTEVENTBA10|154|CCC EVENT SOBR FAM Fratelli 2013|121|Horeca|0
0|CS3684610|2013-12-01 00:12:35|DANU|IRINA||F|1990-11-25|CONSTANTA|CONSTANTA|FRUNZELOR|76|||0|0|0722676633||D.IRINA90@YAHOO.COM|SBKSBL||0 Sobranie KS Blue (6mg) Pack|Yes|Yes||CT008817|Bros Events SRL|Constanta|CTEVENTBA10|154|CCC EVENT SOBR FAM Fratelli 2013|121|Horeca|0
0|CS3684613|2013-12-01 00:13:25|SPETCU|ANASTASIA||F|1990-04-06|CONSTANTA|CONSTANTA|TISEI|24|||0|0|0720496941||ANASTASIA.SPETCU@YAHOO.COM|SBSSBK||0 Sobranie SS Black (6mg) Pack|Yes|Yes||CT008817|Bros Events SRL|Constanta|CTEVENTBA10|154|CCC EVENT SOBR FAM Fratelli 2013|121|Horeca|0
0|CS3684614|2013-12-01 00:14:09|VLAD|ANDRA||F|1989-07-14|CONSTANTA|CONSTANTA|MANGALIEI|72|||0|0|0721966226||ANDRA_VLAD89@YAHOO.COM|SBSSBK||0 Sobranie SS Black (6mg) Pack|Yes|Yes||CT008817|Bros Events SRL|Constanta|CTEVENTBA10|154|CCC EVENT SOBR FAM Fratelli 2013|121|Horeca|0
0|CS3684618|2013-12-01 00:14:30|COJOCARU|LAVINIA||F|1993-09-29|CONSTANTA|CONSTANTA|ALEEA SUTGHIOLULULUI|8|||||0754578146||COJOCARULAVINIAA@GMAIL.COM|DUNFCBB||0 Sobranie KS Gold  (4mg) Pack|Yes|Yes||CT008817|Bros Events SRL|Constanta|CTEVENTBA08|154|CCC EVENT SOBR FAM Fratelli 2013|121|Horeca|0
0|CS3684620|2013-12-01 00:15:03|PRUTEANU|SABINA||F|1989-09-01|CONSTANTA|CERNAVODA|9MAI|5|C5|E|1|71|0728975202||PRUTEANUDELIASABINA@YAHOO.COM|DAVGLS|SBSSBK|0 Sobranie SS Black (6mg) Pack|Yes|Yes||CT008817|Bros Events SRL|Constanta|CTEVENTBA10|154|CCC EVENT SOBR FAM Fratelli 2013|121|Horeca|0
0|CS3684624|2013-12-01 00:16:42|LAZAR|MARIA||F|1983-12-05|CONSTANTA|CONSTANTA|I G DUCA|23|||||0734223665||MARIA_LAZAR@YAHOO.COM|VOGLL|SBKSSSBK|0 Sobranie Side Slide Blacks (4mg) Pack|Yes|Yes||CT008817|Bros Events SRL|Constanta|CTEVENTBA10|154|CCC EVENT SOBR FAM Fratelli 2013|121|Horeca|0
0|CS3684626|2013-12-01 00:17:14|KAFALI|SORINA||F|1979-10-03|CONSTANTA|CONSTANTA|PESCARILOR|104|||||0723267011||SORINAAB@YAHOO.COM|DAVSVSS||0 Sobranie SS Pink (3mg) Pack|Yes|Yes||CT008817|Bros Events SRL|Constanta|CTEVENTBA08|154|CCC EVENT SOBR FAM Fratelli 2013|121|Horeca|0
0|CS3684627|2013-12-01 00:17:37|MESCA|ADRIAN||M|1981-01-01|CONSTANTA|CONSTANTA|TULCEI|10|||0|0|0731022385|||SBKSBL||0 Sobranie KS Blue (6mg) Pack|Yes|Yes||CT008817|Bros Events SRL|Constanta|CTEVENTBA10|154|CCC EVENT SOBR FAM Fratelli 2013|121|Horeca|0
0|CS3684629|2013-12-01 00:18:29|BOLAT|ROMA||M|1983-10-06|CONSTANTA|CONSTANTA|REPUBLICII|84|||0|0|0760750254||BOLAT.ROMY@YAHOO.COM|SBKSSSBK||0 Sobranie Side Slide Blacks (4mg) Pack|Yes|Yes||CT008817|Bros Events SRL|Constanta|CTEVENTBA10|154|CCC EVENT SOBR FAM Fratelli 2013|121|Horeca|0
0|CS3684630|2013-12-01 00:19:30|RESIT|ENDIS||M|1983-09-16|CONSTANTA|CONSTANTA|TINERETULUI|24|||0|0|0756232499||RESIT_ENDIS@YAHOO.COM|VIRSV||0 Sobranie Side Slide Blacks (4mg) Pack|Yes|Yes||CT008817|Bros Events SRL|Constanta|CTEVENTBA10|154|CCC EVENT SOBR FAM Fratelli 2013|121|Horeca|0
0|CS3684632|2013-12-01 00:20:12|LOPEZ|ANDREEA||F|1978-12-11|CONSTANTA|CONSTANTA|CURCUBEULUI|16|FC|B|4|35|0728572039||ANDREEA_LOPEZLOAIZA@YAHOO.COM|SBSSMN||0 Sobranie SS Menthol (5 mg) Pack|Yes|Yes||CT008817|Bros Events SRL|Constanta|CTEVENTBA07|154|CCC EVENT SOBR FAM Fratelli 2013|121|Horeca|0
0|CS3684633|2013-12-01 00:20:13|CUCONA|CLAUDIA||F|1981-05-28|CONSTANTA|CONSTANTA|CRINULUI|13|||0|0|0755740800||CLAUDIA.CUCONA@YAHOO.COM|SBSSPK||0 Sobranie SS Pink (3mg) Pack|Yes|Yes||CT008817|Bros Events SRL|Constanta|CTEVENTBA10|154|CCC EVENT SOBR FAM Fratelli 2013|121|Horeca|0
0|CS3684635|2013-12-01 00:23:53|CONSTANTINESCU|SMARANDA||F|1994-05-23|CONSTANTA|CONSTANTA|MIHAI EMINESCU|13|||0|0|0741332251||C_SMARA@YAHOO.COM|SBSSWH||0 Sobranie SS White (1mg) Pack|Yes|Yes||CT008817|Bros Events SRL|Constanta|CTEVENTBA08|154|CCC EVENT SOBR FAM Fratelli 2013|121|Horeca|0
0|CS3684636|2013-12-01 00:24:17|MARGULESCU|CONSTANTIN||M|1967-12-26|CONSTANTA|CONSTANTA|CONSTANTIN BRANCUSI|51|6|A|3|7|0728567820||CMARGULESCU@YAHOO.COM|KTBL|SBKSBK|0 Sobranie KS Black (8mg) Pack|Yes|Yes||CT008817|Bros Events SRL|Constanta|CTEVENTBA30|154|CCC EVENT SOBR FAM Fratelli 2013|121|Horeca|0
0|CS3684640|2013-12-01 00:25:56|POTIRNICHE|VALENTIN||M|1988-08-09|CONSTANTA|CONSTANTA|AL LAPUSNEANU|73|LV3|B|0|20|0727459046||VALYTOXYC@YAHOO.COM|KTBL6||0 Sobranie KS Blue (6mg) Pack|Yes|Yes||CT008817|Bros Events SRL|Constanta|CTEVENTBA08|154|CCC EVENT SOBR FAM Fratelli 2013|121|Horeca|0
0|CS3684643|2013-12-01 00:26:48|GACHI|MISA||M|1975-07-16|CONSTANTA|CONSTANTA|STEAGULUI|67|||0|0|0741210005|||SBKSBK||0 Sobranie KS Black (8mg) Pack|Yes|Yes||CT008817|Bros Events SRL|Constanta|CTEVENTBA08|154|CCC EVENT SOBR FAM Fratelli 2013|121|Horeca|0
0|CS3684646|2013-12-01 00:27:31|GACHE|ANDREI||M|1986-01-01|CONSTANTA|CONSTANTA|ELIBERARII|18|||||0724565784|||SBKSBL||0 Sobranie KS Blue (6mg) Pack|Yes|Yes||CT008817|Bros Events SRL|Constanta|CTEVENTBA10|154|CCC EVENT SOBR FAM Fratelli 2013|121|Horeca|0
0|CS3684647|2013-12-01 00:27:35|ROSU|LAVINIA||F|1987-04-25|CONSTANTA|CONSTANTA|CASIN|2|G5A|C|0|48|0721695779||ROSU_LAVINIA87@YAHOO.COM|SBSSPK||0 Sobranie SS Pink (3mg) Pack|Yes|Yes||CT008817|Bros Events SRL|Constanta|CTEVENTBA08|154|CCC EVENT SOBR FAM Fratelli 2013|121|Horeca|0
0|CS3684649|2013-12-01 00:27:43|GHINEA|ANDREI||M|1975-01-28|CONSTANTA|CONSTANTA|NARCISELOR|1|A3|A|3|15|0723430227||MAILTOANDYG@GMAIL.COM|DUNFCMBB|SBKSBK|0 Sobranie KS Black (8mg) Pack|Yes|Yes||CT008817|Bros Events SRL|Constanta|CTEVENTBA30|154|CCC EVENT SOBR FAM Fratelli 2013|121|Horeca|0
0|CS3684653|2013-12-01 00:28:27|FLOREA|ROXANA||F|1984-01-20|CONSTANTA|CONSTANTA|TOMIS|154|||0|0|0737369838||ANDREEAROXANAFLOREA@YAHOO.COM|KTBL||0 Sobranie KS Black (8mg) Pack|Yes|Yes||CT008817|Bros Events SRL|Constanta|CTEVENTBA08|154|CCC EVENT SOBR FAM Fratelli 2013|121|Horeca|0
0|CS3684656|2013-12-01 00:29:29|ILIE|MARIAN||M|1981-01-17|CONSTANTA|CONSTANTA|MARTISORULUI|8|FD26|B|0|13|0724857788||MARIOSORLA@YAHOO.COM|DUNFCMBB||0 Sobranie KS Blue (6mg) Pack|Yes|Yes||CT008817|Bros Events SRL|Constanta|CTEVENTBA08|154|CCC EVENT SOBR FAM Fratelli 2013|121|Horeca|0
0|CS3684661|2013-12-01 00:31:39|ENE|MARICELA||F|1965-10-04|CONSTANTA|CONSTANTA|BD 1MAI|39|S4|A|3|8|0722262430|||KTBL|SBKSBL|0 Sobranie KS Blue (6mg) Pack|Yes|Yes||CT008817|Bros Events SRL|Constanta|CTEVENTBA30|154|CCC EVENT SOBR FAM Fratelli 2013|121|Horeca|0
0|CS3684664|2013-12-01 00:32:20|PAUN|ANCA||F|1992-10-27|CONSTANTA|CONSTANTA|LILIACULUI|14|||||0734144060||ANCA.PAUN1992@YAHOO.COM|SBKSSSWH||0 Sobranie Side Slide Whites (1mg) Pack|Yes|Yes||CT008817|Bros Events SRL|Constanta|CTEVENTBA10|154|CCC EVENT SOBR FAM Fratelli 2013|121|Horeca|0
0|CS3684665|2013-12-01 00:32:32|STIUCA|ADRIAN||M|1982-01-17|CONSTANTA|CONSTANTA|MIRCEA|118|LD2|A|0|7|0727892088||ADRIANSTIUCA@GMAIL.COM|SBKSGD||0 Sobranie KS Gold  (4mg) Pack|Yes|Yes||CT008817|Bros Events SRL|Constanta|CTEVENTBA08|154|CCC EVENT SOBR FAM Fratelli 2013|121|Horeca|0
0|CS3684670|2013-12-01 00:34:07|DAN GEAFAR|ENIS||M|1985-06-08|CONSTANTA|TECHIRGHIOL|ECATERINA TEODOROIU|5|||||0724556967||DANGEAFAR.ENIS@YAHOO.COM|MBRGL||0 Sobranie KS Gold  (4mg) Pack|Yes|Yes||CT008817|Bros Events SRL|Constanta|CTEVENTBA07|154|CCC EVENT SOBR FAM Fratelli 2013|121|Horeca|0
0|CS3684672|2013-12-01 00:34:17|ANDRONACHE|MADALINA||F|1988-11-27|CONSTANTA|CONSTANTA|FAGETULUI|17|||||0765455343||MADALINA.ANDRONACHE@YAHOO.COM|KTNWH||0 Sobranie Side Slide Whites (1mg) Pack|Yes|Yes||CT008817|Bros Events SRL|Constanta|CTEVENTBA08|154|CCC EVENT SOBR FAM Fratelli 2013|121|Horeca|0
0|CS3684683|2013-12-01 00:35:49|SUSCHINA|ALEXANDRA||F|1987-10-20|CONSTANTA|CONSTANTA|I.C BRATIANU|100|SR2||0|31|0728045654||ADA_87_ASC@YAHOO.COM|KTNBK|SBKSSSBK|0 Sobranie Side Slide Blacks (4mg) Pack|Yes|Yes||CT008817|Bros Events SRL|Constanta|CTEVENTBA08|154|CCC EVENT SOBR FAM Fratelli 2013|121|Horeca|0
0|CS3684688|2013-12-01 00:36:51|PINTILII|MARIAN||M|1984-12-04|CONSTANTA|CONSTANTA|BRIZEI|15|FA1|A|0|3|0731855400||PINTILIIM@GMAIL.COM|SBKSBL|SBKSBL|0 Sobranie KS Blue (6mg) Pack|Yes|Yes||CT008817|Bros Events SRL|Constanta|CTEVENTBA30|154|CCC EVENT SOBR FAM Fratelli 2013|121|Horeca|0
0|CS3684690|2013-12-01 00:37:16|CORLEANCA|CORINA||F|1984-03-10|CONSTANTA|CONSTANTA|TOMIS|283|T10|B|0|85|0730587661||ADDINNA220@YAHOO.COM|KTNBK||0 Sobranie Side Slide Blacks (4mg) Pack|Yes|Yes||CT008817|Bros Events SRL|Constanta|CTEVENTBA08|154|CCC EVENT SOBR FAM Fratelli 2013|121|Horeca|0
0|CS3684691|2013-12-01 00:37:29|TRIFAN|DENIZ||F|1977-05-01|CONSTANTA|CONSTANTA|AUREL VLAICU|9|||||0722572489||TRIFANDENIZ@YAHOO.COM|VOGDV||0 Sobranie SS Menthol (5 mg) Pack|Yes|Yes||CT008817|Bros Events SRL|Constanta|CTEVENTBA07|154|CCC EVENT SOBR FAM Fratelli 2013|121|Horeca|0
0|CS3684699|2013-12-01 00:39:09|SASU|SUZANA||F|1981-10-01|CONSTANTA|CONSTANTA|GRIVITEI|62|||0|0|0723624684||SUZANASASU@YAHOO.COM|SBSSWH||0 Sobranie SS White (1mg) Pack|Yes|Yes||CT008817|Bros Events SRL|Constanta|CTEVENTBA08|154|CCC EVENT SOBR FAM Fratelli 2013|121|Horeca|0
0|CS3684712|2013-12-01 00:42:07|PALASCA|CRISTINA||F|1990-10-27|CONSTANTA|CONSTANTA|ALEEA GAROFITEI|5|L78|D|0|73|0727289972||PALASCA.CRISTINA@YAHOO.RO|VIRSM||0 Sobranie SS Menthol (5 mg) Pack|Yes|Yes||CT008817|Bros Events SRL|Constanta|CTEVENTBA08|154|CCC EVENT SOBR FAM Fratelli 2013|121|Horeca|0
0|CS3684714|2013-12-01 00:42:33|TEODORESCU|DANA||F|1991-09-18|CONSTANTA|CONSTANTA|MIRCEA CEL BATRAN|104|||||0784013500||TEO_DANA_91@YAHOO.COM|MBRGL||0 Sobranie KS Blue (6mg) Pack|Yes|Yes||CT008817|Bros Events SRL|Constanta|CTEVENTBA07|154|CCC EVENT SOBR FAM Fratelli 2013|121|Horeca|0
0|CS3684717|2013-12-01 00:42:54|COSTEA|ADRIAN||M|1988-07-08|CONSTANTA|CONSTANTA|UNIRII|22|||0|0|0724619621||IZREVICUB@GMAIL.COM|MBRFP||0 Sobranie KS Blue (6mg) Pack|Yes|Yes||CT008817|Bros Events SRL|Constanta|CTEVENTBA10|154|CCC EVENT SOBR FAM Fratelli 2013|121|Horeca|0
0|CS3684718|2013-12-01 00:42:56|MANAC|MIOARA||F|1974-06-04|CONSTANTA|CONSTANTA|ALEXANDRU STAHIA|34|0|0|0|0|0734667909||MIOARA_JE@YAHOO.COM|VOGLL|SBSSPK|0 Sobranie SS Pink (3mg) Pack|Yes|Yes||CT008817|Bros Events SRL|Constanta|CTEVENTBA30|154|CCC EVENT SOBR FAM Fratelli 2013|121|Horeca|0
0|CS3684724|2013-12-01 00:44:24|STAMBULI|CAMELIA||F|1990-04-29|CONSTANTA|CONSTANTA|AUSTRULUI|4|FB4|A|0|10|0729174147||CAMELIA.STAMBULI@YAHOO.COM|VIRSM||0 Sobranie SS Menthol (5 mg) Pack|Yes|Yes||CT008817|Bros Events SRL|Constanta|CTEVENTBA08|154|CCC EVENT SOBR FAM Fratelli 2013|121|Horeca|0
0|CS3684725|2013-12-01 00:44:34|ANGHEL|IOANA||F|1984-10-31|CONSTANTA|CONSTANTA|PACII|78|||||0765442556||IOANA.ANGHEL@YAHOO.COM|KTNWH||0 Sobranie Side Slide Whites (1mg) Pack|Yes|Yes||CT008817|Bros Events SRL|Constanta|CTEVENTBA10|154|CCC EVENT SOBR FAM Fratelli 2013|121|Horeca|0
0|CS3684730|2013-12-01 00:45:10|FRATZ|CARMEN||F|1987-06-12|CONSTANTA|CONSTANTA|TITUS CERGAU|9|||||0749353591|||SBSSBK||0 Sobranie SS Black (6mg) Pack|Yes|Yes||CT008817|Bros Events SRL|Constanta|CTEVENTBA07|154|CCC EVENT SOBR FAM Fratelli 2013|121|Horeca|0
0|CS3684732|2013-12-01 00:46:06|MITU|ANCA||F|1984-10-22|CONSTANTA|CONSTANTA|LAPUSNEANU|5|LN2|B||97|0745332566||ANCA.MITU@YAHOO.COM|DAVGLS||0 Sobranie SS Black (6mg) Pack|Yes|Yes||CT008817|Bros Events SRL|Constanta|CTEVENTBA10|154|CCC EVENT SOBR FAM Fratelli 2013|121|Horeca|0
0|CS3684739|2013-12-01 00:47:46|ONOFREI|MARIANA||F|1984-10-19|CONSTANTA|CONSTANTA|FRUNZELOR|34|||||0786443255||MARY.ONOFREI@YAHOO.COM|KTSV|SBKSGD|0 Sobranie KS Gold  (4mg) Pack|Yes|Yes||CT008817|Bros Events SRL|Constanta|CTEVENTBA10|154|CCC EVENT SOBR FAM Fratelli 2013|121|Horeca|0
0|CS3684748|2013-12-01 00:49:33|POPOVICI|MARIUS||M|1984-10-13|CONSTANTA|CONSTANTA|BIRUINTEI|78|||||0723443556||MARIUS_POPOVICI@YAHOO.COM|DUNFCBB||0 Sobranie KS Gold  (4mg) Pack|Yes|Yes||CT008817|Bros Events SRL|Constanta|CTEVENTBA10|154|CCC EVENT SOBR FAM Fratelli 2013|121|Horeca|0
0|CS3684755|2013-12-01 00:51:23|STAVROSITU|IANCU||M|1985-05-18|CONSTANTA|CONSTANTA|DOCHERILOR|11|0|0|0|0|0724386813||STAVROSITU.IANCU@YAHOO.COM|MBRGLT|SBKSBL|0 Sobranie KS Blue (6mg) Pack|Yes|Yes||CT008817|Bros Events SRL|Constanta|CTEVENTBA30|154|CCC EVENT SOBR FAM Fratelli 2013|121|Horeca|0
0|CS3684759|2013-12-01 00:53:13|MATEESCU|VLAD||M|1982-05-15|BUCURESTI|SECTOR 3|XXX|XX|||0|0|0742208909|||KTBL||0 Sobranie KS Black (8mg) Pack|Yes|Yes||CT008817|Bros Events SRL|Constanta|CTEVENTBA07|154|CCC EVENT SOBR FAM Fratelli 2013|121|Horeca|0
0|CS3684761|2013-12-01 00:53:19|BOTEZ|ANDREI||M|1963-03-04|CONSTANTA|CONSTANTA|FRUBZELOR|3|||||0762063711|||MBRGLT||0 Sobranie KS Blue (6mg) Pack|Yes|Yes||CT008817|Bros Events SRL|Constanta|CTEVENTBA10|154|CCC EVENT SOBR FAM Fratelli 2013|121|Horeca|0
0|CS3684763|2013-12-01 00:54:00|TOADER|MADALINA||F|1990-07-30|CONSTANTA|CONSTANTA|BD AUREL VLAICU|265|M2||2|14|0740826414||MADA.TOADER30@YAHOO.COM|SBSSWH|SBSSWH|0 Sobranie SS White (1mg) Pack|Yes|Yes||CT008817|Bros Events SRL|Constanta|CTEVENTBA30|154|CCC EVENT SOBR FAM Fratelli 2013|121|Horeca|0
0|CS3684768|2013-12-01 00:54:51|IVANOV|CRISTINA||F|1987-02-22|CONSTANTA|CONSTANTA|SALCIILOR|17|7A|A|0|2|0748137246||IVANOV@RKI.RO|MBRFP||0 Sobranie KS Blue (6mg) Pack|Yes|Yes||CT008817|Bros Events SRL|Constanta|CTEVENTBA07|154|CCC EVENT SOBR FAM Fratelli 2013|121|Horeca|0
0|CS3684775|2013-12-01 00:56:41|ENICA|ELIZA||F|1979-08-30|CONSTANTA|CONSTANTA|SOVEJA|86|FT7||3|37|0731697515||ELIZA.ENICA@YAHOO.COM|VIRSV||0 Sobranie SS Black (6mg) Pack|Yes|Yes||CT008817|Bros Events SRL|Constanta|CTEVENTBA07|154|CCC EVENT SOBR FAM Fratelli 2013|121|Horeca|0
0|CS3684776|2013-12-01 00:57:04|GOGA|AURA||F|1991-05-21|CONSTANTA|CONSTANTA|MIRCEA CEL BATRAN|181|MS3B|A|1|8|0746134852||GOGA_AURA_91@YAHOO.COM|SBSSMN|SBSSMN|0 Sobranie SS Menthol (5 mg) Pack|Yes|Yes||CT008817|Bros Events SRL|Constanta|CTEVENTBA30|154|CCC EVENT SOBR FAM Fratelli 2013|121|Horeca|0
0|CS3684779|2013-12-01 00:57:56|TOPOR|DORU||M|1973-11-02|CONSTANTA|CONSTANTA|TOMIS|226|TD10|A|1|7|0760674945||TOPORDORU@YAHOO.COM|SBSSPK||0 Sobranie SS Pink (3mg) Pack|Yes|Yes||CT008817|Bros Events SRL|Constanta|CTEVENTBA07|154|CCC EVENT SOBR FAM Fratelli 2013|121|Horeca|0
0|CS3684789|2013-12-01 00:59:55|TOTOLOS|ROMULUS||M|1974-09-23|CONSTANTA|CONSTANTA|AL LAPUSNEANU|76|LE20|B|4|11|0732728408||TITOLOS_ROMULUS@YAHOO.COM|KTNWH||0 Sobranie Side Slide Whites (1mg) Pack|Yes|Yes||CT008817|Bros Events SRL|Constanta|CTEVENTBA07|154|CCC EVENT SOBR FAM Fratelli 2013|121|Horeca|0
0|CS3684796|2013-12-01 01:01:46|MUIA|ALEXANDRU||M|1987-11-10|CONSTANTA|OVIDIU|POPORULUI|23|0|0|0|0|0763231204||ASSISTENT_LOLEK@YAHOO.COM|KTWH||0 Sobranie SS White (1mg) Pack|Yes|Yes||CT008817|Bros Events SRL|Constanta|CTEVENTBA07|154|CCC EVENT SOBR FAM Fratelli 2013|121|Horeca|0
0|CS3684803|2013-12-01 01:02:57|GALCA|CARMEN||F|1980-11-19|CONSTANTA|CONSTANTA|SOVEJA|49|I3|C|0|21|0728488988||CAMITZA80@YAHOO.COM|SBSSWH||0 Sobranie SS White (1mg) Pack|Yes|Yes||CT008817|Bros Events SRL|Constanta|CTEVENTBA07|154|CCC EVENT SOBR FAM Fratelli 2013|121|Horeca|0
0|CS3684806|2013-12-01 01:04:05|NOVAC|GEORGE||M|1988-08-02|CONSTANTA|CONSTANTA|BABA NOVAC|2|BN9|||44|0766287177|||DUNFCBB||0 Sobranie KS Gold  (4mg) Pack|Yes|Yes||CT008817|Bros Events SRL|Constanta|CTEVENTBA10|154|CCC EVENT SOBR FAM Fratelli 2013|121|Horeca|0
0|CS3684810|2013-12-01 01:04:48|UDRESCU|ALEXANDRU||M|1989-06-09|CONSTANTA|CONSTANTA|AL LAPUSNEANU|27|32|C|3|33|0740034562||UDRESCU_ALEX@YAHOO.COM|DUNFCMBB||0 Sobranie KS Blue (6mg) Pack|Yes|Yes||CT008817|Bros Events SRL|Constanta|CTEVENTBA07|154|CCC EVENT SOBR FAM Fratelli 2013|121|Horeca|0
0|CS3684817|2013-12-01 01:06:39|CATRINOIU|DELIA||F|1988-05-26|CONSTANTA|CONSTANTA|ION RATIU|1B|||0|0|0732145112||DELIA_K2004@YAHOO.COM|SBKSSSBK||0 Sobranie Side Slide Blacks (4mg) Pack|Yes|Yes||CT008817|Bros Events SRL|Constanta|CTEVENTBA07|154|CCC EVENT SOBR FAM Fratelli 2013|121|Horeca|0
0|CS3684819|2013-12-01 01:06:55|MIRON|SORIN||M|1986-04-21|CONSTANTA|CONSTANTA|TEIULUI|3|0|0|0|0|0743225765||MMIRONSORIN@GMAIL.COM|MBRFP|SBKSGD|0 Sobranie KS Gold  (4mg) Pack|Yes|Yes||CT008817|Bros Events SRL|Constanta|CTEVENTBA30|154|CCC EVENT SOBR FAM Fratelli 2013|121|Horeca|0
0|CS3684825|2013-12-01 01:08:58|MACOVEI|GABRIELA||F|1984-11-10|CONSTANTA|CONSTANTA|ARCULUI|12|||0|0|0733354288||GABRIELLE_RMG@YAHOO.COM|SBKSBL||0 Sobranie KS Blue (6mg) Pack|Yes|Yes||CT008817|Bros Events SRL|Constanta|CTEVENTBA08|154|CCC EVENT SOBR FAM Fratelli 2013|121|Horeca|0
0|CS3684830|2013-12-01 01:10:06|CALOTA|CRISTIAN|1901225134217|M|1990-12-25|CONSTANTA|CONSTANTA|NICOLAE TITULESCU|26|0|0|0|0|0720740445|||KTBL|SBKSBK|0 Sobranie KS Black (8mg) Pack|Yes|Yes||CT008817|Bros Events SRL|Constanta|CTEVENTBA30|154|CCC EVENT SOBR FAM Fratelli 2013|121|Horeca|0
0|CS3684840|2013-12-01 01:12:35|PADUREANU|GEORGIANA||F|1988-04-28|CONSTANTA|CONSTANTA|PIETRELOR|22|||||0734214665||PADUREANU.GEORGIANA@YAHOO.COM|DAVGLS||0 Sobranie SS Black (6mg) Pack|Yes|Yes||CT008817|Bros Events SRL|Constanta|CTEVENTBA08|154|CCC EVENT SOBR FAM Fratelli 2013|121|Horeca|0
0|CS3684849|2013-12-01 01:14:41|GRUIA|MIHAI||M|1988-11-28|CONSTANTA|CONSTANTA|UNIRII|56|||||0734277658||MIHAI.GRUIA@YAHOO.COM|DAVGL||0 Sobranie KS Blue (6mg) Pack|Yes|Yes||CT008817|Bros Events SRL|Constanta|CTEVENTBA08|154|CCC EVENT SOBR FAM Fratelli 2013|121|Horeca|0
0|CS3684853|2013-12-01 01:15:20|GROSU|STELIAN||M|1989-07-23|CONSTANTA|CONSTANTA|TOMIS|232|||||0735284448||GROSU.STELIAN@YAHOO.COM|SBKSSSBK||0 Sobranie Side Slide Blacks (4mg) Pack|Yes|Yes||CT008817|Bros Events SRL|Constanta|CTEVENTBA07|154|CCC EVENT SOBR FAM Fratelli 2013|121|Horeca|0
0|CS3684859|2013-12-01 01:16:53|ABDULA|NARGHIUL||F|1987-01-14|CONSTANTA|MURFATLAR|CREDINTEI|3|||0|0|0728405851||NAR_GHIUL@YAHOO.COM|VIRSM||0 Sobranie SS Menthol (5 mg) Pack|Yes|Yes||CT008817|Bros Events SRL|Constanta|CTEVENTBA08|154|CCC EVENT SOBR FAM Fratelli 2013|121|Horeca|0
0|CS3684874|2013-12-01 01:20:07|PANAIT|GABRIEL||M|1991-04-13|CONSTANTA|CONSTANTA|ALEEA VIOLETELOR|31|R6|3|2|3|0757033684||RALUCARALU79@YAHOO.COM|SBSSWH|SBSSWH|0 Sobranie SS White (1mg) Pack|Yes|Yes||CT008817|Bros Events SRL|Constanta|CTEVENTBA30|154|CCC EVENT SOBR FAM Fratelli 2013|121|Horeca|0
0|CS3684888|2013-12-01 01:24:49|ANGHELESCU|MONICA||F|1984-09-04|CONSTANTA|CONSTANTA|TOMIS|12|T4|A||45|0734554667||MONICA.ANGHELESCU@YAHOO.COM|SBSSWH||0 Sobranie SS White (1mg) Pack|Yes|Yes||CT008817|Bros Events SRL|Constanta|CTEVENTBA10|154|CCC EVENT SOBR FAM Fratelli 2013|121|Horeca|0
0|CS3684897|2013-12-01 01:28:14|BRISC|CRISTIAN||M|1973-07-16|CONSTANTA|CONSTANTA|SOS MANGALIEI|57|SM1|B|0|47|0723539055||BRISC.CRISTIAN@YAHOO.COM|SBKSGD|SBKSGD|0 Sobranie KS Gold  (4mg) Pack|Yes|Yes||CT008817|Bros Events SRL|Constanta|CTEVENTBA30|154|CCC EVENT SOBR FAM Fratelli 2013|121|Horeca|0
0|CS3684898|2013-12-01 01:28:40|DOMNARU|LAURA||M|1989-01-14|CONSTANTA|CONSTANTA|DEZROBIRII|118||||||0760459134|LAURA.DOMNARU@GMAIL.COM|VOGJSN||0 Sobranie SS Menthol (5 mg) Pack|Yes|Yes||CT008817|Bros Events SRL|Constanta|CTEVENTBA07|154|CCC EVENT SOBR FAM Fratelli 2013|121|Horeca|0
0|CS3684902|2013-12-01 01:29:49|MARTINESCU|GABRIEL||M|1977-06-03|CONSTANTA|CONSTANTA|BD 1 MAI|3|H10|C|3|86|0720300303|||SBKSGD|SBKSGD|0 Sobranie KS Gold  (4mg) Pack|Yes|Yes||CT008817|Bros Events SRL|Constanta|CTEVENTBA30|154|CCC EVENT SOBR FAM Fratelli 2013|121|Horeca|0
0|CS3684919|2013-12-01 01:30:18|NISTOR|MARIA||F|1984-10-25|CONSTANTA|CONSTANTA|MIHAI JORA|2|BN5|A||56|0723787767||MARIA.NISTOR@YAHOO.COM|VOGLL||0 Sobranie SS Pink (3mg) Pack|Yes|Yes||CT008817|Bros Events SRL|Constanta|CTEVENTBA10|154|CCC EVENT SOBR FAM Fratelli 2013|121|Horeca|0
0|CS3684907|2013-12-01 01:31:15|CARASTERE|STELIAN||M|1985-01-25|CONSTANTA|CONSTANTA|MILANO|54|A4|A|2|13|0737750188||RALLUUHONEY@YAHOO.COM|SBKSGD|SBKSGD|0 Sobranie KS Gold  (4mg) Pack|Yes|Yes||CT008817|Bros Events SRL|Constanta|CTEVENTBA30|154|CCC EVENT SOBR FAM Fratelli 2013|121|Horeca|0
0|CS3684911|2013-12-01 01:32:54|ISACHE|SONIA||F|1990-03-16|CONSTANTA|CONSTANTA|M. EMINESCU|56|M34|C|8|55|0733822225||ISCAHE.GIRL@YAHOO.COM|DUNFCMBB||0 Sobranie KS Blue (6mg) Pack|Yes|Yes||CT008817|Bros Events SRL|Constanta|CTEVENTBA07|154|CCC EVENT SOBR FAM Fratelli 2013|121|Horeca|0
0|CS3684913|2013-12-01 01:33:52|FEDOR|ALEXANDRA||F|1989-11-26|BUCURESTI|SECTOR 3|CALARASILOR|12-40|67|B|7|64|0720499188||FEDOR_ELENA@YAHOO.COM|KTNWH||0 Sobranie Side Slide Whites (1mg) Pack|Yes|Yes||CT008817|Bros Events SRL|Constanta|CTEVENTBA08|154|CCC EVENT SOBR FAM Fratelli 2013|121|Horeca|0
0|CS3684918|2013-12-01 01:35:39|DUMA|MIHAELA||F|1982-04-01|CONSTANTA|CONSTANTA|CISMELEI|C 48|||0|0|0730816012||DUMA.MIHAELA@GMAIL.COM|SBSSPK||0 Sobranie SS Pink (3mg) Pack|Yes|Yes||CT008817|Bros Events SRL|Constanta|CTEVENTBA07|154|CCC EVENT SOBR FAM Fratelli 2013|121|Horeca|0
0|CS3684920|2013-12-01 01:36:45|DUDUMAN|AURELIAN||M|1974-12-14|CONSTANTA|CONSTANTA|EROILOR|13|||0|0|0724757174||ITALPORTE.RO@GMAIL.COM|KTNBK||0 Sobranie Side Slide Blacks (4mg) Pack|Yes|Yes||CT008817|Bros Events SRL|Constanta|CTEVENTBA07|154|CCC EVENT SOBR FAM Fratelli 2013|121|Horeca|0
0|CS3684924|2013-12-01 01:42:25|COZAC|ADELA||M|1978-09-14|SIBIU|SIBIU|VICTOR TOGDOSANI|2|||0|0|0745604000||ADELASABRINACOZAC@GMAIL.COM|KTBL||0 Sobranie SS White (1mg) Pack|Yes|Yes||CT008817|Bros Events SRL|Constanta|CTEVENTBA10|154|CCC EVENT SOBR FAM Fratelli 2013|121|Horeca|0
0|CS3684926|2013-12-01 01:42:35|DRAGOMIR|DANIELA||F|1987-08-04|TULCEA|TULCEA|POTCOVARI|0|TAVS|C|2|24|0755047006|||VOGDV||0 Sobranie SS Black (6mg) Pack|Yes|Yes||CT008817|Bros Events SRL|Constanta|CTEVENTBA07|154|CCC EVENT SOBR FAM Fratelli 2013|121|Horeca|0
0|CS3684927|2013-12-01 01:42:41|CANDESCU|DIANA||F|1986-08-04|CONSTANTA|CONSTANTA|AL LAPUSNEANU|110|L7|A||96|0721502690||CANDESCU.DIANA@YAHOO.COM|KTSV||0 Sobranie KS Gold  (4mg) Pack|Yes|Yes||CT008817|Bros Events SRL|Constanta|CTEVENTBA08|154|CCC EVENT SOBR FAM Fratelli 2013|121|Horeca|0
0|CS3684930|2013-12-01 01:45:19|UNGUREANU|DIANA||F|1983-03-19|CONSTANTA|CONSTANTA|DOBROGEI|36|||||0728109088||DIANA.UNGUREANU@LOGAAUTO.RO|KTSV||0 Sobranie KS Gold  (4mg) Pack|Yes|Yes||CT008817|Bros Events SRL|Constanta|CTEVENTBA07|154|CCC EVENT SOBR FAM Fratelli 2013|121|Horeca|0
0|CS3684933|2013-12-01 01:48:57|MOTROC|ZOIA||F|1990-08-27|CONSTANTA|MANGALIA|SOARELUI|45|||0|0|0766850217||MOTROC.ZOIA@YAHOO.COM|DUNFCMBB||0 Sobranie KS Blue (6mg) Pack|Yes|Yes||CT008817|Bros Events SRL|Constanta|CTEVENTBA08|154|CCC EVENT SOBR FAM Fratelli 2013|121|Horeca|0
0|CS3684940|2013-12-01 01:50:24|FRUMUSACHE|ALIN||M|1983-10-28|CONSTANTA|CONSTANTA|CRINILOR|45|||||0788655422||FRUMUSACHE.FRUMUSACHE@YAHOO.COM|DUNFCBB||0 Sobranie KS Gold  (4mg) Pack|Yes|No||CT008817|Bros Events SRL|Constanta|CTEVENTBA07|154|CCC EVENT SOBR FAM Fratelli 2013|121|Horeca|0
0|CS3684935|2013-12-01 01:50:41|CHELARU|VICTOR||M|1989-12-13|CONSTANTA|NAVODARI|PANSELUTELOR|6|67|A|4|8|0768566505||CHELARU.VICTOR@YMAIL.COM|SBKSSSBK|SBKSSSBK|0 Sobranie Side Slide Blacks (4mg) Pack|Yes|Yes||CT008817|Bros Events SRL|Constanta|CTEVENTBA30|154|CCC EVENT SOBR FAM Fratelli 2013|121|Horeca|0
0|CS3684936|2013-12-01 01:51:06|MIHNEA|ANDRADA||F|1988-12-26|CONSTANTA|CONSTANTA|PACII|17|T22|C||19|0745327665||MIHNEA.ANDRADA@YAHOO.COM|VOGLL||0 Sobranie SS Black (6mg) Pack|Yes|Yes||CT008817|Bros Events SRL|Constanta|CTEVENTBA08|154|CCC EVENT SOBR FAM Fratelli 2013|121|Horeca|0
0|CS3684938|2013-12-01 01:52:13|RADOI|MARIANA||F|1981-08-21|CONSTANTA|CONSTANTA|AUREL VLAICU|94|AV10|A|7|29|0723559671||MARIANABOCAM@GMAIL.COM|SBSSWH|SBSSWH|0 Sobranie SS White (1mg) Pack|Yes|Yes||CT008817|Bros Events SRL|Constanta|CTEVENTBA30|154|CCC EVENT SOBR FAM Fratelli 2013|121|Horeca|0
0|CS3684939|2013-12-01 01:52:19|CADAR|MUGUR||M|1989-05-11|CONSTANTA|CONSTANTA|ALEEA CRINILOR|66|||||0788564322|||KTNWH||0 Sobranie Side Slide Whites (1mg) Pack|Yes|No||CT008817|Bros Events SRL|Constanta|CTEVENTBA07|154|CCC EVENT SOBR FAM Fratelli 2013|121|Horeca|0
0|CS3684941|2013-12-01 01:53:13|LUNGOCI|ADRIAN||M|1979-07-24|CONSTANTA|CONSTANTA|TOMIS|267|T4|A|3|12|0722199981||LUNGOCI.ADRIAN@YAHOO.COM|SBKSBL|SBKSBL|0 Sobranie KS Blue (6mg) Pack|Yes|Yes||CT008817|Bros Events SRL|Constanta|CTEVENTBA30|154|CCC EVENT SOBR FAM Fratelli 2013|121|Horeca|0
0|FS1270695|2013-11-30 23:44:21||||F|||||||||||||VOGLL||||||||||154|CCC EVENT SOBR FAM Fratelli 2013|121|Horeca|0
0|FS1270699|2013-11-30 23:49:29||||M|||||||||||||DUNFCMBB||||||||||154|CCC EVENT SOBR FAM Fratelli 2013|121|Horeca|0
0|FS1270700|2013-11-30 23:49:44||||F|||||||||||||VOGLL||||||||||154|CCC EVENT SOBR FAM Fratelli 2013|121|Horeca|0
0|FS1270715|2013-11-30 23:54:37||||F|||||||||||||DAVGL||||||||||154|CCC EVENT SOBR FAM Fratelli 2013|121|Horeca|0
0|FS1270735|2013-11-30 23:59:41||||M|||||||||||||DUNFCMBB||||||||||154|CCC EVENT SOBR FAM Fratelli 2013|121|Horeca|0
0|FS1270737|2013-11-30 23:59:46||||F|||||||||||||VOGDV||||||||||154|CCC EVENT SOBR FAM Fratelli 2013|121|Horeca|0
0|FS1270740|2013-12-01 00:01:24|||||||||||||||||DUNFCBB||||||||||154|CCC EVENT SOBR FAM Fratelli 2013|121|Horeca|0
0|FS1270748|2013-12-01 00:03:12|||||||||||||||||KTAPGD||||||||||154|CCC EVENT SOBR FAM Fratelli 2013|121|Horeca|0
0|FS1270752|2013-12-01 00:07:14|||||||||||||||||GLMLIL||||||||||154|CCC EVENT SOBR FAM Fratelli 2013|121|Horeca|0
0|FS1270753|2013-12-01 00:07:15|||||||||||||||||GLMLIL||||||||||154|CCC EVENT SOBR FAM Fratelli 2013|121|Horeca|0
0|FS1270760|2013-12-01 00:08:02|||||||||||||||||VIRSPR||||||||||154|CCC EVENT SOBR FAM Fratelli 2013|121|Horeca|0
0|FS1270769|2013-12-01 00:18:02||||M|||||||||||||KTBL||||||||||154|CCC EVENT SOBR FAM Fratelli 2013|121|Horeca|0
0|FS1270771|2013-12-01 00:18:25||||F|||||||||||||VOGLL||||||||||154|CCC EVENT SOBR FAM Fratelli 2013|121|Horeca|0
0|FS1270785|2013-12-01 00:30:16||||M|||||||||||||DUNFCMBB||||||||||154|CCC EVENT SOBR FAM Fratelli 2013|121|Horeca|0
0|FS1270786|2013-12-01 00:30:31||||F|||||||||||||VIRSM||||||||||154|CCC EVENT SOBR FAM Fratelli 2013|121|Horeca|0
0|FS1270787|2013-12-01 00:30:48||||F|||||||||||||VOGLL||||||||||154|CCC EVENT SOBR FAM Fratelli 2013|121|Horeca|0
0|FS1270788|2013-12-01 00:31:04||||M|||||||||||||DAVGL||||||||||154|CCC EVENT SOBR FAM Fratelli 2013|121|Horeca|0
0|FS1270828|2013-12-01 00:45:31||||M|||||||||||||KTNBK||||||||||154|CCC EVENT SOBR FAM Fratelli 2013|121|Horeca|0
0|FS1270830|2013-12-01 00:45:47||||F|||||||||||||VOGLL||||||||||154|CCC EVENT SOBR FAM Fratelli 2013|121|Horeca|0
0|FS1270835|2013-12-01 00:51:08||||M|||||||||||||DUNFCMBB||||||||||154|CCC EVENT SOBR FAM Fratelli 2013|121|Horeca|0
0|FS1270836|2013-12-01 00:51:26||||M|||||||||||||DUNFCMBB||||||||||154|CCC EVENT SOBR FAM Fratelli 2013|121|Horeca|0
0|FS1270837|2013-12-01 00:51:43||||F|||||||||||||DUNFCBB||||||||||154|CCC EVENT SOBR FAM Fratelli 2013|121|Horeca|0
0|FS1270842|2013-12-01 00:52:28||||F|||||||||||||VOGLL||||||||||154|CCC EVENT SOBR FAM Fratelli 2013|121|Horeca|0
0|FS1270846|2013-12-01 00:53:02||||M|||||||||||||DAVGLS||||||||||154|CCC EVENT SOBR FAM Fratelli 2013|121|Horeca|0
0|FS1270848|2013-12-01 00:53:19||||M|||||||||||||DUNFCMBB||||||||||154|CCC EVENT SOBR FAM Fratelli 2013|121|Horeca|0
0|FS1270849|2013-12-01 00:53:32||||F|||||||||||||VIRSV||||||||||154|CCC EVENT SOBR FAM Fratelli 2013|121|Horeca|0
0|FS1270850|2013-12-01 00:53:44||||F|||||||||||||DAVGLS||||||||||154|CCC EVENT SOBR FAM Fratelli 2013|121|Horeca|0
0|FS1270855|2013-12-01 01:00:05|||||||||||||||||DUNFCBB||||||||||154|CCC EVENT SOBR FAM Fratelli 2013|121|Horeca|0
0|FS1270861|2013-12-01 01:07:15|||||||||||||||||GLMLIL||||||||||154|CCC EVENT SOBR FAM Fratelli 2013|121|Horeca|0
0|FS1270863|2013-12-01 01:07:35|||||||||||||||||MBRFP||||||||||154|CCC EVENT SOBR FAM Fratelli 2013|121|Horeca|0
0|FS1270869|2013-12-01 01:09:24|||||||||||||||||DAVGL||||||||||154|CCC EVENT SOBR FAM Fratelli 2013|121|Horeca|0
0|FS1270868|2013-12-01 01:09:26|||||||||||||||||DAVGL||||||||||154|CCC EVENT SOBR FAM Fratelli 2013|121|Horeca|0
0|FS1270871|2013-12-01 01:11:16|||||||||||||||||MBRRDH||||||||||154|CCC EVENT SOBR FAM Fratelli 2013|121|Horeca|0
0|FS1270879|2013-12-01 01:17:47||||F|||||||||||||DUNFCBB||||||||||154|CCC EVENT SOBR FAM Fratelli 2013|121|Horeca|0
0|FS1270881|2013-12-01 01:18:27||||F|||||||||||||VOGJSN||||||||||154|CCC EVENT SOBR FAM Fratelli 2013|121|Horeca|0
0|FS1270882|2013-12-01 01:18:48||||M|||||||||||||PARABH||||||||||154|CCC EVENT SOBR FAM Fratelli 2013|121|Horeca|0
0|FS1270885|2013-12-01 01:21:10|||||||||||||||||DUNFCBB||||||||||154|CCC EVENT SOBR FAM Fratelli 2013|121|Horeca|0
0|FS1270887|2013-12-01 01:21:34|||||||||||||||||VOGLL||||||||||154|CCC EVENT SOBR FAM Fratelli 2013|121|Horeca|0
0|FS1270892|2013-12-01 01:25:52||||F|||||||||||||DAVGLS||||||||||154|CCC EVENT SOBR FAM Fratelli 2013|121|Horeca|0
0|FS1270893|2013-12-01 01:26:07||||F|||||||||||||DUNFCBB||||||||||154|CCC EVENT SOBR FAM Fratelli 2013|121|Horeca|0
0|FS1270896|2013-12-01 01:30:01|||||||||||||||||GLMLIL||||||||||154|CCC EVENT SOBR FAM Fratelli 2013|121|Horeca|0
0|FS1270897|2013-12-01 01:31:33|||||||||||||||||GLMLIL||||||||||154|CCC EVENT SOBR FAM Fratelli 2013|121|Horeca|0
0|FS1270901|2013-12-01 01:36:00||||F|||||||||||||DAVGL||||||||||154|CCC EVENT SOBR FAM Fratelli 2013|121|Horeca|0
0|FS1270908|2013-12-01 01:47:34|MOTROC|ZOIA||F|1990-08-27|CONSTANTA|MANGALIA||||||||||DUNFCMBB||||||||||154|CCC EVENT SOBR FAM Fratelli 2013|121|Horeca|0
0|FS1270911|2013-12-01 01:49:49|||||||||||||||||MBRGLT||||||||||154|CCC EVENT SOBR FAM Fratelli 2013|121|Horeca|0
0|FS1270912|2013-12-01 01:50:05|||||||||||||||||DUNFCMBB||||||||||154|CCC EVENT SOBR FAM Fratelli 2013|121|Horeca|0
0|FS1270913|2013-12-01 01:50:29|||||||||||||||||DAVGL||||||||||154|CCC EVENT SOBR FAM Fratelli 2013|121|Horeca|0
0|FS1270917|2013-12-01 01:50:55|||||||||||||||||SBKSBK||||||||||154|CCC EVENT SOBR FAM Fratelli 2013|121|Horeca|0
0|FS1270918|2013-12-01 01:50:55|||||||||||||||||SBKSBK||||||||||154|CCC EVENT SOBR FAM Fratelli 2013|121|Horeca|0
0|FS1270915|2013-12-01 01:51:27||||F|||||||||||||DAVGL||||||||||154|CCC EVENT SOBR FAM Fratelli 2013|121|Horeca|0
0|FS1270916|2013-12-01 01:51:49|||||||||||||||||PARNBH||||||||||154|CCC EVENT SOBR FAM Fratelli 2013|121|Horeca|0
0|FS1270919|2013-12-01 01:52:12|||||||||||||||||MBRFP||||||||||154|CCC EVENT SOBR FAM Fratelli 2013|121|Horeca|0
0|FS1270920|2013-12-01 01:52:28|||||||||||||||||PARRSSH||||||||||154|CCC EVENT SOBR FAM Fratelli 2013|121|Horeca|0
0|FS1270921|2013-12-01 01:52:40|||||||||||||||||MBRGLT||||||||||154|CCC EVENT SOBR FAM Fratelli 2013|121|Horeca|0
0|FS1270922|2013-12-01 01:52:46||||M|||||||||||||DAVGL||||||||||154|CCC EVENT SOBR FAM Fratelli 2013|121|Horeca|0
0|FS1270923|2013-12-01 01:52:56|||||||||||||||||KTSWITH||||||||||154|CCC EVENT SOBR FAM Fratelli 2013|121|Horeca|0
0|FS1270925|2013-12-01 01:53:28|||||||||||||||||DUNFCMBR||||||||||154|CCC EVENT SOBR FAM Fratelli 2013|121|Horeca|0
0|FS1270927|2013-12-01 01:53:37|||||||||||||||||PARRSSH||||||||||154|CCC EVENT SOBR FAM Fratelli 2013|121|Horeca|0
0|FS1270926|2013-12-01 01:54:20|||||||||||||||||PARRSSH||||||||||154|CCC EVENT SOBR FAM Fratelli 2013|121|Horeca|0
