0|CS3525325|2013-08-02 19:16:13|Trandafir|Mihaela||F|1987-02-16|Constanta|Constanta|Unirii|27|||||0739654578||Mihaela_trandafie@yahoo.com|VOGABP||1 Glamour Purse Box Pink FT (5mg) Pack|Yes|Yes||CT004058|Abi Grup SRL|Constanta|CTHRKBA33|161|CCC HRK GLAM FAM Vara 2013|121|Horeca|0
0|CS3525329|2013-08-02 19:16:34|Nastase|Claudia||F|1981-07-09|Constanta|CUMPANA|Dumbrava|5|||||0767133211||Nastase81claudia@yahoo.com|GLMLIL||1 Glamour CPB Lilac (5 mg) Pack|Yes|Yes||CT004058|Abi Grup SRL|Constanta|CTHRKBA77|161|CCC HRK GLAM FAM Vara 2013|121|Horeca|0
0|CS3525344|2013-08-02 19:17:52|Costache|Irina||F|1984-11-30|Constanta|CONSTANTA|Fulgerului|65|||||0745983436||Iri.irinuca@yahoo.com|VIRSPR||1 Glamour CPB Lilac (5 mg) Pack|Yes|Yes||CT004058|Abi Grup SRL|Constanta|CTHRKBA78|161|CCC HRK GLAM FAM Vara 2013|121|Horeca|0
0|CS3525367|2013-08-02 19:20:10|Crefu|Emilia||F|1984-10-24|Constanta|CONSTANTA|Nicolae tonita|43|||||0765657757||Ema_emily3@yahoo.com|KTWH||1 Glamour CPB Azure (3 mg) Pack|Yes|Yes||CT004058|Abi Grup SRL|Constanta|CTHRKBA79|161|CCC HRK GLAM FAM Vara 2013|121|Horeca|0
0|CS3525390|2013-08-02 19:22:32|Vladimir|Monica||F|1991-08-01|Constanta|CONSTANTA|Varariei|91|||||0727888411||Vladimir.moni.mo@yahoo.com|VIRSM||1 Glamour CPB Menthol (5mg) Pack|Yes|Yes||CT004058|Abi Grup SRL|Constanta|CTHRKBA77|161|CCC HRK GLAM FAM Vara 2013|121|Horeca|0
0|CS3525402|2013-08-02 19:23:31|Nica|Maria||F|1987-01-06|Bucuresti|SECTOR 3|Rapsodiei|27|||||0756983546||Marrya.nica@yahoo.com|GLMMNT||1 Glamour CPB Menthol (5mg) Pack|Yes|Yes||CT004058|Abi Grup SRL|Constanta|CTHRKBA78|161|CCC HRK GLAM FAM Vara 2013|121|Horeca|0
0|CS3525411|2013-08-02 19:24:59|Tarpa|Mihaela||F|1990-04-04|Ialomita|FETESTI|Lucerului|78|||||0756575676||Miha_12ella@yahoo.com|PMSSOR||1 Glamour CPB Lilac (5 mg) Pack|Yes|Yes||CT004058|Abi Grup SRL|Constanta|CTHRKBA79|161|CCC HRK GLAM FAM Vara 2013|121|Horeca|0
0|CS3525424|2013-08-02 19:25:43|Grigore|Ilenca||F|1986-02-13|Constanta|Constanta|Sucevei|20|5|S|2|19|0765219007||Ile.grigoroc@yahoo.com|VIRSFA||1 Glamour CPB Lilac (5 mg) Pack|Yes|Yes||CT004058|Abi Grup SRL|Constanta|CTHRKBA33|161|CCC HRK GLAM FAM Vara 2013|121|Horeca|0
0|CS3525464|2013-08-02 19:29:57|Popescu|Miruna||F|1989-09-13|Constanta|Constanta|Tulcei|0|D2|G|1|5|0741244578||Miruna_popescu@yahoo.com|VOGM||1 Glamour CPB Menthol (5mg) Pack|Yes|Yes||CT004058|Abi Grup SRL|Constanta|CTHRKBA33|161|CCC HRK GLAM FAM Vara 2013|121|Horeca|0
0|CS3525465|2013-08-02 19:30:02|Avram|Elena||F|1978-09-23|Constanta|CONSTANTA|Bd tomis|130|||||0787600044|||KTNBL||1 Glamour CPB Lilac (5 mg) Pack|Yes|Yes||CT004058|Abi Grup SRL|Constanta|CTHRKBA77|161|CCC HRK GLAM FAM Vara 2013|121|Horeca|0
0|CS3525468|2013-08-02 19:30:09|Puscasu|Camelia||F|1989-05-27|Constanta|CONSTANTA|Rascoalei 1907|154|||||0720956473||Camy.p27@yahoo.com|KTSV||1 Glamour CPB Azure (3 mg) Pack|Yes|Yes||CT004058|Abi Grup SRL|Constanta|CTHRKBA78|161|CCC HRK GLAM FAM Vara 2013|121|Horeca|0
0|CS3525494|2013-08-02 19:32:14|Ifrim|Cristina||F|1986-01-27|Constanta|CONSTANTA|Lapusneanu|65|C|A|4|22|0767321199|||KTWH||1 Glamour CPB Azure (3 mg) Pack|Yes|Yes||CT004058|Abi Grup SRL|Constanta|CTHRKBA77|161|CCC HRK GLAM FAM Vara 2013|121|Horeca|0
0|CS3525517|2013-08-02 19:34:23|Albu|Ioana||F|1991-10-19|Bucuresti|SECTOR 3|Cernei|52|||||0766439081||Ioa_albu@yahoo.com|VIRSV||1 Glamour CPB Lilac (5 mg) Pack|Yes|Yes||CT004058|Abi Grup SRL|Constanta|CTHRKBA78|161|CCC HRK GLAM FAM Vara 2013|121|Horeca|0
0|CS3525518|2013-08-02 19:34:26|Chivu|Daniela||F|1989-04-01|Covasna|COVASNA|Emil palade|32|||||0769685766||Dannes_dana23@yahoo.com|GLMMNT||1 Glamour CPB Menthol (5mg) Pack|Yes|Yes||CT004058|Abi Grup SRL|Constanta|CTHRKBA79|161|CCC HRK GLAM FAM Vara 2013|121|Horeca|0
0|CS3525691|2013-08-02 19:51:21|Dan|Andreea||F|1984-11-21|Constanta|CONSTANTA|Aurora|6|||||0752206328||Andreea_dan.1984@yahoo.com|GLMBL||1 Glamour CPB Azure (3 mg) Pack|Yes|Yes||CT004932|Toscana SRL |Constanta|CTHRKBA78|161|CCC HRK GLAM FAM Vara 2013|121|Horeca|0
0|CS3525708|2013-08-02 19:53:17|Capatanu|Alexandra||F|1990-02-07|Constanta|Constanta|Atelierelor|14|||||0745997542||Alexandra_capatanu@yahoo.com|KTWH||1 Glamour CPB Azure (3 mg) Pack|Yes|Yes||CT004932|Toscana SRL |Constanta|CTHRKBA33|161|CCC HRK GLAM FAM Vara 2013|121|Horeca|0
0|CS3525711|2013-08-02 19:53:28|Gradinaru|Ama||F|1988-10-29|Brasov|BRAN|Baican|88|||||0787900443|||KTSV||1 Glamour CPB Azure (3 mg) Pack|Yes|Yes||CT004932|Toscana SRL |Constanta|CTHRKBA77|161|CCC HRK GLAM FAM Vara 2013|121|Horeca|0
0|CS3525717|2013-08-02 19:54:21|Oprisan|Madalina||F|1992-01-01|Constanta|Constanta|Viorelelor|57|||||0727575786||Mad_madalinnne12@yahoo.com|GLPBPKFT||1 Glamour Purse Box Pink FT (5mg) Pack|Yes|Yes||CT004932|Toscana SRL |Constanta|CTHRKBA79|161|CCC HRK GLAM FAM Vara 2013|121|Horeca|0
0|CS3525755|2013-08-02 19:58:26|Gheorghe|Nicoleta||F|1978-09-25|Constanta|CONSTANTA|Cuza voda|38|||||0744280793||Nicoleta_gh@yahoo.com|GLPBPKFT||1 Glamour Purse Box Pink FT (5mg) Pack|Yes|Yes||CT004932|Toscana SRL |Constanta|CTHRKBA78|161|CCC HRK GLAM FAM Vara 2013|121|Horeca|0
0|CS3525763|2013-08-02 19:59:10|Anghel|Amalia||F|1988-02-11|Bucuresti|5|Pacii|3|4|S|2|19|0723975468||Amalia_anghel@yahoo.com|VOGLL||1 Glamour CPB Lilac (5 mg) Pack|Yes|Yes||CT004932|Toscana SRL |Constanta|CTHRKBA33|161|CCC HRK GLAM FAM Vara 2013|121|Horeca|0
0|CS3525771|2013-08-02 20:00:17|Balanescu|Victorita||F|1984-03-28|Constanta|CONSTANTA|Bd 1mai|70|||||0767433109||Balanrscu_victorita@yahoo.com|VOGBL||1 Glamour Purse Box Pink FT (5mg) Pack|Yes|Yes||CT004932|Toscana SRL |Constanta|CTHRKBA77|161|CCC HRK GLAM FAM Vara 2013|121|Horeca|0
0|CS3525777|2013-08-02 20:01:09|Picu|Maria||F|1983-09-01|Vaslui|VASLUI|Pasu morii|67|||||0747585566||Mara_marik8@yahoo.com|VIRSV||1 Glamour CPB Azure (3 mg) Pack|Yes|Yes||CT004932|Toscana SRL |Constanta|CTHRKBA79|161|CCC HRK GLAM FAM Vara 2013|121|Horeca|0
0|CS3525790|2013-08-02 20:04:45|Anghel|Marius||M|1989-04-01|Bucuresti|5|Pacii|5|4|S|1|5|0734658864||Marius.anghel@yahoo.com|KTWH||1 Glamour CPB Azure (3 mg) Pack|Yes|Yes||CT004932|Toscana SRL |Constanta|CTHRKBA33|161|CCC HRK GLAM FAM Vara 2013|121|Horeca|0
0|CS3525817|2013-08-02 20:09:48|Adam|Stela||F|1989-07-25|Bucuresti|SECTOR 2|Barbului|49|||||0765984643||Stela_adam@yahoo.com|KTWH||1 Glamour CPB Azure (3 mg) Pack|Yes|Yes||CT004932|Toscana SRL |Constanta|CTHRKBA78|161|CCC HRK GLAM FAM Vara 2013|121|Horeca|0
0|CS3525827|2013-08-02 20:11:41|Girtu|Victoria||F|1979-09-01|Constanta|CONSTANTA|Aurel vlaicu|111|||||0746485977||Viki_victorya12d@yahoo.com|VOGBL||1 Glamour CPB Azure (3 mg) Pack|Yes|Yes||CT004932|Toscana SRL |Constanta|CTHRKBA79|161|CCC HRK GLAM FAM Vara 2013|121|Horeca|0
0|CS3525831|2013-08-02 20:11:56|Iscru|Madalina||F|1988-11-08|Constanta|Constanta|Dorobanti|13|||||0723907643||Madalina_iscru@yahoo.com|VOGLL||1 Glamour CPB Lilac (5 mg) Pack|Yes|Yes||CT004932|Toscana SRL |Constanta|CTHRKBA33|161|CCC HRK GLAM FAM Vara 2013|121|Horeca|0
0|CS3525871|2013-08-02 20:15:56|Nichita|Loredana||F|1990-10-17|Constanta|CONSTANTA|Bd tomis|64|||||0765643598||Loredana_nichi@yahoo.com|VOGM||1 Glamour CPB Menthol (5mg) Pack|Yes|Yes||CT004932|Toscana SRL |Constanta|CTHRKBA78|161|CCC HRK GLAM FAM Vara 2013|121|Horeca|0
0|CS3525880|2013-08-02 20:16:57|Crucianu|Angela||F|1981-05-24|Bacau|BACAU|Focsani|4|||||0767099226||Crucianu.angela@yahoo.com|VOGM||1 Glamour CPB Menthol (5mg) Pack|Yes|Yes||CT004932|Toscana SRL |Constanta|CTHRKBA77|161|CCC HRK GLAM FAM Vara 2013|121|Horeca|0
0|CS3525898|2013-08-02 20:18:16|Parlea|Anca||F|1978-10-28|Braila|Braila|Linbertii|13|||||0757464758||Anc_ancap@yahoo.com|VOGM||1 Glamour CPB Menthol (5mg) Pack|Yes|Yes||CT004932|Toscana SRL |Constanta|CTHRKBA79|161|CCC HRK GLAM FAM Vara 2013|121|Horeca|0
0|CS3525988|2013-08-02 20:31:08|Nasui|Diana||F|1988-08-02|Timis|TIMISOARA|Lunei|29|||||0731563833||Nasuidianamaria@yahoo.com|GLMLIL||1 Glamour CPB Lilac (5 mg) Pack|Yes|No||CT008734|AEGADES|Constanta|CTHRKBA78|161|CCC HRK GLAM FAM Vara 2013|121|Horeca|0
0|CS3525993|2013-08-02 20:31:46|Antonescu|Miruna||F|1980-03-24|Constanta|Constanta|Ionel teodoreanu|36|||||0743525626||Miruna_d@ymail.com|GLMLIL||1 Glamour CPB Lilac (5 mg) Pack|Yes|Yes||CT008734|AEGADES|Constanta|CTHRKBA33|161|CCC HRK GLAM FAM Vara 2013|121|Horeca|0
0|CS3526008|2013-08-02 20:32:55|Sincari|Silviu||F|1984-07-27|Timis|TIMISOARA|Calea sadului|38|||||0757636408||Sincari_tm@yahoo.com|GLMLIL||1 Glamour CPB Lilac (5 mg) Pack|Yes|No||CT008734|AEGADES|Constanta|CTHRKBA78|161|CCC HRK GLAM FAM Vara 2013|121|Horeca|0
0|CS3526013|2013-08-02 20:33:28|Cirlan|Elena||F|1989-04-01|Constanta|CONSTANTA|Livezii|32|||||0742388988||Ela2elena@yahoo.com|GLMBL||1 Glamour CPB Azure (3 mg) Pack|Yes|Yes||CT008734|AEGADES|Constanta|CTHRKBA79|161|CCC HRK GLAM FAM Vara 2013|121|Horeca|0
0|CS3526017|2013-08-02 20:34:17|Chesculescu|Valentina||F|1986-08-06|Constanta|Constanta|Unirii|12|||||0734896532|||GLPBPKFT||1 Glamour Purse Box Pink FT (5mg) Pack|Yes|Yes||CT008734|AEGADES|Constanta|CTHRKBA33|161|CCC HRK GLAM FAM Vara 2013|121|Horeca|0
0|CS3526019|2013-08-02 20:34:22|Calin|Maria||F|1985-04-21|Alba|ALBA IULIA|Plopilor|66|||||0767889008|||GLPBPKFT||1 Glamour Purse Box Pink FT (5mg) Pack|Yes|Yes||CT008734|AEGADES|Constanta|CTHRKBA77|161|CCC HRK GLAM FAM Vara 2013|121|Horeca|0
0|CS3526028|2013-08-02 20:35:47|Costea|Daniela||F|1989-06-07|Bucuresti|3|Crailor|12|7|A|2|15|0724306788||Dany_costea@yahoo.com|KTWH||1 Glamour CPB Azure (3 mg) Pack|Yes|Yes||CT008734|AEGADES|Constanta|CTHRKBA33|161|CCC HRK GLAM FAM Vara 2013|121|Horeca|0
0|CS3526054|2013-08-02 20:38:44|Cristea|Teodora||F|1986-01-01|Bucuresti|3|Drumu taberei|486|||||0734986543|||VIRSV||1 Glamour CPB Lilac (5 mg) Pack|Yes|Yes||CT008734|AEGADES|Constanta|CTHRKBA33|161|CCC HRK GLAM FAM Vara 2013|121|Horeca|0
0|CS3526055|2013-08-02 20:39:14|Albu|Ana||F|1983-02-20|Constanta|CONSTANTA|1mai|11|||||0787332344|||KTWH||1 Glamour CPB Azure (3 mg) Pack|Yes|Yes||CT008734|AEGADES|Constanta|CTHRKBA77|161|CCC HRK GLAM FAM Vara 2013|121|Horeca|0
0|CS3526087|2013-08-02 20:41:58|Paraschiv|Elena||F|1980-02-29|Constanta|CONSTANTA|Unirii|19|||||0755426754||Ely.p29@yahoo.com|GLMBL||1 Glamour CPB Azure (3 mg) Pack|Yes|Yes||CT008734|AEGADES|Constanta|CTHRKBA78|161|CCC HRK GLAM FAM Vara 2013|121|Horeca|0
0|CS3526111|2013-08-02 20:44:33|Ivan|Ana||F|1991-01-30|Constanta|CONSTANTA|Puschi|150|||||0785564448|||VOGABP||1 Glamour CPB Azure (3 mg) Pack|Yes|Yes||CT008734|AEGADES|Constanta|CTHRKBA77|161|CCC HRK GLAM FAM Vara 2013|121|Horeca|0
0|CS3526112|2013-08-02 20:44:37|Spancu|Ana||F|1982-06-29|Bucuresti|Bucuresti|Vitan|23|||||0734334453||Dadas12@yahoo.com|KTSV||1 Glamour CPB Lilac (5 mg) Pack|Yes|Yes||CT008734|AEGADES|Constanta|CTHRKBA79|161|CCC HRK GLAM FAM Vara 2013|121|Horeca|0
0|CS3526135|2013-08-02 20:47:36|Marin|Iulia||F|1988-11-21|Constanta|CONSTANTA|Ion ratiu|74|||||0766226589||Iulia_21@yahoo.com|GLMMNT||1 Glamour CPB Menthol (5mg) Pack|Yes|Yes||CT008734|AEGADES|Constanta|CTHRKBA78|161|CCC HRK GLAM FAM Vara 2013|121|Horeca|0
0|CS3526160|2013-08-02 20:51:37|Pirisca|Flavia||F|1986-01-01|Constanta|CONSTANTA|Flviu barbu|123|||||0757474786||Flavi@yahoo.com|VIRSM||1 Glamour CPB Menthol (5mg) Pack|Yes|Yes||CT008734|AEGADES|Constanta|CTHRKBA79|161|CCC HRK GLAM FAM Vara 2013|121|Horeca|0
0|CS3526174|2013-08-02 20:53:12|Filimon|Flavia||F|1980-08-19|Bucuresti|Bucuresti|Razboieni|159|||||0727866322|||GLMBL||1 Glamour CPB Azure (3 mg) Pack|Yes|Yes||CT008734|AEGADES|Constanta|CTHRKBA77|161|CCC HRK GLAM FAM Vara 2013|121|Horeca|0
0|CS3526221|2013-08-02 21:00:04|Ghita|Oana||M|1981-04-29|Constanta|CONSTANTA|Rasuri|91|||||0754769435||Oana.ghita@yahoo.com|VOGLL||1 Glamour CPB Lilac (5 mg) Pack|Yes|Yes||CT008734|AEGADES|Constanta|CTHRKBA78|161|CCC HRK GLAM FAM Vara 2013|121|Horeca|0
0|CS3526272|2013-08-02 21:07:14|Stanciu|Stefana||F|1988-09-06|Constanta|Constanta|Nicolae iorga|12|5|F|4|17|0726975432||Stefana_stanciu@yahoo.com|VOGM||1 Glamour CPB Menthol (5mg) Pack|Yes|Yes||CT003789|SCAPINO SRL|Constanta|CTHRKBA33|161|CCC HRK GLAM FAM Vara 2013|121|Horeca|0
0|CS3526276|2013-08-02 21:07:41|Mehmet|Semra||F|1984-04-29|Constanta|CONSTANTA|Secuiescu|65|C|D|1|3|0727099422||Mehmet2semra.gec@yahoo.com|PMSSGR||1 Glamour CPB Menthol (5mg) Pack|Yes|Yes||CT003789|SCAPINO SRL|Constanta|CTHRKBA77|161|CCC HRK GLAM FAM Vara 2013|121|Horeca|0
0|CS3526278|2013-08-02 21:08:14|Ionita|Ana||F|1985-03-07|Bucuresti|SECTOR 6|Bujorului|62|||||0766436587||Ana_ionita@yahoo.com|PARRSSH||1 Glamour CPB Lilac (5 mg) Pack|Yes|Yes||CT003789|SCAPINO SRL|Constanta|CTHRKBA78|161|CCC HRK GLAM FAM Vara 2013|121|Horeca|0
0|CS3526283|2013-08-02 21:08:32|Trifu|Georgeta||F|1981-09-28|Constanta|Constanta|Mihai viteazu|145|||||0724253858||Gerogeta_trif1@yahoo.com|VOGABP||1 Glamour Purse Box Pink FT (5mg) Pack|Yes|Yes||CT003789|SCAPINO SRL|Constanta|CTHRKBA79|161|CCC HRK GLAM FAM Vara 2013|121|Horeca|0
0|CS3526320|2013-08-02 21:12:35|Visan|Catalina||F|1988-09-07|Constanta|Constanta|Spiru haret|2|47|A|1|6|0723976543||Catalina_visan@yahoo.com|VOGLL||1 Glamour CPB Lilac (5 mg) Pack|Yes|Yes||CT003789|SCAPINO SRL|Constanta|CTHRKBA33|161|CCC HRK GLAM FAM Vara 2013|121|Horeca|0
0|CS3526331|2013-08-02 21:13:45|Grijescu|Georgiana||F|1980-07-25|Constanta|CONSTANTA|Tulcei|40|C|D|7|55|0787102905||Grijescu_geo@yahoo.com|VOGABP||1 Glamour CPB Lilac (5 mg) Pack|Yes|Yes||CT003789|SCAPINO SRL|Constanta|CTHRKBA77|161|CCC HRK GLAM FAM Vara 2013|121|Horeca|0
0|CS3526344|2013-08-02 21:15:23|Radu|Rodica||F|1977-04-01|Tulcea|TULCEA|Podgoriei|47|||||0757485696||Rr_rodik34@yahoo.com|GLMLIL||1 Glamour CPB Lilac (5 mg) Pack|Yes|Yes||CT003789|SCAPINO SRL|Constanta|CTHRKBA79|161|CCC HRK GLAM FAM Vara 2013|121|Horeca|0
0|CS3526361|2013-08-02 21:17:59|Petre|Mihaela||F|1984-06-14|Bucuresti|SECTOR 3|Aleea albatrosului|76|||||0754650984||Petre_mihaela@yahoo.com|VOGBL||1 Glamour CPB Azure (3 mg) Pack|Yes|Yes||CT003789|SCAPINO SRL|Constanta|CTHRKBA78|161|CCC HRK GLAM FAM Vara 2013|121|Horeca|0
0|CS3526368|2013-08-02 21:18:39|Badiu|Alina||F|1988-12-07|Constanta|Constanta|Viile noi|40|5|F|2|12|0721457985||Alna_badiu@yahoo.com|VIRSFA||1 Glamour CPB Lilac (5 mg) Pack|Yes|Yes||CT003789|SCAPINO SRL|Constanta|CTHRKBA33|161|CCC HRK GLAM FAM Vara 2013|121|Horeca|0
0|CS3526374|2013-08-02 21:19:32|Calu|Iulia||F|1993-10-04|Constanta|CONSTANTA|Titu maiorescu|6|C|A1|6|30|0767822411||Calu_iulia93@yahoo.com|GLPBPKFT||1 Glamour Purse Box Pink FT (5mg) Pack|Yes|Yes||CT003789|SCAPINO SRL|Constanta|CTHRKBA77|161|CCC HRK GLAM FAM Vara 2013|121|Horeca|0
0|CS3526400|2013-08-02 21:22:27|Lapusca|Mariana||F|1988-09-29|Constanta|CONSTANTA|Mircea cel batran|134|||||0757585876||Maria23ana1@yahoo.com|GLMMNT||1 Glamour CPB Menthol (5mg) Pack|Yes|Yes||CT003789|SCAPINO SRL|Constanta|CTHRKBA79|161|CCC HRK GLAM FAM Vara 2013|121|Horeca|0
0|CS3526401|2013-08-02 21:22:34|Platon|Isabela||F|1988-01-13|Constanta|CONSTANTA|Bd mamaia|168|||||0756437694||Isa.bela13@yahoo.com|VIRSPR||1 Glamour CPB Lilac (5 mg) Pack|Yes|Yes||CT003789|SCAPINO SRL|Constanta|CTHRKBA78|161|CCC HRK GLAM FAM Vara 2013|121|Horeca|0
0|CS3526405|2013-08-02 21:22:54|Mihai|Daniela||F|1988-11-07|Constanta|Constanta|Sarmisegetuza|42|||||0721898643||Daniela_mihai@yahoo.com|KTWH||1 Glamour CPB Azure (3 mg) Pack|Yes|Yes||CT003789|SCAPINO SRL|Constanta|CTHRKBA33|161|CCC HRK GLAM FAM Vara 2013|121|Horeca|0
0|CS3526446|2013-08-02 21:28:13|Buzamat|Ericka||F|1983-04-30|Bucuresti|Bucuresti|Crivatului|144|||||0727658331||Buzamat_erica@yahoo.com|VOGM||1 Glamour CPB Menthol (5mg) Pack|Yes|Yes||CT003789|SCAPINO SRL|Constanta|CTHRKBA77|161|CCC HRK GLAM FAM Vara 2013|121|Horeca|0
0|CS3526450|2013-08-02 21:28:36|Dragan|Alexia||F|1991-04-04|Galati|GALATI|Fragutei|34|||||0746476879||Alexa_alexia1@yahoo.com|VIRSV||1 Glamour CPB Azure (3 mg) Pack|Yes|Yes||CT003789|SCAPINO SRL|Constanta|CTHRKBA79|161|CCC HRK GLAM FAM Vara 2013|121|Horeca|0
0|CS3526488|2013-08-02 21:34:22|Dumitrescu|Luiza||F|1986-11-26|Constanta|CONSTANTA|Ferdinand|42|||||0742750749||Lulu.girl@yahoo.com|GLMLIL||1 Glamour CPB Lilac (5 mg) Pack|Yes|No||CT005063|CONCORDANCE CAFFE|Constanta|CTHRKBA78|161|CCC HRK GLAM FAM Vara 2013|121|Horeca|0
0|CS3526493|2013-08-02 21:35:31|Filimon|Georgiana||F|1984-11-30|Constanta|Constanta|Mircea cel batran|144|||||0722738158||Joeegoriee@yahoo.com|GLMBL||1 Glamour CPB Azure (3 mg) Pack|Yes|Yes||CT005063|CONCORDANCE CAFFE|Constanta|CTHRKBA79|161|CCC HRK GLAM FAM Vara 2013|121|Horeca|0
0|CS3526499|2013-08-02 21:36:31|Cristea|Ionela||F|1988-11-06|Constanta|Constanta|Titu maiorescu|38|||||0721780543||Ionela_crs@yahoo.com|VOGBL||1 Glamour CPB Azure (3 mg) Pack|Yes|Yes||CT005063|CONCORDANCE CAFFE|Constanta|CTHRKBA33|161|CCC HRK GLAM FAM Vara 2013|121|Horeca|0
0|CS3526505|2013-08-02 21:36:48|Costea|Ana||F|1987-05-25|Constanta|CONSTANTA|Aleea pelicanului|2|||||0723164372||Anutza.costea@yahoo.com|GLMBL||1 Glamour CPB Azure (3 mg) Pack|Yes|No||CT005063|CONCORDANCE CAFFE|Constanta|CTHRKBA78|161|CCC HRK GLAM FAM Vara 2013|121|Horeca|0
0|CS3526508|2013-08-02 21:37:23|Iulius|Ada||F|1982-11-29|Constanta|CONSTANTA|Bd frrdinand|265|||||0727099011||Iulius_adaandra@yahoo.com|VIRSFA||1 Glamour CPB Lilac (5 mg) Pack|Yes|Yes||CT005063|CONCORDANCE CAFFE|Constanta|CTHRKBA77|161|CCC HRK GLAM FAM Vara 2013|121|Horeca|0
0|CS3526525|2013-08-02 21:41:07|Fflimon|Laura||F|1984-10-29|Constanta|CONSTANTA|Sarmisegetuza|19|C1|A|4|24|0787099022||Filimon_laurica@yahoo.com|KTNBK||1 Glamour CPB Azure (3 mg) Pack|Yes|Yes||CT005063|CONCORDANCE CAFFE|Constanta|CTHRKBA77|161|CCC HRK GLAM FAM Vara 2013|121|Horeca|0
0|CS3526534|2013-08-02 21:43:05|Misu|Teodora||F|1989-01-17|Constanta|CONSTANTA|Mihaileanu|47|||||0756098463||Teutza_misu@yahoo.com|VIRSM||1 Glamour CPB Menthol (5mg) Pack|Yes|Yes||CT005063|CONCORDANCE CAFFE|Constanta|CTHRKBA78|161|CCC HRK GLAM FAM Vara 2013|121|Horeca|0
0|CS3526542|2013-08-02 21:43:49|Parlar|Natalia||F|1989-10-12|Constanta|Constanta|Blv mamaia|7|5|B|3|18|0762785322||Embre.natalia@yahoo.com|VIRSM||1 Glamour CPB Menthol (5mg) Pack|Yes|Yes||CT005063|CONCORDANCE CAFFE|Constanta|CTHRKBA33|161|CCC HRK GLAM FAM Vara 2013|121|Horeca|0
0|CS3526545|2013-08-02 21:44:25|Petru|Ioana||F|1987-04-01|Constanta|Constanta|Ferdinand|56|||||0756456858||Ioanna_p_y@yahoo.com|VIRSPR||1 Glamour CPB Lilac (5 mg) Pack|Yes|Yes||CT005063|CONCORDANCE CAFFE|Constanta|CTHRKBA79|161|CCC HRK GLAM FAM Vara 2013|121|Horeca|0
0|CS3526574|2013-08-02 21:47:59|Bogdan|Nina||F|1982-03-27|Brasov|BRASOV|Lunga|60|||||0745327685||Nina_b0327@yahoo.vom|KTSV||1 Glamour CPB Azure (3 mg) Pack|Yes|Yes||CT005063|CONCORDANCE CAFFE|Constanta|CTHRKBA78|161|CCC HRK GLAM FAM Vara 2013|121|Horeca|0
0|CS3526577|2013-08-02 21:48:29|Draghici|Alina||F|1991-11-09|Calarasi|Calarasi|Stupului|3|||||0757469687||Ala_alinna.bt@yahoo.com|VIRSV||1 Glamour CPB Azure (3 mg) Pack|Yes|Yes||CT005063|CONCORDANCE CAFFE|Constanta|CTHRKBA79|161|CCC HRK GLAM FAM Vara 2013|121|Horeca|0
0|CS3526583|2013-08-02 21:49:11|Rusu|Luciana||F|1991-01-01|Constanta|CONSTANTA|Crivatului|66|||||0787016152||Rusu_luci43@yahoo.com|VIRSV||1 Glamour CPB Azure (3 mg) Pack|Yes|Yes||CT005063|CONCORDANCE CAFFE|Constanta|CTHRKBA77|161|CCC HRK GLAM FAM Vara 2013|121|Horeca|0
0|CS3526592|2013-08-02 21:50:39|Mares|Maria||F|1991-10-09|Constanta|Constanta|Pescarilor|0|5|A|3|14|0762789754||Mary_mrs@yahoo.com|VOGBL||1 Glamour CPB Azure (3 mg) Pack|Yes|Yes||CT005063|CONCORDANCE CAFFE|Constanta|CTHRKBA33|161|CCC HRK GLAM FAM Vara 2013|121|Horeca|0
0|CS3526598|2013-08-02 21:51:44|Burgaru|Cristina||F|1991-05-05|Constanta|Constanta|Muciului|87|||||0724354757||Cristina_kiss3@yahoo.com|VOGLL||1 Glamour CPB Lilac (5 mg) Pack|Yes|Yes||CT005063|CONCORDANCE CAFFE|Constanta|CTHRKBA79|161|CCC HRK GLAM FAM Vara 2013|121|Horeca|0
0|CS3526610|2013-08-02 21:53:47|Jiru|Catalina||F|1989-05-14|Constanta|CONSTANTA|Plopilor|83|||||0755973541||Cata_lina.j@yahoo.com|VIRSFA||1 Glamour CPB Azure (3 mg) Pack|Yes|Yes||CT005063|CONCORDANCE CAFFE|Constanta|CTHRKBA78|161|CCC HRK GLAM FAM Vara 2013|121|Horeca|0
0|CS3526611|2013-08-02 21:53:49|Dogaru|Andreea||F|1989-10-13|Constanta|Constanta|Rascoalei|87|||||0761789764||Deea_dogaru@yahoo.com|PMSSBL||1 Glamour CPB Azure (3 mg) Pack|Yes|Yes||CT005063|CONCORDANCE CAFFE|Constanta|CTHRKBA33|161|CCC HRK GLAM FAM Vara 2013|121|Horeca|0
0|CS3526623|2013-08-02 21:55:24|Pavalascu|Anamaria||F|1992-12-28|Constanta|CONSTANTA|Solidaritatii|66|||||0787533200|||KTWH||1 Glamour CPB Azure (3 mg) Pack|Yes|Yes||CT005063|CONCORDANCE CAFFE|Constanta|CTHRKBA77|161|CCC HRK GLAM FAM Vara 2013|121|Horeca|0
0|CS3526624|2013-08-02 21:55:34|Birsan|Teodora||F|1982-09-01|Constanta|CONSTANTA|Macului|67|||||0757575767||Teutza_teodoratt@yahoo.com|KTSV||1 Glamour CPB Menthol (5mg) Pack|Yes|Yes||CT005063|CONCORDANCE CAFFE|Constanta|CTHRKBA79|161|CCC HRK GLAM FAM Vara 2013|121|Horeca|0
0|CS3526733|2013-08-02 22:11:25|Gheorghe|Iulia||F|1989-02-11|Constanta|Constanta|Daliei|3|5|F|3|17|0727988765||Iulia_ghrg@yahoo.com|VOGLL||1 Glamour CPB Lilac (5 mg) Pack|Yes|Yes||CT005185|Filozofie Urbana SRL|Constanta|CTHRKBA33|161|CCC HRK GLAM FAM Vara 2013|121|Horeca|0
0|CS3526740|2013-08-02 22:11:57|Niculae|Georgiana||F|1990-09-06|Constanta|CONSTANTA|Nicolae spataru|52|Iv4|C|||0755328690||Georgy.n@yahoo.com|DAVGLSS||1 Glamour CPB Lilac (5 mg) Pack|Yes|No||CT005185|Filozofie Urbana SRL|Constanta|CTHRKBA78|161|CCC HRK GLAM FAM Vara 2013|121|Horeca|0
0|CS3526747|2013-08-02 22:12:20|Dobrescu|Madalina||F|1983-04-30|Constanta|MURFATLAR|Mihai eminesc|33|||||0767099122||Dobrescu_dobre@yahoo.com|VOGM||1 Glamour CPB Menthol (5mg) Pack|Yes|Yes||CT005185|Filozofie Urbana SRL|Constanta|CTHRKBA77|161|CCC HRK GLAM FAM Vara 2013|121|Horeca|0
0|CS3526752|2013-08-02 22:13:17|Ristea|Nicoleta||F|1989-07-04|Constanta|CONSTANTA|Ion corvin|12|A12|D|1|8|0744747587||Nicoletaw@yahoo.com|KTSV||1 Glamour CPB Lilac (5 mg) Pack|Yes|Yes||CT005185|Filozofie Urbana SRL|Constanta|CTHRKBA79|161|CCC HRK GLAM FAM Vara 2013|121|Horeca|0
0|CS3526764|2013-08-02 22:15:39|Popescu|Stefan||M|1986-01-11|Constanta|Constanta|Semanatorului|10|5|D|2|12|0726789986||Stefan_popescu@yahoo.com|VOGBL||1 Glamour CPB Azure (3 mg) Pack|Yes|Yes||CT005185|Filozofie Urbana SRL|Constanta|CTHRKBA33|161|CCC HRK GLAM FAM Vara 2013|121|Horeca|0
0|CS3526771|2013-08-02 22:17:25|Vaju|Alexandra||F|1981-10-10|Constanta|CONSTANTA|Albatrosului|44|Bd5|A|||0755951651||Alexa.vaju10@yahoo.com|VIRSM||1 Glamour CPB Menthol (5mg) Pack|Yes|No||CT005185|Filozofie Urbana SRL|Constanta|CTHRKBA78|161|CCC HRK GLAM FAM Vara 2013|121|Horeca|0
0|CS3526781|2013-08-02 22:18:19|Gavrila|Larisa||F|1980-03-03|Bucuresti|Bucuresti|Albatros|130|||||0747090123||Larisica_gavrila@yahoo.com|VOGLL||1 Glamour CPB Lilac (5 mg) Pack|Yes|Yes||CT005185|Filozofie Urbana SRL|Constanta|CTHRKBA77|161|CCC HRK GLAM FAM Vara 2013|121|Horeca|0
0|CS3526795|2013-08-02 22:21:14|Iuga|Mihaela||F|1986-03-01|Constanta|Constanta|In roma|3|46|C|4|19|0763790765||Miha_iuga@yahoo.com|VOGBL||1 Glamour CPB Azure (3 mg) Pack|Yes|Yes||CT005185|Filozofie Urbana SRL|Constanta|CTHRKBA33|161|CCC HRK GLAM FAM Vara 2013|121|Horeca|0
0|CS3526796|2013-08-02 22:21:23|Popescu|Ecaterina||F|1989-01-01|Arad|COMANESTI|Maramures|123|||||0746363785||Ecaterina_et@yahoo.com|GLMMNT||1 Glamour CPB Menthol (5mg) Pack|Yes|Yes||CT005185|Filozofie Urbana SRL|Constanta|CTHRKBA79|161|CCC HRK GLAM FAM Vara 2013|121|Horeca|0
0|CS3526804|2013-08-02 22:22:44|Florescu|Irina||F|1988-03-29|Braila|Braila|Abator|43|||||0787092341|||KTNWH||1 Glamour CPB Azure (3 mg) Pack|Yes|Yes||CT005185|Filozofie Urbana SRL|Constanta|CTHRKBA77|161|CCC HRK GLAM FAM Vara 2013|121|Horeca|0
0|CS3526816|2013-08-02 22:25:07|Dusa|Maria||F|1984-10-01|Constanta|CONSTANTA|Ion ursu|34|||||0746475885||Maria_maraas@yahoo.com|GLMBL||1 Glamour CPB Azure (3 mg) Pack|Yes|Yes||CT005185|Filozofie Urbana SRL|Constanta|CTHRKBA79|161|CCC HRK GLAM FAM Vara 2013|121|Horeca|0
0|CS3526821|2013-08-02 22:25:40|Luca|Alina||F|1983-04-10|Cluj|CLUJ NAPOCA|Mihai eminescu|65|Fv3|D|||0755276058||Alinutza.luca@yahoo.com|VIRSM||1 Glamour CPB Menthol (5mg) Pack|Yes|Yes||CT005185|Filozofie Urbana SRL|Constanta|CTHRKBA78|161|CCC HRK GLAM FAM Vara 2013|121|Horeca|0
0|CS3526955|2013-08-02 22:43:30|Poenaru|Iulia||F|1988-08-13|Constanta|CONSTANTA|Eliberarii|15|||||0755365766||Jullyapoenaru@yahoo.com|GLMBL||1 Glamour CPB Azure (3 mg) Pack|Yes|Yes||CT004056|Restaurant Mediteranean SRL |Constanta|CTHRKBA78|161|CCC HRK GLAM FAM Vara 2013|121|Horeca|0
0|CS3526971|2013-08-02 22:45:57|Norbi|Alina||F|1984-07-26|Calarasi|CALARASI|Cuza voda|143|||||0767335322||Norbi_alinutsa@yahoo.com|KTNBK||1 Glamour CPB Lilac (5 mg) Pack|Yes|Yes||CT004056|Restaurant Mediteranean SRL |Constanta|CTHRKBA77|161|CCC HRK GLAM FAM Vara 2013|121|Horeca|0
0|CS3526973|2013-08-02 22:46:22|Blana|Simona||F|1990-09-12|Bucuresti|SECTOR 5|I n roman|45|||||0766253878||Symy.b@yahoo.com|GLMLIL||1 Glamour CPB Lilac (5 mg) Pack|Yes|Yes||CT004056|Restaurant Mediteranean SRL |Constanta|CTHRKBA78|161|CCC HRK GLAM FAM Vara 2013|121|Horeca|0
0|CS3526988|2013-08-02 22:50:05|Pascu|Crina||F|1991-10-07|Constanta|CONSTANTA|Mihai viteazu|176|||||0723416508||Crina.pascu@yahoo.com|VOGM||1 Glamour CPB Menthol (5mg) Pack|Yes|No||CT004056|Restaurant Mediteranean SRL |Constanta|CTHRKBA78|161|CCC HRK GLAM FAM Vara 2013|121|Horeca|0
0|CS3526991|2013-08-02 22:51:05|Bica|Diana||F|1983-11-30|Arges|CURTEA DE ARGES|Vilturului|11|||||0738443348||DiannesA_dd@yahoo.com|GLMLIL||1 Glamour CPB Lilac (5 mg) Pack|Yes|Yes||CT004056|Restaurant Mediteranean SRL |Constanta|CTHRKBA79|161|CCC HRK GLAM FAM Vara 2013|121|Horeca|0
0|CS3527004|2013-08-02 22:54:07|Mihai|Antonia||F|1985-03-27|Constanta|CONSTANTA|Bd lapusneanu|16|Cf|A|||0766520785||Antony.m@yahoo.com|KTSV||1 Glamour CPB Azure (3 mg) Pack|Yes|Yes||CT004056|Restaurant Mediteranean SRL |Constanta|CTHRKBA78|161|CCC HRK GLAM FAM Vara 2013|121|Horeca|0
0|CS3527010|2013-08-02 22:55:29|Lefter|Teodora||F|1990-03-30|Teleorman|VIDELE|Rosioru|130|||||0763244177||Lefter_teo8@yahoo.com|GLPBMNFT||1 Glamour CPB Menthol (5mg) Pack|Yes|Yes||CT004056|Restaurant Mediteranean SRL |Constanta|CTHRKBA77|161|CCC HRK GLAM FAM Vara 2013|121|Horeca|0
0|CS3527012|2013-08-02 22:55:53|Ghindu|Florentina||F|1980-09-25|Botosani|BOTOSANI|Papadiei|34|F2|A|2|22|0723737483||Floare_flo@yahoo.com|KTSV||1 Glamour CPB Azure (3 mg) Pack|Yes|Yes||CT004056|Restaurant Mediteranean SRL |Constanta|CTHRKBA79|161|CCC HRK GLAM FAM Vara 2013|121|Horeca|0
0|CS3527019|2013-08-02 22:56:13|Serdin|Mihaela||F|1988-07-07|Bucuresti|2|Caraiman|45|||||0745478643|||VOGLL||1 Glamour CPB Lilac (5 mg) Pack|Yes|Yes||CT004056|Restaurant Mediteranean SRL |Constanta|CTHRKBA33|161|CCC HRK GLAM FAM Vara 2013|121|Horeca|0
0|CS3527029|2013-08-02 22:58:28|Grosu|Tatiana||F|1986-08-05|Bucuresti|5|Caraiman|45|||||0734997654||Grisu_tatiana@yahoo.com|VIRSM||1 Glamour CPB Menthol (5mg) Pack|Yes|Yes||CT004056|Restaurant Mediteranean SRL |Constanta|CTHRKBA33|161|CCC HRK GLAM FAM Vara 2013|121|Horeca|0
0|CS3527049|2013-08-02 23:01:33|Oprea|Andreea||F|1989-03-04|Constanta|MIHAIL KOGALNICEANU|Fulgerului|32|||||0754657656||Andra_tadeea@yahoo.com|VIRSM||1 Glamour CPB Menthol (5mg) Pack|Yes|Yes||CT004056|Restaurant Mediteranean SRL |Constanta|CTHRKBA79|161|CCC HRK GLAM FAM Vara 2013|121|Horeca|0
0|CS3527052|2013-08-02 23:02:04|Stefan|Raluca||F|1986-01-01|Constanta|Contanta|Unirii|59|||||0767422566||Ralu.stef@yahoo.com|GLMBL||1 Glamour CPB Azure (3 mg) Pack|Yes|Yes||CT004056|Restaurant Mediteranean SRL |Constanta|CTHRKBA33|161|CCC HRK GLAM FAM Vara 2013|121|Horeca|0
0|CS3527057|2013-08-02 23:02:44|Hurmuz|Georgiana||F|1991-07-14|Constanta|CONSTANTA|Lapusneanu|45|||||0727831054||Hurmuz_geoz@yahoo.com|KTSV||1 Glamour CPB Azure (3 mg) Pack|Yes|Yes||CT004056|Restaurant Mediteranean SRL |Constanta|CTHRKBA77|161|CCC HRK GLAM FAM Vara 2013|121|Horeca|0
0|CS3527115|2013-08-02 23:13:50|Seicamed|Serpil||F|1987-06-09|Constanta|Constanta|Dobril rugenie|19|C7|A|3|20|0723074872||Serpil_09@yahoo.com|GLMBL||1 Glamour CPB Azure (3 mg) Pack|Yes|Yes||CT000708|AMI COM SRL|Constanta|CTHRKBA33|161|CCC HRK GLAM FAM Vara 2013|121|Horeca|0
0|CS3527117|2013-08-02 23:14:07|Chereanu|Cristina||F|1989-12-18|Constanta|CONSTANTA|Aleea orhideelor|4|||||0732156887||Chereanu_cristina89@yahoo.com|VIRSV||1 Glamour CPB Lilac (5 mg) Pack|Yes|Yes||CT000708|AMI COM SRL|Constanta|CTHRKBA77|161|CCC HRK GLAM FAM Vara 2013|121|Horeca|0
0|CS3527127|2013-08-02 23:16:21|Savin|Anca||F|1982-05-07|Bucuresti|Bucuresti|Iancu nicolae|152|||||0729199131||Anca_savin@omniasing.com|WISSS||1 Glamour CPB Azure (3 mg) Pack|Yes|Yes||CT000708|AMI COM SRL|Constanta|CTHRKBA79|161|CCC HRK GLAM FAM Vara 2013|121|Horeca|0
0|CS3527151|2013-08-02 23:22:44|Brancoveanu|Cristina||F|1984-09-09|Bucuresti|SECTOR 4|Bistritei|53|Ci3|A|||0766254968||Cristina_brancoveanu@yahoo.com|VIRSFA||1 Glamour CPB Azure (3 mg) Pack|Yes|Yes||CT000708|AMI COM SRL|Constanta|CTHRKBA78|161|CCC HRK GLAM FAM Vara 2013|121|Horeca|0
0|CS3527154|2013-08-02 23:22:47|Mazare|Andreea||F|1990-03-26|Buzau|Buzau|Zagrete|76|||||0724331775||Mazare_deea_a@yahoo.com|GLPBMNFT||1 Glamour CPB Menthol (5mg) Pack|Yes|Yes||CT000708|AMI COM SRL|Constanta|CTHRKBA77|161|CCC HRK GLAM FAM Vara 2013|121|Horeca|0
0|CS3527165|2013-08-02 23:25:18|Hriscu|Catalina||F|1989-08-08|Constanta|CONSTANTA|Soveja|121|D2|A|Pa|2|0757485688||Catas_katy5@yahoo.com|GLPBPKFT||1 Glamour Purse Box Pink FT (5mg) Pack|Yes|Yes||CT000708|AMI COM SRL|Constanta|CTHRKBA79|161|CCC HRK GLAM FAM Vara 2013|121|Horeca|0
0|CS3527172|2013-08-02 23:27:07|Cretu|Bogdan||M|1989-04-09|Bucuresti|2|Crizantemei|2|40|2|1|1|0761469965||Cretu_bogd_89@yahoo.com|KTWH||1 Glamour CPB Azure (3 mg) Pack|Yes|Yes||CT000708|AMI COM SRL|Constanta|CTHRKBA33|161|CCC HRK GLAM FAM Vara 2013|121|Horeca|0
0|CS3527181|2013-08-02 23:29:38|PApaiani|Zoe||F|1990-04-01|Constanta|23-Aug|Fagetului|47|||||0767574657||Zoe_zoo@yahoo.com|PMSSBL||1 Glamour CPB Lilac (5 mg) Pack|Yes|Yes||CT000708|AMI COM SRL|Constanta|CTHRKBA79|161|CCC HRK GLAM FAM Vara 2013|121|Horeca|0
0|CS3527189|2013-08-02 23:31:15|Vlad|Stefania||F|1989-08-26|Constanta|CONSTANTA|Amzacei|96|||||0755093541||Stefy.bby@yahoo.com|DAVGLSS||1 Glamour CPB Lilac (5 mg) Pack|Yes|No||CT000708|AMI COM SRL|Constanta|CTHRKBA78|161|CCC HRK GLAM FAM Vara 2013|121|Horeca|0
0|CS3527192|2013-08-02 23:31:32|Ghicu|Elena||F|1988-03-26|Cluj|CLUJ NAPOCA|Crizantemei|5|||||0767433266|||VIRSV||1 Glamour CPB Azure (3 mg) Pack|Yes|Yes||CT000708|AMI COM SRL|Constanta|CTHRKBA77|161|CCC HRK GLAM FAM Vara 2013|121|Horeca|0
0|CS3527195|2013-08-02 23:32:41|Oancea|Cristina||F|1989-04-03|Constanta|Constanta|Mihai viteazu|57|||||0746586867||Crisa cristina3@yahoo.com|GLMMNT||1 Glamour CPB Menthol (5mg) Pack|Yes|Yes||CT000708|AMI COM SRL|Constanta|CTHRKBA79|161|CCC HRK GLAM FAM Vara 2013|121|Horeca|0
0|CS3527196|2013-08-02 23:33:24|Crivat|Tania||F|1983-08-29|Hunedoara|HUNEDOARA|Industriala|166|||||0787521456||Crivat_efed@yahoo.com|KTWH||1 Glamour CPB Azure (3 mg) Pack|Yes|Yes||CT000708|AMI COM SRL|Constanta|CTHRKBA77|161|CCC HRK GLAM FAM Vara 2013|121|Horeca|0
0|CS3530695|2013-08-03 20:05:12|Hriscu|Simona||F|1989-10-14|Brasov|Brasov|Lutescu|10|7|E|2|9|0725986587||Simo_89@yahoo.com|VOGM||1 Glamour CPB Menthol (5mg) Pack|Yes|Yes||CT004058|Abi Grup SRL|Constanta|CTHRKBA33|161|CCC HRK GLAM FAM Vara 2013|121|Horeca|0
0|CS3530697|2013-08-03 20:05:25|Balanescu|Anda||F|1986-11-23|Constanta|CONSTANTA|Puschin|44|||||0767044311||Adda_ada@yahoo.com|KTSV||1 Glamour CPB Lilac (5 mg) Pack|Yes|Yes||CT004058|Abi Grup SRL|Constanta|CTHRKBA77|161|CCC HRK GLAM FAM Vara 2013|121|Horeca|0
0|CS3530707|2013-08-03 20:07:30|Talpau|Irina||F|1984-10-29|Constanta|CONSTANTA|Tepes voda|56|Hd6|A|||0755276957||Talpau_iry@yahoo.com|VIRSFA||1 Glamour CPB Azure (3 mg) Pack|Yes|No||CT004058|Abi Grup SRL|Constanta|CTHRKBA78|161|CCC HRK GLAM FAM Vara 2013|121|Horeca|0
0|CS3530723|2013-08-03 20:09:35|Nerges|Veronica||F|1988-05-05|Constanta|EFORIE NORD|Podgoriei|23|||||0757545575||Veroniok_vero2@yahoo.com|VIRSV||1 Glamour CPB Azure (3 mg) Pack|Yes|Yes||CT004058|Abi Grup SRL|Constanta|CTHRKBA79|161|CCC HRK GLAM FAM Vara 2013|121|Horeca|0
0|CS3530747|2013-08-03 20:13:32|Nodulea|Anca||F|1991-05-09|Constanta|CONSTANTA|Zambilelor|109|||||0787900522|||VIRSPR||1 Glamour CPB Azure (3 mg) Pack|Yes|Yes||CT004058|Abi Grup SRL|Constanta|CTHRKBA77|161|CCC HRK GLAM FAM Vara 2013|121|Horeca|0
0|CS3530754|2013-08-03 20:14:26|Trasca|Catalina||F|1990-04-22|Constanta|Constanta|Blv mamaia|17|3|A|1|5|0747976545||Cata_trs@yahoo.com|VOGBL||1 Glamour CPB Azure (3 mg) Pack|Yes|Yes||CT004058|Abi Grup SRL|Constanta|CTHRKBA33|161|CCC HRK GLAM FAM Vara 2013|121|Horeca|0
0|CS3530763|2013-08-03 20:15:28|Panzaru|Valentina||F|1986-10-29|Constanta|CONSTANTA|Mircea cel batran|134|S1|A|1|34|0755475968||Valet_ana13@yahoo.com|PARRSSMH||1 Glamour CPB Menthol (5mg) Pack|Yes|Yes||CT004058|Abi Grup SRL|Constanta|CTHRKBA79|161|CCC HRK GLAM FAM Vara 2013|121|Horeca|0
0|CS3530765|2013-08-03 20:15:32|Ficu|Ana||F|1981-10-20|Constanta|CONSTANTA|Bd tomis|29|||||0744869549||Ana_ficu2007@yahoo.com|GLMLIL||1 Glamour CPB Lilac (5 mg) Pack|Yes|Yes||CT004058|Abi Grup SRL|Constanta|CTHRKBA78|161|CCC HRK GLAM FAM Vara 2013|121|Horeca|0
0|CS3530790|2013-08-03 20:20:58|Besnea|Raluca||F|1988-02-01|Constanta|CONSTANTA|Tulcei|64|||||0725876543|||VIRSM||1 Glamour CPB Menthol (5mg) Pack|Yes|Yes||CT004058|Abi Grup SRL|Constanta|CTHRKBA33|161|CCC HRK GLAM FAM Vara 2013|121|Horeca|0
0|CS3530794|2013-08-03 20:21:37|Stanciu|Madalina||F|1983-06-16|Constanta|CONSTANTA|1mai|121|||||0743224666|||KTNWH||1 Glamour CPB Azure (3 mg) Pack|Yes|Yes||CT004058|Abi Grup SRL|Constanta|CTHRKBA77|161|CCC HRK GLAM FAM Vara 2013|121|Horeca|0
0|CS3530812|2013-08-03 20:23:49|Grigore|Camelia||F|1989-07-30|Bucuresti|SECTOR 4|Burada|43|||||0766538535||Camy.3007@yahoo.com|KTSV||1 Glamour CPB Azure (3 mg) Pack|Yes|Yes||CT004058|Abi Grup SRL|Constanta|CTHRKBA78|161|CCC HRK GLAM FAM Vara 2013|121|Horeca|0
0|CS3530824|2013-08-03 20:25:15|Ipsilanti|Paraschiva||F|1979-04-06|Bucuresti|Bucuresti|Pelicannului|133|||||0757464755||Paraschiv123@yahoo.com|GLMLIL||1 Glamour CPB Lilac (5 mg) Pack|Yes|Yes||CT004058|Abi Grup SRL|Constanta|CTHRKBA79|161|CCC HRK GLAM FAM Vara 2013|121|Horeca|0
0|CS3530830|2013-08-03 20:26:11|Bejenaru|Ianca||F|1993-05-30|Cluj|CLUJ NAPOCA|Vanturiilor|45|||||0767033344|||VOGM||1 Glamour CPB Menthol (5mg) Pack|Yes|Yes||CT004058|Abi Grup SRL|Constanta|CTHRKBA77|161|CCC HRK GLAM FAM Vara 2013|121|Horeca|0
0|CS3530835|2013-08-03 20:27:07|Trifan|Marius||M|1988-09-05|Constanta|Constanta|Simion barnutiu|31|||||0721578865||Marius_trifan@yahoo.com|VOGLL||1 Glamour CPB Lilac (5 mg) Pack|Yes|Yes||CT004058|Abi Grup SRL|Constanta|CTHRKBA33|161|CCC HRK GLAM FAM Vara 2013|121|Horeca|0
0|CS3530951|2013-08-03 20:45:32|Zamfir|Filiz||F|1991-07-21|Bacau|BACAU|Grigore antipa|32|C|B|2|12|0767443566||Eliz_andora@yahoo.com|GLMLIL||1 Glamour CPB Lilac (5 mg) Pack|Yes|Yes||CT004932|Toscana SRL |Constanta|CTHRKBA77|161|CCC HRK GLAM FAM Vara 2013|121|Horeca|0
0|CS3530965|2013-08-03 20:47:58|Chivu|Maria||F|1987-05-25|Bucuresti|SECTOR 4|Grivitei|128|||||0755244375||Chivu.m25@yahoo.com|KTWH||1 Glamour CPB Azure (3 mg) Pack|Yes|Yes||CT004932|Toscana SRL |Constanta|CTHRKBA78|161|CCC HRK GLAM FAM Vara 2013|121|Horeca|0
0|CS3530972|2013-08-03 20:48:52|Stefan|Alexandra||F|1991-12-10|Constanta|Constanta|Mircea cel batran|1|4|A|3|15|0762754789||Alexandra_stefan_91@yahoo.com|VOGM||1 Glamour CPB Menthol (5mg) Pack|Yes|Yes||CT004932|Toscana SRL |Constanta|CTHRKBA33|161|CCC HRK GLAM FAM Vara 2013|121|Horeca|0
0|CS3530974|2013-08-03 20:49:00|Serediu|Mariana||F|1955-03-29|Constanta|CONSTANTA|Calugareni|24|||||0723073150||Marinanne_s@yahoo.com|VOGLL||1 Glamour CPB Lilac (5 mg) Pack|Yes|Yes||CT004932|Toscana SRL |Constanta|CTHRKBA79|161|CCC HRK GLAM FAM Vara 2013|121|Horeca|0
0|CS3530998|2013-08-03 20:52:15|Covaci|Ecaterina||F|1987-06-14|Bucuresti|2|Nufarului|79|||||0726994117||Cathy_eca@yahoo.com|VIRSV||1 Glamour CPB Azure (3 mg) Pack|Yes|Yes||CT004932|Toscana SRL |Constanta|CTHRKBA33|161|CCC HRK GLAM FAM Vara 2013|121|Horeca|0
0|CS3531007|2013-08-03 20:53:23|Obresa|Marria||F|1983-05-28|Constanta|CONSTANTA|Argesului|112|||||0767899211||Mara_obresa@yahoo.com|GLPBPKFT||1 Glamour Purse Box Pink FT (5mg) Pack|Yes|Yes||CT004932|Toscana SRL |Constanta|CTHRKBA77|161|CCC HRK GLAM FAM Vara 2013|121|Horeca|0
0|CS3531011|2013-08-03 20:53:52|Lascu|Flori||F|1990-02-27|Constanta|CONSTANTA|Delfinului|97|||||0766997354||Florentina.lascu@yahoo.com|GLPBPKFT||1 Glamour Purse Box Pink FT (5mg) Pack|Yes|Yes||CT004932|Toscana SRL |Constanta|CTHRKBA78|161|CCC HRK GLAM FAM Vara 2013|121|Horeca|0
0|CS3531016|2013-08-03 20:54:23|Iftimoae|Sofica||F|1990-03-02|Calarasi|CALARASI|Sturzei|23|||||0724354546||Sofy_sofy333u@yahoo.com|KTWH||1 Glamour CPB Azure (3 mg) Pack|Yes|Yes||CT004932|Toscana SRL |Constanta|CTHRKBA79|161|CCC HRK GLAM FAM Vara 2013|121|Horeca|0
0|CS3531032|2013-08-03 20:56:46|Popescu|Arina||F|1985-04-12|Constanta|Constanta|Bibescu voda|32|||||0727999932||Arina.popescu@yahoo.com|VOGM||1 Glamour CPB Menthol (5mg) Pack|Yes|Yes||CT004932|Toscana SRL |Constanta|CTHRKBA33|161|CCC HRK GLAM FAM Vara 2013|121|Horeca|0
0|CS3531049|2013-08-03 20:58:32|Sterea|Manuela||F|1990-10-19|Constanta|CONSTANTA|Sarmieegetusa|69|||||0755944385||Manu.ela19@yahoo.com|VOGM||1 Glamour CPB Menthol (5mg) Pack|Yes|Yes||CT004932|Toscana SRL |Constanta|CTHRKBA78|161|CCC HRK GLAM FAM Vara 2013|121|Horeca|0
0|CS3531055|2013-08-03 20:59:25|Pavel|Elena||F|1976-01-01|Constanta|CONSTANTA|Venismin costache|75|||||0746474868||Ely_elaelee@yahoo.com|GLMLIL||1 Glamour CPB Lilac (5 mg) Pack|Yes|Yes||CT004932|Toscana SRL |Constanta|CTHRKBA79|161|CCC HRK GLAM FAM Vara 2013|121|Horeca|0
0|CS3531077|2013-08-03 21:01:47|Matei|Melina||F|1992-03-03|Constanta|CERNAVODA|Henri coanda|3|||||0727543244|||GLMMNT||1 Glamour CPB Menthol (5mg) Pack|Yes|Yes||CT004932|Toscana SRL |Constanta|CTHRKBA77|161|CCC HRK GLAM FAM Vara 2013|121|Horeca|0
0|CS3531078|2013-08-03 21:02:00|Matraguna|Cristina||F|1988-12-13|Bucuresti|2|Privighetorii|3|37|D|6|31|0762658976||Criss_matraguna@yahoo.com|GLMLIL||1 Glamour CPB Lilac (5 mg) Pack|Yes|Yes||CT004932|Toscana SRL |Constanta|CTHRKBA33|161|CCC HRK GLAM FAM Vara 2013|121|Horeca|0
0|CS3531083|2013-08-03 21:02:43|Opica|Mihaela||F|1991-03-03|Constanta|Ovidiu|Principala|34|||||0757575786||Mikys_mikidutzamea@yahoo.com|GLMBL||1 Glamour CPB Azure (3 mg) Pack|Yes|Yes||CT004932|Toscana SRL |Constanta|CTHRKBA79|161|CCC HRK GLAM FAM Vara 2013|121|Horeca|0
0|CS3531098|2013-08-03 21:05:06|Galian|Elena||F|1988-01-12|Constanta|CONSTANTA|Soveja|76|Iv3|C|||0766094653||Ely.elena12@yahoo.com|VIRSPR||1 Glamour CPB Lilac (5 mg) Pack|Yes|Yes||CT004932|Toscana SRL |Constanta|CTHRKBA78|161|CCC HRK GLAM FAM Vara 2013|121|Horeca|0
0|CS3531109|2013-08-03 21:06:43|Lupu|Nicoleta||F|1988-03-14|Constanta|Constanta|Ion ratiu|41|||||0739765443||Nico_letta_21@yahoo.com|VOGABP||1 Glamour Purse Box Pink FT (5mg) Pack|Yes|Yes||CT004932|Toscana SRL |Constanta|CTHRKBA33|161|CCC HRK GLAM FAM Vara 2013|121|Horeca|0
0|CS3531117|2013-08-03 21:07:34|Iorga|Mirela||F|1983-11-29|Buzau|BUZAU|Independentei|34|||||0724355756||Mires12mirella@yahoo.com|VOGM||1 Glamour CPB Menthol (5mg) Pack|Yes|Yes||CT004932|Toscana SRL |Constanta|CTHRKBA79|161|CCC HRK GLAM FAM Vara 2013|121|Horeca|0
0|CS3531228|2013-08-03 21:23:08|Bejan|Claudia||F|1990-08-09|Constanta|CONSTANTA|Il caragiale|53|||||0723547332||Clau.bej@yahoo.com|GLMLIL||1 Glamour CPB Lilac (5 mg) Pack|Yes|Yes||CT008734|AEGADES|Constanta|CTHRKBA78|161|CCC HRK GLAM FAM Vara 2013|121|Horeca|0
0|CS3531232|2013-08-03 21:23:35|Andoni|Lorena||F|1992-05-30|Bihor|ORADEA|Titu maiorescu|7|C|A|2|10|0767902530||Andoni_lori@yahoo.com|VIRSAC||1 Glamour CPB Lilac (5 mg) Pack|Yes|Yes||CT008734|AEGADES|Constanta|CTHRKBA77|161|CCC HRK GLAM FAM Vara 2013|121|Horeca|0
0|CS3531246|2013-08-03 21:25:15|Ionica|Gabriela||F|1981-04-15|Harghita|MATISENI|Zorilor|35|||||0734756656||Gabitz_gabri3@yahoo.com|VIRSM||1 Glamour CPB Menthol (5mg) Pack|Yes|Yes||CT008734|AEGADES|Constanta|CTHRKBA79|161|CCC HRK GLAM FAM Vara 2013|121|Horeca|0
0|CS3531253|2013-08-03 21:26:25|Ploaie|Ioana||F|1991-02-24|Sibiu|Sibiu|Maramuresului|29|7a|1|2|13|0762890542||Ioana.oana@yahoo.com|VIRSPR||1 Glamour CPB Lilac (5 mg) Pack|Yes|Yes||CT008734|AEGADES|Constanta|CTHRKBA33|161|CCC HRK GLAM FAM Vara 2013|121|Horeca|0
0|CS3531269|2013-08-03 21:27:57|Chiriac|Diana||F|1978-09-29|Brasov|Brasov|Murelor|12|||||0722142333||Dis diss dya@yahoo.com|GLMLIL||1 Glamour CPB Lilac (5 mg) Pack|Yes|Yes||CT008734|AEGADES|Constanta|CTHRKBA79|161|CCC HRK GLAM FAM Vara 2013|121|Horeca|0
0|CS3531271|2013-08-03 21:28:07|Toma|Liliana||F|1986-11-08|Bucuresti|Bucuresti|Albatros|5|||||0727544509||Toma_lili93@yahoo.com|KTNBK||1 Glamour CPB Azure (3 mg) Pack|Yes|Yes||CT008734|AEGADES|Constanta|CTHRKBA77|161|CCC HRK GLAM FAM Vara 2013|121|Horeca|0
0|CS3531305|2013-08-03 21:33:11|Tugui|Irina||F|1989-02-18|Olt|SLATINA|Decebal|1|E2|B|1|2|0722880076||Irinuka_tig_lvd@yahoo.com|VOGLL||1 Glamour CPB Lilac (5 mg) Pack|Yes|Yes||CT008734|AEGADES|Constanta|CTHRKBA33|161|CCC HRK GLAM FAM Vara 2013|121|Horeca|0
0|CS3531306|2013-08-03 21:33:19|Mitea|Ionela||F|1978-04-23|Constanta|CONSTANTA|Barbu de la vrancea|176|||||0765975464||Yone_mitea@yahoo.com|DAVGLSS||1 Glamour CPB Lilac (5 mg) Pack|Yes|Yes||CT008734|AEGADES|Constanta|CTHRKBA78|161|CCC HRK GLAM FAM Vara 2013|121|Horeca|0
0|CS3531311|2013-08-03 21:33:51|Moise|Mioara||F|1989-05-04|Bacau|BALANEASA|Dorului|65|||||0735444547||Miomioaramio2@yahoo.com|GLMBL||1 Glamour CPB Azure (3 mg) Pack|Yes|Yes||CT008734|AEGADES|Constanta|CTHRKBA79|161|CCC HRK GLAM FAM Vara 2013|121|Horeca|0
0|CS3531318|2013-08-03 21:34:44|Lefter|Laurenta||F|1991-08-12|Bucuresti|Bucuresti|Maria elisabeta|12|C|A|3|16|0754296544||Lefter.laurenta44@yahoo.com|GLMLIL||1 Glamour CPB Lilac (5 mg) Pack|Yes|Yes||CT008734|AEGADES|Constanta|CTHRKBA77|161|CCC HRK GLAM FAM Vara 2013|121|Horeca|0
0|CS3531344|2013-08-03 21:37:47|Neacsu|Dana||F|1991-11-30|Constanta|CONSTANTA|Sulitei|83|||||0732788875||Dana_neacsu_alina@yahoo.com|PMSSGR||1 Glamour CPB Menthol (5mg) Pack|Yes|Yes||CT008734|AEGADES|Constanta|CTHRKBA33|161|CCC HRK GLAM FAM Vara 2013|121|Horeca|0
0|CS3531352|2013-08-03 21:39:31|Catrinoiu|Diana||F|1992-03-27|Bucuresti|SECTOR 3|Ion creanga|154|Fr3|B|||0725437556||Didi.love@yahoo.com|VIRSV||1 Glamour CPB Azure (3 mg) Pack|Yes|Yes||CT008734|AEGADES|Constanta|CTHRKBA78|161|CCC HRK GLAM FAM Vara 2013|121|Horeca|0
0|CS3531354|2013-08-03 21:39:55|Chiricuta|Paula||F|1981-04-29|Bacau|BACAU|Calaretului|60|||||0735667133||Chiri_Paula@yahoo.com|WISSB||1 Glamour CPB Lilac (5 mg) Pack|Yes|Yes||CT008734|AEGADES|Constanta|CTHRKBA77|161|CCC HRK GLAM FAM Vara 2013|121|Horeca|0
0|CS3531358|2013-08-03 21:40:30|Vlad|Ioana||F|1979-07-19|Constanta|CONSTANTA|Din vii|76|||||0745466867||Ioana ioany23_yos@yahoo.com|VOGM||1 Glamour CPB Menthol (5mg) Pack|Yes|Yes||CT008734|AEGADES|Constanta|CTHRKBA79|161|CCC HRK GLAM FAM Vara 2013|121|Horeca|0
0|CS3531390|2013-08-03 21:45:45|Firu|Andra||F|1989-09-29|Covasna|Covasna|Liliaculuo|89|||||0735565758||Andrees_andru2_u@yahoo.com|KTSV||1 Glamour CPB Azure (3 mg) Pack|Yes|Yes||CT008734|AEGADES|Constanta|CTHRKBA79|161|CCC HRK GLAM FAM Vara 2013|121|Horeca|0
0|CS3531437|2013-08-03 21:52:45|Iliescu|Niculina||F|1992-03-27|Alba|ALBA IULIA|Brizei|43|||||0727433255|||KTNWH||1 Glamour CPB Azure (3 mg) Pack|Yes|Yes||CT003789|SCAPINO SRL|Constanta|CTHRKBA77|161|CCC HRK GLAM FAM Vara 2013|121|Horeca|0
0|CS3531469|2013-08-03 21:55:50|Padurar|Emilia||F|1986-02-18|Constanta|CONSTANTA|Fagetului|52|||||0754009735||Emi.emi18@yahoo.com|VIRSPR||1 Glamour CPB Lilac (5 mg) Pack|Yes|Yes||CT003789|SCAPINO SRL|Constanta|CTHRKBA78|161|CCC HRK GLAM FAM Vara 2013|121|Horeca|0
0|CS3531473|2013-08-03 21:56:00|Mihai|Oana||F|1991-03-11|Bucuresti|4|Colonel maiorescu|18|3|A|2|12|0762790754||Oana_mhn@yahoo.com|KTWH||1 Glamour CPB Azure (3 mg) Pack|Yes|Yes||CT003789|SCAPINO SRL|Constanta|CTHRKBA33|161|CCC HRK GLAM FAM Vara 2013|121|Horeca|0
0|CS3531484|2013-08-03 21:57:36|Neghina|Florina||F|1978-01-01|Calarasi|CALARASI|Vasile alecsandri|79|||||0727800422||Neghina_florinae@yahoo.com|KTSV||1 Glamour CPB Azure (3 mg) Pack|Yes|Yes||CT003789|SCAPINO SRL|Constanta|CTHRKBA77|161|CCC HRK GLAM FAM Vara 2013|121|Horeca|0
0|CS3531486|2013-08-03 21:57:37|Petru|Sinziana||F|1978-08-28|Constanta|CONSTANTA|Eliberarii|105|D3|B|3|34|0724354656||Sinzik_4u ana@yahoo.com|KTSV||1 Glamour CPB Lilac (5 mg) Pack|Yes|Yes||CT003789|SCAPINO SRL|Constanta|CTHRKBA79|161|CCC HRK GLAM FAM Vara 2013|121|Horeca|0
0|CS3531542|2013-08-03 22:03:06|Carmat|Livia||F|1991-10-30|Constanta|CONSTANTA|Grecilor|10|||||0767042211||Carmat_livia_a@yahoo.com|VIRSM||1 Glamour CPB Menthol (5mg) Pack|Yes|Yes||CT003789|SCAPINO SRL|Constanta|CTHRKBA77|161|CCC HRK GLAM FAM Vara 2013|121|Horeca|0
0|CS3531543|2013-08-03 22:03:16|Crispu|Ana||F|1989-04-04|Braila|Braila|Independentei|65|||||0746575757||Ancy_anca1@yahoo.com|GLPBPKFT||1 Glamour Purse Box Pink FT (5mg) Pack|Yes|Yes||CT003789|SCAPINO SRL|Constanta|CTHRKBA79|161|CCC HRK GLAM FAM Vara 2013|121|Horeca|0
0|CS3531545|2013-08-03 22:03:21|Valahu|Bianca||F|1989-06-15|Bucuresti|SECTOR 2|Stefan cel mare|37|||||0744856776||Bia_valahu@yahoo.com|VIRSFA||1 Glamour CPB Azure (3 mg) Pack|Yes|Yes||CT003789|SCAPINO SRL|Constanta|CTHRKBA78|161|CCC HRK GLAM FAM Vara 2013|121|Horeca|0
0|CS3531548|2013-08-03 22:03:53|Cicina|Alessia||F|1989-02-19|Constanta|Constanta|Traian vuia|2|5c|F|2|12|0726987544||Alessia_89@yahoo.com|VOGLL||1 Glamour CPB Lilac (5 mg) Pack|Yes|Yes||CT003789|SCAPINO SRL|Constanta|CTHRKBA33|161|CCC HRK GLAM FAM Vara 2013|121|Horeca|0
0|CS3531570|2013-08-03 22:09:04|Banea|Aurelia||F|1983-01-01|Constanta|CONSTANTA|Tomis|145|A1|F|5|67|0724354757||Aurel_aurelia2d@yahoo.com|VIRSPR||1 Glamour CPB Lilac (5 mg) Pack|Yes|Yes||CT003789|SCAPINO SRL|Constanta|CTHRKBA79|161|CCC HRK GLAM FAM Vara 2013|121|Horeca|0
0|CS3531579|2013-08-03 22:11:17|Dragomiroiu|Oana||F|1988-10-27|Constanta|MANGALIA|Eliberarii|144|||||0727433144||Drag_dragoana@yahoo.com|KTSV||1 Glamour CPB Azure (3 mg) Pack|Yes|Yes||CT003789|SCAPINO SRL|Constanta|CTHRKBA77|161|CCC HRK GLAM FAM Vara 2013|121|Horeca|0
0|CS3531584|2013-08-03 22:12:45|Iris|Manuela||F|1990-01-01|Arad|Arad|Unirii|24|||||0724342345||Mania_manuelaes@yahoo.com|GLMBL||1 Glamour CPB Azure (3 mg) Pack|Yes|Yes||CT003789|SCAPINO SRL|Constanta|CTHRKBA79|161|CCC HRK GLAM FAM Vara 2013|121|Horeca|0
0|CS3531586|2013-08-03 22:12:54|Banghioru|Elena||F|1986-11-08|Galati|Galati|Primaverii|40|||||0745098721||Elen_banghioru@yahoo.com|VOGM||1 Glamour CPB Menthol (5mg) Pack|Yes|Yes||CT003789|SCAPINO SRL|Constanta|CTHRKBA33|161|CCC HRK GLAM FAM Vara 2013|121|Horeca|0
0|CS3531589|2013-08-03 22:13:16|Mincu|Simona||F|1989-03-03|Constanta|CONSTANTA|Ferdinand|146|Zd4|A|||0765879665||Simo.mincu@yahoo.com|PARRSSMH||1 Glamour CPB Menthol (5mg) Pack|Yes|Yes||CT003789|SCAPINO SRL|Constanta|CTHRKBA78|161|CCC HRK GLAM FAM Vara 2013|121|Horeca|0
0|CS3531590|2013-08-03 22:13:33|Angheluta|Iustinia||F|1984-01-07|Constanta|CONSTANTA|Bd tomis|187|||||0756899433||Angheluta_iusti@yahoo.com|GLMBL||1 Glamour CPB Azure (3 mg) Pack|Yes|Yes||CT003789|SCAPINO SRL|Constanta|CTHRKBA77|161|CCC HRK GLAM FAM Vara 2013|121|Horeca|0
0|CS3531611|2013-08-03 22:16:47|Hincu|Laura||F|1990-07-16|Constanta|CONSTANTA|Badea cartan|18|||||0754553653||Hincu_laurica16@yahoo.com|GLMBL||1 Glamour CPB Azure (3 mg) Pack|Yes|Yes||CT003789|SCAPINO SRL|Constanta|CTHRKBA78|161|CCC HRK GLAM FAM Vara 2013|121|Horeca|0
0|CS3531615|2013-08-03 22:17:59|Lavric|Daniela||F|1989-04-01|Constanta|CONSTANTA|Mircea cel batran|143|||||0745565758||Daniella_dans@yahoo.com|GLMMNT||1 Glamour CPB Menthol (5mg) Pack|Yes|Yes||CT003789|SCAPINO SRL|Constanta|CTHRKBA79|161|CCC HRK GLAM FAM Vara 2013|121|Horeca|0
0|CS3531666|2013-08-03 22:29:03|Zaharia|Maria||F|1988-02-10|Constanta|Constanta|Muncel|62|||||0726993115||Maria_zhr@yahoo.com|GLMBL||1 Glamour CPB Azure (3 mg) Pack|Yes|Yes||CT005063|CONCORDANCE CAFFE|Constanta|CTHRKBA33|161|CCC HRK GLAM FAM Vara 2013|121|Horeca|0
0|CS3531676|2013-08-03 22:30:26|Rotaru|Andreea||F|1980-11-25|Constanta|CONSTANTA|Sarmisegetuzei|57|C|A|3|3|0725433577||Rotaru_deeea@yahoo.com|VOGM||1 Glamour CPB Menthol (5mg) Pack|Yes|Yes||CT005063|CONCORDANCE CAFFE|Constanta|CTHRKBA77|161|CCC HRK GLAM FAM Vara 2013|121|Horeca|0
0|CS3531678|2013-08-03 22:30:38|Balaban|Violeta||F|1987-06-29|Constanta|CONSTANTA|Aurel vlaicu|87|||||0765994377|||VOGM||1 Glamour CPB Menthol (5mg) Pack|Yes|Yes||CT005063|CONCORDANCE CAFFE|Constanta|CTHRKBA78|161|CCC HRK GLAM FAM Vara 2013|121|Horeca|0
0|CS3531683|2013-08-03 22:31:00|Craciun|Alexandra||F|1989-04-04|Ialomita|BORDUSANI|Panait ene|65|||||0746365757||Alexutza_alex33@yahoo.com|GLMMNT||1 Glamour CPB Menthol (5mg) Pack|Yes|Yes||CT005063|CONCORDANCE CAFFE|Constanta|CTHRKBA79|161|CCC HRK GLAM FAM Vara 2013|121|Horeca|0
0|CS3531692|2013-08-03 22:32:13|Negoita|Catalina||F|1989-11-12|Tulcea|Tulcea|Mihai eminescu|2|59|F|3|13|0739754214||Catalina_negoitza@yahoo.com|VOGM||1 Glamour CPB Menthol (5mg) Pack|Yes|Yes||CT005063|CONCORDANCE CAFFE|Constanta|CTHRKBA33|161|CCC HRK GLAM FAM Vara 2013|121|Horeca|0
0|CS3531706|2013-08-03 22:33:49|Vasile|Crina||F|1989-04-04|Constanta|CONSTANTA|Repubilicii|78|C3|D|2|33|0722144643||Crina2crinutza89@yahoo.com|PARRSSMH||1 Glamour CPB Menthol (5mg) Pack|Yes|Yes||CT005063|CONCORDANCE CAFFE|Constanta|CTHRKBA79|161|CCC HRK GLAM FAM Vara 2013|121|Horeca|0
0|CS3531709|2013-08-03 22:34:02|Gorgan|Gabriela||F|1980-09-06|Ialomita|Ialomita|Viilor|11|||||0767899033||Gorgan_gabrielayou@yahoo.com|VOGBL||1 Glamour CPB Azure (3 mg) Pack|Yes|Yes||CT005063|CONCORDANCE CAFFE|Constanta|CTHRKBA77|161|CCC HRK GLAM FAM Vara 2013|121|Horeca|0
0|CS3531719|2013-08-03 22:35:13|Eremia|Miruna||F|1989-03-10|Tulcea|Tulcea|Mihai eminscu|2|59|F|3|12|0762908764||Miruna_eremia_bebe@yahoo.com|VIRSAC||1 Glamour CPB Lilac (5 mg) Pack|Yes|Yes||CT005063|CONCORDANCE CAFFE|Constanta|CTHRKBA33|161|CCC HRK GLAM FAM Vara 2013|121|Horeca|0
0|CS3531728|2013-08-03 22:36:16|Ionascu|Diana||F|1988-12-08|Constanta|CONSTANTA|Bucuresti|189|||||0766083224||Diana.didi@yahoo.com|GLMLIL||1 Glamour CPB Lilac (5 mg) Pack|Yes|Yes||CT005063|CONCORDANCE CAFFE|Constanta|CTHRKBA78|161|CCC HRK GLAM FAM Vara 2013|121|Horeca|0
0|CS3531739|2013-08-03 22:37:45|Mihnea|Ana||F|1982-11-21|Constanta|OVIDIU|Bujorului|16|||||0753211744||Mihnea_ana_opr@yahoo.com|VOGLL||1 Glamour CPB Azure (3 mg) Pack|Yes|Yes||CT005063|CONCORDANCE CAFFE|Constanta|CTHRKBA77|161|CCC HRK GLAM FAM Vara 2013|121|Horeca|0
0|CS3531773|2013-08-03 22:41:23|Vergu|Marina||F|1989-04-15|Constanta|Constanta|Bucuresti|32|||||0721770754||Marina_vergu@yahoo.com|VIRSM||1 Glamour CPB Menthol (5mg) Pack|Yes|Yes||CT005063|CONCORDANCE CAFFE|Constanta|CTHRKBA33|161|CCC HRK GLAM FAM Vara 2013|121|Horeca|0
0|CS3531777|2013-08-03 22:42:11|Cabuz|Adelina||F|1983-11-30|Cluj|CLUJ NAPOCA|Nicolae iancu|54|||||0727363832||Ades_adellea@yahoo.com|VIRSAC||1 Glamour CPB Lilac (5 mg) Pack|Yes|Yes||CT005063|CONCORDANCE CAFFE|Constanta|CTHRKBA79|161|CCC HRK GLAM FAM Vara 2013|121|Horeca|0
0|CS3531791|2013-08-03 22:44:14|Holban|Cristina||F|1988-05-03|Constanta|CONSTANTA|Poporului|159|||||0755425775||H.cristinica@yahoo.com|GLMMNT||1 Glamour CPB Menthol (5mg) Pack|Yes|Yes||CT005063|CONCORDANCE CAFFE|Constanta|CTHRKBA78|161|CCC HRK GLAM FAM Vara 2013|121|Horeca|0
0|CS3531793|2013-08-03 22:44:29|Spiridon|Laura||F|1989-06-01|Brasov|BRASOV|Grigorescu|140|||||0725445441||Spiridon_ele@yahoo.com|GLMMNT||1 Glamour CPB Menthol (5mg) Pack|Yes|Yes||CT005063|CONCORDANCE CAFFE|Constanta|CTHRKBA77|161|CCC HRK GLAM FAM Vara 2013|121|Horeca|0
0|CS3531800|2013-08-03 22:45:37|Vergu|Catalina||F|1986-01-14|Constanta|Constanta|Bucuresti|23|||||0734999765||Cata_vergu@yahoo.com|VOGABP||1 Glamour Purse Box Pink FT (5mg) Pack|Yes|Yes||CT005063|CONCORDANCE CAFFE|Constanta|CTHRKBA33|161|CCC HRK GLAM FAM Vara 2013|121|Horeca|0
0|CS3531804|2013-08-03 22:46:22|Fudulea|Tina||F|1983-06-28|Galati|GALATI|Petrache nistor|34|||||0734355556||Tin_tincutza2@yahoo.com|KTSV||1 Glamour CPB Azure (3 mg) Pack|Yes|Yes||CT005063|CONCORDANCE CAFFE|Constanta|CTHRKBA79|161|CCC HRK GLAM FAM Vara 2013|121|Horeca|0
0|CS3531806|2013-08-03 22:46:50|Gruia|Roxana||F|1991-05-28|Constanta|Constanta|Dorobanti|12|A|A|4|28|0746511221||Gruia_ruxi12@yahoo.com|KTNBL||1 Glamour CPB Menthol (5mg) Pack|Yes|Yes||CT005063|CONCORDANCE CAFFE|Constanta|CTHRKBA77|161|CCC HRK GLAM FAM Vara 2013|121|Horeca|0
0|CS3531814|2013-08-03 22:49:18|Dragan|Livia||F|1986-12-26|Bucuresti|Bucuresti|Titu maiorescu|19|A|B|4|33|0744655933||Daga_livi_dragan@yahoo.com|VOGBL||1 Glamour CPB Lilac (5 mg) Pack|Yes|Yes||CT005063|CONCORDANCE CAFFE|Constanta|CTHRKBA77|161|CCC HRK GLAM FAM Vara 2013|121|Horeca|0
0|CS3531833|2013-08-03 22:52:06|Teodorescu|Denisa||F|1982-10-28|Constanta|Constanta|Bd lapusneanu|43|A1|C|2|12|0726272282||Deny_ denisa@yahoo.com|KTWH||1 Glamour CPB Azure (3 mg) Pack|Yes|Yes||CT005063|CONCORDANCE CAFFE|Constanta|CTHRKBA79|161|CCC HRK GLAM FAM Vara 2013|121|Horeca|0
0|CS3531919|2013-08-03 23:10:52|Clinciu|Madalina||F|1992-05-18|Calarasi|Calarasi|23 august|15|7|A|2|15|0725448899||Mada_clinciu@yahoo.com|VIRSAC||1 Glamour CPB Lilac (5 mg) Pack|Yes|Yes||CT005185|Filozofie Urbana SRL|Constanta|CTHRKBA33|161|CCC HRK GLAM FAM Vara 2013|121|Horeca|0
0|CS3531924|2013-08-03 23:11:38|Lazar|Anca||F|1991-05-05|Botosani|BOTOSANI|Mihai viteazu|8|||||0767088122||Lazar_anca@yahoo.com|VIRSM||1 Glamour CPB Menthol (5mg) Pack|Yes|Yes||CT005185|Filozofie Urbana SRL|Constanta|CTHRKBA77|161|CCC HRK GLAM FAM Vara 2013|121|Horeca|0
0|CS3531925|2013-08-03 23:12:10|Fogoros|Ramona||F|1990-05-12|Brasov|BRASOV|Lunga|47|F5|B|||0766750735||Ramo.f05@yahoo.com|VIRSV||1 Glamour CPB Azure (3 mg) Pack|Yes|Yes||CT005185|Filozofie Urbana SRL|Constanta|CTHRKBA78|161|CCC HRK GLAM FAM Vara 2013|121|Horeca|0
0|CS3531935|2013-08-03 23:14:17|Sava|Elena||F|1987-03-11|Tulcea|Tulcea|Rascoleni|49|6|E|3|21|0762788997||Elena_sava_85@yahoo.com|VOGBL||1 Glamour CPB Azure (3 mg) Pack|Yes|Yes||CT005185|Filozofie Urbana SRL|Constanta|CTHRKBA33|161|CCC HRK GLAM FAM Vara 2013|121|Horeca|0
0|CS3531936|2013-08-03 23:14:20|Ghidru|Eliza||F|1989-05-05|Braila|BRAILA|Pacii|75|||||0735668686||Elle_eliza_2u@yahoo.com|GLMMNT||1 Glamour CPB Menthol (5mg) Pack|Yes|Yes||CT005185|Filozofie Urbana SRL|Constanta|CTHRKBA79|161|CCC HRK GLAM FAM Vara 2013|121|Horeca|0
0|CS3531956|2013-08-03 23:19:14|Traian|Viorica||F|1981-09-25|Constanta|CONSTANTA|Victor babes|23|C|A|2|7|0727904431||Traian_viorica44@yahoo.com|GLMLIL||1 Glamour CPB Lilac (5 mg) Pack|Yes|Yes||CT005185|Filozofie Urbana SRL|Constanta|CTHRKBA77|161|CCC HRK GLAM FAM Vara 2013|121|Horeca|0
0|CS3531958|2013-08-03 23:19:24|Cocos|Magda||F|1989-01-21|Constanta|CONSTANTA|Prieteniei|136|||||0744524799||Magdutza.1989@yahoo.com|GLMMNT||1 Glamour CPB Menthol (5mg) Pack|Yes|Yes||CT005185|Filozofie Urbana SRL|Constanta|CTHRKBA78|161|CCC HRK GLAM FAM Vara 2013|121|Horeca|0
0|CS3531960|2013-08-03 23:19:38|Armasescu|Andreea||F|1988-11-14|Constanta|Constanta|Bd alexandru lapusneanu|42|9|D|1|9|0172699954||Andreea_deea_armasescu@yahoo.com|PMSSGR||1 Glamour CPB Menthol (5mg) Pack|Yes|Yes||CT005185|Filozofie Urbana SRL|Constanta|CTHRKBA33|161|CCC HRK GLAM FAM Vara 2013|121|Horeca|0
0|CS3531962|2013-08-03 23:19:57|Falamas|Cristina||F|1977-01-01|Constanta|CONSTANTA|Dacilor|12|F|A|4|40|0721341426||Kisa_kristianutza@yahoo.com|PMSSOR||1 Glamour CPB Lilac (5 mg) Pack|Yes|Yes||CT005185|Filozofie Urbana SRL|Constanta|CTHRKBA79|161|CCC HRK GLAM FAM Vara 2013|121|Horeca|0
0|CS3532029|2013-08-03 23:39:11|Croitoru l|Lucica||F|1985-03-11|Constanta|CONSTANTA|Mugurului|8|||||0729257774||Lusyf3r85@yahoo.com|KTNBK||1 Glamour CPB Lilac (5 mg) Pack|Yes|Yes||CT004056|Restaurant Mediteranean SRL |Constanta|CTHRKBA77|161|CCC HRK GLAM FAM Vara 2013|121|Horeca|0
0|CS3532032|2013-08-03 23:39:47|Cretu|Tatiana||F|1989-10-09|Constanta|Constanta|Poporului|52|||||0723889455||Tatiana_cretu_ofiice@gmail.com|VIRSPR||1 Glamour CPB Lilac (5 mg) Pack|Yes|Yes||CT004056|Restaurant Mediteranean SRL |Constanta|CTHRKBA33|161|CCC HRK GLAM FAM Vara 2013|121|Horeca|0
0|CS3532033|2013-08-03 23:39:54|Tudorie|Anca||F|1979-10-15|Galati|GALATI|Siderurgistilor|39|A3|16|||0741041334||Anca@bnpgalati.com|VIRSM||1 Glamour CPB Menthol (5mg) Pack|Yes|Yes||CT004056|Restaurant Mediteranean SRL |Constanta|CTHRKBA78|161|CCC HRK GLAM FAM Vara 2013|121|Horeca|0
0|CS3532037|2013-08-03 23:40:58|Marga|Ionela||F|1983-09-29|Iasi|Iasi|Vulturului|43|||||0723319283||Ionela.mbt@yahoo.com|GLMBL||1 Glamour CPB Azure (3 mg) Pack|Yes|Yes||CT004056|Restaurant Mediteranean SRL |Constanta|CTHRKBA79|161|CCC HRK GLAM FAM Vara 2013|121|Horeca|0
0|CS3532039|2013-08-03 23:41:57|Cretu|Maria||F|1988-12-14|Constanta|Constanta|Poporului|52|||||0761989333||Cretu_maria@yahoo.com|VOGBL||1 Glamour CPB Azure (3 mg) Pack|Yes|Yes||CT004056|Restaurant Mediteranean SRL |Constanta|CTHRKBA33|161|CCC HRK GLAM FAM Vara 2013|121|Horeca|0
0|CS3532043|2013-08-03 23:43:06|Ivan|Lorena||F|1982-06-26|Constanta|Costinesti|Garii|66|||||0767889433||Ivan_lori33@yahoo.com|KTSV||1 Glamour CPB Lilac (5 mg) Pack|Yes|Yes||CT004056|Restaurant Mediteranean SRL |Constanta|CTHRKBA77|161|CCC HRK GLAM FAM Vara 2013|121|Horeca|0
0|CS3532054|2013-08-03 23:45:19|Tudoriu|Margareta||F|1990-06-01|Bacau|BALANESTI (PODU TURCULUI)|Surcelelor|13|||||0753546677||Marga_marghi@yahoo.com|KTSV||1 Glamour CPB Lilac (5 mg) Pack|Yes|Yes||CT004056|Restaurant Mediteranean SRL |Constanta|CTHRKBA79|161|CCC HRK GLAM FAM Vara 2013|121|Horeca|0
0|CS3532055|2013-08-03 23:45:29|Vintila|Sabrina||F|1988-04-16|Prahova|Ploiesti|Crisanei|20|4|3|1|13|0728995532||Sabrina_vintila@yahoo.com|GLMMNT||1 Glamour CPB Menthol (5mg) Pack|Yes|Yes||CT004056|Restaurant Mediteranean SRL |Constanta|CTHRKBA33|161|CCC HRK GLAM FAM Vara 2013|121|Horeca|0
0|CS3532062|2013-08-03 23:46:14|Barbulescu|Steliana||F|1991-05-08|Constanta|CONSTANTA|Decebal|57|||||0755054663||Steli.steli08@yahoo.com|GLMLIL||1 Glamour CPB Lilac (5 mg) Pack|Yes|Yes||CT004056|Restaurant Mediteranean SRL |Constanta|CTHRKBA78|161|CCC HRK GLAM FAM Vara 2013|121|Horeca|0
0|CS3532063|2013-08-03 23:46:26|Cruceanu|Camelia||F|1992-07-08|Braila|Braila|Castanilor|5|||||0743221775||Cami_cameliutsa@yahoo.com|GLMLIL||1 Glamour CPB Lilac (5 mg) Pack|Yes|Yes||CT004056|Restaurant Mediteranean SRL |Constanta|CTHRKBA77|161|CCC HRK GLAM FAM Vara 2013|121|Horeca|0
0|CS3532080|2013-08-03 23:50:26|Ulinic|Ana||F|1988-11-11|Braila|Braila|Calarasi|27|3|D|2|8|0735993212||Ana_maria_deea@yahoo.com|VOGM||1 Glamour CPB Menthol (5mg) Pack|Yes|Yes||CT004056|Restaurant Mediteranean SRL |Constanta|CTHRKBA33|161|CCC HRK GLAM FAM Vara 2013|121|Horeca|0
0|CS3532081|2013-08-03 23:50:31|Alecu|Ciprian||F|1993-06-24|Constanta|CONSTANTA|Hasdeu|87p|||||0728936002||Cipri2306@yahoo.com|DAVGLSS||1 Glamour CPB Lilac (5 mg) Pack|Yes|No||CT004056|Restaurant Mediteranean SRL |Constanta|CTHRKBA78|161|CCC HRK GLAM FAM Vara 2013|121|Horeca|0
0|CS3532089|2013-08-03 23:51:31|Vieriu|Cristiana||F|1989-04-01|Constanta|CONSTANTA|Soveja|98|D5|D|2|13|0727282666||Cristina_tina@yahoo.com|VIRSAC||1 Glamour CPB Lilac (5 mg) Pack|Yes|Yes||CT004056|Restaurant Mediteranean SRL |Constanta|CTHRKBA79|161|CCC HRK GLAM FAM Vara 2013|121|Horeca|0
0|CS3532094|2013-08-03 23:52:10|Rusu|Nicolae||F|1993-04-02|Sibiu|SIBIU|Cetatii|26|||||0788299930||Rusu.nicu20@yahoo.com|GLMBL||1 Glamour CPB Azure (3 mg) Pack|Yes|No||CT004056|Restaurant Mediteranean SRL |Constanta|CTHRKBA78|161|CCC HRK GLAM FAM Vara 2013|121|Horeca|0
0|CS3532097|2013-08-03 23:52:21|Novac|Uxandra||F|1991-05-05|Calarasi|CALARASI|Plopeni|45|||||0767889554|||KTNBL||1 Glamour CPB Lilac (5 mg) Pack|Yes|Yes||CT004056|Restaurant Mediteranean SRL |Constanta|CTHRKBA77|161|CCC HRK GLAM FAM Vara 2013|121|Horeca|0
0|CS3532118|2013-08-03 23:57:38|Vatafu|Catalina||F|1990-03-12|Braila|Braila|Ic bratianu|10|||||0727005322||Cata_vatafu@yahoo.com|VOGBL||1 Glamour CPB Azure (3 mg) Pack|Yes|Yes||CT004056|Restaurant Mediteranean SRL |Constanta|CTHRKBA33|161|CCC HRK GLAM FAM Vara 2013|121|Horeca|0
0|CS3532120|2013-08-03 23:58:28|Firibu|Flavia||F|1983-11-29|Constanta|CONSTANTA|Aurel vlaicu|143|V2|A|5|56|0723738292||Flaviutza-flavy8@yahoo.com|VIRSM||1 Glamour CPB Menthol (5mg) Pack|Yes|Yes||CT004056|Restaurant Mediteranean SRL |Constanta|CTHRKBA79|161|CCC HRK GLAM FAM Vara 2013|121|Horeca|0
0|CS3532121|2013-08-03 23:58:33|Coman|Anamaria||F|1980-10-25|Constanta|CONSTANTA|Bd mamaia|62|A|A|8|77|0766442993||Ana_mariacoman@yahoo.com|GLMLIL||1 Glamour CPB Lilac (5 mg) Pack|Yes|Yes||CT004056|Restaurant Mediteranean SRL |Constanta|CTHRKBA77|161|CCC HRK GLAM FAM Vara 2013|121|Horeca|0
0|CS3532138|2013-08-04 00:03:48|State|Daniela||F|1983-09-28|Constanta|CONSTANTA|Eliberarii|4|C|A|7|10|0767889443||Satate_dani@yahoo.com|KTWH||1 Glamour CPB Azure (3 mg) Pack|Yes|Yes||CT000708|AMI COM SRL|Constanta|CTHRKBA77|161|CCC HRK GLAM FAM Vara 2013|121|Horeca|0
0|CS3532139|2013-08-04 00:03:55|Stefanov|Corina||F|1988-09-05|Constanta|Constanta|Vlad tepes|58|||||0725998542||Coru_stefy@yahoo.com|VOGBL||1 Glamour CPB Azure (3 mg) Pack|Yes|Yes||CT000708|AMI COM SRL|Constanta|CTHRKBA33|161|CCC HRK GLAM FAM Vara 2013|121|Horeca|0
0|CS3532142|2013-08-04 00:04:03|Raducan|Mihaela||F|1992-10-13|Constanta|CONSTANTA|Bratianu|108|Ib|A|||0755768453||Miha.raducan@yahoo.com|GLMBL||1 Glamour CPB Azure (3 mg) Pack|Yes|Yes||CT000708|AMI COM SRL|Constanta|CTHRKBA78|161|CCC HRK GLAM FAM Vara 2013|121|Horeca|0
0|CS3532144|2013-08-04 00:04:19|Crimu|Diana||F|1984-10-30|Bucuresti|Bucuresti|Victoriei|123|||||0726292629||Dias_dias@yahoo.com|GLMLIL||1 Glamour CPB Lilac (5 mg) Pack|Yes|Yes||CT000708|AMI COM SRL|Constanta|CTHRKBA79|161|CCC HRK GLAM FAM Vara 2013|121|Horeca|0
0|CS3532150|2013-08-04 00:06:01|Angelescu|Maria||F|1989-03-26|Constanta|CONSTANTA|Corbului|26|||||0720324552||Maria_angy@yahoo.com|KTSV||1 Glamour CPB Lilac (5 mg) Pack|Yes|No||CT000708|AMI COM SRL|Constanta|CTHRKBA78|161|CCC HRK GLAM FAM Vara 2013|121|Horeca|0
0|CS3532152|2013-08-04 00:06:34|Sava|Cosmina||F|1986-12-27|Bucuresti|Bucuresti|Anghel salighny|20|||||0749081155||Cosmina_sava12@yahoo.com|WISSS||1 Glamour CPB Azure (3 mg) Pack|Yes|Yes||CT000708|AMI COM SRL|Constanta|CTHRKBA77|161|CCC HRK GLAM FAM Vara 2013|121|Horeca|0
0|CS3532154|2013-08-04 00:06:40|Vanca|Roxana||F|1989-07-30|Constanta|Constanta|Mircesti|67|38|D|1|10|0723990755||Roxi_vanca@yahoo.com|VOGLL||1 Glamour CPB Lilac (5 mg) Pack|Yes|Yes||CT000708|AMI COM SRL|Constanta|CTHRKBA33|161|CCC HRK GLAM FAM Vara 2013|121|Horeca|0
0|CS3532155|2013-08-04 00:06:45|Chirita|Andreea||F|1983-10-01|Constanta|CONSTANTA|Cismelei|45|F|A|1|6|0743456868||Andreeas_andra@yahoo.com|GLMBL||1 Glamour CPB Azure (3 mg) Pack|Yes|Yes||CT000708|AMI COM SRL|Constanta|CTHRKBA79|161|CCC HRK GLAM FAM Vara 2013|121|Horeca|0
0|CS3532159|2013-08-04 00:07:40|Apostol|Victoria||F|1983-06-08|Constanta|CONSTANTA|Sos mangaliei|152|||||0765092441||Viki.apostol@yahoo.com|VIRSM||1 Glamour CPB Menthol (5mg) Pack|Yes|Yes||CT000708|AMI COM SRL|Constanta|CTHRKBA78|161|CCC HRK GLAM FAM Vara 2013|121|Horeca|0
0|CS3532168|2013-08-04 00:08:42|Badoi|Florentina||F|1982-07-27|Bucuresti|Bucuresti|Tirani|12|A|C|8|55|0734224044||Badoi_flory.flory@yahoo.com|KTSV||1 Glamour CPB Lilac (5 mg) Pack|Yes|Yes||CT000708|AMI COM SRL|Constanta|CTHRKBA77|161|CCC HRK GLAM FAM Vara 2013|121|Horeca|0
0|CS3532169|2013-08-04 00:08:56|Pitus|Victoria||F|1983-09-29|Constanta|CONSTANTA|Calarasi|23|||||0721121441||Viky_vectos@yahoo.com|VIRSV||1 Glamour CPB Azure (3 mg) Pack|Yes|Yes||CT000708|AMI COM SRL|Constanta|CTHRKBA79|161|CCC HRK GLAM FAM Vara 2013|121|Horeca|0
0|CS3532187|2013-08-04 00:15:41|Mircea|Iustina||F|1988-09-09|Constanta|Constanta|Eliberarii|21|49|D|1|10|0734889654||Iustina_mircea@yahoo.com|VIRSPR||1 Glamour CPB Lilac (5 mg) Pack|Yes|Yes||CT000708|AMI COM SRL|Constanta|CTHRKBA33|161|CCC HRK GLAM FAM Vara 2013|121|Horeca|0
0|CS3532211|2013-08-04 00:25:43|Badiu|Cristina||F|1988-09-11|Constanta|Constanta|Poporuluo|21|||||0761789965||Cristina_badiu@yahoo.com|VOGBL||1 Glamour CPB Azure (3 mg) Pack|Yes|Yes||CT000708|AMI COM SRL|Constanta|CTHRKBA78|161|CCC HRK GLAM FAM Vara 2013|121|Horeca|0
0|CS3532213|2013-08-04 00:27:54|Badiu|Magdalena||F|1989-12-07|Constanta|Constanta|Poporului|21|||||0734997654|||VIRSV||1 Glamour CPB Azure (3 mg) Pack|Yes|Yes||CT000708|AMI COM SRL|Constanta|CTHRKBA78|161|CCC HRK GLAM FAM Vara 2013|121|Horeca|0
0|CS3534477|2013-08-04 20:04:41|Chirica|Laura||F|1989-11-02|Constanta|CONSTANTA|Theodor burada|59|||||0755745332||Laura.bby.02@yahoo.com|VIRSPR||1 Glamour CPB Lilac (5 mg) Pack|Yes|Yes||CT001910|Amalfi Inc|Constanta|CTHRKBA78|161|CCC HRK GLAM FAM Vara 2013|121|Horeca|0
0|CS3534478|2013-08-04 20:05:00|Croitorescu|Ingrid||F|1990-06-26|Constanta|CONSTANTA|Tulcei|43|B|A|3|15|0754322877||Croitorescu_ion@yahoo.com|VIRSM||1 Glamour CPB Menthol (5mg) Pack|Yes|Yes||CT001910|Amalfi Inc|Constanta|CTHRKBA77|161|CCC HRK GLAM FAM Vara 2013|121|Horeca|0
0|CS3534483|2013-08-04 20:06:05|Resid|Sibel||F|1988-01-14|Bucuresti|3|Morii|2|21|A|1|14|0737983212||Sibel_resid@yahoo.com|VOGM||1 Glamour CPB Menthol (5mg) Pack|Yes|Yes||CT001910|Amalfi Inc|Constanta|CTHRKBA33|161|CCC HRK GLAM FAM Vara 2013|121|Horeca|0
0|CS3534488|2013-08-04 20:07:05|Abaseaca|Daniela||F|1986-11-30|Bucuresti|Bucuresti|Abanosului|156|S|F|1|45|0765657565||Dannes_abasec@yahoo.com|GLMMNT||1 Glamour CPB Menthol (5mg) Pack|Yes|Yes||CT001910|Amalfi Inc|Constanta|CTHRKBA79|161|CCC HRK GLAM FAM Vara 2013|121|Horeca|0
0|CS3534505|2013-08-04 20:11:08|Eremia|Iulia||F|1990-01-05|Constanta|CONSTANTA|Bd mamaia|74|F6|A|||0764522436||Jullya_90@yahoo.com|VOGM||1 Glamour CPB Menthol (5mg) Pack|Yes|Yes||CT001910|Amalfi Inc|Constanta|CTHRKBA78|161|CCC HRK GLAM FAM Vara 2013|121|Horeca|0
0|CS3534510|2013-08-04 20:12:29|Mircea|Alexandra||F|1989-12-15|Prahova|Ploiesti|Plopului|16|4|D|2|9|0732689654||Mircea_alexxutzaa@yahoo.com|VOGABP||1 Glamour CPB Lilac (5 mg) Pack|Yes|Yes||CT001910|Amalfi Inc|Constanta|CTHRKBA33|161|CCC HRK GLAM FAM Vara 2013|121|Horeca|0
0|CS3534520|2013-08-04 20:14:59|Gadea|Diana||F|1979-07-01|Galati|TECUCI|Crasnei|65|||||0743044332||Gadea_dia76@yahoo.com|GLMBL||1 Glamour CPB Azure (3 mg) Pack|Yes|Yes||CT001910|Amalfi Inc|Constanta|CTHRKBA77|161|CCC HRK GLAM FAM Vara 2013|121|Horeca|0
0|CS3534524|2013-08-04 20:15:35|Vriscu|Adriana||F|1980-09-28|Arad|Arad|Condurului|34|||||0721212324||Adra_adrianas@yahoo.com|VIRSM||1 Glamour CPB Menthol (5mg) Pack|Yes|Yes||CT001910|Amalfi Inc|Constanta|CTHRKBA79|161|CCC HRK GLAM FAM Vara 2013|121|Horeca|0
0|CS3534536|2013-08-04 20:20:06|Aldea|Bianca||F|1992-01-26|Bucuresti|SECTOR 3|Jiului|76|Cf6|C|||0755855464||Bya.bya@yahoo.com|KTSV||1 Glamour CPB Azure (3 mg) Pack|Yes|Yes||CT001910|Amalfi Inc|Constanta|CTHRKBA78|161|CCC HRK GLAM FAM Vara 2013|121|Horeca|0
0|CS3534539|2013-08-04 20:20:10|Caracostea|Alina||F|1986-12-14|Tulcea|Tulcea|Bucuresti|13|||||0723896546||Alna_caracosyea@yahoo.com|VIRSM||1 Glamour CPB Menthol (5mg) Pack|Yes|Yes||CT001910|Amalfi Inc|Constanta|CTHRKBA33|161|CCC HRK GLAM FAM Vara 2013|121|Horeca|0
0|CS3534562|2013-08-04 20:25:42|Gurzu|Marcela||F|1986-02-14|Iasi|Iasi|Mircea voda|21|7|D|1|9|0762447789||Marcela_gurzu@yahoo.com|VIRSV||1 Glamour CPB Lilac (5 mg) Pack|Yes|Yes||CT001910|Amalfi Inc|Constanta|CTHRKBA33|161|CCC HRK GLAM FAM Vara 2013|121|Horeca|0
0|CS3534564|2013-08-04 20:25:48|Salcudeanu|Alina||F|1984-06-24|Constanta|CONSTANTA|Onesti|165|||||0744215647||Aly_salcudeanu@yahoo.com|PARRSSMH||1 Glamour CPB Menthol (5mg) Pack|Yes|Yes||CT001910|Amalfi Inc|Constanta|CTHRKBA78|161|CCC HRK GLAM FAM Vara 2013|121|Horeca|0
0|CS3534568|2013-08-04 20:26:11|Punga|Viorica||F|1979-04-04|Constanta|Constanta|ion roata|67|E4|D|1|13|0713638229||Vio_flor5@yahoo.com|VOGLL||1 Glamour CPB Lilac (5 mg) Pack|Yes|Yes||CT001910|Amalfi Inc|Constanta|CTHRKBA79|161|CCC HRK GLAM FAM Vara 2013|121|Horeca|0
0|CS3534578|2013-08-04 20:28:15|Geaman|Grigora||F|1982-07-26|Braila|Braila|Bratiescu|44|A|A1|5|43|0767410094||Geamangrigora_war@yahoo.com|VOGBL||1 Glamour CPB Lilac (5 mg) Pack|Yes|Yes||CT001910|Amalfi Inc|Constanta|CTHRKBA77|161|CCC HRK GLAM FAM Vara 2013|121|Horeca|0
0|CS3534667|2013-08-04 20:45:31|Cusa|Mioara||F|1972-08-06|Constanta|CONSTANTA|Steagului|67|||0|0|0741210006||cusamioara@yahoo.com|GLMLIL||1 Glamour CPB Lilac (5 mg) Pack|Yes|Yes||CT004657|ETROMARE SRL|Constanta|CTHRKBA78|161|CCC HRK GLAM FAM Vara 2013|121|Horeca|0
0|CS3534678|2013-08-04 20:47:31|Savuica|Crina||F|1988-02-12|Bucuresti|2|Marinei|28|||||0761578754||Crina_savioca@yahoo.com|VIRSM||1 Glamour CPB Menthol (5mg) Pack|Yes|Yes||CT004657|ETROMARE SRL|Constanta|CTHRKBA33|161|CCC HRK GLAM FAM Vara 2013|121|Horeca|0
0|CS3534684|2013-08-04 20:48:20|Albulescu|Irina||F|1980-08-07|Hunedoara|Deva|Filip manu|66|A|B|4|12|0737855433||Albulescu_irias@yahoo.com|KTWH||1 Glamour CPB Azure (3 mg) Pack|Yes|Yes||CT004657|ETROMARE SRL|Constanta|CTHRKBA77|161|CCC HRK GLAM FAM Vara 2013|121|Horeca|0
0|CS3534690|2013-08-04 20:49:37|Lovus|Nicoleta||F|1982-09-29|Alba|ALBA IULIA|Al cel bun|47|A1|B|3|56|0746465576||Nicoleta_nim@yahoo.com|KTSV||1 Glamour CPB Menthol (5mg) Pack|Yes|Yes||CT004657|ETROMARE SRL|Constanta|CTHRKBA79|161|CCC HRK GLAM FAM Vara 2013|121|Horeca|0
0|CS3534696|2013-08-04 20:50:25|Pustiu|Manuela||F|1989-02-13|Bucuresti|2|Marinei|39|||||0761368965||Manu_89@yahoo.com|VOGABP||1 Glamour Purse Box Pink FT (5mg) Pack|Yes|Yes||CT004657|ETROMARE SRL|Constanta|CTHRKBA33|161|CCC HRK GLAM FAM Vara 2013|121|Horeca|0
0|CS3534703|2013-08-04 20:51:08|Militaru|Adina||F|1990-05-28|Constanta|CONSTANTA|Albatros|63|Ip4|D|||0723132551||Ady_nutza05@yahoo.com|VOGM||1 Glamour CPB Menthol (5mg) Pack|Yes|Yes||CT004657|ETROMARE SRL|Constanta|CTHRKBA78|161|CCC HRK GLAM FAM Vara 2013|121|Horeca|0
0|CS3534736|2013-08-04 20:57:23|Ifrim|Minodora||F|1982-01-01|Bucuresti|Bucuresti|Albulesti|46|||||0754556678||Minis_minidor@yahoo.com|VIRSV||1 Glamour CPB Azure (3 mg) Pack|Yes|Yes||CT004657|ETROMARE SRL|Constanta|CTHRKBA79|161|CCC HRK GLAM FAM Vara 2013|121|Horeca|0
0|CS3534738|2013-08-04 20:57:38|Grigorescu|Alina||F|1979-05-26|Bucuresti|Bucuresti|Albatros|113|||||0767883211||Grigorescu_alina@yahoo.com|VOGM||1 Glamour CPB Menthol (5mg) Pack|Yes|Yes||CT004657|ETROMARE SRL|Constanta|CTHRKBA77|161|CCC HRK GLAM FAM Vara 2013|121|Horeca|0
0|CS3534742|2013-08-04 20:58:01|Stefan|Alexandra||F|1987-03-24|Constanta|CONSTANTA|Egretei|47|H3|A|||0755905446||Alexa.alexandra@yahoo.com|VOGM||1 Glamour CPB Menthol (5mg) Pack|Yes|Yes||CT004657|ETROMARE SRL|Constanta|CTHRKBA78|161|CCC HRK GLAM FAM Vara 2013|121|Horeca|0
0|CS3534748|2013-08-04 20:58:43|Cecina|Izabela||F|1988-02-15|Calarasi|Calarasi|Dorobanti|3|2|C|2|13|0762890865||Iza_cecina@yahoo.com|GLMBL||1 Glamour CPB Azure (3 mg) Pack|Yes|Yes||CT004657|ETROMARE SRL|Constanta|CTHRKBA33|161|CCC HRK GLAM FAM Vara 2013|121|Horeca|0
0|CS3534766|2013-08-04 21:02:54|Badulet|Anca||F|1980-09-28|Constanta|CONSTANTA|Adamclisi|A|F|C|3|31|0763646566||Anca_bad@yahoo.com|KTSV||1 Glamour CPB Menthol (5mg) Pack|Yes|Yes||CT004657|ETROMARE SRL|Constanta|CTHRKBA79|161|CCC HRK GLAM FAM Vara 2013|121|Horeca|0
0|CS3534770|2013-08-04 21:03:37|Hriscu|Florentina||F|1993-05-25|Iasi|IASI|Grigorescu alexandru|332|||||0757331884||Angelfor_unu@yahoo.com|KTNWH||1 Glamour CPB Azure (3 mg) Pack|Yes|Yes||CT004657|ETROMARE SRL|Constanta|CTHRKBA77|161|CCC HRK GLAM FAM Vara 2013|121|Horeca|0
0|CS3534771|2013-08-04 21:03:47|Negutu|Valentina||F|1991-04-12|Braila|Braila|Crizantemei|10|30|C|2|10|0762890765||Valentina_valy@yahoo.com|VOGBL||1 Glamour CPB Azure (3 mg) Pack|Yes|Yes||CT004657|ETROMARE SRL|Constanta|CTHRKBA33|161|CCC HRK GLAM FAM Vara 2013|121|Horeca|0
0|CS3534772|2013-08-04 21:03:48|Dumitrescu|Ifigenia||F|1988-03-07|Bucuresti|SECTOR 4|Cutezatorilor|32|||||0745447095||Ifigenia.boni@yahoo.com|GLMLIL||1 Glamour CPB Lilac (5 mg) Pack|Yes|Yes||CT004657|ETROMARE SRL|Constanta|CTHRKBA78|161|CCC HRK GLAM FAM Vara 2013|121|Horeca|0
0|CS3534782|2013-08-04 21:05:28|Gicu|Adelina||F|1982-09-29|Constanta|Constanta|Pelicanului|68|||||0743546478||Adel_adelinne@yahoo.com|PARRSSMH||1 Glamour CPB Menthol (5mg) Pack|Yes|Yes||CT004657|ETROMARE SRL|Constanta|CTHRKBA79|161|CCC HRK GLAM FAM Vara 2013|121|Horeca|0
0|CS3534863|2013-08-04 21:28:20|Iliescu|Geanina||F|1981-10-27|Brasov|BUCIUM|Stefan cel mare|8|A|A|1|6|0727800911||Iliescu_geani_giani@yahoo.com|VIRSM||1 Glamour CPB Menthol (5mg) Pack|Yes|Yes||CT004822|Event Club Crush|Constanta|CTHRKBA77|161|CCC HRK GLAM FAM Vara 2013|121|Horeca|0
0|CS3534869|2013-08-04 21:29:11|Garciu|Lidia||F|1989-09-11|Constanta|CONSTANTA|Mircea cel batran|172|||||0725432557||Lidia.g11@yahoo.com|GLMMNT||1 Glamour CPB Menthol (5mg) Pack|Yes|Yes||CT004822|Event Club Crush|Constanta|CTHRKBA78|161|CCC HRK GLAM FAM Vara 2013|121|Horeca|0
0|CS3534872|2013-08-04 21:29:42|Voicu|Alina||F|1990-02-23|Brasov|Brasov|Colinei|35b|||||0734997653||Alinutzaa_voicu@yahoo.com|VIRSM||1 Glamour CPB Menthol (5mg) Pack|Yes|Yes||CT004822|Event Club Crush|Constanta|CTHRKBA33|161|CCC HRK GLAM FAM Vara 2013|121|Horeca|0
0|CS3534876|2013-08-04 21:30:17|Barbes|Ionica||F|1979-10-28|Bucuresti|Bucuresti|Cismelei|122|F|A|4|44|0743545465||Ioniioni@yahoo.com|VOGBL||1 Glamour CPB Azure (3 mg) Pack|Yes|Yes||CT004822|Event Club Crush|Constanta|CTHRKBA79|161|CCC HRK GLAM FAM Vara 2013|121|Horeca|0
0|CS3534886|2013-08-04 21:31:56|Ifrim|Francisca||F|1989-09-08|Buzau|Buzau|Vrancei|95|||||0767554996||Franci_ifrim@yahoo.com|GLMBL||1 Glamour CPB Azure (3 mg) Pack|Yes|Yes||CT004822|Event Club Crush|Constanta|CTHRKBA77|161|CCC HRK GLAM FAM Vara 2013|121|Horeca|0
0|CS3534893|2013-08-04 21:33:10|Tatu|Cipriana||F|1992-03-07|Olt|Slatina|Mirilor|5|56|A|3|21|0752789043||Cipri_tatu@yahoo.com|VOGLL||1 Glamour CPB Lilac (5 mg) Pack|Yes|Yes||CT004822|Event Club Crush|Constanta|CTHRKBA33|161|CCC HRK GLAM FAM Vara 2013|121|Horeca|0
0|CS3534897|2013-08-04 21:34:48|Coman|Bianca||F|1990-05-04|Constanta|CUMPANA|Principala|65|||||0721335565||Bebe_b3_bib@yahoo.com|KTSV||1 Glamour CPB Lilac (5 mg) Pack|Yes|Yes||CT004822|Event Club Crush|Constanta|CTHRKBA79|161|CCC HRK GLAM FAM Vara 2013|121|Horeca|0
0|CS3534908|2013-08-04 21:35:57|Gospodin|Camelia||F|1990-12-11|Bucuresti|SECTOR 4|Ion roata|184|||||0725489006||Camytza_g@yahoo.com|KTSV||1 Glamour CPB Azure (3 mg) Pack|Yes|No||CT004822|Event Club Crush|Constanta|CTHRKBA78|161|CCC HRK GLAM FAM Vara 2013|121|Horeca|0
0|CS3534913|2013-08-04 21:37:30|Marin|Iunona||F|1993-12-18|Cluj|CLUJ NAPOCA|Sagetei|13|||||0725996424||Iunona_marin@yahoo.com|GLMMNT||1 Glamour CPB Menthol (5mg) Pack|Yes|Yes||CT004822|Event Club Crush|Constanta|CTHRKBA33|161|CCC HRK GLAM FAM Vara 2013|121|Horeca|0
0|CS3534928|2013-08-04 21:41:15|Saimu|Adela||F|1979-09-11|Calarasi|CALARASI|Frasinuli|11|||||0767990422||Saimu_adelina@yahoo.com|WISSB||1 Glamour CPB Lilac (5 mg) Pack|Yes|Yes||CT004822|Event Club Crush|Constanta|CTHRKBA77|161|CCC HRK GLAM FAM Vara 2013|121|Horeca|0
0|CS3534930|2013-08-04 21:42:19|Oprea|Ionela||F|1988-11-17|Bucuresti|5|Baldovin|30|||||0761479854||Oprea_ionella@yahoo.com|VOGBL||1 Glamour CPB Azure (3 mg) Pack|Yes|Yes||CT004822|Event Club Crush|Constanta|CTHRKBA33|161|CCC HRK GLAM FAM Vara 2013|121|Horeca|0
0|CS3534931|2013-08-04 21:42:21|Micu|Nicoleta||F|1974-12-06|Constanta|CONSTANTA|Dezrobirii|10|||0|0|0728603152||Nicoleta_micu@yahoo.com|GLMLIL||1 Glamour CPB Lilac (5 mg) Pack|Yes|Yes||CT004822|Event Club Crush|Constanta|CTHRKBA79|161|CCC HRK GLAM FAM Vara 2013|121|Horeca|0
0|CS3534949|2013-08-04 21:46:16|Utupan|Simona||F|1983-07-03|Constanta|CONSTANTA|Prieteniei|142|||||0766453657||Blondy.symy@yahoo.com|VIRSV||1 Glamour CPB Azure (3 mg) Pack|Yes|Yes||CT004822|Event Club Crush|Constanta|CTHRKBA78|161|CCC HRK GLAM FAM Vara 2013|121|Horeca|0
0|CS3534951|2013-08-04 21:46:32|Ghinescu|Adinuta||F|1981-10-26|Arad|Arad|Castanilor|55|||||0767885432|||KTSV||1 Glamour CPB Lilac (5 mg) Pack|Yes|Yes||CT004822|Event Club Crush|Constanta|CTHRKBA77|161|CCC HRK GLAM FAM Vara 2013|121|Horeca|0
0|CS3534956|2013-08-04 21:47:36|Trisu|Alexandra||F|1984-06-29|Brasov|Brasov|Afronise|45|||||0743546477||Aalexa_alexik@yahoo.com|VIRSV||1 Glamour CPB Azure (3 mg) Pack|Yes|Yes||CT004822|Event Club Crush|Constanta|CTHRKBA79|161|CCC HRK GLAM FAM Vara 2013|121|Horeca|0
0|CS3534967|2013-08-04 21:51:16|Crisan|Aurora||F|1987-10-09|Brasov|Brasov|Telmitei|38|5|E|1|8|0745998755||Aurora_crs@yahoo.com|PARRSSMH||1 Glamour CPB Menthol (5mg) Pack|Yes|Yes||CT004822|Event Club Crush|Constanta|CTHRKBA33|161|CCC HRK GLAM FAM Vara 2013|121|Horeca|0
0|CS3534971|2013-08-04 21:51:42|Tutuianu|Alexandra||F|1986-12-07|Brasov|BRASOV|Lunga|76|||||0720889752||Tutu.alexa@yahoo.com|PMSSGR||1 Glamour CPB Menthol (5mg) Pack|Yes|Yes||CT004822|Event Club Crush|Constanta|CTHRKBA78|161|CCC HRK GLAM FAM Vara 2013|121|Horeca|0
0|CS3535009|2013-08-04 22:07:33|Stoian|Antoaneta||F|1989-03-09|Constanta|CONSTANTA|Ioan ursu|51|N2a|B|||0762827373||Tonitza_26@yahoo.com|VOGLL||1 Glamour CPB Lilac (5 mg) Pack|Yes|Yes||CT004093|CRICOROM TURISM SRL TERASA AZA|Constanta|CTHRKBA78|161|CCC HRK GLAM FAM Vara 2013|121|Horeca|0
0|CS3535011|2013-08-04 22:07:56|Agatutei|Mihaela||F|1984-01-14|Constanta|CONSTANTA|Ion ghiculescu|79|||||0767952001||Mihailaducas@yahoo.com|VOGABP||1 Glamour CPB Lilac (5 mg) Pack|Yes|Yes||CT004093|CRICOROM TURISM SRL TERASA AZA|Constanta|CTHRKBA77|161|CCC HRK GLAM FAM Vara 2013|121|Horeca|0
0|CS3535013|2013-08-04 22:09:20|Anghel|Doriana||F|1989-03-15|Bucuresti|2|Colentinei|79|||||0745996432||Dori.anghel@yahoo.com|KTSV||1 Glamour CPB Azure (3 mg) Pack|Yes|Yes||CT004093|CRICOROM TURISM SRL TERASA AZA|Constanta|CTHRKBA33|161|CCC HRK GLAM FAM Vara 2013|121|Horeca|0
0|CS3535014|2013-08-04 22:09:30|Patrache|Marga||F|1986-01-01|Bucuresti|Bucuresti|Olanesti|34|||||0756575857||Margerg@yahoo.com|GLMMNT||1 Glamour CPB Menthol (5mg) Pack|Yes|Yes||CT004093|CRICOROM TURISM SRL TERASA AZA|Constanta|CTHRKBA79|161|CCC HRK GLAM FAM Vara 2013|121|Horeca|0
0|CS3535018|2013-08-04 22:12:02|Viseanu|Laura||F|1981-07-21|Giurgiu|Giurgiu|Vasile lupu|89|||||0766866044||Viseanu.laura@yahoo.com|VOGM||1 Glamour CPB Menthol (5mg) Pack|Yes|Yes||CT004093|CRICOROM TURISM SRL TERASA AZA|Constanta|CTHRKBA77|161|CCC HRK GLAM FAM Vara 2013|121|Horeca|0
0|CS3535021|2013-08-04 22:12:31|Cucu|Magdalena||F|1988-10-09|Brasov|Brasov|Titu maiorescu|1|39|A|3|8|0728542256||Magda_cucu@yahoo.com|VIRSPR||1 Glamour CPB Lilac (5 mg) Pack|Yes|Yes||CT004093|CRICOROM TURISM SRL TERASA AZA|Constanta|CTHRKBA33|161|CCC HRK GLAM FAM Vara 2013|121|Horeca|0
0|CS3535022|2013-08-04 22:12:53|Titu|Mihaela||F|1982-06-27|Constanta|Cnstanta|Aleea lalelelor|45|||||0765767678||Make_miki@yahoo.com|VIRSM||1 Glamour CPB Menthol (5mg) Pack|Yes|Yes||CT004093|CRICOROM TURISM SRL TERASA AZA|Constanta|CTHRKBA79|161|CCC HRK GLAM FAM Vara 2013|121|Horeca|0
0|CS3535024|2013-08-04 22:14:13|Crisan|Flavia||F|1991-08-01|Constanta|Cernavoda|Catrina emilian|10|||||0787443223||Crisan33flavi@yahoo.com|GLPBMNFT||1 Glamour CPB Menthol (5mg) Pack|Yes|Yes||CT004093|CRICOROM TURISM SRL TERASA AZA|Constanta|CTHRKBA77|161|CCC HRK GLAM FAM Vara 2013|121|Horeca|0
0|CS3535025|2013-08-04 22:14:49|Mirescu|Maria||F|1986-04-17|Constanta|CONSTANTA|Marinarilor|179|||||0745335476||Maria17.86@yahoo.com|GLPBPKFT||1 Glamour Purse Box Pink FT (5mg) Pack|Yes|Yes||CT004093|CRICOROM TURISM SRL TERASA AZA|Constanta|CTHRKBA78|161|CCC HRK GLAM FAM Vara 2013|121|Horeca|0
0|CS3535026|2013-08-04 22:14:54|Ichim|Stefana||F|1986-10-12|Constanta|Constanta|Ion roata|4|30|G|2|8|0768542115|||VOGM||1 Glamour CPB Menthol (5mg) Pack|Yes|Yes||CT004093|CRICOROM TURISM SRL TERASA AZA|Constanta|CTHRKBA33|161|CCC HRK GLAM FAM Vara 2013|121|Horeca|0
0|CS3535033|2013-08-04 22:16:16|Lates|Livia||F|1980-10-30|Botosani|Botosani|Plumbului|56|||||0755656568||Liv_loveu@yahoo.com|GLMBL||1 Glamour CPB Azure (3 mg) Pack|Yes|Yes||CT004093|CRICOROM TURISM SRL TERASA AZA|Constanta|CTHRKBA79|161|CCC HRK GLAM FAM Vara 2013|121|Horeca|0
0|CS3535037|2013-08-04 22:17:56|Pana|Liliana||F|1982-09-29|Constanta|MANGALIA|Brizei|23|||||0721424545||Liliannes2@yahoo.com|VOGLL||1 Glamour CPB Lilac (5 mg) Pack|Yes|Yes||CT004093|CRICOROM TURISM SRL TERASA AZA|Constanta|CTHRKBA79|161|CCC HRK GLAM FAM Vara 2013|121|Horeca|0
0|CS3535038|2013-08-04 22:18:12|Visan|Simona||F|1989-01-16|Calarasi|Calarasi|Micro 3|134|||||0728653190||Simona_visan_59@yahoo.com|GLMBL||1 Glamour CPB Azure (3 mg) Pack|Yes|Yes||CT004093|CRICOROM TURISM SRL TERASA AZA|Constanta|CTHRKBA33|161|CCC HRK GLAM FAM Vara 2013|121|Horeca|0
0|CS3535040|2013-08-04 22:18:54|Cioroianu|Andra||F|1990-08-09|Bucuresti|SECTOR 3|Trandafirului|126|||||0734547668||Andra.ita@yahoo.com|DAVGLSS||1 Glamour CPB Lilac (5 mg) Pack|Yes|Yes||CT004093|CRICOROM TURISM SRL TERASA AZA|Constanta|CTHRKBA78|161|CCC HRK GLAM FAM Vara 2013|121|Horeca|0
0|CS3535045|2013-08-04 22:23:40|Vijianu|Gabriela||F|1980-07-27|Botosani|Botosani|Grecului|88|||||0767443110|||KTSV||1 Glamour CPB Lilac (5 mg) Pack|Yes|Yes||CT003940|CRICOROM TURISM SRL TERASA MOTOR|Constanta|CTHRKBA77|161|CCC HRK GLAM FAM Vara 2013|121|Horeca|0
0|CS3535046|2013-08-04 22:24:10|Maghireanu|Emilia||F|1988-07-10|Brasov|Brasov|Mirceni|37|50|D|2|15|0628076445||Em_mahir@yahoo.com|VIRSPR||1 Glamour CPB Lilac (5 mg) Pack|Yes|Yes||CT003940|CRICOROM TURISM SRL TERASA MOTOR|Constanta|CTHRKBA33|161|CCC HRK GLAM FAM Vara 2013|121|Horeca|0
0|CS3535050|2013-08-04 22:25:27|Ignat|Elena||F|1989-10-10|Constanta|CONSTANTA|Alexandru ion|74|||||0766547867||Ely.ignat@yahoo.com|KTSV||1 Glamour CPB Azure (3 mg) Pack|Yes|Yes||CT003940|CRICOROM TURISM SRL TERASA MOTOR|Constanta|CTHRKBA78|161|CCC HRK GLAM FAM Vara 2013|121|Horeca|0
0|CS3535051|2013-08-04 22:25:27|Vitrescu|Claudia||F|1989-04-03|Calarasi|CALARASI|Independentei|66|||||0746465657||Claus_cls@yahoo.com|GLMBL||1 Glamour CPB Menthol (5mg) Pack|Yes|Yes||CT003940|CRICOROM TURISM SRL TERASA MOTOR|Constanta|CTHRKBA79|161|CCC HRK GLAM FAM Vara 2013|121|Horeca|0
0|CS3535056|2013-08-04 22:27:25|Chiriac|Alexandra||F|1989-10-11|Bucuresti|3|Moineni|468|||||0721608544||Allexxutzaaa_chr@yahoo.com|VOGABP||1 Glamour Purse Box Pink FT (5mg) Pack|Yes|Yes||CT003940|CRICOROM TURISM SRL TERASA MOTOR|Constanta|CTHRKBA33|161|CCC HRK GLAM FAM Vara 2013|121|Horeca|0
0|CS3535057|2013-08-04 22:27:34|Frasi|Gloria||F|1983-10-01|Buzau|BUZAU|Ivanovici|55|||||0787555633|||VOGM||1 Glamour CPB Menthol (5mg) Pack|Yes|Yes||CT003940|CRICOROM TURISM SRL TERASA MOTOR|Constanta|CTHRKBA77|161|CCC HRK GLAM FAM Vara 2013|121|Horeca|0
0|CS3535061|2013-08-04 22:29:23|Anton|Valentina||F|1988-12-14|Constanta|CONSTANTA|Bbratianu|28|Tb7|A|||0765870865||Vally.tina@yahoo.com|VOGJSN||1 Glamour CPB Menthol (5mg) Pack|Yes|Yes||CT003940|CRICOROM TURISM SRL TERASA MOTOR|Constanta|CTHRKBA78|161|CCC HRK GLAM FAM Vara 2013|121|Horeca|0
0|CS3535064|2013-08-04 22:30:02|Itriscu|Ana||F|1986-10-30|Bacau|BACAU|Zorilor|34|||||0746475879||Abna_any@yahoo.com|VIRSV||1 Glamour CPB Azure (3 mg) Pack|Yes|Yes||CT003940|CRICOROM TURISM SRL TERASA MOTOR|Constanta|CTHRKBA79|161|CCC HRK GLAM FAM Vara 2013|121|Horeca|0
0|CS3535065|2013-08-04 22:30:05|Lungoci|Madalin||M|1984-02-14|Constanta|Constanta|Blv mamaia|1|34|T|3|15|0745996433||Mada_lungoci@yahoo.com|VIRSFA||1 Glamour CPB Azure (3 mg) Pack|Yes|Yes||CT003940|CRICOROM TURISM SRL TERASA MOTOR|Constanta|CTHRKBA33|161|CCC HRK GLAM FAM Vara 2013|121|Horeca|0
0|CS3535067|2013-08-04 22:30:28|Simionescu|Gabriela||F|1972-12-06|Dolj|Craiova|Nicolae copulescu|8|||||0744392444|||VOGABP||1 Glamour CPB Lilac (5 mg) Pack|Yes|Yes||CT003940|CRICOROM TURISM SRL TERASA MOTOR|Constanta|CTHRKBA77|161|CCC HRK GLAM FAM Vara 2013|121|Horeca|0
0|CS3535069|2013-08-04 22:31:42|Crivu|Emilia||F|1983-10-30|Botosani|BOTOSANI|Garii|69|||||0745464657||Ema_girl3@yahoo.com|GLMLIL||1 Glamour CPB Lilac (5 mg) Pack|Yes|Yes||CT003940|CRICOROM TURISM SRL TERASA MOTOR|Constanta|CTHRKBA79|161|CCC HRK GLAM FAM Vara 2013|121|Horeca|0
0|CS3535070|2013-08-04 22:32:10|Cristache|Ariana||F|1990-03-30|Constanta|CONSTANTA|Calugareni|157|||||0735438009||Ary.si.atat@yahoo.com|GLPBPKFT||1 Glamour Purse Box Pink FT (5mg) Pack|Yes|Yes||CT003940|CRICOROM TURISM SRL TERASA MOTOR|Constanta|CTHRKBA78|161|CCC HRK GLAM FAM Vara 2013|121|Horeca|0
0|CS3535074|2013-08-04 22:33:18|Foiseanu|Luiza||F|1980-07-18|Galati|GALATI|Eremescu anton|112|||||0787995333|||GLMMNT||1 Glamour CPB Menthol (5mg) Pack|Yes|Yes||CT003940|CRICOROM TURISM SRL TERASA MOTOR|Constanta|CTHRKBA77|161|CCC HRK GLAM FAM Vara 2013|121|Horeca|0
0|CS3535077|2013-08-04 22:34:05|Tarlea|Iuliana||F|1988-08-11|Brasov|Brasov|Pacii|1|58|A|2|13|0728542246||Iuliana_tarlea@yahoo.com|VOGLL||1 Glamour CPB Lilac (5 mg) Pack|Yes|Yes||CT003940|CRICOROM TURISM SRL TERASA MOTOR|Constanta|CTHRKBA33|161|CCC HRK GLAM FAM Vara 2013|121|Horeca|0
0|CS3535079|2013-08-04 22:34:52|Ciurescu|Antonia||F|1987-06-21|Constanta|CONSTANTA|Calarasi|67|||||0732549780||Tony.ciuci@yahoo.com|VIRSV||1 Glamour CPB Azure (3 mg) Pack|Yes|Yes||CT003940|CRICOROM TURISM SRL TERASA MOTOR|Constanta|CTHRKBA78|161|CCC HRK GLAM FAM Vara 2013|121|Horeca|0
0|CS3535090|2013-08-04 22:39:55|Cristu|Alina||F|1988-01-25|Constanta|CONSTANTA|Frunzelor|85|||||0767055647||Cris.alynutza@yahoo.com|VIRSM||1 Glamour CPB Menthol (5mg) Pack|Yes|Yes||CT002735|CRICOROM TURISM SRL|Constanta|CTHRKBA78|161|CCC HRK GLAM FAM Vara 2013|121|Horeca|0
0|CS3535093|2013-08-04 22:40:10|Haragea|Mia||F|1979-07-26|Covasna|Covasna|Gheorghe dej|164|||||0767880005||Mia_mi72@yahoo.com|GLMMNT||1 Glamour CPB Menthol (5mg) Pack|Yes|Yes||CT002735|CRICOROM TURISM SRL|Constanta|CTHRKBA77|161|CCC HRK GLAM FAM Vara 2013|121|Horeca|0
0|CS3535094|2013-08-04 22:40:17|Istudor|Cristina||F|1988-11-11|Bucuresti|3|Valcei|78|5|A|5|18|0762899764||Cristina_istudor@ahoo.com|VOGABP||1 Glamour Purse Box Pink FT (5mg) Pack|Yes|Yes||CT002735|CRICOROM TURISM SRL|Constanta|CTHRKBA33|161|CCC HRK GLAM FAM Vara 2013|121|Horeca|0
0|CS3535097|2013-08-04 22:40:57|Vasu|Elena||F|1983-10-29|Giurgiu|FRASINU|Prisaca iorga|89|||||0756557578||Elena_elenavrt@yahoo.com|VIRSV||1 Glamour CPB Azure (3 mg) Pack|Yes|Yes||CT002735|CRICOROM TURISM SRL|Constanta|CTHRKBA79|161|CCC HRK GLAM FAM Vara 2013|121|Horeca|0
0|CS3535101|2013-08-04 22:41:39|Roman|Adina||F|1985-05-20|Bucuresti|SECTOR 4|Unirii|70|||||0731096775||Adynutza_roman@yahoo.com|VOGLL||1 Glamour CPB Lilac (5 mg) Pack|Yes|Yes||CT002735|CRICOROM TURISM SRL|Constanta|CTHRKBA78|161|CCC HRK GLAM FAM Vara 2013|121|Horeca|0
0|CS3535103|2013-08-04 22:42:22|Badoi|Dorina||F|1982-11-20|Dolj|Craiova|Simion gheorghiu|86|||||0767880161||Dori_dorinutsa@yahoo.com|VOGBL||1 Glamour CPB Azure (3 mg) Pack|Yes|Yes||CT002735|CRICOROM TURISM SRL|Constanta|CTHRKBA77|161|CCC HRK GLAM FAM Vara 2013|121|Horeca|0
0|CS3535107|2013-08-04 22:43:46|Marin|Anca||F|1988-07-14|Cluj|CLUJ NAPOCA|Nudarului|1|4s|A|5|21|0731689765||Anca_mrn@yahoo.com|VIRSPR||1 Glamour CPB Lilac (5 mg) Pack|Yes|Yes||CT002735|CRICOROM TURISM SRL|Constanta|CTHRKBA33|161|CCC HRK GLAM FAM Vara 2013|121|Horeca|0
0|CS3535112|2013-08-04 22:44:24|Trica|Teodora||F|1992-01-01|Maramures|ASUAJU DE JOS|Palade teodor|12|||||0753648689||Tt_odorira@yahoo.com|VOGABP||1 Glamour Purse Box Pink FT (5mg) Pack|Yes|Yes||CT002735|CRICOROM TURISM SRL|Constanta|CTHRKBA79|161|CCC HRK GLAM FAM Vara 2013|121|Horeca|0
0|CS3535114|2013-08-04 22:45:02|Vrabie|Alexandra||F|1988-02-16|Bucuresti|Bucuresti|Dragobetelor|12|A|V|6|25|0745326678||Vrabie_ali@yahoo.com|GLPBPKFT||1 Glamour Purse Box Pink FT (5mg) Pack|Yes|Yes||CT002735|CRICOROM TURISM SRL|Constanta|CTHRKBA77|161|CCC HRK GLAM FAM Vara 2013|121|Horeca|0
0|CS3535115|2013-08-04 22:45:23|Moga|Oana||F|1980-02-15|Constanta|CONSTANTA|Dezrobirii|68|||||0725476884||Oana.onix@yahoo.com|VIRSFA||1 Glamour CPB Azure (3 mg) Pack|Yes|Yes||CT002735|CRICOROM TURISM SRL|Constanta|CTHRKBA78|161|CCC HRK GLAM FAM Vara 2013|121|Horeca|0
0|CS3535120|2013-08-04 22:47:44|Cristandache|Loredana||F|1983-10-29|Ialomita|FETESTI|Pavel enache|37|||||0723473829||Lores_loredana@yahoo.com|GLMLIL||1 Glamour CPB Lilac (5 mg) Pack|Yes|Yes||CT002735|CRICOROM TURISM SRL|Constanta|CTHRKBA79|161|CCC HRK GLAM FAM Vara 2013|121|Horeca|0
0|CS3535121|2013-08-04 22:49:27|Mihaescu|Loredana||F|1984-02-21|Calarasi|CALARASI|Grivitei|142|||||0720911326||Lory.lore21@yahoo.com|GLPBPKFT||1 Glamour Purse Box Pink FT (5mg) Pack|Yes|Yes||CT002735|CRICOROM TURISM SRL|Constanta|CTHRKBA78|161|CCC HRK GLAM FAM Vara 2013|121|Horeca|0
0|CS3535125|2013-08-04 22:55:11|Flaviu|Eugenia||F|1979-09-28|Constanta|CONSTANTA|Frunzelor|56|||||0754646566||Eugenia12@yahoo.com|GLMBL||1 Glamour CPB Azure (3 mg) Pack|Yes|Yes||CT002735|CRICOROM TURISM SRL|Constanta|CTHRKBA79|161|CCC HRK GLAM FAM Vara 2013|121|Horeca|0
0|CS3535128|2013-08-04 22:57:59|Fodor|Steliana||F|1990-04-18|Constanta|CONSTANTA|Aleea pelucanului|39|Sv4|C|||0744763559||Fodor_stela@yahoo.com|VOGLL||1 Glamour Purse Box Pink FT (5mg) Pack|Yes|Yes||CT002735|CRICOROM TURISM SRL|Constanta|CTHRKBA78|161|CCC HRK GLAM FAM Vara 2013|121|Horeca|0
0|CS3535136|2013-08-04 23:02:02|Stetcu|Larisa||F|1989-05-04|Arges|CURTEA DE ARGES|Liliaculii|35|||||0726372829||Larisa_flt@yahoo.com|VIRSV||1 Glamour CPB Azure (3 mg) Pack|Yes|Yes||CT002735|CRICOROM TURISM SRL|Constanta|CTHRKBA79|161|CCC HRK GLAM FAM Vara 2013|121|Horeca|0
0|CS3535147|2013-08-04 23:09:09|Guna|Andreea||F|1988-11-17|Constanta|Constanta|Poporului|27|27|2|2|15|0723875433||Andreeautza_guna@yahoo.com|VOGBL||1 Glamour CPB Azure (3 mg) Pack|Yes|Yes||CT002935|Trotter Restaurant|Constanta|CTHRKBA33|161|CCC HRK GLAM FAM Vara 2013|121|Horeca|0
0|CS3535148|2013-08-04 23:09:22|Cristescu|Teodora||F|1983-01-26|Bihor|Oradea|Liliacului|116|||||0764332955||Cristescu_teo88@yahoo.com|GLMMNT||1 Glamour CPB Menthol (5mg) Pack|Yes|Yes||CT002935|Trotter Restaurant|Constanta|CTHRKBA77|161|CCC HRK GLAM FAM Vara 2013|121|Horeca|0
0|CS3535149|2013-08-04 23:10:01|Tufan|Florina||F|1989-10-02|Bucuresti|SECTOR 3|Agapiei|168|Zc5|A|||0755365780||Florry.bulinutza@yahoo.com|VOGBL||1 Glamour CPB Azure (3 mg) Pack|Yes|Yes||CT002935|Trotter Restaurant|Constanta|CTHRKBA78|161|CCC HRK GLAM FAM Vara 2013|121|Horeca|0
0|CS3535150|2013-08-04 23:11:28|Visterin|Catalina||F|1987-11-12|Iasi|Iasi|Sucevei|40|3|D|2|10|0749644356||Catalina_vister@yahoo.com|PMSSGR||1 Glamour CPB Menthol (5mg) Pack|Yes|Yes||CT002935|Trotter Restaurant|Constanta|CTHRKBA33|161|CCC HRK GLAM FAM Vara 2013|121|Horeca|0
0|CS3535152|2013-08-04 23:12:01|Frumuzache|Adina||F|1990-05-29|Braila|Braila|Daliilor|56|||||0765512215||Frumuzache_eueu@yahoo.com|KTSV||1 Glamour CPB Lilac (5 mg) Pack|Yes|Yes||CT002935|Trotter Restaurant|Constanta|CTHRKBA77|161|CCC HRK GLAM FAM Vara 2013|121|Horeca|0
0|CS3535153|2013-08-04 23:13:20|Vanghele|Iuliana||F|1982-06-28|Bucuresti|Bucuresti|1decembrie|56|D|A1|4|40|0746455666||Iulie_iulik@yahoo.com|PMECBL||1 Glamour CPB Lilac (5 mg) Pack|Yes|Yes||CT002935|Trotter Restaurant|Constanta|CTHRKBA79|161|CCC HRK GLAM FAM Vara 2013|121|Horeca|0
0|CS3535155|2013-08-04 23:14:12|Oltean|Sanda||F|1987-02-06|Constanta|CONSTANTA|Aleea daliei|97|||||0754732678||Sandy.tweety@yahoo.com|VIRSPR||1 Glamour Purse Box Pink FT (5mg) Pack|Yes|Yes||CT002935|Trotter Restaurant|Constanta|CTHRKBA78|161|CCC HRK GLAM FAM Vara 2013|121|Horeca|0
0|CS3535157|2013-08-04 23:14:42|Mihaila|Daniela||F|1989-02-13|Constanta|Constanta|Aleea martisorului|3|B|B|4|21|0720366173||Mihaila_daniela@yahoo.com|VIRSV||1 Glamour CPB Lilac (5 mg) Pack|Yes|Yes||CT002935|Trotter Restaurant|Constanta|CTHRKBA33|161|CCC HRK GLAM FAM Vara 2013|121|Horeca|0
0|CS3535158|2013-08-04 23:14:53|Pop|Dana||F|1993-11-24|Alba|ALBA IULIA|Ciresilor|7|A|A|4|32|0768553112||Dana_pop_b@yahoo.com|VIRSM||1 Glamour CPB Menthol (5mg) Pack|Yes|Yes||CT002935|Trotter Restaurant|Constanta|CTHRKBA77|161|CCC HRK GLAM FAM Vara 2013|121|Horeca|0
0|CS3535160|2013-08-04 23:15:29|Vizireanu|Maria||F|1982-10-29|Bacau|BACAU|Dealul macinului|56|||||0732673638||Mar_mare@yahoo.com|VOGABP||1 Glamour Purse Box Pink FT (5mg) Pack|Yes|Yes||CT002935|Trotter Restaurant|Constanta|CTHRKBA79|161|CCC HRK GLAM FAM Vara 2013|121|Horeca|0
0|CS3535162|2013-08-04 23:16:33|Daniil|Adriana||F|1989-11-06|Constanta|CONSTANTA|Semanatorului|89|||||0735645768||Daniil.adry@yahoo.com|KTNBK||1 Glamour CPB Lilac (5 mg) Pack|Yes|Yes||CT002935|Trotter Restaurant|Constanta|CTHRKBA78|161|CCC HRK GLAM FAM Vara 2013|121|Horeca|0
0|CS3535163|2013-08-04 23:16:34|Mihaila|Daniel||M|1986-10-12|Constanta|Constanta|Aleea martisorului|3|B|B|4|21|0727761863||Mihaila_daniel@yahoo.com|VOGBL||1 Glamour CPB Azure (3 mg) Pack|Yes|Yes||CT002935|Trotter Restaurant|Constanta|CTHRKBA33|161|CCC HRK GLAM FAM Vara 2013|121|Horeca|0
0|CS3535164|2013-08-04 23:16:47|Mihnea|Georgiana||F|1980-11-28|Constanta|CONSTANTA|Armatei|31|||||0764432866||Mihnea_georgi@yahoo.com|GLMLIL||1 Glamour CPB Azure (3 mg) Pack|Yes|Yes||CT002935|Trotter Restaurant|Constanta|CTHRKBA77|161|CCC HRK GLAM FAM Vara 2013|121|Horeca|0
0|CS3535168|2013-08-04 23:18:41|Popescu|Cristina||F|1989-09-11|Bucuresti|SECTOR 3|Centurii|189|Df3|A|||0754980553||Kryss.pop@yahoo.com|GLMMNT||1 Glamour CPB Menthol (5mg) Pack|Yes|Yes||CT002935|Trotter Restaurant|Constanta|CTHRKBA78|161|CCC HRK GLAM FAM Vara 2013|121|Horeca|0
0|CS3535170|2013-08-04 23:20:35|Pargu|Beatrice||F|1988-07-16|Bucuresti|Bucuresti|Alexandru lahovari|78|||||0765354666||Best_betykiss@yahoo.com|VIRSV||1 Glamour CPB Azure (3 mg) Pack|Yes|Yes||CT002935|Trotter Restaurant|Constanta|CTHRKBA79|161|CCC HRK GLAM FAM Vara 2013|121|Horeca|0
0|CS3535172|2013-08-04 23:22:19|Liviu|Dana||F|1982-03-01|Bucuresti|SECTOR 3|Agricultori|40|Ov7|C|||0767325793||Danutza.loca@yahoo.com|VIRSM||1 Glamour CPB Menthol (5mg) Pack|Yes|No||CT002935|Trotter Restaurant|Constanta|CTHRKBA78|161|CCC HRK GLAM FAM Vara 2013|121|Horeca|0
0|CS3535179|2013-08-04 23:30:55|Ivan|Maria||F|1991-09-30|Dolj|Craiova|Boemilor|13|||||0724239117||Olivia.bimala13@yahoo.com|VIRSM||1 Glamour CPB Menthol (5mg) Pack|Yes|Yes||CT009095|Ocean Cafe SRL|Constanta|CTHRKBA77|161|CCC HRK GLAM FAM Vara 2013|121|Horeca|0
0|CS3535182|2013-08-04 23:31:39|Oproaia|Alina||F|1987-09-04|Constanta|Constanta|Tomis|325|||||0723173325||Alba_oproian@yahoo.com|VIRSFA||1 Glamour CPB Azure (3 mg) Pack|Yes|Yes||CT009095|Ocean Cafe SRL|Constanta|CTHRKBA33|161|CCC HRK GLAM FAM Vara 2013|121|Horeca|0
0|CS3535183|2013-08-04 23:31:55|Ameri|Nasrin||F|1990-10-13|Bucuresti|SECTOR 6|Aleea voinesti|7|||||0786256441||Nasrun_ica@yahoo.com|VOGLL||1 Glamour CPB Lilac (5 mg) Pack|Yes|Yes||CT009095|Ocean Cafe SRL|Constanta|CTHRKBA78|161|CCC HRK GLAM FAM Vara 2013|121|Horeca|0
0|CS3535185|2013-08-04 23:33:45|Spirolari|Anda||F|1987-05-01|Constanta|Constanta|Chiliei|106|||||0722658309||Andra_sweety@yahoo.com|VIRSFA||1 Glamour CPB Lilac (5 mg) Pack|Yes|Yes||CT009095|Ocean Cafe SRL|Constanta|CTHRKBA33|161|CCC HRK GLAM FAM Vara 2013|121|Horeca|0
0|CS3535186|2013-08-04 23:44:36|Rotaru|Roxana||F|1986-08-03|Constanta|CONSTANTA|Bd aurel vlaicu|5|C1||||0736692979|||VOGBL||1 Glamour CPB Azure (3 mg) Pack|Yes|No||CT009095|Ocean Cafe SRL|Constanta|CTHRKBA78|161|CCC HRK GLAM FAM Vara 2013|121|Horeca|0
0|CS3535187|2013-08-04 23:45:10|Chiciuc|Alina||F|1983-09-29|Constanta|CONSTANTA|Ion ratiu|34|||||0756676677||Anna_alis@yahoo.com|GLMMNT||1 Glamour CPB Menthol (5mg) Pack|Yes|Yes||CT009095|Ocean Cafe SRL|Constanta|CTHRKBA79|161|CCC HRK GLAM FAM Vara 2013|121|Horeca|0
0|CS3535188|2013-08-04 23:46:43|Dabid|Ana||F|1982-09-26|Alba|ALBAC|Rodiilor|55|||||0767332233|||GLMMNT||1 Glamour CPB Azure (3 mg) Pack|Yes|Yes||CT009095|Ocean Cafe SRL|Constanta|CTHRKBA77|161|CCC HRK GLAM FAM Vara 2013|121|Horeca|0
0|CS3535193|2013-08-04 23:50:27|Ivan|Oana||F|1982-11-27|Braila|BRAILA|Racului|66|||||0767895545|||GLPBPKFT||1 Glamour Purse Box Pink FT (5mg) Pack|Yes|Yes||CT009095|Ocean Cafe SRL|Constanta|CTHRKBA77|161|CCC HRK GLAM FAM Vara 2013|121|Horeca|0
0|CS3535194|2013-08-04 23:52:59|Antemir|Andreeea||F|1987-12-10|Bucuresti|1|Institutiei|52|||||0736986433||Andreea_antemir@yahoo.com|VOGM||1 Glamour CPB Menthol (5mg) Pack|Yes|Yes||CT009095|Ocean Cafe SRL|Constanta|CTHRKBA33|161|CCC HRK GLAM FAM Vara 2013|121|Horeca|0
0|CS3535197|2013-08-04 23:54:15|Jicmon|Madalina||F|1985-11-26|Constanta|Constanta|Aurel vlaicu|265|M3||2|14|0722953551||Mada_2685@yahoo.com|GLMLIL||1 Glamour CPB Lilac (5 mg) Pack|Yes|Yes||CT009095|Ocean Cafe SRL|Constanta|CTHRKBA79|161|CCC HRK GLAM FAM Vara 2013|121|Horeca|0
0|CS3535198|2013-08-04 23:56:23|Popa|Oana||F|1982-06-27|Bistrita Nasaud|BISTRITA|Teiulii|12|||||0764335234|||GLPBPKFT||1 Glamour Purse Box Pink FT (5mg) Pack|Yes|Yes||CT009095|Ocean Cafe SRL|Constanta|CTHRKBA77|161|CCC HRK GLAM FAM Vara 2013|121|Horeca|0
0|CS3535202|2013-08-05 00:03:57|Vales|Denisa||F|1986-01-01|Constanta|CONSTANTA|Mugurului|34|||||0756465757||Denis_den@yahoo.com|GLMMNT||1 Glamour CPB Menthol (5mg) Pack|Yes|Yes||CT009095|Ocean Cafe SRL|Constanta|CTHRKBA79|161|CCC HRK GLAM FAM Vara 2013|121|Horeca|0
0|CS3535203|2013-08-05 00:04:59|Gasan|Figen||F|1990-12-27|Bucuresti|Bucuresti|Bega|16|A|C|10|77|0767889002||Gasan_figen.gen@yahoo.com|VOGM||1 Glamour CPB Azure (3 mg) Pack|Yes|Yes||CT009095|Ocean Cafe SRL|Constanta|CTHRKBA77|161|CCC HRK GLAM FAM Vara 2013|121|Horeca|0
0|CS3535204|2013-08-05 00:05:10|Matache|Mihaela||F|1989-08-14|Constanta|CONSTANTA|Ion adam|194|||||0721024336||Miha.ela_matache@yahoo.com|GLPBPKFT||1 Glamour Purse Box Pink FT (5mg) Pack|Yes|Yes||CT009095|Ocean Cafe SRL|Constanta|CTHRKBA78|161|CCC HRK GLAM FAM Vara 2013|121|Horeca|0
0|CS3535205|2013-08-05 00:05:11|Mitrut|Cosmina||F|1986-11-25|Calarasi|Calarasi|Pescarilor|25|3|A|2|8|0761567877||Coss_minaa@yahoo.com|VOGABP||1 Glamour Purse Box Pink FT (5mg) Pack|Yes|Yes||CT009095|Ocean Cafe SRL|Constanta|CTHRKBA33|161|CCC HRK GLAM FAM Vara 2013|121|Horeca|0
0|CS3535206|2013-08-05 00:05:38|Fulgi|Costina||F|1984-10-29|Constanta|CONSTANTA|Decebal|121|||||0757465757||Cos_costina cos@yahoo.com|VOGABP||1 Glamour Purse Box Pink FT (5mg) Pack|Yes|Yes||CT009095|Ocean Cafe SRL|Constanta|CTHRKBA79|161|CCC HRK GLAM FAM Vara 2013|121|Horeca|0
0|FS1087605|2013-08-03 22:49:36|Teodorescu|Denisa||F|1978-09-27||||||||||||PMSV||||||||||161|CCC HRK GLAM FAM Vara 2013|121|Horeca|0
