0|CS3273710|2013-02-28 19:31:16|Cucuta|Radu||M|1984-04-07|Bucuresti|SECTOR 1|Nicolae caramfil|34|12|A||2|0769786980||radu_cucuta@yahoo.com|DUNFCBB||1 Sobranie KS Gold  (4mg) Pack + voucher|Yes|No||BW003169|PERFECT CAR SRL|Bucuresti|BWHRKBA49|111|CCC HRK SOBR FAM 2013|121|Horeca|0
0|CS3273712|2013-02-28 19:31:35|Molosi|Adrian||M|1982-07-03|Bucuresti|SECTOR 3|Umbrelor|45|D1|1|3|26|0768576789||molosi.adri@yahoo.com|DUNFCMBB||1 Sobranie KS Blue (6mg) Pack + voucher|Yes|Yes||BW003169|PERFECT CAR SRL|Bucuresti|BWHRKBA13|111|CCC HRK SOBR FAM 2013|121|Horeca|0
0|CS3273715|2013-02-28 19:31:39|Ernest|Ioana||F|1989-07-04|Bucuresti|SECTOR 1|Capilna|12|12|A|2|10|0721478643||ioana.e@ymail.com|DUNFCMBB||1 Sobranie KS Blue (6mg) Pack + voucher|Yes|Yes||BW003169|PERFECT CAR SRL|Bucuresti|BWHRKBA23|111|CCC HRK SOBR FAM 2013|121|Horeca|0
0|CS3273756|2013-02-28 19:38:32|Castin|Corina||F|1983-05-25|Bucuresti|SECTOR 2|Ghioceni|46|||||0725646756||corina_corynutza@yahoo.com|DUNFCBB||1 Sobranie KS Gold  (4mg) Pack + voucher|Yes|Yes||BW004727|EUROSAM 97 EXIM SRL|Bucuresti|BWHRKBA47|111|CCC HRK SOBR FAM 2013|121|Horeca|0
0|CS3273760|2013-02-28 19:39:07|Popa|Andreea||F|1981-07-14|Bucuresti|SECTOR 1|Ion mihalache|45|104|A||34|0768697080||andreea.p@yahoo.com|DUNFCMBB||1 Sobranie KS Blue (6mg) Pack + voucher|Yes|No||BW004727|EUROSAM 97 EXIM SRL|Bucuresti|BWHRKBA49|111|CCC HRK SOBR FAM 2013|121|Horeca|0
0|CS3273932|2013-02-28 20:11:00|Ene|Marina||F|1981-04-22|Bucuresti|SECTOR 3|Calea vitan|103|||||0767460242||marinaene@yahoo.com|DUNFCMBB||1 Sobranie KS Blue (6mg) Pack + voucher|Yes|Yes||BW031445|SC MEAT - MARKET FOODS SRL|Bucuresti|BWHRKBA47|111|CCC HRK SOBR FAM 2013|121|Horeca|0
0|CS3273933|2013-02-28 20:11:01|Lineru|Tudor||M|1974-05-29|Bucuresti|SECTOR 1|Calea floreawca|3a|||||0744838938|||SBKSBL||1 Sobranie KS Blue (6mg) Pack + voucher|Yes|No||BW031445|SC MEAT - MARKET FOODS SRL|Bucuresti|BWHRKBA23|111|CCC HRK SOBR FAM 2013|121|Horeca|0
0|CS3273936|2013-02-28 20:11:36|Gana|Iulianq||F|1982-12-01|Brasov|BRASOV|Mmuntelui|132|||||0768574522||gana.iulia@yahoo.com|KTSV||1 Sobranie KS Gold  (4mg) Pack + voucher|Yes|Yes||BW031445|SC MEAT - MARKET FOODS SRL|Bucuresti|BWHRKBA13|111|CCC HRK SOBR FAM 2013|121|Horeca|0
0|CS3273938|2013-02-28 20:12:37|Toader|Tudor||M|1977-06-18|Bucuresti|SECTOR 2|Calea colentina|35|23|B||35|0758505787||toadertudor@yahoo.com|SBKSGD||1 Sobranie KS Gold  (4mg) Pack + voucher|Yes|No||BW031445|SC MEAT - MARKET FOODS SRL|Bucuresti|BWHRKBA49|111|CCC HRK SOBR FAM 2013|121|Horeca|0
0|CS3273955|2013-02-28 20:21:37|Costache|Florian||M|1956-01-12|Bucuresti|SECTOR 4|-|-|||||0722845328|||MBRFP||1 Sobranie KS Blue (6mg) Pack + voucher|Yes|Yes||BW005080|OSHO-SCS TRADING SRL|Bucuresti|BWHRKBA23|111|CCC HRK SOBR FAM 2013|121|Horeca|0
0|CS3273961|2013-02-28 20:26:03|Grivut|Alin||M|1978-10-18|Bucuresti|SECTOR 4|Emil racovita|65|||||0724675786||alin_alin@yahoo.com|DUNFCMBB||1 Sobranie KS Blue (6mg) Pack + voucher|Yes|Yes||BW005080|OSHO-SCS TRADING SRL|Bucuresti|BWHRKBA47|111|CCC HRK SOBR FAM 2013|121|Horeca|0
0|CS3273962|2013-02-28 20:26:08|Mustatea|Toni||M|1976-11-04|Bucuresti|SECTOR 2|Iasomniei|56|||||0785645533||mustatea.toni@gmail.com|MBRFP||1 Sobranie KS Blue (6mg) Pack + voucher|Yes|Yes||BW005080|OSHO-SCS TRADING SRL|Bucuresti|BWHRKBA13|111|CCC HRK SOBR FAM 2013|121|Horeca|0
0|CS3273964|2013-02-28 20:28:13|Dragos|Andrei||M|1971-01-18|Bucuresti|SECTOR 2|Stefan cel mare|105|55|B||23|0769700808||andrei.d@yahoo.com|DUNGL||1 Sobranie KS Gold  (4mg) Pack + voucher|Yes|No||BW005080|OSHO-SCS TRADING SRL|Bucuresti|BWHRKBA49|111|CCC HRK SOBR FAM 2013|121|Horeca|0
0|CS3274001|2013-02-28 20:53:44|Muraru|Gabriel||M|1978-02-07|Bucuresti|SECTOR 2|Mihai eminescu|124|B1|1|0|1|0744518500||gabriel.muraru@sanrom.ro|DAVGL||1 Sobranie KS Black (8mg) Pack + voucher|Yes|Yes||BW031587|TWINS CAFE SRL|Bucuresti|BWHRKBA13|111|CCC HRK SOBR FAM 2013|121|Horeca|0
0|CS3274047|2013-02-28 21:14:19|Irzsa|Alexandru||M|1987-09-17|Ilfov|Corbeanca|Soerantei|21b|||||0723837418||alz.irzsa@gmail.com|SBKSGD||1 Sobranie KS Gold  (4mg) Pack + voucher|Yes|Yes||BW006201|TAVERNA SARBULUI SRL|Bucuresti|BWHRKBA13|111|CCC HRK SOBR FAM 2013|121|Horeca|0
0|CS3274048|2013-02-28 21:14:53|Dimitar|Stoilov||M|1987-02-01|Bucuresti|2|St brandusi|7|G3|||21|0751286583||rv_mitko@abv.bg|DUNFCMBB||1 Sobranie KS Blue (6mg) Pack + voucher|Yes|Yes||BW006201|TAVERNA SARBULUI SRL|Bucuresti|BWHRKBA49|111|CCC HRK SOBR FAM 2013|121|Horeca|0
0|CS3274053|2013-02-28 21:15:52|Iovanes|Codruta||F|1976-01-29|Bucuresti|SECTOR 1|Ion mihalache|62|40|B||30|0722290160||codruta_iovanas@yahoo.com|MBRFP|VOGABP|1 Sobranie KS Blue (6mg) Pack + voucher|Yes|Yes||BW006201|TAVERNA SARBULUI SRL|Bucuresti|BWHRKBA23|111|CCC HRK SOBR FAM 2013|121|Horeca|0
0|CS3274059|2013-02-28 21:17:19|Gheorghe|Adrian||M|1981-11-17|Bucuresti|SECTOR 1|Ceasornicului|46|||||0724667657||adrianghe@yahoo.com|DAVGL||1 Sobranie KS Blue (6mg) Pack + voucher|Yes|Yes||BW006201|TAVERNA SARBULUI SRL|Bucuresti|BWHRKBA47|111|CCC HRK SOBR FAM 2013|121|Horeca|0
0|CS3274061|2013-02-28 21:18:53|Botez|Catalin||M|1979-11-17|Bucuresti|SECTOR 6|Valea argesului|45|12|B||23|0769486497||bbotez.c@gmail.com|DUNFCBB||1 Sobranie KS Gold  (4mg) Pack + voucher|Yes|No||BW006201|TAVERNA SARBULUI SRL|Bucuresti|BWHRKBA49|111|CCC HRK SOBR FAM 2013|121|Horeca|0
0|CS3274062|2013-02-28 21:19:09|Georgescu|Laurentiu||M|1971-06-22|Calarasi|VALEA ARGOVEI|Principals|96|||||0724375797||mihai2206@gmail.com|KTBL||1 Sobranie KS Blue (6mg) Pack + voucher|Yes|Yes||BW006201|TAVERNA SARBULUI SRL|Bucuresti|BWHRKBA13|111|CCC HRK SOBR FAM 2013|121|Horeca|0
0|CS3274065|2013-02-28 21:19:53|Petcu|Petrisor||M|1982-03-27|Bucuresti|SECTOR 2|Sos pantelimon|99|402a|2|9|207|0724506516||petcupetrisorlucian@yahoo.com|DUNFCBB||1 Sobranie KS Gold  (4mg) Pack + voucher|Yes|Yes||BW006201|TAVERNA SARBULUI SRL|Bucuresti|BWHRKBA47|111|CCC HRK SOBR FAM 2013|121|Horeca|0
0|CS3274068|2013-02-28 21:21:36|Urza|Maria||F|1988-11-03|Buzau|BUZAU|Ialomitei|90|||||0769464345||urza.marry@yahoo.com|SBSSPK||0 Voucher|Yes|Yes||BW006201|TAVERNA SARBULUI SRL|Bucuresti|BWHRKBA13|111|CCC HRK SOBR FAM 2013|121|Horeca|0
0|CS3274072|2013-02-28 21:21:56|Popescu|Alexandru||M|1980-03-03|Bucuresti|SECTOR 1|Ion mihalache|5|||||0730017974|||MBRGL||1 Sobranie KS Gold  (4mg) Pack + voucher|Yes|No||BW006201|TAVERNA SARBULUI SRL|Bucuresti|BWHRKBA23|111|CCC HRK SOBR FAM 2013|121|Horeca|0
0|CS3274077|2013-02-28 21:24:20|Stoica|Alina||F|1988-06-06|Bucuresti|SECTOR 2|Iancului|67|13|A||34|0769797364||s.alina@yahoo.com|SBSSWH||0 Voucher|Yes|No||BW006201|TAVERNA SARBULUI SRL|Bucuresti|BWHRKBA49|111|CCC HRK SOBR FAM 2013|121|Horeca|0
0|CS3274086|2013-02-28 21:28:44|Stoian|Petrisor||M|1980-05-29|Bucuresti|SECTOR 4|Alexandru balaseanu|62|||0|0|0766435595||stoan.petrisor@yahoo.com|KTBL||1 Sobranie KS Blue (6mg) Pack + voucher|Yes|Yes||BW006201|TAVERNA SARBULUI SRL|Bucuresti|BWHRKBA23|111|CCC HRK SOBR FAM 2013|121|Horeca|0
0|CS3274089|2013-02-28 21:32:21|Radu|Ioana||M|1983-07-25|Bucuresti|SECTOR 1|Intr dumului|4-5|||||0724577678||ioanaradu@yahoo.com|DAVGL||1 Sobranie KS Blue (6mg) Pack + voucher|Yes|Yes||BW006201|TAVERNA SARBULUI SRL|Bucuresti|BWHRKBA47|111|CCC HRK SOBR FAM 2013|121|Horeca|0
0|CS3274090|2013-02-28 21:32:44|Olaru|Marian||M|1982-02-28|Bucuresti|SECTOR 5|Ialonitei|48|A|1|3|19|0768535332||olaru@gmail.com|DUNFCMBB||1 Sobranie KS Blue (6mg) Pack + voucher|Yes|Yes||BW006201|TAVERNA SARBULUI SRL|Bucuresti|BWHRKBA13|111|CCC HRK SOBR FAM 2013|121|Horeca|0
0|CS3274091|2013-02-28 21:33:04|Romin|Cristiana||F|1981-07-26|Bucuresti|SECTOR 1|Aurel vlaicu|93|5|C|2|4|0766389555||cristiana.romin@yahoo.com|MBRFPEX||1 Sobranie KS Gold  (4mg) Pack + voucher|Yes|No||BW006201|TAVERNA SARBULUI SRL|Bucuresti|BWHRKBA23|111|CCC HRK SOBR FAM 2013|121|Horeca|0
0|CS3274110|2013-02-28 21:49:37|Baitoiu|Daniel||M|1990-04-10|Bucuresti|SECTOR 4|Resita|17|||0|0|0723142878||baitoiu.daniel@yahoo.com|MBRGLT||1 Sobranie KS Gold  (4mg) Pack + voucher|Yes|Yes||BWR05111|TROTTER RESTAURANT SRL|Bucuresti|BWHRKBA23|111|CCC HRK SOBR FAM 2013|121|Horeca|0
0|CS3274111|2013-02-28 21:49:50|Chidu|Ionut||M|1990-01-03|Bucuresti|SECTOR 5|Spataresti|5|||0|0|0767119840||just_chidu@yahoo.com|SBKSBL||1 Sobranie KS Blue (6mg) Pack + voucher|Yes|Yes||BWR05111|TROTTER RESTAURANT SRL|Bucuresti|BWHRKBA13|111|CCC HRK SOBR FAM 2013|121|Horeca|0
0|CS3274112|2013-02-28 21:51:05|Tudorache|Bogdan||M|1988-08-08|Bucuresti|Sector 5|Ileana cosanzeana|1|S31|1|0|26|0762963038||bobby.tudorache@yahoo.com|SBKSGD||1 Sobranie KS Gold  (4mg) Pack + voucher|Yes|Yes||BWR05111|TROTTER RESTAURANT SRL|Bucuresti|BWHRKBA23|111|CCC HRK SOBR FAM 2013|121|Horeca|0
0|CS3274113|2013-02-28 21:52:26|Marcu|Dumitru||M|1987-08-15|Bucuresti|SECTOR 5|Feleacului|224|||||0724677468|||MBRGLH||1 Sobranie KS Blue (6mg) Pack + voucher|Yes|Yes||BWR05111|TROTTER RESTAURANT SRL|Bucuresti|BWHRKBA47|111|CCC HRK SOBR FAM 2013|121|Horeca|0
0|CS3274114|2013-02-28 21:52:55|Bahri|Ana maria||F|1988-06-28|Galati|GALATI|Ionel fiernic|12|K5|B|4|19|0749037442||anabacrii@yahoo.com|DUNFCSB||1 Sobranie KS Black (8mg) Pack + voucher|Yes|Yes||BWR05111|TROTTER RESTAURANT SRL|Bucuresti|BWHRKBA13|111|CCC HRK SOBR FAM 2013|121|Horeca|0
0|CS3274115|2013-02-28 21:53:08|Botezatu|Iunia||F|1990-06-07|Bucuresti|SECTOR 3|Ilioara|34|12|B||45|0769025316||iunia_botezatu@yahoo.com|MBRFPEX||1 Sobranie KS Gold  (4mg) Pack + voucher|Yes|No||BWR05111|TROTTER RESTAURANT SRL|Bucuresti|BWHRKBA49|111|CCC HRK SOBR FAM 2013|121|Horeca|0
0|CS3274116|2013-02-28 21:54:10|Ganea|Irina||F|1986-01-28|Bucuresti|SECTOR 6|Rosia montana|26|32|A||34|0745101180||irina.ganea@vinconromania.com|SBSSPK||0 Voucher|Yes|Yes||BWR05111|TROTTER RESTAURANT SRL|Bucuresti|BWHRKBA23|111|CCC HRK SOBR FAM 2013|121|Horeca|0
0|CS3274118|2013-02-28 21:58:00|Dumitriu|Eduard||M|1987-03-17|Bucuresti|SECTOR 4|Ulmetului|38|||0|0|0724973494||edy.dumitriu@yahoo.com|DAVGL||1 Sobranie KS Blue (6mg) Pack + voucher|Yes|Yes||BWR05111|TROTTER RESTAURANT SRL|Bucuresti|BWHRKBA47|111|CCC HRK SOBR FAM 2013|121|Horeca|0
0|CS3274154|2013-02-28 22:25:42|Popa|Larisa||F|1986-09-29|Bucuresti|1|Prelungirea tunari|26|||0|0|0726245988||marialarisa18@yahoo.com|SBSSWH||0 Voucher|Yes|Yes||BW006537|LOLY POP FOOD - BAR|Bucuresti|BWHRKBA23|111|CCC HRK SOBR FAM 2013|121|Horeca|0
0|CS3274158|2013-02-28 22:27:32|Bucheru|Oana||F|1986-06-24|Bucuresti|SECTOR 5|Serpota|3|V20|3||64|0767550217||oana_suflet@yahoo.com|SBSSPK||0 Voucher|Yes|Yes||BW006537|LOLY POP FOOD - BAR|Bucuresti|BWHRKBA23|111|CCC HRK SOBR FAM 2013|121|Horeca|0
0|CS3274159|2013-02-28 22:27:33|Pivan|Daniel||M|1978-07-31|Bucuresti|SECTOR 4|Soseaua vitan- buzesti|7d|3|A||348|0721078078||aganu31@yahoo.com|DUNFCBB||1 Sobranie KS Gold  (4mg) Pack + voucher|Yes|Yes||BW006537|LOLY POP FOOD - BAR|Bucuresti|BWHRKBA49|111|CCC HRK SOBR FAM 2013|121|Horeca|0
0|CS3274163|2013-02-28 22:28:37|Pirusca|Vlad||M|1993-10-28|Bucuresti|SECTOR 1|Mircea zodiacul|78|||||0740025106||vlad.pirusca@yahoo.com|SBKSBL||1 Sobranie KS Blue (6mg) Pack + voucher|Yes|Yes||BW006537|LOLY POP FOOD - BAR|Bucuresti|BWHRKBA47|111|CCC HRK SOBR FAM 2013|121|Horeca|0
0|CS3274164|2013-02-28 22:30:18|Gaidaluc|Georgiana miruna||F|1984-08-02|Ilfov|PANTELIMON|Iosiv sava|4|||||0765568561||miru_myr@yahoo.com|KTBLH||1 Sobranie KS Blue (6mg) Pack + voucher|Yes|Yes||BW006537|LOLY POP FOOD - BAR|Bucuresti|BWHRKBA13|111|CCC HRK SOBR FAM 2013|121|Horeca|0
0|CS3274165|2013-02-28 22:31:21|Vasile|Alexandra||F|1989-08-24|Bucuresti|SECTOR 2|Minu vintila|3|3|1||12|0758020219||alexandra.vadile24@gmail.com|SBSSPK||0 Voucher|Yes|Yes||BW006537|LOLY POP FOOD - BAR|Bucuresti|BWHRKBA49|111|CCC HRK SOBR FAM 2013|121|Horeca|0
0|CS3274167|2013-02-28 22:32:38|Popa|Elena||F|1985-10-08|Bucuresti|SECTOR 2|Doctor burghelea|7a|||||0768894687||ella_aloha@yahoo.com|SBSSBK||0 Voucher|Yes|Yes||BW006537|LOLY POP FOOD - BAR|Bucuresti|BWHRKBA13|111|CCC HRK SOBR FAM 2013|121|Horeca|0
0|CS3274174|2013-02-28 22:35:47|Lazar|Andreas||M|1991-05-05|Bucuresti|SECTOR 3|Vasile lucaci|111|-||||0766800785||andreas_neamtu@yahoo.com|SBKSGD||1 Sobranie KS Gold  (4mg) Pack + voucher|Yes|Yes||BW006537|LOLY POP FOOD - BAR|Bucuresti|BWHRKBA23|111|CCC HRK SOBR FAM 2013|121|Horeca|0
0|CS3274176|2013-02-28 22:36:53|Urziceanu|Ruxandra||F|1992-06-12|Bucuresti|SECTOR 6|Fabricii|26|Q2a|N||115|0742529706||urziceanu.ruxandra@yahoo.com|MBRFP||1 Sobranie KS Blue (6mg) Pack + voucher|Yes|Yes||BW006537|LOLY POP FOOD - BAR|Bucuresti|BWHRKBA49|111|CCC HRK SOBR FAM 2013|121|Horeca|0
0|CS3274185|2013-02-28 22:40:29|Cuza|Roberto||M|1993-07-10|Bucuresti|SECTOR 3|Burebusta|3|D15|4||138|0760046718||roberto_cza@yahoo.com|SBKSGD||1 Sobranie KS Gold  (4mg) Pack + voucher|Yes|Yes||BW006537|LOLY POP FOOD - BAR|Bucuresti|BWHRKBA23|111|CCC HRK SOBR FAM 2013|121|Horeca|0
0|CS3274208|2013-02-28 23:01:57|Goarga|Ramona||F|1987-03-22|Bucuresti|SECTOR 3|Nicolae sebe|10|L36|A||29|0784747615||ramonamihaela87@yahoo.com|SBSSBK||0 Voucher|Yes|Yes||BW007896|JB PARTENERS PUB SRL 2|Bucuresti|BWHRKBA23|111|CCC HRK SOBR FAM 2013|121|Horeca|0
0|CS3274234|2013-02-28 23:27:17|Marinescu|Alice||F|1989-10-27|Bucuresti|SECTOR 6|I.c. Brayianu|25|D1|B|1|25|0768435364||matinescualissse@yahoo.com|MBRFP||1 Sobranie KS Blue (6mg) Pack + voucher|Yes|Yes||BW008554|M-M INTERNATIONAL PLANINVEST SRL|Bucuresti|BWHRKBA13|111|CCC HRK SOBR FAM 2013|121|Horeca|0
0|CS3274235|2013-02-28 23:27:39|Patrascu|Andreea||F|1989-08-12|Bucuresti|SECTOR 1|Intrarea pravat|56|||||0723646875||andreea_deutsa@yahoo.com|DAVGL||1 Sobranie KS Blue (6mg) Pack + voucher|Yes|Yes||BW008554|M-M INTERNATIONAL PLANINVEST SRL|Bucuresti|BWHRKBA47|111|CCC HRK SOBR FAM 2013|121|Horeca|0
0|CS3274237|2013-02-28 23:28:32|Popescu|Lucian||M|1985-05-10|Bucuresti|SECTOR 3|Camil ressu|50|23|A||24|0749807965||lucian.p@yahoo.com|DUNFCMBB||1 Sobranie KS Black (8mg) Pack + voucher|Yes|Yes||BW008554|M-M INTERNATIONAL PLANINVEST SRL|Bucuresti|BWHRKBA49|111|CCC HRK SOBR FAM 2013|121|Horeca|0
0|CS3274238|2013-02-28 23:30:05|Dinu|Andrei||M|1990-12-06|Bucuresti|SECTOR 4|Constantin brancoveanu|124|C2|||56|0723575687||andrei_1990@yahoo.com|DUNFCSB||1 Sobranie KS Black (8mg) Pack + voucher|Yes|Yes||BW008554|M-M INTERNATIONAL PLANINVEST SRL|Bucuresti|BWHRKBA47|111|CCC HRK SOBR FAM 2013|121|Horeca|0
0|CS3274239|2013-02-28 23:30:58|Rusanu|Dragos||M|1986-10-18|Teleorman|ALEXANDRIA|Dunarii|56|||||0763821727||dragos120@yahoo.com|KTBL6||1 Sobranie KS Blue (6mg) Pack + voucher|Yes|Yes||BW008554|M-M INTERNATIONAL PLANINVEST SRL|Bucuresti|BWHRKBA13|111|CCC HRK SOBR FAM 2013|121|Horeca|0
0|CS3275973|2013-03-01 20:04:21|Wanis|Bassanm||M|1959-11-12|Bucuresti|SECTOR 1|Grigore manolescu|2|||||0742042020||bassam.wandi@gmail.com|DAVGL||1 Sobranie KS Blue (6mg) Pack + voucher|Yes|Yes||BW004727|EUROSAM 97 EXIM SRL|Bucuresti|BWHRKBA47|111|CCC HRK SOBR FAM 2013|121|Horeca|0
0|CS3276022|2013-03-01 20:14:47|Duca|Alexandra||F|1989-06-25|Bucuresti|SECTOR 6|Splaiul independentei|204|D||3|301|0729969664||chelariu_alexandra@yahoo.com|SBSSWH||0 Voucher|Yes|Yes||BW003169|PERFECT CAR SRL|Bucuresti|BWHRKBA13|111|CCC HRK SOBR FAM 2013|121|Horeca|0
0|CS3276032|2013-03-01 20:16:38|Stancescu|Cristiana elena||F|1983-12-30|Bucuresti|SECTOR 1|Iancunde hunediara|35|-|A||30|0742089006||cristiana_stancescu@yahoo.com|DUNFCBB||1 Sobranie KS Gold  (4mg) Pack + voucher|Yes|Yes||BW003169|PERFECT CAR SRL|Bucuresti|BWHRKBA23|111|CCC HRK SOBR FAM 2013|121|Horeca|0
0|CS3276034|2013-03-01 20:16:54|Ciocarlan|Adrian||M|1984-11-04|Dambovita|TARGOVISTE|Benone georgescu|9|||||0726580488||adrianciocarlan@gmail.com|KTBL||1 Sobranie KS Black (8mg) Pack + voucher|Yes|Yes||BW003169|PERFECT CAR SRL|Bucuresti|BWHRKBA13|111|CCC HRK SOBR FAM 2013|121|Horeca|0
0|CS3276041|2013-03-01 20:18:07|Darie|Mihaela||F|1979-08-09|Bucuresti|SECTOR 1|Capalna|12|15a|B||13|0769079970||mihaela.darie@yahoo.com|SBSSWH||0 Voucher|Yes|Yes||BW003169|PERFECT CAR SRL|Bucuresti|BWHRKBA49|111|CCC HRK SOBR FAM 2013|121|Horeca|0
0|CS3276123|2013-03-01 20:37:44|Raducanu|Bogdan||M|1985-06-24|Bucuresti|SECTOR 1|Siriuluo|37-39|19d|2||16|0728444488||raducanubog@gmail.com|SBKSGD||1 Sobranie KS Gold  (4mg) Pack + voucher|Yes|Yes||BW005080|OSHO-SCS TRADING SRL|Bucuresti|BWHRKBA23|111|CCC HRK SOBR FAM 2013|121|Horeca|0
0|CS3276168|2013-03-01 20:51:51|Oprescu|Andreea||F|1983-12-25|Bucuresti|SECTOR 3|Bl ramnicul sarat|29|11a|B||55|0720460596||arabella_medic@yahoo.com|KTBL6||1 Sobranie KS Blue (6mg) Pack + voucher|Yes|Yes||BW031445|SC MEAT - MARKET FOODS SRL|Bucuresti|BWHRKBA49|111|CCC HRK SOBR FAM 2013|121|Horeca|0
0|CS3276187|2013-03-01 20:56:46|Mihai|Adriana||F|1984-08-26|Bucuresti|SECTOR 4|Soseaua oltenitei|-|-||||0743090304||lmadriana2003@yahoo.com|KTBL6||1 Sobranie KS Blue (6mg) Pack + voucher|Yes|Yes||BW031445|SC MEAT - MARKET FOODS SRL|Bucuresti|BWHRKBA49|111|CCC HRK SOBR FAM 2013|121|Horeca|0
0|CS3276200|2013-03-01 20:59:36|Craciun|Alina||F|1983-01-06|Bucuresti|SECTOR 1|Calea floreasca|42|A1|A|1|3|0766279554|||ROTH||1 Sobranie KS Black (8mg) Pack + voucher|Yes|No||BW031445|SC MEAT - MARKET FOODS SRL|Bucuresti|BWHRKBA23|111|CCC HRK SOBR FAM 2013|121|Horeca|0
0|CS3276202|2013-03-01 20:59:50|Viletar|Andrei||M|1983-05-29|Bucuresti|SECTOR 2|Umbrelor|432|||||0768574636||viletar.andrei@gmail.com|KTBL||1 Sobranie KS Blue (6mg) Pack + voucher|Yes|Yes||BW031445|SC MEAT - MARKET FOODS SRL|Bucuresti|BWHRKBA13|111|CCC HRK SOBR FAM 2013|121|Horeca|0
0|CS3276204|2013-03-01 21:00:01|Gheorghiu|Mihaela||F|1972-03-13|Bucuresti|SECTOR 1|Grigore damian|5-6|||||0724647866||ghe_mihaela@yahoo.com|DUNFCMBB||1 Sobranie KS Blue (6mg) Pack + voucher|Yes|Yes||BW031445|SC MEAT - MARKET FOODS SRL|Bucuresti|BWHRKBA47|111|CCC HRK SOBR FAM 2013|121|Horeca|0
0|CS3276212|2013-03-01 21:02:51|Adam|Mihai||F|1983-08-27|Bucuresti|SECTOR 2|Bl colentina|123|M49|A||23|0769080746||mihai_adam@yahoo.ro|DAVGL||1 Sobranie KS Blue (6mg) Pack + voucher|Yes|Yes||BW031445|SC MEAT - MARKET FOODS SRL|Bucuresti|BWHRKBA49|111|CCC HRK SOBR FAM 2013|121|Horeca|0
0|CS3276245|2013-03-01 21:14:42|Rusa|Ana Maria||F|1983-08-05|Bucuresti|SECTOR 4|Bd tineretului|47|||||0723343830||anaskumppy@yahoo.com|SBSSBK||0 Voucher|Yes|Yes||BW006246|PARTNERS CONSULTING R-C IMPEX SRL|Bucuresti|BWHRKBA47|111|CCC HRK SOBR FAM 2013|121|Horeca|0
0|CS3276246|2013-03-01 21:16:05|Stanescu|Ioana||F|1982-02-12|Bucuresti|2|Bodesti|9|||0|0|0722456879||ioana.stanescu@exclusivinstal.com|SBSSBK||0 Voucher|Yes|Yes||BW006246|PARTNERS CONSULTING R-C IMPEX SRL|Bucuresti|BWHRKBA47|111|CCC HRK SOBR FAM 2013|121|Horeca|0
0|CS3276250|2013-03-01 21:17:13|Bancowschi|Mihai||M|1990-10-29|Bucuresti|SECTOR 2|Corabia|60|||||0761336865||banky_90@yahoo.com|MBRRD||1 Sobranie KS Black (8mg) Pack + voucher|Yes|Yes||BW006246|PARTNERS CONSULTING R-C IMPEX SRL|Bucuresti|BWHRKBA23|111|CCC HRK SOBR FAM 2013|121|Horeca|0
0|CS3276339|2013-03-01 21:47:41|Gheorghe|Adrian||M|1980-04-10|Bucuresti|SECTOR 1|Aron cotrus|52|B6|B||31|0723075126||adrian_gheorghe@gmail.com|SBKSGD||1 Sobranie KS Gold  (4mg) Pack + voucher|Yes|Yes||BW031411|MOUSTACHE INVESTMENT SRL|Bucuresti|BWHRKBA23|111|CCC HRK SOBR FAM 2013|121|Horeca|0
0|CS3276343|2013-03-01 21:48:47|Caraman|Andreea||F|1987-11-27|Bucuresti|SECTOR 3|Jean steliade|15|J20|B|1|20|0751659296||andreea_mihaela63@yahooo.com|SBSSWH||0 Voucher|Yes|Yes||BW031411|MOUSTACHE INVESTMENT SRL|Bucuresti|BWHRKBA13|111|CCC HRK SOBR FAM 2013|121|Horeca|0
0|CS3276348|2013-03-01 21:49:16|Manea|Daniel||M|1986-06-04|Bucuresti|SECTOR 6|Iuliu maniu|156|A|1|2|12|0769381664||danny_craka@yahoo.com|SBKSBK||1 Sobranie KS Black (8mg) Pack + voucher|Yes|Yes||BW031411|MOUSTACHE INVESTMENT SRL|Bucuresti|BWHRKBA49|111|CCC HRK SOBR FAM 2013|121|Horeca|0
0|CS3276349|2013-03-01 21:49:44|Marin|Andrei||M|1984-08-16|Bucuresti|SECTOR 1|Ghiozdanului|32|||||0767460537||andreimarin@yahoo.com|DUNFCBB||1 Sobranie KS Gold  (4mg) Pack + voucher|Yes|Yes||BW031411|MOUSTACHE INVESTMENT SRL|Bucuresti|BWHRKBA47|111|CCC HRK SOBR FAM 2013|121|Horeca|0
0|CS3276352|2013-03-01 21:50:37|Golos|Marius||M|1988-02-08|Braila|BRAILA|Jiutului|11|||||0767464656||marius.golo@yahoo.com|DUNFCBB||1 Sobranie KS Gold  (4mg) Pack + voucher|Yes|Yes||BW031411|MOUSTACHE INVESTMENT SRL|Bucuresti|BWHRKBA13|111|CCC HRK SOBR FAM 2013|121|Horeca|0
0|CS3276355|2013-03-01 21:51:21|Ion|Madlina||F|1978-08-24|Bucuresti|SECTOR 6|Timisoara|156|||||0745357757||madalinaion@yahoo.com|DUNFCBB||1 Sobranie KS Gold  (4mg) Pack + voucher|Yes|Yes||BW031411|MOUSTACHE INVESTMENT SRL|Bucuresti|BWHRKBA47|111|CCC HRK SOBR FAM 2013|121|Horeca|0
0|CS3276359|2013-03-01 21:51:56|Verna|Diana||F|1981-08-10|Bucuresti|SECTOR 3|Calea vitan|54|14a|B||23|0766866932||diana_v@yahoo.com|SBSSWH||0 Voucher|Yes|Yes||BW031411|MOUSTACHE INVESTMENT SRL|Bucuresti|BWHRKBA49|111|CCC HRK SOBR FAM 2013|121|Horeca|0
0|CS3276379|2013-03-01 22:00:23|Anastasiu|Cristinq||F|1982-09-22|Bucuresti|SECTOR 1|Soseaua nordului|66-70|||||0753660660||zinaida@seedmoney.ro|SBKSGD||1 Sobranie KS Gold  (4mg) Pack + voucher|Yes|Yes||BW005229|INTREPRINDEREA DE BUNATATI RL SRL|Bucuresti|BWHRKBA49|111|CCC HRK SOBR FAM 2013|121|Horeca|0
0|CS3276381|2013-03-01 22:00:59|Dumitriu|Cristina||M|1982-10-14|Bucuresti|SECTOR 4|Alexandru obregia|45|||||0742356567||cristinam@gmail.com|DAVGL||1 Sobranie KS Blue (6mg) Pack + voucher|Yes|Yes||BW005229|INTREPRINDEREA DE BUNATATI RL SRL|Bucuresti|BWHRKBA47|111|CCC HRK SOBR FAM 2013|121|Horeca|0
0|CS3276388|2013-03-01 22:03:28|Enache|Radu||M|1986-04-29|Bucuresti|SECTOR 1|Ghiozdanului|5|||||0744358877||radu.enache@yahoo.com|DUNFCBB||1 Sobranie KS Gold  (4mg) Pack + voucher|Yes|Yes||BW005229|INTREPRINDEREA DE BUNATATI RL SRL|Bucuresti|BWHRKBA23|111|CCC HRK SOBR FAM 2013|121|Horeca|0
0|CS3276389|2013-03-01 22:03:56|Matei|Andreea||F|1987-09-22|Bucuresti|SECTOR 2|Iasomniei|34|D1|A|4|21|0764635678||matei.andreea@yahoo.com|KTBLH||1 Sobranie KS Black (8mg) Pack + voucher|Yes|Yes||BW005229|INTREPRINDEREA DE BUNATATI RL SRL|Bucuresti|BWHRKBA13|111|CCC HRK SOBR FAM 2013|121|Horeca|0
0|CS3276434|2013-03-01 22:16:09|Boga|Daniela||F|1982-08-19|Bucuresti|SECTOR 6|Drumul taberei|100|M32|A||29|0767423821||daniela_boga92@yahoo.com|SBSSWH||0 Voucher|Yes|Yes||BW007896|JB PARTENERS PUB SRL 2|Bucuresti|BWHRKBA49|111|CCC HRK SOBR FAM 2013|121|Horeca|0
0|CS3276438|2013-03-01 22:17:08|Pascu|George||M|1979-10-25|Bucuresti|SECTOR 3|Zizin|109|V15|||92|0746468585||georgepascu@gmail.com|KTBL||1 Sobranie KS Black (8mg) Pack + voucher|Yes|Yes||BW007896|JB PARTENERS PUB SRL 2|Bucuresti|BWHRKBA47|111|CCC HRK SOBR FAM 2013|121|Horeca|0
0|CS3276439|2013-03-01 22:17:22|Zanescu|Elena||F|1986-05-05|Bucuresti|SECTOR 2|Soseaua colentina|91|-|2|5|33|0723795434||elennna@gmail.com|KTBL||1 Sobranie KS Gold  (4mg) Pack + voucher|Yes|Yes||BW007896|JB PARTENERS PUB SRL 2|Bucuresti|BWHRKBA23|111|CCC HRK SOBR FAM 2013|121|Horeca|0
0|CS3276443|2013-03-01 22:18:00|Ciocan|Lavinia||F|1975-06-20|Bucuresti|SECTOR 2|Mihai bravu|172|230|A|5|20|0755369611||lavinia.ciocan@yahoo.com|KTSV||1 Sobranie KS Gold  (4mg) Pack + voucher|Yes|Yes||BW007896|JB PARTENERS PUB SRL 2|Bucuresti|BWHRKBA13|111|CCC HRK SOBR FAM 2013|121|Horeca|0
0|CS3276447|2013-03-01 22:18:53|Poenaru|Victor||M|1986-12-12|Bucuresti|SECTOR 4|Gheorghe sincai|69|12|B||34|0757959908||poenaruvictor@yahoo.com|DAVGL||1 Sobranie KS Blue (6mg) Pack + voucher|Yes|Yes||BW007896|JB PARTENERS PUB SRL 2|Bucuresti|BWHRKBA49|111|CCC HRK SOBR FAM 2013|121|Horeca|0
0|CS3276452|2013-03-01 22:21:00|Burtoiu|Elena||F|1989-04-11|Arges|CAMPULUNG|General grigore grecescu|92|D21|B|1|5|0722564161||elenaburtoiu@yahoo.vom|KTSV||1 Sobranie KS Gold  (4mg) Pack + voucher|Yes|Yes||BW007896|JB PARTENERS PUB SRL 2|Bucuresti|BWHRKBA13|111|CCC HRK SOBR FAM 2013|121|Horeca|0
0|CS3276475|2013-03-01 22:24:29|Neagoe|Daniela||F|1987-01-12|Bucuresti|SECTOR 3|Prevederii|23|G16|B|6|62|0762986935||maimutik12@yahoo.com|KTBL||1 Sobranie KS Blue (6mg) Pack + voucher|Yes|Yes||BW007896|JB PARTENERS PUB SRL 2|Bucuresti|BWHRKBA23|111|CCC HRK SOBR FAM 2013|121|Horeca|0
0|CS3276467|2013-03-01 22:25:14|Jalba|Valeriu||M|1991-11-01|Bucuresti|SECTOR 6|Valea argesului|20|22|D||48|0724545906||jalbavaleriu91@gmail.com|DUNFCMBB||1 Sobranie KS Blue (6mg) Pack + voucher|Yes|Yes||BW007896|JB PARTENERS PUB SRL 2|Bucuresti|BWHRKBA49|111|CCC HRK SOBR FAM 2013|121|Horeca|0
0|CS3276521|2013-03-01 22:44:20|Zarioiu|Marcel||M|1985-02-02|Bucuresti|SECTOR 3|Soseau mihai bravu|428|V13|1|7|29|0761610519||marhel.marhel@yahoo.com|SBKSGD||1 Sobranie KS Gold  (4mg) Pack + voucher|Yes|Yes||BW007896|JB PARTENERS PUB SRL 2|Bucuresti|BWHRKBA13|111|CCC HRK SOBR FAM 2013|121|Horeca|0
0|CS3276540|2013-03-01 22:50:17|Jalba|Valeriu||M|1991-11-01|Bucuresti|SECTOR 6|Valea argesului|20|22|D||48|0724545906||jalbavaleriu91@gmail.com|DUNFCMBB||1 Sobranie KS Blue (6mg) Pack + voucher|Yes|Yes||BW007896|JB PARTENERS PUB SRL 2|Bucuresti|BWHRKBA49|111|CCC HRK SOBR FAM 2013|121|Horeca|0
0|CS3276560|2013-03-01 22:58:09|Chirita|Vlad||M|1985-06-25|Bucuresti|SECTOR 1|Ion ionescu de la bran|51|||||0726513544||vladch2002@yahoo.com|SBKSGD||1 Sobranie KS Gold  (4mg) Pack + voucher|Yes|Yes||BW008394|DINESCU SI LEONTE SRL|Bucuresti|BWHRKBA49|111|CCC HRK SOBR FAM 2013|121|Horeca|0
0|CS3276567|2013-03-01 22:59:24|Iliescu|Dragos||M|1973-11-18|Bucuresti|SECTOR 3|Calea vitan|106|D13|A||65|0743565578||dragosilescu@ymail.com|DUNFCSB||1 Sobranie KS Black (8mg) Pack + voucher|Yes|Yes||BW008394|DINESCU SI LEONTE SRL|Bucuresti|BWHRKBA47|111|CCC HRK SOBR FAM 2013|121|Horeca|0
0|CS3276578|2013-03-01 22:59:26|Moise|Aurel||M|1981-11-10|Bucuresti|SECTOR 3|Smardan|9|18|1|1|4|0766453566||moise.moa@yahoo.com|PARAB||1 Sobranie KS Black (8mg) Pack + voucher|Yes|Yes||BW008394|DINESCU SI LEONTE SRL|Bucuresti|BWHRKBA13|111|CCC HRK SOBR FAM 2013|121|Horeca|0
0|CS3276572|2013-03-01 23:00:27|Jijiu|Dan iulian||M|1976-07-28|Bucuresti|SECTOR 3|Mihai bravu|5|||||0766347965|||KTBL||1 Sobranie KS Blue (6mg) Pack + voucher|Yes|No||BW008394|DINESCU SI LEONTE SRL|Bucuresti|BWHRKBA23|111|CCC HRK SOBR FAM 2013|121|Horeca|0
0|CS3276584|2013-03-01 23:10:08|Barbieru|Carmen||F|1992-09-21|Bucuresti|SECTOR 3|Constantin stefan|18|||||0761488887||carmenmatei2109@yahoo.com|DUNFCBB||1 Sobranie KS Gold  (4mg) Pack + voucher|Yes|Yes||BW008554|M-M INTERNATIONAL PLANINVEST SRL|Bucuresti|BWHRKBA49|111|CCC HRK SOBR FAM 2013|121|Horeca|0
0|CS3276586|2013-03-01 23:12:36|Popa|Florentina||F|1990-12-05|Bucuresti|SECTOR 4|Mira mioara luiza|2a|N20|6||39|0761575165||flory_baby90@yahoo.com|DUNFCBB||1 Sobranie KS Gold  (4mg) Pack + voucher|Yes|Yes||BW008554|M-M INTERNATIONAL PLANINVEST SRL|Bucuresti|BWHRKBA49|111|CCC HRK SOBR FAM 2013|121|Horeca|0
0|CS3276587|2013-03-01 23:12:50|Petre|Irina||F|1982-04-14|Prahova|PLOIESTI|Bulevardul republicii|181|9d|1|5|18|0726679228||irina_petre_c@yahoo.com|KTSV||1 Sobranie KS Gold  (4mg) Pack + voucher|Yes|Yes||BW008554|M-M INTERNATIONAL PLANINVEST SRL|Bucuresti|BWHRKBA13|111|CCC HRK SOBR FAM 2013|121|Horeca|0
0|CS3276591|2013-03-01 23:14:42|Musat|Stefan||M|1984-08-13|Bucuresti|SECTOR 1|Docentilor|5a|||||0724979097||b32fly@gmail.com|MBRGLFT||1 Sobranie KS Gold  (4mg) Pack + voucher|Yes|Yes||BW008554|M-M INTERNATIONAL PLANINVEST SRL|Bucuresti|BWHRKBA23|111|CCC HRK SOBR FAM 2013|121|Horeca|0
0|CS3276598|2013-03-01 23:16:53|Panturoiu|Irina||F|1991-04-23|Dambovita|TARGOVISTE|Sergent erou nicolae|0|C2|A|3|9|0733028567||geanina.panturoiu@yahoo.com|SBKSGD||1 Sobranie KS Gold  (4mg) Pack + voucher|Yes|Yes||BW008554|M-M INTERNATIONAL PLANINVEST SRL|Bucuresti|BWHRKBA13|111|CCC HRK SOBR FAM 2013|121|Horeca|0
0|CS3276684|2013-03-01 23:42:08|Pluteanu|Diana||F|1989-07-03|Bucuresti|SECTOR 1|Hatmanul arbore|9|||||0765954089||dyanaa89@yahoo.com|SBSSPK||0 Voucher|Yes|Yes||BW006537|LOLY POP FOOD - BAR|Bucuresti|BWHRKBA49|111|CCC HRK SOBR FAM 2013|121|Horeca|0
0|CS3276692|2013-03-01 23:43:41|Toba|Razvan||M|1981-05-11|Bucuresti|SECTOR 3|Unitati|87|||||0765474020||razvan.muzica@yahoo.com|KTBL||1 Sobranie KS Black (8mg) Pack + voucher|Yes|Yes||BW006537|LOLY POP FOOD - BAR|Bucuresti|BWHRKBA47|111|CCC HRK SOBR FAM 2013|121|Horeca|0
0|CS3276693|2013-03-01 23:43:42|Vasile|Alexandra||F|1989-09-24|Bucuresti|SECTOR 2|Dinu vintila|3|3|1||12|0758020219||allesia89@yahoo.com|SBSSPK||0 Voucher|Yes|Yes||BW006537|LOLY POP FOOD - BAR|Bucuresti|BWHRKBA49|111|CCC HRK SOBR FAM 2013|121|Horeca|0
0|CS3276695|2013-03-01 23:43:57|Dinache|Irina||F|1992-05-19|Bucuresti|SECTOR 2|ENache Sandu|2|||0|0|0764375997||inna.dinache@yahoo.com|SBSSWH||0 Voucher|Yes|Yes||BW006537|LOLY POP FOOD - BAR|Bucuresti|BWHRKBA13|111|CCC HRK SOBR FAM 2013|121|Horeca|0
0|CS3276697|2013-03-01 23:44:47|Voicu|Radu||M|1984-10-22|Ilfov|VOLUNTARI|Drumul bisericii|18|||||0722709881||voicuradu84@yahoo.com|MBRGLT||1 Sobranie KS Blue (6mg) Pack + voucher|Yes|Yes||BW006537|LOLY POP FOOD - BAR|Bucuresti|BWHRKBA23|111|CCC HRK SOBR FAM 2013|121|Horeca|0
0|CS3276702|2013-03-01 23:46:52|Lazar|Andreas||M|1991-05-05|Bucuresti|SECTOR 3|Vasile lucaci|111|0|0|0|0|0766800785||andreas_neamtzu@yahoo.com|SBKSGD||1 Sobranie KS Gold  (4mg) Pack + voucher|Yes|Yes||BW006537|LOLY POP FOOD - BAR|Bucuresti|BWHRKBA49|111|CCC HRK SOBR FAM 2013|121|Horeca|0
0|CS3276706|2013-03-01 23:47:44|Ciuraru|Gabriela||M|1968-12-06|Bucuresti|SECTOR 6|Baia de aries|9|||||0768235316||gabriela_68_2006@yahoo.com|KTSV||1 Sobranie KS Gold  (4mg) Pack + voucher|Yes|Yes||BW006537|LOLY POP FOOD - BAR|Bucuresti|BWHRKBA47|111|CCC HRK SOBR FAM 2013|121|Horeca|0
0|CS3276713|2013-03-01 23:49:25|Badea|Alexandru||M|1992-09-09|Bucuresti|SECTOR 3|Aleea al moruzzi|100|1|3||47|0756326740||axxel_alex@yahoo.com|SBKSGD||1 Sobranie KS Gold  (4mg) Pack + voucher|Yes|Yes||BW006537|LOLY POP FOOD - BAR|Bucuresti|BWHRKBA49|111|CCC HRK SOBR FAM 2013|121|Horeca|0
0|CS3276715|2013-03-01 23:50:32|Strimbei|Paula||F|1991-07-07|Bucuresti|Sector 3|1 decembrie|29b|Pm79|A|7|48|0761718852||paula.strimbei@yahoo.com|KTBL||1 Sobranie KS Blue (6mg) Pack + voucher|Yes|Yes||BW006537|LOLY POP FOOD - BAR|Bucuresti|BWHRKBA13|111|CCC HRK SOBR FAM 2013|121|Horeca|0
0|CS3276716|2013-03-01 23:51:13|Dragulin|Diana||F|1987-07-25|Calarasi|CALARASI|Zefirului|3|||0|0|0734614903||diana.dragulin87@yahoo.com|SBSSPK||0 Voucher|Yes|Yes||BW006537|LOLY POP FOOD - BAR|Bucuresti|BWHRKBA47|111|CCC HRK SOBR FAM 2013|121|Horeca|0
0|CS3276719|2013-03-01 23:53:25|Neacsu|George||M|1982-07-25|Bucuresti|SECTOR 3|Calea calarasilor|176|59|C|4|18|0725200221||george_neacsu82@yahoo.com|SBKSBK||1 Sobranie KS Black (8mg) Pack + voucher|Yes|Yes||BW006537|LOLY POP FOOD - BAR|Bucuresti|BWHRKBA23|111|CCC HRK SOBR FAM 2013|121|Horeca|0
0|CS3276720|2013-03-01 23:53:32|Chirita|Claudia||F|1989-08-10|Buzau|RAMNICU SARAT|Topliceni|3|26||4|26|0767184607||chrtclaudia@yahoo.com|KTBLH||1 Sobranie KS Blue (6mg) Pack + voucher|Yes|Yes||BW006537|LOLY POP FOOD - BAR|Bucuresti|BWHRKBA13|111|CCC HRK SOBR FAM 2013|121|Horeca|0
0|CS3276729|2013-03-01 23:55:51|Sava|Robert gabriel||M|1990-07-14|Bucuresti|SECTOR 4|Aleea terasa|4|E2|3|3|56|0749206320||robert_net20@yahoo.com|MBRGLT||1 Sobranie KS Blue (6mg) Pack + voucher|Yes|Yes||BW006537|LOLY POP FOOD - BAR|Bucuresti|BWHRKBA13|111|CCC HRK SOBR FAM 2013|121|Horeca|0
0|CS3276760|2013-03-02 00:00:57|Gavrila|Daniel||M|1988-04-10|Bucuresti|SECTOR 3|Desertului|46|||||0742777547||daniel_gavrila@gmail.com|DUNFCMBB||1 Sobranie KS Blue (6mg) Pack + voucher|Yes|Yes||BW006537|LOLY POP FOOD - BAR|Bucuresti|BWHRKBA47|111|CCC HRK SOBR FAM 2013|121|Horeca|0
0|CS3276870|2013-03-02 00:19:25|Dumitrescu|Andrei||M|1984-08-16|Bucuresti|SECTOR 2|Vidin|9|57|2|1|19|0769662918||andrei_dumitrescu1984@yahoo.com|KTH||1 Sobranie KS Black (8mg) Pack + voucher|Yes|Yes||BW008713|CAFE TEMPO SRL|Bucuresti|BWHRKBA23|111|CCC HRK SOBR FAM 2013|121|Horeca|0
0|CS3276877|2013-03-02 00:21:08|Ciurcan|Mircea||M|1985-03-21|Bucuresti|SECTOR 1|Ion mihalache|104|85|B||50|0724244437||mircea.ciurcan@gmail.com|DUNFCMBB||1 Sobranie KS Blue (6mg) Pack + voucher|Yes|Yes||BW008713|CAFE TEMPO SRL|Bucuresti|BWHRKBA49|111|CCC HRK SOBR FAM 2013|121|Horeca|0
0|CS3276884|2013-03-02 00:22:16|Oprea|Claudia||F|1982-02-06|Bucuresti|SECTOR 1|Cristifer columb|3|||||0744431294||claudia_oprea@ymailwhite.com|DUNFCBB||1 Sobranie KS Gold  (4mg) Pack + voucher|Yes|Yes||BW008713|CAFE TEMPO SRL|Bucuresti|BWHRKBA13|111|CCC HRK SOBR FAM 2013|121|Horeca|0
0|CS3276900|2013-03-02 00:25:38|Secara|Ana monica||F|1980-06-25|Bucuresti|SECTOR 6|Drunul taberei|62|G28|8|3|19|0720091226||anucata2002@yahoo.com|DUNFCMBB||1 Sobranie KS Blue (6mg) Pack + voucher|Yes|Yes||BW008713|CAFE TEMPO SRL|Bucuresti|BWHRKBA13|111|CCC HRK SOBR FAM 2013|121|Horeca|0
0|CS3276911|2013-03-02 00:28:00|Cipca|Ionel||M|1978-11-21|Bucuresti|SECTOR 3|Calea barajelor|4|N6|A|5|21|0722656222||ionel.cipca@rdslink.ro|KTSV||1 Sobranie KS Gold  (4mg) Pack + voucher|Yes|Yes||BW008713|CAFE TEMPO SRL|Bucuresti|BWHRKBA13|111|CCC HRK SOBR FAM 2013|121|Horeca|0
0|CS3276930|2013-03-02 00:32:45|Cipca|Nicoleta||F|1979-06-22|Bucuresti|SECTOR 3|Barajul lotru|4|N6|1|5|21|0723521787|||KTSV||1 Sobranie KS Gold  (4mg) Pack + voucher|Yes|Yes||BW008713|CAFE TEMPO SRL|Bucuresti|BWHRKBA23|111|CCC HRK SOBR FAM 2013|121|Horeca|0
0|CS3276939|2013-03-02 00:34:35|Ambrinoc|Alexandru||M|1976-07-02|Bucuresti|SECTOR 4|Soldatgheorghe iancu|54|A|A||24|0726476865||alexxx_444@yahoo.com|KTBL||1 Sobranie KS Black (8mg) Pack + voucher|Yes|Yes||BW008713|CAFE TEMPO SRL|Bucuresti|BWHRKBA47|111|CCC HRK SOBR FAM 2013|121|Horeca|0
0|CS3276945|2013-03-02 00:36:19|Cristea|Iulian||M|1973-01-18|Bucuresti|SECTOR 2|Zambilelor|34|||||0724787577||iuliancristea_77@yahoo.com|DUNBL||1 Sobranie KS Blue (6mg) Pack + voucher|Yes|Yes||BW008713|CAFE TEMPO SRL|Bucuresti|BWHRKBA47|111|CCC HRK SOBR FAM 2013|121|Horeca|0
0|CS3278273|2013-03-02 19:24:03|Toma|Andrei||M|1980-05-24|Bucuresti|SECTOR 3|Visinilor|65|||||0766069254||andreitoma@yahoo.com|DUNFCBB||1 Sobranie KS Gold  (4mg) Pack + voucher|Yes|Yes||BWR05111|TROTTER RESTAURANT SRL|Bucuresti|BWHRKBA49|111|CCC HRK SOBR FAM 2013|121|Horeca|0
0|CS3278275|2013-03-02 19:24:31|Dumbrava|Miruna||F|1984-08-21|Arges|CAMPULUNG|Izvoarelor|170|||||0768364655||dumbrava.miru@gmail.com|KTBLH||1 Sobranie KS Black (8mg) Pack + voucher|Yes|Yes||BWR05111|TROTTER RESTAURANT SRL|Bucuresti|BWHRKBA13|111|CCC HRK SOBR FAM 2013|121|Horeca|0
0|CS3278281|2013-03-02 19:26:13|Borcanea|Dragos||M|1984-09-24|Bucuresti|SECTOR 1|Caderea bastilie|25|||||0721636748||dragos_borcanea@gmail.com|SBKSGD||1 Sobranie KS Gold  (4mg) Pack + voucher|Yes|Yes||BWR05111|TROTTER RESTAURANT SRL|Bucuresti|BWHRKBA47|111|CCC HRK SOBR FAM 2013|121|Horeca|0
0|CS3278296|2013-03-02 19:32:48|Dumitriu|Eduard||M|1987-03-17|Bucuresti|SECTOR 4|Ulmetului|38|||0|0|0724973494||edy.dumitriu@yahoo.com|SBKSBL||1 Sobranie KS Blue (6mg) Pack + voucher|Yes|Yes||BWR05111|TROTTER RESTAURANT SRL|Bucuresti|BWHRKBA49|111|CCC HRK SOBR FAM 2013|121|Horeca|0
0|CS3278300|2013-03-02 19:34:26|Bolocan|Alina marinela||F|1989-07-26|Brasov|BRASOV|Brazilor|342|||||0764514123||bolocan.marinela@gmail.com|PARAB||1 Sobranie KS Blue (6mg) Pack + voucher|Yes|Yes||BWR05111|TROTTER RESTAURANT SRL|Bucuresti|BWHRKBA91|111|CCC HRK SOBR FAM 2013|121|Horeca|0
0|CS3278384|2013-03-02 20:03:10|Andrei|Daniel||M|1982-08-17|Bucuresti|SECTOR 1|Intrarea ilies|4|||||0742857465||danielandrei82@yahoo.com|MBRGL||1 Sobranie KS Blue (6mg) Pack + voucher|Yes|Yes||BW031445|SC MEAT - MARKET FOODS SRL|Bucuresti|BWHRKBA47|111|CCC HRK SOBR FAM 2013|121|Horeca|0
0|CS3278468|2013-03-02 20:25:19|Dena|Mihai||M|1973-05-22|Bucuresti|SECTOR 3|Mihai eminescu|34|D2|A||34|0742686676||mihai_dena_2000@gmail.com|DUNFCMBB||1 Sobranie KS Blue (6mg) Pack + voucher|Yes|Yes||BW005080|OSHO-SCS TRADING SRL|Bucuresti|BWHRKBA47|111|CCC HRK SOBR FAM 2013|121|Horeca|0
0|CS3278472|2013-03-02 20:25:45|Pirvan|Marian||M|1980-09-18|Bucuresti|SECTOR 2|Urbana|120|D1|C|4|29|0764636356||pirvan.marian@yahoo.com|MBRFP||1 Sobranie KS Blue (6mg) Pack + voucher|Yes|Yes||BW005080|OSHO-SCS TRADING SRL|Bucuresti|BWHRKBA13|111|CCC HRK SOBR FAM 2013|121|Horeca|0
0|CS3278474|2013-03-02 20:25:56|Gresi|Catalin||M|1984-10-25|Bucuresti|SECTOR 1|Nicolae caramfil|20|12a|B||10|0747980142||catalin.g@gmail.com|DUNFCBB||1 Sobranie KS Gold  (4mg) Pack + voucher|Yes|Yes||BW005080|OSHO-SCS TRADING SRL|Bucuresti|BWHRKBA49|111|CCC HRK SOBR FAM 2013|121|Horeca|0
0|CS3278481|2013-03-02 20:27:58|Pirvan|George||M|1981-04-27|Bucuresti|SECTOR 4|Tomesti|12|||||0755211300||george8104@gmail.com|DAVCL||1 Sobranie KS Black (8mg) Pack + voucher|Yes|Yes||BW005080|OSHO-SCS TRADING SRL|Bucuresti|BWHRKBA91|111|CCC HRK SOBR FAM 2013|121|Horeca|0
0|CS3278483|2013-03-02 20:28:11|Ghinea|Elena||F|1976-02-17|Bucuresti|SECTOR 3|Aleea trandafirilor|34|D|C||44|0742685476||elenaghinea@yahoo.com|SBSSBK||0 Voucher|Yes|Yes||BW005080|OSHO-SCS TRADING SRL|Bucuresti|BWHRKBA47|111|CCC HRK SOBR FAM 2013|121|Horeca|0
0|CS3278487|2013-03-02 20:29:08|Bivolaru|Mihaela||F|1981-11-30|Bacau|BACAU|Tiniului|62|A|A|3|12|0764733111||bivolaru.laru@gmail.com|SBSSPK||0 Voucher|Yes|Yes||BW005080|OSHO-SCS TRADING SRL|Bucuresti|BWHRKBA13|111|CCC HRK SOBR FAM 2013|121|Horeca|0
0|CS3278490|2013-03-02 20:29:55|Tomescu|Adrian||M|1983-05-09|Bucuresti|SECTOR 1|Soseaua nordului|100|1|||12|0721868969||adriantomescu@yahoo.ro|SBKSBL||1 Sobranie KS Blue (6mg) Pack + voucher|Yes|Yes||BW005080|OSHO-SCS TRADING SRL|Bucuresti|BWHRKBA49|111|CCC HRK SOBR FAM 2013|121|Horeca|0
0|CS3278493|2013-03-02 20:30:30|Dussaix|Paul||M|1983-06-07|Bucuresti|SECTOR 1|Academiei|22|||||0730611120||paul.dussaix@yahoo.com|MBRGL||1 Sobranie KS Blue (6mg) Pack + voucher|Yes|Yes||BW005080|OSHO-SCS TRADING SRL|Bucuresti|BWHRKBA91|111|CCC HRK SOBR FAM 2013|121|Horeca|0
0|CS3278551|2013-03-02 20:46:07|Botoroaga|Virgil||M|1978-05-28|Brasov|BRASOV|Calea bucuresti|1|||||0766213676|||DAVCL||1 Sobranie KS Black (8mg) Pack + voucher|Yes|Yes||BW006201|TAVERNA SARBULUI SRL|Bucuresti|BWHRKBA91|111|CCC HRK SOBR FAM 2013|121|Horeca|0
0|CS3278556|2013-03-02 20:48:55|Padina|William||M|1974-08-25|Bucuresti|SECTOR 2|Fundeni|1|38|1|5|29|0743065991||william.padina@gmail.com|CAWH||1 Sobranie KS Gold  (4mg) Pack + voucher|Yes|Yes||BW006201|TAVERNA SARBULUI SRL|Bucuresti|BWHRKBA13|111|CCC HRK SOBR FAM 2013|121|Horeca|0
0|CS3278565|2013-03-02 20:52:27|Andriuca|Tudor||M|1982-08-14|Prahova|PLOIESTI|Garii|35|12a|B||21|0745869121||tudor.and@yahoo.com|DUNFCBB||1 Sobranie KS Gold  (4mg) Pack + voucher|Yes|Yes||BW006201|TAVERNA SARBULUI SRL|Bucuresti|BWHRKBA49|111|CCC HRK SOBR FAM 2013|121|Horeca|0
0|CS3278566|2013-03-02 20:52:30|Trandafirescu|Georgiana||F|1970-04-19|Ilfov|BUFTEA|Irimiescu|55|||||0727476679||georgiana_trandaf@yahoo.com|DUNFCBB||1 Sobranie KS Gold  (4mg) Pack + voucher|Yes|Yes||BW006201|TAVERNA SARBULUI SRL|Bucuresti|BWHRKBA47|111|CCC HRK SOBR FAM 2013|121|Horeca|0
0|CS3278568|2013-03-02 20:52:56|Toma|Mihai||M|1982-08-01|Bucuresti|SECTOR 2|Fundeni|1|20|A|3|27|0769474524||toma_mihai@yahoo.com|KTSV||1 Sobranie KS Gold  (4mg) Pack + voucher|Yes|Yes||BW006201|TAVERNA SARBULUI SRL|Bucuresti|BWHRKBA13|111|CCC HRK SOBR FAM 2013|121|Horeca|0
0|CS3278572|2013-03-02 20:54:14|Stoian|Razvan||M|1988-10-25|Bucuresti|SECTOR 1|Ghiozdanului|13|||||0776202155||razvan_razvi22@yahoo.com|DUNFCBB||1 Sobranie KS Gold  (4mg) Pack + voucher|Yes|Yes||BW006201|TAVERNA SARBULUI SRL|Bucuresti|BWHRKBA91|111|CCC HRK SOBR FAM 2013|121|Horeca|0
0|CS3278578|2013-03-02 20:55:11|Marinica|Andreea||F|1988-11-23|Bihor|Bihor|Sf. Vineri|0|D3|S|1|14|0764736355||andreea_ooo@yahoo.com|DUNFCMBB||1 Sobranie KS Blue (6mg) Pack + voucher|Yes|Yes||BW006201|TAVERNA SARBULUI SRL|Bucuresti|BWHRKBA13|111|CCC HRK SOBR FAM 2013|121|Horeca|0
0|CS3278580|2013-03-02 20:55:53|Ilie|Alexandru||M|1980-01-15|Bucuresti|SECTOR 5|13septembrie|67|V12|D||43|0741574768||alexandruilie_1980@yahoo.com|DUNFCMBB||1 Sobranie KS Blue (6mg) Pack + voucher|Yes|Yes||BW006201|TAVERNA SARBULUI SRL|Bucuresti|BWHRKBA47|111|CCC HRK SOBR FAM 2013|121|Horeca|0
0|CS3278585|2013-03-02 20:57:15|Vasile|Sergiu||M|1977-08-25|Bucuresti|SECTOR 1|Caramfolie|40|12b|A||56|0721658409|||DAVGL||1 Sobranie KS Gold  (4mg) Pack + voucher|Yes|Yes||BW006201|TAVERNA SARBULUI SRL|Bucuresti|BWHRKBA49|111|CCC HRK SOBR FAM 2013|121|Horeca|0
0|CS3278587|2013-03-02 20:57:30|Papadopol|Gabriel||M|1973-01-22|Braila|BRAILA|Alizeelor|22|||||0721909885||papadopol_gabriel@yahoo.com|MBRRDH||1 Sobranie KS Black (8mg) Pack + voucher|Yes|Yes||BW006201|TAVERNA SARBULUI SRL|Bucuresti|BWHRKBA91|111|CCC HRK SOBR FAM 2013|121|Horeca|0
0|CS3278588|2013-03-02 20:57:31|Popa|Madalina||F|1980-05-24|Calarasi|VALEA ARGOVEI|Principala|79|||||0769241233||popamadalina@ymail.com|SBSSPK||0 Voucher|Yes|Yes||BW006201|TAVERNA SARBULUI SRL|Bucuresti|BWHRKBA13|111|CCC HRK SOBR FAM 2013|121|Horeca|0
0|CS3278681|2013-03-02 21:30:32|Constantin|Robi||M|1986-05-02|Bucuresti|SECTOR 6|Democratiei|6|29|1|6|29|0724934671||aspecto_07@yahoo.com|SBKSGD||1 Sobranie KS Gold  (4mg) Pack + voucher|Yes|Yes||BW031445|SC MEAT - MARKET FOODS SRL|Bucuresti|BWHRKBA49|111|CCC HRK SOBR FAM 2013|121|Horeca|0
0|CS3278689|2013-03-02 21:33:58|Filimon|George||M|1976-10-21|Bucuresti|SECTOR 1|Alexandru serbanescu|63|||||0742565454||georgefilimon@gmail.com|DAVGL||1 Sobranie KS Blue (6mg) Pack + voucher|Yes|Yes||BW031445|SC MEAT - MARKET FOODS SRL|Bucuresti|BWHRKBA47|111|CCC HRK SOBR FAM 2013|121|Horeca|0
0|CS3278690|2013-03-02 21:34:04|Alexandru|Alexandru||M|1982-08-22|Bucuresti|SECTOR 1|Calea floreasca|50|12|||2|0747560798||al_alexandru@yahoo.com|DUNFCSB||1 Sobranie KS Black (8mg) Pack + voucher|Yes|Yes||BW031445|SC MEAT - MARKET FOODS SRL|Bucuresti|BWHRKBA49|111|CCC HRK SOBR FAM 2013|121|Horeca|0
0|CS3278694|2013-03-02 21:34:44|Cornateanu|Dorin||M|1979-08-25|Bucuresti|SECTOR 4|Secuilor|32|||||0743422501||dodo_dorin@yahoo.com|DUNFCMBB||1 Sobranie KS Blue (6mg) Pack + voucher|Yes|Yes||BW031445|SC MEAT - MARKET FOODS SRL|Bucuresti|BWHRKBA91|111|CCC HRK SOBR FAM 2013|121|Horeca|0
0|CS3278695|2013-03-02 21:35:07|Jumuga|Ionut||M|1983-08-08|Bucuresti|SECTOR 4|Brancoveanu|32|E|1|0|5|0788463521||jumuga.ion@yahoo.com|KTBL||1 Sobranie KS Blue (6mg) Pack + voucher|Yes|Yes||BW031445|SC MEAT - MARKET FOODS SRL|Bucuresti|BWHRKBA13|111|CCC HRK SOBR FAM 2013|121|Horeca|0
0|CS3278772|2013-03-02 21:55:40|Mocanu|Oana||F|1981-03-27|Bucuresti|SECTOR 6|Col infinitului|1|N|1|0|6|0744315330||oanacristina_m@yahoo.com|SBKSGD||1 Sobranie KS Gold  (4mg) Pack + voucher|Yes|Yes||BW031411|MOUSTACHE INVESTMENT SRL|Bucuresti|BWHRKBA49|111|CCC HRK SOBR FAM 2013|121|Horeca|0
0|CS3278776|2013-03-02 21:57:26|Mugur|Dragos||M|1984-05-15|Bucuresti|SECTOR 4|Filantropiei|111|||||0768453546||mugur.dragos@yahoo.com|ROTH||1 Sobranie KS Black (8mg) Pack + voucher|Yes|Yes||BW031411|MOUSTACHE INVESTMENT SRL|Bucuresti|BWHRKBA13|111|CCC HRK SOBR FAM 2013|121|Horeca|0
0|CS3278777|2013-03-02 21:57:40|Militello|Luca||M|1977-10-01|Bucuresti|SECTOR 2|Vintila|6|||||0742106321||lucamilitello@libero.it|MBRRD||1 Sobranie KS Black (8mg) Pack + voucher|Yes|Yes||BW031411|MOUSTACHE INVESTMENT SRL|Bucuresti|BWHRKBA47|111|CCC HRK SOBR FAM 2013|121|Horeca|0
0|CS3278779|2013-03-02 21:57:52|Cristescu|Mihaela||F|1985-03-08|Bucuresti|SECTOR 5|Novaci|13|||||0730877502||mikky_mika@yahoo.com|SBSSWH||0 Voucher|Yes|Yes||BW031411|MOUSTACHE INVESTMENT SRL|Bucuresti|BWHRKBA91|111|CCC HRK SOBR FAM 2013|121|Horeca|0
0|CS3278785|2013-03-02 21:59:44|Moroiu|Antonia||F|1982-08-23|Bucuresti|SECTOR 3|Dristorului|13|||||0744968065||antonia.m@yahoo.cm|SBSSWH||0 Voucher|Yes|Yes||BW031411|MOUSTACHE INVESTMENT SRL|Bucuresti|BWHRKBA49|111|CCC HRK SOBR FAM 2013|121|Horeca|0
0|CS3278786|2013-03-02 22:00:16|Damian|Alin||M|1980-12-14|Bucuresti|SECTOR 4|Oltenitei|45|||||0742545467||alindamian@gmail.com|MBRGL||1 Sobranie KS Blue (6mg) Pack + voucher|Yes|Yes||BW031411|MOUSTACHE INVESTMENT SRL|Bucuresti|BWHRKBA47|111|CCC HRK SOBR FAM 2013|121|Horeca|0
0|CS3278815|2013-03-02 22:10:25|Milea|Diana||F|1972-04-17|Bucuresti|SECTOR 6|Dr taberei|35|||Se||0723687584||miruna_dn@yahoo.com|KTSV||1 Sobranie KS Gold  (4mg) Pack + voucher|Yes|Yes||BW005229|INTREPRINDEREA DE BUNATATI RL SRL|Bucuresti|BWHRKBA47|111|CCC HRK SOBR FAM 2013|121|Horeca|0
0|CS3278858|2013-03-02 22:23:18|Montoc|Maia||F|1994-01-10|Bucuresti|SECTOR 2|Garibaldi|95|||Se||0732383090||maia.bmotoc@yahoo.com|SBKSGD||1 Sobranie KS Gold  (4mg) Pack + voucher|Yes|Yes||BW007896|JB PARTENERS PUB SRL 2|Bucuresti|BWHRKBA47|111|CCC HRK SOBR FAM 2013|121|Horeca|0
0|CS3278859|2013-03-02 22:23:28|Dragomir|Valentina||M|1981-04-22|Bucuresti|SECTOR 6|Giulesti|337|6|A||81|0720887488||veronik_veronik81@yahoo.com|DUNFCMBB||1 Sobranie KS Blue (6mg) Pack + voucher|Yes|Yes||BW007896|JB PARTENERS PUB SRL 2|Bucuresti|BWHRKBA49|111|CCC HRK SOBR FAM 2013|121|Horeca|0
0|CS3278865|2013-03-02 22:25:59|Cirlescu|Ovidiu||M|1973-02-06|Bucuresti|SECTOR 6|Drumul taberei|35a|803|C||105|0723168347|||SBKSBL||1 Sobranie KS Blue (6mg) Pack + voucher|Yes|Yes||BW007896|JB PARTENERS PUB SRL 2|Bucuresti|BWHRKBA49|111|CCC HRK SOBR FAM 2013|121|Horeca|0
0|CS3278866|2013-03-02 22:26:03|Stoica|Remus||M|1988-04-09|Bucuresti|SECTOR 1|Str.soseaua bucuresti|280a|||0|0|0720170754||remy1988fcn@yahoo.com|KTBL||1 Sobranie KS Black (8mg) Pack + voucher|Yes|Yes||BW007896|JB PARTENERS PUB SRL 2|Bucuresti|BWHRKBA47|111|CCC HRK SOBR FAM 2013|121|Horeca|0
0|CS3278870|2013-03-02 22:26:34|Caramihai|Teodora||F|1986-06-18|Bucuresti|SECTOR 6|Gheorghe saida|5|28|A|1|15|0753333626||concurslg@yahoo.com|DUNFCBB||1 Sobranie KS Gold  (4mg) Pack + voucher|Yes|Yes||BW007896|JB PARTENERS PUB SRL 2|Bucuresti|BWHRKBA13|111|CCC HRK SOBR FAM 2013|121|Horeca|0
0|CS3278872|2013-03-02 22:27:32|Ionita|Dragos||M|1995-01-27|Bucuresti|SECTOR 1|Washington|31|||||0727596131||dragosionita1@yahoo.com|KTSV||1 Sobranie KS Gold  (4mg) Pack + voucher|Yes|Yes||BW007896|JB PARTENERS PUB SRL 2|Bucuresti|BWHRKBA91|111|CCC HRK SOBR FAM 2013|121|Horeca|0
0|CS3278873|2013-03-02 22:28:22|Raducu|Daniel||M|1984-01-01|Constanta|CONSTANTA|Libertatii|31|||0|0|0724085379||danny_r2000@yahoo.com|DUNBL||1 Sobranie KS Blue (6mg) Pack + voucher|Yes|Yes||BW007896|JB PARTENERS PUB SRL 2|Bucuresti|BWHRKBA13|111|CCC HRK SOBR FAM 2013|121|Horeca|0
0|CS3278877|2013-03-02 22:29:41|Adam|Oana||F|1986-09-14|Bucuresti|SECTOR 3|Calea vitan|109|||||0742574467||oanadam@gmail.com|DUNFCMBB||1 Sobranie KS Blue (6mg) Pack + voucher|Yes|Yes||BW007896|JB PARTENERS PUB SRL 2|Bucuresti|BWHRKBA47|111|CCC HRK SOBR FAM 2013|121|Horeca|0
0|CS3278879|2013-03-02 22:30:16|Bunea|Adrian||M|1980-09-23|Bucuresti|SECTOR 2|Mihai bravu|200|C45|A||60|0722536875||adrian.bunea@yahoo.com|DUNFCBB||1 Sobranie KS Gold  (4mg) Pack + voucher|Yes|Yes||BW007896|JB PARTENERS PUB SRL 2|Bucuresti|BWHRKBA49|111|CCC HRK SOBR FAM 2013|121|Horeca|0
0|CS3278884|2013-03-02 22:31:37|Rautu|Adrian||M|1991-09-29|Constanta|CONSTANTA|Bulavardul mamaia|0|T|A|4|12|0768375657||rautu.adri@yahoo.com|DUNBL||1 Sobranie KS Blue (6mg) Pack + voucher|Yes|Yes||BW007896|JB PARTENERS PUB SRL 2|Bucuresti|BWHRKBA13|111|CCC HRK SOBR FAM 2013|121|Horeca|0
0|CS3278888|2013-03-02 22:32:16|Grigore|Madalina||F|1988-04-29|Braila|Braila|Calea dunarii|22|||||0766443657||madaleenne_22@yahoo.com|SBSSPK||0 Voucher|Yes|Yes||BW007896|JB PARTENERS PUB SRL 2|Bucuresti|BWHRKBA91|111|CCC HRK SOBR FAM 2013|121|Horeca|0
0|CS3278914|2013-03-02 22:44:01|Ciur|Andrei||M|1990-01-18|Bucuresti|SECTOR 2|Alexandru cel bn|12|||||0722128118||reiciur@yahoo.com|SBKSBK||1 Sobranie KS Black (8mg) Pack + voucher|Yes|Yes||BW007896|JB PARTENERS PUB SRL 2|Bucuresti|BWHRKBA47|111|CCC HRK SOBR FAM 2013|121|Horeca|0
0|CS3278947|2013-03-02 22:50:41|Nut|Marian||F|1975-03-07|Bucuresti|SECTOR 4|Rezonantei|1-3|15-16|C||34|0723277211||mariannut@gmail.com|DUNGL||1 Sobranie KS Gold  (4mg) Pack + voucher|Yes|Yes||BW008394|DINESCU SI LEONTE SRL|Bucuresti|BWHRKBA49|111|CCC HRK SOBR FAM 2013|121|Horeca|0
0|CS3278949|2013-03-02 22:53:59|Stefan|Mircea||M|1957-09-01|Bucuresti|SECTOR 3|Bd decebal|2|||||0723374483||mircea_si@yahoo.com|SBKSGD||1 Sobranie KS Gold  (4mg) Pack + voucher|Yes|Yes||BW008394|DINESCU SI LEONTE SRL|Bucuresti|BWHRKBA47|111|CCC HRK SOBR FAM 2013|121|Horeca|0
0|CS3278945|2013-03-02 22:54:32|Ghetaru|Mihai||M|1984-04-13|Bucuresti|SECTOR 1|Polona|12|||||0722108777||mihai_mike@ymail.com|DUNFCBB||1 Sobranie KS Gold  (4mg) Pack + voucher|Yes|Yes||BW008394|DINESCU SI LEONTE SRL|Bucuresti|BWHRKBA91|111|CCC HRK SOBR FAM 2013|121|Horeca|0
0|CS3278951|2013-03-02 22:55:14|Antoce|Florin||M|1978-08-31|Bucuresti|SECTOR 3|Burdujeni|3|A13|4|4|48|0730298436||antoceflorin@yahoo.com|CAWH||1 Sobranie KS Gold  (4mg) Pack + voucher|Yes|Yes||BW008394|DINESCU SI LEONTE SRL|Bucuresti|BWHRKBA13|111|CCC HRK SOBR FAM 2013|121|Horeca|0
0|CS3278975|2013-03-02 23:04:03|Cosma|Andreea||F|1979-05-05|Bucuresti|SECTOR 3|Constantinbrancusi|7|||||0732668154||andreiutza79@yahoo.com|SBSSWH||0 Voucher|Yes|Yes||BW008554|M-M INTERNATIONAL PLANINVEST SRL|Bucuresti|BWHRKBA91|111|CCC HRK SOBR FAM 2013|121|Horeca|0
0|CS3278981|2013-03-02 23:04:56|Farcas|Biana||F|1986-05-14|Bucuresti|SECTOR 3|Vlad radu|1|B13|||80|0745797225||bigibya@yahoo.com|SBKSBK||1 Sobranie KS Black (8mg) Pack + voucher|Yes|Yes||BW008554|M-M INTERNATIONAL PLANINVEST SRL|Bucuresti|BWHRKBA49|111|CCC HRK SOBR FAM 2013|121|Horeca|0
0|CS3278984|2013-03-02 23:05:35|Dragan|Vlad||M|1985-08-06|Bucuresti|SECTOR 4|Plugarilor|5|||||0723519656||dragan_vl@yahoo.com|KTSWIT||1 Sobranie KS Blue (6mg) Pack + voucher|Yes|Yes||BW008554|M-M INTERNATIONAL PLANINVEST SRL|Bucuresti|BWHRKBA47|111|CCC HRK SOBR FAM 2013|121|Horeca|0
0|CS3278988|2013-03-02 23:06:53|Popescu|Laura||F|1987-10-10|Bucuresti|SECTOR 3|Liviu rebreanu|15|N3|A|5|74|0744201304||classicque_laura@yahoo.com|KTBLH||1 Sobranie KS Blue (6mg) Pack + voucher|Yes|Yes||BW008554|M-M INTERNATIONAL PLANINVEST SRL|Bucuresti|BWHRKBA13|111|CCC HRK SOBR FAM 2013|121|Horeca|0
0|CS3278994|2013-03-02 23:09:10|Cordu|Andreea||F|1990-03-04|Bucuresti|SECTOR 1|Parfumului|25|||||0723818866||andreeacordu@yahoo.com|SBSSWH||0 Voucher|Yes|Yes||BW008554|M-M INTERNATIONAL PLANINVEST SRL|Bucuresti|BWHRKBA91|111|CCC HRK SOBR FAM 2013|121|Horeca|0
0|CS3278999|2013-03-02 23:09:51|Florescu|Lorena||F|1981-10-13|Bucuresti|SECTOR 6|Margelelor|112/12|N32|3|4|4|0733101218||lorena.florescu@vig.ro|SBSSWH||0 Voucher|Yes|Yes||BW008554|M-M INTERNATIONAL PLANINVEST SRL|Bucuresti|BWHRKBA13|111|CCC HRK SOBR FAM 2013|121|Horeca|0
0|CS3279004|2013-03-02 23:11:57|Ivan|Andrei||M|1993-05-05|Bucuresti|SECTOR 5|Motoc|7|P48|2||48|0766257213||ivan.emilian93@yahoo.com|DUNFCMBB||1 Sobranie KS Blue (6mg) Pack + voucher|Yes|Yes||BW008554|M-M INTERNATIONAL PLANINVEST SRL|Bucuresti|BWHRKBA49|111|CCC HRK SOBR FAM 2013|121|Horeca|0
0|CS3279006|2013-03-02 23:12:39|Enes|Maria||F|1984-01-01|Bucuresti|SECTOR 2|Vatra luminoasa|28|||||0730827509||l.marish@gmail.com|KTSV||1 Sobranie KS Gold  (4mg) Pack + voucher|Yes|Yes||BW008554|M-M INTERNATIONAL PLANINVEST SRL|Bucuresti|BWHRKBA47|111|CCC HRK SOBR FAM 2013|121|Horeca|0
0|CS3279025|2013-03-02 23:20:17|Buga|Oana||F|1987-07-21|Bucuresti|SECTOR 6|Margelelor|0|D2|B|4|13|0735242567||buga.oannna@yahoo.com|MBRFPEX||1 Sobranie KS Gold  (4mg) Pack + voucher|Yes|Yes||BW008554|M-M INTERNATIONAL PLANINVEST SRL|Bucuresti|BWHRKBA13|111|CCC HRK SOBR FAM 2013|121|Horeca|0
0|CS3279059|2013-03-02 23:36:59|De Luca|Nadia||F|1982-05-17|Bucuresti|SECTOR 3|Odobesti|13|||0|0|0722681655||deluca2636@gmail.com|SBSSPK||0 Voucher|Yes|Yes||BW008713|CAFE TEMPO SRL|Bucuresti|BWHRKBA49|111|CCC HRK SOBR FAM 2013|121|Horeca|0
0|CS3279071|2013-03-02 23:44:42|Baditescu|Marian||M|0000-00-00|Bucuresti|SECTOR 6|Dreptatii|22|||||0766520900||s_baditescu@yahoo.com|DAVGL||1 Sobranie KS Blue (6mg) Pack + voucher|Yes|Yes||BW008713|CAFE TEMPO SRL|Bucuresti|BWHRKBA91|111|CCC HRK SOBR FAM 2013|121|Horeca|0
0|CS3279073|2013-03-02 23:45:02|Gunea|Mihai||M|1982-06-11|Buzau|BUZAU|Plopilor|37|A1|A|2|21|0768373646||gunea.miai@yahoo.com|KTBL||1 Sobranie KS Black (8mg) Pack + voucher|Yes|Yes||BW008713|CAFE TEMPO SRL|Bucuresti|BWHRKBA13|111|CCC HRK SOBR FAM 2013|121|Horeca|0
0|CS3279077|2013-03-02 23:46:47|Banu|Cosmin||M|1978-11-08|Bucuresti|SECTOR 4|Stefan cel mare|188|||||0723543688||cocolino_kok@yahoo.com|KTBL||1 Sobranie KS Blue (6mg) Pack + voucher|Yes|Yes||BW008713|CAFE TEMPO SRL|Bucuresti|BWHRKBA91|111|CCC HRK SOBR FAM 2013|121|Horeca|0
0|FS756857|2013-02-28 19:08:24||||F|||||||||||||DUNFCMBB||||||||||111|CCC HRK SOBR FAM 2013|121|Horeca|0
0|FS756863|2013-02-28 19:09:00||||F|||||||||||||VIRSPR||||||||||111|CCC HRK SOBR FAM 2013|121|Horeca|0
0|FS756864|2013-02-28 19:09:08||||F|||||||||||||DUNGL||||||||||111|CCC HRK SOBR FAM 2013|121|Horeca|0
0|FS757016|2013-02-28 19:28:57||||M|||||||||||||DUNFCBB||||||||||111|CCC HRK SOBR FAM 2013|121|Horeca|0
0|FS757041|2013-02-28 19:32:27||||M|||||||||||||MBRFPEX||||||||||111|CCC HRK SOBR FAM 2013|121|Horeca|0
0|FS757084|2013-02-28 19:37:07||||F|||||||||||||PARABH||||||||||111|CCC HRK SOBR FAM 2013|121|Horeca|0
0|FS757085|2013-02-28 19:37:12||||M|||||||||||||PARABH||||||||||111|CCC HRK SOBR FAM 2013|121|Horeca|0
0|FS757087|2013-02-28 19:37:30||||F|||||||||||||KTNWH||||||||||111|CCC HRK SOBR FAM 2013|121|Horeca|0
0|FS757133|2013-02-28 19:44:27||||F|||||||||||||MBRGLFT||||||||||111|CCC HRK SOBR FAM 2013|121|Horeca|0
0|FS757135|2013-02-28 19:44:30||||F|||||||||||||MBRBI||||||||||111|CCC HRK SOBR FAM 2013|121|Horeca|0
0|FS757147|2013-02-28 19:46:15||||F|||||||||||||VIRSAC||||||||||111|CCC HRK SOBR FAM 2013|121|Horeca|0
0|FS757150|2013-02-28 19:46:41||||M|||||||||||||MBRFP||||||||||111|CCC HRK SOBR FAM 2013|121|Horeca|0
0|FS757197|2013-02-28 19:53:47||||M|||||||||||||CAWH||||||||||111|CCC HRK SOBR FAM 2013|121|Horeca|0
0|FS757204|2013-02-28 19:54:46||||M|||||||||||||DUNFCBB||||||||||111|CCC HRK SOBR FAM 2013|121|Horeca|0
0|FS757251|2013-02-28 20:04:33||||M|||||||||||||MBRGLFT||||||||||111|CCC HRK SOBR FAM 2013|121|Horeca|0
0|FS757252|2013-02-28 20:04:54||||M|||||||||||||DAVGL||||||||||111|CCC HRK SOBR FAM 2013|121|Horeca|0
0|FS757253|2013-02-28 20:05:15||||M|||||||||||||DAVGLS||||||||||111|CCC HRK SOBR FAM 2013|121|Horeca|0
0|FS757256|2013-02-28 20:05:33||||F|||||||||||||VIRSPR||||||||||111|CCC HRK SOBR FAM 2013|121|Horeca|0
0|FS757264|2013-02-28 20:08:27||||M|||||||||||||KTBL6||||||||||111|CCC HRK SOBR FAM 2013|121|Horeca|0
0|FS757291|2013-02-28 20:19:47||||M|||||||||||||DUNFCMBB||||||||||111|CCC HRK SOBR FAM 2013|121|Horeca|0
0|FS757293|2013-02-28 20:20:47||||M|||||||||||||MBRGL||||||||||111|CCC HRK SOBR FAM 2013|121|Horeca|0
0|FS757298|2013-02-28 20:24:48||||M|||||||||||||PARABH||||||||||111|CCC HRK SOBR FAM 2013|121|Horeca|0
0|FS757355|2013-02-28 20:55:37||||F|||||||||||||KTNBK||||||||||111|CCC HRK SOBR FAM 2013|121|Horeca|0
0|FS757378|2013-02-28 21:13:50||||M|||||||||||||CAFI||||||||||111|CCC HRK SOBR FAM 2013|121|Horeca|0
0|FS757379|2013-02-28 21:14:05||||F|||||||||||||VIRSPR||||||||||111|CCC HRK SOBR FAM 2013|121|Horeca|0
0|FS757388|2013-02-28 21:21:30||||F|||||||||||||VOGABP||||||||||111|CCC HRK SOBR FAM 2013|121|Horeca|0
0|FS757399|2013-02-28 21:28:49||||M|||||||||||||CABL||||||||||111|CCC HRK SOBR FAM 2013|121|Horeca|0
0|FS757404|2013-02-28 21:31:33||||M|||||||||||||PARAB||||||||||111|CCC HRK SOBR FAM 2013|121|Horeca|0
0|FS757451|2013-02-28 21:57:30||||F|||||||||||||CAWH||||||||||111|CCC HRK SOBR FAM 2013|121|Horeca|0
0|FS757461|2013-02-28 22:01:56||||M|||||||||||||KTBL||||||||||111|CCC HRK SOBR FAM 2013|121|Horeca|0
0|FS757463|2013-02-28 22:07:19||||F|||||||||||||KTBL||||||||||111|CCC HRK SOBR FAM 2013|121|Horeca|0
0|FS757534|2013-02-28 22:30:50||||F|||||||||||||KTSWIT||||||||||111|CCC HRK SOBR FAM 2013|121|Horeca|0
0|FS757543|2013-02-28 22:33:22||||F|||||||||||||VIRSV||||||||||111|CCC HRK SOBR FAM 2013|121|Horeca|0
0|FS757577|2013-02-28 23:05:56||||F|||||||||||||KTSV||||||||||111|CCC HRK SOBR FAM 2013|121|Horeca|0
0|FS757594|2013-02-28 23:13:22||||F|||||||||||||VIRSPR||||||||||111|CCC HRK SOBR FAM 2013|121|Horeca|0
0|FS757595|2013-02-28 23:13:23||||M|||||||||||||DUNFCMBB||||||||||111|CCC HRK SOBR FAM 2013|121|Horeca|0
0|FS757597|2013-02-28 23:13:56||||M|||||||||||||CAWH||||||||||111|CCC HRK SOBR FAM 2013|121|Horeca|0
0|FS757598|2013-02-28 23:14:22|||||||||||||||||PARRSSMH||||||||||111|CCC HRK SOBR FAM 2013|121|Horeca|0
0|FS757610|2013-02-28 23:25:46||||F|||||||||||||GLPBPKFT||||||||||111|CCC HRK SOBR FAM 2013|121|Horeca|0
0|FS757616|2013-02-28 23:26:22||||M|||||||||||||DAVGL||||||||||111|CCC HRK SOBR FAM 2013|121|Horeca|0
0|FS757620|2013-02-28 23:28:08||||F|||||||||||||PMBL||||||||||111|CCC HRK SOBR FAM 2013|121|Horeca|0
0|FS757623|2013-02-28 23:31:10||||F|||||||||||||GLMLIL||||||||||111|CCC HRK SOBR FAM 2013|121|Horeca|0
0|FS759603|2013-03-01 20:01:32||||M|||||||||||||KTBL||||||||||111|CCC HRK SOBR FAM 2013|121|Horeca|0
0|FS759605|2013-03-01 20:01:34||||M|||||||||||||DAVGL||||||||||111|CCC HRK SOBR FAM 2013|121|Horeca|0
0|FS759648|2013-03-01 20:08:26||||F|||||||||||||VOGLL||||||||||111|CCC HRK SOBR FAM 2013|121|Horeca|0
0|FS759660|2013-03-01 20:13:10||||F|||||||||||||VIRSPR||||||||||111|CCC HRK SOBR FAM 2013|121|Horeca|0
0|FS759662|2013-03-01 20:14:13||||F|||||||||||||DAVGL||||||||||111|CCC HRK SOBR FAM 2013|121|Horeca|0
0|FS759736|2013-03-01 20:29:26||||M|||||||||||||DAVCL||||||||||111|CCC HRK SOBR FAM 2013|121|Horeca|0
0|FS759747|2013-03-01 20:32:31||||M|||||||||||||DUNFCMBB||||||||||111|CCC HRK SOBR FAM 2013|121|Horeca|0
0|FS759816|2013-03-01 20:48:49||||M|||||||||||||MBRFP||||||||||111|CCC HRK SOBR FAM 2013|121|Horeca|0
0|FS759829|2013-03-01 20:49:43||||F|||||||||||||DUNFCBB||||||||||111|CCC HRK SOBR FAM 2013|121|Horeca|0
0|FS759833|2013-03-01 20:49:55||||M|||||||||||||KTNBL||||||||||111|CCC HRK SOBR FAM 2013|121|Horeca|0
0|FS759838|2013-03-01 20:50:10||||F|||||||||||||DUNFCBB||||||||||111|CCC HRK SOBR FAM 2013|121|Horeca|0
0|FS759839|2013-03-01 20:50:17||||F|||||||||||||DAVGL||||||||||111|CCC HRK SOBR FAM 2013|121|Horeca|0
0|FS759841|2013-03-01 20:50:40||||M|||||||||||||DUNFCMBB||||||||||111|CCC HRK SOBR FAM 2013|121|Horeca|0
0|FS759845|2013-03-01 20:53:02||||F|||||||||||||WIBL||||||||||111|CCC HRK SOBR FAM 2013|121|Horeca|0
0|FS759929|2013-03-01 21:10:11||||M|||||||||||||KTBL||||||||||111|CCC HRK SOBR FAM 2013|121|Horeca|0
0|FS759932|2013-03-01 21:10:40|||||||||||||||||KTWH||||||||||111|CCC HRK SOBR FAM 2013|121|Horeca|0
0|FS759934|2013-03-01 21:11:10||||M|||||||||||||DAVGL||||||||||111|CCC HRK SOBR FAM 2013|121|Horeca|0
0|FS760082|2013-03-01 21:45:21||||M|||||||||||||DUNFCMBB||||||||||111|CCC HRK SOBR FAM 2013|121|Horeca|0
0|FS760113|2013-03-01 21:49:02||||M|||||||||||||CABL||||||||||111|CCC HRK SOBR FAM 2013|121|Horeca|0
0|FS760127|2013-03-01 21:51:15||||F|||||||||||||MBRRD||||||||||111|CCC HRK SOBR FAM 2013|121|Horeca|0
0|FS760158|2013-03-01 21:59:30||||M|||||||||||||MBRGLFT||||||||||111|CCC HRK SOBR FAM 2013|121|Horeca|0
0|FS760159|2013-03-01 21:59:40||||M|||||||||||||MBRGLFT||||||||||111|CCC HRK SOBR FAM 2013|121|Horeca|0
0|FS760183|2013-03-01 22:06:00||||F|||||||||||||VOGJSN||||||||||111|CCC HRK SOBR FAM 2013|121|Horeca|0
0|FS760261|2013-03-01 22:29:08||||F|||||||||||||VOGABP||||||||||111|CCC HRK SOBR FAM 2013|121|Horeca|0
0|FS760266|2013-03-01 22:29:40||||M|||||||||||||MBRFP||||||||||111|CCC HRK SOBR FAM 2013|121|Horeca|0
0|FS760286|2013-03-01 22:33:12||||M|||||||||||||RW||||||||||111|CCC HRK SOBR FAM 2013|121|Horeca|0
0|FS760355|2013-03-01 22:55:19||||M|||||||||||||DUNFCMBB||||||||||111|CCC HRK SOBR FAM 2013|121|Horeca|0
0|FS760365|2013-03-01 22:57:57||||M|||||||||||||MBRGLFT||||||||||111|CCC HRK SOBR FAM 2013|121|Horeca|0
0|FS760392|2013-03-01 23:08:39||||M|||||||||||||MBRGL||||||||||111|CCC HRK SOBR FAM 2013|121|Horeca|0
0|FS760393|2013-03-01 23:09:36||||F|||||||||||||VIRSPR||||||||||111|CCC HRK SOBR FAM 2013|121|Horeca|0
0|FS760395|2013-03-01 23:10:45||||F|||||||||||||SBSSWH||||||||||111|CCC HRK SOBR FAM 2013|121|Horeca|0
0|FS760446|2013-03-01 23:17:02||||M|||||||||||||KTSV||||||||||111|CCC HRK SOBR FAM 2013|121|Horeca|0
0|FS760517|2013-03-01 23:48:09||||F|||||||||||||DUNFCBB||||||||||111|CCC HRK SOBR FAM 2013|121|Horeca|0
0|FS760523|2013-03-01 23:51:04||||M|||||||||||||DUNFCBB||||||||||111|CCC HRK SOBR FAM 2013|121|Horeca|0
0|FS761696|2013-03-02 19:00:52||||F|||||||||||||GLMMNT||||||||||111|CCC HRK SOBR FAM 2013|121|Horeca|0
0|FS761697|2013-03-02 19:01:08||||M|||||||||||||KTBL||||||||||111|CCC HRK SOBR FAM 2013|121|Horeca|0
0|FS761717|2013-03-02 19:08:24||||M|||||||||||||DUNFCMBB||||||||||111|CCC HRK SOBR FAM 2013|121|Horeca|0
0|FS761770|2013-03-02 19:25:57||||F|||||||||||||KTSWIT||||||||||111|CCC HRK SOBR FAM 2013|121|Horeca|0
0|FS761776|2013-03-02 19:28:03||||F|||||||||||||VOGJSN||||||||||111|CCC HRK SOBR FAM 2013|121|Horeca|0
0|FS761790|2013-03-02 19:32:15||||M|||||||||||||MBRGLT||||||||||111|CCC HRK SOBR FAM 2013|121|Horeca|0
0|FS761875|2013-03-02 19:56:39||||F|||||||||||||KTNBK||||||||||111|CCC HRK SOBR FAM 2013|121|Horeca|0
0|FS761877|2013-03-02 19:56:51||||M|||||||||||||DUNFCBB||||||||||111|CCC HRK SOBR FAM 2013|121|Horeca|0
0|FS761944|2013-03-02 20:09:37||||F|||||||||||||VOGABP||||||||||111|CCC HRK SOBR FAM 2013|121|Horeca|0
0|FS761951|2013-03-02 20:11:30||||M|||||||||||||DAVGLS||||||||||111|CCC HRK SOBR FAM 2013|121|Horeca|0
0|FS761952|2013-03-02 20:11:35||||M|||||||||||||KTSV||||||||||111|CCC HRK SOBR FAM 2013|121|Horeca|0
0|FS761954|2013-03-02 20:12:06||||M|||||||||||||CABK||||||||||111|CCC HRK SOBR FAM 2013|121|Horeca|0
0|FS761955|2013-03-02 20:12:32|||||||||||||||||DUNFCBB||||||||||111|CCC HRK SOBR FAM 2013|121|Horeca|0
0|FS761956|2013-03-02 20:13:19|||||||||||||||||DUNFCBB||||||||||111|CCC HRK SOBR FAM 2013|121|Horeca|0
0|FS762002|2013-03-02 20:20:50||||M|||||||||||||KTBL||||||||||111|CCC HRK SOBR FAM 2013|121|Horeca|0
0|FS762004|2013-03-02 20:21:17||||M|||||||||||||DAVGL||||||||||111|CCC HRK SOBR FAM 2013|121|Horeca|0
0|FS762005|2013-03-02 20:21:23|||||||||||||||||VOGLL||||||||||111|CCC HRK SOBR FAM 2013|121|Horeca|0
0|FS762007|2013-03-02 20:21:25|||||||||||||||||DAVGLS||||||||||111|CCC HRK SOBR FAM 2013|121|Horeca|0
0|FS762009|2013-03-02 20:21:31||||M|||||||||||||MBRGLFT||||||||||111|CCC HRK SOBR FAM 2013|121|Horeca|0
0|FS762090|2013-03-02 20:43:43||||M|||||||||||||DUNFCBB||||||||||111|CCC HRK SOBR FAM 2013|121|Horeca|0
0|FS762093|2013-03-02 20:44:38||||F|||||||||||||DUNFCMBB||||||||||111|CCC HRK SOBR FAM 2013|121|Horeca|0
0|FS762146|2013-03-02 21:04:27||||F|||||||||||||DAVGL||||||||||111|CCC HRK SOBR FAM 2013|121|Horeca|0
0|FS762324|2013-03-02 21:53:30||||F|||||||||||||KTSWIT||||||||||111|CCC HRK SOBR FAM 2013|121|Horeca|0
0|FS762325|2013-03-02 21:54:16|||||||||||||||||KTNBL||||||||||111|CCC HRK SOBR FAM 2013|121|Horeca|0
0|FS762386|2013-03-02 22:08:50||||M|||||||||||||CABL||||||||||111|CCC HRK SOBR FAM 2013|121|Horeca|0
0|FS762640|2013-03-02 23:36:23|||||||||||||||||LSBL||||||||||111|CCC HRK SOBR FAM 2013|121|Horeca|0
0|FS762644|2013-03-02 23:38:55||||M|||||||||||||DUNFCBB||||||||||111|CCC HRK SOBR FAM 2013|121|Horeca|0
0|FS762673|2013-03-02 23:43:34||||M|||||||||||||ROTH||||||||||111|CCC HRK SOBR FAM 2013|121|Horeca|0
