0|CS175018|2012-06-01 23:28:27|Filip|Gabriel||M|1982-07-15|Cluj|TURDA|Libertatii|4||||32|0745370005||gtrotil@yahoo.com|KTSV||Cub|Yes|Yes||CJ001540|TB TURC SRL|Cluj-Napoca|CJEVENTBA03|33|CCC EVENT CAMEL FAM 2012|121|Horeca|0
0|CS175020|2012-06-01 23:28:34|Lancrajan|Iulian||M|1988-03-22|Cluj|CLUJ NAPOCA|Donat|110|44|C||16|0748570063||iulian.l@yahoo.com|CAFI||Bricheta Camel|Yes|Yes||CJ001540|TB TURC SRL|Cluj-Napoca|CJEVENTBA06|33|CCC EVENT CAMEL FAM 2012|121|Horeca|0
0|CS175028|2012-06-01 23:30:50|Filimon|Dan||M|1982-08-12|Maramures|BAIA MARE|Plevnei|9a|||||0745319486||dandilimon@yahoo.com|CABK||Cub|Yes|Yes||CJ001540|TB TURC SRL|Cluj-Napoca|CJEVENTBA03|33|CCC EVENT CAMEL FAM 2012|121|Horeca|0
0|CS175034|2012-06-01 23:33:13|Bauer|Mihai||M|1987-04-06|Bistrita Nasaud|RODNA|||2|||7|0743120696||mihai_bauer@yahoo.com|KTNBL||Cub|Yes|Yes||CJ001540|TB TURC SRL|Cluj-Napoca|CJEVENTBA05|33|CCC EVENT CAMEL FAM 2012|121|Horeca|0
0|CS175038|2012-06-01 23:33:59|Cozea|Teodora||M|1987-06-19|Cluj|CLUJ NAPOCA|Plopilor|60|||P|28|0752229052||teo_karina@yahoo.com|PMOR|KTSV|Cub|Yes|Yes||CJ001540|TB TURC SRL|Cluj-Napoca|CJEVENTBA04|33|CCC EVENT CAMEL FAM 2012|121|Horeca|0
0|CS175044|2012-06-01 23:36:40|Magurean|Dacian||M|1978-02-16|Cluj|CLUJ NAPOCA|Busteni|11||||2|0720660412||ioan.magurean@straba.com|CAWH||Cub|Yes|Yes||CJ001540|TB TURC SRL|Cluj-Napoca|CJEVENTBA05|33|CCC EVENT CAMEL FAM 2012|121|Horeca|0
0|CS175048|2012-06-01 23:38:44|Czira|Octavian||M|1988-06-15|Cluj|CLUJ NAPOCA|Tulcea|23|||P|40|0740750470||octavianczira@yahoo.com|KTSV|CAWH|Cub|Yes|Yes||CJ001540|TB TURC SRL|Cluj-Napoca|CJEVENTBA04|33|CCC EVENT CAMEL FAM 2012|121|Horeca|0
0|CS175087|2012-06-01 23:47:22|Tarcea|Ionut||M|1987-01-14|Cluj|CLUJ NAPOCA|Muncilor|57|||2|17|0756767855||tarcea_ionutz@yahoo.com|CAWH||Cub|Yes|Yes||CJ001540|TB TURC SRL|Cluj-Napoca|CJEVENTBA05|33|CCC EVENT CAMEL FAM 2012|121|Horeca|0
0|CS175120|2012-06-01 23:53:40|Apostolescu|Andrada||F|1988-12-13|Suceava|CAMPULUNG MOLDOVENESC|Calea bucovinei|65|||0|0|0742542791||apostolescu_andrada@yahoo.com|KTSV|WISV|Cub|Yes|Yes||CJ001540|TB TURC SRL|Cluj-Napoca|CJEVENTBA04|33|CCC EVENT CAMEL FAM 2012|121|Horeca|0
0|CS175126|2012-06-01 23:55:04|Savin|Anamaria||F|1987-06-10|Cluj|CLUJ NAPOCA|Mehedinti||D3|E|4|24|0745773901||aia_mik_a_lui_savin@yahoo.com|DUNBL||Cub|Yes|Yes||CJ001540|TB TURC SRL|Cluj-Napoca|CJEVENTBA06|33|CCC EVENT CAMEL FAM 2012|121|Horeca|0
0|CS175127|2012-06-01 23:55:42|Sabau|Flaviu||M|1986-07-21|Satu Mare|SATU MARE|Cetatii|6|||0|0|0728883214||darkmanx2z@yahoo.com|CABK||Cub|Yes|Yes||CJ001540|TB TURC SRL|Cluj-Napoca|CJEVENTBA05|33|CCC EVENT CAMEL FAM 2012|121|Horeca|0
0|CS175170|2012-06-02 00:05:26|Bogos|Paula||F|1988-01-23|Cluj|CLUJ NAPOCA|Traian|80|||0|2|0741386880||bogozpaula@yahoo.com|CABK||Cub|Yes|Yes||CJ001540|TB TURC SRL|Cluj-Napoca|CJEVENTBA06|33|CCC EVENT CAMEL FAM 2012|121|Horeca|0
0|CS175268|2012-06-02 00:39:55|Porumb|Ioana||F|1992-01-11|Salaj|CAPALNA||147|||0|0|0749837579|nu are|ioana_brynetzik@yahoo.com|CAWH||Cub|Yes|Yes||CJ003636|EUPHORIA PUB SRL URSUS|Cluj-Napoca|CJEVENTBA06|33|CCC EVENT CAMEL FAM 2012|121|Horeca|0
0|CS175283|2012-06-02 00:43:39|Pop|Ilisie||M|1988-02-04|Cluj|CLUJ NAPOCA|Calea mănăstire|72||||9|0745854531||lily_clujmanu_tau@yahoo.com|KTSV||Cub|Yes|Yes||CJ003636|EUPHORIA PUB SRL URSUS|Cluj-Napoca|CJEVENTBA03|33|CCC EVENT CAMEL FAM 2012|121|Horeca|0
0|CS175284|2012-06-02 00:43:46|Bocas|Andrei||M|1978-06-19|Salaj|ZALAU|C. Coposu|88|||1|3|0744664478||bocasandrei@yahoo.com|CAWH||Cub|Yes|Yes||CJ003636|EUPHORIA PUB SRL URSUS|Cluj-Napoca|CJEVENTBA05|33|CCC EVENT CAMEL FAM 2012|121|Horeca|0
0|CS175288|2012-06-02 00:44:31|Tibeoludi|Alexandru||M|1981-08-28|Cluj|CLUJ NAPOCA|Fabricii|R8|||||||alex.tibeouldi1@hotmail.com|CAFI||Bricheta Camel|Yes|Yes||CJ003636|EUPHORIA PUB SRL URSUS|Cluj-Napoca|CJEVENTBA06|33|CCC EVENT CAMEL FAM 2012|121|Horeca|0
0|CS175312|2012-06-02 00:49:28|Sarmari|Alexandru ciprian||F|1987-04-07|Salaj|ZALAU|9 mai|14|||||0743755284||alexandru.sarmari@favia.ro|CAWH|KTSV|Cub|Yes|Yes||CJ003636|EUPHORIA PUB SRL URSUS|Cluj-Napoca|CJEVENTBA04|33|CCC EVENT CAMEL FAM 2012|121|Horeca|0
0|CS175318|2012-06-02 00:50:37|Pinticanu|Andrei||M|1990-05-07|Botosani|BOTOSANI|Granicerilor|14|||0|0|0743381649||kleine85a@yahoo.com|DUNBL||Cub|Yes|Yes||CJ003636|EUPHORIA PUB SRL URSUS|Cluj-Napoca|CJEVENTBA06|33|CCC EVENT CAMEL FAM 2012|121|Horeca|0
0|CS175320|2012-06-02 00:51:25|Buda|Tudor||M|1984-02-06|Salaj|ZALAU|Alverna|43||||9|0745150448||tudy0206@yahoo.com|DUNSV|KTBL|Cub|Yes|Yes||CJ003636|EUPHORIA PUB SRL URSUS|Cluj-Napoca|CJEVENTBA04|33|CCC EVENT CAMEL FAM 2012|121|Horeca|0
0|CS175327|2012-06-02 00:52:59|Ivascu|Radu||M|1974-03-15|Bacau|Bacău|Ștefan cel mare|16||||11|||radu.ivascu@gmail.com|MBRBI||Cub|Yes|Yes||CJ003636|EUPHORIA PUB SRL URSUS|Cluj-Napoca|CJEVENTBA03|33|CCC EVENT CAMEL FAM 2012|121|Horeca|0
0|CS175335|2012-06-02 00:54:27|Crisan|Ciprian||M|1987-06-14|Hunedoara|ORASTIE|Bicazului||62||4|23|0756029621||crisanciprian87@yahoo.com|CABK||Cub|Yes|Yes||CJ003636|EUPHORIA PUB SRL URSUS|Cluj-Napoca|CJEVENTBA05|33|CCC EVENT CAMEL FAM 2012|121|Horeca|0
0|CS175348|2012-06-02 00:56:42|Motisan|Cristina||F|1991-03-28|Satu Mare|SATU MARE|Crasna|11|||||0752281901||kristinika_10@yahoo.com|CABK||Cub|Yes|Yes||CJ003636|EUPHORIA PUB SRL URSUS|Cluj-Napoca|CJEVENTBA03|33|CCC EVENT CAMEL FAM 2012|121|Horeca|0
0|CS175356|2012-06-02 00:58:05|Bordas|Lavinia||F|1986-04-09|Cluj|CLUJ NAPOCA|Micus|8|||||0740098099||lavinialarisaignat@yahoo.com|DUNBL||Cub|Yes|Yes||CJ003636|EUPHORIA PUB SRL URSUS|Cluj-Napoca|CJEVENTBA06|33|CCC EVENT CAMEL FAM 2012|121|Horeca|0
0|CS175364|2012-06-02 00:59:44|Gorgan|Adriana||F|1990-06-27|Salaj|Zalău|Torentului|14||||14|0753812437||adikana_scumpik@yahoo.com|CABK||Cub|Yes|Yes||CJ003636|EUPHORIA PUB SRL URSUS|Cluj-Napoca|CJEVENTBA03|33|CCC EVENT CAMEL FAM 2012|121|Horeca|0
0|CS175372|2012-06-02 01:01:40|Seserman|Cosmin||M|1986-06-27|Bistrita Nasaud|BECLEAN|1 decembrie 1918|16|A32|S2|1|3|0743858348||unbaiatrau@yahoo.com|CABK||Cub|Yes|Yes||CJ003636|EUPHORIA PUB SRL URSUS|Cluj-Napoca|CJEVENTBA05|33|CCC EVENT CAMEL FAM 2012|121|Horeca|0
0|CS175396|2012-06-02 01:06:26|Suster|Lacramioara||F|1988-12-21|Cluj|CLUJ NAPOCA|Berzei|46|||||0758655780||suster_lacra_za_best@yahoo.com|KTBL||Cub|Yes|Yes||CJ003636|EUPHORIA PUB SRL URSUS|Cluj-Napoca|CJEVENTBA05|33|CCC EVENT CAMEL FAM 2012|121|Horeca|0
0|CS175420|2012-06-02 01:11:17|Blejan|Bianca||F|1992-03-25|Cluj|CLUJ NAPOCA|Observatorului|11|||4|37|0744847986||bianca.blejan@yahoo.com|KTBL|CABK|Cub|Yes|Yes||CJ003636|EUPHORIA PUB SRL URSUS|Cluj-Napoca|CJEVENTBA04|33|CCC EVENT CAMEL FAM 2012|121|Horeca|0
0|CS175447|2012-06-02 01:15:32|Orzoi|Vasile||M|1970-10-18|Cluj|CLUJ NAPOCA|Horia|36||||9|0742764287||vasileleu@yahoo.com|KTSV||Cub|Yes|Yes||CJ003636|EUPHORIA PUB SRL URSUS|Cluj-Napoca|CJEVENTBA06|33|CCC EVENT CAMEL FAM 2012|121|Horeca|0
0|CS175449|2012-06-02 01:15:38|Covaci|Claudiu||M|1987-08-18|Constanta|CONSTANTA|Trotusului|678|||||0745785446||clau_claus@gmail.com|CABK||Cub|Yes|Yes||CJ003636|EUPHORIA PUB SRL URSUS|Cluj-Napoca|CJEVENTBA05|33|CCC EVENT CAMEL FAM 2012|121|Horeca|0
0|CS175479|2012-06-02 01:24:36|Domokos|Izabella||F|1989-06-12|Cluj|CLUJ NAPOCA|Plopilor|12|1|E|4|24|0756771278||izabina89@yahoo.com|KTSV||Cub|Yes|Yes||CJ003636|EUPHORIA PUB SRL URSUS|Cluj-Napoca|CJEVENTBA06|33|CCC EVENT CAMEL FAM 2012|121|Horeca|0
0|CS175493|2012-06-02 01:30:56|Gestariu|Fiona||F|1987-05-15|Cluj|CLUJ NAPOCA|Tulcea|13|F4|2|4|148|0766964475||fiona_1987@ymail.com|KTBL||Cub|Yes|Yes||CJ003636|EUPHORIA PUB SRL URSUS|Cluj-Napoca|CJEVENTBA05|33|CCC EVENT CAMEL FAM 2012|121|Horeca|0
0|CS175521|2012-06-02 01:44:29|Bourceanu|George||M|1987-03-06|Cluj|CLUJ NAPOCA|Dunarii|6|D|2|2|16|0746885456||geo_geo_boy@yahoo.com|KTCON||Cub|Yes|Yes||CJ003636|EUPHORIA PUB SRL URSUS|Cluj-Napoca|CJEVENTBA05|33|CCC EVENT CAMEL FAM 2012|121|Horeca|0
0|CS175522|2012-06-02 01:45:16|Muncus|Marius||M|1986-11-27|Cluj|CLUJ NAPOCA|Detinata||||||0757612657||muncusmarius@yahoo.com|KTBL||Cub|Yes|Yes||CJ003636|EUPHORIA PUB SRL URSUS|Cluj-Napoca|CJEVENTBA03|33|CCC EVENT CAMEL FAM 2012|121|Horeca|0
0|CS175523|2012-06-02 01:46:06|Popovici|Liviu||M|1988-03-30|Alba|ALBA IULIA|Politest I||8|E|8|30|0756436901||liviuc2005@yahoo.com|DUNBL||Cub|Yes|Yes||CJ003636|EUPHORIA PUB SRL URSUS|Cluj-Napoca|CJEVENTBA06|33|CCC EVENT CAMEL FAM 2012|121|Horeca|0
0|CS175528|2012-06-02 01:48:03|Bozesan|Monica||F|1991-01-05|Alba|ALBA IULIA|Alba|12||||33|0753898976||bozesan_mony@yahoo.com|KTBL||Cub|Yes|Yes||CJ003636|EUPHORIA PUB SRL URSUS|Cluj-Napoca|CJEVENTBA03|33|CCC EVENT CAMEL FAM 2012|121|Horeca|0
0|CS175538|2012-06-02 01:50:53|Chis|Alin||M|1991-07-21|Cluj|CLUJ NAPOCA|Fabricii|7|||7|124|0755681655||yoodog_djalladin@yahoo.com|KTCON|CABK|Cub|Yes|Yes||CJ003636|EUPHORIA PUB SRL URSUS|Cluj-Napoca|CJEVENTBA04|33|CCC EVENT CAMEL FAM 2012|121|Horeca|0
0|CS175543|2012-06-02 02:01:19|Rusu|Maria||F|1985-05-07|Cluj|CLUJ NAPOCA|Zorilor|40|||0|17|0756205130||rusumariateodora@yahoo.com|KTBL|PMEKBL|Cub|Yes|Yes||CJ003636|EUPHORIA PUB SRL URSUS|Cluj-Napoca|CJEVENTBA04|33|CCC EVENT CAMEL FAM 2012|121|Horeca|0
0|CS175544|2012-06-02 02:02:36|Tatar|Andrei||M|1990-02-10|Mures|SIGHISOARA|Plopilor|31|||0|1|0747223623||ady_lover_boyyy@yahoo.com|MBRFP|PMBL|Cub|Yes|Yes||CJ003636|EUPHORIA PUB SRL URSUS|Cluj-Napoca|CJEVENTBA04|33|CCC EVENT CAMEL FAM 2012|121|Horeca|0
0|CS175552|2012-06-02 02:20:31|Popa|Ionut||M|1990-05-14|Cluj|CLUJ NAPOCA|Iosif Attilo|15-17|||0|10|0740006393||johnpopa2007@gmail.com|MBRFP|KTBL|Cub|Yes|Yes||CJ003636|EUPHORIA PUB SRL URSUS|Cluj-Napoca|CJEVENTBA04|33|CCC EVENT CAMEL FAM 2012|121|Horeca|0
0|CS177849|2012-06-02 21:10:59|Both|Oana||F|1988-09-14|Cluj|CLUJ NAPOCA|Bucuresti|64|||0|52|0741368038||b.oananicoleta@gmail.com|CABK||Cub|Yes|Yes||CJ006127|TIFF EVENTS MUZEU|Cluj-Napoca|CJEVENTBA05|33|CCC EVENT CAMEL FAM 2012|121|Horeca|0
0|CS177850|2012-06-02 21:11:23|Covaci|Gabriel||M|1976-02-20|Cluj|CLUJ NAPOCA|Septimiu Albaniei|123|||||0746592778|||KTBL||Cub|Yes|Yes||CJ006127|TIFF EVENTS MUZEU|Cluj-Napoca|CJEVENTBA03|33|CCC EVENT CAMEL FAM 2012|121|Horeca|0
0|CS177857|2012-06-02 21:13:17|Curte|Denisa||F|1979-11-14|Cluj|CLUJ NAPOCA|Zirinyi|8|||||0747995165||dito20staff@yahoo.com|KTH|PMBL|Cub|Yes|Yes||CJ006127|TIFF EVENTS MUZEU|Cluj-Napoca|CJEVENTBA04|33|CCC EVENT CAMEL FAM 2012|121|Horeca|0
0|CS177858|2012-06-02 21:14:12|Popescu|Oana||F|1988-09-01|Bucuresti|3|V. Dracu|11|C14|2|4|49|0745967461||oana_popescu@hotmail.com|KTBL||Cub|Yes|Yes||CJ006127|TIFF EVENTS MUZEU|Cluj-Napoca|CJEVENTBA05|33|CCC EVENT CAMEL FAM 2012|121|Horeca|0
0|CS177863|2012-06-02 21:15:36|Albon|Bogdan||M|1981-01-20|Cluj|CLUJ NAPOCA|Breaza|2|||||0753200891|||WIBL||Cub|Yes|Yes||CJ006127|TIFF EVENTS MUZEU|Cluj-Napoca|CJEVENTBA06|33|CCC EVENT CAMEL FAM 2012|121|Horeca|0
0|CS177865|2012-06-02 21:15:52|Curte|Paul||M|1978-08-01|Cluj|CLUJ NAPOCA|Avram Iancu|93|||||0740889249||sideriu@yahoo.com|PMBL|WIBL|Cub|Yes|Yes||CJ006127|TIFF EVENTS MUZEU|Cluj-Napoca|CJEVENTBA04|33|CCC EVENT CAMEL FAM 2012|121|Horeca|0
0|CS177873|2012-06-02 21:19:14|Harlisca|Radu||M|1987-08-07|Maramures|BAIA MARE|Republicii|5||||13|0723275043||harly_radu@yahoo.co.uk|KTCON||Cub|Yes|Yes||CJ006127|TIFF EVENTS MUZEU|Cluj-Napoca|CJEVENTBA03|33|CCC EVENT CAMEL FAM 2012|121|Horeca|0
0|CS177882|2012-06-02 21:20:56|Crisan|Flavius||M|1982-03-10|Arad|ARAD|Dezna|14|||||0755898758||flaviuscrisan_clt@yahoo.com|KTSV|CAWH|Cub|Yes|Yes||CJ006127|TIFF EVENTS MUZEU|Cluj-Napoca|CJEVENTBA04|33|CCC EVENT CAMEL FAM 2012|121|Horeca|0
0|CS177883|2012-06-02 21:20:58|Costea|Ramona||F|1977-12-24|Cluj|CLUJ NAPOCA|Buna ziua|37|E1b|1|3|16|0753050504||ramocostea@yahoo.com|KTSV||Cub|Yes|Yes||CJ006127|TIFF EVENTS MUZEU|Cluj-Napoca|CJEVENTBA05|33|CCC EVENT CAMEL FAM 2012|121|Horeca|0
0|CS177894|2012-06-02 21:24:00|Tomoioaga|Ioan||M|1967-01-06|Cluj|CLUJ NAPOCA|Parang|39||||2|0744175138||tomnutu@yahoo.com|MBRRD||Cub|Yes|Yes||CJ006127|TIFF EVENTS MUZEU|Cluj-Napoca|CJEVENTBA06|33|CCC EVENT CAMEL FAM 2012|121|Horeca|0
0|CS177924|2012-06-02 21:31:29|Bontidean|Adrian||M|1967-10-18|Cluj|CLUJ NAPOCA|Unirii|7||||26|0755332514|||KTBL|CABL|Cub|Yes|Yes||CJ006127|TIFF EVENTS MUZEU|Cluj-Napoca|CJEVENTBA04|33|CCC EVENT CAMEL FAM 2012|121|Horeca|0
0|CS177969|2012-06-02 21:41:35|Palas|Vlad||M|1986-09-09|Cluj|CLUJ NAPOCA|Profesor George|9||||20|0743528303||balaspalad@yahoo.com|PMBK||Cub|Yes|Yes||CJ006127|TIFF EVENTS MUZEU|Cluj-Napoca|CJEVENTBA03|33|CCC EVENT CAMEL FAM 2012|121|Horeca|0
0|CS177978|2012-06-02 21:44:14|Nitulescu|Andrei||M|1980-01-31|Prahova|PLOIESTI|Dorobanti|15|||||0752369853||andreiv_nitulescu@yahoo.com|DUNBL|LSSV|Cub|Yes|Yes||CJ006127|TIFF EVENTS MUZEU|Cluj-Napoca|CJEVENTBA04|33|CCC EVENT CAMEL FAM 2012|121|Horeca|0
0|CS177991|2012-06-02 21:47:53|Vesa|Vlad||M|1977-07-23|Cluj|CLUJ NAPOCA|Horea|1||||5|0742053212||vesa_vlad@yahoo.com|KTBL||Cub|Yes|Yes||CJ006127|TIFF EVENTS MUZEU|Cluj-Napoca|CJEVENTBA05|33|CCC EVENT CAMEL FAM 2012|121|Horeca|0
0|CS177992|2012-06-02 21:47:56|Puscas|Rodica||F|1980-01-11|Cluj|CLUJ NAPOCA|21decembrie|23-25||||84|0741601099||puscas_rodica@yahoo.com|KTBL||Cub|Yes|Yes||CJ006127|TIFF EVENTS MUZEU|Cluj-Napoca|CJEVENTBA06|33|CCC EVENT CAMEL FAM 2012|121|Horeca|0
0|CS178002|2012-06-02 21:52:23|Ehrenwerth|Peter||M|1979-11-21|Cluj|CLUJ NAPOCA|Mehedinti|28|||9|84|0757060166||peet1979@gmail.com|PMOR|MBRGLFT|Cub|Yes|Yes||CJ006127|TIFF EVENTS MUZEU|Cluj-Napoca|CJEVENTBA04|33|CCC EVENT CAMEL FAM 2012|121|Horeca|0
0|CS178013|2012-06-02 21:54:28|Candale|Bogdana||F|1987-08-07|Bistrita Nasaud|BISTRITA|Visoara|97|||||0755574654||vasi_bogdana@yahoo.com|CABK||Cub|Yes|Yes||CJ006127|TIFF EVENTS MUZEU|Cluj-Napoca|CJEVENTBA06|33|CCC EVENT CAMEL FAM 2012|121|Horeca|0
0|CS178027|2012-06-02 21:57:05|Chitoroaga|Silvia||F|1986-09-30|Cluj|CLUJ NAPOCA|Parang|11|I11|||11|0747399661||szilviaszilvia@yahoo.fr|CAWH||Cub|Yes|Yes||CJ006127|TIFF EVENTS MUZEU|Cluj-Napoca|CJEVENTBA05|33|CCC EVENT CAMEL FAM 2012|121|Horeca|0
0|CS178101|2012-06-02 22:14:36|Pop|Andrei||M|1986-05-14|Satu Mare|SATU MARE|Crengutei|12|||0|0|0746773981||pop.andrei@yahoo.com|DUNBL||Cub|Yes|Yes||CJ006127|TIFF EVENTS MUZEU|Cluj-Napoca|CJEVENTBA06|33|CCC EVENT CAMEL FAM 2012|121|Horeca|0
0|CS178102|2012-06-02 22:14:47|Traistaru|Ioana||F|1990-01-30|Valcea|DRAGASANI|Decebal||M2-2||2|6|0764056814||johanne_3@yahoo.com|VIRSM||Cub|Yes|Yes||CJ006127|TIFF EVENTS MUZEU|Cluj-Napoca|CJEVENTBA05|33|CCC EVENT CAMEL FAM 2012|121|Horeca|0
0|CS178107|2012-06-02 22:15:53|Tomoiaga|Bianca||F|1991-02-12|Maramures|MOISEI|Principala|407|||0|0|0745027233||by3ncutzza@yahoo.com|SBKSBK||Cub|Yes|Yes||CJ006127|TIFF EVENTS MUZEU|Cluj-Napoca|CJEVENTBA05|33|CCC EVENT CAMEL FAM 2012|121|Horeca|0
0|CS178168|2012-06-02 22:31:53|Nazaroae|Cristina||F|1991-08-05|Cluj|CLUJ NAPOCA|Plopilor|79|||4|28|0755300844||cristina_lazaroae@yahoo.com|PMBL||Cub|Yes|Yes||CJ006127|TIFF EVENTS MUZEU|Cluj-Napoca|CJEVENTBA05|33|CCC EVENT CAMEL FAM 2012|121|Horeca|0
0|CS178174|2012-06-02 22:33:46|Sabau|Flaviu||M|1986-07-21|Satu Mare|SATU MARE|Cetatii|6|||0|0|0728883214||darkmanx2z@yahoo.com|CABK||Cub|Yes|Yes||CJ006127|TIFF EVENTS MUZEU|Cluj-Napoca|CJEVENTBA05|33|CCC EVENT CAMEL FAM 2012|121|Horeca|0
0|CS178180|2012-06-02 22:35:48|Bogdan|Bianca||F|1990-03-02|Satu Mare|SATU MARE|Pegoniei|2|||0|8|0733246064||bia_dance90@yahoo.com|CAWH||Cub|Yes|Yes||CJ006127|TIFF EVENTS MUZEU|Cluj-Napoca|CJEVENTBA05|33|CCC EVENT CAMEL FAM 2012|121|Horeca|0
0|CS178182|2012-06-02 22:36:59|Niste|Mihai||M|1986-11-28|Satu Mare|SATU MARE|G. Georgescu|17|||0|0|0723678179||nistemihai@yahoo.com|SBKSGD||Cub|Yes|Yes||CJ006127|TIFF EVENTS MUZEU|Cluj-Napoca|CJEVENTBA05|33|CCC EVENT CAMEL FAM 2012|121|Horeca|0
0|CS178188|2012-06-02 22:38:37|Seserman|Cosmin||M|1986-06-27|Bistrita Nasaud|BECLEAN|1 decembrie 1918|16|A32|S2|1|3|0743858348||unbaiatrau@yahoo.com|CABK||Cub|Yes|Yes||CJ006127|TIFF EVENTS MUZEU|Cluj-Napoca|CJEVENTBA05|33|CCC EVENT CAMEL FAM 2012|121|Horeca|0
0|CS178193|2012-06-02 22:40:20|Susan|Mihai||M|1987-01-20|Cluj|CLUJ NAPOCA|Marasesti|68|||||0754785526||mihaitzza_susan_mihtza@yahoo.com|PMBL||Cub|Yes|Yes||CJ006127|TIFF EVENTS MUZEU|Cluj-Napoca|CJEVENTBA05|33|CCC EVENT CAMEL FAM 2012|121|Horeca|0
0|CS178225|2012-06-02 22:51:11|Mihalcea|Calin||M|1985-10-10|Cluj|CLUJ NAPOCA|E. Grigorescu|1|1|E|3|70|0742021314||calin.mihalcea@gmail.com|KTBL||Cub|Yes|Yes||CJ006127|TIFF EVENTS MUZEU|Cluj-Napoca|CJEVENTBA05|33|CCC EVENT CAMEL FAM 2012|121|Horeca|0
0|CS178307|2012-06-02 23:18:07|Cosma|Cristina||F|1990-05-05|Cluj|CLUJ NAPOCA|Godeanu|15|||||0747313357||cosma_crs@yahoo.com|KTBL||Cub|Yes|Yes||CJ006127|TIFF EVENTS MUZEU|Cluj-Napoca|CJEVENTBA03|33|CCC EVENT CAMEL FAM 2012|121|Horeca|0
0|CS178354|2012-06-02 23:32:03|Vustan|Ruxandra||F|1985-02-06|Alba|SEBES|Transilvaniei|8||||4|0746772708||ruxandavulcan@gmail.com|CABK||Cub|Yes|Yes||CJ006128|TIFF EVENTS UNIVERSITATI|Cluj-Napoca|CJEVENTBA03|33|CCC EVENT CAMEL FAM 2012|121|Horeca|0
0|CS178364|2012-06-02 23:34:41|Mateescu|Irina||F|1978-09-06|Cluj|CLUJ NAPOCA|Calea floresti|7||||42|0745321948||irina.mateescu@gmail.com|KTSV||Cub|Yes|Yes||CJ006128|TIFF EVENTS UNIVERSITATI|Cluj-Napoca|CJEVENTBA06|33|CCC EVENT CAMEL FAM 2012|121|Horeca|0
0|CS178375|2012-06-02 23:37:15|Muresan|Cezara||F|1993-06-30|Cluj|CLUJ NAPOCA|Iosif vulcan|38a|||||0758233424||cezaramuresan@yahoo.com|DUNBL||Cub|Yes|Yes||CJ006128|TIFF EVENTS UNIVERSITATI|Cluj-Napoca|CJEVENTBA05|33|CCC EVENT CAMEL FAM 2012|121|Horeca|0
0|CS178387|2012-06-02 23:39:10|Balea|Rares||M|1987-01-02|Cluj|CLUJ NAPOCA|Godeanu|1||||23|0745897239||rares.balea@gmail.com|PMBK|CABK|Cub|Yes|Yes||CJ006128|TIFF EVENTS UNIVERSITATI|Cluj-Napoca|CJEVENTBA04|33|CCC EVENT CAMEL FAM 2012|121|Horeca|0
0|CS178399|2012-06-02 23:41:35|Tilea|Dan||M|1978-04-25|Sibiu|SIBIU|Bdul victoriei|27|||||0741938760||sigismundan@yahoo.com|KTBL||Cub|Yes|Yes||CJ006128|TIFF EVENTS UNIVERSITATI|Cluj-Napoca|CJEVENTBA06|33|CCC EVENT CAMEL FAM 2012|121|Horeca|0
0|CS178411|2012-06-02 23:45:12|Bob|Robert||M|1981-10-15|Cluj|CLUJ NAPOCA|Libertatii|4||||3|0770064018||poprobert@yahoo.com|CABK||Cub|Yes|Yes||CJ006128|TIFF EVENTS UNIVERSITATI|Cluj-Napoca|CJEVENTBA03|33|CCC EVENT CAMEL FAM 2012|121|Horeca|0
0|CS178423|2012-06-02 23:46:47|Farcas|Corina||F|1988-05-08|Maramures|BAIA MARE|Aurel vlaicu||4|E|5|21|0754671990||corina_farcas@yahoo.com|DUNBL||Cub|Yes|Yes||CJ006128|TIFF EVENTS UNIVERSITATI|Cluj-Napoca|CJEVENTBA06|33|CCC EVENT CAMEL FAM 2012|121|Horeca|0
0|CS178426|2012-06-02 23:47:18|Boliceanu|Alexandru||M|1989-09-12|Brasov|BRASOV|Nicopole|46|||0|7|0740211507||alexboliveanu@yahoo.com|KTBL|CABK|Cub|Yes|Yes||CJ006128|TIFF EVENTS UNIVERSITATI|Cluj-Napoca|CJEVENTBA04|33|CCC EVENT CAMEL FAM 2012|121|Horeca|0
0|CS178430|2012-06-02 23:47:52|Budai|Cristina||F|1991-02-04|Satu Mare|SATU MARE|Careiului|4|||0|12|0754316687||budai_kristina@yahoo.com|CABK||Cub|Yes|Yes||CJ006128|TIFF EVENTS UNIVERSITATI|Cluj-Napoca|CJEVENTBA03|33|CCC EVENT CAMEL FAM 2012|121|Horeca|0
0|CS178450|2012-06-02 23:52:04|Rusca |Ladislau||M|1953-04-04|Cluj|CLUJ NAPOCA|Petuniei|7||||60|0752529498||rodiauladislau@yahoo.com|GLMMNT||Cub|Yes|Yes||CJ006128|TIFF EVENTS UNIVERSITATI|Cluj-Napoca|CJEVENTBA05|33|CCC EVENT CAMEL FAM 2012|121|Horeca|0
0|CS178469|2012-06-02 23:57:32|Bretan|Vlad||M|1992-11-17|Satu Mare|SATU MARE|Marsilia|9||||5|0756252152||vlady1117@gmail.com|KTBL||Cub|Yes|Yes||CJ006128|TIFF EVENTS UNIVERSITATI|Cluj-Napoca|CJEVENTBA03|33|CCC EVENT CAMEL FAM 2012|121|Horeca|0
0|CS178470|2012-06-02 23:57:55|Padurariu|Mircea||M|1986-12-12|Bistrita Nasaud|BISTRITA|Principala|24|14|F|7|56|0748339165||mirceapadurariu@yahoo.com|MBRFP||Cub|Yes|Yes||CJ006128|TIFF EVENTS UNIVERSITATI|Cluj-Napoca|CJEVENTBA06|33|CCC EVENT CAMEL FAM 2012|121|Horeca|0
0|CS178478|2012-06-03 00:00:19|Pop|Andreea||F|1986-04-15|Alba|BLAJ|Paltinisului|8||||9|0741413738||andreea_pop@yahoo.com|DUNFCSV||Cub|Yes|Yes||CJ006128|TIFF EVENTS UNIVERSITATI|Cluj-Napoca|CJEVENTBA05|33|CCC EVENT CAMEL FAM 2012|121|Horeca|0
0|CS178490|2012-06-03 00:02:59|Pop|Catalina||F|1977-09-03|Cluj|CLUJ NAPOCA|Maramuresului|3|||||0751403239||mya_theea7@yahoo.com|DUNFF||Cub|Yes|Yes||CJ006128|TIFF EVENTS UNIVERSITATI|Cluj-Napoca|CJEVENTBA06|33|CCC EVENT CAMEL FAM 2012|121|Horeca|0
0|CS178530|2012-06-03 00:13:07|Covariu|Constantin||M|1986-10-18|Cluj|CLUJ NAPOCA|Plopilor|73||||2|0741791141||ce.covariu@gmail.com|CAWH||Cub|Yes|Yes||CJ006128|TIFF EVENTS UNIVERSITATI|Cluj-Napoca|CJEVENTBA03|33|CCC EVENT CAMEL FAM 2012|121|Horeca|0
0|CS178562|2012-06-03 00:23:45|Dumitru|Veronica||F|1990-04-13|Bistrita Nasaud|BISTRITA|Motilor|71-73|||0|0|0745993671||veronica_dmtru@yahoo.com|KTSV||Cub|Yes|Yes||CJ006128|TIFF EVENTS UNIVERSITATI|Cluj-Napoca|CJEVENTBA06|33|CCC EVENT CAMEL FAM 2012|121|Horeca|0
0|CS178571|2012-06-03 00:26:54|Dragomir|Viorel||M|1984-07-04|Cluj|CLUJ NAPOCA|Titulescu|10|||0|20|0753932710||vioreldragomir@yahoo.com|CABK||Cub|Yes|Yes||CJ006128|TIFF EVENTS UNIVERSITATI|Cluj-Napoca|CJEVENTBA06|33|CCC EVENT CAMEL FAM 2012|121|Horeca|0
0|CS178581|2012-06-03 00:31:58|Popescu|Nicoleta||F|1978-01-19|Cluj|CLUJ NAPOCA|Florilor|318|||0|0|0741055466||nanapop_78@yahoo.com|CAWH|CASV|Cub|Yes|Yes||CJ006128|TIFF EVENTS UNIVERSITATI|Cluj-Napoca|CJEVENTBA04|33|CCC EVENT CAMEL FAM 2012|121|Horeca|0
0|CS178589|2012-06-03 00:33:36|Uifalean|Tiberiu||M|1987-02-10|Cluj|CLUJ NAPOCA|Decebal|10|||0|0|0745359833||becsia10@yahoo.com|CABK||Cub|Yes|Yes||CJ006128|TIFF EVENTS UNIVERSITATI|Cluj-Napoca|CJEVENTBA05|33|CCC EVENT CAMEL FAM 2012|121|Horeca|0
0|CS178590|2012-06-03 00:34:40|Jagos|Andras||M|1984-02-13|Cluj|CLUJ NAPOCA|Bucium|3||||10|||yaghee13@yahoo.com|DUNBL||Cub|Yes|Yes||CJ006128|TIFF EVENTS UNIVERSITATI|Cluj-Napoca|CJEVENTBA03|33|CCC EVENT CAMEL FAM 2012|121|Horeca|0
0|CS178606|2012-06-03 00:44:12|Pop|Melania||F|1988-04-06|Cluj|CAMPIA TURZII|Principals|21|||0|0|0744568123||mely_hope@yahoo.com|CASV||Bricheta Camel|Yes|Yes||CJ006128|TIFF EVENTS UNIVERSITATI|Cluj-Napoca|CJEVENTBA06|33|CCC EVENT CAMEL FAM 2012|121|Horeca|0
0|CS178615|2012-06-03 00:47:10|Termisan|Vlad||M|1989-06-18|Cluj|CLUJ NAPOCA|Sinaia|25|||||0745797446||vladyvladu@yahoo.com|KTBL||Cub|Yes|Yes||CJ006128|TIFF EVENTS UNIVERSITATI|Cluj-Napoca|CJEVENTBA05|33|CCC EVENT CAMEL FAM 2012|121|Horeca|0
0|CS178635|2012-06-03 00:50:52|Tatar|Sergiu||M|1991-11-10|Cluj|CLUJ NAPOCA|Pastravului|77|||2|16|0723366567||tatar_sergiuemil@yahoo.com|KTBL||Cub|Yes|Yes||CJ006128|TIFF EVENTS UNIVERSITATI|Cluj-Napoca|CJEVENTBA05|33|CCC EVENT CAMEL FAM 2012|121|Horeca|0
0|CS178640|2012-06-03 00:51:36|Csifo|Adina||F|1980-04-06|Cluj|CLUJ NAPOCA|Mogosoaia|3|||0|0|0747542585||csifoadina@yahoo.com|CAFI||Cub|Yes|Yes||CJ006128|TIFF EVENTS UNIVERSITATI|Cluj-Napoca|CJEVENTBA05|33|CCC EVENT CAMEL FAM 2012|121|Horeca|0
0|CS178648|2012-06-03 00:53:52|Tobias|Bulcsu||M|1990-10-29|Cluj|CLUJ NAPOCA|Brasov|25||||1|0755569831||tbzsolt@yahoo.com|CABK||Cub|Yes|Yes||CJ006128|TIFF EVENTS UNIVERSITATI|Cluj-Napoca|CJEVENTBA06|33|CCC EVENT CAMEL FAM 2012|121|Horeca|0
0|CS178662|2012-06-03 00:56:43|Bacancios|Delia||F|1978-09-20|Satu Mare|SATU MARE|Motilor|3|||0|0|0740208056||delia.tomi@yahoo.com|CAWH||Cub|Yes|Yes||CJ006128|TIFF EVENTS UNIVERSITATI|Cluj-Napoca|CJEVENTBA05|33|CCC EVENT CAMEL FAM 2012|121|Horeca|0
0|CS178671|2012-06-03 00:58:28|Moldovan|Alin||M|1979-06-23|Cluj|CLUJ NAPOCA|Gilaului|246|||0|0|0744263540||almoldo@gmail.com|KTSV|MBRGLFT|Cub|Yes|Yes||CJ006128|TIFF EVENTS UNIVERSITATI|Cluj-Napoca|CJEVENTBA04|33|CCC EVENT CAMEL FAM 2012|121|Horeca|0
0|CS178677|2012-06-03 00:59:49|Ion|Maria||F|1977-10-10|Sibiu|Sibiu|Semaforului|19|19|D|1|128|0742200594|0269||PMBL|KTCON|Cub|Yes|Yes||CJ006128|TIFF EVENTS UNIVERSITATI|Cluj-Napoca|CJEVENTBA04|33|CCC EVENT CAMEL FAM 2012|121|Horeca|0
0|CS178685|2012-06-03 01:01:31|Tartan|Liana||F|1991-05-04|Cluj|CLUJ NAPOCA|Zenit|13||||11|0751231214||tartanlia@yahoo.com|CABK||Cub|Yes|Yes||CJ006128|TIFF EVENTS UNIVERSITATI|Cluj-Napoca|CJEVENTBA03|33|CCC EVENT CAMEL FAM 2012|121|Horeca|0
0|CS179511|2012-06-03 21:45:20|Calin|Catalina||F|1988-03-20|Cluj|FLORESTI|Urusagului|24|||||0746736253||catalina.vod@gmail.com|WIBL||Cub|Yes|Yes||CJ006128|TIFF EVENTS UNIVERSITATI|Cluj-Napoca|CJEVENTBA06|33|CCC EVENT CAMEL FAM 2012|121|Horeca|0
0|CS179523|2012-06-03 21:47:35|Barta|Ana||F|1978-10-31|Bihor|ORADEA|R. Ciorogaiu|15|B6||1|9|0742114926||anabarta@gmail.com|SBSSBK||Cub|Yes|Yes||CJ006128|TIFF EVENTS UNIVERSITATI|Cluj-Napoca|CJEVENTBA05|33|CCC EVENT CAMEL FAM 2012|121|Horeca|0
0|CS179526|2012-06-03 21:47:59|Plsilo|Deniela||F|1985-11-16|Cluj|CLUJ NAPOCA|21decembrie|135||||42|0753143314||danaplaslo@yahoo.com|WIBL||Cub|Yes|Yes||CJ006128|TIFF EVENTS UNIVERSITATI|Cluj-Napoca|CJEVENTBA04|33|CCC EVENT CAMEL FAM 2012|121|Horeca|0
0|CS179530|2012-06-03 21:51:11|Guttman|Filip||M|1985-06-28|Cluj|CLUJ NAPOCA|Alexandru lauta|29|C2||3|13|0754750025||filipcuttman@yahoo.com|KTWH|DUNFCSV|Cub|Yes|Yes||CJ006128|TIFF EVENTS UNIVERSITATI|Cluj-Napoca|CJEVENTBA04|33|CCC EVENT CAMEL FAM 2012|121|Horeca|0
0|CS179531|2012-06-03 21:51:23|Both|Oana||F|1988-09-14|Cluj|CLUJ NAPOCA|Bucuresti|64|||0|52|0741368038||b.oananicoleta@gmail.com|CABK||Cub|Yes|Yes||CJ006128|TIFF EVENTS UNIVERSITATI|Cluj-Napoca|CJEVENTBA05|33|CCC EVENT CAMEL FAM 2012|121|Horeca|0
0|CS179554|2012-06-03 22:03:05|Budai|Cristina||F|1991-02-04|Satu Mare|SATU MARE|Careiului|4|||0|12|0754316687||budai_kristina@yahoo.com|CABK||Cub|Yes|Yes||CJ006128|TIFF EVENTS UNIVERSITATI|Cluj-Napoca|CJEVENTBA04|33|CCC EVENT CAMEL FAM 2012|121|Horeca|0
0|CS179560|2012-06-03 22:07:48|Pop|Roxana||F|1989-11-10|Cluj|CLUJ NAPOCA|Dorobantilor|6|||||0730299226||roxanapop_c@yahoo.com|KTBL||Cub|Yes|Yes||CJ006128|TIFF EVENTS UNIVERSITATI|Cluj-Napoca|CJEVENTBA05|33|CCC EVENT CAMEL FAM 2012|121|Horeca|0
0|CS179564|2012-06-03 22:14:21|Boste|Andrei||M|1989-08-12|Maramures|BAIA MARE|Victoriei|47||||76|0726339176||andreigoste@gmail.com|PMBL||Cub|Yes|Yes||CJ006128|TIFF EVENTS UNIVERSITATI|Cluj-Napoca|CJEVENTBA04|33|CCC EVENT CAMEL FAM 2012|121|Horeca|0
0|CS179568|2012-06-03 22:16:00|Brezovsky|Otilia||F|1975-08-13|Cluj|CLUJ NAPOCA|Jupiter|1|||||0723709049||otiliabrezovsky@gmail.com|DAVGL||Cub|Yes|Yes||CJ006128|TIFF EVENTS UNIVERSITATI|Cluj-Napoca|CJEVENTBA04|33|CCC EVENT CAMEL FAM 2012|121|Horeca|0
0|CS179571|2012-06-03 22:19:40|Popescu|Flavia||F|1986-11-01|Cluj|CLUJ NAPOCA|Fantanele|1|P|9||96|0732641903||flaviandreea@yahoo.com|WISSS|VIRSUM|Cub|Yes|Yes||CJ006128|TIFF EVENTS UNIVERSITATI|Cluj-Napoca|CJEVENTBA04|33|CCC EVENT CAMEL FAM 2012|121|Horeca|0
0|CS179575|2012-06-03 22:22:04|Padure|Ruxandra||F|1986-01-21|Sibiu|AGNITA|1 Decembrie|60|||||0742073456||ruxxy@hotmail.com|WISSS|VIRSUPK|Cub|Yes|Yes||CJ006128|TIFF EVENTS UNIVERSITATI|Cluj-Napoca|CJEVENTBA04|33|CCC EVENT CAMEL FAM 2012|121|Horeca|0
0|CS179588|2012-06-03 22:29:39|Muraru|Daniela||F|1968-02-10|Cluj|CLUJ NAPOCA|Calimanesti|8|||||0754030054|||KTSV||Cub|Yes|Yes||CJ006128|TIFF EVENTS UNIVERSITATI|Cluj-Napoca|CJEVENTBA06|33|CCC EVENT CAMEL FAM 2012|121|Horeca|0
0|CS179605|2012-06-03 22:39:10|Oltean|Gabriela||F|1985-06-14|Bucuresti|Bucuresti|Grinditei|9||||||||DUNFCSV||Cub|Yes|Yes||CJ006128|TIFF EVENTS UNIVERSITATI|Cluj-Napoca|CJEVENTBA03|33|CCC EVENT CAMEL FAM 2012|121|Horeca|0
0|CS179618|2012-06-03 22:48:02|Andal|Alexandru||M|1991-01-16|Cluj|AGHIRESU FABRICI|Principala|192|||||0756469364||just_me_again23@yahoo.com|DUNFCBK||Cub|Yes|Yes||CJ006128|TIFF EVENTS UNIVERSITATI|Cluj-Napoca|CJEVENTBA05|33|CCC EVENT CAMEL FAM 2012|121|Horeca|0
0|CS179622|2012-06-03 22:50:40|Lupas|Ionut||M|1986-11-13|Cluj|CLUJ NAPOCA|Oasului|86-90|||0|72|0749136113||jonyl13@yahoo.com|CAWH||Cub|Yes|Yes||CJ006128|TIFF EVENTS UNIVERSITATI|Cluj-Napoca|CJEVENTBA05|33|CCC EVENT CAMEL FAM 2012|121|Horeca|0
0|CS179623|2012-06-03 22:51:55|Costan|Elena||F|1988-11-25|Bistrita Nasaud|BISTRITA|Paulestilor|77|||||0735786461||elena_just_4_us@yahoo.com|DUNBL||Cub|Yes|Yes||CJ006128|TIFF EVENTS UNIVERSITATI|Cluj-Napoca|CJEVENTBA05|33|CCC EVENT CAMEL FAM 2012|121|Horeca|0
0|CS179626|2012-06-03 22:52:56|Prodan|Iosif||M|1991-12-25|Iasi|IASI|Frederich|3|||||0746066091||iosifprodan@gmail.com|DUNBL||Cub|Yes|Yes||CJ006128|TIFF EVENTS UNIVERSITATI|Cluj-Napoca|CJEVENTBA03|33|CCC EVENT CAMEL FAM 2012|121|Horeca|0
0|CS179659|2012-06-03 23:09:18|Pop|Florin||M|1978-04-28|Cluj|CLUJ NAPOCA|Observator|13|||0|14|0753103296||zand_zand@yahoo.com|KTBL||Cub|Yes|Yes||CJ006128|TIFF EVENTS UNIVERSITATI|Cluj-Napoca|CJEVENTBA06|33|CCC EVENT CAMEL FAM 2012|121|Horeca|0
0|CS179660|2012-06-03 23:10:18|Pop|Ovidiu||M|1985-07-24|Cluj|CLUJ NAPOCA|Viilor|29|||0|7|0740034848|||KTCON||Cub|Yes|Yes||CJ006128|TIFF EVENTS UNIVERSITATI|Cluj-Napoca|CJEVENTBA05|33|CCC EVENT CAMEL FAM 2012|121|Horeca|0
0|CS179665|2012-06-03 23:14:34|Gligan|Ana Maria||F|1987-08-14|Alba|SALCIUA DE JOS|Principala|34|||0|0|0751757637||just_my_anca@yahoo.com|WISSB||Cub|Yes|Yes||CJ006128|TIFF EVENTS UNIVERSITATI|Cluj-Napoca|CJEVENTBA04|33|CCC EVENT CAMEL FAM 2012|121|Horeca|0
0|CS179673|2012-06-03 23:20:43|Veregut|Anca||F|1977-03-12|Cluj|CLUJ NAPOCA|Titulescu|109|||||0729399881||anca_veregut@yahoo.com|LSSV||Cub|Yes|Yes||CJ006128|TIFF EVENTS UNIVERSITATI|Cluj-Napoca|CJEVENTBA03|33|CCC EVENT CAMEL FAM 2012|121|Horeca|0
0|CS179676|2012-06-03 23:23:03|Buda|Alexandru||M|1991-10-04|Cluj|CLUJ NAPOCA|16Februarie||2A|1|0|12|0754332344||alexandrubuda@ymail.com|CABK||Cub|Yes|Yes||CJ006128|TIFF EVENTS UNIVERSITATI|Cluj-Napoca|CJEVENTBA06|33|CCC EVENT CAMEL FAM 2012|121|Horeca|0
0|CS179678|2012-06-03 23:25:20|Borbely|Alina||F|1982-05-19|Cluj|CLUJ NAPOCA|Detunata|3|||1|22|0755152123||alina19b@yahoo.com|KTSV||Cub|Yes|Yes||CJ006128|TIFF EVENTS UNIVERSITATI|Cluj-Napoca|CJEVENTBA04|33|CCC EVENT CAMEL FAM 2012|121|Horeca|0
0|CS179683|2012-06-03 23:28:08|Marincas|Ioana||F|1987-07-11|Maramures|BAIA MARE|Poienilor|24|A|2|4|13|0746994653||marincasioana@yahoo.com|CASV||Bricheta Camel|Yes|Yes||CJ006128|TIFF EVENTS UNIVERSITATI|Cluj-Napoca|CJEVENTBA06|33|CCC EVENT CAMEL FAM 2012|121|Horeca|0
0|CS179695|2012-06-03 23:34:38|Toma|Raluca||F|1992-07-27|Constanta|CONSTANTA|Aleea Gradinilor|2|A||1|9|0726272461||smokey.taboo@yahoo.com|PMBL||Cub|Yes|Yes||CJ006128|TIFF EVENTS UNIVERSITATI|Cluj-Napoca|CJEVENTBA05|33|CCC EVENT CAMEL FAM 2012|121|Horeca|0
0|CS179696|2012-06-03 23:34:42|Vlad|Marius||M|1987-01-09|Cluj|CLUJ NAPOCA|Rovine|5|||||0742287021||bogdanv87@yahoo.com|KTBLH|DAVGL|Cub|Yes|Yes||CJ006128|TIFF EVENTS UNIVERSITATI|Cluj-Napoca|CJEVENTBA04|33|CCC EVENT CAMEL FAM 2012|121|Horeca|0
0|CS179727|2012-06-03 23:51:26|Crisan|Diana||F|1984-12-12|Cluj|CLUJ NAPOCA|Mircea cel batran|2|||||0742099843||dia.crisan@yahoo.com|DUNFCSV|KTSV|Cub|Yes|Yes||CJ006128|TIFF EVENTS UNIVERSITATI|Cluj-Napoca|CJEVENTBA04|33|CCC EVENT CAMEL FAM 2012|121|Horeca|0
0|CS179740|2012-06-03 23:56:25|Rusu|Vasile||M|1987-04-25|Bistrita Nasaud|BISTRITA|1 decembrie|1|||||0743824294||rusunvasile@gmail.com|DUNBL||Cub|Yes|Yes||CJ006128|TIFF EVENTS UNIVERSITATI|Cluj-Napoca|CJEVENTBA06|33|CCC EVENT CAMEL FAM 2012|121|Horeca|0
0|CS179765|2012-06-04 00:19:35|Muncus|Marius||M|1986-11-27|Cluj|CLUJ NAPOCA|Detinata||||0|0|0757612657||muncusmarius@yahoo.com|CABK||Cub|Yes|Yes||CJ006128|TIFF EVENTS UNIVERSITATI|Cluj-Napoca|CJEVENTBA03|33|CCC EVENT CAMEL FAM 2012|121|Horeca|0
0|CS179771|2012-06-04 00:33:33|Codresi|Ionela||F|1986-09-13|Olt|OLARI|Cocorului|34|||0|0|0745992651||ionela_nice_girl@yahoo.com|GLMMNT||Cub|Yes|Yes||CJ002032|OTIS PM PATRU SRL|Cluj-Napoca|CJEVENTBA06|33|CCC EVENT CAMEL FAM 2012|121|Horeca|0
0|CS179773|2012-06-04 00:34:23|Risca|Vlad||M|1980-09-23|Cluj|CLUJ NAPOCA|Iuliu hateganu|7|||||0758258825||mmedia@mail.com|KTM||Cub|Yes|Yes||CJ002032|OTIS PM PATRU SRL|Cluj-Napoca|CJEVENTBA05|33|CCC EVENT CAMEL FAM 2012|121|Horeca|0
0|CS179774|2012-06-04 00:35:11|Bocsa|Mihaela||F|1990-02-20|Bistrita Nasaud|BISTRITA|Nasaud|14|||||0746467855||bocsaa@yahoo.com|CABL||Bricheta Camel|Yes|Yes||CJ002032|OTIS PM PATRU SRL|Cluj-Napoca|CJEVENTBA03|33|CCC EVENT CAMEL FAM 2012|121|Horeca|0
0|CS179775|2012-06-04 00:35:45|Nica|Cristian||M|1979-08-01|Cluj|CLUJ NAPOCA|Nichita stanescu|9|||||0742033590||ssnica18@yahoo.com|CABL|KTBL|Cub|Yes|Yes||CJ002032|OTIS PM PATRU SRL|Cluj-Napoca|CJEVENTBA04|33|CCC EVENT CAMEL FAM 2012|121|Horeca|0
0|CS179777|2012-06-04 00:36:50|Toth|Mariana||F|1987-02-05|Cluj|CLUJ NAPOCA|Bucium|57|||4|56|0745896468||mariana87@yahoo.com|DUNFCSV||Cub|Yes|Yes||CJ002032|OTIS PM PATRU SRL|Cluj-Napoca|CJEVENTBA05|33|CCC EVENT CAMEL FAM 2012|121|Horeca|0
0|CS179779|2012-06-04 00:38:25|Popa|Diana||F|1987-10-18|Cluj|CLUJ NAPOCA|Albac|3|||0|47|0763019780||diana_popa@yahoo.com|KTBL||Bricheta Camel|Yes|Yes||CJ002032|OTIS PM PATRU SRL|Cluj-Napoca|CJEVENTBA06|33|CCC EVENT CAMEL FAM 2012|121|Horeca|0
0|CS179780|2012-06-04 00:38:41|Vlaicu|Aurel||M|1958-09-18|Hunedoara|Bintinti|Zborului|16|||0|0|0727627627||aurel.vlaicu@zbor.ro|CABK||Cub|Yes|Yes||CJ002032|OTIS PM PATRU SRL|Cluj-Napoca|CJEVENTBA03|33|CCC EVENT CAMEL FAM 2012|121|Horeca|0
0|CS179784|2012-06-04 00:41:02|Bodea|Sorin||M|1978-03-17|Cluj|CLUJ NAPOCA|Republicii|4|||||0749194882||sorin_moto@yahoo.com|CAWH||Cub|Yes|Yes||CJ002032|OTIS PM PATRU SRL|Cluj-Napoca|CJEVENTBA03|33|CCC EVENT CAMEL FAM 2012|121|Horeca|0
0|CS179785|2012-06-04 00:41:39|Kosa|Hunor||M|1987-07-28|Cluj|CLUJ NAPOCA|Dorobantilor|76|||0|0|0749676061||uusgluki@yahoo.com|CABK|DUNBL|Cub|Yes|Yes||CJ002032|OTIS PM PATRU SRL|Cluj-Napoca|CJEVENTBA04|33|CCC EVENT CAMEL FAM 2012|121|Horeca|0
0|CS179786|2012-06-04 00:42:05|Csete|Kinga||F|1992-07-10|Cluj|CLUJ NAPOCA|Taberei|4||||26|0745433443||kinga.csete@yahoo.com|CABK||Cub|Yes|Yes||CJ002032|OTIS PM PATRU SRL|Cluj-Napoca|CJEVENTBA06|33|CCC EVENT CAMEL FAM 2012|121|Horeca|0
0|CS179787|2012-06-04 00:42:40|Parvu|Ciprian||M|1981-03-03|Cluj|CLUJ NAPOCA|Borsec|3||3||50|0722410010||cipsios_ro@yahoo.com|KTBL||Cub|Yes|Yes||CJ002032|OTIS PM PATRU SRL|Cluj-Napoca|CJEVENTBA05|33|CCC EVENT CAMEL FAM 2012|121|Horeca|0
0|CS179788|2012-06-04 00:44:14|Deac|Bogdan||M|1985-06-02|Cluj|CLUJ NAPOCA|J j rousseau|12|||0|0|0740402690||deac.bogdan@gmail.com|CABK||Cub|Yes|Yes||CJ002032|OTIS PM PATRU SRL|Cluj-Napoca|CJEVENTBA05|33|CCC EVENT CAMEL FAM 2012|121|Horeca|0
0|CS179789|2012-06-04 00:44:43|Suciu|Rares||M|1991-06-30|Cluj|CLUJ NAPOCA|Mehedinti|27|E5|1||12|0754350827||andrei_hotu6@yahoo.com|DUNBL||Cub|Yes|Yes||CJ002032|OTIS PM PATRU SRL|Cluj-Napoca|CJEVENTBA06|33|CCC EVENT CAMEL FAM 2012|121|Horeca|0
0|CS179792|2012-06-04 00:50:05|Lupoian|Catalin||F|1986-04-11|Bistrita Nasaud|BISTRITA|Barlad|570|||||0735975468||cata_bbay@yahoo.com|MBRBI||Cub|Yes|Yes||CJ002032|OTIS PM PATRU SRL|Cluj-Napoca|CJEVENTBA05|33|CCC EVENT CAMEL FAM 2012|121|Horeca|0
0|CS179793|2012-06-04 00:51:04|Moisa|Madalina||F|1989-05-21|Cluj|CLUJ NAPOCA|Hasdeu|45|||0|0|0742942547||mem_mada@yahoo.com|DUNBL||Cub|Yes|Yes||CJ002032|OTIS PM PATRU SRL|Cluj-Napoca|CJEVENTBA06|33|CCC EVENT CAMEL FAM 2012|121|Horeca|0
0|CS179794|2012-06-04 00:54:44|Burzo|Carmen||F|1987-11-10|Bistrita Nasaud|BISTRITA|Mesteacanului|7|7|B|1|7|0745723612||cami_burzo@yahoo.com|CAWH|KTSV|Cub|Yes|Yes||CJ002032|OTIS PM PATRU SRL|Cluj-Napoca|CJEVENTBA04|33|CCC EVENT CAMEL FAM 2012|121|Horeca|0
0|CS179796|2012-06-04 00:56:04|Suciu|Florica||F|1988-05-24|Sibiu|SIBIU|Zorilor|45|F|Q|5|90|0744338901||flory_suciu@yahoo.fr|WIBL||Cub|Yes|Yes||CJ002032|OTIS PM PATRU SRL|Cluj-Napoca|CJEVENTBA05|33|CCC EVENT CAMEL FAM 2012|121|Horeca|0
0|CS179799|2012-06-04 00:56:55|Barb|Ciprian||M|1982-06-17|Sibiu|MEDIAS|Titu maiorescu|4|||||0745863276||barbuciprian1706@yahoo.com|CAFI|DUNBL|Cub|Yes|Yes||CJ002032|OTIS PM PATRU SRL|Cluj-Napoca|CJEVENTBA04|33|CCC EVENT CAMEL FAM 2012|121|Horeca|0
0|CS179801|2012-06-04 00:59:13|Nap|Bogdan||M|1986-12-29|Cluj|CLUJ NAPOCA|Vidraru|9-11||||9|0743964238||bogdi_varu@yahoo.com|CABK||Cub|Yes|Yes||CJ002032|OTIS PM PATRU SRL|Cluj-Napoca|CJEVENTBA03|33|CCC EVENT CAMEL FAM 2012|121|Horeca|0
0|CS179809|2012-06-04 01:14:32|Nicoare|Catalin||M|1980-09-16|Bistrita Nasaud|BISTRITA|Parcului|10|||||0744643961||cata_lin_1999@yahoo.com|LSRD||Cub|Yes|Yes||CJ001540|TB TURC SRL|Cluj-Napoca|CJEVENTBA03|33|CCC EVENT CAMEL FAM 2012|121|Horeca|0
0|CS179810|2012-06-04 01:16:18|Pripon|Mihai||M|1982-08-07|Cluj|CLUJ NAPOCA|Miraslau|2|||||0747430131||mihai_pripon@yahoo.com|CAFI||Bricheta Camel|Yes|Yes||CJ001540|TB TURC SRL|Cluj-Napoca|CJEVENTBA05|33|CCC EVENT CAMEL FAM 2012|121|Horeca|0
0|CS179811|2012-06-04 01:16:22|Hondreikovicz|Adrian||M|1980-02-26|Cluj|CLUJ NAPOCA|Observatorului|144|||||0724291248|||DUNBL||Cub|Yes|Yes||CJ001540|TB TURC SRL|Cluj-Napoca|CJEVENTBA06|33|CCC EVENT CAMEL FAM 2012|121|Horeca|0
0|CS179812|2012-06-04 01:18:50|Nagy|Alina||F|1981-10-26|Cluj|CLUJ NAPOCA|Septimiu albinii|99|B1|2|4|74|0746350618||alinacocut@yahoo.com|KTBL|WIBL|Cub|Yes|Yes||CJ001540|TB TURC SRL|Cluj-Napoca|CJEVENTBA04|33|CCC EVENT CAMEL FAM 2012|121|Horeca|0
0|CS179814|2012-06-04 01:19:24|Popovici|Liviu||M|1988-03-30|Alba|ALBA IULIA|Politest I||8|E|8|30|0756436901||liviuc2005@yahoo.com|KTSV||Cub|Yes|Yes||CJ001540|TB TURC SRL|Cluj-Napoca|CJEVENTBA06|33|CCC EVENT CAMEL FAM 2012|121|Horeca|0
0|CS179815|2012-06-04 01:19:29|Biris|Sergiu||M|1977-03-18|Cluj|CLUJ NAPOCA|I. Mester|7||||32|0740094847||sergiubiris@barmania.ro|KTBL||Cub|Yes|Yes||CJ001540|TB TURC SRL|Cluj-Napoca|CJEVENTBA05|33|CCC EVENT CAMEL FAM 2012|121|Horeca|0
0|CS179816|2012-06-04 01:20:56|Turc|Bogdan||M|1983-04-06|Cluj|CLUJ NAPOCA|Somesului|2|||0|12|0743680967||bogdanturc@yahoo.com|CAWH||Cub|Yes|Yes||CJ001540|TB TURC SRL|Cluj-Napoca|CJEVENTBA05|33|CCC EVENT CAMEL FAM 2012|121|Horeca|0
0|CS179817|2012-06-04 01:21:07|Iacoban|Ciprian||M|1983-01-31|Bistrita Nasaud|BISTRITA|Garii|11|||||0744669069||iacoban_c@yahoo.com|CABK||Cub|Yes|Yes||CJ001540|TB TURC SRL|Cluj-Napoca|CJEVENTBA03|33|CCC EVENT CAMEL FAM 2012|121|Horeca|0
0|CS179818|2012-06-04 01:21:27|Macovei|Ana||F|1987-12-14|Alba|ALBA IULIA|Florilor|11|||0|0|0724128595||macoveiana@yahoo.com|CABL||Bricheta Camel|Yes|Yes||CJ001540|TB TURC SRL|Cluj-Napoca|CJEVENTBA06|33|CCC EVENT CAMEL FAM 2012|121|Horeca|0
0|CS179819|2012-06-04 01:21:53|Codarcea|Adrian||M|1984-09-08|Alba|ALBA IULIA|B.p hasdeu|5|||P|2|0741608806||adriancodarcea@yahoo.com|PMBL||Cub|Yes|Yes||CJ001540|TB TURC SRL|Cluj-Napoca|CJEVENTBA04|33|CCC EVENT CAMEL FAM 2012|121|Horeca|0
0|CS179820|2012-06-04 01:23:19|Felecan|Adrian||M|1975-07-29|Cluj|CLUJ NAPOCA|Ciucas|3|||3|27|0745423518||felecanadrian@yahoo.com|SBKSBK||Cub|Yes|Yes||CJ001540|TB TURC SRL|Cluj-Napoca|CJEVENTBA05|33|CCC EVENT CAMEL FAM 2012|121|Horeca|0
0|CS179821|2012-06-04 01:23:23|Serdean|Dragos||M|1978-09-24|Cluj|CLUJ NAPOCA|Trotusului|4||||81|0740476096||dragosserbean@yahoo.com|ROTH||Cub|Yes|Yes||CJ001540|TB TURC SRL|Cluj-Napoca|CJEVENTBA03|33|CCC EVENT CAMEL FAM 2012|121|Horeca|0
0|CS179822|2012-06-04 01:24:40|Traistaru|Ioana||F|1990-01-31|Valcea|RAMNICU VALCEA|Eroilor|45|A||0|0|0756893456||t.ioana@yahoo.com|VIRSM||Cub|Yes|Yes||CJ001540|TB TURC SRL|Cluj-Napoca|CJEVENTBA05|33|CCC EVENT CAMEL FAM 2012|121|Horeca|0
0|CS179823|2012-06-04 01:24:40|Szabo|Erika||F|1986-10-23|Cluj|CLUJ NAPOCA|Somesului|2||||12|0728195236|||KTBL||Cub|Yes|Yes||CJ001540|TB TURC SRL|Cluj-Napoca|CJEVENTBA06|33|CCC EVENT CAMEL FAM 2012|121|Horeca|0
0|CS179824|2012-06-04 01:24:53|Suciu|Simona||F|1990-03-25|Cluj|CLUJ NAPOCA|Bucuresti|80|||0|0|0743309851||suciu_simona_alina@yahoo.com|WISSB|CAWH|Cub|Yes|Yes||CJ001540|TB TURC SRL|Cluj-Napoca|CJEVENTBA04|33|CCC EVENT CAMEL FAM 2012|121|Horeca|0
0|CS179825|2012-06-04 01:25:35|Onet|Florin||M|1986-09-22|Cluj|HUEDIN|Garii|3|||0|0|0742215222||onet_scumpy_flo@yahoo.com|KTBL||Cub|Yes|Yes||CJ001540|TB TURC SRL|Cluj-Napoca|CJEVENTBA05|33|CCC EVENT CAMEL FAM 2012|121|Horeca|0
0|CS179826|2012-06-04 01:27:56|Chirica|Madalina||F|1991-05-20|Cluj|CLUJ NAPOCA|Mehedinti|38-40||2|8|49|0755647104||madalina.chirica@yahoo.com|DUNFCDB|CABK|Cub|Yes|Yes||CJ001540|TB TURC SRL|Cluj-Napoca|CJEVENTBA04|33|CCC EVENT CAMEL FAM 2012|121|Horeca|0
0|CS179827|2012-06-04 01:31:23|Spatar|Mircea||M|1986-05-26|Bistrita Nasaud|BISTRITA|Motilor|158|||0|0|0746797559||spatar_mircea@hotmail.com|KTCON||Cub|Yes|Yes||CJ001540|TB TURC SRL|Cluj-Napoca|CJEVENTBA05|33|CCC EVENT CAMEL FAM 2012|121|Horeca|0
0|CS179828|2012-06-04 01:36:45|Danciu|Andrei||M|1979-06-09|Cluj|CLUJ NAPOCA|Cojocnei|97|||1|12|0749271974||andreidanciucip@yahoo.com|MBRFP|KTBL|Cub|Yes|Yes||CJ001540|TB TURC SRL|Cluj-Napoca|CJEVENTBA04|33|CCC EVENT CAMEL FAM 2012|121|Horeca|0
0|CS179829|2012-06-04 01:38:08|Csifo|Adina||F|1980-03-06|Cluj|CLUJ NAPOCA|Mogosoaia|3|||0|20|0747542585||csifoadina@yahoo.com|CAFI|WICL|Bricheta Camel|Yes|Yes||CJ001540|TB TURC SRL|Cluj-Napoca|CJEVENTBA04|33|CCC EVENT CAMEL FAM 2012|121|Horeca|0
0|FS266304|2012-06-01 23:27:17||||M|||||||||||||MBRGLFT||||||||||33|CCC EVENT CAMEL FAM 2012|121|Horeca|0
0|FS266307|2012-06-01 23:27:35||||F|||||||||||||KTBL||||||||||33|CCC EVENT CAMEL FAM 2012|121|Horeca|0
0|FS266317|2012-06-01 23:27:46||||M|||||||||||||MBRFP||||||||||33|CCC EVENT CAMEL FAM 2012|121|Horeca|0
0|FS266323|2012-06-01 23:29:17||||M|||||||||||||DUNBL||||||||||33|CCC EVENT CAMEL FAM 2012|121|Horeca|0
0|FS266400|2012-06-01 23:36:12||||F|||||||||||||GLPBSN||||||||||33|CCC EVENT CAMEL FAM 2012|121|Horeca|0
0|FS266473|2012-06-01 23:46:11||||M|||||||||||||KTCON||||||||||33|CCC EVENT CAMEL FAM 2012|121|Horeca|0
0|FS266512|2012-06-01 23:52:09||||F|||||||||||||MBRFP||||||||||33|CCC EVENT CAMEL FAM 2012|121|Horeca|0
0|FS266514|2012-06-01 23:52:32||||M|||||||||||||DUNBL||||||||||33|CCC EVENT CAMEL FAM 2012|121|Horeca|0
0|FS266625|2012-06-02 00:12:23||||M|||||||||||||KTBL||||||||||33|CCC EVENT CAMEL FAM 2012|121|Horeca|0
0|FS266679|2012-06-02 00:19:20||||M|||||||||||||LSRD||||||||||33|CCC EVENT CAMEL FAM 2012|121|Horeca|0
0|FS266777|2012-06-02 00:41:09||||F|||||||||||||KTH||||||||||33|CCC EVENT CAMEL FAM 2012|121|Horeca|0
0|FS266810|2012-06-02 00:47:16||||M|||||||||||||MBRGLFT||||||||||33|CCC EVENT CAMEL FAM 2012|121|Horeca|0
0|FS266842|2012-06-02 00:54:17||||F|||||||||||||PMBK||||||||||33|CCC EVENT CAMEL FAM 2012|121|Horeca|0
0|FS266854|2012-06-02 00:56:57||||M|||||||||||||MBRGLFT||||||||||33|CCC EVENT CAMEL FAM 2012|121|Horeca|0
0|FS266889|2012-06-02 01:03:35||||M|||||||||||||MBRFP||||||||||33|CCC EVENT CAMEL FAM 2012|121|Horeca|0
0|FS267016|2012-06-02 01:27:29||||M|||||||||||||DUNFCSV||||||||||33|CCC EVENT CAMEL FAM 2012|121|Horeca|0
0|FS269829|2012-06-02 21:25:48||||M|||||||||||||DAVCL||||||||||33|CCC EVENT CAMEL FAM 2012|121|Horeca|0
0|FS269841|2012-06-02 21:26:22|||||||||||||||||KTBL||||||||||33|CCC EVENT CAMEL FAM 2012|121|Horeca|0
0|FS269987|2012-06-02 21:50:45|||||||||||||||||KTBL||||||||||33|CCC EVENT CAMEL FAM 2012|121|Horeca|0
0|FS270040|2012-06-02 22:01:29||||F|||||||||||||DAVGL||||||||||33|CCC EVENT CAMEL FAM 2012|121|Horeca|0
0|FS270118|2012-06-02 22:17:03||||F|||||||||||||KTBL||||||||||33|CCC EVENT CAMEL FAM 2012|121|Horeca|0
0|FS270153|2012-06-02 22:21:34||||M|||||||||||||MBRFP||||||||||33|CCC EVENT CAMEL FAM 2012|121|Horeca|0
0|FS270168|2012-06-02 22:23:50||||F|||||||||||||KTCON||||||||||33|CCC EVENT CAMEL FAM 2012|121|Horeca|0
0|FS270596|2012-06-02 23:36:38||||M|||||||||||||MBRRD||||||||||33|CCC EVENT CAMEL FAM 2012|121|Horeca|0
0|FS270626|2012-06-02 23:46:00||||M|||||||||||||MBRFPEX||||||||||33|CCC EVENT CAMEL FAM 2012|121|Horeca|0
0|FS270636|2012-06-02 23:49:33||||F|||||||||||||DUNBL||||||||||33|CCC EVENT CAMEL FAM 2012|121|Horeca|0
0|FS270638|2012-06-02 23:49:59||||F|||||||||||||PMBL||||||||||33|CCC EVENT CAMEL FAM 2012|121|Horeca|0
0|FS270760|2012-06-03 00:15:34||||F|||||||||||||VOGLL||||||||||33|CCC EVENT CAMEL FAM 2012|121|Horeca|0
0|FS270997|2012-06-03 01:07:05||||M|||||||||||||PMBL||||||||||33|CCC EVENT CAMEL FAM 2012|121|Horeca|0
0|FS271049|2012-06-03 01:18:24||||F|||||||||||||VOGLL||||||||||33|CCC EVENT CAMEL FAM 2012|121|Horeca|0
0|FS271982|2012-06-03 21:53:11||||M|||||||||||||DUNFCSV||||||||||33|CCC EVENT CAMEL FAM 2012|121|Horeca|0
0|FS271990|2012-06-03 21:58:01||||F|||||||||||||LMBLH||||||||||33|CCC EVENT CAMEL FAM 2012|121|Horeca|0
0|FS271999|2012-06-03 22:00:05||||F|||||||||||||PARAB||||||||||33|CCC EVENT CAMEL FAM 2012|121|Horeca|0
0|FS272042|2012-06-03 22:06:12||||M|||||||||||||KTBL||||||||||33|CCC EVENT CAMEL FAM 2012|121|Horeca|0
0|FS272084|2012-06-03 22:12:20||||F|||||||||||||DAVGL||||||||||33|CCC EVENT CAMEL FAM 2012|121|Horeca|0
0|FS272254|2012-06-03 22:55:23||||F|||||||||||||KTBL||||||||||33|CCC EVENT CAMEL FAM 2012|121|Horeca|0
0|FS272255|2012-06-03 22:55:45||||M|||||||||||||PMBL||||||||||33|CCC EVENT CAMEL FAM 2012|121|Horeca|0
0|FS272393|2012-06-03 23:37:45||||F|||||||||||||KTBL||||||||||33|CCC EVENT CAMEL FAM 2012|121|Horeca|0
0|FS272457|2012-06-04 00:29:45||||M|||||||||||||DUNBL||||||||||33|CCC EVENT CAMEL FAM 2012|121|Horeca|0
0|FS272461|2012-06-04 00:30:41||||F|||||||||||||VOGM||||||||||33|CCC EVENT CAMEL FAM 2012|121|Horeca|0
0|FS272466|2012-06-04 00:32:03||||F|||||||||||||VOGLL||||||||||33|CCC EVENT CAMEL FAM 2012|121|Horeca|0
0|FS272489|2012-06-04 00:44:11||||F|||||||||||||VOGLL||||||||||33|CCC EVENT CAMEL FAM 2012|121|Horeca|0
0|FS272491|2012-06-04 00:44:59||||F|||||||||||||KTBL||||||||||33|CCC EVENT CAMEL FAM 2012|121|Horeca|0
0|FS272509|2012-06-04 00:59:52||||M|||||||||||||DUNSV||||||||||33|CCC EVENT CAMEL FAM 2012|121|Horeca|0
0|FS272541|2012-06-04 01:35:09||||F|||||||||||||MBRFP||||||||||33|CCC EVENT CAMEL FAM 2012|121|Horeca|0
0|FS272593|2012-06-04 02:03:31||||M|||||||||||||PMBL||||||||||33|CCC EVENT CAMEL FAM 2012|121|Horeca|0
