0|CS3600170|2013-08-29 00:57:36|Sava|Alexandra||F|1989-12-31|Bucuresti|SECTOR 3|Foisorului|23|F9c||5|161|0761017648||Sava.alexandraa@yahoo.com|KTSV|VOGM|1 Winston Fresh XSpression (5mg) Pack|Yes|Yes||BW003588|PACO CLUB SRL|Bucuresti|BWHRKBA112|163|CCC HRK WIN XST Lyos 2013|121|Horeca|0
0|CS3600171|2013-08-29 01:00:07|Cusai|Marius Alexandru||M|1987-11-24|Vrancea|Focsani|Bujor|67|||||0768081059||mariusalexandruc@yahoo.com|MBRGLT||1 Winston XStyle Blue (6mg) Pack|Yes|Yes||BW003588|PACO CLUB SRL|Bucuresti|BWHRKBA33|163|CCC HRK WIN XST Lyos 2013|121|Horeca|0
0|CS3600172|2013-08-29 01:00:34|Nita|Elena||F|1987-03-04|Buzau|BUZAU|Faurei|104|||0|0|0720957940||Ella_uaic@yahoo.com|SBKSGD||1 Winston Fresh XSpression (5mg) Pack|Yes|Yes||BW003588|PACO CLUB SRL|Bucuresti|BWHRKBA113|163|CCC HRK WIN XST Lyos 2013|121|Horeca|0
0|CS3600173|2013-08-29 01:01:15|Stoianov|Valentin||M|1983-05-27|Bucuresti|SECTOR 3|Ramnicu sarat|24|7b|1|1|7|0764440162||Stoianoff.vali@gmail.com|DUNFCMBB||1 Winston XStyle Blue (6mg) Pack|Yes|Yes||BW003588|PACO CLUB SRL|Bucuresti|BWHRKBA116|163|CCC HRK WIN XST Lyos 2013|121|Horeca|0
0|CS3600174|2013-08-29 01:02:14|Naseem|Sabba||M|1993-05-22|Bucuresti|SECTOR 5|Oranos|100|53|1|4|16|0726033567||Naseem_s_q10@hotmail.com|LMBL||1 Winston XStyle Blue (6mg) Pack|Yes|Yes||BW003588|PACO CLUB SRL|Bucuresti|BWHRKBA114|163|CCC HRK WIN XST Lyos 2013|121|Horeca|0
0|CS3600175|2013-08-29 01:04:45|Popescu|Marius||M|1981-04-09|Bucuresti|SECTOR 4|Anghel moldoveanu|1e|||||0786345634||Bebumarius@yahoo.com|KTSV||1 Winston XStyle Silver (4mg) Pack|Yes|Yes||BW003588|PACO CLUB SRL|Bucuresti|BWHRKBA58|163|CCC HRK WIN XST Lyos 2013|121|Horeca|0
0|CS3600176|2013-08-29 01:05:58|Nae|Liliana||F|1983-06-13|Bucuresti|SECTOR 1|Nicolae racota|2|||||0722121856||liliana_nae@yahoo.com|PARRSSH||1 Winston XStyle Silver (4mg) Pack|Yes|Yes||BW003588|PACO CLUB SRL|Bucuresti|BWHRKBA33|163|CCC HRK WIN XST Lyos 2013|121|Horeca|0
0|CS3600177|2013-08-29 01:11:16|Comsa|Andreea||F|1992-10-02|Cluj|CLUJ NAPOCA|Tulcea|26|L3|2|4|24|0747963292||Andreeacomsa@yahoo.com|PARABH||1 Winston XStyle Silver (4mg) Pack|Yes|Yes||BW003588|PACO CLUB SRL|Bucuresti|BWHRKBA116|163|CCC HRK WIN XST Lyos 2013|121|Horeca|0
0|CS3600178|2013-08-29 01:13:08|Birnaure|Andreea Diana||F|1989-04-01|Mehedinti|DROBETA TURNU SEVERIN|Kiseleff|64|Ka5|2|2|6|0745424546||Andreea.birnaure@yahoo.com|DUNFCMBB||1 Winston Fresh XSpression (5mg) Pack|Yes|Yes||BW003588|PACO CLUB SRL|Bucuresti|BWHRKBA58|163|CCC HRK WIN XST Lyos 2013|121|Horeca|0
0|CS3600179|2013-08-29 01:13:59|Grigore|Oana||F|1993-04-25|Ialomita|SLOBOZIA|Cuza voda|23|25|A|2|9|0760857513||oanys_93@yahoo.com|DUNFCBB||1 Winston Fresh XSpression (5mg) Pack|Yes|Yes||BW003588|PACO CLUB SRL|Bucuresti|BWHRKBA33|163|CCC HRK WIN XST Lyos 2013|121|Horeca|0
0|CS3600180|2013-08-29 01:14:59|Hazaparu|Anca||F|1990-10-10|Bucuresti|SECTOR 6|Gheorghe saidac|7|||||0724789886||Dr.hazaparu_anca@gmail.com|VIRSM|DAVSVSS|1 Winston Fresh XSpression (5mg) Pack|Yes|Yes||BW003588|PACO CLUB SRL|Bucuresti|BWHRKBA112|163|CCC HRK WIN XST Lyos 2013|121|Horeca|0
0|CS3600181|2013-08-29 01:17:16|Popescu|Adrian|1890902030015|M|1989-09-02|Arges|CAMPULUNG|Pictor grigorescu|2|B|0|3|20|0751450379||Perfectpussymas ter@yahoo.com|MBRFPEX||1 Winston XStyle Silver (4mg) Pack|Yes|Yes||BW003588|PACO CLUB SRL|Bucuresti|BWHRKBA113|163|CCC HRK WIN XST Lyos 2013|121|Horeca|0
0|CS3600182|2013-08-29 01:17:49|Zambresteanu|Nicoleta||F|1992-05-21|Bucuresti|SECTOR 5|Zamfir olaru|12|||0|0|0721650063||Nicoleta.zambresteanu@yahoo.com|KTSWIT||1 Winston Fresh XSpression (5mg) Pack|Yes|Yes||BW003588|PACO CLUB SRL|Bucuresti|BWHRKBA58|163|CCC HRK WIN XST Lyos 2013|121|Horeca|0
0|CS3600183|2013-08-29 01:19:44|Troana|Dragos||M|1994-08-23|Bucuresti|SECTOR 6|Brasov|14|2s|1|P|5|0762556376||Troana.dragos@yahoo.com|KTBL||1 Winston XStyle Blue (6mg) Pack|Yes|No||BW003588|PACO CLUB SRL|Bucuresti|BWHRKBA116|163|CCC HRK WIN XST Lyos 2013|121|Horeca|0
0|CS3600184|2013-08-29 01:20:39|Zgorcea|Ovidiu||M|1984-12-06|Bucuresti|SECTOR 1|Magheru|1|A12|C|2|22|0744333555||Z_ovidiu@gmail.com|MBRGLFT|KTSV|1 Winston XStyle Silver (4mg) Pack|Yes|Yes||BW003588|PACO CLUB SRL|Bucuresti|BWHRKBA112|163|CCC HRK WIN XST Lyos 2013|121|Horeca|0
0|CS3600185|2013-08-29 01:23:48|Bonciulescu|Sorin Alexandru||M|1990-02-02|Bucuresti|SECTOR 5|Intrarea piticului|12|||||0765598673||Soo_sooo10@yahoo.com|KTSWIT||1 Winston Fresh XSpression (5mg) Pack|Yes|Yes||BW003588|PACO CLUB SRL|Bucuresti|BWHRKBA58|163|CCC HRK WIN XST Lyos 2013|121|Horeca|0
0|CS3600186|2013-08-29 01:24:39|Dara|Florin|1841107521690|M|1984-11-07|Giurgiu|JOITA|Biserici|38|||||0727854047||Djflymc@yahoo.com|KTBL||1 Bricheta XST|Yes|Yes||BW003588|PACO CLUB SRL|Bucuresti|BWHRKBA114|163|CCC HRK WIN XST Lyos 2013|121|Horeca|0
0|CS3600187|2013-08-29 01:26:05|Nicolae|Bogdan|1820613420091|M|1982-06-13|Bucuresti|SECTOR 2|Heliade intre vii|28|20|1|0|2|0721613982||B007adm@yahoo.com|KTH||1 Winston XStyle Blue (6mg) Pack|Yes|Yes||BW003588|PACO CLUB SRL|Bucuresti|BWHRKBA113|163|CCC HRK WIN XST Lyos 2013|121|Horeca|0
0|CS3600188|2013-08-29 01:26:16|Tache|Marius||M|1993-04-05|Giurgiu|OGREZENI|Soseaua principala|23|||||0765822829||Tache.marius@yahoo.com|KTBLH||1 Winston XStyle Silver (4mg) Pack|Yes|Yes||BW003588|PACO CLUB SRL|Bucuresti|BWHRKBA116|163|CCC HRK WIN XST Lyos 2013|121|Horeca|0
0|CS3600189|2013-08-29 01:26:38|Udrescu|Alexandru||M|1987-02-03|Giurgiu|JOITA|Bisericii|56|||||0754667889||Alexnpt@yahoo.com|KTBL6||1 Winston XStyle Silver (4mg) Pack|Yes|Yes||BW003588|PACO CLUB SRL|Bucuresti|BWHRKBA114|163|CCC HRK WIN XST Lyos 2013|121|Horeca|0
0|CS3600190|2013-08-29 01:26:47|Stan|Ionut||M|1993-10-10|Bucuresti|SECTOR 1|Constantin stere|17|||||0769311977||Vip_pitic@yahoo.com|KTBL6|PMSV|1 Winston XStyle Blue (6mg) Pack|Yes|Yes||BW003588|PACO CLUB SRL|Bucuresti|BWHRKBA112|163|CCC HRK WIN XST Lyos 2013|121|Horeca|0
0|CS3600191|2013-08-29 01:27:15|Gabriela|Apostolescu||M|1985-09-18|Bucuresti|SECTOR 6|Aghirlandei|9a|44|1|P|4|0744202396||gabri3lla4u@yahoo.com|DUNFCBB||1 Winston Fresh XSpression (5mg) Pack|Yes|Yes||BW003588|PACO CLUB SRL|Bucuresti|BWHRKBA33|163|CCC HRK WIN XST Lyos 2013|121|Horeca|0
0|CS3600192|2013-08-29 01:28:19|Bratu|Andreea||F|1991-11-21|Bucuresti|SECTOR 4|Baia mare|5|12b|1|1|5|0763850917||Andreea_bratu91@yahoo.com|DUNFCMBB||1 Winston Fresh XSpression (5mg) Pack|Yes|Yes||BW003588|PACO CLUB SRL|Bucuresti|BWHRKBA58|163|CCC HRK WIN XST Lyos 2013|121|Horeca|0
0|CS3600193|2013-08-29 01:28:54|Ilie|Daniela|2880515035324|F|1988-05-15|Arges|PITESTI|Petrochimistilor|10|B22|E|3|16|0740023337||Dana.ilie88@yahoo.com|PMBL||1 Winston Fresh XSpression (5mg) Pack|Yes|Yes||BW003588|PACO CLUB SRL|Bucuresti|BWHRKBA33|163|CCC HRK WIN XST Lyos 2013|121|Horeca|0
0|CS3600194|2013-08-29 01:31:36|Ioanitescu|Serena mihaela|2931102046196|F|1993-11-02|Buzau|RAMNICU SARAT|Victoriei|0|24|B|2|5|0767944480||Serenamyhaela@yahoo.com|WISSB||1 Winston Fresh XSpression (5mg) Pack|Yes|Yes||BW003588|PACO CLUB SRL|Bucuresti|BWHRKBA58|163|CCC HRK WIN XST Lyos 2013|121|Horeca|0
0|CS3600195|2013-08-29 01:32:08|Coprinsu|Maria||F|1995-08-12|Bucuresti|SECTOR 5|Aleea costinesti|2|9|B|1|20|0729233415||Twice.lovee@yahoo.com|KTBL6||1 Bricheta XST|Yes|Yes||BW003588|PACO CLUB SRL|Bucuresti|BWHRKBA113|163|CCC HRK WIN XST Lyos 2013|121|Horeca|0
0|CS3600196|2013-08-29 01:33:44|Gheorghiu|Andreea||F|1991-11-30|Vrancea|ADJUD|Independentei|7|||0|0|0748936324||Gheorghiu_andreea@yahoo.com|DUNFCMBB||1 Winston Fresh XSpression (5mg) Pack|Yes|Yes||BW003588|PACO CLUB SRL|Bucuresti|BWHRKBA58|163|CCC HRK WIN XST Lyos 2013|121|Horeca|0
0|CS3600197|2013-08-29 01:35:18|Barbu|Cristi||M|1975-05-03|Bucuresti|SECTOR 2|Maria Rosetti|23|||0|0|0727412309||Bravo0333@yahoo.com|KTBL6||1 Winston XStyle Blue (6mg) Pack|Yes|Yes||BW003588|PACO CLUB SRL|Bucuresti|BWHRKBA114|163|CCC HRK WIN XST Lyos 2013|121|Horeca|0
0|CS3600198|2013-08-29 01:36:25|-avadanii|Anca||F|1989-12-06|Covasna|SFANTU GHEORGHE|Grigore balan|50|37|B|4|19|0736673001||Nicoletaanca@rocketmail.com|KTSWIT|MBRGL|1 Winston Fresh XSpression (5mg) Pack|Yes|Yes||BW003588|PACO CLUB SRL|Bucuresti|BWHRKBA112|163|CCC HRK WIN XST Lyos 2013|121|Horeca|0
0|CS3600199|2013-08-29 01:41:06|Gherman|Mihaela|2810920410037|F|1981-09-20|Ilfov|SNAGOV|Principala|0|D2|2|2|13|0762916454|||KTSWITH||1 Winston XStyle Blue (6mg) Pack|Yes|Yes||BW003588|PACO CLUB SRL|Bucuresti|BWHRKBA113|163|CCC HRK WIN XST Lyos 2013|121|Horeca|0
0|CS3600200|2013-08-29 01:42:51|Popescu|Alex||M|1981-02-28|Bucuresti|SECTOR 1|Franclin|7||||3|0765747834||Alex.popescunet@yahoo.com|MBRBI||1 Winston Fresh XSpression (5mg) Pack|Yes|Yes||BW003588|PACO CLUB SRL|Bucuresti|BWHRKBA116|163|CCC HRK WIN XST Lyos 2013|121|Horeca|0
0|CS3600201|2013-08-29 01:44:05|Mitrut|Ana||F|1986-12-24|Bucuresti|SECTOR 5|Salaj|56|||||0767889547||Bbyx@gmail.com|DUNFCBB|MBRGLFT|1 Winston XStyle Silver (4mg) Pack|Yes|Yes||BW003588|PACO CLUB SRL|Bucuresti|BWHRKBA112|163|CCC HRK WIN XST Lyos 2013|121|Horeca|0
0|CS3600202|2013-08-29 01:45:58|Baciu|Alexandru||M|1987-09-18|Bucuresti|SECTOR 4|Bd libertatii|10|114|A|3|8|0728117893||Alexbacuu@yahoo.com|MBRGLT||1 Winston Fresh XSpression (5mg) Pack|Yes|Yes||BW003588|PACO CLUB SRL|Bucuresti|BWHRKBA114|163|CCC HRK WIN XST Lyos 2013|121|Horeca|0
0|CS3600203|2013-08-29 01:48:05|Alexandrescu|Mihai||M|1981-10-07|Bucuresti|SECTOR 5|Toporasi|1-7|15|2|4|49|0728244192||Mihai.mihai@yahoo.com|PARABH|KTBL6|1 Winston XStyle Blue (6mg) Pack|Yes|Yes||BW003588|PACO CLUB SRL|Bucuresti|BWHRKBA112|163|CCC HRK WIN XST Lyos 2013|121|Horeca|0
0|CS3600204|2013-08-29 02:03:13|Lovin|Ionut||M|1985-06-16|Bucuresti|SECTOR 5|Vladeasa|9|C74|B|2|63|0726371741||Johnny_myy2000@yahoo.com|KTSV|PARSB|1 Winston XStyle Silver (4mg) Pack|Yes|Yes||BW003588|PACO CLUB SRL|Bucuresti|BWHRKBA112|163|CCC HRK WIN XST Lyos 2013|121|Horeca|0
0|CS3610596|2013-09-01 00:59:15|Pricope|Andreea||F|1988-08-28|Braila|Braila|Castanului|65|||||0742602030||oxanna_ra25@@yahoo.com|WIBL||1 Winston XStyle Silver (4mg) Pack|Yes|Yes||BW003588|PACO CLUB SRL|Bucuresti|BWHRKBA33|163|CCC HRK WIN XST Lyos 2013|121|Horeca|0
0|CS3610599|2013-09-01 00:59:26|Greg|Whitfield||M|1988-05-10|Bucuresti|SECTOR 2|Jean lui calderon|61|Q|1|1|9|0728070023||Whitfield.greg@gmail.com|WIBL||1 Winston XStyle Blue (6mg) Pack|Yes|Yes||BW003588|PACO CLUB SRL|Bucuresti|BWHRKBA114|163|CCC HRK WIN XST Lyos 2013|121|Horeca|0
0|CS3610604|2013-09-01 01:01:48|Surdica|Ionel||M|1973-01-13|Bucuresti|SECTOR 2|Colentina|40|71|2|9|84|0722349359||Jo_design@yahoo.com|MBRGLFT||1 Winston XStyle Silver (4mg) Pack|Yes|No||BW003588|PACO CLUB SRL|Bucuresti|BWHRKBA116|163|CCC HRK WIN XST Lyos 2013|121|Horeca|0
0|CS3610612|2013-09-01 01:04:52|Riciu|Ionut||M|1992-07-25|Bucuresti|SECTOR 3|Stirbei voda|125|||||0760591662||Ionut.riciu92@gmail.com|KTBL||1 Winston Fresh XSpression (5mg) Pack|Yes|Yes||BW003588|PACO CLUB SRL|Bucuresti|BWHRKBA120|163|CCC HRK WIN XST Lyos 2013|121|Horeca|0
0|CS3610615|2013-09-01 01:06:51|Craciun|Bogdan||M|1990-12-15|Giurgiu|BOLINTIN VALE|Intrarea Republicii|5|||||0728791626||Bogdan.andrei587@facebook.com|KTBL||1 Winston XStyle Blue (6mg) Pack|Yes|Yes||BW003588|PACO CLUB SRL|Bucuresti|BWHRKBA95|163|CCC HRK WIN XST Lyos 2013|121|Horeca|0
0|CS3610616|2013-09-01 01:07:51|Munteanu|Cristina||F|1988-07-13|Bucuresti|SECTOR 1|Grivitei|139|1|1|6|23|0762084090||Cristina_munteanu88@yahoo.com|KTH||1 Winston XStyle Blue (6mg) Pack|Yes|Yes||BW003588|PACO CLUB SRL|Bucuresti|BWHRKBA116|163|CCC HRK WIN XST Lyos 2013|121|Horeca|0
0|CS3610619|2013-09-01 01:08:41|Alexe|Victor|1850503430043|M|1985-05-03|Bucuresti|SECTOR 3|Nicolae grigorescu|65|D11|1|6|32|0724565333||Contact@powerchip.ro|DUNFCMBB||1 Bricheta XST|Yes|Yes||BW003588|PACO CLUB SRL|Bucuresti|BWHRKBA113|163|CCC HRK WIN XST Lyos 2013|121|Horeca|0
0|CS3610627|2013-09-01 01:10:12|Valcu|Andra||F|1968-01-21|Bucuresti|SECTOR 4|Alunisului|4|||||0723582305|||VOGDV||1 Winston XStyle Blue (6mg) Pack|Yes|Yes||BW003588|PACO CLUB SRL|Bucuresti|BWHRKBA33|163|CCC HRK WIN XST Lyos 2013|121|Horeca|0
0|CS3610630|2013-09-01 01:10:54|Sava|Alexandra||F|1989-12-31|Bucuresti|SECTOR 3|Foisorului|23|F9c||5|161|0761017648||Sava.alexandraa@yahoo.com|KTSV||1 Winston XStyle Blue (6mg) Pack|Yes|Yes||BW003588|PACO CLUB SRL|Bucuresti|BWHRKBA95|163|CCC HRK WIN XST Lyos 2013|121|Horeca|0
0|CS3610635|2013-09-01 01:11:27|Radut|Sebastian||M|1979-12-18|Dolj|Craiova|Alexandru averescu|6|L1|2|4|19|0740909080||Seby.radut@yahoo.com|KTSWIT||1 Winston Fresh XSpression (5mg) Pack|Yes|Yes||BW003588|PACO CLUB SRL|Bucuresti|BWHRKBA120|163|CCC HRK WIN XST Lyos 2013|121|Horeca|0
0|CS3610636|2013-09-01 01:11:33|Badileanu|Alexandru|1781231434517|M|1978-12-13|Bucuresti|SECTOR 3|Nicolae grigorescu|18|B3|4|10|192|0734565492|||KTSV||1 Bricheta XST|Yes|Yes||BW003588|PACO CLUB SRL|Bucuresti|BWHRKBA113|163|CCC HRK WIN XST Lyos 2013|121|Horeca|0
0|CS3610638|2013-09-01 01:12:20|Cantea|Calin|1880629460032|M|1988-06-29|Bucuresti|SECTOR 5|Cal 13septembrie|216|V46|1|7|32|0767102729||Dolce_calin@yahoo.com|KTWH||1 Winston XStyle Silver (4mg) Pack|Yes|Yes||BW003588|PACO CLUB SRL|Bucuresti|BWHRKBA114|163|CCC HRK WIN XST Lyos 2013|121|Horeca|0
0|CS3610642|2013-09-01 01:13:00|Ilie|Daniela|2880515035324|F|1988-05-15|Arges|PITESTI|Petrochimistilor|10|B22|E|3|16|0740023337||Dana.ilie88@yahoo.com|PMBL||1 Winston XStyle Blue (6mg) Pack|Yes|Yes||BW003588|PACO CLUB SRL|Bucuresti|BWHRKBA95|163|CCC HRK WIN XST Lyos 2013|121|Horeca|0
0|CS3610652|2013-09-01 01:15:26|Anastasiu|Roxana||F|1986-06-18|Bucuresti|SECTOR 3|Tina Petre|4|||||0760957095||Ocsana_86@yahoo.com|DUNFCBB||1 Winston XStyle Blue (6mg) Pack|Yes|Yes||BW003588|PACO CLUB SRL|Bucuresti|BWHRKBA95|163|CCC HRK WIN XST Lyos 2013|121|Horeca|0
0|CS3610659|2013-09-01 01:16:58|Capac|Marian||M|1974-10-24|Dolj|Craiova|Bl dacia|14|138b|2|3|15|0764447614||Marian_fratia@yahoo.com|KTBL||1 Winston XStyle Blue (6mg) Pack|Yes|Yes||BW003588|PACO CLUB SRL|Bucuresti|BWHRKBA120|163|CCC HRK WIN XST Lyos 2013|121|Horeca|0
0|CS3610677|2013-09-01 01:21:28|Curteanu|Alina||F|1990-04-10|Bucuresti|SECTOR 4|Ionescu florea|3|1|1|3|10|0726801533||Curteanu_alina@yahoo.con|KTSV||1 Winston XStyle Silver (4mg) Pack|Yes|Yes||BW003588|PACO CLUB SRL|Bucuresti|BWHRKBA116|163|CCC HRK WIN XST Lyos 2013|121|Horeca|0
0|CS3610680|2013-09-01 01:22:53|Ciumau|Loredana||F|1987-04-15|Bucuresti|SECTOR 3|Matei basarab|104|72|3|4|84|0752530966||loredana.ciumau@gmail.com|VOGJSN||1 Winston Fresh XSpression (5mg) Pack|Yes|Yes||BW003588|PACO CLUB SRL|Bucuresti|BWHRKBA33|163|CCC HRK WIN XST Lyos 2013|121|Horeca|0
0|CS3610681|2013-09-01 01:22:55|Amar|Abu raiya||M|1992-03-02|Bucuresti|SECTOR 3|Dristorului|96|12b|B|4|63|0736533783||Amaraburaiya@hotmail.com|KTBL||1 Winston XStyle Blue (6mg) Pack|Yes|Yes||BW003588|PACO CLUB SRL|Bucuresti|BWHRKBA114|163|CCC HRK WIN XST Lyos 2013|121|Horeca|0
0|CS3610682|2013-09-01 01:23:02|Gheorghiu|Andreea||F|1991-11-30|Vrancea|ADJUD|Independentei|7|||0|0|0748936324||Gheorghiu_andreea@yahoo.com|DUNFCMBB||1 Winston Fresh XSpression (5mg) Pack|Yes|Yes||BW003588|PACO CLUB SRL|Bucuresti|BWHRKBA95|163|CCC HRK WIN XST Lyos 2013|121|Horeca|0
0|CS3610683|2013-09-01 01:23:13|Mocanu|Iulian|1831031294720|M|1983-10-01|Bucuresti|SECTOR 1|Drm. Vf. Berivoiul mare|72a|0|0|0|0|0745988369||Iulian_mcn@yahoo.co.uk|DUNFCMBB||1 Winston XStyle Blue (6mg) Pack|Yes|Yes||BW003588|PACO CLUB SRL|Bucuresti|BWHRKBA113|163|CCC HRK WIN XST Lyos 2013|121|Horeca|0
0|CS3610688|2013-09-01 01:24:34|Ioanitescu|Serena mihaela|2931102046196|F|1993-11-02|Buzau|RAMNICU SARAT|Victoriei|0|24|B|2|5|0767944480||Serenamyhaela@yahoo.com|PMSSBL||1 Winston Fresh XSpression (5mg) Pack|Yes|Yes||BW003588|PACO CLUB SRL|Bucuresti|BWHRKBA95|163|CCC HRK WIN XST Lyos 2013|121|Horeca|0
0|CS3610690|2013-09-01 01:24:41|Cristache|Stefan Radu Bogdan||M|1987-04-29|Bucuresti|SECTOR 3|Matei basarab|90|L118|2|4|25|0744396378||B_bebytzu@yahoo.com|KTSV||1 Winston XStyle Silver (4mg) Pack|Yes|Yes||BW003588|PACO CLUB SRL|Bucuresti|BWHRKBA120|163|CCC HRK WIN XST Lyos 2013|121|Horeca|0
0|CS3610696|2013-09-01 01:25:36|Floroiu|Ionela||F|1990-01-04|Bucuresti|SECTOR 6|Splaiul independentei|290|P4||3|328|0743450162||ionela_floroiu@yahoo.com|KTBL||1 Winston XStyle Blue (6mg) Pack|Yes|Yes||BW003588|PACO CLUB SRL|Bucuresti|BWHRKBA33|163|CCC HRK WIN XST Lyos 2013|121|Horeca|0
0|CS3610713|2013-09-01 01:29:02|Bratu|Andreea||F|1991-11-21|Bucuresti|SECTOR 4|Baia mare|5|12b|1|1|5|0763850917||Andreea_bratu91@yahoo.com|DUNFCMBB||1 Winston Fresh XSpression (5mg) Pack|Yes|Yes||BW003588|PACO CLUB SRL|Bucuresti|BWHRKBA95|163|CCC HRK WIN XST Lyos 2013|121|Horeca|0
0|CS3610721|2013-09-01 01:30:17|Brancoveanu|Alexandru||M|1982-04-09|Dambovita|NICULESTI|Principala|300|||||0748303274||Alexandru.brancoveanu@gmail.com|WIXSTFX||1 Winston XStyle Silver (4mg) Pack|Yes|No||BW003588|PACO CLUB SRL|Bucuresti|BWHRKBA116|163|CCC HRK WIN XST Lyos 2013|121|Horeca|0
0|CS3610723|2013-09-01 01:30:30|Amza|Andrei|1940714440060|M|1994-07-14|Bucuresti|SECTOR 3|Mircea voda|41|M31|3|5|89|0734370169||Amzandr@gmail.com|DUNBL||1 Winston XStyle Blue (6mg) Pack|Yes|Yes||BW003588|PACO CLUB SRL|Bucuresti|BWHRKBA114|163|CCC HRK WIN XST Lyos 2013|121|Horeca|0
0|CS3610727|2013-09-01 01:31:32|Dan|Catana||M|1975-11-14|Bucuresti|SECTOR 2|Chisinau|8|||||0761606444|||DUNFCMBB||1 Winston XStyle Blue (6mg) Pack|Yes|Yes||BW003588|PACO CLUB SRL|Bucuresti|BWHRKBA33|163|CCC HRK WIN XST Lyos 2013|121|Horeca|0
0|CS3610742|2013-09-01 01:34:44|Barloiu|Alexandra||F|1987-09-08|Ilfov|BUFTEA|Eroilor|36|||||0762995060||Alx.mb97@yahoo.com|WIXSTFX||1 Winston Fresh XSpression (5mg) Pack|Yes|No||BW003588|PACO CLUB SRL|Bucuresti|BWHRKBA116|163|CCC HRK WIN XST Lyos 2013|121|Horeca|0
0|CS3610744|2013-09-01 01:35:15|Marin|Liliana||F|1984-05-07|Bucuresti|SECTOR 3|Racari6|6|38|1|7|90|0721172548||Izalalal@yaho.com|KTNBK||1 Winston XStyle Silver (4mg) Pack|Yes|Yes||BW003588|PACO CLUB SRL|Bucuresti|BWHRKBA114|163|CCC HRK WIN XST Lyos 2013|121|Horeca|0
0|CS3610745|2013-09-01 01:35:16|Haidar|Hammoud||M|1984-08-10|Bucuresti|SECTOR 2|Mosilor|240|||||0760507658||Haidar_hammoud@yahoo.com|KTSV||1 Winston Fresh XSpression (5mg) Pack|Yes|Yes||BW003588|PACO CLUB SRL|Bucuresti|BWHRKBA95|163|CCC HRK WIN XST Lyos 2013|121|Horeca|0
0|CS3610748|2013-09-01 01:36:11|Popovici|Ana maria||F|1992-10-09|Harghita|MIERCUREA CIUC|Kossuth lajos|22|22|A|7|18|0740267924||Anamary_popovici@yahoo.com|VIRSPR||1 Winston XStyle Silver (4mg) Pack|Yes|Yes||BW003588|PACO CLUB SRL|Bucuresti|BWHRKBA113|163|CCC HRK WIN XST Lyos 2013|121|Horeca|0
0|CS3610750|2013-09-01 01:36:26|Galeteanu|Madalina||M|1985-12-06|Bucuresti|SECTOR 6|Aleea poiana muntelui|2|Od3|A6|2|212|0784122465||Madalina.galeteanu@gmail.com|VIRSM||1 Winston Fresh XSpression (5mg) Pack|Yes|Yes||BW003588|PACO CLUB SRL|Bucuresti|BWHRKBA120|163|CCC HRK WIN XST Lyos 2013|121|Horeca|0
0|CS3610763|2013-09-01 01:41:40|Cioroaba|Victor||M|1993-03-20|Ilfov|PERIS|Alecu russo|23|||||0764737293||Cioroaba.victoras@yahoo.com|KTBL6||1 Winston XStyle Blue (6mg) Pack|Yes|Yes||BW003588|PACO CLUB SRL|Bucuresti|BWHRKBA114|163|CCC HRK WIN XST Lyos 2013|121|Horeca|0
0|CS3610767|2013-09-01 01:42:38|Abdul|Alsaid||M|1964-05-20|Bucuresti|SECTOR 2|Colentina|56|||||0731116632|||MBRGLFT||1 Winston XStyle Silver (4mg) Pack|Yes|Yes||BW003588|PACO CLUB SRL|Bucuresti|BWHRKBA33|163|CCC HRK WIN XST Lyos 2013|121|Horeca|0
0|CS3610777|2013-09-01 01:45:40|Stanciu|Alin|1910321514034|M|1991-03-21|Calarasi|ILEANA|0|119|0|0|0|0|0764799887||Golandcolentina@yahoo.com|DAVCL||1 Winston XStyle Blue (6mg) Pack|Yes|Yes||BW003588|PACO CLUB SRL|Bucuresti|BWHRKBA113|163|CCC HRK WIN XST Lyos 2013|121|Horeca|0
0|CS3610780|2013-09-01 01:46:44|Iosif|Andreea||F|1991-07-04|Bucuresti|SECTOR 4|Iancu  cojescu|3|||||0767002901||Iosifandreea91@yahoo.com|KTBL||1 Winston XStyle Blue (6mg) Pack|Yes|Yes||BW003588|PACO CLUB SRL|Bucuresti|BWHRKBA95|163|CCC HRK WIN XST Lyos 2013|121|Horeca|0
0|CS3610786|2013-09-01 01:47:51|Cristian|Moraru||M|1977-05-09|Olt|CARACAL|Mihai eminescu|15|||||0758085349||Cristian.moraru@euralis.ro|PMBL||1 Winston XStyle Blue (6mg) Pack|Yes|Yes||BW003588|PACO CLUB SRL|Bucuresti|BWHRKBA33|163|CCC HRK WIN XST Lyos 2013|121|Horeca|0
0|CS3610791|2013-09-01 01:49:27|Nastase|Eduard||M|1979-12-04|Ilfov|VIDRA|Principala|416|||||0767409716||Nastase04eduard@yahoo.com|KTBL||1 Winston XStyle Blue (6mg) Pack|Yes|Yes||BW003588|PACO CLUB SRL|Bucuresti|BWHRKBA95|163|CCC HRK WIN XST Lyos 2013|121|Horeca|0
0|CS3610793|2013-09-01 01:50:40|Trifa|Adina||F|1994-03-05|Alba|TEIUS|Decebal|29|||||0727841211||Adina_cristina305@yahoo.com|WIXSTFX||1 Winston Fresh XSpression (5mg) Pack|Yes|Yes||BW003588|PACO CLUB SRL|Bucuresti|BWHRKBA116|163|CCC HRK WIN XST Lyos 2013|121|Horeca|0
0|CS3610796|2013-09-01 01:51:08|Anca|Ileana||M|1968-07-26|Bucuresti|SECTOR 6|Valea argesului|2b|523|2|8|78|0721262045||Ae_ileana@yahoo.com|LMVIBE||1 Winston XStyle Silver (4mg) Pack|Yes|Yes||BW003588|PACO CLUB SRL|Bucuresti|BWHRKBA120|163|CCC HRK WIN XST Lyos 2013|121|Horeca|0
0|CS3610806|2013-09-01 01:54:30|Dumitrescu|Mihai||M|1991-02-20|Bucuresti|SECTOR 4|Ion tanasescu|15|||0|0|0729444147||mihai20feb@yahoo.co.uk|KTSV||1 Winston XStyle Blue (6mg) Pack|Yes|Yes||BW003588|PACO CLUB SRL|Bucuresti|BWHRKBA95|163|CCC HRK WIN XST Lyos 2013|121|Horeca|0
0|CS3610807|2013-09-01 01:54:45|Nedelcu|Cristina||F|1992-06-11|Calarasi|CALARASI|Dumbravei|189|||||0732892248||cristina_nedelcu13@yahoo.com|KTSV||1 Bricheta XST|Yes|Yes||BW003588|PACO CLUB SRL|Bucuresti|BWHRKBA33|163|CCC HRK WIN XST Lyos 2013|121|Horeca|0
0|CS3610818|2013-09-01 02:00:47|Diaconu|Roxana||F|1990-03-23|Bucuresti|SECTOR 4|Serban Voda|232|1|2|5|49|0726242015||Diaconuroxana1@gmail.com|DAVGLSS||1 Winston XStyle Silver (4mg) Pack|Yes|Yes||BW003588|PACO CLUB SRL|Bucuresti|BWHRKBA95|163|CCC HRK WIN XST Lyos 2013|121|Horeca|0
0|CS3610820|2013-09-01 02:02:28|Cinjau|Ramona|2900104100182|F|1990-01-04|Buzau|C.A. ROSETTI|0|123|0|0|0|0|0724275804||Ramona.cinjau@gmail.com|WIXSTFX||1 Winston Fresh XSpression (5mg) Pack|Yes|Yes||BW003588|PACO CLUB SRL|Bucuresti|BWHRKBA113|163|CCC HRK WIN XST Lyos 2013|121|Horeca|0
0|CS3610826|2013-09-01 02:05:23|Anechiti|Gabriela||F|1989-11-05|Bucuresti|SECTOR 4|Drumul binelui|30|T||4|66|0733902390||Anechiti.gabriela@yahoo.com|DAVGL||1 Winston XStyle Blue (6mg) Pack|Yes|Yes||BW003588|PACO CLUB SRL|Bucuresti|BWHRKBA116|163|CCC HRK WIN XST Lyos 2013|121|Horeca|0
0|CS3610825|2013-09-01 02:05:32|Bratoi|Nicusor||M|1982-03-10|Bucuresti|SECTOR 4|Ctin radulescu|20|22|B|8|78|0721479669|||DUNFCBB||1 Winston XStyle Blue (6mg) Pack|Yes|Yes||BW003588|PACO CLUB SRL|Bucuresti|BWHRKBA114|163|CCC HRK WIN XST Lyos 2013|121|Horeca|0
0|CS3610839|2013-09-01 02:13:02|Andreciuc|Alina||F|1989-05-05|Bucuresti|SECTOR 6|Splaiul Independentei|290|||0|315|0763619441||alina_andreciuc@yahoo.com|DUNFCMBB||1 Winston XStyle Blue (6mg) Pack|Yes|Yes||BW003588|PACO CLUB SRL|Bucuresti|BWHRKBA113|163|CCC HRK WIN XST Lyos 2013|121|Horeca|0
0|CS3610851|2013-09-01 02:25:54|Grigore|Alexandru|1901127460073|M|1990-11-27|Bucuresti|SECTOR 6|Valea cascadelor|2|A3|2|6|49|0766407809||lxgrgr@yahoo.com|DAVGL||1 Winston XStyle Blue (6mg) Pack|Yes|Yes||BW003588|PACO CLUB SRL|Bucuresti|BWHRKBA114|163|CCC HRK WIN XST Lyos 2013|121|Horeca|0
0|FS1153378|2013-08-29 01:20:13||||M|||||||||||||DUNFCMBB||||||||||163|CCC HRK WIN XST Lyos 2013|121|Horeca|0
0|FS1153379|2013-08-29 01:20:26||||M|||||||||||||KTBL||||||||||163|CCC HRK WIN XST Lyos 2013|121|Horeca|0
0|FS1153380|2013-08-29 01:31:15||||M|||||||||||||KTBL||||||||||163|CCC HRK WIN XST Lyos 2013|121|Horeca|0
0|FS1153381|2013-08-29 01:33:27||||F|||||||||||||KTSV||||||||||163|CCC HRK WIN XST Lyos 2013|121|Horeca|0
0|FS1153382|2013-08-29 01:45:28||||M|||||||||||||MBRFP||||||||||163|CCC HRK WIN XST Lyos 2013|121|Horeca|0
0|FS1165643|2013-09-01 01:20:07||||F|||||||||||||DUNFCBB||||||||||163|CCC HRK WIN XST Lyos 2013|121|Horeca|0
0|FS1165758|2013-09-01 01:37:42||||F|||||||||||||KTBL||||||||||163|CCC HRK WIN XST Lyos 2013|121|Horeca|0
0|FS1165759|2013-09-01 01:38:07||||F|||||||||||||DUNFCBB||||||||||163|CCC HRK WIN XST Lyos 2013|121|Horeca|0
0|FS1165828|2013-09-01 01:58:09||||M|||||||||||||DUNFCBB||||||||||163|CCC HRK WIN XST Lyos 2013|121|Horeca|0
0|FS1165830|2013-09-01 01:58:24||||F|||||||||||||KTBL||||||||||163|CCC HRK WIN XST Lyos 2013|121|Horeca|0
0|FS1165832|2013-09-01 01:58:37||||F|||||||||||||MBRFP||||||||||163|CCC HRK WIN XST Lyos 2013|121|Horeca|0
0|FS1165837|2013-09-01 02:02:17||||F|||||||||||||KTBL6||||||||||163|CCC HRK WIN XST Lyos 2013|121|Horeca|0
0|FS1165841|2013-09-01 02:05:33||||F|||||||||||||WIBL||||||||||163|CCC HRK WIN XST Lyos 2013|121|Horeca|0
