0|CS3339952|2013-04-17 19:52:34|Weber|Marius||M|1968-10-17|Bucuresti|SECTOR 1|Ion campineanu|24|18b||4|13|0722662955||marius.weber@burga.ro|MBRGLA||2 Camel Black (6 mg) Pack + CD Delta Machine|Yes|Yes||BW004127|SMARDAN NO 9 SRL|Bucuresti|BWHRKBA31|120|CCC HRK CAMEL BW 2013|121|Horeca|0
0|CS3340039|2013-04-17 20:31:42|Orleanu|Bogdan||M|1985-01-21|Bucuresti|SECTOR 6|Serban bogdan stan|7|305|3|3|32|0720870780||orleanug@yahoo.com|KTBL||2 Camel Black (6 mg) Pack + Bricheta CA BW|Yes|Yes||BW008952|Twins Downtown SRL|Bucuresti|BWHRKBA31|120|CCC HRK CAMEL BW 2013|121|Horeca|0
0|CS3340057|2013-04-17 20:59:44|Marinescu|Daniela||F|1972-11-01|Bucuresti|SECTOR 1|Dristor|67|97|4||644|0721337773||danaplo@yahoo.com|PMSV|KTSV|2 Camel White (4 mg) Pack + CD Delta Machine|Yes|Yes||BW000101|ANCIENT PUB SRL|Bucuresti|BWHRKBA98|120|CCC HRK CAMEL BW 2013|121|Horeca|0
0|CS3340058|2013-04-17 21:00:47|Baluta|Andrei||M|1984-10-26|Braila|BRAILA|Undetei|435|||||0745364767||baluta.andi@yahoo.com|KTBLH||2 Camel Black (6 mg) Pack + CD Delta Machine|Yes|Yes||BW000101|ANCIENT PUB SRL|Bucuresti|BWHRKBA97|120|CCC HRK CAMEL BW 2013|121|Horeca|0
0|CS3340060|2013-04-17 21:01:19|Ion|Marian||M|1984-06-25|Bucuresti|SECTOR 3|Brailita|34|||||0746435754||marian.ion@yahoo.com|DUNFCMBB||2 Camel Black (6 mg) Pack + Bricheta CA BW|Yes|Yes||BW000101|ANCIENT PUB SRL|Bucuresti|BWHRKBA47|120|CCC HRK CAMEL BW 2013|121|Horeca|0
0|CS3340063|2013-04-17 21:02:00|Ursu|Mihaelq||F|1991-03-07|Bucuresti|SECTOR 6|Independentei|206|||4|410|0757475777||ursu.miha@yahoo.com|KTSV||2 Camel White (4 mg) Pack + CD Delta Machine|Yes|Yes||BW000101|ANCIENT PUB SRL|Bucuresti|BWHRKBA31|120|CCC HRK CAMEL BW 2013|121|Horeca|0
0|CS3340069|2013-04-17 21:05:06|Grosu|Mihai||M|1988-01-26|Botosani|Bitosani|Tunisei|435|1|A|3|11|0768473625||grosy.mihai@yahoo.com|MBRFP||2 Camel Black (6 mg) Pack + CD Delta Machine|Yes|Yes||BW000101|ANCIENT PUB SRL|Bucuresti|BWHRKBA31|120|CCC HRK CAMEL BW 2013|121|Horeca|0
0|CS3340081|2013-04-17 21:21:09|Radu|Alin||M|1987-03-18|Bucuresti|SECTOR 3|Baba novac|4|R1|E||56|0737301335|||DUNBL||2 Camel Black (6 mg) Pack + CD Delta Machine|Yes|Yes||BW000101|ANCIENT PUB SRL|Bucuresti|BWHRKBA47|120|CCC HRK CAMEL BW 2013|121|Horeca|0
0|CS3340082|2013-04-17 21:21:56|Patrut|Vicentiu||M|1988-07-30|Bucuresti|SECTOR 4|Turnu magurele|3|C2|2|2|52|0762279648||daniel_vicentiu2004@yahoo.com|CABK||3 Camel Black (6 mg) Pack + Bilet|Yes|Yes||BW000101|ANCIENT PUB SRL|Bucuresti|BWHRKBA98|120|CCC HRK CAMEL BW 2013|121|Horeca|0
0|CS3340084|2013-04-17 21:22:51|Toma|Dumitru Alexandru||M|1981-10-10|Bucuresti|SECTOR 6|Calea crangasi|6|17a|A|5|22|0726705307||toma.alexandru2007@yahoo.com|DAVGL||2 Camel White (4 mg) Pack + Insigna|No|Yes||BW000101|ANCIENT PUB SRL|Bucuresti|BWHRKBA31|120|CCC HRK CAMEL BW 2013|121|Horeca|0
0|CS3340088|2013-04-17 21:27:33|Radu|Daniel||M|1984-05-17|Bucuresti|SECTOR 3|Ghita Serban|8|8 C|1|9|248|0723667317||daniel@clikup.ro|PMBL||3 Camel Black (6 mg) Pack + Bilet|Yes|Yes||BW000101|ANCIENT PUB SRL|Bucuresti|BWHRKBA97|120|CCC HRK CAMEL BW 2013|121|Horeca|0
0|CS3340103|2013-04-17 21:36:46|Glavan|Alexandra||F|1990-05-04|Bucuresti|SECTOR 6|Virtutii|38|M12|3|2|84|0726336092||alexandragllavan@yahoo.com|DUNFCBB||2 Camel White (4 mg) Pack + CD Delta Machine|Yes|Yes||BW000101|ANCIENT PUB SRL|Bucuresti|BWHRKBA97|120|CCC HRK CAMEL BW 2013|121|Horeca|0
0|CS3340108|2013-04-17 21:37:53|Maciuca|Alin daniel||M|1975-02-11|Bucuresti|SECTOR 3|Baba novac|16|||||0726233817|||CAWH||3 Camel White (4 mg) Pack + CD Maxi Single|Yes|Yes||BW000101|ANCIENT PUB SRL|Bucuresti|BWHRKBA98|120|CCC HRK CAMEL BW 2013|121|Horeca|0
0|CS3340109|2013-04-17 21:37:54|Dascalu|Diana||F|1984-06-28|Bucuresti|SECTOR 3|Emil racovita|54|R12|A||34|0746424644||diana_dd@yahoo.com|DUNFCBB||2 Camel White (4 mg) Pack + CD Delta Machine|Yes|Yes||BW000101|ANCIENT PUB SRL|Bucuresti|BWHRKBA47|120|CCC HRK CAMEL BW 2013|121|Horeca|0
0|CS3340118|2013-04-17 21:44:15|Balus|Andrei||M|1988-09-25|Bacau|Bacau|Urlui|0|T1|A|2|12|0768264646||balus.adrei@gmail.com|CABK||3 Camel Black (6 mg) Pack + CD Maxi Single|Yes|Yes||BW000101|ANCIENT PUB SRL|Bucuresti|BWHRKBA31|120|CCC HRK CAMEL BW 2013|121|Horeca|0
0|CS3340123|2013-04-17 21:48:09|Musat|Lucian||M|1982-07-24|Bucuresti|SECTOR 6|Kogalniceanu|567|||||0757473667||musat.luci@yahoo.com|KTBL||2 Camel Black (6 mg) Pack + Bricheta CA BW|Yes|Yes||BW000101|ANCIENT PUB SRL|Bucuresti|BWHRKBA47|120|CCC HRK CAMEL BW 2013|121|Horeca|0
0|CS3340143|2013-04-17 22:01:33|Lucaciu|Luiza||F|1986-07-14|Bucuresti|SECTOR 4|Nitu Vasile|35|||||0721760315||luiza_14iulie@yahoo.com|CAWH||2 Camel White (4 mg) Pack + Bricheta CA BW|Yes|Yes||BW006784|LETAL ART DESING SRL|Bucuresti|BWHRKBA97|120|CCC HRK CAMEL BW 2013|121|Horeca|0
0|CS3340149|2013-04-17 22:03:00|Draghiciu|Alexandru||M|1983-07-25|Bucuresti|SECTOR 1|Ghiozdanului|56|||||0742355576||alexx_draghiciu@gmail.com|DUNBL||2 Camel Black (6 mg) Pack + Bricheta CA BW|Yes|Yes||BW006784|LETAL ART DESING SRL|Bucuresti|BWHRKBA47|120|CCC HRK CAMEL BW 2013|121|Horeca|0
0|CS3340153|2013-04-17 22:03:52|Bitica|Adrian||M|1986-09-21|Bucuresti|SECTOR 2|Spatarului|6|||||0734218428||adrianbikk@gmail.com|CAWH||2 Camel White (4 mg) Pack + CD Delta Machine|Yes|Yes||BW006784|LETAL ART DESING SRL|Bucuresti|BWHRKBA98|120|CCC HRK CAMEL BW 2013|121|Horeca|0
0|CS3340162|2013-04-17 22:23:23|Tanase|Carmina||F|1987-08-02|Bucuresti|SECTOR 6|Aleea compozitorilor|4|F17|2|P|23|0722265925||karmynasince1987@yahoo.com|CAWH||3 Camel White (4 mg) Pack + CD Maxi Single|Yes|Yes||BW007819|DON OVIDIU SRL|Bucuresti|BWHRKBA98|120|CCC HRK CAMEL BW 2013|121|Horeca|0
0|CS3340172|2013-04-17 22:26:56|Dragan|Miruna||F|1993-06-01|Bucuresti|SECTOR 2|Plevnei|135|||||0720785958||drimer_masin@yahoo.com|DUNFCBB||2 Camel White (4 mg) Pack + Bricheta CA BW|Yes|Yes||BW007819|DON OVIDIU SRL|Bucuresti|BWHRKBA97|120|CCC HRK CAMEL BW 2013|121|Horeca|0
0|CS3340178|2013-04-17 22:29:03|Rusan|Iulia||F|1988-03-21|Bucuresti|SECTOR 2|Elev stefanescu|9|449|1|2|28|0722422375||alexa.rusan@yahoo.com|CAWH||2 Camel White (4 mg) Pack + CD Delta Machine|Yes|Yes||BW007819|DON OVIDIU SRL|Bucuresti|BWHRKBA98|120|CCC HRK CAMEL BW 2013|121|Horeca|0
0|CS3340179|2013-04-17 22:29:04|Dan|Alina||F|1988-01-25|Bucuresti|SECTOR 4|Turnu magurele|112|D|C||445|0763675467||alinutzadan@yahoo.com|KTBL||2 Camel Black (6 mg) Pack + Bricheta CA BW|Yes|Yes||BW007819|DON OVIDIU SRL|Bucuresti|BWHRKBA47|120|CCC HRK CAMEL BW 2013|121|Horeca|0
0|CS3340180|2013-04-17 22:29:24|Lupu|Adrian||M|1991-04-12|Arges|PITESTI|Cinema|0|D1|A|2|5|0764635365||adrian.lupu@yahoo.com|DUNFCMBB||2 Camel Black (6 mg) Pack + Bricheta CA BW|Yes|Yes||BW007819|DON OVIDIU SRL|Bucuresti|BWHRKBA31|120|CCC HRK CAMEL BW 2013|121|Horeca|0
0|CS3340181|2013-04-17 22:31:49|Andrianu|Oana||F|1989-05-09|Bucuresti|SECTOR 6|Virtutii|38|||||0726336097||oanaandrianu@yahoo.com|DUNFCBB||2 Camel White (4 mg) Pack + CD Delta Machine|Yes|Yes||BW007819|DON OVIDIU SRL|Bucuresti|BWHRKBA97|120|CCC HRK CAMEL BW 2013|121|Horeca|0
0|CS3340182|2013-04-17 22:32:13|Grerosu|Mihaela dana||F|1988-12-04|Iasi|IASI|Rediu|2|481|B|2|5|0752493617||dana.grerosu@yahoo.com|CAWH||2 Camel White (4 mg) Pack + CD Delta Machine|Yes|Yes||BW007819|DON OVIDIU SRL|Bucuresti|BWHRKBA98|120|CCC HRK CAMEL BW 2013|121|Horeca|0
0|CS3340183|2013-04-17 22:33:04|Burcea|Mirabela||F|1977-10-24|Bucuresti|SECTOR 3|Victoriei|213a|||||0723264778||mirabel.burcea@yahoo.com|PHMQBL||2 Camel Black (6 mg) Pack + Bricheta CA BW|Yes|Yes||BW007819|DON OVIDIU SRL|Bucuresti|BWHRKBA31|120|CCC HRK CAMEL BW 2013|121|Horeca|0
0|CS3340191|2013-04-17 22:38:23|Baciu|Valentin||M|1986-08-10|Buzau|Rm sarat|Sava rosescu|74|||0|0|0761770780||baciu_valentin86@yahoo.com|KTBL||2 Camel Black (6 mg) Pack + CD Delta Machine|Yes|Yes||BW007819|DON OVIDIU SRL|Bucuresti|BWHRKBA47|120|CCC HRK CAMEL BW 2013|121|Horeca|0
0|CS3340192|2013-04-17 22:39:12|Galeata|Maria||F|1994-06-20|Bucuresti|SECTOR 4|Soseau oltenitei|56|11c|2|8|68|0735779947||mariamadaliba.g@gmail.com|KTSV||2 Camel White (4 mg) Pack + Bricheta CA BW|Yes|Yes||BW007819|DON OVIDIU SRL|Bucuresti|BWHRKBA31|120|CCC HRK CAMEL BW 2013|121|Horeca|0
0|CS3340196|2013-04-17 22:42:25|Ghiorma|Radu||M|1982-09-28|Bucuresti|SECTOR 6|Baia de aries|7|||||0726782186||radu.ghiorma@yahoo.com|CAWH||3 Camel White (4 mg) Pack + CD Maxi Single|Yes|Yes||BW007819|DON OVIDIU SRL|Bucuresti|BWHRKBA98|120|CCC HRK CAMEL BW 2013|121|Horeca|0
0|CS3340199|2013-04-17 22:44:51|Calancea|Aura||F|1988-04-26|Bucuresti|SECTOR 4|Soseaua Giurgiului|117|4|8|7|254|0730509085||carita_delangel@yahoo.com|CAWH||2 Camel White (4 mg) Pack + Bricheta CA BW|Yes|Yes||BW007819|DON OVIDIU SRL|Bucuresti|BWHRKBA97|120|CCC HRK CAMEL BW 2013|121|Horeca|0
0|CS3340242|2013-04-17 23:23:14|Holera|Tatiana||F|1984-10-28|Bucuresti|SECTOR 5|Calea rahovei|233|||||0753465466||tatyanna@gmail.com|DUNFCBB||2 Camel White (4 mg) Pack + Insigna|Yes|Yes||BW005041|NEXT FASHION DD SRL|Bucuresti|BWHRKBA47|120|CCC HRK CAMEL BW 2013|121|Horeca|0
0|CS3340244|2013-04-17 23:25:11|Varasteanu|Georgiana||F|1989-03-29|Bucuresti|SECTOR 6|Partizanilor|1|M11|2|2|94|0766336098||varasteanugeorgiana@yahoo.com|DUNFCBB||2 Camel White (4 mg) Pack + Bricheta CA BW|Yes|Yes||BW005041|NEXT FASHION DD SRL|Bucuresti|BWHRKBA97|120|CCC HRK CAMEL BW 2013|121|Horeca|0
0|CS3340246|2013-04-17 23:27:16|Milea|Florin||M|1987-06-04|Bucuresti|SECTOR 6|Dealul tugulea|25|F8|2|2|41|0723349228||florin.milea87@gmail.com|DUNFCBB||3 Camel White (4 mg) Pack + Bilet|Yes|Yes||BW005041|NEXT FASHION DD SRL|Bucuresti|BWHRKBA31|120|CCC HRK CAMEL BW 2013|121|Horeca|0
0|CS3340253|2013-04-17 23:38:42|Voicu|Alexandra||F|1986-11-03|Bucuresti|SECTOR 3|Esarfei|51|||||0784742423||avoicu08@gmail.com|WIBL||2 Camel Black (6 mg) Pack + CD Delta Machine|Yes|Yes||BW005041|NEXT FASHION DD SRL|Bucuresti|BWHRKBA47|120|CCC HRK CAMEL BW 2013|121|Horeca|0
0|CS3340266|2013-04-17 23:49:34|Vrebca|Alexandra||F|1988-08-30|Bucuresti|SECTOR 2|Teiul doamnei|10|25|A|10|55|0729188937||alex.vrebca@gmail.com|KTSV||2 Camel White (4 mg) Pack + CD Delta Machine|Yes|Yes||BW005903|Goblin Bar - Club SRL|Bucuresti|BWHRKBA31|120|CCC HRK CAMEL BW 2013|121|Horeca|0
0|CS3341667|2013-04-18 20:14:15|Pavel|Ioan||M|1989-01-25|Bucuresti|SECTOR 6|Bulevardul iuliu maniu|1-3|Leua||11|2|0761692414||cpavel89@yahoo.com|KTSV||2 Camel White (4 mg) Pack + CD Delta Machine|Yes|Yes||BW000101|ANCIENT PUB SRL|Bucuresti|BWHRKBA31|120|CCC HRK CAMEL BW 2013|121|Horeca|0
0|CS3341674|2013-04-18 20:16:27|Dorohoi|George||M|1978-08-04|Bucuresti|SECTOR 3|Dudesti pantelimon|29|||||0720132842||gdmail@gmail.com|CABK||2 Camel Black (6 mg) Pack + CD Delta Machine|Yes|Yes||BW000101|ANCIENT PUB SRL|Bucuresti|BWHRKBA98|120|CCC HRK CAMEL BW 2013|121|Horeca|0
0|CS3341689|2013-04-18 20:22:04|Parcalabu|Dragos||M|1985-06-03|Bucuresti|SECTOR 4|Sf. Ecaterina|6|||4|416|0722992900||dragosparcalabu@yahoo.com|CABK||3 Camel Black (6 mg) Pack + CD Maxi Single|Yes|Yes||BW000101|ANCIENT PUB SRL|Bucuresti|BWHRKBA31|120|CCC HRK CAMEL BW 2013|121|Horeca|0
0|CS3341698|2013-04-18 20:25:57|Bufnila|Ovidiu||M|1977-11-16|Bucuresti|SECTOR 3|Constantin brancusi|6|A13|A||17|0745768448||ovidiu.bufnila@yahoo.com|CABK||2 Camel Black (6 mg) Pack + Bricheta CA BW|Yes|Yes||BW000101|ANCIENT PUB SRL|Bucuresti|BWHRKBA98|120|CCC HRK CAMEL BW 2013|121|Horeca|0
0|CS3341728|2013-04-18 20:36:11|Petcu|Madalina||F|1986-05-27|Bucuresti|SECTOR 3|Gheorghe petrascu|14a|A9|1|10|45|0724160529||petcu_madalina@yahoo.com|MBRGLFT||2 Camel White (4 mg) Pack + Insigna|Yes|Yes||BW000101|ANCIENT PUB SRL|Bucuresti|BWHRKBA31|120|CCC HRK CAMEL BW 2013|121|Horeca|0
0|CS3341729|2013-04-18 20:37:05|Geafil|Anca||F|1985-01-10|Bucuresti|SECTOR 3|Cezar Bolian|12 A|||||0742092385||anca.geafil@gmail.com|DUNFCBB||3 Camel Black (6 mg) Pack + CD Maxi Single|Yes|Yes||BW000101|ANCIENT PUB SRL|Bucuresti|BWHRKBA97|120|CCC HRK CAMEL BW 2013|121|Horeca|0
0|CS3341742|2013-04-18 20:39:24|Pop|George||M|1977-11-16|Bucuresti|SECTOR 3|13 septembrie|47|||||0742262627||sayonara1977sayonara@gmail.com|DUNFCBB||2 Camel White (4 mg) Pack + Bricheta CA BW|Yes|Yes||BW000101|ANCIENT PUB SRL|Bucuresti|BWHRKBA98|120|CCC HRK CAMEL BW 2013|121|Horeca|0
0|CS3341763|2013-04-18 20:39:34|Cristea|Iulian||M|1984-07-29|Bucuresti|SECTOR 3|Zizin|33|||||0743785578||ouliancriss@yahoo.com|DAVGLS||2 Camel Black (6 mg) Pack + CD Delta Machine|Yes|Yes||BW000101|ANCIENT PUB SRL|Bucuresti|BWHRKBA47|120|CCC HRK CAMEL BW 2013|121|Horeca|0
0|CS3341796|2013-04-18 20:56:38|Raluca|Oana||F|1985-07-25|Bucuresti|SECTOR 2|Austrului|1|||||0724506345||oana.balosin@yahoo.com|DAVGLS||3 Camel White (4 mg) Pack + CD Maxi Single|Yes|Yes||BW007819|DON OVIDIU SRL|Bucuresti|BWHRKBA98|120|CCC HRK CAMEL BW 2013|121|Horeca|0
0|CS3341799|2013-04-18 20:58:47|Ilie|Gabriela||F|1984-09-30|Bucuresti|SECTOR 4|Obresti|44|||||0763535755||gabrielailie@gmail.com|MBRGL||3 Camel Black (6 mg) Pack + CD Maxi Single|Yes|Yes||BW007819|DON OVIDIU SRL|Bucuresti|BWHRKBA47|120|CCC HRK CAMEL BW 2013|121|Horeca|0
0|CS3341804|2013-04-18 21:00:19|Diaconu|Alex||M|1984-11-10|Buzau|BUZAU|Unirii|0|11e||4|18|0761654723||diaconu.alex@gmail.com|PARAB||2 Camel White (4 mg) Pack + Bricheta CA BW|Yes|Yes||BW007819|DON OVIDIU SRL|Bucuresti|BWHRKBA31|120|CCC HRK CAMEL BW 2013|121|Horeca|0
0|CS3341808|2013-04-18 21:01:24|Glavan|Nicoleta||F|1971-01-08|Bucuresti|SECTOR 6|Virtutii|38|M 16|3|2|84|0745337684||glavannicoleta@yahoo.com|DUNFCBB||2 Camel White (4 mg) Pack + Insigna|Yes|Yes||BW007819|DON OVIDIU SRL|Bucuresti|BWHRKBA97|120|CCC HRK CAMEL BW 2013|121|Horeca|0
0|CS3341816|2013-04-18 21:03:30|Nicolae|Ioana||F|1980-09-12|Bucuresti|SECTOR 4|Secuilor|13|19|1|7|32|0722631486||ioanan21@yahoo.com|MBRFP||2 Camel Black (6 mg) Pack + Insigna|Yes|Yes||BW007819|DON OVIDIU SRL|Bucuresti|BWHRKBA98|120|CCC HRK CAMEL BW 2013|121|Horeca|0
0|CS3341829|2013-04-18 21:05:10|Radu|Gelu||M|1962-05-07|Bucuresti|SECTOR 3|Moise nicoara|38|C4|||124|0735092719||radu_gelu@yahoo.com|KTBL||3 Camel Black (6 mg) Pack + CD Maxi Single|Yes|Yes||BW007819|DON OVIDIU SRL|Bucuresti|BWHRKBA47|120|CCC HRK CAMEL BW 2013|121|Horeca|0
0|CS3341823|2013-04-18 21:06:10|Burlacu|Andrei||M|1989-09-25|Arges|PITESTI|Dunarii|120|||||0768374757||burlacu.an@yahoo.com|KTBL||2 Camel Black (6 mg) Pack + CD Delta Machine|Yes|Yes||BW007819|DON OVIDIU SRL|Bucuresti|BWHRKBA31|120|CCC HRK CAMEL BW 2013|121|Horeca|0
0|CS3341876|2013-04-18 21:18:19|Stoian|Georgiana||F|1986-01-13|Bucuresti|SECTOR 4|Govora|1|80|3|1|42|0724635643||ciresica_01@yahoo.com|MBRGLFT||2 Camel Black (6 mg) Pack + Insigna|Yes|Yes||BW004788|ELEFANT CLUB SRL|Bucuresti|BWHRKBA98|120|CCC HRK CAMEL BW 2013|121|Horeca|0
0|CS3341880|2013-04-18 21:21:17|Cercel|Dolores||F|1991-05-07|Bucuresti|SECTOR 2|Inginerilor|3|C3||0|203|0721960595||mormoloc_cretz@yahoo.com|KTSV||2 Camel White (4 mg) Pack + Insigna|Yes|Yes||BW004788|ELEFANT CLUB SRL|Bucuresti|BWHRKBA47|120|CCC HRK CAMEL BW 2013|121|Horeca|0
0|CS3341882|2013-04-18 21:22:29|Cristea|Daniela||F|1990-06-21|Bucuresti|SECTOR 6|Cetatuia|7|||||0726445687||danacristea@yahoo.com|PMECBL||2 Camel White (4 mg) Pack + CD Delta Machine|Yes|Yes||BW004788|ELEFANT CLUB SRL|Bucuresti|BWHRKBA97|120|CCC HRK CAMEL BW 2013|121|Horeca|0
0|CS3341928|2013-04-18 21:42:41|Otvos|Iulia||F|1986-10-27|Bucuresti|SECTOR 3|Ionescu gion|17|||0|0|0767289633||otvosiulia@yahoo.com|KTSV||3 Camel White (4 mg) Pack + Bilet|Yes|Yes||BW005593|EUROTECH DEVELOPMENTS - INVESTMENTS SRL|Bucuresti|BWHRKBA47|120|CCC HRK CAMEL BW 2013|121|Horeca|0
0|CS3341995|2013-04-18 22:00:04|Basceanu|Cosmin||M|1988-05-21|Bucuresti|SECTOR 3|Intrarea badeni|14|G1|1||57|0767759247||cosmin.basceanu@yahoo.com|DAVGLS||2 Camel Black (6 mg) Pack + CD Delta Machine|Yes|Yes||BW005593|EUROTECH DEVELOPMENTS - INVESTMENTS SRL|Bucuresti|BWHRKBA98|120|CCC HRK CAMEL BW 2013|121|Horeca|0
0|CS3342010|2013-04-18 22:03:36|Otvos|Iulia||F|1986-10-27|Bucuresti|SECTOR 3|Ionescu gion|17|||0|0|0767289633||otvosiulia@yahoo.com|KTSV||3 Camel White (4 mg) Pack + Bilet|Yes|Yes||BW005593|EUROTECH DEVELOPMENTS - INVESTMENTS SRL|Bucuresti|BWHRKBA47|120|CCC HRK CAMEL BW 2013|121|Horeca|0
0|CS3342014|2013-04-18 22:04:44|Dima|Sillvia||F|1985-08-17|Bucuresti|SECTOR 2|Carlei|15|MR 7|B|8|194|0734525541||s.sparrow26@ahioo.com|MBRGLT||3 Camel Black (6 mg) Pack + Bilet|Yes|Yes||BW005593|EUROTECH DEVELOPMENTS - INVESTMENTS SRL|Bucuresti|BWHRKBA97|120|CCC HRK CAMEL BW 2013|121|Horeca|0
0|CS3342017|2013-04-18 22:05:26|Rosca|Cristina||M|1980-02-28|Bucuresti|SECTOR 3|Tudor constantin|14b|||||0745121323||cristina.rosca@realteam.ro|KTSV||3 Camel White (4 mg) Pack + Bilet|Yes|Yes||BW005593|EUROTECH DEVELOPMENTS - INVESTMENTS SRL|Bucuresti|BWHRKBA47|120|CCC HRK CAMEL BW 2013|121|Horeca|0
0|CS3342026|2013-04-18 22:08:42|Mija|Mihai||M|1975-12-02|Bucuresti|SECTOR 1|Bulrvard apicultirilor|38a||||7|0730990088||mihai.mija@mediavision.ro|PARAB||2 Camel Black (6 mg) Pack + CD Delta Machine|Yes|Yes||BW005593|EUROTECH DEVELOPMENTS - INVESTMENTS SRL|Bucuresti|BWHRKBA31|120|CCC HRK CAMEL BW 2013|121|Horeca|0
0|CS3342027|2013-04-18 22:08:44|Buligescu|Sorin||M|1984-10-14|Bucuresti|SECTOR 2|Popa petre|45|||||0751080816||sorin.buligescu@gmail.com|DUNFCBB||3 Camel Black (6 mg) Pack + Bilet|Yes|Yes||BW005593|EUROTECH DEVELOPMENTS - INVESTMENTS SRL|Bucuresti|BWHRKBA97|120|CCC HRK CAMEL BW 2013|121|Horeca|0
0|CS3342029|2013-04-18 22:08:57|Dobre|Alexandra||F|1991-12-03|Bucuresti|SECTOR 2|Existentei|46|||||0720262213||andra_dbre@yahoo.com|KTSV||2 Camel White (4 mg) Pack + CD Delta Machine|Yes|Yes||BW005593|EUROTECH DEVELOPMENTS - INVESTMENTS SRL|Bucuresti|BWHRKBA98|120|CCC HRK CAMEL BW 2013|121|Horeca|0
0|CS3342048|2013-04-18 22:13:08|Dumitrache|Carmen||F|1978-12-25|Bucuresti|SECTOR 2|Biserica marcuta|1|34|1|10|65|0784672598||swett_shadow@yahoo.com|DAVIDBL||2 Camel White (4 mg) Pack + CD Delta Machine|Yes|Yes||BW005593|EUROTECH DEVELOPMENTS - INVESTMENTS SRL|Bucuresti|BWHRKBA98|120|CCC HRK CAMEL BW 2013|121|Horeca|0
0|CS3342055|2013-04-18 22:15:05|Vasile|Gabriel||M|1985-06-23|Bucuresti|SECTOR 2|Viitorului|74|||||0723228335||gabriell.vasile@yahoo.com|MBRGLT||3 Camel Black (6 mg) Pack + CD Maxi Single|Yes|Yes||BW005593|EUROTECH DEVELOPMENTS - INVESTMENTS SRL|Bucuresti|BWHRKBA97|120|CCC HRK CAMEL BW 2013|121|Horeca|0
0|CS3342083|2013-04-18 22:24:57|Diaconu|Elena||F|1985-01-29|Bucuresti|SECTOR 5|Lalelelor|15|||||0763544655|||DUNBL||2 Camel Black (6 mg) Pack + Bricheta CA BW|Yes|Yes||BW031596|EXOTIQUE CAFE CONCEPT SRL|Bucuresti|BWHRKBA47|120|CCC HRK CAMEL BW 2013|121|Horeca|0
0|CS3342089|2013-04-18 22:26:23|Preda|Lucian||M|1987-09-17|Galati|Galati|Barbosi|31|B7|1|4|18|0757378194||lvci.preda@yahoo.com|MBRGLT||2 Camel White (4 mg) Pack + Bricheta CA BW|Yes|Yes||BW031596|EXOTIQUE CAFE CONCEPT SRL|Bucuresti|BWHRKBA97|120|CCC HRK CAMEL BW 2013|121|Horeca|0
0|CS3342115|2013-04-18 22:44:24|Matvei|Calin||M|1985-03-15|Bucuresti|SECTOR 3|Iasilior|33|||||0769179399||calin_matvei@yahoo.com|PARABH||2 Camel Black (6 mg) Pack + CD Delta Machine|Yes|Yes||BW005041|NEXT FASHION DD SRL|Bucuresti|BWHRKBA47|120|CCC HRK CAMEL BW 2013|121|Horeca|0
0|CS3342117|2013-04-18 22:44:57|Sandu|Laura||F|1983-07-13|Bucuresti|SECTOR 4|Giurgiului|164|5|A|3|25|0767827282||laura_voice_over@yahoo.com|KTBL6||3 Camel Black (6 mg) Pack + CD Maxi Single|Yes|Yes||BW005041|NEXT FASHION DD SRL|Bucuresti|BWHRKBA97|120|CCC HRK CAMEL BW 2013|121|Horeca|0
0|CS3342122|2013-04-18 22:48:59|Lupu|Daniel||M|1984-03-08|Bucuresti|SECTOR 5|Ivanescu Dumitru|3|||||0721999056||danieldeladell@yahoo.ro|DUNFCMBB||3 Camel Black (6 mg) Pack + Bilet|Yes|Yes||BW005041|NEXT FASHION DD SRL|Bucuresti|BWHRKBA97|120|CCC HRK CAMEL BW 2013|121|Horeca|0
0|CS3342161|2013-04-18 23:02:43|Simion|Vladut||M|1975-12-31|Bucuresti|SECTOR 3|Nerva traian|9|||||0751945296||vlad.simion@gmail.com|CAWH||3 Camel White (4 mg) Pack + CD Maxi Single|Yes|Yes||BW004127|SMARDAN NO 9 SRL|Bucuresti|BWHRKBA98|120|CCC HRK CAMEL BW 2013|121|Horeca|0
0|CS3342171|2013-04-18 23:04:22|Anait|Bedros||F|1982-11-10|Bucuresti|SECTOR 1|Smaranda Braescu|11|1 I|A|P|2|0755016340||anait.bedros@yahoo.com|CABK||2 Camel Black (6 mg) Pack + CD Delta Machine|Yes|Yes||BW004127|SMARDAN NO 9 SRL|Bucuresti|BWHRKBA97|120|CCC HRK CAMEL BW 2013|121|Horeca|0
0|CS3342168|2013-04-18 23:04:57|Savin|Mihai||M|1990-05-02|Bucuresti|SECTOR 3|Ramnicu valcea|21|22a|1|10|52|0769216084||mihai.savinn20@yahoo.com|KTBL||2 Camel Black (6 mg) Pack + Bricheta CA BW|Yes|Yes||BW004127|SMARDAN NO 9 SRL|Bucuresti|BWHRKBA47|120|CCC HRK CAMEL BW 2013|121|Horeca|0
0|CS3342192|2013-04-18 23:14:03|Dan|Cristian||M|1986-01-01|Bucuresti|SECTOR 4|Anton colorian|51|||||0761613438||dancristianvalentin@yahoo.com|CABK||2 Camel Black (6 mg) Pack + Bricheta CA BW|Yes|Yes||BW031573|RDA PUB GOLD SRL|Bucuresti|BWHRKBA31|120|CCC HRK CAMEL BW 2013|121|Horeca|0
0|CS3343666|2013-04-19 19:06:13|Croitoriu|Magda||F|1986-08-13|Botosani|BOTOSANI|Piata revolutiei|13|0|C|7|27|0743605193||mgdutza13@yahoo.com|KTSV||2 Camel White (4 mg) Pack + CD Delta Machine|Yes|Yes||BW005593|EUROTECH DEVELOPMENTS - INVESTMENTS SRL|Bucuresti|BWHRKBA47|120|CCC HRK CAMEL BW 2013|121|Horeca|0
0|CS3343678|2013-04-19 19:09:13|Cretu|Ionela||F|1984-06-21|Bucuresti|SECTOR 1|Ion mihalache|127|||||0749131690||ionelaiacob@gmail.com|KTSV||2 Camel White (4 mg) Pack + Bricheta CA BW|Yes|Yes||BW005593|EUROTECH DEVELOPMENTS - INVESTMENTS SRL|Bucuresti|BWHRKBA47|120|CCC HRK CAMEL BW 2013|121|Horeca|0
0|CS3343754|2013-04-19 19:24:08|Busca|Ioana||F|1989-07-26|Arges|PITESTI|Dambovitei|23|||||0769364656||busca.ion@yahoo.com|KTBL||2 Camel Black (6 mg) Pack + Bricheta CA BW|Yes|Yes||BW007819|DON OVIDIU SRL|Bucuresti|BWHRKBA31|120|CCC HRK CAMEL BW 2013|121|Horeca|0
0|CS3343757|2013-04-19 19:24:26|Ghita|Bogdan||M|1983-05-28|Bucuresti|SECTOR 5|Unirii|11|2b|1||19|0735906316||bogdan.ghita@antenagroup.ro|KTSV||2 Camel White (4 mg) Pack + CD Delta Machine|Yes|Yes||BW007819|DON OVIDIU SRL|Bucuresti|BWHRKBA98|120|CCC HRK CAMEL BW 2013|121|Horeca|0
0|CS3343790|2013-04-19 19:31:54|Dan|Miruna||F|1986-11-13|Bucuresti|SECTOR 3|Nicolae sebe|2|L12|3||20|0726295397||dan_miruna@yahoo.com|CAWH||2 Camel White (4 mg) Pack + Bricheta CA BW|Yes|Yes||BW007819|DON OVIDIU SRL|Bucuresti|BWHRKBA98|120|CCC HRK CAMEL BW 2013|121|Horeca|0
0|CS3343821|2013-04-19 19:38:28|Groza|Irene||F|1988-09-02|Bucuresti|SECTOR 6|Sibiu|21|D7||8|49|0758566812||groza.irene@yahoo.com|DUNFCMBB||2 Camel Black (6 mg) Pack + Insigna|Yes|Yes||BW007819|DON OVIDIU SRL|Bucuresti|BWHRKBA31|120|CCC HRK CAMEL BW 2013|121|Horeca|0
0|CS3343823|2013-04-19 19:39:06|Indries|Ionut||M|1988-06-11|Bucuresti|SECTOR 6|Pritvorului|23|18|A|4|14|0727345510||indries.ionut@yahoo.com|DUNFCBB||2 Camel Black (6 mg) Pack + Bricheta CA BW|Yes|Yes||BW007819|DON OVIDIU SRL|Bucuresti|BWHRKBA97|120|CCC HRK CAMEL BW 2013|121|Horeca|0
0|CS3343913|2013-04-19 19:55:23|Sarbu|Anca||F|1988-10-04|Bucuresti|SECTOR 3|Unirii|57|E|||129|0747798090||anca.sarbu12@yahoo.com|CAWH||2 Camel White (4 mg) Pack + CD Delta Machine|Yes|Yes||BW006784|LETAL ART DESING SRL|Bucuresti|BWHRKBA98|120|CCC HRK CAMEL BW 2013|121|Horeca|0
0|CS3343915|2013-04-19 19:55:39|Ciobanu|Dan||M|1982-02-25|Bucuresti|SECTOR 6|Rasaritului|1|||0|0|0768103515||dan.ciobanu@mail.com|LSBL||3 Camel Black (6 mg) Pack + Bilet|Yes|Yes||BW006784|LETAL ART DESING SRL|Bucuresti|BWHRKBA47|120|CCC HRK CAMEL BW 2013|121|Horeca|0
0|CS3343926|2013-04-19 19:57:26|Lucaciu|Luiza||F|1990-07-14|Bucuresti|SECTOR 4|Nitu vasile|35|0|0|0|0|0721760315||luiza_14iulie@yahoo.com|CAWH||2 Camel White (4 mg) Pack + Insigna|Yes|Yes||BW006784|LETAL ART DESING SRL|Bucuresti|BWHRKBA31|120|CCC HRK CAMEL BW 2013|121|Horeca|0
0|CS3343931|2013-04-19 19:58:45|Moranu|Alin||F|1985-04-09|Bucuresti|SECTOR 6|Delinesti|4|C5|3|3|36|0727034213||duradualind5@yahoo.com|DUNFCBB||2 Camel Black (6 mg) Pack + Insigna|Yes|Yes||BW006784|LETAL ART DESING SRL|Bucuresti|BWHRKBA97|120|CCC HRK CAMEL BW 2013|121|Horeca|0
0|CS3343943|2013-04-19 20:02:10|Mihailescu|Anca||F|1975-11-21|Bucuresti|SECTOR 6|Mihaela ruxandra marcu|5|C7|C|2|81|0722269331||ankamihailescu@yahoo.com|CAWH||3 Camel White (4 mg) Pack + CD Maxi Single|Yes|Yes||BW006784|LETAL ART DESING SRL|Bucuresti|BWHRKBA98|120|CCC HRK CAMEL BW 2013|121|Horeca|0
0|CS3343983|2013-04-19 20:19:29|Ioan|Madalin||M|1987-04-11|Bucuresti|SECTOR 6|Iuliu maniu|13b|||||0786627254||ioan.madalin25@yahoo.com|KTSV||2 Camel White (4 mg) Pack + CD Delta Machine|Yes|Yes||BW005041|NEXT FASHION DD SRL|Bucuresti|BWHRKBA47|120|CCC HRK CAMEL BW 2013|121|Horeca|0
0|CS3343986|2013-04-19 20:20:26|Guta|Ilie||M|1981-04-27|Bacau|BACAU|Orastiei|4|S1|A|0|2|0768364657||ilie.guta@yahoo.com|DUNFCMBB||2 Camel Black (6 mg) Pack + CD Delta Machine|Yes|Yes||BW005041|NEXT FASHION DD SRL|Bucuresti|BWHRKBA31|120|CCC HRK CAMEL BW 2013|121|Horeca|0
0|CS3343991|2013-04-19 20:22:31|Marinescu|Razvan||M|1991-04-04|Bucuresti|SECTOR 5|Nasaud|25|96|2|1|42|0765444002||enachescu_andrei@yahoo.com|MBRGLT||2 Camel White (4 mg) Pack + CD Delta Machine|Yes|Yes||BW005041|NEXT FASHION DD SRL|Bucuresti|BWHRKBA97|120|CCC HRK CAMEL BW 2013|121|Horeca|0
0|CS3344036|2013-04-19 20:36:04|Sadac|Dana||F|1986-03-28|Bucuresti|SECTOR 2|Alecu russo|24-26|24-26|1||11|0741368164||sadac_dana@yahoo.com|KTSV||3 Camel White (4 mg) Pack + Bilet|Yes|Yes||BW000101|ANCIENT PUB SRL|Bucuresti|BWHRKBA98|120|CCC HRK CAMEL BW 2013|121|Horeca|0
0|CS3344037|2013-04-19 20:36:35|Mihalache|Albert||M|1993-08-14|Bucuresti|SECTOR 3|Istriei|25|2|A|1|9|0727791194||albert607@yahoo.com|KTBL||2 Camel Black (6 mg) Pack + CD Delta Machine|Yes|Yes||BW000101|ANCIENT PUB SRL|Bucuresti|BWHRKBA47|120|CCC HRK CAMEL BW 2013|121|Horeca|0
0|CS3344049|2013-04-19 20:38:31|Girtan|Valentin||M|1984-02-27|Bucuresti|SECTOR 3|Danubiului|14|6c|2|4|37|0727792887||valy84kid@yahoo.com|KTBL||2 Camel Black (6 mg) Pack + CD Delta Machine|Yes|Yes||BW000101|ANCIENT PUB SRL|Bucuresti|BWHRKBA31|120|CCC HRK CAMEL BW 2013|121|Horeca|0
0|CS3344053|2013-04-19 20:39:48|Mitu|Sorin||M|1986-09-25|Calarasi|CALARASI|Trandafirilor|272|||||0764408080||sorinmitu@yahoo.com|DUNFCBB||2 Camel Black (6 mg) Pack + CD Delta Machine|Yes|Yes||BW000101|ANCIENT PUB SRL|Bucuresti|BWHRKBA97|120|CCC HRK CAMEL BW 2013|121|Horeca|0
0|CS3344057|2013-04-19 20:41:37|Antonescu|Robert||M|1983-10-01|Bucuresti|SECTOR 2|Amira Murgescu ion|3|401|2|2|54|0723694354||robert21extrem@yahoo.com|KTSV||2 Camel White (4 mg) Pack + CD Delta Machine|Yes|Yes||BW000101|ANCIENT PUB SRL|Bucuresti|BWHRKBA31|120|CCC HRK CAMEL BW 2013|121|Horeca|0
0|CS3344064|2013-04-19 20:44:23|Ungureanu|Alexandra||F|1989-10-22|Bucuresti|SECTOR 5|Elev popovici nicolae|6|P51|2||40|0766304320||alecsandra1022@yahoo.com|DAVGLS||3 Camel White (4 mg) Pack + CD Maxi Single|Yes|Yes||BW000101|ANCIENT PUB SRL|Bucuresti|BWHRKBA98|120|CCC HRK CAMEL BW 2013|121|Horeca|0
0|CS3344069|2013-04-19 20:46:15|Fuica|Vlad||M|1987-08-01|Bucuresti|SECTOR 3|Calea victoriei|25|||||0722556864||vladfuica@gmail.com|CABK||2 Camel Black (6 mg) Pack + CD Delta Machine|Yes|Yes||BW000101|ANCIENT PUB SRL|Bucuresti|BWHRKBA47|120|CCC HRK CAMEL BW 2013|121|Horeca|0
0|CS3344075|2013-04-19 20:47:32|Pancu|Alexandru||M|1990-02-09|Bucuresti|SECTOR 1|Ion brezoianu|53||B||13|0725250208||alexandru.pancu1990@yahoo.com|DUNFCMBB||3 Camel Black (6 mg) Pack + CD Maxi Single|Yes|Yes||BW000101|ANCIENT PUB SRL|Bucuresti|BWHRKBA98|120|CCC HRK CAMEL BW 2013|121|Horeca|0
0|CS3344077|2013-04-19 20:48:21|Dobrin|Mari||M|1985-06-22|Bucuresti|SECTOR 2|Aleea piatra mare|1|11|1|1|3|0765500360||marius_dobrin@isph.ro|CABK||2 Camel Black (6 mg) Pack + CD Delta Machine|Yes|Yes||BW000101|ANCIENT PUB SRL|Bucuresti|BWHRKBA31|120|CCC HRK CAMEL BW 2013|121|Horeca|0
0|CS3344095|2013-04-19 20:52:31|Dache|Alexandra||F|1985-06-11|Bucuresti|SECTOR 4|Moldovita|16|M2d9|1||60|0722277688||alexandradache@gmail.com|CAWH||3 Camel White (4 mg) Pack + CD Maxi Single|Yes|Yes||BW000101|ANCIENT PUB SRL|Bucuresti|BWHRKBA98|120|CCC HRK CAMEL BW 2013|121|Horeca|0
0|CS3344096|2013-04-19 20:52:45|Marcu|Adrian||M|1991-12-23|Vaslui|BARLAD|Dorna|6|||||0720335277||mastreamer@gmail.com|DUNFCMBB||2 Camel Black (6 mg) Pack + CD Delta Machine|Yes|Yes||BW000101|ANCIENT PUB SRL|Bucuresti|BWHRKBA31|120|CCC HRK CAMEL BW 2013|121|Horeca|0
0|CS3344104|2013-04-19 20:55:08|Nicolaescu|Marius||M|1983-02-01|Bucuresti|SECTOR 2|Otesani|63|||0|0|0745042066||mariussn1983@yaho..com|KTBL||2 Camel Black (6 mg) Pack + Bricheta CA BW|Yes|Yes||BW000101|ANCIENT PUB SRL|Bucuresti|BWHRKBA47|120|CCC HRK CAMEL BW 2013|121|Horeca|0
0|CS3344111|2013-04-19 20:56:39|Sipos|Razvan||M|1980-01-18|Bucuresti|Sector 6|Timonierului|6|4|2|4|60|0752150582||laura01@yahoo.com|DUNFCMBB||2 Camel White (4 mg) Pack + Insigna|Yes|Yes||BW000101|ANCIENT PUB SRL|Bucuresti|BWHRKBA97|120|CCC HRK CAMEL BW 2013|121|Horeca|0
0|CS3344122|2013-04-19 21:01:33|Soimareanu|Andrei||M|1986-09-21|Bucuresti|SECTOR 1|Feleacu|29|13c|A|2|10|0766441995||andrei.soimareanu@gmail.com|DUNFCMBB||3 Camel Black (6 mg) Pack + Bilet|Yes|Yes||BW000101|ANCIENT PUB SRL|Bucuresti|BWHRKBA31|120|CCC HRK CAMEL BW 2013|121|Horeca|0
0|CS3344121|2013-04-19 21:01:33|Marinescu|Cristina||F|1986-05-06|Bucuresti|SECTOR 5|Doina|15|3|B||16|0729988517||cristina.marinescu@amicom.ro|CABK||3 Camel Black (6 mg) Pack + CD Maxi Single|Yes|Yes||BW000101|ANCIENT PUB SRL|Bucuresti|BWHRKBA98|120|CCC HRK CAMEL BW 2013|121|Horeca|0
0|CS3344126|2013-04-19 21:04:30|Niculae|Valentin||M|1981-03-24|Bucuresti|SECTOR 6|Estacadei|10|81|||27|0723174810||snotboy2k4@yahoo.com|KTBLH||2 Camel Black (6 mg) Pack + CD Delta Machine|Yes|Yes||BW000101|ANCIENT PUB SRL|Bucuresti|BWHRKBA47|120|CCC HRK CAMEL BW 2013|121|Horeca|0
0|CS3344133|2013-04-19 21:08:25|Mihai|Gabriela||F|1957-11-06|Bucuresti|SECTOR 6|Uverturii|87|O14a|2||29|0726083171||mihai.gabriela.e@gmail.com|CABK||2 Camel Black (6 mg) Pack + CD Delta Machine|Yes|Yes||BW000101|ANCIENT PUB SRL|Bucuresti|BWHRKBA98|120|CCC HRK CAMEL BW 2013|121|Horeca|0
0|CS3344134|2013-04-19 21:08:34|Petre|Florin||M|1987-04-10|Bucuresti|SECTOR 4|Tineretului|55|66|B|7|66|0736300155||petre.florin87@gmail.com|DUNFCMBB||3 Camel Black (6 mg) Pack + Bilet|Yes|Yes||BW000101|ANCIENT PUB SRL|Bucuresti|BWHRKBA31|120|CCC HRK CAMEL BW 2013|121|Horeca|0
0|CS3344165|2013-04-19 21:13:14|Badea|Alex||M|1977-03-06|Bucuresti|SECTOR 5|I.Anghelache|2|28|1|6|42|0730714139||alex.badea@yahoo.com|DUNFCMBB||2 Camel Black (6 mg) Pack + CD Delta Machine|Yes|Yes||BW000101|ANCIENT PUB SRL|Bucuresti|BWHRKBA97|120|CCC HRK CAMEL BW 2013|121|Horeca|0
0|CS3344180|2013-04-19 21:17:32|Stroie|Gabriel||M|1988-01-31|Buzau|BUZAU|Republicii|33|||||0735456356||stroiegabriel@gmail.com|DUNFCMBB||3 Camel Black (6 mg) Pack + Bilet|Yes|Yes||BW000101|ANCIENT PUB SRL|Bucuresti|BWHRKBA31|120|CCC HRK CAMEL BW 2013|121|Horeca|0
0|CS3344189|2013-04-19 21:18:31|Cismaru|Andrei||M|1985-12-16|Bucuresti|SECTOR 2|Calea mosilor|325|33-35|3||91|0740292773||andrei@andreicismaru.ro|LSBL||3 Camel Black (6 mg) Pack + CD Maxi Single|Yes|Yes||BW000101|ANCIENT PUB SRL|Bucuresti|BWHRKBA98|120|CCC HRK CAMEL BW 2013|121|Horeca|0
0|CS3344205|2013-04-19 21:24:20|Nita|Nicolae||M|1987-09-26|Bucuresti|SECTOR 3|Minis|6|PM 90|A|7|45|0745414652||nnita@sidma-ro.vionet.gr|DUNFCBB||3 Camel White (4 mg) Pack + CD Maxi Single|Yes|Yes||BW000101|ANCIENT PUB SRL|Bucuresti|BWHRKBA97|120|CCC HRK CAMEL BW 2013|121|Horeca|0
0|CS3344210|2013-04-19 21:25:41|Ciubotaru|Daniela||F|1986-01-12|Bucuresti|SECTOR 6|Mehadiei|13|1|1|7|22|0762348308||danutza_rocs@yahoo.com|KTSV||2 Camel White (4 mg) Pack + CD Delta Machine|Yes|Yes||BW000101|ANCIENT PUB SRL|Bucuresti|BWHRKBA47|120|CCC HRK CAMEL BW 2013|121|Horeca|0
0|CS3344220|2013-04-19 21:29:23|Coara|Elvira||F|1979-09-23|Bucuresti|SECTOR 3|Jean seriadi|11|M3|A|0|0|0760063430||eli_4ever23@yahoo.com|KTSV||2 Camel White (4 mg) Pack + Bricheta CA BW|Yes|Yes||BW000101|ANCIENT PUB SRL|Bucuresti|BWHRKBA47|120|CCC HRK CAMEL BW 2013|121|Horeca|0
0|CS3344222|2013-04-19 21:29:55|Ionita|George||M|1981-10-10|Bucuresti|SECTOR 1|Iacob Felix|95|17|2|3|48|0724385340||ionita.gheorghe@yahoo.com|DUNFCMBB||3 Camel Black (6 mg) Pack + CD Maxi Single|Yes|Yes||BW000101|ANCIENT PUB SRL|Bucuresti|BWHRKBA97|120|CCC HRK CAMEL BW 2013|121|Horeca|0
0|CS3344245|2013-04-19 21:33:46|Tenie|Cristian||M|1985-11-28|Bucuresti|SECTOR 4|Oltenitei|388|1|1|1|22|0723983339||cristian.tenie@gmail.com|DUNFCMBB||2 Camel White (4 mg) Pack + CD Delta Machine|Yes|Yes||BW000101|ANCIENT PUB SRL|Bucuresti|BWHRKBA97|120|CCC HRK CAMEL BW 2013|121|Horeca|0
0|CS3344239|2013-04-19 21:34:09|Petre|Vlad||M|1985-10-27|Bucuresti|SECTOR 5|Tapsanului|13|||0|0|0763254693||vladpetretraia@yahoo.com|KTSV||2 Camel White (4 mg) Pack + Insigna|Yes|Yes||BW000101|ANCIENT PUB SRL|Bucuresti|BWHRKBA31|120|CCC HRK CAMEL BW 2013|121|Horeca|0
0|CS3344250|2013-04-19 21:37:23|Udrea|Mihai||M|1980-12-19|Bucuresti|SECTOR 3|Breaza|8|||||0765458957||mihai.udrea@gmail.com|DUNFCBB||2 Camel White (4 mg) Pack + CD Delta Machine|Yes|Yes||BW000101|ANCIENT PUB SRL|Bucuresti|BWHRKBA97|120|CCC HRK CAMEL BW 2013|121|Horeca|0
0|CS3344333|2013-04-19 22:09:25|Dobrovolschi|Mihai||M|1974-08-08|Bucuresti|SECTOR 3|Moruzzi|1|||||0726704045||dobrovolschi@yahoo.com|CAWH||2 Camel White (4 mg) Pack + CD Delta Machine|Yes|No||BW008952|Twins Downtown SRL|Bucuresti|BWHRKBA98|120|CCC HRK CAMEL BW 2013|121|Horeca|0
0|CS3344355|2013-04-19 22:14:05|Cioiulescu|Ciprian||M|1974-02-12|Bucuresti|SECTOR 1|Emanoil porumbaru|58|||||0722620411||cipc@me.com|CAWH||2 Camel White (4 mg) Pack + Bricheta CA BW|Yes|No||BW008952|Twins Downtown SRL|Bucuresti|BWHRKBA98|120|CCC HRK CAMEL BW 2013|121|Horeca|0
0|CS3344429|2013-04-19 22:35:08|Precu|Marius||M|1975-07-07|Bucuresti|SECTOR 1|Aviator sanatescu|20|||||0726143946||mariusprecu@yahoo.com|CAWH||3 Camel White (4 mg) Pack + Bilet|Yes|No||BW004127|SMARDAN NO 9 SRL|Bucuresti|BWHRKBA98|120|CCC HRK CAMEL BW 2013|121|Horeca|0
0|CS3344435|2013-04-19 22:36:23|Danila|Andreea||F|1984-08-28|Bucuresti|SECTOR 4|Ghioceilor|33|||||0746435774||andreea_deea@yahoo.com|DUNFCBB||2 Camel White (4 mg) Pack + CD Delta Machine|Yes|Yes||BW004127|SMARDAN NO 9 SRL|Bucuresti|BWHRKBA47|120|CCC HRK CAMEL BW 2013|121|Horeca|0
0|CS3344458|2013-04-19 22:41:11|Pancu|Marius||M|1987-01-27|Cluj|CLUJ NAPOCA|Cetatii|33|||||0725875477||marius_pancu008@yahoo.com|DUNFCMBB||3 Camel Black (6 mg) Pack + CD Maxi Single|Yes|Yes||BW004127|SMARDAN NO 9 SRL|Bucuresti|BWHRKBA97|120|CCC HRK CAMEL BW 2013|121|Horeca|0
0|CS3344501|2013-04-19 22:52:48|Vasilescu|Radu||M|1985-09-03|Bucuresti|SECTOR 3|Ramnicu sarat|16|||||0722685142||radu.vasilecu@ymail.com|CABK||2 Camel Black (6 mg) Pack + CD Delta Machine|Yes|Yes||BW005593|EUROTECH DEVELOPMENTS - INVESTMENTS SRL|Bucuresti|BWHRKBA98|120|CCC HRK CAMEL BW 2013|121|Horeca|0
0|CS3344510|2013-04-19 22:55:06|Gana|Mihai||M|1983-09-25|Bucuresti|SECTOR 6|Vasile milea|34|||||0768464635||gana.mihai@yahoo.com|KTSV||2 Camel White (4 mg) Pack + Bricheta CA BW|Yes|Yes||BW005593|EUROTECH DEVELOPMENTS - INVESTMENTS SRL|Bucuresti|BWHRKBA31|120|CCC HRK CAMEL BW 2013|121|Horeca|0
0|CS3344511|2013-04-19 22:55:15|Prodan|Cristian||M|1980-02-24|Bucuresti|SECTOR 6|Ajustorului|6|||||0723396585||cg.prodan@gmail.com|KTSV||2 Camel White (4 mg) Pack + Bricheta CA BW|Yes|Yes||BW005593|EUROTECH DEVELOPMENTS - INVESTMENTS SRL|Bucuresti|BWHRKBA47|120|CCC HRK CAMEL BW 2013|121|Horeca|0
0|CS3344512|2013-04-19 22:55:44|Tudorache|Dragos||M|1984-10-11|Bucuresti|SECTOR 4|Aleea Calinesti|14|C4|1|4|15|0732832888||tda_dragos@yahoo.com|DUNFCMBB||2 Camel Black (6 mg) Pack + Insigna|Yes|Yes||BW005593|EUROTECH DEVELOPMENTS - INVESTMENTS SRL|Bucuresti|BWHRKBA97|120|CCC HRK CAMEL BW 2013|121|Horeca|0
0|CS3344527|2013-04-19 23:00:01|Iancu|Iuliana||F|1981-10-21|Bucuresti|SECTOR 2|Banu nicolae|52|||0|0|0767677801||iuli_ana_iancu@yahoo.com|KTSV||2 Camel White (4 mg) Pack + CD Delta Machine|Yes|Yes||BW005593|EUROTECH DEVELOPMENTS - INVESTMENTS SRL|Bucuresti|BWHRKBA47|120|CCC HRK CAMEL BW 2013|121|Horeca|0
0|CS3344528|2013-04-19 23:00:24|Enache|Daniel||M|1984-02-21|Bucuresti|SECTOR 2|Calea mosilor|296|||||0728462137||daniel84_enache@yahoo.com|DUNFCMBB||2 Camel Black (6 mg) Pack + CD Delta Machine|Yes|Yes||BW005593|EUROTECH DEVELOPMENTS - INVESTMENTS SRL|Bucuresti|BWHRKBA31|120|CCC HRK CAMEL BW 2013|121|Horeca|0
0|CS3344530|2013-04-19 23:01:04|Otvos|Iulia||F|1986-10-27|Bucuresti|SECTOR 3|George ionescu gion|17|||||0767289633||otvosiulia@yahoo.com|CAWH||2 Camel White (4 mg) Pack + CD Delta Machine|Yes|Yes||BW005593|EUROTECH DEVELOPMENTS - INVESTMENTS SRL|Bucuresti|BWHRKBA98|120|CCC HRK CAMEL BW 2013|121|Horeca|0
0|CS3344531|2013-04-19 23:01:32|Dobre|Alexandra||F|1991-12-03|Bucuresti|SECTOR 2|Existentei|46|||0|0|0720262213||andra_dbre@yahoo.com|DUNFCMBB||2 Camel White (4 mg) Pack + CD Delta Machine|Yes|Yes||BW005593|EUROTECH DEVELOPMENTS - INVESTMENTS SRL|Bucuresti|BWHRKBA97|120|CCC HRK CAMEL BW 2013|121|Horeca|0
0|CS3344583|2013-04-19 23:11:13|Cobzau|Claudiu||M|1983-10-23|Bucuresti|SECTOR 5|Poenaru Vasile|36|||||0726078122||claudiu_cobzaru@yahoo.com|DUNFCMBB||2 Camel Black (6 mg) Pack + CD Delta Machine|Yes|Yes||BW005903|Goblin Bar - Club SRL|Bucuresti|BWHRKBA97|120|CCC HRK CAMEL BW 2013|121|Horeca|0
0|CS3344580|2013-04-19 23:13:28|Vrebca|Alexandra||F|1988-08-30|Bucuresti|SECTOR 2|Teiul doamnei|10|25|A|10|55|0729188937||alex.vrebca@gmail.com|KTSV||2 Camel White (4 mg) Pack + CD Delta Machine|Yes|Yes||BW005903|Goblin Bar - Club SRL|Bucuresti|BWHRKBA31|120|CCC HRK CAMEL BW 2013|121|Horeca|0
0|CS3344579|2013-04-19 23:13:39|Porutiu|Raul||M|1970-06-15|Bucuresti|SECTOR 3|Bld unirii|145|||||0722193108||raul.porutiu@gmail.com|CAWH||2 Camel White (4 mg) Pack + Bricheta CA BW|Yes|Yes||BW005903|Goblin Bar - Club SRL|Bucuresti|BWHRKBA98|120|CCC HRK CAMEL BW 2013|121|Horeca|0
0|CS3344584|2013-04-19 23:13:56|Serban|Silviu||M|1989-02-28|Bucuresti|SECTOR 4|Emil Racovita|33|A5|1|1|5|0729223307||serban.silviu00@gmail.com|KTBL||2 Camel Black (6 mg) Pack + CD Delta Machine|Yes|Yes||BW005903|Goblin Bar - Club SRL|Bucuresti|BWHRKBA97|120|CCC HRK CAMEL BW 2013|121|Horeca|0
0|CS3344582|2013-04-19 23:14:58|Marco|Luca||M|1990-07-28|Bucuresti|SECTOR 3|Rm sarat|134|D2|D||73|0762453564||lucamarco_322@yahoo.com|DUNFCMBB||2 Camel Black (6 mg) Pack + CD Delta Machine|Yes|Yes||BW005903|Goblin Bar - Club SRL|Bucuresti|BWHRKBA47|120|CCC HRK CAMEL BW 2013|121|Horeca|0
0|CS3344581|2013-04-19 23:15:44|Tanase|Luminita||F|1992-08-27|Buzau|BUZAU|Unirii|0|P1|A|2|11|0768352231||youcumine@yahoo.com|MBRFP||2 Camel Black (6 mg) Pack + CD Delta Machine|Yes|Yes||BW005903|Goblin Bar - Club SRL|Bucuresti|BWHRKBA31|120|CCC HRK CAMEL BW 2013|121|Horeca|0
0|CS3344585|2013-04-19 23:16:39|Babata|Ana||F|1990-02-22|Bucuresti|SECTOR 6|Aleea ceratuia|4|||||0723554678||anab.ana@yahoo.com|KTBL||2 Camel White (4 mg) Pack + CD Delta Machine|Yes|Yes||BW005903|Goblin Bar - Club SRL|Bucuresti|BWHRKBA97|120|CCC HRK CAMEL BW 2013|121|Horeca|0
0|CS3346041|2013-04-20 19:09:01|Olteanu|Luiza||F|1988-06-25|Ilfov|Pantelimon|Duzilor|50|P14|1|2|7|0761589289||luyyzza@yahoo.com|CAWH||2 Camel White (4 mg) Pack + CD Delta Machine|Yes|Yes||BW004552|VIAGEROS GROUP SRL|Bucuresti|BWHRKBA47|120|CCC HRK CAMEL BW 2013|121|Horeca|0
0|CS3346043|2013-04-20 19:10:12|Serbanescu|George||M|1985-06-07|Bucuresti|SECTOR 2|Brebu|5|5|1|3|21|0763974285||serbanescugeorge20@yahoo.com|DUNFCBB||2 Camel White (4 mg) Pack + Bricheta CA BW|Yes|Yes||BW004552|VIAGEROS GROUP SRL|Bucuresti|BWHRKBA31|120|CCC HRK CAMEL BW 2013|121|Horeca|0
0|CS3346044|2013-04-20 19:10:14|Paraschivu|Daniela||F|1985-07-11|Bucuresti|SECTOR 3|Alea adrian carstea|1|30 b|1|2|13|0763819299||dalidadg@yahoo.com|DUNFCBB||2 Camel White (4 mg) Pack + Bricheta CA BW|Yes|Yes||BW004552|VIAGEROS GROUP SRL|Bucuresti|BWHRKBA97|120|CCC HRK CAMEL BW 2013|121|Horeca|0
0|CS3346084|2013-04-20 19:36:31|Faciu|Constantin||M|1988-12-07|Bucuresti|SECTOR 3|Vlaicu voda|11|V62|3|2|43|0726016750||constantinfaciu@yahoo.com|KTSV||2 Camel White (4 mg) Pack + Insigna|Yes|Yes||BW003713|EMIRA LKS SRL|Bucuresti|BWHRKBA47|120|CCC HRK CAMEL BW 2013|121|Horeca|0
0|CS3346085|2013-04-20 19:36:47|Eremia|Alexandru||M|1982-10-24|Bucuresti|SECTOR 2|Victoriei|34|L2|B|1|5|0767565645||alex.eremia@yahoo.com|KTBL||2 Camel Black (6 mg) Pack + CD Delta Machine|Yes|Yes||BW003713|EMIRA LKS SRL|Bucuresti|BWHRKBA31|120|CCC HRK CAMEL BW 2013|121|Horeca|0
0|CS3346088|2013-04-20 19:39:06|Samir|Mayas||M|1984-03-22|Bucuresti|SECTOR 4|Gladita|4|T5|||406|0748820767||samir.mayas@boomer.ro|KTSV||2 Camel White (4 mg) Pack + Insigna|Yes|Yes||BW003713|EMIRA LKS SRL|Bucuresti|BWHRKBA98|120|CCC HRK CAMEL BW 2013|121|Horeca|0
0|CS3346115|2013-04-20 19:48:29|Gradinaru|Cristian||M|1975-06-29|Timis|TIMISOARA|Timis|7|||||0748110838||cristian.gradinaru@gauss.ro|CAWH||2 Camel White (4 mg) Pack + CD Delta Machine|Yes|Yes||BW031596|EXOTIQUE CAFE CONCEPT SRL|Bucuresti|BWHRKBA98|120|CCC HRK CAMEL BW 2013|121|Horeca|0
0|CS3346122|2013-04-20 19:50:05|Ciolacu|Mihai valentin||M|1989-01-17|Bucuresti|SECTOR 4|Lacului|1|J1|A|0|1|0764146530||cioli_nr1@yahoo.com|KTBL||2 Camel White (4 mg) Pack + Insigna|Yes|Yes||BW031596|EXOTIQUE CAFE CONCEPT SRL|Bucuresti|BWHRKBA97|120|CCC HRK CAMEL BW 2013|121|Horeca|0
0|CS3346126|2013-04-20 19:52:30|Ulecan|Ioan cristian||M|1981-10-25|Bucuresti|SECTOR 3|Calea vitan|227|2a|2|6|27|0725229976||jon@webdep.so|KTBL||3 Camel Black (6 mg) Pack + CD Maxi Single|Yes|No||BW031596|EXOTIQUE CAFE CONCEPT SRL|Bucuresti|BWHRKBA31|120|CCC HRK CAMEL BW 2013|121|Horeca|0
0|CS3346127|2013-04-20 19:53:03|Buzaianu|Oana raluca||F|1986-01-15|Bucuresti|SECTOR 3|Adrian carstea|11|36|B|7|94|0733515782||ralukbuzaianu@yahoo.com|KTSV||2 Camel White (4 mg) Pack + CD Delta Machine|Yes|Yes||BW031596|EXOTIQUE CAFE CONCEPT SRL|Bucuresti|BWHRKBA98|120|CCC HRK CAMEL BW 2013|121|Horeca|0
0|CS3346129|2013-04-20 19:53:44|Lovin|Alexandra||F|1983-08-27|Bucuresti|SECTOR 2|Otesani|33|D2|C||56|0742564765||alexandrallove@yahoo.com|DAVGLS||3 Camel White (4 mg) Pack + CD Maxi Single|Yes|Yes||BW031596|EXOTIQUE CAFE CONCEPT SRL|Bucuresti|BWHRKBA47|120|CCC HRK CAMEL BW 2013|121|Horeca|0
0|CS3346132|2013-04-20 19:55:46|Cojocaru|Adrian||M|1988-05-14|Bucuresti|SECTOR 6|Alea cetatuia|34|M|3|4|87|0765337943||cojocaruadrian34@yahoo.com|DUNFCMBB||2 Camel White (4 mg) Pack + Insigna|Yes|Yes||BW031596|EXOTIQUE CAFE CONCEPT SRL|Bucuresti|BWHRKBA97|120|CCC HRK CAMEL BW 2013|121|Horeca|0
0|CS3346170|2013-04-20 20:12:43|Sandu|Marian||M|1991-09-24|Buzau|BUZAU|Florilor|0|A1|1|3|13|0764636784||sandu.bgd@yahoo.com|CAWH||3 Camel White (4 mg) Pack + CD Maxi Single|Yes|Yes||BW004788|ELEFANT CLUB SRL|Bucuresti|BWHRKBA31|120|CCC HRK CAMEL BW 2013|121|Horeca|0
0|CS3346174|2013-04-20 20:14:16|Chiru|Adrian||M|1984-02-26|Bucuresti|SECTOR 5|Ghiovului|56|B|C||78|0763664645||adychiru@yahoo.com|KTSV||3 Camel White (4 mg) Pack + CD Maxi Single|Yes|Yes||BW004788|ELEFANT CLUB SRL|Bucuresti|BWHRKBA47|120|CCC HRK CAMEL BW 2013|121|Horeca|0
0|CS3346175|2013-04-20 20:14:30|Ioita|Alexandra||F|1988-09-29|Bucuresti|SECTOR 6|Dreptatii|4|||||0726546798||ionitaal@yahoo.com|DUNFCBB||2 Camel White (4 mg) Pack + Bricheta CA BW|Yes|Yes||BW004788|ELEFANT CLUB SRL|Bucuresti|BWHRKBA97|120|CCC HRK CAMEL BW 2013|121|Horeca|0
0|CS3346176|2013-04-20 20:14:34|Neghin|Dorin||M|1990-10-02|Bucuresti|SECTOR 5|Telita|17|121|3|2|39|0734955729||niwa.kira@gmail.com|CABK||3 Camel Black (6 mg) Pack + CD Maxi Single|Yes|Yes||BW004788|ELEFANT CLUB SRL|Bucuresti|BWHRKBA98|120|CCC HRK CAMEL BW 2013|121|Horeca|0
0|CS3346185|2013-04-20 20:20:26|Musat|Aurelian||M|1978-06-20|Bucuresti|SECTOR 3|calusarilor|4|43a|2|2|55|0722591844||adryan@gmail.com|LSBL||2 Camel White (4 mg) Pack + Bricheta CA BW|Yes|Yes||BW004788|ELEFANT CLUB SRL|Bucuresti|BWHRKBA98|120|CCC HRK CAMEL BW 2013|121|Horeca|0
0|CS3346263|2013-04-20 20:42:33|Dobre|Mihai||M|1986-09-01|Bucuresti|SECTOR 4|Marasesti|127|||||0726971419||dobre.mihai01@yahoo.com|CABK||2 Camel Black (6 mg) Pack + CD Delta Machine|Yes|Yes||BW000101|ANCIENT PUB SRL|Bucuresti|BWHRKBA47|120|CCC HRK CAMEL BW 2013|121|Horeca|0
0|CS3346276|2013-04-20 20:47:54|Berechet|Florin||M|1986-11-25|Bucuresti|SECTOR 2|Stefan cel mare|236|B59|1|7|27|0742672150||florinberechet@yahoo.com|PMBL||3 Camel Black (6 mg) Pack + CD Maxi Single|Yes|Yes||BW000101|ANCIENT PUB SRL|Bucuresti|BWHRKBA98|120|CCC HRK CAMEL BW 2013|121|Horeca|0
0|CS3346288|2013-04-20 20:51:29|Florea|Gratiana||F|1989-08-15|Calarasi|VALEA ARGOVEI|Principala|49|||||0769791213||florea.gratzi@yahoo.com|DUNFCBB||3 Camel White (4 mg) Pack + Bilet|Yes|Yes||BW000101|ANCIENT PUB SRL|Bucuresti|BWHRKBA31|120|CCC HRK CAMEL BW 2013|121|Horeca|0
0|CS3346289|2013-04-20 20:51:42|Popesu|Ioana||F|1987-02-01|Bucuresti|SECTOR 6|Aleea Agigea|4|102a|1|2|11|0744795321||ioanapopescu@yahoo.com|KTBL||2 Camel White (4 mg) Pack + Bricheta CA BW|Yes|Yes||BW000101|ANCIENT PUB SRL|Bucuresti|BWHRKBA97|120|CCC HRK CAMEL BW 2013|121|Horeca|0
0|CS3346290|2013-04-20 20:51:43|Mitu|Sorin||M|1986-09-25|Calarasi|BUDESTI|Trandafirului|1|||||0764408080|||CABK||2 Camel Black (6 mg) Pack + CD Delta Machine|Yes|Yes||BW000101|ANCIENT PUB SRL|Bucuresti|BWHRKBA98|120|CCC HRK CAMEL BW 2013|121|Horeca|0
0|CS3346296|2013-04-20 20:53:33|Curda|Radu||M|1990-11-04|Bucuresti|SECTOR 3|Aleea plenita|4|||||0733267740||c.radu100@yahoo.com|CAWH||2 Camel White (4 mg) Pack + Bricheta CA BW|Yes|Yes||BW000101|ANCIENT PUB SRL|Bucuresti|BWHRKBA47|120|CCC HRK CAMEL BW 2013|121|Horeca|0
0|CS3346309|2013-04-20 20:58:19|Timofticiuc|Andrei||M|1991-11-03|Bucuresti|SECTOR 2|Calusei|18|||||0740811856||an3119151@yahoo.com|CABK||2 Camel Black (6 mg) Pack + CD Delta Machine|Yes|Yes||BW000101|ANCIENT PUB SRL|Bucuresti|BWHRKBA98|120|CCC HRK CAMEL BW 2013|121|Horeca|0
0|CS3346311|2013-04-20 20:58:27|Teodorescu|Paul||M|1986-03-25|Bucuresti|SECTOR 1|Calea giulesti|10|||0|0|0737491074||cristy_paul11@yahoo.com|DUNFCMBB||2 Camel Black (6 mg) Pack + Bricheta CA BW|Yes|Yes||BW000101|ANCIENT PUB SRL|Bucuresti|BWHRKBA97|120|CCC HRK CAMEL BW 2013|121|Horeca|0
0|CS3346317|2013-04-20 21:00:39|Toma|Calin||M|1981-05-10|Arges|PITESTI|Argovei|0|11a|B|4|14|0724385868||toma.calin@gmail.com|PARAB||3 Camel Black (6 mg) Pack + Bilet|Yes|Yes||BW000101|ANCIENT PUB SRL|Bucuresti|BWHRKBA31|120|CCC HRK CAMEL BW 2013|121|Horeca|0
0|CS3346321|2013-04-20 21:02:32|Irianu|Petre||M|1989-05-15|Bucuresti|SECTOR 4|Emil racovita|22|||0|0|0743612018||irianupetre@yahoo.com|KTSV||2 Camel White (4 mg) Pack + Bricheta CA BW|Yes|Yes||BW000101|ANCIENT PUB SRL|Bucuresti|BWHRKBA47|120|CCC HRK CAMEL BW 2013|121|Horeca|0
0|CS3346343|2013-04-20 21:06:51|Lupu|Cosmin||M|1981-03-05|Bucuresti|SECTOR 2|Colentina|16|B 3|||29|0742595717||lupujonut@yahoo.com|KTBL||2 Camel Black (6 mg) Pack + CD Delta Machine|Yes|Yes||BW000101|ANCIENT PUB SRL|Bucuresti|BWHRKBA97|120|CCC HRK CAMEL BW 2013|121|Horeca|0
0|CS3346413|2013-04-20 21:23:23|Enache|Victor||M|1975-07-28|Bucuresti|SECTOR 1|Episcopiei|3|||||0723347631||mota_diesel@yahoo.com|CABK||2 Camel Black (6 mg) Pack + Insigna|Yes|Yes||BW007819|DON OVIDIU SRL|Bucuresti|BWHRKBA98|120|CCC HRK CAMEL BW 2013|121|Horeca|0
0|CS3346430|2013-04-20 21:27:37|Popescu|Catalin||M|1986-08-25|Bucuresti|SECTOR 1|Calea victoriei|83-85|B|A||46|0735367146|||KTSV||2 Camel White (4 mg) Pack + CD Delta Machine|Yes|Yes||BW007819|DON OVIDIU SRL|Bucuresti|BWHRKBA98|120|CCC HRK CAMEL BW 2013|121|Horeca|0
0|CS3346450|2013-04-20 21:27:41|Ghita|Dorian||M|1989-05-28|Bucuresti|SECTOR 6|Brosteni|55|F|A||12|0742467546||dorian_doriann100@yahoo.com|DUNFCMBB||3 Camel Black (6 mg) Pack + Bilet|Yes|Yes||BW007819|DON OVIDIU SRL|Bucuresti|BWHRKBA47|120|CCC HRK CAMEL BW 2013|121|Horeca|0
0|CS3346434|2013-04-20 21:28:02|Badaluta|Gabriel||M|1992-09-18|Bucuresti|SECTOR 6|Splaiul independentei|209|||1|102|0756352435||badaluta.gabi@yahoo.com|PMBL||2 Camel Black (6 mg) Pack + Insigna|Yes|Yes||BW007819|DON OVIDIU SRL|Bucuresti|BWHRKBA31|120|CCC HRK CAMEL BW 2013|121|Horeca|0
0|CS3346480|2013-04-20 21:28:10|Nicolae|Madalina||F|1989-12-13|Bucuresti|SECTOR 6|Uverturii|32|P 15|2|3|56|0745334567||nicolaemmaria@yahoo.com|KTBL||3 Camel White (4 mg) Pack + Bilet|Yes|Yes||BW007819|DON OVIDIU SRL|Bucuresti|BWHRKBA97|120|CCC HRK CAMEL BW 2013|121|Horeca|0
0|CS3346444|2013-04-20 21:31:43|Teodorescu|Cristian||M|1979-12-16|Bucuresti|SECTOR 2|Cernauti|42|M11bi|B|4|46|0763320178||cristi.teodorescu79@yahoo.com|KTSV||2 Camel White (4 mg) Pack + Bricheta CA BW|Yes|Yes||BW007819|DON OVIDIU SRL|Bucuresti|BWHRKBA47|120|CCC HRK CAMEL BW 2013|121|Horeca|0
0|CS3346481|2013-04-20 21:32:35|Dinescu|Mugurel||M|1986-04-12|Bucuresti|SECTOR 1|Pictor hentia|34|||||0735094568||dinescumugurel51@yahoo.com|DUNFCBB||2 Camel Black (6 mg) Pack + CD Delta Machine|Yes|Yes||BW007819|DON OVIDIU SRL|Bucuresti|BWHRKBA97|120|CCC HRK CAMEL BW 2013|121|Horeca|0
0|CS3346455|2013-04-20 21:33:52|Andrei|Florin||M|1983-05-02|Bucuresti|SECTOR 2|Turustilor|11|||||0721525342||andreiflorinfire@gmail.com|KTBL||2 Camel Black (6 mg) Pack + CD Delta Machine|Yes|Yes||BW007819|DON OVIDIU SRL|Bucuresti|BWHRKBA31|120|CCC HRK CAMEL BW 2013|121|Horeca|0
0|CS3346497|2013-04-20 21:45:48|Popescu|Mihai||M|1972-01-10|Bucuresti|SECTOR 4|Raul Mara|13|M 5|4|1|34|0726909030||popescu_elena22@yahoo.com|KTBL||2 Camel Black (6 mg) Pack + CD Delta Machine|Yes|Yes||BW006784|LETAL ART DESING SRL|Bucuresti|BWHRKBA97|120|CCC HRK CAMEL BW 2013|121|Horeca|0
0|CS3346508|2013-04-20 21:48:08|Dinu|Andrei||M|1984-06-26|Bucuresti|SECTOR 1|Indienilor|13|||||0763376465||andrei_andrew@gmail.com|KTBL||3 Camel Black (6 mg) Pack + CD Maxi Single|Yes|Yes||BW006784|LETAL ART DESING SRL|Bucuresti|BWHRKBA47|120|CCC HRK CAMEL BW 2013|121|Horeca|0
0|CS3346515|2013-04-20 21:49:21|Eremia|Mihaela||F|1982-08-24|Bucuresti|SECTOR 2|Soseaua Colentina|2 c|4 k|A|P|3|0744323901||m_eremia@yahoo.com|DUNFCBB||3 Camel White (4 mg) Pack + Bilet|Yes|Yes||BW006784|LETAL ART DESING SRL|Bucuresti|BWHRKBA97|120|CCC HRK CAMEL BW 2013|121|Horeca|0
0|CS3346516|2013-04-20 21:49:31|Boganila|Marius||M|1980-09-17|Brasov|BRASOV|Pinului|435|||||0767473667||boganila.mari@yahoo.com|PARAB||2 Camel Black (6 mg) Pack + CD Delta Machine|Yes|Yes||BW006784|LETAL ART DESING SRL|Bucuresti|BWHRKBA31|120|CCC HRK CAMEL BW 2013|121|Horeca|0
0|CS3346518|2013-04-20 21:49:38|Bitica|Adrian||M|1986-09-21|Bucuresti|SECTOR 2|Spatarului|7|0|B|4|42|0734218428||adrianbikk@gmail.com|CAWH||2 Camel White (4 mg) Pack + CD Delta Machine|Yes|Yes||BW006784|LETAL ART DESING SRL|Bucuresti|BWHRKBA98|120|CCC HRK CAMEL BW 2013|121|Horeca|0
0|CS3346557|2013-04-20 21:58:22|Ganu|Maria ioana||F|1992-05-24|Calarasi|VALEA POPII|Principals|11|||||0768364535|||PMSV||2 Camel White (4 mg) Pack + Bricheta CA BW|Yes|Yes||BW004788|ELEFANT CLUB SRL|Bucuresti|BWHRKBA31|120|CCC HRK CAMEL BW 2013|121|Horeca|0
0|CS3346559|2013-04-20 21:58:42|Grigoriu|Denisa||M|1983-05-26|Bucuresti|SECTOR 5|Calea rahovei|15|||||0742565465||deni_dnisa@gmail.com|KTBL||2 Camel Black (6 mg) Pack + Insigna|Yes|Yes||BW004788|ELEFANT CLUB SRL|Bucuresti|BWHRKBA47|120|CCC HRK CAMEL BW 2013|121|Horeca|0
0|CS3346606|2013-04-20 22:15:32|Ioan|Madalin||M|1987-04-11|Bucuresti|SECTOR 6|Iuliu maniu|13b|||0|0|0786627254||ioan.madalin25@yahoo.com|KTBL||2 Camel Black (6 mg) Pack + CD Delta Machine|Yes|Yes||BW005041|NEXT FASHION DD SRL|Bucuresti|BWHRKBA47|120|CCC HRK CAMEL BW 2013|121|Horeca|0
0|CS3346611|2013-04-20 22:17:29|Husein|Husein||M|1965-03-12|Bucuresti|SECTOR 6|Moinesti|4|136|2|4|80|0740069100||syntur_group@clikner.ro|CAWH||2 Camel White (4 mg) Pack + CD Delta Machine|Yes|Yes||BW005041|NEXT FASHION DD SRL|Bucuresti|BWHRKBA97|120|CCC HRK CAMEL BW 2013|121|Horeca|0
0|CS3346622|2013-04-20 22:20:34|Haldan|Cristian||M|1984-08-14|Iasi|IASI|Gavril ghiorghiu|18|||||0728320770||haldanc@yahoo.com|CAWH||2 Camel White (4 mg) Pack + Bricheta CA BW|Yes|Yes||BW005041|NEXT FASHION DD SRL|Bucuresti|BWHRKBA98|120|CCC HRK CAMEL BW 2013|121|Horeca|0
0|CS3346625|2013-04-20 22:22:00|Otman|Alsab||M|1990-03-05|Bucuresti|SECTOR 6|Bozieni|7|2||9|214|0765874775||otman_nion@yahoo.com|DUNFCBB||2 Camel White (4 mg) Pack + CD Delta Machine|Yes|Yes||BW005041|NEXT FASHION DD SRL|Bucuresti|BWHRKBA31|120|CCC HRK CAMEL BW 2013|121|Horeca|0
0|CS3346690|2013-04-20 22:37:08|Roata|Sorin||M|1981-02-17|Bucuresti|SECTOR 2|Ferdinant 1|113|E3|2|1|7|0760282632||s_@yahoo.com|CABK||2 Camel Black (6 mg) Pack + CD Delta Machine|Yes|Yes||BW031573|RDA PUB GOLD SRL|Bucuresti|BWHRKBA31|120|CCC HRK CAMEL BW 2013|121|Horeca|0
0|CS3346694|2013-04-20 22:37:28|Milea|Florin||M|1986-06-04|Bucuresti|SECTOR 6|Dealu tugulea|25|F8|2||41|0725349228||florin.milea87@gmail.com|CAWH||3 Camel White (4 mg) Pack + CD Maxi Single|Yes|Yes||BW031573|RDA PUB GOLD SRL|Bucuresti|BWHRKBA98|120|CCC HRK CAMEL BW 2013|121|Horeca|0
0|CS3346719|2013-04-20 22:44:53|Ilinca|Remus||M|1984-09-28|Bucuresti|SECTOR 3|Ilioara|33|D|A||32|0767345110||remusilina_2000@yahoo.com|DUNFCMBB||3 Camel Black (6 mg) Pack + Bilet|Yes|Yes||BW031573|RDA PUB GOLD SRL|Bucuresti|BWHRKBA47|120|CCC HRK CAMEL BW 2013|121|Horeca|0
0|CS3346725|2013-04-20 22:46:47|Popa|Sorin||M|1981-06-22|Ilfov|POPESTI LEORDENI|Oltenitei|17b|4|||21|0744306996||sorell81@yahoo.com|DUNFCMBB||2 Camel Black (6 mg) Pack + Bricheta CA BW|Yes|Yes||BW031573|RDA PUB GOLD SRL|Bucuresti|BWHRKBA31|120|CCC HRK CAMEL BW 2013|121|Horeca|0
0|CS3346746|2013-04-20 22:54:46|Constantinescu|Victor||M|1990-05-10|Bucuresti|SECTOR 6|Partizanilor|1|M 12|3|7|98|0745563479||vicgeo@yahoo.com|DUNFCMBB||3 Camel Black (6 mg) Pack + CD Maxi Single|Yes|Yes||BW008903|KULTURE BAR SRL|Bucuresti|BWHRKBA97|120|CCC HRK CAMEL BW 2013|121|Horeca|0
0|CS3346751|2013-04-20 22:57:07|Ioja|Ieremia||M|1988-04-20|Bucuresti|SECTOR 5|Petre ispirescu|5|P72b|||9|0721179403||ieremiagabriel@yahoo.com|CAWH||2 Camel White (4 mg) Pack + Insigna|Yes|Yes||BW008903|KULTURE BAR SRL|Bucuresti|BWHRKBA47|120|CCC HRK CAMEL BW 2013|121|Horeca|0
0|CS3346755|2013-04-20 22:57:35|Ciripoi|Alexandru||M|1988-07-01|Brasov|BRASOV|Bisericii romane|19|||||0722908645||ciripoialexandru88@yahoo.com|KTSV||3 Camel White (4 mg) Pack + Bilet|Yes|Yes||BW008903|KULTURE BAR SRL|Bucuresti|BWHRKBA98|120|CCC HRK CAMEL BW 2013|121|Horeca|0
0|CS3346811|2013-04-20 23:09:36|Trakadas|Andra||F|1984-11-10|Bucuresti|SECTOR 2|Radu captariu|18|||||0744439484||andra_rotariu@yahoo.com|CAWH||3 Camel White (4 mg) Pack + Bilet|Yes|Yes||BW008904|AVANGARDE BAR SRL|Bucuresti|BWHRKBA98|120|CCC HRK CAMEL BW 2013|121|Horeca|0
0|CS3346816|2013-04-20 23:10:33|Chirila|Andrei||M|1987-04-30|Bucuresti|SECTOR 4|Anton bacalbasa|17|143|1|7|44|0745956517||a.kilar@yahoo.com|DUNFCMBB||2 Camel Black (6 mg) Pack + Insigna|Yes|Yes||BW008904|AVANGARDE BAR SRL|Bucuresti|BWHRKBA97|120|CCC HRK CAMEL BW 2013|121|Horeca|0
0|CS3346817|2013-04-20 23:11:10|Costea|Valentin||M|1988-09-06|Bucuresti|SECTOR 6|Intrarea drumul taberei|6|E2|2|3|31|0736168969||special.sensation@yahoo.com|CABK||2 Camel Black (6 mg) Pack + Bricheta CA BW|Yes|Yes||BW008904|AVANGARDE BAR SRL|Bucuresti|BWHRKBA31|120|CCC HRK CAMEL BW 2013|121|Horeca|0
0|FS859302|2013-04-17 19:51:55|||||||||||||||||KTSV||||||||||120|CCC HRK CAMEL BW 2013|121|Horeca|0
0|FS859345|2013-04-17 19:55:52||||F|||||||||||||GLPBMNFT||||||||||120|CCC HRK CAMEL BW 2013|121|Horeca|0
0|FS859409|2013-04-17 20:09:07||||M|||||||||||||DAVGL||||||||||120|CCC HRK CAMEL BW 2013|121|Horeca|0
0|FS859414|2013-04-17 20:11:06||||F|||||||||||||VOGLL||||||||||120|CCC HRK CAMEL BW 2013|121|Horeca|0
0|FS859415|2013-04-17 20:11:07||||F|||||||||||||VOGLL||||||||||120|CCC HRK CAMEL BW 2013|121|Horeca|0
0|FS859418|2013-04-17 20:11:23||||M|||||||||||||DUNFCSB||||||||||120|CCC HRK CAMEL BW 2013|121|Horeca|0
0|FS859419|2013-04-17 20:11:39||||F|||||||||||||SBSSPK||||||||||120|CCC HRK CAMEL BW 2013|121|Horeca|0
0|FS859421|2013-04-17 20:11:50||||M|||||||||||||DAVGL||||||||||120|CCC HRK CAMEL BW 2013|121|Horeca|0
0|FS859426|2013-04-17 20:12:27|||||||||||||||||KTBL||||||||||120|CCC HRK CAMEL BW 2013|121|Horeca|0
0|FS859427|2013-04-17 20:12:53||||F|||||||||||||KTBL||||||||||120|CCC HRK CAMEL BW 2013|121|Horeca|0
0|FS859483|2013-04-17 20:27:35||||F|||||||||||||DAVGLS||||||||||120|CCC HRK CAMEL BW 2013|121|Horeca|0
0|FS859485|2013-04-17 20:27:37||||M|||||||||||||DUNFCBB||||||||||120|CCC HRK CAMEL BW 2013|121|Horeca|0
0|FS859496|2013-04-17 20:29:36||||F|||||||||||||DUNFCBB||||||||||120|CCC HRK CAMEL BW 2013|121|Horeca|0
0|FS859575|2013-04-17 21:04:22||||M|||||||||||||DUNFCBB||||||||||120|CCC HRK CAMEL BW 2013|121|Horeca|0
0|FS859614|2013-04-17 21:41:19||||M|||||||||||||DUNFCSB||||||||||120|CCC HRK CAMEL BW 2013|121|Horeca|0
0|FS859667|2013-04-17 22:00:45||||M|||||||||||||KTBL||||||||||120|CCC HRK CAMEL BW 2013|121|Horeca|0
0|FS859670|2013-04-17 22:03:51||||F|||||||||||||VIRSM||||||||||120|CCC HRK CAMEL BW 2013|121|Horeca|0
0|FS859678|2013-04-17 22:05:05||||M|||||||||||||MBRGLT||||||||||120|CCC HRK CAMEL BW 2013|121|Horeca|0
0|FS859791|2013-04-17 23:03:06||||M|||||||||||||DAVGLS||||||||||120|CCC HRK CAMEL BW 2013|121|Horeca|0
0|FS859797|2013-04-17 23:04:19||||M|||||||||||||PMBL||||||||||120|CCC HRK CAMEL BW 2013|121|Horeca|0
0|FS859807|2013-04-17 23:05:03||||M|||||||||||||MBRGL||||||||||120|CCC HRK CAMEL BW 2013|121|Horeca|0
0|FS859823|2013-04-17 23:12:55||||F|||||||||||||LSRD||||||||||120|CCC HRK CAMEL BW 2013|121|Horeca|0
0|FS859828|2013-04-17 23:13:46||||M|||||||||||||MBRRD||||||||||120|CCC HRK CAMEL BW 2013|121|Horeca|0
0|FS859884|2013-04-17 23:49:44||||F|||||||||||||VIRSPR||||||||||120|CCC HRK CAMEL BW 2013|121|Horeca|0
0|FS859886|2013-04-17 23:50:59||||F|||||||||||||DUNFCBB||||||||||120|CCC HRK CAMEL BW 2013|121|Horeca|0
0|FS862078|2013-04-18 19:06:12||||M|||||||||||||MBRGLT||||||||||120|CCC HRK CAMEL BW 2013|121|Horeca|0
0|FS862080|2013-04-18 19:06:24||||F|||||||||||||DUNFCSB||||||||||120|CCC HRK CAMEL BW 2013|121|Horeca|0
0|FS862081|2013-04-18 19:06:30||||F|||||||||||||DUNFCSB||||||||||120|CCC HRK CAMEL BW 2013|121|Horeca|0
0|FS862089|2013-04-18 19:06:56||||M|||||||||||||SBKSBL||||||||||120|CCC HRK CAMEL BW 2013|121|Horeca|0
0|FS862103|2013-04-18 19:09:22||||F|||||||||||||VOGM||||||||||120|CCC HRK CAMEL BW 2013|121|Horeca|0
0|FS862356|2013-04-18 19:37:11||||F|||||||||||||VOGLL||||||||||120|CCC HRK CAMEL BW 2013|121|Horeca|0
0|FS862365|2013-04-18 19:37:31||||F|||||||||||||KTBL||||||||||120|CCC HRK CAMEL BW 2013|121|Horeca|0
0|FS862368|2013-04-18 19:37:48||||F|||||||||||||VOGLL||||||||||120|CCC HRK CAMEL BW 2013|121|Horeca|0
0|FS862371|2013-04-18 19:37:59|||||||||||||||||DAVGL||||||||||120|CCC HRK CAMEL BW 2013|121|Horeca|0
0|FS862373|2013-04-18 19:38:06||||F|||||||||||||GLMLIL||||||||||120|CCC HRK CAMEL BW 2013|121|Horeca|0
0|FS862390|2013-04-18 19:39:22||||F|||||||||||||PMSSGR||||||||||120|CCC HRK CAMEL BW 2013|121|Horeca|0
0|FS862537|2013-04-18 19:55:31||||F|||||||||||||PMSSBL||||||||||120|CCC HRK CAMEL BW 2013|121|Horeca|0
0|FS862541|2013-04-18 19:56:12||||M|||||||||||||MBRBI||||||||||120|CCC HRK CAMEL BW 2013|121|Horeca|0
0|FS862546|2013-04-18 19:56:44||||F|||||||||||||PMECBL||||||||||120|CCC HRK CAMEL BW 2013|121|Horeca|0
0|FS862555|2013-04-18 19:57:30||||F|||||||||||||KTSWIT||||||||||120|CCC HRK CAMEL BW 2013|121|Horeca|0
0|FS862564|2013-04-18 19:58:07||||F|||||||||||||KTBL||||||||||120|CCC HRK CAMEL BW 2013|121|Horeca|0
0|FS862568|2013-04-18 19:58:22||||M|||||||||||||KTSV||||||||||120|CCC HRK CAMEL BW 2013|121|Horeca|0
0|FS862570|2013-04-18 19:58:35||||F|||||||||||||MBRRD||||||||||120|CCC HRK CAMEL BW 2013|121|Horeca|0
0|FS862812|2013-04-18 20:39:11||||M|||||||||||||LSRD||||||||||120|CCC HRK CAMEL BW 2013|121|Horeca|0
0|FS862813|2013-04-18 20:39:20||||F|||||||||||||KTH||||||||||120|CCC HRK CAMEL BW 2013|121|Horeca|0
0|FS862814|2013-04-18 20:39:49||||M|||||||||||||MBRBI||||||||||120|CCC HRK CAMEL BW 2013|121|Horeca|0
0|FS862823|2013-04-18 20:40:56||||F|||||||||||||PMBL||||||||||120|CCC HRK CAMEL BW 2013|121|Horeca|0
0|FS862941|2013-04-18 21:06:21||||M|||||||||||||KTH||||||||||120|CCC HRK CAMEL BW 2013|121|Horeca|0
0|FS862945|2013-04-18 21:07:22||||M|||||||||||||PMGR||||||||||120|CCC HRK CAMEL BW 2013|121|Horeca|0
0|FS862947|2013-04-18 21:07:52||||F|||||||||||||VOGABP||||||||||120|CCC HRK CAMEL BW 2013|121|Horeca|0
0|FS862988|2013-04-18 21:16:19||||F|||||||||||||PMSSBL||||||||||120|CCC HRK CAMEL BW 2013|121|Horeca|0
0|FS862989|2013-04-18 21:16:53||||M|||||||||||||CABL||||||||||120|CCC HRK CAMEL BW 2013|121|Horeca|0
0|FS862990|2013-04-18 21:16:56||||M|||||||||||||SBKSGD||||||||||120|CCC HRK CAMEL BW 2013|121|Horeca|0
0|FS863086|2013-04-18 22:08:42||||M|||||||||||||PHMQSV||||||||||120|CCC HRK CAMEL BW 2013|121|Horeca|0
0|FS863186|2013-04-18 22:11:50||||F|||||||||||||DUNFCBB||||||||||120|CCC HRK CAMEL BW 2013|121|Horeca|0
0|FS863213|2013-04-18 22:24:22||||M|||||||||||||CASV||||||||||120|CCC HRK CAMEL BW 2013|121|Horeca|0
0|FS863227|2013-04-18 22:26:09||||M|||||||||||||DUNFCMBB||||||||||120|CCC HRK CAMEL BW 2013|121|Horeca|0
0|FS863291|2013-04-18 22:43:51||||F|||||||||||||PARRSSH||||||||||120|CCC HRK CAMEL BW 2013|121|Horeca|0
0|FS863363|2013-04-18 23:06:23||||M|||||||||||||KTH||||||||||120|CCC HRK CAMEL BW 2013|121|Horeca|0
0|FS863383|2013-04-18 23:13:34||||F|||||||||||||VIRSM||||||||||120|CCC HRK CAMEL BW 2013|121|Horeca|0
0|FS863395|2013-04-18 23:18:09||||M|||||||||||||DUNFCSB||||||||||120|CCC HRK CAMEL BW 2013|121|Horeca|0
0|FS866258|2013-04-19 18:59:39||||M|||||||||||||KTSV||||||||||120|CCC HRK CAMEL BW 2013|121|Horeca|0
0|FS866259|2013-04-19 18:59:42||||F|||||||||||||GLMMNT||||||||||120|CCC HRK CAMEL BW 2013|121|Horeca|0
0|FS866262|2013-04-19 18:59:48||||M|||||||||||||PMSV||||||||||120|CCC HRK CAMEL BW 2013|121|Horeca|0
0|FS866336|2013-04-19 19:08:01||||M|||||||||||||DAVCL||||||||||120|CCC HRK CAMEL BW 2013|121|Horeca|0
0|FS866340|2013-04-19 19:08:10||||M|||||||||||||DAVGL||||||||||120|CCC HRK CAMEL BW 2013|121|Horeca|0
0|FS866372|2013-04-19 19:10:50||||F|||||||||||||DAVGLS||||||||||120|CCC HRK CAMEL BW 2013|121|Horeca|0
0|FS866471|2013-04-19 19:22:11||||F|||||||||||||DUNFCMBB||||||||||120|CCC HRK CAMEL BW 2013|121|Horeca|0
0|FS866473|2013-04-19 19:22:19||||M|||||||||||||DAVGLSS||||||||||120|CCC HRK CAMEL BW 2013|121|Horeca|0
0|FS866487|2013-04-19 19:23:25||||F|||||||||||||KTBL||||||||||120|CCC HRK CAMEL BW 2013|121|Horeca|0
0|FS866493|2013-04-19 19:24:21||||F|||||||||||||KTBL||||||||||120|CCC HRK CAMEL BW 2013|121|Horeca|0
0|FS866556|2013-04-19 19:29:36||||F|||||||||||||DUNFCBB||||||||||120|CCC HRK CAMEL BW 2013|121|Horeca|0
0|FS866667|2013-04-19 19:42:07||||M|||||||||||||KTH||||||||||120|CCC HRK CAMEL BW 2013|121|Horeca|0
0|FS866677|2013-04-19 19:43:43||||F|||||||||||||KTSWIT||||||||||120|CCC HRK CAMEL BW 2013|121|Horeca|0
0|FS866779|2013-04-19 19:54:00||||M|||||||||||||KTSWIT||||||||||120|CCC HRK CAMEL BW 2013|121|Horeca|0
0|FS866973|2013-04-19 20:17:37||||F|||||||||||||DUNFCBB||||||||||120|CCC HRK CAMEL BW 2013|121|Horeca|0
0|FS866976|2013-04-19 20:17:49||||F|||||||||||||GLMLIL||||||||||120|CCC HRK CAMEL BW 2013|121|Horeca|0
0|FS866981|2013-04-19 20:18:16||||M|||||||||||||SBKSBK||||||||||120|CCC HRK CAMEL BW 2013|121|Horeca|0
0|FS867076|2013-04-19 20:32:00||||M|||||||||||||MBRRD||||||||||120|CCC HRK CAMEL BW 2013|121|Horeca|0
0|FS867419|2013-04-19 21:45:34||||F|||||||||||||DUNFCBB||||||||||120|CCC HRK CAMEL BW 2013|121|Horeca|0
0|FS867513|2013-04-19 22:09:33||||M|||||||||||||CABL||||||||||120|CCC HRK CAMEL BW 2013|121|Horeca|0
0|FS867514|2013-04-19 22:09:42||||F|||||||||||||MBRRD||||||||||120|CCC HRK CAMEL BW 2013|121|Horeca|0
0|FS867515|2013-04-19 22:09:46||||F|||||||||||||SBSSWH||||||||||120|CCC HRK CAMEL BW 2013|121|Horeca|0
0|FS867516|2013-04-19 22:10:41||||M|||||||||||||DUNFCBB||||||||||120|CCC HRK CAMEL BW 2013|121|Horeca|0
0|FS867518|2013-04-19 22:10:53||||M|||||||||||||DUNFCMBB||||||||||120|CCC HRK CAMEL BW 2013|121|Horeca|0
0|FS867520|2013-04-19 22:11:14||||F|||||||||||||VIRSM||||||||||120|CCC HRK CAMEL BW 2013|121|Horeca|0
0|FS867521|2013-04-19 22:11:23||||F|||||||||||||VOGLL||||||||||120|CCC HRK CAMEL BW 2013|121|Horeca|0
0|FS867522|2013-04-19 22:11:24||||F|||||||||||||VOGLL||||||||||120|CCC HRK CAMEL BW 2013|121|Horeca|0
0|FS867625|2013-04-19 22:35:40||||F|||||||||||||VOGABP||||||||||120|CCC HRK CAMEL BW 2013|121|Horeca|0
0|FS867626|2013-04-19 22:35:57||||M|||||||||||||CABK||||||||||120|CCC HRK CAMEL BW 2013|121|Horeca|0
0|FS869907|2013-04-20 19:07:19||||F|||||||||||||DUNFCBB||||||||||120|CCC HRK CAMEL BW 2013|121|Horeca|0
0|FS869910|2013-04-20 19:07:38||||M|||||||||||||DUNFCMBB||||||||||120|CCC HRK CAMEL BW 2013|121|Horeca|0
0|FS870009|2013-04-20 19:35:25||||F|||||||||||||KTBL||||||||||120|CCC HRK CAMEL BW 2013|121|Horeca|0
0|FS870020|2013-04-20 19:38:32||||F|||||||||||||VOGM||||||||||120|CCC HRK CAMEL BW 2013|121|Horeca|0
0|FS870060|2013-04-20 19:49:03||||F|||||||||||||MBRGL||||||||||120|CCC HRK CAMEL BW 2013|121|Horeca|0
0|FS870062|2013-04-20 19:49:26||||F|||||||||||||PMSSBL||||||||||120|CCC HRK CAMEL BW 2013|121|Horeca|0
0|FS870064|2013-04-20 19:49:53||||F|||||||||||||VOGLL||||||||||120|CCC HRK CAMEL BW 2013|121|Horeca|0
0|FS870126|2013-04-20 20:02:12||||F|||||||||||||MBRFP||||||||||120|CCC HRK CAMEL BW 2013|121|Horeca|0
0|FS870128|2013-04-20 20:02:49||||F|||||||||||||MBRGLT||||||||||120|CCC HRK CAMEL BW 2013|121|Horeca|0
0|FS870187|2013-04-20 20:12:30||||F|||||||||||||KTSWIT||||||||||120|CCC HRK CAMEL BW 2013|121|Horeca|0
0|FS870249|2013-04-20 20:18:12||||M|||||||||||||KTBL||||||||||120|CCC HRK CAMEL BW 2013|121|Horeca|0
0|FS870441|2013-04-20 20:59:23||||F|||||||||||||KTSV||||||||||120|CCC HRK CAMEL BW 2013|121|Horeca|0
0|FS870667|2013-04-20 21:47:14||||M|||||||||||||MBRFPEX||||||||||120|CCC HRK CAMEL BW 2013|121|Horeca|0
0|FS870743|2013-04-20 21:55:58||||F|||||||||||||GLMMNT||||||||||120|CCC HRK CAMEL BW 2013|121|Horeca|0
0|FS870840|2013-04-20 22:17:35||||F|||||||||||||VIRSM||||||||||120|CCC HRK CAMEL BW 2013|121|Horeca|0
0|FS870841|2013-04-20 22:17:50||||F|||||||||||||VOGLL||||||||||120|CCC HRK CAMEL BW 2013|121|Horeca|0
0|FS870842|2013-04-20 22:18:12||||M|||||||||||||KTWH||||||||||120|CCC HRK CAMEL BW 2013|121|Horeca|0
0|FS870843|2013-04-20 22:18:26||||M|||||||||||||LSRD||||||||||120|CCC HRK CAMEL BW 2013|121|Horeca|0
0|FS870860|2013-04-20 22:24:53||||M|||||||||||||SBKSBL||||||||||120|CCC HRK CAMEL BW 2013|121|Horeca|0
0|FS871007|2013-04-20 22:55:48||||M|||||||||||||LMSV||||||||||120|CCC HRK CAMEL BW 2013|121|Horeca|0
0|FS871009|2013-04-20 22:56:00||||F|||||||||||||PARRSSH||||||||||120|CCC HRK CAMEL BW 2013|121|Horeca|0
0|FS871032|2013-04-20 23:04:28||||M|||||||||||||KTWH||||||||||120|CCC HRK CAMEL BW 2013|121|Horeca|0
0|FS871037|2013-04-20 23:05:03||||F|||||||||||||DUNFCBB||||||||||120|CCC HRK CAMEL BW 2013|121|Horeca|0
0|FS871038|2013-04-20 23:05:04||||F|||||||||||||VOGLL||||||||||120|CCC HRK CAMEL BW 2013|121|Horeca|0
0|FS871039|2013-04-20 23:05:07||||M|||||||||||||KTSV||||||||||120|CCC HRK CAMEL BW 2013|121|Horeca|0
