0|CS3406883|2013-06-09 00:21:40|Badescu|Ana Maria||F|1987-12-16|Bucuresti|SECTOR 4|Spinis|4|||||0762724145||Badescu_ana@yahoo.com|KTSWIT|GLPBMNFT|0 Sobranie SS Menthol (5 mg) Pack|Yes|Yes||BW031588|TWINS CAFE SRL STUDIO|Bucuresti|BWEVENTBA12|108|CCC EVENT SOBR FAM Fratelli 2013|121|Horeca|0
0|CS3406886|2013-06-09 00:22:41|Pastrav|Roxana||F|1981-08-22|Bucuresti|SECTOR 3|Odobesti|17|||||0734101337||Roxana.cristinap@yahoo.com|VIRSM||0 Sobranie SS Menthol (5 mg) Pack|Yes|Yes||BW031588|TWINS CAFE SRL STUDIO|Bucuresti|BWEVENTBA11|108|CCC EVENT SOBR FAM Fratelli 2013|121|Horeca|0
0|CS3406893|2013-06-09 00:24:38|Dragomir|Diana|2880708011162|F|1988-07-08|Bucuresti|SECTOR 3|Burnitei|60-62|||||0747085406||Diana.ioana25@yahoo.com|SBSSPK||0 Sobranie SS Pink (3mg) Pack|Yes|Yes||BW031588|TWINS CAFE SRL STUDIO|Bucuresti|BWEVENTBA12|108|CCC EVENT SOBR FAM Fratelli 2013|121|Horeca|0
0|CS3406897|2013-06-09 00:25:59|Ciupeica|Sorin||M|1983-01-22|Bucuresti|SECTOR 3|Ticus|3|||||0731670285||Ciupeicasorin@yahoo.com|KTSV||0 Sobranie KS Gold  (4mg) Pack|Yes|Yes||BW031588|TWINS CAFE SRL STUDIO|Bucuresti|BWEVENTBA11|108|CCC EVENT SOBR FAM Fratelli 2013|121|Horeca|0
0|CS3406899|2013-06-09 00:26:27|Abu lail|Acram||M|1956-02-25|Bucuresti|SECTOR 6|Muntilor|24|||||0744700111|||VOGBL||0 Sobranie SS Black (6mg) Pack|Yes|Yes||BW031588|TWINS CAFE SRL STUDIO|Bucuresti|BWEVENTBA10|108|CCC EVENT SOBR FAM Fratelli 2013|121|Horeca|0
0|CS3406901|2013-06-09 00:26:52|Fernando|Costa||M|1970-10-07|Bucuresti|SECTOR 1|Oxford|2|||||0721968521||Fernando.reinodacosta@gmail.com|MBRGLFT||0 Sobranie KS Gold  (4mg) Pack|Yes|Yes||BW031588|TWINS CAFE SRL STUDIO|Bucuresti|BWEVENTBA02|108|CCC EVENT SOBR FAM Fratelli 2013|121|Horeca|0
0|CS3406904|2013-06-09 00:27:45|Bugheciu|Florin||M|1982-08-01|Bucuresti|SECTOR 6|Cupolei|2|||||0725579534||Florin.bugheciu@yahoo.com|KTWH||0 Sobranie SS White (1mg) Pack|Yes|Yes||BW031588|TWINS CAFE SRL STUDIO|Bucuresti|BWEVENTBA11|108|CCC EVENT SOBR FAM Fratelli 2013|121|Horeca|0
0|CS3406906|2013-06-09 00:28:14|Florescu|Luciana||F|1986-06-30|Bucuresti|SECTOR 1|Doctor felix|59|1|1|9|38|0751144906||Luciana_floreascu@yahoo.com|GLMBL||0 Sobranie SS Pink (3mg) Pack|Yes|Yes||BW031588|TWINS CAFE SRL STUDIO|Bucuresti|BWEVENTBA28|108|CCC EVENT SOBR FAM Fratelli 2013|121|Horeca|0
0|CS3406907|2013-06-09 00:28:37|Matei|Anca||F|1981-05-12|Bucuresti|SECTOR 2|Zambila Ionita|1|||||0762466615||Ancamateiaurelia@yahoo.com|KTBL||0 Sobranie KS Black (8mg) Pack|Yes|Yes||BW031588|TWINS CAFE SRL STUDIO|Bucuresti|BWEVENTBA12|108|CCC EVENT SOBR FAM Fratelli 2013|121|Horeca|0
0|CS3406908|2013-06-09 00:29:37|Axinteoaei|Oana||F|1986-04-19|Bucuresti|SECTOR 3|Decebal|16|S5|A|6|16|0748060420||Georgianamk@gmail.com|VOGDV||0 Sobranie SS Black (6mg) Pack|Yes|Yes||BW031588|TWINS CAFE SRL STUDIO|Bucuresti|BWEVENTBA10|108|CCC EVENT SOBR FAM Fratelli 2013|121|Horeca|0
0|CS3406910|2013-06-09 00:30:09|Avramita|Gabriela||F|1988-06-14|Bucuresti|SECTOR 5|Dorneasca|7|P75|2|1|32|0756142215||Gabrielaavramita@yahoo.com|SBSSPK||0 Sobranie SS Pink (3mg) Pack|Yes|Yes||BW031588|TWINS CAFE SRL STUDIO|Bucuresti|BWEVENTBA02|108|CCC EVENT SOBR FAM Fratelli 2013|121|Horeca|0
0|CS3406911|2013-06-09 00:30:16|Stana|Loredana||F|1980-12-14|Valcea|RAMNICU VALCEA|Carol i|39|||||0752201090||Loredanastana@ymail.com|SBSSPK||0 Sobranie SS Pink (3mg) Pack|Yes|Yes||BW031588|TWINS CAFE SRL STUDIO|Bucuresti|BWEVENTBA28|108|CCC EVENT SOBR FAM Fratelli 2013|121|Horeca|0
0|CS3406912|2013-06-09 00:30:21|Belingher|Daniel||M|1985-04-27|Bucuresti|SECTOR 2|Kepler|2|||||0722337096||Danbelingher@me.com|DAVGL||0 Sobranie KS Blue (6mg) Pack|Yes|Yes||BW031588|TWINS CAFE SRL STUDIO|Bucuresti|BWEVENTBA11|108|CCC EVENT SOBR FAM Fratelli 2013|121|Horeca|0
0|CS3406913|2013-06-09 00:30:46|Filip|Cristiana||F|1985-11-03|Constanta|CONSTANTA|Traian|34|||||0724942676||Cristiana_flp@yahoo.com|DAVGLS||0 Sobranie SS Black (6mg) Pack|Yes|Yes||BW031588|TWINS CAFE SRL STUDIO|Bucuresti|BWEVENTBA14|108|CCC EVENT SOBR FAM Fratelli 2013|121|Horeca|0
0|CS3406915|2013-06-09 00:31:29|Popescu|Bogdan|1821125460035|M|1982-11-25|Bucuresti|SECTOR 2|Doamna ghica|1|1|1|9|37|0723122208||Bbogdanpop@gmail.com|DUNBL||0 Sobranie KS Blue (6mg) Pack|Yes|Yes||BW031588|TWINS CAFE SRL STUDIO|Bucuresti|BWEVENTBA10|108|CCC EVENT SOBR FAM Fratelli 2013|121|Horeca|0
0|CS3406917|2013-06-09 00:32:19|Avramita|Raluca||F|1980-12-21|Bucuresti|SECTOR 6|Valea oltului|139-14|P|2|3|52|0720563181||laura19802003@yahoo.com|DUNFCBB||0 Sobranie KS Gold  (4mg) Pack|Yes|Yes||BW031588|TWINS CAFE SRL STUDIO|Bucuresti|BWEVENTBA02|108|CCC EVENT SOBR FAM Fratelli 2013|121|Horeca|0
0|CS3406919|2013-06-09 00:32:30|Caratas|Elena||F|1983-04-22|Bucuresti|SECTOR 2|Pasarani|33|Na|Na|0|0|0734310049||elena.georgiana.caratas@gmail.com|PMSSBL||0 Sobranie SS Black (6mg) Pack|No|Yes||BW031588|TWINS CAFE SRL STUDIO|Bucuresti|BWEVENTBA14|108|CCC EVENT SOBR FAM Fratelli 2013|121|Horeca|0
0|CS3406920|2013-06-09 00:32:39|Muja|Alexandra||F|1988-06-11|Valcea|RAMNICU VALCEA|General magheru|5|C|A|1|1|0722559226||Alexandra_m_m@yahoo.com|SBSSBK||0 Sobranie SS Black (6mg) Pack|Yes|Yes||BW031588|TWINS CAFE SRL STUDIO|Bucuresti|BWEVENTBA28|108|CCC EVENT SOBR FAM Fratelli 2013|121|Horeca|0
0|CS3406921|2013-06-09 00:33:20|Pasalan|Alexandru||M|1984-08-30|Bucuresti|SECTOR 1|Emanoil porumbaru|52|||||0722228921||A_lexx6@yahoo.co.uk|KTH||0 Sobranie KS Black (8mg) Pack|Yes|Yes||BW031588|TWINS CAFE SRL STUDIO|Bucuresti|BWEVENTBA11|108|CCC EVENT SOBR FAM Fratelli 2013|121|Horeca|0
0|CS3406922|2013-06-09 00:33:30|Bustamante|Conchi||F|1979-12-29|Bucuresti|SECTOR 4|Ienachita Vacarcu|34|||||0756592814||conchi_bustamante@hotmail.com|SBKSBK||0 Sobranie KS Black (8mg) Pack|Yes|Yes||BW031588|TWINS CAFE SRL STUDIO|Bucuresti|BWEVENTBA12|108|CCC EVENT SOBR FAM Fratelli 2013|121|Horeca|0
0|CS3406923|2013-06-09 00:33:46|Caratas|Mirela||F|1987-06-14|Bucuresti|SECTOR 2|Pasarani|33|||0|0|0764454164||mirela.caratasi@yahoo.com|PMSSBL||0 Sobranie SS Black (6mg) Pack|No|Yes||BW031588|TWINS CAFE SRL STUDIO|Bucuresti|BWEVENTBA14|108|CCC EVENT SOBR FAM Fratelli 2013|121|Horeca|0
0|CS3406925|2013-06-09 00:34:28|Negrescu|Daniel|1810723430057|M|1981-07-23|Bucuresti|4|Padesu|14|14|||22|0724936302||d.negrescu@me.com|PARSB||0 Sobranie KS Gold  (4mg) Pack|Yes|Yes||BW031588|TWINS CAFE SRL STUDIO|Bucuresti|BWEVENTBA10|108|CCC EVENT SOBR FAM Fratelli 2013|121|Horeca|0
0|CS3406926|2013-06-09 00:34:37|Paunescu|Irina||F|1985-03-15|Bucuresti|SECTOR 5|Ionita cegan|3|P27|1|3|10|0724508214||paunescuirina1@yahoo.com|VOGBL||0 Sobranie SS Black (6mg) Pack|Yes|Yes||BW031588|TWINS CAFE SRL STUDIO|Bucuresti|BWEVENTBA28|108|CCC EVENT SOBR FAM Fratelli 2013|121|Horeca|0
0|CS3406928|2013-06-09 00:35:11|Savulescu|Ruxandra||F|1981-08-15|Bucuresti|SECTOR 1|Putul lui Zamfir|3|||||0722820816||ruxndrasavulescu@gmail.com|VIRSV||0 Sobranie SS Pink (3mg) Pack|Yes|Yes||BW031588|TWINS CAFE SRL STUDIO|Bucuresti|BWEVENTBA02|108|CCC EVENT SOBR FAM Fratelli 2013|121|Horeca|0
0|CS3406930|2013-06-09 00:36:34|Dumitrascu|Adriana||F|1982-03-09|Prahova|Prahova|Gheorghe doja|154|||0|0|0728943073||adr212003@yahoo.com|KTNWH||0 Sobranie SS White (1mg) Pack|Yes|Yes||BW031588|TWINS CAFE SRL STUDIO|Bucuresti|BWEVENTBA10|108|CCC EVENT SOBR FAM Fratelli 2013|121|Horeca|0
0|CS3406932|2013-06-09 00:36:43|Filip|Cristina||F|1982-09-05|Bucuresti|SECTOR 3|Papazoglu|10|C6||8|35|0757577800||cristinavaleanu@hotmail.com|SBSSPK||0 Sobranie SS Pink (3mg) Pack|Yes|Yes||BW031588|TWINS CAFE SRL STUDIO|Bucuresti|BWEVENTBA28|108|CCC EVENT SOBR FAM Fratelli 2013|121|Horeca|0
0|CS3406933|2013-06-09 00:36:50|Niculae|Adina||F|1976-06-06|Bucuresti|SECTOR 1|Calea dorobanti|7|||||0723238718||Adina0606@ymail.com|PARRSSH||0 Sobranie KS Black (8mg) Pack|Yes|Yes||BW031588|TWINS CAFE SRL STUDIO|Bucuresti|BWEVENTBA12|108|CCC EVENT SOBR FAM Fratelli 2013|121|Horeca|0
0|CS3406934|2013-06-09 00:36:59|Parvu|Alexandru||M|1986-08-08|Bucuresti|SECTOR 3|Campia libertatii|46|||||0723493952||Alexandru.parvu@gmail.com|DAVGL||0 Sobranie KS Blue (6mg) Pack|Yes|Yes||BW031588|TWINS CAFE SRL STUDIO|Bucuresti|BWEVENTBA11|108|CCC EVENT SOBR FAM Fratelli 2013|121|Horeca|0
0|CS3406935|2013-06-09 00:37:11|Duta|Iulia||F|1986-07-06|Bucuresti|SECTOR 6|Timisoara|69a|||||0722404920||Duta.iulia@gmail.com|VIRSV||0 Sobranie SS White (1mg) Pack|Yes|Yes||BW031588|TWINS CAFE SRL STUDIO|Bucuresti|BWEVENTBA14|108|CCC EVENT SOBR FAM Fratelli 2013|121|Horeca|0
0|CS3406936|2013-06-09 00:37:32|Radu|Teodora||F|1980-10-10|Bucuresti|SECTOR 1|Ion mihalache|62|40|2|2|60|0756163089||lungu_oana@hotmail.com|VOGM||0 Sobranie SS Menthol (5 mg) Pack|Yes|Yes||BW031588|TWINS CAFE SRL STUDIO|Bucuresti|BWEVENTBA02|108|CCC EVENT SOBR FAM Fratelli 2013|121|Horeca|0
0|CS3406938|2013-06-09 00:38:43|Olteanu|Diana||F|1986-03-08|Bucuresti|2|Ghica tei|89|||0|0|0767334033||diana.olteanu@yahoo.com|DUNFCBB||0 Sobranie KS Gold  (4mg) Pack|Yes|Yes||BW031588|TWINS CAFE SRL STUDIO|Bucuresti|BWEVENTBA14|108|CCC EVENT SOBR FAM Fratelli 2013|121|Horeca|0
0|CS3406940|2013-06-09 00:39:29|Parvu|Gabriel||M|1986-08-08|Bucuresti|SECTOR 3|Campia libertatii|46|||||0767136330||Teddykiller@yahoo.com|DAVGL||0 Sobranie KS Blue (6mg) Pack|Yes|Yes||BW031588|TWINS CAFE SRL STUDIO|Bucuresti|BWEVENTBA11|108|CCC EVENT SOBR FAM Fratelli 2013|121|Horeca|0
0|CS3406941|2013-06-09 00:39:53|Raileanu|Roxana|2850910133921|F|1985-09-10|Bucuresti|SECTOR 5|Barca|11|||||0724385582||Roxanaelena.raileanu@gmail.com|PARRSSH||0 Sobranie SS Pink (3mg) Pack|Yes|Yes||BW031588|TWINS CAFE SRL STUDIO|Bucuresti|BWEVENTBA10|108|CCC EVENT SOBR FAM Fratelli 2013|121|Horeca|0
0|CS3406942|2013-06-09 00:39:57|Ivanescu|Razvan||M|1978-03-08|Bucuresti|SECTOR 1|Radu Beller|6|||||0722259883||Razvan@valor.ro|KTSV||0 Sobranie KS Gold  (4mg) Pack|Yes|Yes||BW031588|TWINS CAFE SRL STUDIO|Bucuresti|BWEVENTBA12|108|CCC EVENT SOBR FAM Fratelli 2013|121|Horeca|0
0|CS3406944|2013-06-09 00:40:20|Dumitrescu|Diana||F|1983-02-05|Bucuresti|SECTOR 2|Deleni|6|64|2|8|71|0724365900||Adriana.dumitrescu05@yahoo.com|PARRSSH||0 Sobranie SS Black (6mg) Pack|Yes|Yes||BW031588|TWINS CAFE SRL STUDIO|Bucuresti|BWEVENTBA28|108|CCC EVENT SOBR FAM Fratelli 2013|121|Horeca|0
0|CS3406948|2013-06-09 00:40:59|Treyer|Frederic||M|1964-02-21|Bucuresti|SECTOR 1|Lutherana|5|||||0733671698||fredtreyer@hotmail.com|KTBL||0 Sobranie KS Black (8mg) Pack|Yes|Yes||BW031588|TWINS CAFE SRL STUDIO|Bucuresti|BWEVENTBA02|108|CCC EVENT SOBR FAM Fratelli 2013|121|Horeca|0
0|CS3406950|2013-06-09 00:41:15|Ionita|Silvia||F|1986-07-08|Bucuresti|SECTOR 6|Baiuti|11|||||0755209708||Silvia.ionita86@yahoo.com|VOGM||0 Sobranie SS Menthol (5 mg) Pack|Yes|Yes||BW031588|TWINS CAFE SRL STUDIO|Bucuresti|BWEVENTBA14|108|CCC EVENT SOBR FAM Fratelli 2013|121|Horeca|0
0|CS3406952|2013-06-09 00:42:05|Neagu|Cristiana||F|1985-09-07|Constanta|CONSTANTA|Soveja|69|4-3|D|2|35|0724881375||Neagu_cristiana@yahoo.com|VIRSM||0 Sobranie SS Menthol (5 mg) Pack|Yes|Yes||BW031588|TWINS CAFE SRL STUDIO|Bucuresti|BWEVENTBA10|108|CCC EVENT SOBR FAM Fratelli 2013|121|Horeca|0
0|CS3406954|2013-06-09 00:42:35|Balahura|Razvan ionut||M|1986-11-18|Bucuresti|SECTOR 6|Vlasiei|4|||||0765331887||Razvan18111986@yahoo.com|MBRRDH||0 Sobranie KS Black (8mg) Pack|Yes|Yes||BW031588|TWINS CAFE SRL STUDIO|Bucuresti|BWEVENTBA11|108|CCC EVENT SOBR FAM Fratelli 2013|121|Horeca|0
0|CS3406955|2013-06-09 00:42:59|Dragostin|Diana||F|1986-05-10|Bucuresti|SECTOR 6|Valea lui mihai|4|||||0758300080||Diana.dragostin@yahoo.com|SBSSWH||0 Sobranie SS White (1mg) Pack|Yes|Yes||BW031588|TWINS CAFE SRL STUDIO|Bucuresti|BWEVENTBA14|108|CCC EVENT SOBR FAM Fratelli 2013|121|Horeca|0
0|CS3406957|2013-06-09 00:43:04|Iancu|Constantin||M|1964-08-07|Bucuresti|SECTOR 1|Nicolae Racota|1|||||0746368911||Costi@superposter.ro|KTSV||0 Sobranie KS Gold  (4mg) Pack|Yes|Yes||BW031588|TWINS CAFE SRL STUDIO|Bucuresti|BWEVENTBA12|108|CCC EVENT SOBR FAM Fratelli 2013|121|Horeca|0
0|CS3406958|2013-06-09 00:43:17|Mititelu|Andrei||M|1986-10-31|Bucuresti|SECTOR 6|Drumul taberei|23|C|A|4|68|0766730523||Andrrey855@yahoo.com|KTWH||0 Sobranie SS White (1mg) Pack|Yes|Yes||BW031588|TWINS CAFE SRL STUDIO|Bucuresti|BWEVENTBA28|108|CCC EVENT SOBR FAM Fratelli 2013|121|Horeca|0
0|CS3406960|2013-06-09 00:43:54|Asofronie|Ela||F|1979-08-08|Bucuresti|SECTOR 1|Blv Alexandru IoanCuza|98a|1|1|6|28|0742766364||elaaso@yahoo.com|SBSSWH||0 Sobranie SS White (1mg) Pack|Yes|Yes||BW031588|TWINS CAFE SRL STUDIO|Bucuresti|BWEVENTBA02|108|CCC EVENT SOBR FAM Fratelli 2013|121|Horeca|0
0|CS3406964|2013-06-09 00:44:54|Radu|Cosmina||F|1982-01-02|Bucuresti|SECTOR 4|Izvorul rece|3|||||0731730577||Cosmina.radu@yahoo.com|SBSSPK||0 Sobranie SS Pink (3mg) Pack|Yes|Yes||BW031588|TWINS CAFE SRL STUDIO|Bucuresti|BWEVENTBA11|108|CCC EVENT SOBR FAM Fratelli 2013|121|Horeca|0
0|CS3406965|2013-06-09 00:45:02|Muresan|Ramona||F|1979-10-24|Bucuresti|SECTOR 3|Titan|8|||||0744981326||Ramaesop@yahoo.com|DUNFCBB||0 Sobranie KS Gold  (4mg) Pack|Yes|Yes||BW031588|TWINS CAFE SRL STUDIO|Bucuresti|BWEVENTBA14|108|CCC EVENT SOBR FAM Fratelli 2013|121|Horeca|0
0|CS3406966|2013-06-09 00:45:06|Buscan|Daniela||F|1985-08-11|Bucuresti|SECTOR 1|Vrancioaia|12|||||0727371266||Daniela.buscan@yahoo.com|MBRGLT||0 Sobranie KS Gold  (4mg) Pack|Yes|Yes||BW031588|TWINS CAFE SRL STUDIO|Bucuresti|BWEVENTBA10|108|CCC EVENT SOBR FAM Fratelli 2013|121|Horeca|0
0|CS3406968|2013-06-09 00:45:30|Demirule|Dan||M|1981-06-11|Bucuresti|SECTOR 2|Ceaikovski|14|||||0724473332||Demydan1181@gmail.com|SBKSGD||0 Sobranie KS Gold  (4mg) Pack|Yes|Yes||BW031588|TWINS CAFE SRL STUDIO|Bucuresti|BWEVENTBA12|108|CCC EVENT SOBR FAM Fratelli 2013|121|Horeca|0
0|CS3406970|2013-06-09 00:46:39|Popa|Natalia||F|1978-12-30|Bucuresti|SECTOR 3|Intrarea Parului|21|||5|21|0722590413||popa_nataliaoana@yahoo.com|PARRSSH||0 Sobranie SS Black (6mg) Pack|Yes|Yes||BW031588|TWINS CAFE SRL STUDIO|Bucuresti|BWEVENTBA28|108|CCC EVENT SOBR FAM Fratelli 2013|121|Horeca|0
0|CS3406972|2013-06-09 00:46:57|Vitalai|Nicoleta||F|1979-09-15|Bucuresti|SECTOR 1|Turda|121|||||0723131574||Nicole_sandu@yahoo.com|VOGLL||0 Sobranie SS Pink (3mg) Pack|Yes|Yes||BW031588|TWINS CAFE SRL STUDIO|Bucuresti|BWEVENTBA14|108|CCC EVENT SOBR FAM Fratelli 2013|121|Horeca|0
0|CS3406973|2013-06-09 00:47:22|Tane|Emanuela||F|1974-06-02|Bucuresti|SECTOR 5|Calea rahovei|330|M56|2|1|7|0749029179||ela.tane@gsp.ro|DAVGL||0 Sobranie KS Gold  (4mg) Pack|Yes|Yes||BW031588|TWINS CAFE SRL STUDIO|Bucuresti|BWEVENTBA02|108|CCC EVENT SOBR FAM Fratelli 2013|121|Horeca|0
0|CS3406974|2013-06-09 00:47:39|Sebe|Mariana||F|1985-11-12|Bucuresti|SECTOR 3|Camil Ressu|10|3|3|7|118|0749033349||mariana.sebe@morethanpub.ro|SBSSWH||0 Sobranie SS White (1mg) Pack|Yes|Yes||BW031588|TWINS CAFE SRL STUDIO|Bucuresti|BWEVENTBA11|108|CCC EVENT SOBR FAM Fratelli 2013|121|Horeca|0
0|CS3406975|2013-06-09 00:47:56|Bita|Crenguta||F|1981-02-17|Bucuresti|SECTOR 5|Nasaud|68|||0|0|0748883226||crenguta.bita@mfinante.ro|VOGM||0 Sobranie SS Menthol (5 mg) Pack|Yes|Yes||BW031588|TWINS CAFE SRL STUDIO|Bucuresti|BWEVENTBA28|108|CCC EVENT SOBR FAM Fratelli 2013|121|Horeca|0
0|CS3406976|2013-06-09 00:47:57|Guramulta|Stefan|1841211046280|M|1984-12-11|Bucuresti|SECTOR 1|Dorobanti|168|15|1|1|44|0742214054||Stefanguramulta@legal4you.ro|DUNFCMBB||0 Sobranie KS Blue (6mg) Pack|Yes|Yes||BW031588|TWINS CAFE SRL STUDIO|Bucuresti|BWEVENTBA10|108|CCC EVENT SOBR FAM Fratelli 2013|121|Horeca|0
0|CS3406978|2013-06-09 00:48:30|Rudnitky|Constantin||M|1977-10-25|Bucuresti|SECTOR 3|Corneliu Coposu|7|||||0723540808||Gugulloi666@gmail.com|KTSV||0 Sobranie KS Gold  (4mg) Pack|Yes|Yes||BW031588|TWINS CAFE SRL STUDIO|Bucuresti|BWEVENTBA12|108|CCC EVENT SOBR FAM Fratelli 2013|121|Horeca|0
0|CS3406979|2013-06-09 00:48:43|Popa|Ioana||F|1987-02-02|Bucuresti|SECTOR 2|Stefan cel mare|32|||||0729093618||Ioana.manac@gmail.com|PMBL||0 Sobranie KS Blue (6mg) Pack|No|Yes||BW031588|TWINS CAFE SRL STUDIO|Bucuresti|BWEVENTBA14|108|CCC EVENT SOBR FAM Fratelli 2013|121|Horeca|0
0|CS3406982|2013-06-09 00:49:18|Ittu|Elisabeta||F|1983-07-12|Bucuresti|SECTOR 1|Frumoasa|5|||||0734980112||fashiontattoo@yahoo.com|KTWH||0 Sobranie SS White (1mg) Pack|Yes|Yes||BW031588|TWINS CAFE SRL STUDIO|Bucuresti|BWEVENTBA02|108|CCC EVENT SOBR FAM Fratelli 2013|121|Horeca|0
0|CS3406983|2013-06-09 00:49:21|Constantinescu|Alexandra||F|1988-02-14|Bucuresti|SECTOR 2|Brana|21|||0|0|0726836576||alexandra142006@yahoo.com|VOGLL||0 Sobranie SS Pink (3mg) Pack|Yes|Yes||BW031588|TWINS CAFE SRL STUDIO|Bucuresti|BWEVENTBA11|108|CCC EVENT SOBR FAM Fratelli 2013|121|Horeca|0
0|CS3406985|2013-06-09 00:50:44|Daia|Stefan|1811005430065|M|1981-10-05|Bucuresti|SECTOR 5|Modoran ene|15|M174|A|4|23|0756258904||Stefand2004@yahoo.com|PMSSBL||0 Sobranie SS Black (6mg) Pack|No|Yes||BW031588|TWINS CAFE SRL STUDIO|Bucuresti|BWEVENTBA10|108|CCC EVENT SOBR FAM Fratelli 2013|121|Horeca|0
0|CS3406986|2013-06-09 00:50:48|Panait|Monica||F|1985-09-17|Bucuresti|SECTOR 6|Crangasi|14|40|A|5|18|0743781417||panaitramona@yahoo.com|VOGABP||0 Sobranie SS Black (6mg) Pack|Yes|Yes||BW031588|TWINS CAFE SRL STUDIO|Bucuresti|BWEVENTBA28|108|CCC EVENT SOBR FAM Fratelli 2013|121|Horeca|0
0|CS3406987|2013-06-09 00:50:58|Calu|Alex||M|1984-12-11|Bucuresti|SECTOR 1|Crinului|26|||||0726527099||Ionutcalu@yahoo.com|KTSV||0 Sobranie KS Gold  (4mg) Pack|Yes|Yes||BW031588|TWINS CAFE SRL STUDIO|Bucuresti|BWEVENTBA12|108|CCC EVENT SOBR FAM Fratelli 2013|121|Horeca|0
0|CS3406989|2013-06-09 00:51:26|Scornea|Madalina||F|1983-08-17|Bucuresti|SECTOR 6|Sibiu|35|Z12|1|2|17|0756438222||butterfly17_22@yahoo.con|KTBL||0 Sobranie KS Black (8mg) Pack|Yes|Yes||BW031588|TWINS CAFE SRL STUDIO|Bucuresti|BWEVENTBA02|108|CCC EVENT SOBR FAM Fratelli 2013|121|Horeca|0
0|CS3406991|2013-06-09 00:51:55|Sunda|Dumitru||M|1985-05-10|Ilfov|PIPERA|Pipera|40|||||0733333373|||KTSV||0 Sobranie KS Gold  (4mg) Pack|Yes|Yes||BW031588|TWINS CAFE SRL STUDIO|Bucuresti|BWEVENTBA14|108|CCC EVENT SOBR FAM Fratelli 2013|121|Horeca|0
0|CS3406994|2013-06-09 00:52:19|Dobre|Alexandra||F|1986-09-19|Bucuresti|SECTOR 5|Baltagului|4|||0|0|0733674243||alexandra_md86@yahoo.com|KTBL6||0 Sobranie KS Blue (6mg) Pack|Yes|Yes||BW031588|TWINS CAFE SRL STUDIO|Bucuresti|BWEVENTBA28|108|CCC EVENT SOBR FAM Fratelli 2013|121|Horeca|0
0|CS3406995|2013-06-09 00:53:09|Sertov|Costin||M|1981-02-09|Bucuresti|SECTOR 2|Bld ghica tei|112|||0|0|0722400419||sertov@me.com|DUNFCMBB||0 Sobranie KS Blue (6mg) Pack|Yes|Yes||BW031588|TWINS CAFE SRL STUDIO|Bucuresti|BWEVENTBA14|108|CCC EVENT SOBR FAM Fratelli 2013|121|Horeca|0
0|CS3406997|2013-06-09 00:53:24|Cocos|Florin|1841119460010|M|1984-11-19|Bucuresti|SECTOR 4|Argeselu|3|A4|1|4|14|0722220057||Coocs_mariusflirin@yahoo.com|DUNFCBB||0 Sobranie KS Gold  (4mg) Pack|Yes|Yes||BW031588|TWINS CAFE SRL STUDIO|Bucuresti|BWEVENTBA10|108|CCC EVENT SOBR FAM Fratelli 2013|121|Horeca|0
0|CS3406998|2013-06-09 00:53:38|Pruteanu|Andreea||F|1984-03-14|Bucuresti|SECTOR 3|Camil Ressu|33|||||0723425930||Pruteanuandreea@yahoo.com|KTSV||0 Sobranie KS Gold  (4mg) Pack|Yes|Yes||BW031588|TWINS CAFE SRL STUDIO|Bucuresti|BWEVENTBA12|108|CCC EVENT SOBR FAM Fratelli 2013|121|Horeca|0
0|CS3406999|2013-06-09 00:54:05|Sihleanu|Florentina||F|1989-03-25|Bucuresti|SECTOR 6|Virtutii|7|R3|A|3|10|0766614585||florentinasihleanu@yahoo.com|VIRSM||0 Sobranie SS Menthol (5 mg) Pack|Yes|Yes||BW031588|TWINS CAFE SRL STUDIO|Bucuresti|BWEVENTBA28|108|CCC EVENT SOBR FAM Fratelli 2013|121|Horeca|0
0|CS3407000|2013-06-09 00:54:07|Puscasu|Mirela||F|1987-05-13|Bucuresti|SECTOR 3|Nicolae caramfil|21|||||0737511490||Puscasu_m@gmail.com|GLMMNT||0 Sobranie SS Menthol (5 mg) Pack|Yes|Yes||BW031588|TWINS CAFE SRL STUDIO|Bucuresti|BWEVENTBA11|108|CCC EVENT SOBR FAM Fratelli 2013|121|Horeca|0
0|CS3407001|2013-06-09 00:55:06|Canaj|Liliana||F|1982-08-26|Bucuresti|SECTOR 1|Intrare doctor felix|2|||0|0|0724448365||boni999lili@yahoo.com|KTNWH||0 Sobranie SS White (1mg) Pack|Yes|Yes||BW031588|TWINS CAFE SRL STUDIO|Bucuresti|BWEVENTBA10|108|CCC EVENT SOBR FAM Fratelli 2013|121|Horeca|0
0|CS3407003|2013-06-09 00:55:17|Lica|Valentina||F|1990-12-18|Bucuresti|SECTOR 3|Caprioara|17|||||0761202587||Lica.valentina@yahoo.com|VOGLL||0 Sobranie SS Pink (3mg) Pack|Yes|Yes||BW031588|TWINS CAFE SRL STUDIO|Bucuresti|BWEVENTBA14|108|CCC EVENT SOBR FAM Fratelli 2013|121|Horeca|0
0|CS3407007|2013-06-09 00:56:40|Vorlas|Nikos||M|1975-04-24|Bucuresti|SECTOR 1|Maria rosetti|1|||||0722298737||nvoroas@yahoo.com|MBRFP||0 Sobranie KS Blue (6mg) Pack|Yes|Yes||BW031588|TWINS CAFE SRL STUDIO|Bucuresti|BWEVENTBA02|108|CCC EVENT SOBR FAM Fratelli 2013|121|Horeca|0
0|CS3407009|2013-06-09 00:57:14|Nastac|Corina||F|1987-02-14|Bucuresti|SECTOR 3|Nerva Traian|35|||||0746386893||Av.corinanastac@gmail.com|MBRFPEX||0 Sobranie KS Gold  (4mg) Pack|Yes|Yes||BW031588|TWINS CAFE SRL STUDIO|Bucuresti|BWEVENTBA12|108|CCC EVENT SOBR FAM Fratelli 2013|121|Horeca|0
0|CS3407010|2013-06-09 00:57:59|Finariu|Elena||F|1989-10-18|Bucuresti|SECTOR 4|Resita|25|51|2|10|129|0733309419||elenafinari@yahoo.com|GLMMNT||0 Sobranie SS Menthol (5 mg) Pack|Yes|Yes||BW031588|TWINS CAFE SRL STUDIO|Bucuresti|BWEVENTBA14|108|CCC EVENT SOBR FAM Fratelli 2013|121|Horeca|0
0|CS3407011|2013-06-09 00:58:07|Ungureanu|Alexandru|1790128290909|M|1979-01-28|Prahova|CAMPINA|Tudor vladimirescu|26|C4|||5|0722167462||Dralexsorinungureanu@gmail.com|MBRGLT||0 Sobranie KS Blue (6mg) Pack|Yes|Yes||BW031588|TWINS CAFE SRL STUDIO|Bucuresti|BWEVENTBA10|108|CCC EVENT SOBR FAM Fratelli 2013|121|Horeca|0
0|CS3407012|2013-06-09 00:58:37|Lascut|Dana||F|1971-07-20|Bucuresti|SECTOR 1|Louis blanc|9a|||0|0|0722331941||dana_lascut@yahoo.com|SBSSMN||0 Sobranie SS Menthol (5 mg) Pack|Yes|Yes||BW031588|TWINS CAFE SRL STUDIO|Bucuresti|BWEVENTBA02|108|CCC EVENT SOBR FAM Fratelli 2013|121|Horeca|0
0|CS3407014|2013-06-09 00:58:54|Perde|Larisa||F|1988-10-27|Botosani|BOTOSANI|Tunari|9|||||0742808507||Larisa.perde@gmail.com|KTSV||0 Sobranie KS Gold  (4mg) Pack|Yes|Yes||BW031588|TWINS CAFE SRL STUDIO|Bucuresti|BWEVENTBA28|108|CCC EVENT SOBR FAM Fratelli 2013|121|Horeca|0
0|CS3407015|2013-06-09 00:59:30|Bordei|Roxana||F|1985-11-02|Bucuresti|SECTOR 1|Frumoasa|49|||||0730198148||Bmroxanne@gmail.com|VOGLL||0 Sobranie SS Pink (3mg) Pack|Yes|Yes||BW031588|TWINS CAFE SRL STUDIO|Bucuresti|BWEVENTBA11|108|CCC EVENT SOBR FAM Fratelli 2013|121|Horeca|0
0|CS3407016|2013-06-09 00:59:59|Balan|Georgiana||F|1986-05-22|Bucuresti|SECTOR 2|Doamna ghica|1|||||0723476019||Ageorgiana@gmail.com|VOGDV||0 Sobranie SS Black (6mg) Pack|Yes|Yes||BW031588|TWINS CAFE SRL STUDIO|Bucuresti|BWEVENTBA12|108|CCC EVENT SOBR FAM Fratelli 2013|121|Horeca|0
0|CS3407017|2013-06-09 01:00:06|Iordache|Cristina||F|1989-03-25|Bucuresti|SECTOR 6|Virtutii|7|||||0757272490||Iordachecristina@yahoo.com|SBSSMN||0 Sobranie SS Menthol (5 mg) Pack|Yes|Yes||BW031588|TWINS CAFE SRL STUDIO|Bucuresti|BWEVENTBA14|108|CCC EVENT SOBR FAM Fratelli 2013|121|Horeca|0
0|CS3407019|2013-06-09 01:00:50|Oprisan|Raluca||F|1985-11-01|Bucuresti|SECTOR 3|Barbu vacarescu|6|||0|0|0758364261||oprisan_ralucaelena@yahoo.com|SBSSWH||0 Sobranie SS White (1mg) Pack|Yes|Yes||BW031588|TWINS CAFE SRL STUDIO|Bucuresti|BWEVENTBA10|108|CCC EVENT SOBR FAM Fratelli 2013|121|Horeca|0
0|CS3407022|2013-06-09 01:01:30|Popescu|Andrei||M|1989-10-17|Bucuresti|SECTOR 2|Colentina|16|B2|A|2|16|0723835370||Andrei_ptr@yahoo.com|DUNFCMBB||0 Sobranie KS Blue (6mg) Pack|Yes|Yes||BW031588|TWINS CAFE SRL STUDIO|Bucuresti|BWEVENTBA28|108|CCC EVENT SOBR FAM Fratelli 2013|121|Horeca|0
0|CS3407023|2013-06-09 01:01:31|Kacso|Roxana||F|1975-11-14|Ilfov|PIPERA|Iancu nicolae|103|||||0758777710||roxanak@blackberry.orange.ro|SBSSWH||0 Sobranie SS White (1mg) Pack|Yes|Yes||BW031588|TWINS CAFE SRL STUDIO|Bucuresti|BWEVENTBA02|108|CCC EVENT SOBR FAM Fratelli 2013|121|Horeca|0
0|CS3407024|2013-06-09 01:02:16|Gheorghe|Ana||F|1987-04-25|Bucuresti|SECTOR 3|Liviu rebreanu|23|||||0745391660||Agheorghe@gmail.com|DUNFCBB||0 Sobranie KS Gold  (4mg) Pack|Yes|Yes||BW031588|TWINS CAFE SRL STUDIO|Bucuresti|BWEVENTBA14|108|CCC EVENT SOBR FAM Fratelli 2013|121|Horeca|0
0|CS3407025|2013-06-09 01:02:48|Dinea|Iuliana||F|1974-10-08|Bucuresti|SECTOR 2|Colentina|40|71|3|8|124|0753048505||lulidinea@gmail.com|SBSSWH||0 Sobranie SS White (1mg) Pack|Yes|Yes||BW031588|TWINS CAFE SRL STUDIO|Bucuresti|BWEVENTBA12|108|CCC EVENT SOBR FAM Fratelli 2013|121|Horeca|0
0|CS3407027|2013-06-09 01:03:09|Velicu|Gabriela||F|1981-07-16|Bucuresti|SECTOR 5|Samuil vulcan|17|||0|0|0720141996||gabi1velicu@yahoo.com|SBSSWH||0 Sobranie SS White (1mg) Pack|Yes|Yes||BW031588|TWINS CAFE SRL STUDIO|Bucuresti|BWEVENTBA10|108|CCC EVENT SOBR FAM Fratelli 2013|121|Horeca|0
0|CS3407028|2013-06-09 01:03:19|Antonio|Aledda||M|1970-07-04|Bucuresti|SECTOR 2|Piata rosetti|3|||0|0|0731039480||antonioaledda@gmail.com|MBRGLFT||0 Sobranie KS Blue (6mg) Pack|Yes|Yes||BW031588|TWINS CAFE SRL STUDIO|Bucuresti|BWEVENTBA14|108|CCC EVENT SOBR FAM Fratelli 2013|121|Horeca|0
0|CS3407030|2013-06-09 01:03:23|Adirculesei|Andreea||F|1990-10-30|Bucuresti|SECTOR 6|Splaiul independentei|202|1|1|9|55|0758107808||Deea301090@yahoo.com|KTNWH||0 Sobranie SS White (1mg) Pack|Yes|Yes||BW031588|TWINS CAFE SRL STUDIO|Bucuresti|BWEVENTBA28|108|CCC EVENT SOBR FAM Fratelli 2013|121|Horeca|0
0|CS3407033|2013-06-09 01:05:20|Timofte|Dan||M|1986-02-24|Iasi|IASI|Moara de foc|6|405|A|1|6|0744490994||Zar.osky@yahoo.com|KTBLH||0 Sobranie KS Black (8mg) Pack|Yes|Yes||BW031588|TWINS CAFE SRL STUDIO|Bucuresti|BWEVENTBA28|108|CCC EVENT SOBR FAM Fratelli 2013|121|Horeca|0
0|CS3407034|2013-06-09 01:05:47|Ilovan|Florin||M|1983-01-05|Bucuresti|SECTOR 2|Colentina|227|115b|2|3|73|0720464523||Florin.ilovan@gmail.com|KTSV||0 Sobranie KS Gold  (4mg) Pack|Yes|Yes||BW031588|TWINS CAFE SRL STUDIO|Bucuresti|BWEVENTBA10|108|CCC EVENT SOBR FAM Fratelli 2013|121|Horeca|0
0|CS3407035|2013-06-09 01:06:04|Catanescu|Marian||M|1979-02-25|Bucuresti|SECTOR 1|Bd unirii|65|||||0751406240||Mariancatanescu@yahoo.com|KTNWH||0 Sobranie SS White (1mg) Pack|Yes|Yes||BW031588|TWINS CAFE SRL STUDIO|Bucuresti|BWEVENTBA11|108|CCC EVENT SOBR FAM Fratelli 2013|121|Horeca|0
0|CS3407036|2013-06-09 01:06:08|Zaharia|Andra||F|1981-07-08|Bucuresti|SECTOR 3|Murgeni|12|||||0733885842||Zaharia_andra@yahoo.co.uk|SBSSWH||0 Sobranie SS White (1mg) Pack|Yes|Yes||BW031588|TWINS CAFE SRL STUDIO|Bucuresti|BWEVENTBA12|108|CCC EVENT SOBR FAM Fratelli 2013|121|Horeca|0
0|CS3407037|2013-06-09 01:06:12|Predoiu|Ciprian||M|1986-08-08|Bucuresti|SECTOR 3|Campia libertatii|46|||||0767136330||Deddykiller@yahoo.com|DAVGL||0 Sobranie KS Blue (6mg) Pack|Yes|Yes||BW031588|TWINS CAFE SRL STUDIO|Bucuresti|BWEVENTBA14|108|CCC EVENT SOBR FAM Fratelli 2013|121|Horeca|0
0|CS3407040|2013-06-09 01:07:09|Georgescu|Diana||F|1985-04-06|Bucuresti|SECTOR 6|Aleea timisul de jos|2|||||0722255143||Dia.georgescu@gmail.com|PARAB||0 Sobranie KS Black (8mg) Pack|Yes|Yes||BW031588|TWINS CAFE SRL STUDIO|Bucuresti|BWEVENTBA28|108|CCC EVENT SOBR FAM Fratelli 2013|121|Horeca|0
0|CS3407043|2013-06-09 01:08:15|Ianul|Adrian|1801001060588|M|1980-10-01|Bucuresti|SECTOR 3|Mihai bravu|296|||||0741327877||Adrian.ianul@gmail.com|DAVGLS||0 Sobranie KS Gold  (4mg) Pack|Yes|Yes||BW031588|TWINS CAFE SRL STUDIO|Bucuresti|BWEVENTBA10|108|CCC EVENT SOBR FAM Fratelli 2013|121|Horeca|0
0|CS3407044|2013-06-09 01:08:45|Stoicut|Alexandru||M|1986-08-08|Bucuresti|SECTOR 3|Baba novac|63|||||0724100794||Traian.stoicut@gmail.com|DUNFCMBB||0 Sobranie KS Blue (6mg) Pack|Yes|Yes||BW031588|TWINS CAFE SRL STUDIO|Bucuresti|BWEVENTBA14|108|CCC EVENT SOBR FAM Fratelli 2013|121|Horeca|0
0|CS3407045|2013-06-09 01:08:55|Malinescu|Mihai||M|1988-07-07|Bucuresti|SECTOR 4|Gh sincai|69|||||0747228909||Malunescumihai@yahoo.com|DAVGLS||0 Sobranie SS Black (6mg) Pack|Yes|Yes||BW031588|TWINS CAFE SRL STUDIO|Bucuresti|BWEVENTBA11|108|CCC EVENT SOBR FAM Fratelli 2013|121|Horeca|0
0|CS3407046|2013-06-09 01:09:00|Paun|Simona||F|1984-08-29|Ilfov|POPESTI LEORDENI|Sernei|10|||||0721354403||simonaalexandra_paun@yahoo.com|DUNFCBB||0 Sobranie KS Gold  (4mg) Pack|Yes|Yes||BW031588|TWINS CAFE SRL STUDIO|Bucuresti|BWEVENTBA02|108|CCC EVENT SOBR FAM Fratelli 2013|121|Horeca|0
0|CS3407047|2013-06-09 01:09:02|Ion|Georgiana||F|1979-08-09|Bucuresti|SECTOR 3|Camil ressu|8|1|A|3|10|0722468028||Georgians.ion79@yahoo.com|KTBLH||0 Sobranie KS Black (8mg) Pack|Yes|Yes||BW031588|TWINS CAFE SRL STUDIO|Bucuresti|BWEVENTBA28|108|CCC EVENT SOBR FAM Fratelli 2013|121|Horeca|0
0|CS3407048|2013-06-09 01:10:16|Banu|Alexandra||F|1987-05-25|Bacau|BACAU|Mioritei|21|||0|0|0761748038||bozana25@yahoo.com|DUNFCMBB||0 Sobranie KS Blue (6mg) Pack|Yes|Yes||BW031588|TWINS CAFE SRL STUDIO|Bucuresti|BWEVENTBA28|108|CCC EVENT SOBR FAM Fratelli 2013|121|Horeca|0
0|CS3407049|2013-06-09 01:10:40|George|Catalin||M|1980-12-04|Bucuresti|SECTOR 2|Teiul doamnei|14|8|D|6|36|0753990000||Catablue80@yahoo.com|KTWH||0 Sobranie KS Gold  (4mg) Pack|Yes|Yes||BW031588|TWINS CAFE SRL STUDIO|Bucuresti|BWEVENTBA10|108|CCC EVENT SOBR FAM Fratelli 2013|121|Horeca|0
0|CS3407052|2013-06-09 01:11:17|Dan|Razvan||M|1988-02-12|Bucuresti|SECTOR 4|Gh sincai|14|||||0741206000||Razvan@princessedition.ro|DAVGLS||0 Sobranie SS Black (6mg) Pack|Yes|Yes||BW031588|TWINS CAFE SRL STUDIO|Bucuresti|BWEVENTBA11|108|CCC EVENT SOBR FAM Fratelli 2013|121|Horeca|0
0|CS3407054|2013-06-09 01:11:44|Dinu|Camelia||F|1979-07-26|Bucuresti|SECTOR 2|Cristescu Dima|4|2|A|3|16|0720999396||camelia@zig.ro|SBSSWH||0 Sobranie SS White (1mg) Pack|Yes|Yes||BW031588|TWINS CAFE SRL STUDIO|Bucuresti|BWEVENTBA02|108|CCC EVENT SOBR FAM Fratelli 2013|121|Horeca|0
0|CS3407057|2013-06-09 01:12:02|Nen|Alexandru||M|1984-03-27|Bucuresti|SECTOR 4|Giurgiului|121a|||||0740060869||Alexnen@gmail.com|DUNFCBB||0 Sobranie KS Gold  (4mg) Pack|Yes|Yes||BW031588|TWINS CAFE SRL STUDIO|Bucuresti|BWEVENTBA28|108|CCC EVENT SOBR FAM Fratelli 2013|121|Horeca|0
0|CS3407060|2013-06-09 01:13:46|Borcaias|Cosmin||M|1986-09-16|Bucuresti|SECTOR 6|Valea florilor|2|||||0766916108|||DUNFCMBB||0 Sobranie KS Blue (6mg) Pack|Yes|Yes||BW031588|TWINS CAFE SRL STUDIO|Bucuresti|BWEVENTBA11|108|CCC EVENT SOBR FAM Fratelli 2013|121|Horeca|0
0|CS3407061|2013-06-09 01:14:03|Rentea|Diana||F|1975-10-27|Bucuresti|SECTOR 3|Liviu Rebreanu|10|||||0745779394||Rentead@gmail.com|SBSSWH||0 Sobranie SS White (1mg) Pack|Yes|Yes||BW031588|TWINS CAFE SRL STUDIO|Bucuresti|BWEVENTBA12|108|CCC EVENT SOBR FAM Fratelli 2013|121|Horeca|0
0|CS3407062|2013-06-09 01:14:05|Panciu|Doina||F|1982-07-28|Bucuresti|SECTOR 3|Industriilor|56|86|A|P|22|0721890213||alinapanciu@yahoo.com|KTBLH||0 Sobranie KS Black (8mg) Pack|Yes|Yes||BW031588|TWINS CAFE SRL STUDIO|Bucuresti|BWEVENTBA02|108|CCC EVENT SOBR FAM Fratelli 2013|121|Horeca|0
0|CS3407065|2013-06-09 01:14:26|Popescu|Marian||M|1986-01-01|Bucuresti|SECTOR 3|Grigore ionescu|92|||||0745237143|||SBKSBL||0 Sobranie KS Blue (6mg) Pack|Yes|Yes||BW031588|TWINS CAFE SRL STUDIO|Bucuresti|BWEVENTBA10|108|CCC EVENT SOBR FAM Fratelli 2013|121|Horeca|0
0|CS3407064|2013-06-09 01:14:26|Popescu|Daniela||F|1984-03-27|Bucuresti|SECTOR 3|Racari|10|41|1|5|29|0731497486||Danagpop@yahoo.com|VIRSM||0 Sobranie SS Menthol (5 mg) Pack|Yes|Yes||BW031588|TWINS CAFE SRL STUDIO|Bucuresti|BWEVENTBA28|108|CCC EVENT SOBR FAM Fratelli 2013|121|Horeca|0
0|CS3407067|2013-06-09 01:16:22|Timisoara|Mihai||M|1985-06-23|Bucuresti|SECTOR 4|Aleea crevedia|17|||||0723338823||Mihai.timisoara@gmail.com|DUNFCMBB||0 Sobranie KS Blue (6mg) Pack|Yes|Yes||BW031588|TWINS CAFE SRL STUDIO|Bucuresti|BWEVENTBA28|108|CCC EVENT SOBR FAM Fratelli 2013|121|Horeca|0
0|CS3407069|2013-06-09 01:17:25|Siminischi|Madalina||F|1985-10-03|Bucuresti|SECTOR 1|Tuzla|9-27|D||7|73|0723755398||Madalina.siminischi@gmail.com|KTWH||0 Sobranie SS White (1mg) Pack|Yes|Yes||BW031588|TWINS CAFE SRL STUDIO|Bucuresti|BWEVENTBA10|108|CCC EVENT SOBR FAM Fratelli 2013|121|Horeca|0
0|CS3407073|2013-06-09 01:18:29|Vulcan|Terzi||M|1980-07-30|Ilfov|PIPERA|Iancu nicolae|12|||||0722377430||Volkanterzi@yahoo.com|SBKSBK||0 Sobranie KS Black (8mg) Pack|Yes|Yes||BW031588|TWINS CAFE SRL STUDIO|Bucuresti|BWEVENTBA11|108|CCC EVENT SOBR FAM Fratelli 2013|121|Horeca|0
0|CS3407072|2013-06-09 01:18:29|Dragu|Razvan||M|1986-12-04|Bucuresti|SECTOR 2|Stefan cel mare|35|||||0727715572||Razvan_dragu@b-f.com|MBRRDRT||0 Sobranie KS Black (8mg) Pack|Yes|Yes||BW031588|TWINS CAFE SRL STUDIO|Bucuresti|BWEVENTBA12|108|CCC EVENT SOBR FAM Fratelli 2013|121|Horeca|0
0|CS3407074|2013-06-09 01:19:02|Tasca|Teodor||M|1988-09-28|Bucuresti|SECTOR 1|Calea plevnei|90|10f|A|4|17|0742354660||Tascateodor@yahoo.com|PARSB||0 Sobranie KS Gold  (4mg) Pack|Yes|Yes||BW031588|TWINS CAFE SRL STUDIO|Bucuresti|BWEVENTBA28|108|CCC EVENT SOBR FAM Fratelli 2013|121|Horeca|0
0|CS3407075|2013-06-09 01:19:11|Naidin|Daniela||F|1979-08-13|Iasi|IASI|Sarmisegetuza|5|Y3|B|7|32|0731300516||naidin.daniela@gmail.com|KTNWH||0 Sobranie SS White (1mg) Pack|Yes|Yes||BW031588|TWINS CAFE SRL STUDIO|Bucuresti|BWEVENTBA02|108|CCC EVENT SOBR FAM Fratelli 2013|121|Horeca|0
0|CS3407077|2013-06-09 01:20:21|Popescu|Simona||F|1987-07-23|Bucuresti|SECTOR 2|Nicolas filipescu|34|-|-|0|6|0765089696||sim_popi_87@yahoo.com|KTBL||0 Sobranie KS Black (8mg) Pack|Yes|Yes||BW031588|TWINS CAFE SRL STUDIO|Bucuresti|BWEVENTBA11|108|CCC EVENT SOBR FAM Fratelli 2013|121|Horeca|0
0|CS3407079|2013-06-09 01:20:54|Buduleci|Mirabela|2830425385560|F|1983-04-25|Bucuresti|SECTOR 3|Nicolae grigorescu|14|V20|1|3|16|0728044576||Buduleci_mirabela@yahoo.com|KTSV||0 Sobranie SS Menthol (5 mg) Pack|Yes|Yes||BW031588|TWINS CAFE SRL STUDIO|Bucuresti|BWEVENTBA10|108|CCC EVENT SOBR FAM Fratelli 2013|121|Horeca|0
0|CS3407080|2013-06-09 01:20:58|Voicu|Gabriela||F|1988-10-14|Bucuresti|SECTOR 3|Theodor pallady|4|M2|E|5|197|0724022960||Gabriela.voicu88@yahoo.com|DUNFCBB||0 Sobranie KS Gold  (4mg) Pack|Yes|Yes||BW031588|TWINS CAFE SRL STUDIO|Bucuresti|BWEVENTBA28|108|CCC EVENT SOBR FAM Fratelli 2013|121|Horeca|0
0|CS3407082|2013-06-09 01:21:38|Dinescu|Alex||M|1987-09-30|Bucuresti|SECTOR 2|Calea grivitei|238|||||0752188551||Alex.dinescu@yahoo.com|KTSWIT||0 Sobranie KS Blue (6mg) Pack|Yes|Yes||BW031588|TWINS CAFE SRL STUDIO|Bucuresti|BWEVENTBA12|108|CCC EVENT SOBR FAM Fratelli 2013|121|Horeca|0
0|CS3407084|2013-06-09 01:22:22|Ciubeica|Sorin||M|1982-12-22|Bucuresti|SECTOR 3|Telus|5|M31b|A|4|25|0728131670||ciubeicasorin@yahoo.com|KTSV||0 Sobranie KS Gold  (4mg) Pack|Yes|Yes||BW031588|TWINS CAFE SRL STUDIO|Bucuresti|BWEVENTBA02|108|CCC EVENT SOBR FAM Fratelli 2013|121|Horeca|0
0|CS3407085|2013-06-09 01:22:35|Ghita|Geanina||F|1987-10-02|Bucuresti|SECTOR 4|Luica|17|||||0740868498||Ghita.geanina@yahoo.com|SBSSPK||0 Sobranie SS Pink (3mg) Pack|Yes|Yes||BW031588|TWINS CAFE SRL STUDIO|Bucuresti|BWEVENTBA11|108|CCC EVENT SOBR FAM Fratelli 2013|121|Horeca|0
0|CS3407086|2013-06-09 01:23:01|Arnautu|Marius||M|1988-06-17|Bucuresti|SECTOR 4|Cetatuia|6|||||0767830315||Marius_ar@yahoo.com|PARAB||0 Sobranie KS Blue (6mg) Pack|Yes|Yes||BW031588|TWINS CAFE SRL STUDIO|Bucuresti|BWEVENTBA14|108|CCC EVENT SOBR FAM Fratelli 2013|121|Horeca|0
0|CS3407087|2013-06-09 01:23:30|Delcea|Denise||F|1989-03-04|Teleorman|ALEXANDRIA|Cuza voda|100|||0|0|0766790888||dlc_denise2cool@yahoo.com|VOGLL||0 Sobranie SS Pink (3mg) Pack|Yes|Yes||BW031588|TWINS CAFE SRL STUDIO|Bucuresti|BWEVENTBA12|108|CCC EVENT SOBR FAM Fratelli 2013|121|Horeca|0
0|CS3407088|2013-06-09 01:24:05|Radulescu|Ciprian||M|1981-03-01|Bucuresti|SECTOR 1|Borsa|54|||||0766277510|||DAVGL||0 Sobranie KS Blue (6mg) Pack|Yes|No||BW031588|TWINS CAFE SRL STUDIO|Bucuresti|BWEVENTBA10|108|CCC EVENT SOBR FAM Fratelli 2013|121|Horeca|0
0|CS3407090|2013-06-09 01:24:42|Bubela|Bogdan||M|1989-07-03|Bucuresti|SECTOR 6|Crangasi|23|||||0743556935||Bubela_bogdan89@yahoo.com|DUNFCMBB||0 Sobranie KS Blue (6mg) Pack|Yes|Yes||BW031588|TWINS CAFE SRL STUDIO|Bucuresti|BWEVENTBA14|108|CCC EVENT SOBR FAM Fratelli 2013|121|Horeca|0
0|CS3407091|2013-06-09 01:24:54|Bugu|Florin||M|1982-08-01|Bucuresti|SECTOR 6|Cupolei|2|105|C|1|72|0725579534||Florin.bugheciu@yahoo.com|KTWH||0 Sobranie SS White (1mg) Pack|Yes|Yes||BW031588|TWINS CAFE SRL STUDIO|Bucuresti|BWEVENTBA02|108|CCC EVENT SOBR FAM Fratelli 2013|121|Horeca|0
0|CS3407092|2013-06-09 01:24:55|Neagoe|Carmen||F|1985-06-14|Bucuresti|SECTOR 6|Crangasi|8-10|||||0726544827||C.neagoe@inginerie.com|DUNFCMBB||0 Sobranie KS Blue (6mg) Pack|Yes|Yes||BW031588|TWINS CAFE SRL STUDIO|Bucuresti|BWEVENTBA28|108|CCC EVENT SOBR FAM Fratelli 2013|121|Horeca|0
0|CS3407094|2013-06-09 01:25:15|Dragomir|Oana||F|1978-03-01|Bucuresti|SECTOR 4|Vacaresti|63|||||0731200736||Oana.joanna@gmail.com|KTWH||0 Sobranie SS White (1mg) Pack|Yes|Yes||BW031588|TWINS CAFE SRL STUDIO|Bucuresti|BWEVENTBA11|108|CCC EVENT SOBR FAM Fratelli 2013|121|Horeca|0
0|CS3407096|2013-06-09 01:25:58|Popescu|Mihai||M|1983-01-30|Bucuresti|SECTOR 2|Barbu vacarescu|75|||||0724567900||Mihaipopescu@yahoo.com|DUNBL||0 Sobranie KS Blue (6mg) Pack|Yes|Yes||BW031588|TWINS CAFE SRL STUDIO|Bucuresti|BWEVENTBA12|108|CCC EVENT SOBR FAM Fratelli 2013|121|Horeca|0
0|CS3407097|2013-06-09 01:26:43|Intzidis|Andreas||M|1978-09-01|Bucuresti|SECTOR 2|Camil ressu|33|||||0756192980|||MBRGL||0 Sobranie KS Blue (6mg) Pack|Yes|Yes||BW031588|TWINS CAFE SRL STUDIO|Bucuresti|BWEVENTBA10|108|CCC EVENT SOBR FAM Fratelli 2013|121|Horeca|0
0|CS3407099|2013-06-09 01:27:16|Cametu|Alexandra||F|1986-10-04|Bucuresti|SECTOR 5|Dumbrava noua|17|||||0727845907|||SBSSWH||0 Sobranie SS White (1mg) Pack|Yes|Yes||BW031588|TWINS CAFE SRL STUDIO|Bucuresti|BWEVENTBA11|108|CCC EVENT SOBR FAM Fratelli 2013|121|Horeca|0
0|CS3407100|2013-06-09 01:27:32|Neagoe|Razvan||M|1985-06-14|Bucuresti|SECTOR 6|Crangasi|8-10|||||0722417803||Vincerqz85@yahoo.ro|DUNFCMBB||0 Sobranie KS Blue (6mg) Pack|Yes|Yes||BW031588|TWINS CAFE SRL STUDIO|Bucuresti|BWEVENTBA28|108|CCC EVENT SOBR FAM Fratelli 2013|121|Horeca|0
0|CS3407102|2013-06-09 01:28:21|Pirvu|Alexandru||M|1986-08-08|Bucuresti|SECTOR 3|Campia libertatii|46|52|1|6|26|0723493952||piarvu.alexandru@gmail.com|DAVGL||0 Sobranie KS Blue (6mg) Pack|Yes|Yes||BW031588|TWINS CAFE SRL STUDIO|Bucuresti|BWEVENTBA02|108|CCC EVENT SOBR FAM Fratelli 2013|121|Horeca|0
0|CS3407105|2013-06-09 01:28:46|Mike|Eduard|1880504014678|M|1988-05-04|Bucuresti|SECTOR 1|Pietei|27|||||0741961266||Mikeedy@yahoo.com|KTSV||0 Sobranie KS Gold  (4mg) Pack|Yes|Yes||BW031588|TWINS CAFE SRL STUDIO|Bucuresti|BWEVENTBA10|108|CCC EVENT SOBR FAM Fratelli 2013|121|Horeca|0
0|CS3407106|2013-06-09 01:28:52|Lepadatu|Adina||F|1990-05-22|Bucuresti|SECTOR 5|Giulesti|109|||||0760280526||Adina_elena@yahoo.com|DUNFCBB||0 Sobranie KS Gold  (4mg) Pack|Yes|Yes||BW031588|TWINS CAFE SRL STUDIO|Bucuresti|BWEVENTBA12|108|CCC EVENT SOBR FAM Fratelli 2013|121|Horeca|0
0|CS3407107|2013-06-09 01:29:10|Marda|Anda||F|1980-08-26|Bucuresti|SECTOR 6|Iuliu maniu|16|||||0721206957|||KTBL||0 Sobranie KS Black (8mg) Pack|Yes|Yes||BW031588|TWINS CAFE SRL STUDIO|Bucuresti|BWEVENTBA14|108|CCC EVENT SOBR FAM Fratelli 2013|121|Horeca|0
0|CS3407108|2013-06-09 01:29:50|Racea|Isabela||F|1988-06-10|Bucuresti|SECTOR 6|Crangasi|27|21|1|8|30|0744970962||Diana_isabela@yahoo.com|SBSSPK||0 Sobranie SS Pink (3mg) Pack|Yes|Yes||BW031588|TWINS CAFE SRL STUDIO|Bucuresti|BWEVENTBA28|108|CCC EVENT SOBR FAM Fratelli 2013|121|Horeca|0
0|CS3407110|2013-06-09 01:30:45|Rotaru|Marius||M|1989-03-03|Bucuresti|SECTOR 3|Iancului|132|||||0722167452||Marius.rotaru@yahoo.om|KTBL||0 Sobranie KS Black (8mg) Pack|Yes|Yes||BW031588|TWINS CAFE SRL STUDIO|Bucuresti|BWEVENTBA12|108|CCC EVENT SOBR FAM Fratelli 2013|121|Horeca|0
0|CS3407111|2013-06-09 01:30:47|Voicu|Ciprian||M|1986-05-12|Bucuresti|SECTOR 3|Paduroiu|2|||||0763669267||Cipri_voicu@yahoo.com|DUNFCBB||0 Sobranie KS Gold  (4mg) Pack|Yes|Yes||BW031588|TWINS CAFE SRL STUDIO|Bucuresti|BWEVENTBA11|108|CCC EVENT SOBR FAM Fratelli 2013|121|Horeca|0
0|CS3407114|2013-06-09 01:31:39|Andronic|Andreea||F|1987-08-11|Bucuresti|6|Crangasi|26|||0|0|0722329826||andreeandronic@yahoo.com|SBSSPK||0 Sobranie SS Pink (3mg) Pack|Yes|Yes||BW031588|TWINS CAFE SRL STUDIO|Bucuresti|BWEVENTBA28|108|CCC EVENT SOBR FAM Fratelli 2013|121|Horeca|0
0|CS3407118|2013-06-09 01:32:59|Nicolae|Monica||F|1989-06-20|Bucuresti|SECTOR 2|Grigore ionescu|75|||||0761321547|||KTNWH||0 Sobranie SS White (1mg) Pack|Yes|Yes||BW031588|TWINS CAFE SRL STUDIO|Bucuresti|BWEVENTBA11|108|CCC EVENT SOBR FAM Fratelli 2013|121|Horeca|0
0|CS3407120|2013-06-09 01:33:09|Sochirca|Corina||F|1988-08-22|Bucuresti|SECTOR 1|Mendeleev|17|||||0753692393||Alexandra22soc@yahoo.com|VIRSM||0 Sobranie SS Menthol (5 mg) Pack|Yes|Yes||BW031588|TWINS CAFE SRL STUDIO|Bucuresti|BWEVENTBA12|108|CCC EVENT SOBR FAM Fratelli 2013|121|Horeca|0
0|CS3407121|2013-06-09 01:33:32|Marta|Anca||F|1980-08-26|Bucuresti|SECTOR 6|Iuliu maniu|12|12|A|3|22|0721206957||ancamarta@yahoo.com|KTBL||0 Sobranie KS Blue (6mg) Pack|Yes|Yes||BW031588|TWINS CAFE SRL STUDIO|Bucuresti|BWEVENTBA02|108|CCC EVENT SOBR FAM Fratelli 2013|121|Horeca|0
0|CS3407123|2013-06-09 01:34:05|Santu|Cristian|1680921120706|M|1968-09-21|Cluj|CLUJ NAPOCA|Detunata|9|||0|0|0724350502||Cristipro@yahoo.com|KTBL||0 Sobranie KS Black (8mg) Pack|Yes|Yes||BW031588|TWINS CAFE SRL STUDIO|Bucuresti|BWEVENTBA10|108|CCC EVENT SOBR FAM Fratelli 2013|121|Horeca|0
0|CS3407125|2013-06-09 01:34:46|Lupeanu|Andrei||M|1983-02-12|Bucuresti|SECTOR 6|1 mai|41|||||0765279970||Grasanu_l0cco@yahoo.com|KTSV||0 Sobranie KS Gold  (4mg) Pack|Yes|Yes||BW031588|TWINS CAFE SRL STUDIO|Bucuresti|BWEVENTBA28|108|CCC EVENT SOBR FAM Fratelli 2013|121|Horeca|0
0|CS3407127|2013-06-09 01:34:49|Sitani|Ana maria||F|1983-04-09|Bucuresti|SECTOR 2|Gh titeica|58|||||0756085665||Anamaria0908@yahoo.com|KTNBK||0 Sobranie SS Pink (3mg) Pack|Yes|Yes||BW031588|TWINS CAFE SRL STUDIO|Bucuresti|BWEVENTBA11|108|CCC EVENT SOBR FAM Fratelli 2013|121|Horeca|0
0|CS3407128|2013-06-09 01:35:21|Timpu|Emanuela||F|1982-11-01|Bucuresti|SECTOR 1|Cimpejoarei|9a|||||0728318664||Emmatimpu@gmail.ro|VIRSM||0 Sobranie SS Menthol (5 mg) Pack|Yes|Yes||BW031588|TWINS CAFE SRL STUDIO|Bucuresti|BWEVENTBA12|108|CCC EVENT SOBR FAM Fratelli 2013|121|Horeca|0
0|CS3407129|2013-06-09 01:35:31|Stefan|Mihaela||F|1981-12-15|Bucuresti|SECTOR 4|Aleea gornesti|3|52|3|1|46|0724321715||mihaela.stefan@euroline-cards.ro|DUNFCMBB||0 Sobranie KS Blue (6mg) Pack|Yes|Yes||BW031588|TWINS CAFE SRL STUDIO|Bucuresti|BWEVENTBA02|108|CCC EVENT SOBR FAM Fratelli 2013|121|Horeca|0
0|CS3407131|2013-06-09 01:36:00|Costin|Andreea||F|1986-11-30|Bucuresti|SECTOR 6|Iuliu maniu|22|O6|C|5|141|0741061368||Ilisor_andi@yahoo.com|DUNFCMBB||0 Sobranie KS Blue (6mg) Pack|Yes|Yes||BW031588|TWINS CAFE SRL STUDIO|Bucuresti|BWEVENTBA10|108|CCC EVENT SOBR FAM Fratelli 2013|121|Horeca|0
0|CS3407132|2013-06-09 01:36:00|Branici|Anca||F|1980-05-07|Bucuresti|SECTOR 6|1 mai|30|Od15|6|1|240|0732733866||anca.branici@yahoo.com|DUNFCMBB||0 Sobranie KS Blue (6mg) Pack|Yes|Yes||BW031588|TWINS CAFE SRL STUDIO|Bucuresti|BWEVENTBA14|108|CCC EVENT SOBR FAM Fratelli 2013|121|Horeca|0
0|CS3407133|2013-06-09 01:36:31|Zaharia|Mihaela||F|1985-02-27|Bucuresti|SECTOR 2|Delfinului|14|||||0723489554||Mihaelazaharia@yahoo.com|VOGLL||0 Sobranie SS Pink (3mg) Pack|Yes|Yes||BW031588|TWINS CAFE SRL STUDIO|Bucuresti|BWEVENTBA12|108|CCC EVENT SOBR FAM Fratelli 2013|121|Horeca|0
0|CS3407136|2013-06-09 01:37:03|Vija|Laura||F|1983-04-29|Bucuresti|SECTOR 4|Drumul Gazarului|34-36|||0|0|0737196534||laura_vija2005@yahoo.com|SBSSWH||0 Sobranie SS White (1mg) Pack|Yes|Yes||BW031588|TWINS CAFE SRL STUDIO|Bucuresti|BWEVENTBA11|108|CCC EVENT SOBR FAM Fratelli 2013|121|Horeca|0
0|CS3407137|2013-06-09 01:38:40|Tacutu|Madalina||F|1983-06-03|Bucuresti|SECTOR 3|Camil ressu|68|2|A|6|26|0721259673||Madalina.tacutu@yahoo.com|KTBLH||0 Sobranie KS Black (8mg) Pack|Yes|Yes||BW031588|TWINS CAFE SRL STUDIO|Bucuresti|BWEVENTBA28|108|CCC EVENT SOBR FAM Fratelli 2013|121|Horeca|0
0|CS3407139|2013-06-09 01:39:01|Taranu|Ioana||F|1983-10-04|Bucuresti|SECTOR 6|Cetatea de balta|22|O6|C||141|0743869642||Ioana.doc83@yahoo.com|KTSV||0 Sobranie SS Pink (3mg) Pack|Yes|Yes||BW031588|TWINS CAFE SRL STUDIO|Bucuresti|BWEVENTBA10|108|CCC EVENT SOBR FAM Fratelli 2013|121|Horeca|0
0|CS3407140|2013-06-09 01:39:08|Plesa|Olivia||F|1985-06-03|Bucuresti|SECTOR 2|Grigore Ionescu|73|T27|A|0|26|0721799557||mirela_olivia85@yahoo.com|MBRGLFT||0 Sobranie KS Gold  (4mg) Pack|Yes|Yes||BW031588|TWINS CAFE SRL STUDIO|Bucuresti|BWEVENTBA11|108|CCC EVENT SOBR FAM Fratelli 2013|121|Horeca|0
0|CS3407142|2013-06-09 01:39:41|Matei|Catalina||F|1983-07-24|Bucuresti|SECTOR 2|Elev stefanescu|61|||||0745664952||Catalinamarei@yahoo.co.uk|VOGJSN||0 Sobranie SS Menthol (5 mg) Pack|Yes|Yes||BW031588|TWINS CAFE SRL STUDIO|Bucuresti|BWEVENTBA12|108|CCC EVENT SOBR FAM Fratelli 2013|121|Horeca|0
0|CS3407144|2013-06-09 01:40:44|Milea|Crina||F|1988-10-15|Bucuresti|SECTOR 1|Intrarea doctor felix|2|M4|2|8|166|0733983597||milea.crina@yahoo.com|MBRBI||0 Sobranie KS Gold  (4mg) Pack|Yes|Yes||BW031588|TWINS CAFE SRL STUDIO|Bucuresti|BWEVENTBA02|108|CCC EVENT SOBR FAM Fratelli 2013|121|Horeca|0
0|CS3407146|2013-06-09 01:41:20|Ropi|Alberto||M|1980-03-08|Bucuresti|SECTOR 5|13 septembrie|153|||||0723142145|||DUNFCMBB||0 Sobranie KS Blue (6mg) Pack|Yes|Yes||BW031588|TWINS CAFE SRL STUDIO|Bucuresti|BWEVENTBA14|108|CCC EVENT SOBR FAM Fratelli 2013|121|Horeca|0
0|CS3407147|2013-06-09 01:41:41|Zamfir|Elena||F|1984-11-23|Bucuresti|SECTOR 2|Soltuzlui|25|||||0721377442||Zamfirelena@yahoo.com|VOGLL||0 Sobranie SS Pink (3mg) Pack|Yes|Yes||BW031588|TWINS CAFE SRL STUDIO|Bucuresti|BWEVENTBA12|108|CCC EVENT SOBR FAM Fratelli 2013|121|Horeca|0
0|CS3407148|2013-06-09 01:41:44|Suciu|Madalina||F|1986-03-08|Bucuresti|SECTOR 3|Reconstructiei|2|||||0737545410||Suciu.madalina@yahoo.com|KTWH||0 Sobranie SS White (1mg) Pack|Yes|Yes||BW031588|TWINS CAFE SRL STUDIO|Bucuresti|BWEVENTBA11|108|CCC EVENT SOBR FAM Fratelli 2013|121|Horeca|0
0|CS3407152|2013-06-09 01:42:41|Cristea|Eugen||M|1979-12-12|Bucuresti|SECTOR 1|Ariei|29|||0|0|0730633699|||SBSSWH||0 Sobranie SS White (1mg) Pack|Yes|Yes||BW031588|TWINS CAFE SRL STUDIO|Bucuresti|BWEVENTBA28|108|CCC EVENT SOBR FAM Fratelli 2013|121|Horeca|0
0|CS3407153|2013-06-09 01:42:43|Suliman|Adel||F|1993-04-20|Constanta|CONSTANTA|Merisor|53|||||0721964501||by.leda@yahoo.com|SBKSBL||0 Sobranie KS Black (8mg) Pack|Yes|Yes||BW031588|TWINS CAFE SRL STUDIO|Bucuresti|BWEVENTBA02|108|CCC EVENT SOBR FAM Fratelli 2013|121|Horeca|0
0|CS3407154|2013-06-09 01:42:45|Ungureanu|Doru||M|1985-10-16|Bucuresti|Sect1|Balcscu|27-33||A|2|16|0725465152||Dorian.ungureanu@yahoo.com|KTBL||0 Sobranie KS Black (8mg) Pack|Yes|Yes||BW031588|TWINS CAFE SRL STUDIO|Bucuresti|BWEVENTBA10|108|CCC EVENT SOBR FAM Fratelli 2013|121|Horeca|0
0|CS3407155|2013-06-09 01:43:18|Ghergu|Irina||F|1985-05-25|Bucuresti|SECTOR 5|Vistierilor|18|||0|0|0723442883||ighergu@gmail.com|KTSV||0 Sobranie KS Gold  (4mg) Pack|Yes|Yes||BW031588|TWINS CAFE SRL STUDIO|Bucuresti|BWEVENTBA11|108|CCC EVENT SOBR FAM Fratelli 2013|121|Horeca|0
0|CS3407156|2013-06-09 01:44:00|Manolescu|Bogdan||M|1977-03-17|Bucuresti|SECTOR 3|Aleea baraj bicaz|2|||0|0|0721244234||mitrudani77@yahoo.com|DUNFCBB||0 Sobranie KS Gold  (4mg) Pack|Yes|Yes||BW031588|TWINS CAFE SRL STUDIO|Bucuresti|BWEVENTBA28|108|CCC EVENT SOBR FAM Fratelli 2013|121|Horeca|0
0|CS3407159|2013-06-09 01:45:01|Lupu|Sabina||F|1993-10-02|Bucuresti|SECTOR 3|Sf vineri|23|103b|1|1|31|0743008999||sabina_lupu@yahoo.com|SBKSBL||0 Sobranie KS Blue (6mg) Pack|Yes|Yes||BW031588|TWINS CAFE SRL STUDIO|Bucuresti|BWEVENTBA02|108|CCC EVENT SOBR FAM Fratelli 2013|121|Horeca|0
0|CS3407158|2013-06-09 01:45:01|Turcov|Ana||F|1985-09-16|Bucuresti|SECTOR 3|Unirii|2|||||0725465852|||KTBL||0 Sobranie KS Black (8mg) Pack|Yes|Yes||BW031588|TWINS CAFE SRL STUDIO|Bucuresti|BWEVENTBA10|108|CCC EVENT SOBR FAM Fratelli 2013|121|Horeca|0
0|CS3407160|2013-06-09 01:46:11|Chirca|Florina||F|1981-11-16|Bucuresti|SECTOR 1|Turda|118|37|B|5|60|0722887307||cosmina.chirca@yahoo.com|DUNFCMBB||0 Sobranie KS Blue (6mg) Pack|Yes|Yes||BW031588|TWINS CAFE SRL STUDIO|Bucuresti|BWEVENTBA28|108|CCC EVENT SOBR FAM Fratelli 2013|121|Horeca|0
0|CS3407161|2013-06-09 01:46:41|Keca|Florentina||F|1982-08-18|Bucuresti|SECTOR 5|Tudor Vladimirescu|82|||||0720911262||Tina_keca@yahoo.com|SBSSWH||0 Sobranie SS White (1mg) Pack|Yes|Yes||BW031588|TWINS CAFE SRL STUDIO|Bucuresti|BWEVENTBA12|108|CCC EVENT SOBR FAM Fratelli 2013|121|Horeca|0
0|CS3407162|2013-06-09 01:46:43|Iftime|Ina||F|1993-04-05|Bucuresti|SECTOR 2|Lacul tei|126-12|17-18|A|4|300|0722290199||ina.iftime@gmail.com|DUNFCMBB||0 Sobranie KS Black (8mg) Pack|Yes|Yes||BW031588|TWINS CAFE SRL STUDIO|Bucuresti|BWEVENTBA02|108|CCC EVENT SOBR FAM Fratelli 2013|121|Horeca|0
0|CS3407166|2013-06-09 01:47:39|Stanciu|Gabriela||F|1981-09-04|Bucuresti|SECTOR 3|Dina petre|5|||||0731494562||Gabrielastanciu11@yahoo.com|KTBLH||0 Sobranie KS Black (8mg) Pack|Yes|Yes||BW031588|TWINS CAFE SRL STUDIO|Bucuresti|BWEVENTBA28|108|CCC EVENT SOBR FAM Fratelli 2013|121|Horeca|0
0|CS3407169|2013-06-09 01:48:11|Cristescu|Andreea||F|1988-05-05|Bucuresti|SECTOR 2|Lacul Tei|127|||||0721894326||Cristescuandreea@yahoo.con|VIRSV||0 Sobranie SS Pink (3mg) Pack|Yes|Yes||BW031588|TWINS CAFE SRL STUDIO|Bucuresti|BWEVENTBA12|108|CCC EVENT SOBR FAM Fratelli 2013|121|Horeca|0
0|CS3407171|2013-06-09 01:49:39|Padure|Petra||F|1981-07-15|Bucuresti|SECTOR 1|Ialimicioarei|8|||0|0|0744333555||petrapadure@ymail.com|SBSSWH||0 Sobranie SS White (1mg) Pack|Yes|Yes||BW031588|TWINS CAFE SRL STUDIO|Bucuresti|BWEVENTBA10|108|CCC EVENT SOBR FAM Fratelli 2013|121|Horeca|0
0|CS3407172|2013-06-09 01:50:54|Naji|Tulun||F|1992-02-20|Bucuresti|SECTOR 1|Dobrogeanu Ghera|151|||||0724454744||Roubatm@yahoo.com|SBSSWH||0 Sobranie SS White (1mg) Pack|Yes|Yes||BW031588|TWINS CAFE SRL STUDIO|Bucuresti|BWEVENTBA12|108|CCC EVENT SOBR FAM Fratelli 2013|121|Horeca|0
0|CS3407174|2013-06-09 01:52:15|Neferu|Adelina||F|1986-11-21|Arges|PITESTI|Patrascu voda|3|||0|0|0751080480||adelinaneferu@yahoo.com|DUNFCBB||0 Sobranie KS Gold  (4mg) Pack|Yes|Yes||BW031588|TWINS CAFE SRL STUDIO|Bucuresti|BWEVENTBA14|108|CCC EVENT SOBR FAM Fratelli 2013|121|Horeca|0
0|CS3407176|2013-06-09 01:52:52|Petre|Mihaela|2860720100208|F|1986-07-20|Bucuresti|SECTOR 4|Aleea bran|4|92|4|4|60|0726823016||B.mihaela86@yahoo.com|VOGLL||0 Sobranie SS Pink (3mg) Pack|Yes|Yes||BW031588|TWINS CAFE SRL STUDIO|Bucuresti|BWEVENTBA10|108|CCC EVENT SOBR FAM Fratelli 2013|121|Horeca|0
0|CS3407177|2013-06-09 01:53:50|Chiriac|Roxana||F|1991-09-07|Bucuresti|SECTOR 1|Sos. Nordului|94|||0|0|0720534544||roxanach91@yahoo.com|SBSSPK||0 Sobranie SS Pink (3mg) Pack|Yes|Yes||BW031588|TWINS CAFE SRL STUDIO|Bucuresti|BWEVENTBA12|108|CCC EVENT SOBR FAM Fratelli 2013|121|Horeca|0
0|CS3407178|2013-06-09 01:54:00|Benescu|Matei||M|1989-01-29|Bucuresti|SECTOR 2|Popa soare|29|||0|0|0745077414||matei_benescu@hotmail.com|MBRGL||0 Sobranie KS Black (8mg) Pack|Yes|Yes||BW031588|TWINS CAFE SRL STUDIO|Bucuresti|BWEVENTBA14|108|CCC EVENT SOBR FAM Fratelli 2013|121|Horeca|0
0|CS3407181|2013-06-09 01:54:59|Dinu|Mihaela||F|1986-12-12|Bucuresti|SECTOR 5|Drumul sarii|2|V55|2|8|32|0735149882||Mih.dinu@gmail.com|VOGLL||0 Sobranie SS Pink (3mg) Pack|Yes|Yes||BW031588|TWINS CAFE SRL STUDIO|Bucuresti|BWEVENTBA28|108|CCC EVENT SOBR FAM Fratelli 2013|121|Horeca|0
0|CS3407184|2013-06-09 01:56:09|Tanase|Raluca||F|1993-02-04|Bucuresti|SECTOR 4|Vacarsti|96|||||0784562189||Ralucatanase@yahoo.com|SBSSWH||0 Sobranie SS White (1mg) Pack|Yes|Yes||BW031588|TWINS CAFE SRL STUDIO|Bucuresti|BWEVENTBA12|108|CCC EVENT SOBR FAM Fratelli 2013|121|Horeca|0
0|CS3407185|2013-06-09 01:56:47|Ionescu|Dana||F|1984-02-08|Bucuresti|SECTOR 1|Barbu vacarescu|4|||||0721112858||Danageanina21@yahoo.com|VIRSFA||0 Sobranie SS Pink (3mg) Pack|Yes|Yes||BW031588|TWINS CAFE SRL STUDIO|Bucuresti|BWEVENTBA28|108|CCC EVENT SOBR FAM Fratelli 2013|121|Horeca|0
0|CS3407186|2013-06-09 01:57:40|Stanoiu|Lavinia||F|1985-02-21|Bucuresti|SECTOR 2|Avrig|28|||||0724397636||lavinia.stanoiu1@yahoo.com|KTSV||0 Sobranie KS Gold  (4mg) Pack|Yes|Yes||BW031588|TWINS CAFE SRL STUDIO|Bucuresti|BWEVENTBA02|108|CCC EVENT SOBR FAM Fratelli 2013|121|Horeca|0
0|CS3407187|2013-06-09 01:57:47|Ousor|Dorina||F|1977-06-04|Bucuresti|SECTOR 3|Anastasie pana|17|||0|0|0722229097||ousor.dorina@gmail.com|GLMMNT||0 Sobranie SS Menthol (5 mg) Pack|Yes|Yes||BW031588|TWINS CAFE SRL STUDIO|Bucuresti|BWEVENTBA11|108|CCC EVENT SOBR FAM Fratelli 2013|121|Horeca|0
0|CS3407188|2013-06-09 01:58:06|Zburcea|Miruna||F|1987-01-01|Bucuresti|SECTOR 4|Obregia|28|||||0723118880||Mirunazburcea@yahoo.com|VOGLL||0 Sobranie SS Pink (3mg) Pack|Yes|Yes||BW031588|TWINS CAFE SRL STUDIO|Bucuresti|BWEVENTBA12|108|CCC EVENT SOBR FAM Fratelli 2013|121|Horeca|0
0|CS3407189|2013-06-09 01:58:35|Manolescu|Bogdan||M|1977-03-17|Bucuresti|SECTOR 3|Aleea baraj bicaz|2|M21|B|1|28|0721244234|||KTBL||0 Sobranie KS Blue (6mg) Pack|Yes|Yes||BW031588|TWINS CAFE SRL STUDIO|Bucuresti|BWEVENTBA10|108|CCC EVENT SOBR FAM Fratelli 2013|121|Horeca|0
0|CS3407190|2013-06-09 01:58:43|Balan|Mihaela||F|1987-10-04|Brasov|BRASOV|Fantana rosie|9|||0|0|0721832768||miha.balan@yahoo.com|SBSSPK||0 Sobranie SS Pink (3mg) Pack|Yes|Yes||BW031588|TWINS CAFE SRL STUDIO|Bucuresti|BWEVENTBA14|108|CCC EVENT SOBR FAM Fratelli 2013|121|Horeca|0
0|CS3407191|2013-06-09 01:58:44|Guta|Alina||F|1984-11-15|Bucuresti|SECTOR 1|Putul lui zamfir|20|||||0731765279||Alina@experiment-point.ro|KTNBK||0 Sobranie SS Pink (3mg) Pack|Yes|Yes||BW031588|TWINS CAFE SRL STUDIO|Bucuresti|BWEVENTBA28|108|CCC EVENT SOBR FAM Fratelli 2013|121|Horeca|0
0|CS3407192|2013-06-09 01:59:46|Teodosiu|Flavius||M|1987-04-02|Bucuresti|1|Frumoasa|59|||0|0|0729505300||billie_joe65@hotmail.com|DUNFCMBB||0 Sobranie KS Gold  (4mg) Pack|Yes|Yes||BW031588|TWINS CAFE SRL STUDIO|Bucuresti|BWEVENTBA12|108|CCC EVENT SOBR FAM Fratelli 2013|121|Horeca|0
0|CS3407194|2013-06-09 02:00:09|Nica|Andra||F|1985-10-16|Bucuresti|SECTOR 1|Mitropolit varlaam|157|||||0752222369||Ammaranth24@yahoo.com|KTNWH||0 Sobranie SS White (1mg) Pack|Yes|Yes||BW031588|TWINS CAFE SRL STUDIO|Bucuresti|BWEVENTBA02|108|CCC EVENT SOBR FAM Fratelli 2013|121|Horeca|0
0|CS3407195|2013-06-09 02:00:34|Dumitru|Daniel|1761123433021|M|1976-11-23|Bucuresti|SECTOR 3|Aleea baraj iezerul|2|M1a|1||1|0726576723||Mitrudany76@yahoo.com|KTBL6||0 Sobranie KS Black (8mg) Pack|Yes|Yes||BW031588|TWINS CAFE SRL STUDIO|Bucuresti|BWEVENTBA10|108|CCC EVENT SOBR FAM Fratelli 2013|121|Horeca|0
0|CS3407196|2013-06-09 02:00:45|Chirita|Cristina||F|1987-04-03|Dolj|CALAFAT|1dec 1918|1|||0|0|0766750965||cristina.chiri@yahoo.com|SBSSWH||0 Sobranie SS White (1mg) Pack|Yes|Yes||BW031588|TWINS CAFE SRL STUDIO|Bucuresti|BWEVENTBA11|108|CCC EVENT SOBR FAM Fratelli 2013|121|Horeca|0
0|CS3407197|2013-06-09 02:01:01|Pusca|Adriana||F|1991-04-11|Dolj|CRAIOVA|Tudor vladimirescu|1|I9||0|0|0744256582||adrianapusca20@yahoo.com|DUNFCMBB||0 Sobranie KS Blue (6mg) Pack|Yes|Yes||BW031588|TWINS CAFE SRL STUDIO|Bucuresti|BWEVENTBA11|108|CCC EVENT SOBR FAM Fratelli 2013|121|Horeca|0
0|CS3407200|2013-06-09 02:02:54|Spiridon|Miruna||F|1992-10-01|Constanta|CONSTANTA|Trandafirului|42b|||||0745338012||M.spiridon@yahoo.com|KTSWIT||0 Sobranie SS Menthol (5 mg) Pack|Yes|Yes||BW031588|TWINS CAFE SRL STUDIO|Bucuresti|BWEVENTBA10|108|CCC EVENT SOBR FAM Fratelli 2013|121|Horeca|0
0|CS3407201|2013-06-09 02:03:57|Neagu|Bogdan||M|1985-10-28|Ilfov|PANTELIMON|Londra|40|||||0723679043||Bogdan_neagu@yahoo.com|KTBL||0 Sobranie KS Black (8mg) Pack|Yes|Yes||BW031588|TWINS CAFE SRL STUDIO|Bucuresti|BWEVENTBA12|108|CCC EVENT SOBR FAM Fratelli 2013|121|Horeca|0
0|CS3407202|2013-06-09 02:04:03|Claaudiu|Radu||M|1984-09-29|Bucuresti|SECTOR 6|Bd iuliu maniu|75|B6|2|4|28|0723136647||clawradu@yahoo.co.uk|KTBLH||0 Sobranie KS Black (8mg) Pack|Yes|Yes||BW031588|TWINS CAFE SRL STUDIO|Bucuresti|BWEVENTBA02|108|CCC EVENT SOBR FAM Fratelli 2013|121|Horeca|0
0|CS3407203|2013-06-09 02:04:38|Rasu|Georgiana||F|1993-06-25|Constanta|CONSTANTA|Lapusneanu|116|X2|A|4|13|0727036571||Georgiana.rasu@gmail.com|SBSSWH||0 Sobranie SS White (1mg) Pack|Yes|Yes||BW031588|TWINS CAFE SRL STUDIO|Bucuresti|BWEVENTBA10|108|CCC EVENT SOBR FAM Fratelli 2013|121|Horeca|0
0|CS3407204|2013-06-09 02:04:55|Lascu|Marius||M|1984-10-01|Bucuresti|SECTOR 6|Orsova|12|||||0724697655||Mariusl_84@yahoo.com|KTBL||0 Sobranie KS Black (8mg) Pack|Yes|Yes||BW031588|TWINS CAFE SRL STUDIO|Bucuresti|BWEVENTBA14|108|CCC EVENT SOBR FAM Fratelli 2013|121|Horeca|0
0|CS3407205|2013-06-09 02:04:59|Toth|Roxana||F|1985-06-12|Bucuresti|SECTOR 4|Soimus|93|||0|0|0721264705||rox.baby@yahoo.com|DUNFCBB||0 Sobranie KS Gold  (4mg) Pack|Yes|Yes||BW031588|TWINS CAFE SRL STUDIO|Bucuresti|BWEVENTBA11|108|CCC EVENT SOBR FAM Fratelli 2013|121|Horeca|0
0|CS3407208|2013-06-09 02:05:51|Dumitrescu|Simona||F|1987-03-06|Bucuresti|SECTOR 2|Tuzla|1|||||0745390332||Dumitrescusimona@gmail.com|KTWH||0 Sobranie SS White (1mg) Pack|Yes|Yes||BW031588|TWINS CAFE SRL STUDIO|Bucuresti|BWEVENTBA12|108|CCC EVENT SOBR FAM Fratelli 2013|121|Horeca|0
0|CS3407209|2013-06-09 02:06:13|Iordan|Ionut||M|1981-03-09|Bucuresti|6|Valea calugareasca|15|Z1|1|7|43|0727306479||jordanbioterra@yahoo.com|KTSV||0 Sobranie KS Gold  (4mg) Pack|Yes|Yes||BW031588|TWINS CAFE SRL STUDIO|Bucuresti|BWEVENTBA14|108|CCC EVENT SOBR FAM Fratelli 2013|121|Horeca|0
0|CS3407210|2013-06-09 02:06:40|Bahnar|Alina||F|1986-09-29|Bucuresti|SECTOR 2|Vitejiei|2|||||0760711830||Alinabuhnar@gmail.com|VIRSM||0 Sobranie SS Menthol (5 mg) Pack|Yes|Yes||BW031588|TWINS CAFE SRL STUDIO|Bucuresti|BWEVENTBA28|108|CCC EVENT SOBR FAM Fratelli 2013|121|Horeca|0
0|CS3407211|2013-06-09 02:07:45|Caiuteanu|Bogdan|1860904226705|M|1986-09-04|Bacau|BACAU|Tudor vladimirescu|4|T8|C|2|10|0744969344||Bogdan.caiuteanu@yahoo.com|KTBL||0 Sobranie KS Black (8mg) Pack|Yes|Yes||BW031588|TWINS CAFE SRL STUDIO|Bucuresti|BWEVENTBA10|108|CCC EVENT SOBR FAM Fratelli 2013|121|Horeca|0
0|CS3407212|2013-06-09 02:08:25|Ivancescu|Adina||F|1973-06-09|Bucuresti|Bucuresti|Sos nordului|62|||0|0|0722309295||adinaivancescu@yahoo.com|DAVSVSS||0 Sobranie SS Pink (3mg) Pack|Yes|Yes||BW031588|TWINS CAFE SRL STUDIO|Bucuresti|BWEVENTBA11|108|CCC EVENT SOBR FAM Fratelli 2013|121|Horeca|0
0|CS3407214|2013-06-09 02:09:07|Popina|Claudia||F|1990-05-12|Bucuresti|SECTOR 1|Calea dorobantilor|134-13|11|C|7|134|0760501216||Claudia_popina@yahoo.com|VIRSV||0 Sobranie SS Pink (3mg) Pack|Yes|Yes||BW031588|TWINS CAFE SRL STUDIO|Bucuresti|BWEVENTBA28|108|CCC EVENT SOBR FAM Fratelli 2013|121|Horeca|0
0|CS3407215|2013-06-09 02:09:18|Nica|Andra||F|1986-08-29|Bucuresti|SECTOR 1|Smaranda braescu|17|10g|2|3|25|0758634937||andrra_20@yahoo.com|SBSSWH||0 Sobranie SS White (1mg) Pack|Yes|Yes||BW031588|TWINS CAFE SRL STUDIO|Bucuresti|BWEVENTBA12|108|CCC EVENT SOBR FAM Fratelli 2013|121|Horeca|0
0|CS3407216|2013-06-09 02:09:35|Ilie|Cristina||F|1988-09-18|Bucuresti|SECTOR 2|Dinu vintila|6b||B|0|0|0746222321||ilie_cristina88@yahoo.com|KTNWH||0 Sobranie SS White (1mg) Pack|Yes|Yes||BW031588|TWINS CAFE SRL STUDIO|Bucuresti|BWEVENTBA11|108|CCC EVENT SOBR FAM Fratelli 2013|121|Horeca|0
0|CS3407217|2013-06-09 02:10:16|Sorin|Alexandru||M|1986-01-26|Bucuresti|SECTOR 3|Bd decebal|14|S6|||60|0722237182||julius_s0rian@yahoo.com|DUNFCBB||0 Sobranie KS Blue (6mg) Pack|Yes|Yes||BW031588|TWINS CAFE SRL STUDIO|Bucuresti|BWEVENTBA02|108|CCC EVENT SOBR FAM Fratelli 2013|121|Horeca|0
0|CS3407219|2013-06-09 02:10:57|Balan|Iulia||F|1985-08-18|Bucuresti|SECTOR 2|Fab gh|10|2|3|1|45|0721555685||iulia.balan1@yahoo.com|VIRSM||0 Sobranie SS Menthol (5 mg) Pack|Yes|Yes||BW031588|TWINS CAFE SRL STUDIO|Bucuresti|BWEVENTBA14|108|CCC EVENT SOBR FAM Fratelli 2013|121|Horeca|0
0|CS3407220|2013-06-09 02:11:16|Andrei|Violeta||F|1986-10-20|Bucuresti|SECTOR 1|Calea dorobanti|134|11|C|7|124|0737243446||Violetaandrei@yahoo.com|SBSSWH||0 Sobranie SS White (1mg) Pack|Yes|Yes||BW031588|TWINS CAFE SRL STUDIO|Bucuresti|BWEVENTBA28|108|CCC EVENT SOBR FAM Fratelli 2013|121|Horeca|0
0|CS3407222|2013-06-09 02:11:50|Dorobantu|Alexandru|1850824450069|M|1985-08-24|Bucuresti|SECTOR 3|Bd carol 1|23||B|7|57|0744671167||Adorobantu@gmail.com|DAVGLS||0 Sobranie KS Gold  (4mg) Pack|Yes|Yes||BW031588|TWINS CAFE SRL STUDIO|Bucuresti|BWEVENTBA10|108|CCC EVENT SOBR FAM Fratelli 2013|121|Horeca|0
0|CS3407221|2013-06-09 02:11:50|Grigorescu|Tatiana||F|1982-02-07|Bucuresti|SECTOR 2|Stefan cel mare|240|||0|0|0721205848||grigorescu.tatiana@yahoo.com|DUNFCBB||0 Sobranie KS Gold  (4mg) Pack|Yes|Yes||BW031588|TWINS CAFE SRL STUDIO|Bucuresti|BWEVENTBA11|108|CCC EVENT SOBR FAM Fratelli 2013|121|Horeca|0
0|CS3407224|2013-06-09 02:12:53|Langa|Razvan||M|1985-10-06|Bucuresti|SECTOR 2|Mihai bravu|188|||||0721590064||Langarazvan@yahoo.com|MBRGL||0 Sobranie KS Blue (6mg) Pack|Yes|Yes||BW031588|TWINS CAFE SRL STUDIO|Bucuresti|BWEVENTBA12|108|CCC EVENT SOBR FAM Fratelli 2013|121|Horeca|0
0|CS3407226|2013-06-09 02:14:02|Onogea|Ana||F|1984-01-23|Ilfov|VOLUNTARI|Pipera tunari|186e|||||0748147132||anna_18_2001@yahoo.com|KTH||0 Sobranie SS White (1mg) Pack|Yes|Yes||BW031588|TWINS CAFE SRL STUDIO|Bucuresti|BWEVENTBA02|108|CCC EVENT SOBR FAM Fratelli 2013|121|Horeca|0
0|CS3407228|2013-06-09 02:15:47|Nedelcu|Amalia|2830329172355|F|1983-03-29|Bucuresti|SECTOR 1|Dorobanti|10|D4||||0742151334||Amanedelcu@yahoo.com|KTSV||0 Sobranie SS Pink (3mg) Pack|Yes|Yes||BW031588|TWINS CAFE SRL STUDIO|Bucuresti|BWEVENTBA10|108|CCC EVENT SOBR FAM Fratelli 2013|121|Horeca|0
0|CS3407229|2013-06-09 02:16:39|Paraupan|Carmen||F|1981-09-14|Bucuresti|SECTOR 3|Fetesti|52|T2||3|89|0722726338||carmen.paraipan1981@gmail.com|KTBL||0 Sobranie SS Black (6mg) Pack|Yes|Yes||BW031588|TWINS CAFE SRL STUDIO|Bucuresti|BWEVENTBA02|108|CCC EVENT SOBR FAM Fratelli 2013|121|Horeca|0
0|CS3407230|2013-06-09 02:16:51|Dinu|Catalina||F|1989-10-27|Bucuresti|SECTOR 2|Nordului|62|||||0743538670||Catalina_dinu@hotmail.com|SBSSPK||0 Sobranie SS Pink (3mg) Pack|Yes|Yes||BW031588|TWINS CAFE SRL STUDIO|Bucuresti|BWEVENTBA11|108|CCC EVENT SOBR FAM Fratelli 2013|121|Horeca|0
0|CS3407231|2013-06-09 02:17:14|Manolescu|Bogdan||M|1977-03-17|Bucuresti|SECTOR 3|Aleea baraj bicaz|2|||||0721844234||Bbogdanbobo@yahoo.com|SBKSBL||0 Sobranie KS Blue (6mg) Pack|Yes|Yes||BW031588|TWINS CAFE SRL STUDIO|Bucuresti|BWEVENTBA12|108|CCC EVENT SOBR FAM Fratelli 2013|121|Horeca|0
0|CS3407233|2013-06-09 02:18:15|Ciobanu|Alexandra||F|1988-08-02|Bucuresti|SECTOR 2|Sachelarie visarion|18|||||0720064200||Ciobanualexandra288@yahoo.com|KTSWIT||0 Sobranie SS Menthol (5 mg) Pack|Yes|Yes||BW031588|TWINS CAFE SRL STUDIO|Bucuresti|BWEVENTBA14|108|CCC EVENT SOBR FAM Fratelli 2013|121|Horeca|0
0|CS3407234|2013-06-09 02:18:40|Dinu|Manuela|2861212100181|F|1986-12-12|Buzau|BUZAU|Obor|13|1|1|3|11|0735149882||Mihaela-manuela.dinu@reifesen.ro|VOGLL||0 Sobranie SS Pink (3mg) Pack|Yes|Yes||BW031588|TWINS CAFE SRL STUDIO|Bucuresti|BWEVENTBA10|108|CCC EVENT SOBR FAM Fratelli 2013|121|Horeca|0
0|CS3407235|2013-06-09 02:19:43|Vieru|Ioana||F|1989-08-29|Iasi|IASI|Strapungere silvestru|1|||||0731349649||Iv.ioanavieru@gmail.com|KTSWIT||0 Sobranie SS Menthol (5 mg) Pack|Yes|Yes||BW031588|TWINS CAFE SRL STUDIO|Bucuresti|BWEVENTBA14|108|CCC EVENT SOBR FAM Fratelli 2013|121|Horeca|0
0|CS3407236|2013-06-09 02:20:13|Dita|Alexandru||M|1980-08-20|Bucuresti|SECTOR 2|Cap. Cerga|4|||||0745628629||Djamdi@gmail.com|KTBL||0 Sobranie KS Black (8mg) Pack|Yes|Yes||BW031588|TWINS CAFE SRL STUDIO|Bucuresti|BWEVENTBA12|108|CCC EVENT SOBR FAM Fratelli 2013|121|Horeca|0
0|CS3407237|2013-06-09 02:20:15|Filip|Ruxandra||F|1981-06-30|Bucuresti|SECTOR 2|Pantelimon|328|5|D|2|128|0724458283||ruxandra.filip@gmail.com|KTNWH||0 Sobranie SS Black (6mg) Pack|Yes|Yes||BW031588|TWINS CAFE SRL STUDIO|Bucuresti|BWEVENTBA02|108|CCC EVENT SOBR FAM Fratelli 2013|121|Horeca|0
0|CS3407239|2013-06-09 02:21:54|Rudacevschi|Georgiana|2860624460050|F|1986-06-24|Ilfov|BRAGADIRU|Drumul de sonde|1|||||0784157457||Rudacevschi.georgiana@gmail.com|SBSSWH||0 Sobranie SS White (1mg) Pack|Yes|Yes||BW031588|TWINS CAFE SRL STUDIO|Bucuresti|BWEVENTBA10|108|CCC EVENT SOBR FAM Fratelli 2013|121|Horeca|0
0|CS3407240|2013-06-09 02:22:01|Ciobanu|Giani||M|1984-05-03|Bucuresti|SECTOR 6|Viforului|6|||||0761044436||Armandoogy@yahoo.com|ROTH||0 Sobranie KS Black (8mg) Pack|Yes|Yes||BW031588|TWINS CAFE SRL STUDIO|Bucuresti|BWEVENTBA11|108|CCC EVENT SOBR FAM Fratelli 2013|121|Horeca|0
0|CS3407241|2013-06-09 02:23:00|Taberu|Adriana||F|1979-01-18|Bucuresti|SECTOR 2|Magura Vaii|36|||||0724984170||adrianatabetu@yahoo.com|VOGJSN||0 Sobranie SS Menthol (5 mg) Pack|Yes|Yes||BW031588|TWINS CAFE SRL STUDIO|Bucuresti|BWEVENTBA02|108|CCC EVENT SOBR FAM Fratelli 2013|121|Horeca|0
0|CS3407242|2013-06-09 02:23:39|Sebe|Oana||F|1976-09-09|Bucuresti|SECTOR 1|Sandu aldea|84|||||0723282738||Oanas76@yahoo.com|ROTH||0 Sobranie KS Black (8mg) Pack|Yes|Yes||BW031588|TWINS CAFE SRL STUDIO|Bucuresti|BWEVENTBA11|108|CCC EVENT SOBR FAM Fratelli 2013|121|Horeca|0
0|CS3407243|2013-06-09 02:24:28|Delvaru|Cristina|2861205430057|F|1986-12-05|Bucuresti|SECTOR 3|Calea vitan|109|V15|1|3|39|0767906242||Cristinadelcaru@yahoo.com|DAVGLS||0 Sobranie SS Black (6mg) Pack|Yes|Yes||BW031588|TWINS CAFE SRL STUDIO|Bucuresti|BWEVENTBA10|108|CCC EVENT SOBR FAM Fratelli 2013|121|Horeca|0
0|CS3407244|2013-06-09 02:25:06|Clinciu|Alexandra||F|1970-01-01|Bucuresti|SECTOR 2|Mozart|27|||||0721223678||Clinciu4@gmail.com|GLMBL||0 Sobranie SS Pink (3mg) Pack|Yes|Yes||BW031588|TWINS CAFE SRL STUDIO|Bucuresti|BWEVENTBA02|108|CCC EVENT SOBR FAM Fratelli 2013|121|Horeca|0
0|CS3407245|2013-06-09 02:25:08|Nicolae|Alexandru||M|1987-01-31|Bucuresti|SECTOR 1|Nicolae iorga|22|||0|0|0721293144||oszees@yahoo.com|MBRFP||0 Sobranie KS Black (8mg) Pack|Yes|Yes||BW031588|TWINS CAFE SRL STUDIO|Bucuresti|BWEVENTBA14|108|CCC EVENT SOBR FAM Fratelli 2013|121|Horeca|0
0|CS3407246|2013-06-09 02:26:48|Ionita|Raluca|2790131344259|F|1979-01-30|Bucuresti|SECTOR 6|Aleea istru|1a|P2|2|1|14|0723586570||Edi_boxx@yahoo.com|DAVGLS||0 Sobranie SS White (1mg) Pack|Yes|Yes||BW031588|TWINS CAFE SRL STUDIO|Bucuresti|BWEVENTBA10|108|CCC EVENT SOBR FAM Fratelli 2013|121|Horeca|0
0|CS3407247|2013-06-09 02:26:51|Florea|Oana||F|1975-07-26|Bucuresti|SECTOR 3|Nicolae grigorescu|69|||||0722219556||September04@gmail.com|MBRFP||0 Sobranie KS Blue (6mg) Pack|Yes|Yes||BW031588|TWINS CAFE SRL STUDIO|Bucuresti|BWEVENTBA11|108|CCC EVENT SOBR FAM Fratelli 2013|121|Horeca|0
0|CS3407252|2013-06-09 02:29:18|Lazar|Bianca||F|1974-03-05|Bucuresti|SECTOR 3|Nicolae grigorescu|31|||||0722346272||Bianca.lazar@yahoo.com|GLMBL||0 Sobranie SS Pink (3mg) Pack|Yes|Yes||BW031588|TWINS CAFE SRL STUDIO|Bucuresti|BWEVENTBA11|108|CCC EVENT SOBR FAM Fratelli 2013|121|Horeca|0
0|CS3407254|2013-06-09 02:29:31|Gaja|Monica||F|1978-01-06|Bucuresti|SECTOR 4|Oltenitei|34|5c|A|3|14|0724272437||Rose2001moni@yahoo.com|DUNFCMBB|SBKSBL|0 Sobranie KS Blue (6mg) Pack|Yes|Yes||BW031588|TWINS CAFE SRL STUDIO|Bucuresti|BWEVENTBA02|108|CCC EVENT SOBR FAM Fratelli 2013|121|Horeca|0
0|CS3407255|2013-06-09 02:29:40|Balan|Mihaela||F|1987-10-04|Brasov|BRASOV|Fantana rosie|9|||||0721832768||Miha.balan@yahoo.com|SBSSPK||0 Sobranie SS Pink (3mg) Pack|Yes|Yes||BW031588|TWINS CAFE SRL STUDIO|Bucuresti|BWEVENTBA10|108|CCC EVENT SOBR FAM Fratelli 2013|121|Horeca|0
0|CS3407257|2013-06-09 02:30:27|Iorga|Alexandra||F|1988-07-01|Bucuresti|SECTOR 3|Liviu rebresnu|18|||||0745853554||Alexa88@gmail.com|VIRSV||0 Sobranie SS Pink (3mg) Pack|Yes|Yes||BW031588|TWINS CAFE SRL STUDIO|Bucuresti|BWEVENTBA14|108|CCC EVENT SOBR FAM Fratelli 2013|121|Horeca|0
0|CS3407261|2013-06-09 02:31:43|Cristu|Smaranda||F|1983-07-28|Bucuresti|SECTOR 2|Deleni|6|T64|1|4|17|0745900666||smaranda.cristu@yahoo.com|KTSV||0 Sobranie SS Pink (3mg) Pack|Yes|Yes||BW031588|TWINS CAFE SRL STUDIO|Bucuresti|BWEVENTBA12|108|CCC EVENT SOBR FAM Fratelli 2013|121|Horeca|0
0|CS3407263|2013-06-09 02:32:47|Turcu|Paula||F|1986-06-28|Bucuresti|SECTOR 3|Verdi|12|||0|0|0740650169||paula.turcu@yahoo.com|DAVGLS||0 Sobranie SS Black (6mg) Pack|Yes|Yes||BW031588|TWINS CAFE SRL STUDIO|Bucuresti|BWEVENTBA12|108|CCC EVENT SOBR FAM Fratelli 2013|121|Horeca|0
0|CS3407269|2013-06-09 02:35:01|Borcescu|Andrei||M|1989-06-23|Bucuresti|SECTOR 1|Alexandru serbanescu|26|17b|B|0|12|0747137428||borcescuandrei@yahoo.com|SBSSMN||0 Sobranie SS Menthol (5 mg) Pack|Yes|Yes||BW031588|TWINS CAFE SRL STUDIO|Bucuresti|BWEVENTBA11|108|CCC EVENT SOBR FAM Fratelli 2013|121|Horeca|0
0|CS3407271|2013-06-09 02:36:02|Condrea|Aura||F|1986-11-14|Bucuresti|SECTOR 4|Sos oltenitei|188|||||0749420423||aura_condrea@yahoo.com|DUNFCBB||0 Sobranie KS Gold  (4mg) Pack|Yes|Yes||BW031588|TWINS CAFE SRL STUDIO|Bucuresti|BWEVENTBA02|108|CCC EVENT SOBR FAM Fratelli 2013|121|Horeca|0
0|CS3407272|2013-06-09 02:36:09|Balanoiu|Adrian||M|1981-04-28|Bucuresti|SECTOR 2|Lanului|21|||||0721789332||Adrianbalanoiu@yahoo.com|KTBL||0 Sobranie SS Black (6mg) Pack|Yes|Yes||BW031588|TWINS CAFE SRL STUDIO|Bucuresti|BWEVENTBA12|108|CCC EVENT SOBR FAM Fratelli 2013|121|Horeca|0
0|FS949329|2013-06-09 01:05:20||||F|||||||||||||VOGLL||||||||||108|CCC EVENT SOBR FAM Fratelli 2013|121|Horeca|0
0|FS949330|2013-06-09 01:05:52||||F|||||||||||||KTBL||||||||||108|CCC EVENT SOBR FAM Fratelli 2013|121|Horeca|0
0|FS949336|2013-06-09 01:16:26||||M|||||||||||||DUNFCMBB||||||||||108|CCC EVENT SOBR FAM Fratelli 2013|121|Horeca|0
0|FS949338|2013-06-09 01:16:45||||M|||||||||||||KTBL||||||||||108|CCC EVENT SOBR FAM Fratelli 2013|121|Horeca|0
0|FS949339|2013-06-09 01:17:15||||M|||||||||||||MBRRD||||||||||108|CCC EVENT SOBR FAM Fratelli 2013|121|Horeca|0
0|FS949371|2013-06-09 01:36:12||||M|||||||||||||KTBL||||||||||108|CCC EVENT SOBR FAM Fratelli 2013|121|Horeca|0
0|FS949439|2013-06-09 02:32:58||||M|||||||||||||DUNFCMBB||||||||||108|CCC EVENT SOBR FAM Fratelli 2013|121|Horeca|0
