0|CS3606544|2013-08-30 23:47:02|Gherghes|Gheorghe||M|1971-09-21|Constanta|CONSTANTA|Deztobirii|153|Id3c|D|4|75|0727148031||ddrecon_ro@yahoo.com|DUNFCBB||1 Camel White (4 mg) Pack+Zippo CA|Yes|Yes||CT004679|Rev|Constanta|CTHRKBA83|155|CCC HRK CAMEL BW Vara 2013|121|Horeca|0
0|CS3606575|2013-08-30 23:54:01|Petrovici|Claudiu||M|1974-03-12|Constanta|CONSTANTA|Cuza Voda|17|||||0753899965|||KTBL||1 Camel White (4 mg) Pack+Ochelari CA|Yes|Yes||CT004679|Rev|Constanta|CTHRKBA80|155|CCC HRK CAMEL BW Vara 2013|121|Horeca|0
0|CS3606625|2013-08-31 00:07:26|Miron|Costin||M|1984-03-03|Constanta|CONSTANTA|Tomis|66|P5|A||12|0756777888|||DUNFCBB||1 Camel White (4 mg) Pack+Casti CA|Yes|Yes||CT004679|Rev|Constanta|CTHRKBA81|155|CCC HRK CAMEL BW Vara 2013|121|Horeca|0
0|CS3606640|2013-08-31 00:11:24|Mihalache|Marius||M|1985-09-30|Constanta|CONSTANTA|Decebal|21|||||0767345678||Marius-25@yahoo.com|KTBL6||1 Camel Black (6 mg) Pack|Yes|Yes||CT004679|Rev|Constanta|CTHRKBA28|155|CCC HRK CAMEL BW Vara 2013|121|Horeca|0
0|CS3606653|2013-08-31 00:15:38|Stan|Sergiu Stefan||M|1991-05-05|Constanta|CONSTANTA|Dezrobirii|73|||||0734225788||Sergiu.stef@gmail.com|CABK||1 Camel Black (6 mg) Pack+Ochelari CA|Yes|Yes||CT004679|Rev|Constanta|CTHRKBA80|155|CCC HRK CAMEL BW Vara 2013|121|Horeca|0
0|CS3606654|2013-08-31 00:16:09|Mitran|Mihaela||F|1985-06-11|Constanta|CONSTANTA|Soveja|45|10|||16|0755468787||Mihaela.mitran@yahoo.com|KTBL6||1 Camel Black (6 mg) Pack+Casti CA|Yes|Yes||CT004679|Rev|Constanta|CTHRKBA81|155|CCC HRK CAMEL BW Vara 2013|121|Horeca|0
0|CS3606665|2013-08-31 00:19:57|Stoica|Anca||F|1984-07-29|Bucuresti|SECTOR 4|George enescu|281|||||0723468996||Stoica.anca@yahoo.com|MBRFPEX||1 Camel White (4 mg) Pack|Yes|Yes||CT004679|Rev|Constanta|CTHRKBA28|155|CCC HRK CAMEL BW Vara 2013|121|Horeca|0
0|CS3606681|2013-08-31 00:23:45|Tudor|Rodica||F|1990-05-11|Brasov|PARAUL RECE|Murelor|12|||||0723245577||Rodica.tudor@yahoo.ro|MBRFPEX||1 Camel White (4 mg) Pack|Yes|Yes||CT004679|Rev|Constanta|CTHRKBA80|155|CCC HRK CAMEL BW Vara 2013|121|Horeca|0
0|CS3606694|2013-08-31 00:28:17|Pavel|Ionut||M|1988-08-18|Bucuresti|SECTOR 4|Mihai bravu|54|||||0734786575||Paaavelionut@gmail.com|PARAB||1 Camel Black (6 mg) Pack+Casti CA|Yes|Yes||CT004679|Rev|Constanta|CTHRKBA81|155|CCC HRK CAMEL BW Vara 2013|121|Horeca|0
0|CS3606697|2013-08-31 00:29:07|Vitel|Mihai||M|1991-05-08|Constanta|CONSTANTA|Pescarilor|34|Bm13|A|10|45|0721834842|||WISV||1 Camel White (4 mg) Pack|Yes|Yes||CT004679|Rev|Constanta|CTHRKBA80|155|CCC HRK CAMEL BW Vara 2013|121|Horeca|0
0|CS3606704|2013-08-31 00:31:08|Liviu|Petrescu||M|1990-05-14|Constanta|CONSTANTA|Mihai eminescu|21a|||||0765884865||Petrescu.l@yahoo.com|DUNFCMBB||1 Camel Black (6 mg) Pack+Zippo CA|Yes|Yes||CT004679|Rev|Constanta|CTHRKBA83|155|CCC HRK CAMEL BW Vara 2013|121|Horeca|0
0|CS3606708|2013-08-31 00:33:29|Popa|Ovidiu||M|1983-05-25|Constanta|CONSTANTA|Ion ratiu|48|||||0723865899|||KTBL||1 Camel Black (6 mg) Pack|Yes|Yes||CT004679|Rev|Constanta|CTHRKBA28|155|CCC HRK CAMEL BW Vara 2013|121|Horeca|0
0|CS3606711|2013-08-31 00:34:41|Alexandru|Ionela||F|1989-06-14|Constanta|CONSTANTA|Farului|78|C3|B||34|0732456768||Alexxx.sorin@yahoo.com|DAVGLS||1 Camel Black (6 mg) Pack|Yes|Yes||CT004679|Rev|Constanta|CTHRKBA81|155|CCC HRK CAMEL BW Vara 2013|121|Horeca|0
0|CS3606717|2013-08-31 00:36:48|Ghebaru|Sebastian||M|1989-08-10|Constanta|CONSTANTA|Ion Corvin|51|0|0|0|0|0726713384||sebbyzt@yahoo.com|DUNFCMBB||1 Camel Black (6 mg) Pack|Yes|Yes||CT004679|Rev|Constanta|CTHRKBA80|155|CCC HRK CAMEL BW Vara 2013|121|Horeca|0
0|CS3606720|2013-08-31 00:37:37|Alexandriu|Liviu||M|1983-04-14|Constanta|CONSTANTA|M.eminecu|21|||||0765884864||Alex.liviu@yahoo.com|CAWH||1 Camel White (4 mg) Pack|Yes|Yes||CT004679|Rev|Constanta|CTHRKBA81|155|CCC HRK CAMEL BW Vara 2013|121|Horeca|0
0|CS3606724|2013-08-31 00:38:07|Ivan|Victor||M|1990-01-15|Constanta|CONSTANTA|Liliacului|2|B4|4|0|73|0765283063||Victor_v90@yahoo.com|KTBL||1 Camel Black (6 mg) Pack|Yes|Yes||CT004679|Rev|Constanta|CTHRKBA28|155|CCC HRK CAMEL BW Vara 2013|121|Horeca|0
0|CS3606725|2013-08-31 00:38:12|Nicolin|Akexandru|1830725134132|M|1983-07-25|Constanta|Constanta|Eliberarii|10|||||0723424049||Andunlx@yahoo.com|DAVGLS||1 Camel White (4 mg) Pack+Zippo CA|Yes|Yes||CT004679|Rev|Constanta|CTHRKBA83|155|CCC HRK CAMEL BW Vara 2013|121|Horeca|0
0|CS3606736|2013-08-31 00:42:18|Moisuc|Radu mihaita||M|1992-01-30|Constanta|CONSTANTA|General vasile milea|1|A5|3||56|0760544394|||CABK||1 Camel Black (6 mg) Pack|Yes|Yes||CT004679|Rev|Constanta|CTHRKBA81|155|CCC HRK CAMEL BW Vara 2013|121|Horeca|0
0|CS3606750|2013-08-31 00:47:36|Maftei|Alexandra georgiana||F|1987-11-13|Constanta|CONSTANTA|Bl mamaia|181b|Bis||3|9|0724949693||Alexx_1311@yahoo.com|KTSWIT||1 Camel Black (6 mg) Pack|Yes|Yes||CT004679|Rev|Constanta|CTHRKBA83|155|CCC HRK CAMEL BW Vara 2013|121|Horeca|0
0|CS3606760|2013-08-31 00:51:49|Zamfir|Costel||M|1990-04-06|Bucuresti|SECTOR 3|Romanei|31|||||0734996644||Zamfir.costel@yahoo.ro|MBRFP||1 Camel Black (6 mg) Pack|Yes|Yes||CT004679|Rev|Constanta|CTHRKBA80|155|CCC HRK CAMEL BW Vara 2013|121|Horeca|0
0|CS3606761|2013-08-31 00:51:53|Gheorghe|Ioana||F|1982-03-27|Cluj|CLUJ NAPOCA|Industriei|57|||||0725789965||Gheorgheanca@yahoo.com|DUNFCBB||1 Camel White (4 mg) Pack|Yes|Yes||CT004679|Rev|Constanta|CTHRKBA28|155|CCC HRK CAMEL BW Vara 2013|121|Horeca|0
0|CS3606763|2013-08-31 00:52:19|Lovin|Sorin||M|1984-10-12|Constanta|NAVODARI|Lapusneanu|106|A15|2||31|0744755788||Lovin_sorin@yahoo.com|DUNBL||1 Camel Black (6 mg) Pack|Yes|Yes||CT004679|Rev|Constanta|CTHRKBA81|155|CCC HRK CAMEL BW Vara 2013|121|Horeca|0
0|CS3606766|2013-08-31 00:52:52|Cretu|Victor||M|1991-03-28|Constanta|CONSTANTA|Tepes voda|24|||||0726196363||Victor_cretu@yahoo.com|KTBL||1 Camel Black (6 mg) Pack|Yes|Yes||CT004679|Rev|Constanta|CTHRKBA83|155|CCC HRK CAMEL BW Vara 2013|121|Horeca|0
0|CS3606774|2013-08-31 00:56:58|Larie|Andreea||F|1989-02-28|Constanta|Constanta|Razboieni|2|C2|A|3|19|0742976281||Andreea.larie@yahoo.com|KTSV||1 Camel White (4 mg) Pack|Yes|Yes||CT004679|Rev|Constanta|CTHRKBA83|155|CCC HRK CAMEL BW Vara 2013|121|Horeca|0
0|CS3606777|2013-08-31 00:57:09|Potlog|Paula||F|1984-06-27|Constanta|CONSTANTA|Lacul|69|||||0724689855||Potlog31@yahoo.com|MBRFPEX||1 Camel White (4 mg) Pack|Yes|Yes||CT004679|Rev|Constanta|CTHRKBA28|155|CCC HRK CAMEL BW Vara 2013|121|Horeca|0
0|CS3606780|2013-08-31 00:57:28|Tomuleasa|Teodor||M|1989-05-05|Constanta|NAVODARI|Mamaia|224|X21||1|10|0733774488||Tomuleasateo@yahoo.ro|KTSV||1 Camel White (4 mg) Pack|Yes|Yes||CT004679|Rev|Constanta|CTHRKBA80|155|CCC HRK CAMEL BW Vara 2013|121|Horeca|0
0|CS3606788|2013-08-31 01:00:13|Grigore|Marius||M|1989-04-15|Constanta|CONSTANTA|Viitorului|70|||||0766243658||Marius.grigore@yahoo.com|PMSV||1 Camel White (4 mg) Pack|Yes|Yes||CT004679|Rev|Constanta|CTHRKBA81|155|CCC HRK CAMEL BW Vara 2013|121|Horeca|0
0|CS3606797|2013-08-31 01:02:04|Toma|Raluca||F|1989-10-27|Constanta|CONSTANTA|Pescarilor|57|||||0725789012|||MBRFP||1 Camel Black (6 mg) Pack|Yes|Yes||CT004679|Rev|Constanta|CTHRKBA28|155|CCC HRK CAMEL BW Vara 2013|121|Horeca|0
0|CS3606799|2013-08-31 01:02:13|Munteanu|Grigore||M|1989-03-30|Constanta|CONSTANTA|Hortensiei|2|2a|B|3|21|0745200145||Grigore.munteanu@yahoo.com|MBRGLFT||1 Camel White (4 mg) Pack|Yes|Yes||CT004679|Rev|Constanta|CTHRKBA83|155|CCC HRK CAMEL BW Vara 2013|121|Horeca|0
0|CS3606811|2013-08-31 01:04:00|Voicu|Alina||F|1992-08-18|Buzau|CUCULEASA|Bradului|4|||||0753589653||Voicu.alina@yahoo.com|PMBL||1 Camel Black (6 mg) Pack|Yes|Yes||CT004679|Rev|Constanta|CTHRKBA80|155|CCC HRK CAMEL BW Vara 2013|121|Horeca|0
0|CS3606831|2013-08-31 01:07:05|Perianu|Florin||M|1983-05-16|Calarasi|CALARASI|Spitalului|18|||||0721645946|||MBRGLFT||1 Camel White (4 mg) Pack|Yes|Yes||CT004679|Rev|Constanta|CTHRKBA81|155|CCC HRK CAMEL BW Vara 2013|121|Horeca|0
0|CS3606847|2013-08-31 01:09:59|Flesa|Simona||F|1980-06-18|Constanta|CONSTANTA|Bl. Lapusneanu|107b|12|A|5|31|0731446785||Simonaflesa@yahoo.com|PARSB||1 Camel White (4 mg) Pack|Yes|Yes||CT004679|Rev|Constanta|CTHRKBA80|155|CCC HRK CAMEL BW Vara 2013|121|Horeca|0
0|CS3606861|2013-08-31 01:13:30|Bica|Mirela||M|1987-04-27|Constanta|CONSTANTA|Dacia|1|T2|A|2|4|0745291728||Mirela_bica@yahoo.com|KTSWIT||1 Camel Black (6 mg) Pack|Yes|Yes||CT004679|Rev|Constanta|CTHRKBA83|155|CCC HRK CAMEL BW Vara 2013|121|Horeca|0
0|CS3606864|2013-08-31 01:14:13|Gabor|Ana||F|1984-07-28|Constanta|CONSTANTA|Lapusneanu|4|||||0724678964||Gabor.ana@yahoo.com|MBRFP||1 Camel Black (6 mg) Pack|Yes|Yes||CT004679|Rev|Constanta|CTHRKBA28|155|CCC HRK CAMEL BW Vara 2013|121|Horeca|0
0|CS3606869|2013-08-31 01:15:56|Malea|George||M|1991-04-20|Bucuresti|2|Orhideelor|18|||||0762166001||George_malea91@yahoo.com|DUNFCBB||1 Camel White (4 mg) Pack|Yes|Yes||CT004679|Rev|Constanta|CTHRKBA83|155|CCC HRK CAMEL BW Vara 2013|121|Horeca|0
0|CS3606877|2013-08-31 01:18:10|Vlase|Alex||M|1989-11-27|Constanta|CONSTANTA|1 mai|60|||||0724689457||Alex.valse@yahoo.com|CAWH||1 Camel White (4 mg) Pack|Yes|Yes||CT004679|Rev|Constanta|CTHRKBA28|155|CCC HRK CAMEL BW Vara 2013|121|Horeca|0
0|CS3606909|2013-08-31 01:29:03|Gheorghe|Elena||F|1991-11-11|Constanta|CONSTANTA|Dimitrie Cantemir|21b|||||0723467536||Elena_ghe91@gmail.com|DAVGLS||1 Camel Black (6 mg) Pack+Ochelari CA|Yes|Yes||CT009050|LIPSCANI SRL (Marttinez)|Constanta|CTHRKBA80|155|CCC HRK CAMEL BW Vara 2013|121|Horeca|0
0|CS3606915|2013-08-31 01:30:03|Dobre|Elena||F|1983-04-10|Constanta|CONSTANTA|Stefan cel mare|37|||||0723546360||Elenadobre@yahoo.com|MBRGL||1 Camel Black (6 mg) Pack+Casti CA|Yes|Yes||CT009050|LIPSCANI SRL (Marttinez)|Constanta|CTHRKBA81|155|CCC HRK CAMEL BW Vara 2013|121|Horeca|0
0|CS3606917|2013-08-31 01:30:57|Auder|Flori||F|1984-05-07|Constanta|CONSTANTA|Liliac|59|||||0721346788||Auderpps@yahoo.com|MBRFPH||1 Camel Black (6 mg) Pack|Yes|Yes||CT009050|LIPSCANI SRL (Marttinez)|Constanta|CTHRKBA28|155|CCC HRK CAMEL BW Vara 2013|121|Horeca|0
0|CS3606922|2013-08-31 01:34:11|Roman|Radu||M|1982-07-26|Constanta|CONSTANTA|Farului|36|||||0725687367||Roman.ip@yahoo.com|DUNFCMBB||1 Camel Black (6 mg) Pack|Yes|Yes||CT009050|LIPSCANI SRL (Marttinez)|Constanta|CTHRKBA28|155|CCC HRK CAMEL BW Vara 2013|121|Horeca|0
0|CS3606924|2013-08-31 01:34:19|Stan|Stefan||M|1985-12-31|Constanta|CONSTANTA|Porumbeilor|31|||||0722578854||Stan.ss@yahoo.com|PARAB||1 Camel Black (6 mg) Pack+Ochelari CA|Yes|Yes||CT009050|LIPSCANI SRL (Marttinez)|Constanta|CTHRKBA80|155|CCC HRK CAMEL BW Vara 2013|121|Horeca|0
0|CS3606928|2013-08-31 01:35:13|Banaru|Alexa||F|1987-02-28|Constanta|CONSTANTA|Oituz|29|B4|3|2|12|0725620877|||KTSWIT||1 Camel Black (6 mg) Pack+Zippo CA|Yes|Yes||CT009050|LIPSCANI SRL (Marttinez)|Constanta|CTHRKBA83|155|CCC HRK CAMEL BW Vara 2013|121|Horeca|0
0|CS3606936|2013-08-31 01:38:24|Radu|Delia||F|1988-11-08|Constanta|CONSTANTA|Sos. Mangaliei|31|A1||7|41|0766424788||Radu.d@yahoo.com|CAWH||1 Camel White (4 mg) Pack|Yes|Yes||CT009050|LIPSCANI SRL (Marttinez)|Constanta|CTHRKBA80|155|CCC HRK CAMEL BW Vara 2013|121|Horeca|0
0|CS3606939|2013-08-31 01:39:23|Lupse|Mihaela||F|1982-09-11|Bucuresti|SECTOR 6|N. ghica|7|||||0766452423||Mikaela.lupse@yahoo.com|KTSV||1 Camel White (4 mg) Pack+Casti CA|Yes|Yes||CT009050|LIPSCANI SRL (Marttinez)|Constanta|CTHRKBA81|155|CCC HRK CAMEL BW Vara 2013|121|Horeca|0
0|CS3606947|2013-08-31 01:40:53|Balan|Andrei||M|1988-02-05|Constanta|CONSTANTA|Al lapusneanu|2|3a|E|12|4|0742026209|||KTSV||1 Camel White (4 mg) Pack+Zippo CA|Yes|Yes||CT009050|LIPSCANI SRL (Marttinez)|Constanta|CTHRKBA83|155|CCC HRK CAMEL BW Vara 2013|121|Horeca|0
0|CS3606951|2013-08-31 01:43:31|Dumitrascu|Alina||F|1992-05-09|Constanta|CONSTANTA|Coiciu|16|||||0741246786||Alinadumitrescu@gmail.com|KTSWIT||1 Camel Black (6 mg) Pack|Yes|Yes||CT009050|LIPSCANI SRL (Marttinez)|Constanta|CTHRKBA80|155|CCC HRK CAMEL BW Vara 2013|121|Horeca|0
0|CS3606956|2013-08-31 01:44:51|Pocea|Alexandra||F|1987-04-24|Constanta|CONSTANTA|Razoarelor|13|3|A|3|24|0726100763||Alexandra_pocea@yahoo.com|PARSB||1 Camel White (4 mg) Pack|Yes|Yes||CT009050|LIPSCANI SRL (Marttinez)|Constanta|CTHRKBA83|155|CCC HRK CAMEL BW Vara 2013|121|Horeca|0
0|CS3606959|2013-08-31 01:45:43|Ion|Nicusor||M|1987-10-23|Arges|PITESTI|Dorobanti|56|C5|3||31|0723857866||Nicusor.ion@yahoo.com|PARSB||1 Camel White (4 mg) Pack+Casti CA|Yes|Yes||CT009050|LIPSCANI SRL (Marttinez)|Constanta|CTHRKBA81|155|CCC HRK CAMEL BW Vara 2013|121|Horeca|0
0|CS3606963|2013-08-31 01:47:06|Pruna|Bogdan||M|1990-01-22|Constanta|CONSTANTA|Mamaia|60|||||0727946780|||PARNBH||1 Camel Black (6 mg) Pack|Yes|Yes||CT009050|LIPSCANI SRL (Marttinez)|Constanta|CTHRKBA28|155|CCC HRK CAMEL BW Vara 2013|121|Horeca|0
0|CS3606968|2013-08-31 01:49:56|Ilie|Ion||M|1989-02-16|Bucuresti|SECTOR 3|Aleea Rosie|5|42b||3|19|0721578043|||PMSV||1 Camel White (4 mg) Pack|Yes|Yes||CT009050|LIPSCANI SRL (Marttinez)|Constanta|CTHRKBA80|155|CCC HRK CAMEL BW Vara 2013|121|Horeca|0
0|CS3606969|2013-08-31 01:50:10|Nonu|Rares||F|1980-01-24|Constanta|CONSTANTA|Poporului|63|||||0745892578||Nonurares@yahoo.com|PMECBL||1 Camel White (4 mg) Pack|Yes|Yes||CT009050|LIPSCANI SRL (Marttinez)|Constanta|CTHRKBA28|155|CCC HRK CAMEL BW Vara 2013|121|Horeca|0
0|CS3606977|2013-08-31 01:55:57|Boldea|Radu||M|1989-05-26|Constanta|CONSTANTA|Portitei|3|Le3|C||9|0762832709||Radu_boldea@yahoo.com|KTSV||1 Camel White (4 mg) Pack|Yes|Yes||CT009050|LIPSCANI SRL (Marttinez)|Constanta|CTHRKBA83|155|CCC HRK CAMEL BW Vara 2013|121|Horeca|0
0|CS3606978|2013-08-31 01:56:25|Roman|Viorica||F|1990-02-08|Constanta|OVIDIU|Primariei|61|||||0721356788|||MBRGL||1 Camel Black (6 mg) Pack|Yes|Yes||CT009050|LIPSCANI SRL (Marttinez)|Constanta|CTHRKBA80|155|CCC HRK CAMEL BW Vara 2013|121|Horeca|0
0|CS3606979|2013-08-31 01:56:40|Nuta|Adrian||M|1984-01-10|Constanta|CORBU|Mangaliei|40|||||0742635999||Nuta.adrian@yahoo.com|WIBL||1 Camel Black (6 mg) Pack|Yes|Yes||CT009050|LIPSCANI SRL (Marttinez)|Constanta|CTHRKBA81|155|CCC HRK CAMEL BW Vara 2013|121|Horeca|0
0|CS3606980|2013-08-31 01:57:44|Dragoi|Theea||F|1988-07-10|Bucuresti|SECTOR 5|I  L caragiale|346|||||0721873350|||MBRGLFT||1 Camel White (4 mg) Pack|Yes|Yes||CT009050|LIPSCANI SRL (Marttinez)|Constanta|CTHRKBA28|155|CCC HRK CAMEL BW Vara 2013|121|Horeca|0
0|CS3606984|2013-08-31 02:00:06|Sorescu|Mihai||M|1978-01-22|Constanta|CONSTANTA|Mangaliei|290|||||0734789589||Sorescu.mihai@yahoo.com|KTSV||1 Camel White (4 mg) Pack|Yes|Yes||CT009050|LIPSCANI SRL (Marttinez)|Constanta|CTHRKBA28|155|CCC HRK CAMEL BW Vara 2013|121|Horeca|0
0|CS3606988|2013-08-31 02:02:55|Voiculescu|Alina||F|1984-07-09|Bucuresti|SECTOR 5|Victoriei|107|||||0734657878|||MBRGLA||1 Camel Black (6 mg) Pack|Yes|Yes||CT009050|LIPSCANI SRL (Marttinez)|Constanta|CTHRKBA81|155|CCC HRK CAMEL BW Vara 2013|121|Horeca|0
0|CS3606991|2013-08-31 02:03:59|Sincai|Razvan||M|1993-08-12|Constanta|LUMINA|1 mai|34|||||0733288548||Sincai.razvan@yahoo.com|PMSV||1 Camel White (4 mg) Pack|Yes|Yes||CT009050|LIPSCANI SRL (Marttinez)|Constanta|CTHRKBA80|155|CCC HRK CAMEL BW Vara 2013|121|Horeca|0
0|CS3606992|2013-08-31 02:04:07|Ganea|Mirela||F|1987-02-28|Constanta|Constanta|Unirii|1|2s|A|3|17|0737291763||Mirela_ganea@yahoo.com|KTSV||1 Camel White (4 mg) Pack|Yes|Yes||CT009050|LIPSCANI SRL (Marttinez)|Constanta|CTHRKBA83|155|CCC HRK CAMEL BW Vara 2013|121|Horeca|0
0|CS3606998|2013-08-31 02:10:47|Druga|Danut||M|1981-07-13|Constanta|CONSTANTA|Frunzelor|13|||||0735369867||Druga.danut23@yahoo.com|MBRFP||1 Camel Black (6 mg) Pack|Yes|No||CT009050|LIPSCANI SRL (Marttinez)|Constanta|CTHRKBA80|155|CCC HRK CAMEL BW Vara 2013|121|Horeca|0
0|CS3606999|2013-08-31 02:11:06|Calina|Remus||M|1988-12-11|Constanta|CONSTANTA|Poporului|51|D6|3||41|0754768968||Remus_ionut@yahoo.com|MBRGLFT||1 Camel White (4 mg) Pack|Yes|Yes||CT009050|LIPSCANI SRL (Marttinez)|Constanta|CTHRKBA81|155|CCC HRK CAMEL BW Vara 2013|121|Horeca|0
0|CS3607004|2013-08-31 02:24:09|Stefanescu|Daniel||M|1989-05-05|Constanta|CONSTANTA|Mamaia|151|||||0731456783||Stefanescu.dan@yahoo.com|DUNFCBB||1 Camel White (4 mg) Pack+Ochelari CA|Yes|Yes||CT005167|CRUSH LOUNGE|Constanta|CTHRKBA80|155|CCC HRK CAMEL BW Vara 2013|121|Horeca|0
0|CS3607005|2013-08-31 02:25:43|Petrea|Bogdan||M|1984-06-06|Constanta|CONSTANTA|Mamaia|60|B7|4||70|0734756877||Bogdanpetrea@yahoo.com|KTBL||1 Camel Black (6 mg) Pack+Casti CA|Yes|Yes||CT005167|CRUSH LOUNGE|Constanta|CTHRKBA81|155|CCC HRK CAMEL BW Vara 2013|121|Horeca|0
0|CS3607006|2013-08-31 02:25:50|Apostol|Mihaela||F|1987-04-26|Constanta|CONSTANTA|Ic bratianu|2|C4|2|P|20|0726018527||Mihaela.apostol87@yahoo.com|KTSWIT||1 Camel Black (6 mg) Pack+Zippo CA|Yes|Yes||CT005167|CRUSH LOUNGE|Constanta|CTHRKBA83|155|CCC HRK CAMEL BW Vara 2013|121|Horeca|0
0|CS3607007|2013-08-31 02:27:40|Toma|Andrei||M|1990-01-25|Constanta|CONSTANTA|Gari|32|||||0767356985|||KTBL||1 Camel Black (6 mg) Pack|Yes|Yes||CT005167|CRUSH LOUNGE|Constanta|CTHRKBA28|155|CCC HRK CAMEL BW Vara 2013|121|Horeca|0
0|CS3607008|2013-08-31 02:29:40|Costea|Marius||M|1990-05-07|Constanta|CONSTANTA|Primaverii|41b|||||0742467822||Costea.marius@yahoo.com|MBRFP||1 Camel Black (6 mg) Pack+Ochelari CA|Yes|Yes||CT005167|CRUSH LOUNGE|Constanta|CTHRKBA80|155|CCC HRK CAMEL BW Vara 2013|121|Horeca|0
0|CS3607009|2013-08-31 02:31:25|Matric|Radu||M|1989-04-16|Constanta|CONSTANTA|Primaverii|17|||||0756344999||Radumatric@yahoo.com|PMSV||1 Camel White (4 mg) Pack+Casti CA|Yes|Yes||CT005167|CRUSH LOUNGE|Constanta|CTHRKBA81|155|CCC HRK CAMEL BW Vara 2013|121|Horeca|0
0|CS3607010|2013-08-31 02:33:02|Pruna|Sorina||F|1989-06-05|Constanta|CONSTANTA|Soveja|199b|||||0742457832|||PARSB||1 Camel White (4 mg) Pack|Yes|Yes||CT005167|CRUSH LOUNGE|Constanta|CTHRKBA80|155|CCC HRK CAMEL BW Vara 2013|121|Horeca|0
0|CS3607011|2013-08-31 02:33:43|Pantilie|Bianca||F|1987-03-04|Constanta|OVIDIU|Lalelelor|62|||||0743296490||Bya_pantilie@yahoo.com|KTSWIT||1 Camel Black (6 mg) Pack+Zippo CA|Yes|Yes||CT005167|CRUSH LOUNGE|Constanta|CTHRKBA83|155|CCC HRK CAMEL BW Vara 2013|121|Horeca|0
0|CS3607012|2013-08-31 02:42:29|Rosca|Mihai|1820209090023|M|1982-02-09|Braila|SPIRU HARET|Lalelelor|9|0|0|0|0|0758878987||mihai_manevra@yahoo.com|KTBL||1 Camel Black (6 mg) Pack+Casti CA|Yes|Yes||CT005167|CRUSH LOUNGE|Constanta|CTHRKBA81|155|CCC HRK CAMEL BW Vara 2013|121|Horeca|0
0|CS3607013|2013-08-31 02:48:26|Ionescu|Mihai||M|1993-07-01|Prahova|PLOIEST|Maramures|3|||||0721226647||mihaigsx@yahoo.com|KTBL||1 Camel Black (6 mg) Pack+Zippo CA|Yes|Yes||CT005167|CRUSH LOUNGE|Constanta|CTHRKBA83|155|CCC HRK CAMEL BW Vara 2013|121|Horeca|0
0|CS3607014|2013-08-31 02:52:04|Istrar|Cristofor||M|1986-01-01|Constanta|EFORIE SUD|Principals|1|||||0734425785||Istrar.cristofor@yahoo.com|CABK||1 Camel Black (6 mg) Pack|Yes|Yes||CT005167|CRUSH LOUNGE|Constanta|CTHRKBA80|155|CCC HRK CAMEL BW Vara 2013|121|Horeca|0
0|CS3607015|2013-08-31 02:53:03|Nedelcu|Laura||F|1990-05-29|Braila|BRAILA|Calea calarasilor|64|14|2||31|0734657778|||MBRGLFT||1 Camel White (4 mg) Pack|Yes|Yes||CT005167|CRUSH LOUNGE|Constanta|CTHRKBA81|155|CCC HRK CAMEL BW Vara 2013|121|Horeca|0
0|CS3607016|2013-08-31 02:55:16|Nedu|Daniel||M|1980-02-11|Constanta|CONSTANTA|Comarnic|67a|||||0723198566||Robalky@yahoo.com|KTBLH||1 Camel Black (6 mg) Pack|Yes|Yes||CT005167|CRUSH LOUNGE|Constanta|CTHRKBA28|155|CCC HRK CAMEL BW Vara 2013|121|Horeca|0
0|CS3607017|2013-08-31 02:58:09|Cocot|Cristian||M|1993-10-06|Constanta|CONSTANTA|Tomis|279|T7|A|3|9|0746060506||Cocot.cristan@yahoo.com|KTBL||1 Camel White (4 mg) Pack|Yes|Yes||CT005167|CRUSH LOUNGE|Constanta|CTHRKBA83|155|CCC HRK CAMEL BW Vara 2013|121|Horeca|0
0|CS3607018|2013-08-31 03:00:43|Gogu|Mari||F|1984-11-29|Constanta|CONSTANTA|Posta mare|31|||||0725684689|||PMECBL||1 Camel Black (6 mg) Pack|Yes|Yes||CT005167|CRUSH LOUNGE|Constanta|CTHRKBA28|155|CCC HRK CAMEL BW Vara 2013|121|Horeca|0
0|CS3607019|2013-08-31 03:00:54|Miron|Stefan||M|1989-09-18|Constanta|CONSTANTA|Bogdan P hasdeu|114a|L7||0|0|0725332803||St_89_st@yahoo.com|CABK||1 Camel Black (6 mg) Pack|Yes|Yes||CT005167|CRUSH LOUNGE|Constanta|CTHRKBA80|155|CCC HRK CAMEL BW Vara 2013|121|Horeca|0
0|CS3607020|2013-08-31 03:01:27|Mocanu|George||M|1989-02-22|Constanta|CONSTANTA|N. iorga|3|||||0766435455||George.george@yahoo.com|PARAB||1 Camel Black (6 mg) Pack|Yes|Yes||CT005167|CRUSH LOUNGE|Constanta|CTHRKBA81|155|CCC HRK CAMEL BW Vara 2013|121|Horeca|0
0|CS3607021|2013-08-31 03:02:55|Ilie|Lorant||M|1984-01-29|Tulcea|TULCEA|Scolii|1|||||0721468995||Ilielorant@yahoo.com|PARSB||1 Camel White (4 mg) Pack|Yes|Yes||CT005167|CRUSH LOUNGE|Constanta|CTHRKBA28|155|CCC HRK CAMEL BW Vara 2013|121|Horeca|0
0|CS3607022|2013-08-31 03:04:07|Abdula|Sevigean||F|1990-01-15|Constanta|Mangalia|9mai|21|||||0754019074||Abdula.sevigean@yahoo.com|KTSV||1 Camel White (4 mg) Pack|Yes|No||CT005167|CRUSH LOUNGE|Constanta|CTHRKBA83|155|CCC HRK CAMEL BW Vara 2013|121|Horeca|0
0|CS3607023|2013-08-31 03:06:12|Ristu|Carmen||F|1983-09-24|Constanta|CONSTANTA|Tulcei|39|||||0745678457||Jocarmen@yahoo.com|DUNBL||1 Camel Black (6 mg) Pack|Yes|Yes||CT005167|CRUSH LOUNGE|Constanta|CTHRKBA28|155|CCC HRK CAMEL BW Vara 2013|121|Horeca|0
0|CS3607024|2013-08-31 03:08:30|Puscasu|Alexandru Valentin||M|1995-04-07|Constanta|CONSTANTA|Rodica|58|||||0736961135||Valy_pusky_th3_0n3@yahoo.com|MBRFPH||1 Camel White (4 mg) Pack|Yes|Yes||CT005167|CRUSH LOUNGE|Constanta|CTHRKBA80|155|CCC HRK CAMEL BW Vara 2013|121|Horeca|0
0|CS3607025|2013-08-31 03:09:31|Ciurea|Ancuta||F|1987-02-07|Constanta|CONSTANTA|Umbrei|16|D2|A|P|5|0754163778|||MBRFP||1 Camel White (4 mg) Pack|Yes|Yes||CT005167|CRUSH LOUNGE|Constanta|CTHRKBA83|155|CCC HRK CAMEL BW Vara 2013|121|Horeca|0
0|CS3607026|2013-08-31 03:11:14|Tatarus|Cristina||F|1989-04-04|Buzau|BUZAU|Micro 13|45|||||0745324454|||KTSWITH||1 Camel Black (6 mg) Pack|Yes|Yes||CT005167|CRUSH LOUNGE|Constanta|CTHRKBA81|155|CCC HRK CAMEL BW Vara 2013|121|Horeca|0
0|CS3607027|2013-08-31 03:13:20|Iacobescu|Alexandru||M|1980-09-01|Brasov|BRAN|Ion Roata|189|||||0734425786|||KTSV||1 Camel White (4 mg) Pack|Yes|Yes||CT005167|CRUSH LOUNGE|Constanta|CTHRKBA80|155|CCC HRK CAMEL BW Vara 2013|121|Horeca|0
0|CS3607028|2013-08-31 03:15:08|Cutui|Ana maria||M|1983-06-29|Constanta|CONSTANTA|Tomis|34a|2c||||0768356624||Cutuianamaria@gmail.com|MBRGLT||1 Camel Black (6 mg) Pack|Yes|Yes||CT005167|CRUSH LOUNGE|Constanta|CTHRKBA28|155|CCC HRK CAMEL BW Vara 2013|121|Horeca|0
0|CS3607029|2013-08-31 03:17:24|Tiganus|Ana maria||F|1990-03-08|Bucuresti|SECTOR 6|Decebal|75|5|C||74|0745868776||Ana_maria_tiganus@gmail.com|CAWH||1 Camel White (4 mg) Pack|Yes|Yes||CT005167|CRUSH LOUNGE|Constanta|CTHRKBA81|155|CCC HRK CAMEL BW Vara 2013|121|Horeca|0
0|CS3607030|2013-08-31 03:18:17|Muresean|Andrei||M|1988-03-26|Constanta|CONSTANTA|Adamclisi|37|||||0726842698||Andrei.muresean@yahoo.com|DAVGL||1 Camel Black (6 mg) Pack|Yes|Yes||CT005167|CRUSH LOUNGE|Constanta|CTHRKBA83|155|CCC HRK CAMEL BW Vara 2013|121|Horeca|0
0|CS3607031|2013-08-31 03:19:58|Radutoi|Iancu||M|1990-10-20|Bucuresti|SECTOR 2|Prefecturii|71b|S2|1|6|28|0734436799|||KTBLH||1 Camel Black (6 mg) Pack|Yes|Yes||CT005167|CRUSH LOUNGE|Constanta|CTHRKBA80|155|CCC HRK CAMEL BW Vara 2013|121|Horeca|0
0|CS3607032|2013-08-31 03:23:57|Apostol|David||M|1990-09-14|Constanta|CONSTANTA|Unirii|88|||||0724685367||David_apostol_no_1@yahoo.com|DUNFCMBB||1 Camel Black (6 mg) Pack|Yes|Yes||CT005167|CRUSH LOUNGE|Constanta|CTHRKBA80|155|CCC HRK CAMEL BW Vara 2013|121|Horeca|0
0|CS3607033|2013-08-31 03:25:24|Lazar|Cristina||F|1987-06-26|Galati|GALATI|Siderurgilor|31|||||0767973256|||DAVGLS||1 Camel White (4 mg) Pack|Yes|Yes||CT005167|CRUSH LOUNGE|Constanta|CTHRKBA28|155|CCC HRK CAMEL BW Vara 2013|121|Horeca|0
0|CS3607034|2013-08-31 03:28:42|Gheorghe|Aurel||M|1986-02-05|Constanta|CONSTANTA|Muresului|31|||||0763942678|||KTSWIT||1 Camel Black (6 mg) Pack|Yes|Yes||CT005167|CRUSH LOUNGE|Constanta|CTHRKBA83|155|CCC HRK CAMEL BW Vara 2013|121|Horeca|0
0|CS3607035|2013-08-31 03:40:32|Marin|Geanina||F|1985-10-12|Constanta|CONSTANTA|Calarasi|6|||||0732647569|||MBRFPEX||1 Camel White (4 mg) Pack|Yes|Yes||CT005167|CRUSH LOUNGE|Constanta|CTHRKBA83|155|CCC HRK CAMEL BW Vara 2013|121|Horeca|0
0|CS3607036|2013-08-31 03:54:05|Piscan|Laura||F|1982-03-10|Bucuresti|2|Calea mosiilor|288|32|3|8|103|0744441814||Laura.piscan@yahoo.com|CAWH||1 Camel White (4 mg) Pack|Yes|Yes||CT005167|CRUSH LOUNGE|Constanta|CTHRKBA80|155|CCC HRK CAMEL BW Vara 2013|121|Horeca|0
0|CS3607037|2013-08-31 03:54:34|Cristu|Carol||M|1985-07-14|Constanta|COBADIN|Politiei|5|||||0745867878||Carocristu@yahoo.com|MBRGLA||1 Camel Black (6 mg) Pack|Yes|Yes||CT005167|CRUSH LOUNGE|Constanta|CTHRKBA81|155|CCC HRK CAMEL BW Vara 2013|121|Horeca|0
0|CS3607038|2013-08-31 03:55:15|Poiana|Vlad||M|1984-01-21|Constanta|CONSTANTA|Lapusneanu|521|||||0735688325|||MBRFPEX||1 Camel White (4 mg) Pack|Yes|Yes||CT005167|CRUSH LOUNGE|Constanta|CTHRKBA28|155|CCC HRK CAMEL BW Vara 2013|121|Horeca|0
0|CS3607039|2013-08-31 03:56:23|Hanu|Cristina||F|1990-02-09|Constanta|CONSTANTA|Grivitei|1|D5|S||15|0753105267||Criss.hanu@yahoo.com|DAVGLS||1 Camel Black (6 mg) Pack|Yes|Yes||CT005167|CRUSH LOUNGE|Constanta|CTHRKBA83|155|CCC HRK CAMEL BW Vara 2013|121|Horeca|0
0|CS3607040|2013-08-31 03:58:07|Sarbu|Geo||F|1984-01-27|Bucuresti|SECTOR 6|Iuliu maniu|380|||||0735688843|||CAWH||1 Camel White (4 mg) Pack|Yes|Yes||CT005167|CRUSH LOUNGE|Constanta|CTHRKBA28|155|CCC HRK CAMEL BW Vara 2013|121|Horeca|0
0|CS3607041|2013-08-31 03:59:10|Gurgu|Otilia||F|1990-05-01|Bucuresti|5|Decebal|67|||||0743204340|||DAVGL||1 Camel Black (6 mg) Pack|Yes|No||CT005167|CRUSH LOUNGE|Constanta|CTHRKBA80|155|CCC HRK CAMEL BW Vara 2013|121|Horeca|0
0|CS3607042|2013-08-31 03:59:40|Zainea|Eugen||M|1984-12-15|Galati|GALATI|Independentei|78|||||0756353500||Eugen_cool@yahoo.com|MBRFPEX||1 Camel White (4 mg) Pack|Yes|Yes||CT005167|CRUSH LOUNGE|Constanta|CTHRKBA81|155|CCC HRK CAMEL BW Vara 2013|121|Horeca|0
0|CS3607043|2013-08-31 04:00:44|Bacula|Mihai||M|1989-03-23|Constanta|CONSTANTA|Oborului|38|||||0752843300||Mihai.bacula@yahoo.com|KTSV||1 Camel White (4 mg) Pack|Yes|Yes||CT005167|CRUSH LOUNGE|Constanta|CTHRKBA83|155|CCC HRK CAMEL BW Vara 2013|121|Horeca|0
0|CS3610329|2013-08-31 23:33:27|Gavan|Horia||M|1984-05-26|Constanta|CONSTANTA|Ion ratiu|49|||||0763457947||Gavan.390@yahoo.com|PMECBL||1 Camel Black (6 mg) Pack|Yes|Yes||CT004679|Rev|Constanta|CTHRKBA28|155|CCC HRK CAMEL BW Vara 2013|121|Horeca|0
0|CS3610332|2013-08-31 23:33:32|Croitoru|Stelian||M|1986-07-07|Constanta|CONSTANTA|Pescarus|51|C11|||3|0735673899||Croitorustelian@yahoo.com|DAVGL||1 Camel Black (6 mg) Pack+Ochelari CA|Yes|Yes||CT004679|Rev|Constanta|CTHRKBA80|155|CCC HRK CAMEL BW Vara 2013|121|Horeca|0
0|CS3610337|2013-08-31 23:35:40|Vintonic|Ionel||F|1984-04-17|Constanta|CONSTANTA|Mircea cel batran|47|3a|21|||0735689533|||DUNFCBB||1 Camel White (4 mg) Pack|Yes|Yes||CT004679|Rev|Constanta|CTHRKBA28|155|CCC HRK CAMEL BW Vara 2013|121|Horeca|0
0|CS3610339|2013-08-31 23:36:05|Ariel|Ilian||M|1985-11-04|Constanta|CONSTANTA|Mamaia|56|||||0745768678||Arieliulian@yahoo.com|KTBL6||1 Camel Black (6 mg) Pack+Casti CA|Yes|Yes||CT004679|Rev|Constanta|CTHRKBA81|155|CCC HRK CAMEL BW Vara 2013|121|Horeca|0
0|CS3610340|2013-08-31 23:36:13|Bratu|George||M|1988-02-26|Constanta|Constanta|Ferdinand|5|S3|A|2|14|0726021827||George_bratu@yahoo.com|MBRBI||1 Camel Black (6 mg) Pack+Zippo CA|Yes|Yes||CT004679|Rev|Constanta|CTHRKBA83|155|CCC HRK CAMEL BW Vara 2013|121|Horeca|0
0|CS3610360|2013-08-31 23:40:27|Rataru|Marius Cosmin||M|1981-06-27|Constanta|CONSTANTA|Cucului|99|||||0732578752||Rataru.marius_cosmin@yahoo.com|MBRFPEX||1 Camel White (4 mg) Pack+Ochelari CA|Yes|Yes||CT004679|Rev|Constanta|CTHRKBA80|155|CCC HRK CAMEL BW Vara 2013|121|Horeca|0
0|CS3610367|2013-08-31 23:43:34|Sauca|Adrian||M|1988-06-26|Constanta|CONSTANTA|Baba novac|129|F10|B||41|0755243777||Adi_sauca@yahoo.om|PMBL||1 Camel Black (6 mg) Pack+Casti CA|Yes|Yes||CT004679|Rev|Constanta|CTHRKBA81|155|CCC HRK CAMEL BW Vara 2013|121|Horeca|0
0|CS3610392|2013-08-31 23:56:18|Stoenciu|Diana ramona||F|1986-03-08|Constanta|CONSTANTA|Ion ursu|51|N2D|D||65|0746042155||Diana@stoenciu.ro|KTBL||1 Camel Black (6 mg) Pack+Casti CA|Yes|Yes||CT004679|Rev|Constanta|CTHRKBA81|155|CCC HRK CAMEL BW Vara 2013|121|Horeca|0
0|CS3610393|2013-08-31 23:56:43|Radulescu|Andreea||F|1991-05-12|Constanta|CONSTANTA|Salciilor|23|7b|B||21|0786928404||D33a_km5@yahoo.com|PMBL||1 Camel Black (6 mg) Pack|Yes|Yes||CT004679|Rev|Constanta|CTHRKBA80|155|CCC HRK CAMEL BW Vara 2013|121|Horeca|0
0|CS3610422|2013-09-01 00:04:35|Enescu|Iulian||M|1973-07-14|Bucuresti|SECTOR 1|Borsa|18|||0|0|0765087764||balanescuandrei@yahoo.com|MBRFPEX||1 Camel White (4 mg) Pack|Yes|Yes||CT004679|Rev|Constanta|CTHRKBA83|155|CCC HRK CAMEL BW Vara 2013|121|Horeca|0
0|CS3610413|2013-09-01 00:04:44|Iorda|Gelu||M|1982-10-04|Constanta|MANGALIA|Constantei|38|A2|B|3|33|0722643204||Gelus_24@yahoo.com|KTBL||1 Camel Black (6 mg) Pack|Yes|Yes||CT004679|Rev|Constanta|CTHRKBA80|155|CCC HRK CAMEL BW Vara 2013|121|Horeca|0
0|CS3610430|2013-09-01 00:08:07|Trasca|Liviu||M|1990-05-14|Constanta|CONSTANTA|Mihai eminescu|21|B||||0765994851||Trasca.liviu@yahoo.com|CAWH||1 Camel White (4 mg) Pack|Yes|Yes||CT004679|Rev|Constanta|CTHRKBA28|155|CCC HRK CAMEL BW Vara 2013|121|Horeca|0
0|CS3610444|2013-09-01 00:11:56|Ivan|Victor||M|1990-01-15|Constanta|CONSTANTA|Liliacului|2|B4|4|0|73|0765283063||Victor_v90@yahoo.com|KTSV||1 Camel White (4 mg) Pack|Yes|Yes||CT004679|Rev|Constanta|CTHRKBA80|155|CCC HRK CAMEL BW Vara 2013|121|Horeca|0
0|CS3610454|2013-09-01 00:13:57|Moisuc|Radu||M|1993-01-30|Constanta|CONSTANTA|General vasile milea|1|||||0760544394|||CABK||1 Camel Black (6 mg) Pack|Yes|Yes||CT004679|Rev|Constanta|CTHRKBA81|155|CCC HRK CAMEL BW Vara 2013|121|Horeca|0
0|CS3610462|2013-09-01 00:16:12|Frunzulica|Gabriel||M|1976-10-29|Constanta|CONSTANTA|Farului|72|||||0725467890||Frunzulica_gaby@yahoo.com|KTBL||1 Camel Black (6 mg) Pack|Yes|Yes||CT004679|Rev|Constanta|CTHRKBA28|155|CCC HRK CAMEL BW Vara 2013|121|Horeca|0
0|CS3610467|2013-09-01 00:17:30|Vitel|Mihai||M|1991-05-08|Constanta|CONSTANTA|Pescarilor|34|Bm13||10|45|0721834842|||CAWH||1 Camel White (4 mg) Pack|Yes|Yes||CT004679|Rev|Constanta|CTHRKBA80|155|CCC HRK CAMEL BW Vara 2013|121|Horeca|0
0|CS3610482|2013-09-01 00:22:36|Pandichi|Marius||M|1984-06-26|Bucuresti|SECTOR 3|Regele mihai 1|521|||||0726467899||Mariussrl@yahoo.com|MBRFPEX||1 Camel White (4 mg) Pack|Yes|Yes||CT004679|Rev|Constanta|CTHRKBA28|155|CCC HRK CAMEL BW Vara 2013|121|Horeca|0
0|CS3610488|2013-09-01 00:23:44|Bratosin|Camelia||F|1983-10-09|Tulcea|TULCEA|Independentei|5|||||0756778999||Camy_k@gmail.com|DUNFCBB||1 Camel White (4 mg) Pack|Yes|Yes||CT004679|Rev|Constanta|CTHRKBA81|155|CCC HRK CAMEL BW Vara 2013|121|Horeca|0
0|CS3610491|2013-09-01 00:24:13|Vecerdea|Catalin marius||M|1968-11-28|Constanta|Constanta|Al apusneanu|114|X1|||4|0732998506||Brdenissa@yahoo.com|DUNFCBB||1 Camel White (4 mg) Pack+Zippo CA|Yes|Yes||CT004679|Rev|Constanta|CTHRKBA83|155|CCC HRK CAMEL BW Vara 2013|121|Horeca|0
0|CS3610538|2013-09-01 00:42:38|Bacila|Andrei||M|1988-02-04|Constanta|CONSTANTA|Dezdrobirii|12|A3|A|2|12|0753928363||Andrei.bacila@yahoo.com|DUNFCBB||1 Camel White (4 mg) Pack|Yes|Yes||CT004679|Rev|Constanta|CTHRKBA83|155|CCC HRK CAMEL BW Vara 2013|121|Horeca|0
0|CS3610540|2013-09-01 00:42:54|Bogdan|Corina||F|1987-04-04|Bucuresti|SECTOR 6|M. Eminescu|215|P15|2||30|0740647566||Bogdan.corina@yahoo.com|MBRGLFT||1 Camel White (4 mg) Pack|Yes|Yes||CT004679|Rev|Constanta|CTHRKBA81|155|CCC HRK CAMEL BW Vara 2013|121|Horeca|0
0|CS3610541|2013-09-01 00:43:28|Tanase|Stelian||M|1990-03-05|Braila|BRAILA|Timisoarei|12|||||0766283418|||PARSB||1 Camel White (4 mg) Pack|Yes|Yes||CT004679|Rev|Constanta|CTHRKBA80|155|CCC HRK CAMEL BW Vara 2013|121|Horeca|0
0|CS3610549|2013-09-01 00:45:56|Pocora|Daniel||M|1982-04-24|Constanta|CONSTANTA|Victor babes|59|||||0724679954|||PMECBL||1 Camel Black (6 mg) Pack|Yes|Yes||CT004679|Rev|Constanta|CTHRKBA28|155|CCC HRK CAMEL BW Vara 2013|121|Horeca|0
0|CS3610555|2013-09-01 00:48:03|Miculescu|Dorian||M|1990-10-17|Constanta|CONSTANTA|Lapusneanu|22b|||||0731263384|||PMECAFBL||1 Camel Black (6 mg) Pack|Yes|Yes||CT004679|Rev|Constanta|CTHRKBA80|155|CCC HRK CAMEL BW Vara 2013|121|Horeca|0
0|CS3610562|2013-09-01 00:48:45|Marinas|George||F|1979-12-12|Braila|Braila|Ion creanga|59|||||0735786367||Gica.fun@yahoo.com|MBRGLT||1 Camel Black (6 mg) Pack|Yes|Yes||CT004679|Rev|Constanta|CTHRKBA28|155|CCC HRK CAMEL BW Vara 2013|121|Horeca|0
0|CS3610563|2013-09-01 00:48:55|Hututui|Anamaria||M|1987-03-17|Constanta|Constanta|Margaritarelor|2|F3|A|2|14|0762917162||Anamariahututui@yahoo.com|DUNFCMBB||1 Camel Black (6 mg) Pack|Yes|Yes||CT004679|Rev|Constanta|CTHRKBA83|155|CCC HRK CAMEL BW Vara 2013|121|Horeca|0
0|CS3610567|2013-09-01 00:50:20|Vulpe|Florin||M|1985-08-11|Arges|CURTEA DE ARGES|Plevna|25|||||0723088978||Florin@vulpe.com|KTSWIT||1 Camel Black (6 mg) Pack|Yes|Yes||CT004679|Rev|Constanta|CTHRKBA81|155|CCC HRK CAMEL BW Vara 2013|121|Horeca|0
0|CS3610583|2013-09-01 00:56:03|Cornei|Elena||F|1988-03-30|Constanta|CONSTANTA|Garofitei|5|A|2|1|9|0753753798||Elena_cornei@yahoo.com|KTBL6||1 Camel Black (6 mg) Pack|Yes|Yes||CT004679|Rev|Constanta|CTHRKBA83|155|CCC HRK CAMEL BW Vara 2013|121|Horeca|0
0|CS3610590|2013-09-01 00:58:06|Costea|Angelica||F|1989-07-19|Constanta|VALU LUI TRAIAN|Soarelui|27|||||0750801881|||MBRFPEX||1 Camel White (4 mg) Pack|Yes|Yes||CT004679|Rev|Constanta|CTHRKBA81|155|CCC HRK CAMEL BW Vara 2013|121|Horeca|0
0|CS3610591|2013-09-01 00:58:09|Chirca|Adi||M|1989-05-06|Constanta|CONSTANTA|Todosca|12|A1|||5|0732167776||Chircadi@yahoo.com|DUNFCMBB||1 Camel Black (6 mg) Pack|Yes|Yes||CT004679|Rev|Constanta|CTHRKBA80|155|CCC HRK CAMEL BW Vara 2013|121|Horeca|0
0|CS3610592|2013-09-01 00:58:14|Dumas|Paula||F|1980-05-21|Bucuresti|SECTOR 5|Turda|69|||||0736484947|||PARABH||1 Camel White (4 mg) Pack|Yes|Yes||CT004679|Rev|Constanta|CTHRKBA28|155|CCC HRK CAMEL BW Vara 2013|121|Horeca|0
0|CS3610600|2013-09-01 01:00:03|Cocea|Tiberiu||M|1987-05-27|Braila|Braila|Liliacului|27|||||0752720262||Tiby.cocea@yahoo.com|KTSWIT||1 Camel Black (6 mg) Pack|Yes|Yes||CT004679|Rev|Constanta|CTHRKBA83|155|CCC HRK CAMEL BW Vara 2013|121|Horeca|0
0|CS3610601|2013-09-01 01:01:11|Varza|Renata||F|1977-03-27|Buzau|BUZAU|Catedralei|21|||||0738373829||Renata.varza@yahoo.com|MBRFP||1 Camel Black (6 mg) Pack|Yes|Yes||CT004679|Rev|Constanta|CTHRKBA28|155|CCC HRK CAMEL BW Vara 2013|121|Horeca|0
0|CS3610606|2013-09-01 01:02:37|Vase|Gelu||M|1990-02-15|Constanta|CONSTANTA|Soveja|72|P5A|C||68|0735867678|||LMBL||1 Camel Black (6 mg) Pack|No|Yes||CT004679|Rev|Constanta|CTHRKBA81|155|CCC HRK CAMEL BW Vara 2013|121|Horeca|0
0|CS3610608|2013-09-01 01:03:04|Zaharia|Sorin||M|1989-10-11|Constanta|NAVODARI|Coiciu|31|||||0754267357||Xaharia.sorin@gmail.com|CAWH||1 Camel White (4 mg) Pack|Yes|Yes||CT004679|Rev|Constanta|CTHRKBA80|155|CCC HRK CAMEL BW Vara 2013|121|Horeca|0
0|CS3610610|2013-09-01 01:04:29|Tremurici|Andrei||M|1988-03-26|Constanta|Ovidiu|Papadiei|33|||||0726001436||Andrei_tremurici@yahoo.com|MBRGLH||1 Camel Black (6 mg) Pack|Yes|Yes||CT004679|Rev|Constanta|CTHRKBA83|155|CCC HRK CAMEL BW Vara 2013|121|Horeca|0
0|CS3610611|2013-09-01 01:04:31|Barcan|Kevin||M|1980-10-22|Arges|PITESTI|Ioan slavici|67|||||0785383836||Seentomore@yahoo.com|MBRFP||1 Camel Black (6 mg) Pack|Yes|Yes||CT004679|Rev|Constanta|CTHRKBA28|155|CCC HRK CAMEL BW Vara 2013|121|Horeca|0
0|CS3610614|2013-09-01 01:06:36|Dosa|Erika||F|1990-05-18|Galati|GALATI|Avram iancu|62|||||0746383648|||DAVGLS||1 Camel White (4 mg) Pack|Yes|Yes||CT004679|Rev|Constanta|CTHRKBA28|155|CCC HRK CAMEL BW Vara 2013|121|Horeca|0
0|CS3610622|2013-09-01 01:09:09|Porumboiu|Florentina||F|1987-04-16|Constanta|CONSTANTA|Salcamilor|7|||||0766243233||Flory_entina@yahoo.com|PARSB||1 Camel White (4 mg) Pack|Yes|Yes||CT004679|Rev|Constanta|CTHRKBA81|155|CCC HRK CAMEL BW Vara 2013|121|Horeca|0
0|CS3610625|2013-09-01 01:09:55|Badea|Claudiu||M|1990-12-29|Constanta|CONSTANTA|Pinului|2|1t|A|4|6|0726011627||Claudiu_badea@yahoo.com|PARSB||1 Camel White (4 mg) Pack|Yes|Yes||CT004679|Rev|Constanta|CTHRKBA83|155|CCC HRK CAMEL BW Vara 2013|121|Horeca|0
0|CS3610628|2013-09-01 01:10:17|Tarabanciuc|Liliana||F|1990-03-11|Braila|VICTORIA|Mircea Cel Batran|133b|||||0743478326||Tarabanciuc.lili@yahoo.com|DUNBL||1 Camel Black (6 mg) Pack|Yes|Yes||CT004679|Rev|Constanta|CTHRKBA80|155|CCC HRK CAMEL BW Vara 2013|121|Horeca|0
0|CS3610634|2013-09-01 01:11:17|Lemnea|Elena||F|1988-04-26|Constanta|CONSTANTA|Tomis|231|||||0753739396||Lemnea.219@gmail.com|KTBL6||1 Camel Black (6 mg) Pack|Yes|Yes||CT004679|Rev|Constanta|CTHRKBA28|155|CCC HRK CAMEL BW Vara 2013|121|Horeca|0
0|CS3610702|2013-09-01 01:26:39|Tudorie|Sorin||M|1988-01-01|Bucuresti|SECTOR 5|Cetatii|27|||||0755243399||Sorintudorie@yahoo.com|KTBL||1 Camel Black (6 mg) Pack+Casti CA|Yes|Yes||CT005167|CRUSH LOUNGE|Constanta|CTHRKBA81|155|CCC HRK CAMEL BW Vara 2013|121|Horeca|0
0|CS3610708|2013-09-01 01:28:02|Ergun|Eren||M|1990-04-25|Constanta|OVIDIU|Principala|13|||||0766355881||Ergun.eren@yahoo.com|PHMQBL||1 Camel Black (6 mg) Pack+Ochelari CA|Yes|Yes||CT005167|CRUSH LOUNGE|Constanta|CTHRKBA80|155|CCC HRK CAMEL BW Vara 2013|121|Horeca|0
0|CS3610712|2013-09-01 01:28:36|Ghersan|Bianca||F|1985-05-19|Bucuresti|SECTOR 5|Drumul taberei|72|Sr2|2|||0724589733|||KTSV||1 Camel White (4 mg) Pack|Yes|Yes||CT005167|CRUSH LOUNGE|Constanta|CTHRKBA28|155|CCC HRK CAMEL BW Vara 2013|121|Horeca|0
0|CS3610724|2013-09-01 01:30:55|Soroceanu|Constantin||M|1989-04-26|Constanta|Constanta|Muresului|71|||||0764248852||Soroceanu.constantin@yahoo.com|PARAB||1 Camel Black (6 mg) Pack+Zippo CA|Yes|Yes||CT005167|CRUSH LOUNGE|Constanta|CTHRKBA83|155|CCC HRK CAMEL BW Vara 2013|121|Horeca|0
0|CS3610731|2013-09-01 01:32:46|Braga|Madalina||F|1980-05-11|Constanta|NAVODARI|Farului|36|||||0723657999||Mada_braga@yahoo.ro|KTSV||1 Camel Black (6 mg) Pack+Casti CA|Yes|Yes||CT005167|CRUSH LOUNGE|Constanta|CTHRKBA81|155|CCC HRK CAMEL BW Vara 2013|121|Horeca|0
0|CS3610734|2013-09-01 01:33:10|Fatu|Cristi||M|1984-08-24|Constanta|CONSTANTA|Soveja|90|||||0767935373||Cristi.fatu@yahoo.com|PMSV||1 Camel White (4 mg) Pack|Yes|Yes||CT005167|CRUSH LOUNGE|Constanta|CTHRKBA28|155|CCC HRK CAMEL BW Vara 2013|121|Horeca|0
0|CS3610752|2013-09-01 01:36:40|Coman|Cristian||M|1990-03-04|Galati|GALATI|Brailei|107|15|3||62|0742323232||Cristi_90@yahoo.com|MBRGLA||1 Camel Black (6 mg) Pack|Yes|Yes||CT005167|CRUSH LOUNGE|Constanta|CTHRKBA81|155|CCC HRK CAMEL BW Vara 2013|121|Horeca|0
0|CS3610755|2013-09-01 01:38:02|Nistor|Sorin||M|1990-12-10|Constanta|CONSTANTA|Aurel Vlaicu|23|2||4|15|0732156098|||DUNFCMBB||1 Camel Black (6 mg) Pack+Ochelari CA|Yes|Yes||CT005167|CRUSH LOUNGE|Constanta|CTHRKBA80|155|CCC HRK CAMEL BW Vara 2013|121|Horeca|0
0|CS3610757|2013-09-01 01:38:37|Gener|Adnan||F|1988-02-28|Constanta|CONSTANTA|Il caragiale|4|V1|A|4|32|0738263928|||DUNFCMBB||1 Camel Black (6 mg) Pack|Yes|Yes||CT005167|CRUSH LOUNGE|Constanta|CTHRKBA83|155|CCC HRK CAMEL BW Vara 2013|121|Horeca|0
0|CS3610762|2013-09-01 01:41:31|Conciu|Daniela||F|1991-02-28|Constanta|CONSTANTA|Mircea cel batran|57|D|3||73|0734681777||Dani.conciu@yahoo.com|DAVGL||1 Camel Black (6 mg) Pack|Yes|Yes||CT005167|CRUSH LOUNGE|Constanta|CTHRKBA81|155|CCC HRK CAMEL BW Vara 2013|121|Horeca|0
0|CS3610775|2013-09-01 01:45:19|Popa|Mihaela||M|1989-03-05|Constanta|CONSTANTA|Mihai eminescu|23|||||0737464422||Mihaela.popa@yahoo.com|KTSWIT||1 Camel Black (6 mg) Pack+Zippo CA|Yes|Yes||CT005167|CRUSH LOUNGE|Constanta|CTHRKBA83|155|CCC HRK CAMEL BW Vara 2013|121|Horeca|0
0|CS3610783|2013-09-01 01:47:03|Zguma|Alina||F|1990-12-17|Constanta|LUMINA|George Enescu|85b|||||0732568912||Zgumaalina@yahoo.com|CABK||1 Camel Black (6 mg) Pack|Yes|Yes||CT005167|CRUSH LOUNGE|Constanta|CTHRKBA80|155|CCC HRK CAMEL BW Vara 2013|121|Horeca|0
0|CS3610789|2013-09-01 01:48:13|Financiaru|Nicoleta||F|1985-02-17|Bacau|BACAU|Libertatii|72|||||0743757678||Nico.nico@yahoo.com|DUNFCBB||1 Camel White (4 mg) Pack|Yes|Yes||CT005167|CRUSH LOUNGE|Constanta|CTHRKBA81|155|CCC HRK CAMEL BW Vara 2013|121|Horeca|0
0|CS3610788|2013-09-01 01:48:47|Zecheria|Aurel||M|1991-04-20|Brasov|BRASOV|Marin sorescu|59|||||0735656568|||KTSV||1 Camel White (4 mg) Pack|Yes|Yes||CT005167|CRUSH LOUNGE|Constanta|CTHRKBA28|155|CCC HRK CAMEL BW Vara 2013|121|Horeca|0
0|CS3610797|2013-09-01 01:51:46|Paraschiv|Traian||F|1988-08-20|Constanta|CONSTANTA|Giurgiu|53|||||0724851467||Paraschiv.traian@gmail.com|PARNBH||1 Camel Black (6 mg) Pack|Yes|Yes||CT005167|CRUSH LOUNGE|Constanta|CTHRKBA28|155|CCC HRK CAMEL BW Vara 2013|121|Horeca|0
0|CS3610800|2013-09-01 01:52:43|Stoica|Anamaria||F|1987-03-23|Constanta|CONSTANTA|Morilor|17|D20|A|1|2|0726072638||Stoica_anamaria@yahoo.com|KTSV||1 Camel White (4 mg) Pack|Yes|Yes||CT005167|CRUSH LOUNGE|Constanta|CTHRKBA83|155|CCC HRK CAMEL BW Vara 2013|121|Horeca|0
0|CS3610801|2013-09-01 01:52:52|Ciuhureanu|Oana||F|1990-07-11|Buzau|BALACEANU|Garofitei|31|||||0744337899|||KTSV||1 Camel White (4 mg) Pack|Yes|Yes||CT005167|CRUSH LOUNGE|Constanta|CTHRKBA80|155|CCC HRK CAMEL BW Vara 2013|121|Horeca|0
0|CS3610804|2013-09-01 01:53:38|Ene|Florin||M|1980-06-26|Constanta|CONSTANTA|Liliacului|49|||||0735799632|||DUNFCMBB||1 Camel Black (6 mg) Pack|Yes|Yes||CT005167|CRUSH LOUNGE|Constanta|CTHRKBA28|155|CCC HRK CAMEL BW Vara 2013|121|Horeca|0
0|CS3610811|2013-09-01 01:57:46|Pilca|Sorin||M|1984-04-23|Bacau|Onesti|Nicolae iorga|49|||||0721358855|||CABK||1 Camel Black (6 mg) Pack|Yes|Yes||CT005167|CRUSH LOUNGE|Constanta|CTHRKBA28|155|CCC HRK CAMEL BW Vara 2013|121|Horeca|0
0|CS3610814|2013-09-01 01:58:47|Leahu|Ionela||F|1990-02-26|Bucuresti|SECTOR 3|Aurel vlaicu|54|||||0826107726||Ionela_leahu@yahoo.com|KTSWIT||1 Camel Black (6 mg) Pack|Yes|Yes||CT005167|CRUSH LOUNGE|Constanta|CTHRKBA83|155|CCC HRK CAMEL BW Vara 2013|121|Horeca|0
0|CS3610837|2013-09-01 02:10:21|Simionescu|Elena||F|1984-06-06|Bucuresti|SECTOR 5|Stefan cel mare|154|D5|||53|0754668735|||MBRFP||1 Camel Black (6 mg) Pack|Yes|Yes||CT005167|CRUSH LOUNGE|Constanta|CTHRKBA81|155|CCC HRK CAMEL BW Vara 2013|121|Horeca|0
0|CS3610838|2013-09-01 02:12:33|Angeluta|Leonard||M|1987-10-05|Galati|GALATI|Costache Colache|7|||||0732678432|||PARABH||1 Camel Black (6 mg) Pack|Yes|Yes||CT005167|CRUSH LOUNGE|Constanta|CTHRKBA80|155|CCC HRK CAMEL BW Vara 2013|121|Horeca|0
0|CS3610840|2013-09-01 02:14:24|Mara|Tase||M|1985-03-06|Constanta|CONSTANTA|Tomis|334|||||0726567899|||KTBL6||1 Camel Black (6 mg) Pack|Yes|Yes||CT005167|CRUSH LOUNGE|Constanta|CTHRKBA81|155|CCC HRK CAMEL BW Vara 2013|121|Horeca|0
0|CS3610841|2013-09-01 02:15:59|Mantici|Ciprian||M|1988-10-02|Suceava|SUCEAVA|Morariu|6|D|A||12|0724521873||Ciprian88@yahoo.com|KTSWITH||1 Camel Black (6 mg) Pack|Yes|Yes||CT005167|CRUSH LOUNGE|Constanta|CTHRKBA83|155|CCC HRK CAMEL BW Vara 2013|121|Horeca|0
0|CS3610842|2013-09-01 02:16:17|Tomuleasa|Bogdan||M|1991-04-09|Constanta|CONSTANTA|Aleea magnoliei|4|L13|A|0|47|0731244046||Bogdan_912000@yahoo.com|KTBL||1 Camel Black (6 mg) Pack|Yes|Yes||CT005167|CRUSH LOUNGE|Constanta|CTHRKBA80|155|CCC HRK CAMEL BW Vara 2013|121|Horeca|0
0|CS3610843|2013-09-01 02:18:13|Istrate|Robert||M|1984-11-01|Neamt|PIATRA NEAMT|Viitorului|55|||||0755355776||Istrate@yahoo.ro|DAVIDBL||1 Camel Black (6 mg) Pack|Yes|Yes||CT005167|CRUSH LOUNGE|Constanta|CTHRKBA81|155|CCC HRK CAMEL BW Vara 2013|121|Horeca|0
0|CS3610844|2013-09-01 02:18:57|Voicu|Iulia||F|1986-11-26|Constanta|Constanta|Aurel vlaicu|5|||0|0|0763784165|||KTSV||1 Camel White (4 mg) Pack|Yes|Yes||CT005167|CRUSH LOUNGE|Constanta|CTHRKBA80|155|CCC HRK CAMEL BW Vara 2013|121|Horeca|0
0|CS3610845|2013-09-01 02:19:48|Voinea|Silviu||M|1986-07-31|Constanta|CONSTANTA|Teodorsperantia|107|||||0766895116|||PMECBL||1 Camel Black (6 mg) Pack|Yes|Yes||CT005167|CRUSH LOUNGE|Constanta|CTHRKBA28|155|CCC HRK CAMEL BW Vara 2013|121|Horeca|0
0|CS3610846|2013-09-01 02:20:25|Pavel|Lavinia||F|1989-03-03|Constanta|CONSTANTA|Dorului|12|||||0741738428||Lavinia_pavel@yahoo.com|PMECBL||1 Camel Black (6 mg) Pack|Yes|Yes||CT005167|CRUSH LOUNGE|Constanta|CTHRKBA83|155|CCC HRK CAMEL BW Vara 2013|121|Horeca|0
0|CS3610847|2013-09-01 02:20:50|Mustafa|Virgil||M|1975-05-16|Constanta|CONSTANTA|Muresului|48|||||0762621481|||CABK||1 Camel Black (6 mg) Pack|Yes|Yes||CT005167|CRUSH LOUNGE|Constanta|CTHRKBA81|155|CCC HRK CAMEL BW Vara 2013|121|Horeca|0
0|CS3610848|2013-09-01 02:22:04|Voinea|Florentina||M|1971-04-03|Constanta|CONSTANTA|Aurel vlaicu|42|||||0724568567|||KTBLH||1 Camel Black (6 mg) Pack|Yes|Yes||CT005167|CRUSH LOUNGE|Constanta|CTHRKBA28|155|CCC HRK CAMEL BW Vara 2013|121|Horeca|0
0|CS3610849|2013-09-01 02:22:15|Rujan|Andreea||F|1989-05-10|Constanta|CONSTANTA|Capitan Govrila Eugeniu|4|R1|B|1|27|0732678823|||KTBL||1 Camel Black (6 mg) Pack|Yes|Yes||CT005167|CRUSH LOUNGE|Constanta|CTHRKBA80|155|CCC HRK CAMEL BW Vara 2013|121|Horeca|0
0|CS3610850|2013-09-01 02:24:35|Mirciu|Liliana||M|1985-04-27|Constanta|CONSTANTA|Bratianu|251|||||0745780669||Mirciulili@gmail.com|DUNFCMBB||1 Camel White (4 mg) Pack|Yes|Yes||CT005167|CRUSH LOUNGE|Constanta|CTHRKBA28|155|CCC HRK CAMEL BW Vara 2013|121|Horeca|0
0|CS3610852|2013-09-01 02:27:24|Angheluta|Alexandru florin||M|1984-12-11|Galati|Galati|Costache conache|L4||||36|0748552512|||KTBL||1 Camel Black (6 mg) Pack|Yes|Yes||CT005167|CRUSH LOUNGE|Constanta|CTHRKBA83|155|CCC HRK CAMEL BW Vara 2013|121|Horeca|0
0|CS3610853|2013-09-01 02:28:53|Patriciu|Mihaela||F|1985-02-08|Galati|GALATI|Al. Lapusneanu|208|||||0765332434||Mihaela.patriciu@yahoo.com|MBRGL||1 Camel Black (6 mg) Pack|Yes|Yes||CT005167|CRUSH LOUNGE|Constanta|CTHRKBA81|155|CCC HRK CAMEL BW Vara 2013|121|Horeca|0
0|CS3610854|2013-09-01 02:29:32|Bordea|Gabriel||M|1990-06-09|Constanta|CONSTANTA|Ion Roata|11|||||0735689944|||MBRFPEX||1 Camel White (4 mg) Pack|Yes|Yes||CT005167|CRUSH LOUNGE|Constanta|CTHRKBA80|155|CCC HRK CAMEL BW Vara 2013|121|Horeca|0
0|CS3610855|2013-09-01 02:32:04|Miron|Stefan||M|1989-09-18|Constanta|CONSTANTA|Bogdan P hasdeu|114a|L7||0|0|0725332803||St_89_st@yahoo.com|CAWH||1 Camel White (4 mg) Pack|Yes|Yes||CT005167|CRUSH LOUNGE|Constanta|CTHRKBA80|155|CCC HRK CAMEL BW Vara 2013|121|Horeca|0
0|CS3610856|2013-09-01 02:32:50|Lungu|Cosmin||M|1977-01-11|Constanta|CONSTANTA|Randunelelor|43|||||0766404759||Cosmin_lng@yahoo.com|KTSV||1 Camel White (4 mg) Pack|Yes|Yes||CT005167|CRUSH LOUNGE|Constanta|CTHRKBA28|155|CCC HRK CAMEL BW Vara 2013|121|Horeca|0
0|CS3610857|2013-09-01 02:35:42|Videnco|Andrei||M|1981-05-19|Constanta|CONSTANTA|Hasdeu|1|H11||||0769442842||Vitencoandrei@yahoo.com|KTBLH||1 Camel Black (6 mg) Pack|Yes|Yes||CT005167|CRUSH LOUNGE|Constanta|CTHRKBA28|155|CCC HRK CAMEL BW Vara 2013|121|Horeca|0
0|CS3610858|2013-09-01 02:35:46|Larie|Ionut||M|1987-01-16|Constanta|CONSTANTA|Delavrancea|49|||0|0|0727466401||ionut.larie@yahoo.com|KTSWIT||1 Camel Black (6 mg) Pack|Yes|Yes||CT005167|CRUSH LOUNGE|Constanta|CTHRKBA83|155|CCC HRK CAMEL BW Vara 2013|121|Horeca|0
0|CS3610859|2013-09-01 02:42:15|Piri|Florin||M|1986-10-14|Bucuresti|SECTOR 3|Mihai viteazu|67|||||0735352422||Floinpii@gmail.com|KTSWIT||1 Camel Black (6 mg) Pack|Yes|Yes||CT005167|CRUSH LOUNGE|Constanta|CTHRKBA81|155|CCC HRK CAMEL BW Vara 2013|121|Horeca|0
0|CS3610860|2013-09-01 02:44:20|Valcu|Roberta||F|1985-02-23|Brasov|BRASOV|Rugina|690|||||0721357837||Valcuroberta@gmail.com|DUNFCBB||1 Camel White (4 mg) Pack|Yes|Yes||CT005167|CRUSH LOUNGE|Constanta|CTHRKBA28|155|CCC HRK CAMEL BW Vara 2013|121|Horeca|0
0|CS3610861|2013-09-01 02:45:02|Filipov|Emilia||F|1987-02-05|Constanta|CONSTANTA|Putna|32|||||0732820362||Emi.filipov@yahoo.com|MBRGL||1 Camel Black (6 mg) Pack|Yes|Yes||CT005167|CRUSH LOUNGE|Constanta|CTHRKBA83|155|CCC HRK CAMEL BW Vara 2013|121|Horeca|0
0|CS3610862|2013-09-01 02:45:35|Simion|Angela||F|1989-10-17|Constanta|CUMPANA|Jupiter|25|||||0723115932||Simion.angela@yahoo.com|PMECAFBL||1 Camel Black (6 mg) Pack|Yes|Yes||CT005167|CRUSH LOUNGE|Constanta|CTHRKBA80|155|CCC HRK CAMEL BW Vara 2013|121|Horeca|0
0|CS3610863|2013-09-01 02:46:50|Roman|Mihaela||F|1983-04-15|Constanta|CONSTANTA|Unirii|10|U1|3||76|0723751771||Mihaela@rmn.com|PMSV||1 Camel White (4 mg) Pack|Yes|Yes||CT005167|CRUSH LOUNGE|Constanta|CTHRKBA81|155|CCC HRK CAMEL BW Vara 2013|121|Horeca|0
0|CS3610864|2013-09-01 02:47:39|Ionita|Ionela||F|1984-01-22|Bucuresti|SECTOR 5|Independentei|62|||||0734378738||Ionitaionela@yahoo.com|KTBLH||1 Camel White (4 mg) Pack|Yes|Yes||CT005167|CRUSH LOUNGE|Constanta|CTHRKBA83|155|CCC HRK CAMEL BW Vara 2013|121|Horeca|0
0|CS3610865|2013-09-01 02:50:19|Gabriel|Adrian||M|1994-08-23|Constanta|CONSTANTA|Traian|73|1||3|28|0766257893||Gabriel.adr@yahoo.ro|PARAB||1 Camel Black (6 mg) Pack|Yes|Yes||CT005167|CRUSH LOUNGE|Constanta|CTHRKBA80|155|CCC HRK CAMEL BW Vara 2013|121|Horeca|0
0|CS3610866|2013-09-01 02:50:54|Gheorghe|Cristina||F|1984-04-13|Arges|PITESTI|Dorului|7|||||0754757932|||KTSV||1 Camel White (4 mg) Pack|Yes|Yes||CT005167|CRUSH LOUNGE|Constanta|CTHRKBA81|155|CCC HRK CAMEL BW Vara 2013|121|Horeca|0
0|CS3610867|2013-09-01 02:53:41|Prodan|Lucian||M|1983-04-27|Constanta|CONSTANTA|Prutului|42|||||0724687478||Prodan.luci@yahoo.com|DAVGL||1 Camel Black (6 mg) Pack|Yes|Yes||CT005167|CRUSH LOUNGE|Constanta|CTHRKBA83|155|CCC HRK CAMEL BW Vara 2013|121|Horeca|0
0|CS3610868|2013-09-01 02:54:26|Ioan|Adrian||M|1980-09-13|Bucuresti|SECTOR 2|Libertatii|30|||||0756313222||Adi.condor.cd@yahoo.com|KTBL||1 Camel Black (6 mg) Pack|Yes|Yes||CT005167|CRUSH LOUNGE|Constanta|CTHRKBA81|155|CCC HRK CAMEL BW Vara 2013|121|Horeca|0
0|CS3610869|2013-09-01 02:57:22|Cadri|Georgiana||F|1993-02-01|Constanta|CONSTANTA|Dacia|5|B1||8|43|0721684389||Cadrigeorgiana@yahoo.com|CABK||1 Camel Black (6 mg) Pack|Yes|Yes||CT005167|CRUSH LOUNGE|Constanta|CTHRKBA80|155|CCC HRK CAMEL BW Vara 2013|121|Horeca|0
0|CS3610870|2013-09-01 02:57:39|Dobrin|Ovidu||M|1988-04-19|Calarasi|CALARASII VECHI|Mihail jora|89|||||0734578853||Dobrin57@yahoo.com|MBRFPEX||1 Camel White (4 mg) Pack|Yes|Yes||CT005167|CRUSH LOUNGE|Constanta|CTHRKBA83|155|CCC HRK CAMEL BW Vara 2013|121|Horeca|0
0|CS3610871|2013-09-01 03:00:44|Popa|Mihai||M|1981-07-19|Constanta|NAVODARI|Constantei|52|||||0721655777||Mihaipopa@yahoo.com|MBRGLA||1 Camel Black (6 mg) Pack|Yes|Yes||CT005167|CRUSH LOUNGE|Constanta|CTHRKBA81|155|CCC HRK CAMEL BW Vara 2013|121|Horeca|0
0|CS3610872|2013-09-01 03:01:22|Urica|Denisa||F|1984-02-25|Constanta|CONSTANTA|Traian|53|||||0735689468||Denisa.urica@gmail.com|WIBL||1 Camel White (4 mg) Pack|Yes|Yes||CT005167|CRUSH LOUNGE|Constanta|CTHRKBA83|155|CCC HRK CAMEL BW Vara 2013|121|Horeca|0
0|CS3610873|2013-09-01 03:04:05|Matei|Felicia||M|1985-06-25|Constanta|CONSTANTA|Mamaia|4|||||0746895799|||KTBL||1 Camel Black (6 mg) Pack|Yes|Yes||CT005167|CRUSH LOUNGE|Constanta|CTHRKBA28|155|CCC HRK CAMEL BW Vara 2013|121|Horeca|0
0|CS3610874|2013-09-01 03:05:05|Sin|Claudiu||M|1982-10-27|Constanta|CONSTANTA|Ion Lahovari|14b|||||0753702558||Claudiusin@gmail.com|MBRGL||1 Camel Black (6 mg) Pack|Yes|Yes||CT005167|CRUSH LOUNGE|Constanta|CTHRKBA80|155|CCC HRK CAMEL BW Vara 2013|121|Horeca|0
0|CS3610875|2013-09-01 03:05:31|Papuc|Iuliana||F|1985-01-08|Constanta|CONSTANTA|Primariei|54|||||0754332343||Iuli.ana@yahoo.com|KTSV||1 Camel White (4 mg) Pack|Yes|Yes||CT005167|CRUSH LOUNGE|Constanta|CTHRKBA81|155|CCC HRK CAMEL BW Vara 2013|121|Horeca|0
0|CS3610876|2013-09-01 03:06:48|Rotaru|Corina||F|1980-07-26|Bucuresti|SECTOR 4|Alexandru cel bun|46|||||0724785799||Rotarucorina@yahoo.com|DUNFCMBB||1 Camel Black (6 mg) Pack|Yes|Yes||CT005167|CRUSH LOUNGE|Constanta|CTHRKBA28|155|CCC HRK CAMEL BW Vara 2013|121|Horeca|0
0|CS3610877|2013-09-01 03:06:51|Pacea|Cristina||F|1988-05-26|Constanta|CONSTANTA|Decebal|24|||||0764284327||Cristina_pacea@yahoo.com|KTSWIT||1 Camel Black (6 mg) Pack|Yes|Yes||CT005167|CRUSH LOUNGE|Constanta|CTHRKBA83|155|CCC HRK CAMEL BW Vara 2013|121|Horeca|0
0|CS3610878|2013-09-01 03:09:50|Mara|Armando||M|1983-02-10|Constanta|CONSTANTA|Flamanda|7|||||0738826016||Armando.mara@yahoo.com|CABK||1 Camel Black (6 mg) Pack|Yes|Yes||CT005167|CRUSH LOUNGE|Constanta|CTHRKBA80|155|CCC HRK CAMEL BW Vara 2013|121|Horeca|0
0|CS3610879|2013-09-01 03:10:04|Susnescu|Anca||F|1984-01-05|Constanta|CONSTANTA|Farului|52|||||0740857546||Ancasusnescu@yahoo.ro|PMSV||1 Camel White (4 mg) Pack|Yes|Yes||CT005167|CRUSH LOUNGE|Constanta|CTHRKBA81|155|CCC HRK CAMEL BW Vara 2013|121|Horeca|0
0|CS3610880|2013-09-01 03:10:22|Dragomir|Dan||M|1985-06-27|Constanta|CONSTANTA|Tomis|42|||||0721357836|||MBRGLA||1 Camel Black (6 mg) Pack|Yes|Yes||CT005167|CRUSH LOUNGE|Constanta|CTHRKBA28|155|CCC HRK CAMEL BW Vara 2013|121|Horeca|0
0|CS3610881|2013-09-01 03:12:30|Banica|Laura||M|1989-02-05|Constanta|CONSTANTA|Eliberarii|1|D21|A|3|12|0742730526|||KTBL||1 Camel Black (6 mg) Pack|Yes|Yes||CT005167|CRUSH LOUNGE|Constanta|CTHRKBA83|155|CCC HRK CAMEL BW Vara 2013|121|Horeca|0
0|CS3610883|2013-09-01 03:13:59|Apolozan|Zoe||F|1984-06-23|Constanta|CONSTANTA|Farului|42|||||0764688468||Apolozanzoe@gmail.com|DUNFCMBB||1 Camel Black (6 mg) Pack|Yes|Yes||CT005167|CRUSH LOUNGE|Constanta|CTHRKBA28|155|CCC HRK CAMEL BW Vara 2013|121|Horeca|0
0|CS3610884|2013-09-01 03:14:57|Dincu|Elena||F|1986-03-19|Calarasi|CALARASI|Victoriei|48|C8|4||79|0767424533||Eli.dincu@yahoo.cm|DUNFCBB||1 Camel White (4 mg) Pack|Yes|Yes||CT005167|CRUSH LOUNGE|Constanta|CTHRKBA81|155|CCC HRK CAMEL BW Vara 2013|121|Horeca|0
0|CS3610885|2013-09-01 03:15:16|Ebru|Camelia||F|1989-05-26|Constanta|CONSTANTA|Mihai viteazu|1|S2|A|1|3|0732673642||Camelia.ebru@yahoo.com|KTBL||1 Camel Black (6 mg) Pack|Yes|Yes||CT005167|CRUSH LOUNGE|Constanta|CTHRKBA83|155|CCC HRK CAMEL BW Vara 2013|121|Horeca|0
0|CS3610886|2013-09-01 03:16:08|Teodor|Simona Daniela||F|1991-04-07|Constanta|CONSTANTA|Zorelelor|71|C1|||3|0721976017||Sim.teo@yahoo.com|PARSB||1 Camel Black (6 mg) Pack|Yes|Yes||CT005167|CRUSH LOUNGE|Constanta|CTHRKBA80|155|CCC HRK CAMEL BW Vara 2013|121|Horeca|0
0|CS3610887|2013-09-01 03:16:35|Seban|Sabin||M|1982-08-22|Bucuresti|SECTOR 4|Lapusneanu|238|||||0734578368||Serban.joop@yahoo.com|MBRGL||1 Camel Black (6 mg) Pack|Yes|Yes||CT005167|CRUSH LOUNGE|Constanta|CTHRKBA28|155|CCC HRK CAMEL BW Vara 2013|121|Horeca|0
0|CS3610888|2013-09-01 03:20:40|Raducanu|Robert||M|1992-10-22|Constanta|CONSTANTA|Ferdinand|103c|L2||2|18|0766238026||Raducanu.robert@yahoo.com|KTSWIT||1 Camel Black (6 mg) Pack|Yes|Yes||CT005167|CRUSH LOUNGE|Constanta|CTHRKBA80|155|CCC HRK CAMEL BW Vara 2013|121|Horeca|0
0|CS3610889|2013-09-01 03:20:50|Tiganu|Victor||M|1984-04-27|Constanta|CONSTANTA|Sucevei|76|||||0723756878||Victortiganu@yahoo.com|KTBL||1 Camel Black (6 mg) Pack|Yes|Yes||CT005167|CRUSH LOUNGE|Constanta|CTHRKBA81|155|CCC HRK CAMEL BW Vara 2013|121|Horeca|0
0|CS3610891|2013-09-01 03:21:23|Trache|Alina||F|1988-02-28|Constanta|CONSTANTA|Piata ovidiu|21|||||0724678478||Trachealina@yahoo.com|MBRGLFT||1 Camel Black (6 mg) Pack|Yes|Yes||CT005167|CRUSH LOUNGE|Constanta|CTHRKBA28|155|CCC HRK CAMEL BW Vara 2013|121|Horeca|0
0|CS3610892|2013-09-01 03:26:21|Georgescu|Andreea||F|1982-06-27|Constanta|CUMPANA|Calarasi|37|||||0721589410|||MBRFP||1 Camel Black (6 mg) Pack|Yes|Yes||CT005167|CRUSH LOUNGE|Constanta|CTHRKBA83|155|CCC HRK CAMEL BW Vara 2013|121|Horeca|0
0|CS3610893|2013-09-01 03:29:14|Serban|Sorin||M|1986-04-10|Arges|CAMPULUNG|Argesului|65|||||0754657777|||DAVGL||1 Camel Black (6 mg) Pack|Yes|Yes||CT005167|CRUSH LOUNGE|Constanta|CTHRKBA81|155|CCC HRK CAMEL BW Vara 2013|121|Horeca|0
0|CS3610894|2013-09-01 03:30:32|Scupra|Ramona||F|1989-05-18|Constanta|NAVODARI|Tulcei|35|||||0721374581||Scupra.ramyy@yahoo.com|DUNBL||1 Camel Black (6 mg) Pack|Yes|Yes||CT005167|CRUSH LOUNGE|Constanta|CTHRKBA83|155|CCC HRK CAMEL BW Vara 2013|121|Horeca|0
0|CS3610895|2013-09-01 03:34:04|Cernea|Diana||F|1991-04-28|Constanta|CONSTANTA|Mamaia|238|||||0764937528||Didi.cernea@yahoo.com|KTBLH||1 Camel Black (6 mg) Pack|Yes|Yes||CT005167|CRUSH LOUNGE|Constanta|CTHRKBA83|155|CCC HRK CAMEL BW Vara 2013|121|Horeca|0
0|FS1160722|2013-08-30 23:45:44||||M|||||||||||||LSRD||||||||||155|CCC HRK CAMEL BW Vara 2013|121|Horeca|0
0|FS1160725|2013-08-30 23:46:04||||M|||||||||||||MBRGLH||||||||||155|CCC HRK CAMEL BW Vara 2013|121|Horeca|0
0|FS1160731|2013-08-30 23:46:54||||F|||||||||||||KTBL||||||||||155|CCC HRK CAMEL BW Vara 2013|121|Horeca|0
0|FS1160766|2013-08-30 23:51:41||||M|||||||||||||KTBL||||||||||155|CCC HRK CAMEL BW Vara 2013|121|Horeca|0
0|FS1160769|2013-08-30 23:51:58||||M|||||||||||||MBRRD||||||||||155|CCC HRK CAMEL BW Vara 2013|121|Horeca|0
0|FS1160770|2013-08-30 23:51:59||||M|||||||||||||MBRRD||||||||||155|CCC HRK CAMEL BW Vara 2013|121|Horeca|0
0|FS1160775|2013-08-30 23:52:34||||F|||||||||||||KTBL||||||||||155|CCC HRK CAMEL BW Vara 2013|121|Horeca|0
0|FS1160783|2013-08-30 23:53:17||||M|||||||||||||KTBLH||||||||||155|CCC HRK CAMEL BW Vara 2013|121|Horeca|0
0|FS1160786|2013-08-30 23:54:10||||F|||||||||||||GLMBL||||||||||155|CCC HRK CAMEL BW Vara 2013|121|Horeca|0
0|FS1160791|2013-08-30 23:55:14||||M|||||||||||||MBRFP||||||||||155|CCC HRK CAMEL BW Vara 2013|121|Horeca|0
0|FS1160792|2013-08-30 23:55:15||||F|||||||||||||DUNFCBB||||||||||155|CCC HRK CAMEL BW Vara 2013|121|Horeca|0
0|FS1160795|2013-08-30 23:55:29||||F|||||||||||||DUNFCBB||||||||||155|CCC HRK CAMEL BW Vara 2013|121|Horeca|0
0|FS1160811|2013-08-30 23:57:31||||M|||||||||||||DAVGLSS||||||||||155|CCC HRK CAMEL BW Vara 2013|121|Horeca|0
0|FS1160815|2013-08-30 23:57:55||||M|||||||||||||PARSB||||||||||155|CCC HRK CAMEL BW Vara 2013|121|Horeca|0
0|FS1160816|2013-08-30 23:58:05||||F|||||||||||||VOGM||||||||||155|CCC HRK CAMEL BW Vara 2013|121|Horeca|0
0|FS1160817|2013-08-30 23:58:20||||M|||||||||||||KTSWIT||||||||||155|CCC HRK CAMEL BW Vara 2013|121|Horeca|0
0|FS1160830|2013-08-31 00:01:02||||F|||||||||||||DAVGLS||||||||||155|CCC HRK CAMEL BW Vara 2013|121|Horeca|0
0|FS1160849|2013-08-31 00:04:57||||F|||||||||||||VIRSM||||||||||155|CCC HRK CAMEL BW Vara 2013|121|Horeca|0
0|FS1160877|2013-08-31 00:10:51||||M|||||||||||||LMRD||||||||||155|CCC HRK CAMEL BW Vara 2013|121|Horeca|0
0|FS1160886|2013-08-31 00:15:12||||F|||||||||||||VIRSPR||||||||||155|CCC HRK CAMEL BW Vara 2013|121|Horeca|0
0|FS1160890|2013-08-31 00:16:17|||||||||||||||||KTBL||||||||||155|CCC HRK CAMEL BW Vara 2013|121|Horeca|0
0|FS1160892|2013-08-31 00:16:29||||M|||||||||||||DUNFCMBB||||||||||155|CCC HRK CAMEL BW Vara 2013|121|Horeca|0
0|FS1160895|2013-08-31 00:16:46||||F|||||||||||||VIRSV||||||||||155|CCC HRK CAMEL BW Vara 2013|121|Horeca|0
0|FS1160900|2013-08-31 00:18:49||||F|||||||||||||SBSSPK||||||||||155|CCC HRK CAMEL BW Vara 2013|121|Horeca|0
0|FS1160901|2013-08-31 00:18:49||||F|||||||||||||SBSSPK||||||||||155|CCC HRK CAMEL BW Vara 2013|121|Horeca|0
0|FS1160911|2013-08-31 00:20:51||||M|||||||||||||PMECBL||||||||||155|CCC HRK CAMEL BW Vara 2013|121|Horeca|0
0|FS1160933|2013-08-31 00:24:37||||M|||||||||||||KTSV||||||||||155|CCC HRK CAMEL BW Vara 2013|121|Horeca|0
0|FS1160936|2013-08-31 00:24:55||||M|||||||||||||KTSV||||||||||155|CCC HRK CAMEL BW Vara 2013|121|Horeca|0
0|FS1160940|2013-08-31 00:26:15||||F|||||||||||||MBRFPEX||||||||||155|CCC HRK CAMEL BW Vara 2013|121|Horeca|0
0|FS1160946|2013-08-31 00:27:54||||F|||||||||||||MBRBI||||||||||155|CCC HRK CAMEL BW Vara 2013|121|Horeca|0
0|FS1160958|2013-08-31 00:29:39||||M|||||||||||||PARABH||||||||||155|CCC HRK CAMEL BW Vara 2013|121|Horeca|0
0|FS1160984|2013-08-31 00:34:42||||F|||||||||||||SBSSBK||||||||||155|CCC HRK CAMEL BW Vara 2013|121|Horeca|0
0|FS1161004|2013-08-31 00:38:59||||F|||||||||||||ROTH||||||||||155|CCC HRK CAMEL BW Vara 2013|121|Horeca|0
0|FS1161075|2013-08-31 00:55:08||||F|||||||||||||KTSWITH||||||||||155|CCC HRK CAMEL BW Vara 2013|121|Horeca|0
0|FS1161166|2013-08-31 01:02:54||||F|||||||||||||GLPBPKFT||||||||||155|CCC HRK CAMEL BW Vara 2013|121|Horeca|0
0|FS1161171|2013-08-31 01:03:45||||M|||||||||||||KTAPBK||||||||||155|CCC HRK CAMEL BW Vara 2013|121|Horeca|0
0|FS1161178|2013-08-31 01:05:37||||M|||||||||||||KTAPBK||||||||||155|CCC HRK CAMEL BW Vara 2013|121|Horeca|0
0|FS1161180|2013-08-31 01:05:47|||||||||||||||||GLMMNT||||||||||155|CCC HRK CAMEL BW Vara 2013|121|Horeca|0
0|FS1161181|2013-08-31 01:05:55|||||||||||||||||VOGJSN||||||||||155|CCC HRK CAMEL BW Vara 2013|121|Horeca|0
0|FS1161200|2013-08-31 01:11:07||||F|||||||||||||DAVGLS||||||||||155|CCC HRK CAMEL BW Vara 2013|121|Horeca|0
0|FS1161232|2013-08-31 01:15:40||||F|||||||||||||VIRSPR||||||||||155|CCC HRK CAMEL BW Vara 2013|121|Horeca|0
0|FS1161238|2013-08-31 01:17:02||||M|||||||||||||KTNBK||||||||||155|CCC HRK CAMEL BW Vara 2013|121|Horeca|0
0|FS1161242|2013-08-31 01:17:35||||M|||||||||||||DAVGLS||||||||||155|CCC HRK CAMEL BW Vara 2013|121|Horeca|0
0|FS1161243|2013-08-31 01:17:36||||M|||||||||||||DAVGLS||||||||||155|CCC HRK CAMEL BW Vara 2013|121|Horeca|0
0|FS1161248|2013-08-31 01:18:26||||F|||||||||||||KTAPGD||||||||||155|CCC HRK CAMEL BW Vara 2013|121|Horeca|0
0|FS1161285|2013-08-31 01:25:39|||||||||||||||||GLMLIL||||||||||155|CCC HRK CAMEL BW Vara 2013|121|Horeca|0
0|FS1161297|2013-08-31 01:28:44||||M|||||||||||||KTAPGD||||||||||155|CCC HRK CAMEL BW Vara 2013|121|Horeca|0
0|FS1161300|2013-08-31 01:29:01||||M|||||||||||||KTSV||||||||||155|CCC HRK CAMEL BW Vara 2013|121|Horeca|0
0|FS1161302|2013-08-31 01:29:23|||||||||||||||||PARSB||||||||||155|CCC HRK CAMEL BW Vara 2013|121|Horeca|0
0|FS1161315|2013-08-31 01:30:48|||||||||||||||||KTNBK||||||||||155|CCC HRK CAMEL BW Vara 2013|121|Horeca|0
0|FS1161322|2013-08-31 01:31:41||||M|||||||||||||SBSSBK||||||||||155|CCC HRK CAMEL BW Vara 2013|121|Horeca|0
0|FS1161323|2013-08-31 01:31:59||||F|||||||||||||KTAPGD||||||||||155|CCC HRK CAMEL BW Vara 2013|121|Horeca|0
0|FS1161333|2013-08-31 01:35:14||||M|||||||||||||VCRRD||||||||||155|CCC HRK CAMEL BW Vara 2013|121|Horeca|0
0|FS1161342|2013-08-31 01:40:07|||||||||||||||||SBSSPK||||||||||155|CCC HRK CAMEL BW Vara 2013|121|Horeca|0
0|FS1161346|2013-08-31 01:41:18||||M|||||||||||||PMECBK||||||||||155|CCC HRK CAMEL BW Vara 2013|121|Horeca|0
0|FS1161348|2013-08-31 01:42:02||||M|||||||||||||DUNFCMBB||||||||||155|CCC HRK CAMEL BW Vara 2013|121|Horeca|0
0|FS1161353|2013-08-31 01:42:36||||M|||||||||||||KTNBK||||||||||155|CCC HRK CAMEL BW Vara 2013|121|Horeca|0
0|FS1161351|2013-08-31 01:42:37||||M|||||||||||||KTNBK||||||||||155|CCC HRK CAMEL BW Vara 2013|121|Horeca|0
0|FS1161352|2013-08-31 01:42:40||||M|||||||||||||KTNBK||||||||||155|CCC HRK CAMEL BW Vara 2013|121|Horeca|0
0|FS1161367|2013-08-31 01:46:23|||||||||||||||||KTH||||||||||155|CCC HRK CAMEL BW Vara 2013|121|Horeca|0
0|FS1161370|2013-08-31 01:47:00||||M|||||||||||||DUNFCSB||||||||||155|CCC HRK CAMEL BW Vara 2013|121|Horeca|0
0|FS1161384|2013-08-31 01:48:18||||M|||||||||||||WIBL||||||||||155|CCC HRK CAMEL BW Vara 2013|121|Horeca|0
0|FS1161385|2013-08-31 01:49:25||||M|||||||||||||KTBL6||||||||||155|CCC HRK CAMEL BW Vara 2013|121|Horeca|0
0|FS1161390|2013-08-31 01:50:10||||F|||||||||||||VOGJSN||||||||||155|CCC HRK CAMEL BW Vara 2013|121|Horeca|0
0|FS1161391|2013-08-31 01:50:11||||F|||||||||||||VOGJSN||||||||||155|CCC HRK CAMEL BW Vara 2013|121|Horeca|0
0|FS1161392|2013-08-31 01:50:39||||F|||||||||||||VOGABP||||||||||155|CCC HRK CAMEL BW Vara 2013|121|Horeca|0
0|FS1161394|2013-08-31 01:50:53||||M|||||||||||||PARABH||||||||||155|CCC HRK CAMEL BW Vara 2013|121|Horeca|0
0|FS1161421|2013-08-31 01:59:25|||||||||||||||||PHMQBLH||||||||||155|CCC HRK CAMEL BW Vara 2013|121|Horeca|0
0|FS1161422|2013-08-31 01:59:31|||||||||||||||||DUNFCSB||||||||||155|CCC HRK CAMEL BW Vara 2013|121|Horeca|0
0|FS1161423|2013-08-31 01:59:31|||||||||||||||||DUNFCSB||||||||||155|CCC HRK CAMEL BW Vara 2013|121|Horeca|0
0|FS1161426|2013-08-31 02:00:30||||M|||||||||||||GLMBL||||||||||155|CCC HRK CAMEL BW Vara 2013|121|Horeca|0
0|FS1161428|2013-08-31 02:00:46||||F|||||||||||||DAVGLSS||||||||||155|CCC HRK CAMEL BW Vara 2013|121|Horeca|0
0|FS1161429|2013-08-31 02:01:11||||M|||||||||||||PARRSSH||||||||||155|CCC HRK CAMEL BW Vara 2013|121|Horeca|0
0|FS1161433|2013-08-31 02:02:31||||M|||||||||||||SBSSMN||||||||||155|CCC HRK CAMEL BW Vara 2013|121|Horeca|0
0|FS1161434|2013-08-31 02:02:45||||F|||||||||||||LMRDH||||||||||155|CCC HRK CAMEL BW Vara 2013|121|Horeca|0
0|FS1161435|2013-08-31 02:03:21||||F|||||||||||||PMECAFBL||||||||||155|CCC HRK CAMEL BW Vara 2013|121|Horeca|0
0|FS1161436|2013-08-31 02:03:48||||F|||||||||||||GLPBPKFT||||||||||155|CCC HRK CAMEL BW Vara 2013|121|Horeca|0
0|FS1161437|2013-08-31 02:04:15||||M|||||||||||||DUNFCMBR||||||||||155|CCC HRK CAMEL BW Vara 2013|121|Horeca|0
0|FS1161438|2013-08-31 02:04:22||||F|||||||||||||VOGM||||||||||155|CCC HRK CAMEL BW Vara 2013|121|Horeca|0
0|FS1161439|2013-08-31 02:04:31||||F|||||||||||||VOGM||||||||||155|CCC HRK CAMEL BW Vara 2013|121|Horeca|0
0|FS1161440|2013-08-31 02:05:26||||F|||||||||||||SBSSPK||||||||||155|CCC HRK CAMEL BW Vara 2013|121|Horeca|0
0|FS1161443|2013-08-31 02:07:16||||M|||||||||||||SBKSBL||||||||||155|CCC HRK CAMEL BW Vara 2013|121|Horeca|0
0|FS1161446|2013-08-31 02:08:33||||M|||||||||||||PMSSGR||||||||||155|CCC HRK CAMEL BW Vara 2013|121|Horeca|0
0|FS1161449|2013-08-31 02:10:33||||F|||||||||||||GLMMNT||||||||||155|CCC HRK CAMEL BW Vara 2013|121|Horeca|0
0|FS1161451|2013-08-31 02:12:29||||F|||||||||||||SBSSBK||||||||||155|CCC HRK CAMEL BW Vara 2013|121|Horeca|0
0|FS1161453|2013-08-31 02:13:16|||||||||||||||||MBRGLT||||||||||155|CCC HRK CAMEL BW Vara 2013|121|Horeca|0
0|FS1161454|2013-08-31 02:14:30||||F|||||||||||||GLMBL||||||||||155|CCC HRK CAMEL BW Vara 2013|121|Horeca|0
0|FS1161455|2013-08-31 02:14:49||||M|||||||||||||DAVGL||||||||||155|CCC HRK CAMEL BW Vara 2013|121|Horeca|0
0|FS1161458|2013-08-31 02:22:02||||M|1986-01-29||||||||||||PMSSGR||||||||||155|CCC HRK CAMEL BW Vara 2013|121|Horeca|0
0|FS1161460|2013-08-31 02:22:18||||F|||||||||||||GLPBMNFT||||||||||155|CCC HRK CAMEL BW Vara 2013|121|Horeca|0
0|FS1161461|2013-08-31 02:22:25||||M|||||||||||||KTBLH||||||||||155|CCC HRK CAMEL BW Vara 2013|121|Horeca|0
0|FS1161462|2013-08-31 02:22:42||||M|||||||||||||KTNWH||||||||||155|CCC HRK CAMEL BW Vara 2013|121|Horeca|0
0|FS1161464|2013-08-31 02:23:42||||M|||||||||||||KTH||||||||||155|CCC HRK CAMEL BW Vara 2013|121|Horeca|0
0|FS1161468|2013-08-31 02:28:03||||F|||||||||||||DUNFCSB||||||||||155|CCC HRK CAMEL BW Vara 2013|121|Horeca|0
0|FS1161471|2013-08-31 02:28:15||||F|||||||||||||KTAPGD||||||||||155|CCC HRK CAMEL BW Vara 2013|121|Horeca|0
0|FS1161472|2013-08-31 02:28:45||||F|||||||||||||DAVGLS||||||||||155|CCC HRK CAMEL BW Vara 2013|121|Horeca|0
0|FS1161473|2013-08-31 02:30:06||||F|||||||||||||VIRSAC||||||||||155|CCC HRK CAMEL BW Vara 2013|121|Horeca|0
0|FS1161474|2013-08-31 02:30:39||||M|||||||||||||VOGABP||||||||||155|CCC HRK CAMEL BW Vara 2013|121|Horeca|0
0|FS1161475|2013-08-31 02:30:53||||F|||||||||||||VIRSM||||||||||155|CCC HRK CAMEL BW Vara 2013|121|Horeca|0
0|FS1161477|2013-08-31 02:32:30||||F|||||||||||||VOGBL||||||||||155|CCC HRK CAMEL BW Vara 2013|121|Horeca|0
0|FS1161479|2013-08-31 02:39:23||||F|||||||||||||DAVGLS||||||||||155|CCC HRK CAMEL BW Vara 2013|121|Horeca|0
0|FS1161480|2013-08-31 02:41:52|||||||||||||||||DUNFCSB||||||||||155|CCC HRK CAMEL BW Vara 2013|121|Horeca|0
0|FS1161482|2013-08-31 02:44:43|||||||||||||||||VOGBL||||||||||155|CCC HRK CAMEL BW Vara 2013|121|Horeca|0
0|FS1161483|2013-08-31 02:46:42||||F|||||||||||||PARNBH||||||||||155|CCC HRK CAMEL BW Vara 2013|121|Horeca|0
0|FS1161484|2013-08-31 02:47:24||||M|||||||||||||KTSWITH||||||||||155|CCC HRK CAMEL BW Vara 2013|121|Horeca|0
0|FS1161485|2013-08-31 02:47:37||||M|||||||||||||LSRD||||||||||155|CCC HRK CAMEL BW Vara 2013|121|Horeca|0
0|FS1161488|2013-08-31 02:48:43||||M|||||||||||||PMECBK||||||||||155|CCC HRK CAMEL BW Vara 2013|121|Horeca|0
0|FS1161491|2013-08-31 02:51:23||||M|||||||||||||KTSV||||||||||155|CCC HRK CAMEL BW Vara 2013|121|Horeca|0
0|FS1161492|2013-08-31 02:52:32||||M|||||||||||||LSRD||||||||||155|CCC HRK CAMEL BW Vara 2013|121|Horeca|0
0|FS1161498|2013-08-31 02:55:23||||M|||||||||||||DAVCL||||||||||155|CCC HRK CAMEL BW Vara 2013|121|Horeca|0
0|FS1161500|2013-08-31 02:58:53||||F|||||||||||||DUNBL||||||||||155|CCC HRK CAMEL BW Vara 2013|121|Horeca|0
0|FS1161501|2013-08-31 03:03:15||||F|||||||||||||VIRSV||||||||||155|CCC HRK CAMEL BW Vara 2013|121|Horeca|0
0|FS1161503|2013-08-31 03:03:52||||F|||||||||||||DAVGLS||||||||||155|CCC HRK CAMEL BW Vara 2013|121|Horeca|0
0|FS1161504|2013-08-31 03:04:11||||M|||||||||||||MBRBI||||||||||155|CCC HRK CAMEL BW Vara 2013|121|Horeca|0
0|FS1161507|2013-08-31 03:05:38||||F|||||||||||||GLPBMNFT||||||||||155|CCC HRK CAMEL BW Vara 2013|121|Horeca|0
0|FS1161510|2013-08-31 03:09:15||||M|||||||||||||DAVIDBL||||||||||155|CCC HRK CAMEL BW Vara 2013|121|Horeca|0
0|FS1161511|2013-08-31 03:13:59||||M|||||||||||||MBRRDRT||||||||||155|CCC HRK CAMEL BW Vara 2013|121|Horeca|0
0|FS1161514|2013-08-31 03:15:18||||M|||||||||||||KTAPGD||||||||||155|CCC HRK CAMEL BW Vara 2013|121|Horeca|0
0|FS1161515|2013-08-31 03:17:32||||M|||||||||||||DUNFCMBR||||||||||155|CCC HRK CAMEL BW Vara 2013|121|Horeca|0
0|FS1161517|2013-08-31 03:19:25||||M|||||||||||||WIBLH||||||||||155|CCC HRK CAMEL BW Vara 2013|121|Horeca|0
0|FS1161518|2013-08-31 03:21:16||||M|||||||||||||PARNBH||||||||||155|CCC HRK CAMEL BW Vara 2013|121|Horeca|0
0|FS1161519|2013-08-31 03:25:05||||M|||||||||||||MBRFP||||||||||155|CCC HRK CAMEL BW Vara 2013|121|Horeca|0
0|FS1161521|2013-08-31 03:58:48||||M|||||||||||||DUNFCMBR||||||||||155|CCC HRK CAMEL BW Vara 2013|121|Horeca|0
0|FS1161523|2013-08-31 04:01:52||||F|||||||||||||MBRGLA||||||||||155|CCC HRK CAMEL BW Vara 2013|121|Horeca|0
0|FS1165101|2013-08-31 23:32:19||||M|||||||||||||MBRFP||||||||||155|CCC HRK CAMEL BW Vara 2013|121|Horeca|0
0|FS1165105|2013-08-31 23:33:15||||F|||||||||||||DAVGLS||||||||||155|CCC HRK CAMEL BW Vara 2013|121|Horeca|0
0|FS1165121|2013-08-31 23:36:14|||||||||||||||||GLPBPKFT||||||||||155|CCC HRK CAMEL BW Vara 2013|121|Horeca|0
0|FS1165131|2013-08-31 23:37:26||||F|||||||||||||SBSSPK||||||||||155|CCC HRK CAMEL BW Vara 2013|121|Horeca|0
0|FS1165137|2013-08-31 23:38:04||||F|||||||||||||VIRSM||||||||||155|CCC HRK CAMEL BW Vara 2013|121|Horeca|0
0|FS1165141|2013-08-31 23:39:13||||F|||||||||||||VOGBL||||||||||155|CCC HRK CAMEL BW Vara 2013|121|Horeca|0
0|FS1165150|2013-08-31 23:40:11||||M|||||||||||||LMRDH||||||||||155|CCC HRK CAMEL BW Vara 2013|121|Horeca|0
0|FS1165151|2013-08-31 23:40:20|||||||||||||||||VOGM||||||||||155|CCC HRK CAMEL BW Vara 2013|121|Horeca|0
0|FS1165185|2013-08-31 23:44:57||||F|||||||||||||MBRGLFT||||||||||155|CCC HRK CAMEL BW Vara 2013|121|Horeca|0
0|FS1165210|2013-08-31 23:52:57||||F|||||||||||||MBRRDH||||||||||155|CCC HRK CAMEL BW Vara 2013|121|Horeca|0
0|FS1165212|2013-08-31 23:53:11||||F|||||||||||||PMECAFBL||||||||||155|CCC HRK CAMEL BW Vara 2013|121|Horeca|0
0|FS1165213|2013-08-31 23:53:49||||M|||||||||||||WIXSTFX||||||||||155|CCC HRK CAMEL BW Vara 2013|121|Horeca|0
0|FS1165221|2013-08-31 23:56:08||||M|||||||||||||DUNFCSB||||||||||155|CCC HRK CAMEL BW Vara 2013|121|Horeca|0
0|FS1165224|2013-08-31 23:57:27||||M|||||||||||||DAVGLSS||||||||||155|CCC HRK CAMEL BW Vara 2013|121|Horeca|0
0|FS1165225|2013-08-31 23:57:42||||F|||||||||||||SBSSWH||||||||||155|CCC HRK CAMEL BW Vara 2013|121|Horeca|0
0|FS1165227|2013-08-31 23:58:04||||M|||||||||||||MBRFPEX||||||||||155|CCC HRK CAMEL BW Vara 2013|121|Horeca|0
0|FS1165231|2013-08-31 23:59:16||||M|||||||||||||VOGLL||||||||||155|CCC HRK CAMEL BW Vara 2013|121|Horeca|0
0|FS1165238|2013-09-01 00:00:51||||M|||||||||||||DUNBL||||||||||155|CCC HRK CAMEL BW Vara 2013|121|Horeca|0
0|FS1165244|2013-09-01 00:02:01||||F|||||||||||||VIRSM||||||||||155|CCC HRK CAMEL BW Vara 2013|121|Horeca|0
0|FS1165247|2013-09-01 00:03:29||||F|||||||||||||KTSV||||||||||155|CCC HRK CAMEL BW Vara 2013|121|Horeca|0
0|FS1165252|2013-09-01 00:04:47||||M|||||||||||||DUNBL||||||||||155|CCC HRK CAMEL BW Vara 2013|121|Horeca|0
0|FS1165269|2013-09-01 00:08:35||||F|||||||||||||KTBL||||||||||155|CCC HRK CAMEL BW Vara 2013|121|Horeca|0
0|FS1165272|2013-09-01 00:08:54||||F|||||||||||||VOGBL||||||||||155|CCC HRK CAMEL BW Vara 2013|121|Horeca|0
0|FS1165275|2013-09-01 00:09:14||||M|||||||||||||KTBL||||||||||155|CCC HRK CAMEL BW Vara 2013|121|Horeca|0
0|FS1165279|2013-09-01 00:09:35|||||||||||||||||DUNFCBB||||||||||155|CCC HRK CAMEL BW Vara 2013|121|Horeca|0
0|FS1165281|2013-09-01 00:09:49||||M|||||||||||||DAVGLS||||||||||155|CCC HRK CAMEL BW Vara 2013|121|Horeca|0
0|FS1165287|2013-09-01 00:10:26||||M|||||||||||||WIXSTFX||||||||||155|CCC HRK CAMEL BW Vara 2013|121|Horeca|0
0|FS1165311|2013-09-01 00:13:39||||F|||||||||||||VIRSPR||||||||||155|CCC HRK CAMEL BW Vara 2013|121|Horeca|0
0|FS1165327|2013-09-01 00:16:43||||F|||||||||||||VOGABP||||||||||155|CCC HRK CAMEL BW Vara 2013|121|Horeca|0
0|FS1165346|2013-09-01 00:19:10||||M|||||||||||||KTBLH||||||||||155|CCC HRK CAMEL BW Vara 2013|121|Horeca|0
0|FS1165390|2013-09-01 00:29:19||||F|||||||||||||GLPBPKFT||||||||||155|CCC HRK CAMEL BW Vara 2013|121|Horeca|0
0|FS1165393|2013-09-01 00:30:19|||||||||||||||||KTSWIT||||||||||155|CCC HRK CAMEL BW Vara 2013|121|Horeca|0
0|FS1165394|2013-09-01 00:30:23||||F|||||||||||||DAVGLS||||||||||155|CCC HRK CAMEL BW Vara 2013|121|Horeca|0
0|FS1165395|2013-09-01 00:30:35||||M|||||||||||||DUNFCBB||||||||||155|CCC HRK CAMEL BW Vara 2013|121|Horeca|0
0|FS1165396|2013-09-01 00:31:57||||F|||||||||||||DUNFCMBB||||||||||155|CCC HRK CAMEL BW Vara 2013|121|Horeca|0
0|FS1165397|2013-09-01 00:33:27||||M|||||||||||||DUNFCMBB||||||||||155|CCC HRK CAMEL BW Vara 2013|121|Horeca|0
0|FS1165399|2013-09-01 00:33:53|||||||||||||||||VIRSV||||||||||155|CCC HRK CAMEL BW Vara 2013|121|Horeca|0
0|FS1165469|2013-09-01 00:47:19||||F|||||||||||||MBRGLH||||||||||155|CCC HRK CAMEL BW Vara 2013|121|Horeca|0
0|FS1165471|2013-09-01 00:49:15||||M|||||||||||||ROTH||||||||||155|CCC HRK CAMEL BW Vara 2013|121|Horeca|0
0|FS1165473|2013-09-01 00:49:39||||F|||||||||||||GLMBL||||||||||155|CCC HRK CAMEL BW Vara 2013|121|Horeca|0
0|FS1165486|2013-09-01 00:51:28||||F|||||||||||||VIRSPR||||||||||155|CCC HRK CAMEL BW Vara 2013|121|Horeca|0
0|FS1165490|2013-09-01 00:54:49||||M|||||||||||||DUNFCMBR||||||||||155|CCC HRK CAMEL BW Vara 2013|121|Horeca|0
0|FS1165508|2013-09-01 00:58:54||||M|||||||||||||PMGR||||||||||155|CCC HRK CAMEL BW Vara 2013|121|Horeca|0
0|FS1165535|2013-09-01 01:01:08||||F|||||||||||||GLMMNT||||||||||155|CCC HRK CAMEL BW Vara 2013|121|Horeca|0
0|FS1165534|2013-09-01 01:01:08||||F|||||||||||||GLMMNT||||||||||155|CCC HRK CAMEL BW Vara 2013|121|Horeca|0
0|FS1165537|2013-09-01 01:01:35|||||||||||||||||KTH||||||||||155|CCC HRK CAMEL BW Vara 2013|121|Horeca|0
0|FS1165538|2013-09-01 01:01:52|||||||||||||||||VOGJSN||||||||||155|CCC HRK CAMEL BW Vara 2013|121|Horeca|0
0|FS1165551|2013-09-01 01:04:27||||F|||||||||||||GLMLIL||||||||||155|CCC HRK CAMEL BW Vara 2013|121|Horeca|0
0|FS1165577|2013-09-01 01:10:57||||M|||||||||||||DUNFCSB||||||||||155|CCC HRK CAMEL BW Vara 2013|121|Horeca|0
0|FS1165669|2013-09-01 01:22:06|||||||||||||||||DUNFCSB||||||||||155|CCC HRK CAMEL BW Vara 2013|121|Horeca|0
0|FS1165706|2013-09-01 01:29:50||||F|||||||||||||MBRGLA||||||||||155|CCC HRK CAMEL BW Vara 2013|121|Horeca|0
0|FS1165713|2013-09-01 01:30:36||||F|||||||||||||WISV||||||||||155|CCC HRK CAMEL BW Vara 2013|121|Horeca|0
0|FS1165729|2013-09-01 01:33:29||||M|||||||||||||KTSWITH||||||||||155|CCC HRK CAMEL BW Vara 2013|121|Horeca|0
0|FS1165731|2013-09-01 01:34:12||||M|||||||||||||VIRSV||||||||||155|CCC HRK CAMEL BW Vara 2013|121|Horeca|0
0|FS1165762|2013-09-01 01:38:42||||F|||||||||||||VIRSM||||||||||155|CCC HRK CAMEL BW Vara 2013|121|Horeca|0
0|FS1165771|2013-09-01 01:40:34|||||||||||||||||GLPBMNFT||||||||||155|CCC HRK CAMEL BW Vara 2013|121|Horeca|0
0|FS1165773|2013-09-01 01:41:09||||F|||||||||||||KTNWH||||||||||155|CCC HRK CAMEL BW Vara 2013|121|Horeca|0
0|FS1165785|2013-09-01 01:44:18||||M|||||||||||||PMECBK||||||||||155|CCC HRK CAMEL BW Vara 2013|121|Horeca|0
0|FS1165787|2013-09-01 01:44:42||||F|||||||||||||KTBL6||||||||||155|CCC HRK CAMEL BW Vara 2013|121|Horeca|0
0|FS1165807|2013-09-01 01:51:22||||F|||||||||||||PMSSGR||||||||||155|CCC HRK CAMEL BW Vara 2013|121|Horeca|0
0|FS1165812|2013-09-01 01:53:26||||F|||||||||||||SBKSBK||||||||||155|CCC HRK CAMEL BW Vara 2013|121|Horeca|0
0|FS1165815|2013-09-01 01:54:10||||F|||||||||||||DUNFCMBR||||||||||155|CCC HRK CAMEL BW Vara 2013|121|Horeca|0
0|FS1165817|2013-09-01 01:54:47||||F|||||||||||||WICLSH||||||||||155|CCC HRK CAMEL BW Vara 2013|121|Horeca|0
0|FS1165818|2013-09-01 01:55:02||||M|||||||||||||DAVCL||||||||||155|CCC HRK CAMEL BW Vara 2013|121|Horeca|0
0|FS1165822|2013-09-01 01:55:54|||||||||||||||||VOGBL||||||||||155|CCC HRK CAMEL BW Vara 2013|121|Horeca|0
0|FS1165826|2013-09-01 01:57:06|||||||||||||||||LMTUNE||||||||||155|CCC HRK CAMEL BW Vara 2013|121|Horeca|0
0|FS1165834|2013-09-01 02:00:09|||||||||||||||||GLPBMNFT||||||||||155|CCC HRK CAMEL BW Vara 2013|121|Horeca|0
0|FS1165835|2013-09-01 02:01:06||||F|||||||||||||KTAPGD||||||||||155|CCC HRK CAMEL BW Vara 2013|121|Horeca|0
0|FS1165844|2013-09-01 02:07:25|||||||||||||||||LSRD||||||||||155|CCC HRK CAMEL BW Vara 2013|121|Horeca|0
0|FS1165845|2013-09-01 02:08:11||||M|||||||||||||GLPBMNFT||||||||||155|CCC HRK CAMEL BW Vara 2013|121|Horeca|0
0|FS1165847|2013-09-01 02:09:35||||M|||||||||||||DAVGLSS||||||||||155|CCC HRK CAMEL BW Vara 2013|121|Horeca|0
0|FS1165848|2013-09-01 02:10:27||||M|||||||||||||SBKSSSBK||||||||||155|CCC HRK CAMEL BW Vara 2013|121|Horeca|0
0|FS1165851|2013-09-01 02:18:05|||||||||||||||||KTWH||||||||||155|CCC HRK CAMEL BW Vara 2013|121|Horeca|0
0|FS1165852|2013-09-01 02:18:17|||||||||||||||||VIRSFA||||||||||155|CCC HRK CAMEL BW Vara 2013|121|Horeca|0
0|FS1165853|2013-09-01 02:18:17|||||||||||||||||VIRSFA||||||||||155|CCC HRK CAMEL BW Vara 2013|121|Horeca|0
0|FS1165854|2013-09-01 02:22:02|||||1986-01-07||||||||||||DAVGL||||||||||155|CCC HRK CAMEL BW Vara 2013|121|Horeca|0
0|FS1165855|2013-09-01 02:22:35||||F|||||||||||||GLMBL||||||||||155|CCC HRK CAMEL BW Vara 2013|121|Horeca|0
0|FS1165856|2013-09-01 02:23:17||||F|||||||||||||KTSWITH||||||||||155|CCC HRK CAMEL BW Vara 2013|121|Horeca|0
0|FS1165866|2013-09-01 02:32:16||||M|||||||||||||KTNBK||||||||||155|CCC HRK CAMEL BW Vara 2013|121|Horeca|0
0|FS1165867|2013-09-01 02:34:49||||F|||||||||||||VOGABP||||||||||155|CCC HRK CAMEL BW Vara 2013|121|Horeca|0
0|FS1165868|2013-09-01 02:35:32|||||||||||||||||DAVIDBL||||||||||155|CCC HRK CAMEL BW Vara 2013|121|Horeca|0
0|FS1165871|2013-09-01 02:45:00||||F|||||||||||||ASSFI||||||||||155|CCC HRK CAMEL BW Vara 2013|121|Horeca|0
0|FS1165872|2013-09-01 02:48:40||||F|||||||||||||DAVGLS||||||||||155|CCC HRK CAMEL BW Vara 2013|121|Horeca|0
0|FS1165875|2013-09-01 02:50:37||||F|||||||||||||GLMLIL||||||||||155|CCC HRK CAMEL BW Vara 2013|121|Horeca|0
0|FS1165876|2013-09-01 02:53:09|||||||||||||||||VOGJSN||||||||||155|CCC HRK CAMEL BW Vara 2013|121|Horeca|0
0|FS1165878|2013-09-01 03:03:16||||M|||||||||||||DAVGL||||||||||155|CCC HRK CAMEL BW Vara 2013|121|Horeca|0
0|FS1165879|2013-09-01 03:03:52||||M|||||||||||||KTBL||||||||||155|CCC HRK CAMEL BW Vara 2013|121|Horeca|0
0|FS1165880|2013-09-01 03:04:02||||M|||||||||||||KTBL||||||||||155|CCC HRK CAMEL BW Vara 2013|121|Horeca|0
0|FS1165881|2013-09-01 03:04:21||||M|||||||||||||KTBL||||||||||155|CCC HRK CAMEL BW Vara 2013|121|Horeca|0
0|FS1165882|2013-09-01 03:07:08||||M|||||||||||||DUNFCMBR||||||||||155|CCC HRK CAMEL BW Vara 2013|121|Horeca|0
0|FS1165883|2013-09-01 03:07:16||||F|||||||||||||VIRSPR||||||||||155|CCC HRK CAMEL BW Vara 2013|121|Horeca|0
0|FS1165884|2013-09-01 03:08:48||||M|||||||||||||KTSWIT||||||||||155|CCC HRK CAMEL BW Vara 2013|121|Horeca|0
0|FS1165885|2013-09-01 03:12:22||||F|||||||||||||DAVGLS||||||||||155|CCC HRK CAMEL BW Vara 2013|121|Horeca|0
0|FS1165886|2013-09-01 03:13:21||||M|||||||||||||VOGBL||||||||||155|CCC HRK CAMEL BW Vara 2013|121|Horeca|0
0|FS1165891|2013-09-01 03:17:13||||F|||||||||||||DUNFCMBR||||||||||155|CCC HRK CAMEL BW Vara 2013|121|Horeca|0
0|FS1165893|2013-09-01 03:17:41||||M|||||||||||||DAVGLSS||||||||||155|CCC HRK CAMEL BW Vara 2013|121|Horeca|0
0|FS1165895|2013-09-01 03:21:36||||M|||||||||||||MBRBI||||||||||155|CCC HRK CAMEL BW Vara 2013|121|Horeca|0
0|FS1165898|2013-09-01 03:23:32||||M|||||||||||||DUNFCSB||||||||||155|CCC HRK CAMEL BW Vara 2013|121|Horeca|0
0|FS1165899|2013-09-01 03:24:13||||M|||||||||||||DAVGLS||||||||||155|CCC HRK CAMEL BW Vara 2013|121|Horeca|0
0|FS1165900|2013-09-01 03:24:48||||M|||||||||||||KTBLH||||||||||155|CCC HRK CAMEL BW Vara 2013|121|Horeca|0
