0|CS3078790|2012-10-03 16:00:27|Petculescu|Diana||F|1982-09-27|Cluj|CLUJ NAPOCA|Episcop ioan|4|||0|0|0746849777||novembber@yahoo.com|CAWH|PMOR|Casti|Yes|Yes||CJ006128|TIFF EVENTS UNIVERSITATI|Cluj-Napoca|CJHRKBA27|74|CCC HRK CAMEL BW 2012|121|Horeca|0
0|CS3078792|2012-10-03 16:01:50|Sandu|Carina||F|1993-10-27|Timis|TIMISOARA|I l banateanu|6|||||0748758556||kary.musik@yahoo.com|KTBL||Husa|Yes|Yes||TM001094|DUBLIN HOUSE SRL|Timisoara|TMHRKBA15|74|CCC HRK CAMEL BW 2012|121|Horeca|0
0|CS3078796|2012-10-03 16:03:38|Neiszt|Beatrice||F|1994-07-23|Timis|TIMISOARA|Mangalia|48|||||0757040013||beaneiszt@yahoo.com|CABK||Husa|Yes|Yes||TM001094|DUBLIN HOUSE SRL|Timisoara|TMHRKBA15|74|CCC HRK CAMEL BW 2012|121|Horeca|0
0|CS3078801|2012-10-03 16:05:30|Munteanu|Cristian||M|1993-01-20|Timis|TIMISOARA|T cipariu|2|||||0749986551||jedai_cristi@yahoo.com|KTBL||Husa|Yes|Yes||TM001094|DUBLIN HOUSE SRL|Timisoara|TMHRKBA15|74|CCC HRK CAMEL BW 2012|121|Horeca|0
0|CS3078816|2012-10-03 16:11:06|Panduru|Valentina||F|1988-05-29|Timis|TIMISOARA|Magura|13|B|||14|0788370872||cristinutza_8827@yahoo.com|WIBL||Casti|Yes|Yes||TM001094|DUBLIN HOUSE SRL|Timisoara|TMHRKBA15|74|CCC HRK CAMEL BW 2012|121|Horeca|0
0|CS3078845|2012-10-03 16:22:38|Mazilu|Robert||M|1989-03-28|Constanta|CONSTANTA|Lapysneanu|96|||||0721238285||robert_mazilu@yahoo.com|CABK||Casti|Yes|Yes||CT005063|CONCORDANCE CAFFE|Constanta|CTHRKBA45|74|CCC HRK CAMEL BW 2012|121|Horeca|0
0|CS3078853|2012-10-03 16:24:24|Nicuta|Hermina||F|1990-01-22|Constanta|CONSTANTA|Heliade pompiliu|13|||||0722695175|||CAWH||Husa|Yes|Yes||CT005063|CONCORDANCE CAFFE|Constanta|CTHRKBA45|74|CCC HRK CAMEL BW 2012|121|Horeca|0
0|CS3078873|2012-10-03 16:30:57|Macovei|Gabriela||F|1984-11-10|Constanta|CONSTANTA|Arcului|12|||0|0|0724114930||gabrielle_rmg@yahoo.com|CABK||Zippo|Yes|Yes||CT005063|CONCORDANCE CAFFE|Constanta|CTHRKBA45|74|CCC HRK CAMEL BW 2012|121|Horeca|0
0|CS3078912|2012-10-03 16:46:54|Kovaci|Tania||F|1989-09-10|Satu Mare|CAREI|Mihai Viteazu|2|Mv4||3|12|0741400157||tanya_4_2006@yahoo.com|CABK|KTCON|Zippo|Yes|Yes||CJ006128|TIFF EVENTS UNIVERSITATI|Cluj-Napoca|CJHRKBA27|74|CCC HRK CAMEL BW 2012|121|Horeca|0
0|CS3078947|2012-10-03 16:59:11|Graur|Darius||M|1990-03-06|Timis|TIMISOARA|Labirint|16||||24|0741548697||darius_graur@yahoo.com|WIBL||Ochelari|Yes|Yes||TM001094|DUBLIN HOUSE SRL|Timisoara|TMHRKBA15|74|CCC HRK CAMEL BW 2012|121|Horeca|0
0|CS3078949|2012-10-03 17:00:31|Pop|Razvan||M|1992-07-27|Cluj|DEJ|P ta abator|1|D6|3|4|28|0745555848||ray_blondu@yahoo.com|CABK|PMBL|Casti|Yes|Yes||CJ006128|TIFF EVENTS UNIVERSITATI|Cluj-Napoca|CJHRKBA27|74|CCC HRK CAMEL BW 2012|121|Horeca|0
0|CS3078951|2012-10-03 17:00:40|Rosa|Simina||F|1989-09-19|Timis|TIMISOARA|Cornel grofsoreanu|7|0|A|2|7|0745002663||simina_rosa@yahoo.com|KTBL||Husa|Yes|Yes||TM001094|DUBLIN HOUSE SRL|Timisoara|TMHRKBA15|74|CCC HRK CAMEL BW 2012|121|Horeca|0
0|CS3078977|2012-10-03 17:13:56|Stoica|Octavian||M|1980-06-12|Timis|TIMISOARA|Angela sava|1|||||0785017816||chavy_yo@yahoo.com|MBRFP||Zippo|Yes|Yes||TM001094|DUBLIN HOUSE SRL|Timisoara|TMHRKBA15|74|CCC HRK CAMEL BW 2012|121|Horeca|0
0|CS3078983|2012-10-03 17:17:07|Bucur|Timisoara||M|1985-04-10|Timis|TIMISOARA|I creanga|0|T33||||0769990356||fabrizzi_o@yahoo.com|KTBL||Zippo|Yes|Yes||TM001094|DUBLIN HOUSE SRL|Timisoara|TMHRKBA15|74|CCC HRK CAMEL BW 2012|121|Horeca|0
0|CS3078990|2012-10-03 17:19:06|Bucur|Roxana||F|1991-02-21|Timis|TIMISOARA|I creanga|0|T33||||0784728889||roxanabucur2102@yahoo.com|PMBL||Husa|Yes|Yes||TM001094|DUBLIN HOUSE SRL|Timisoara|TMHRKBA15|74|CCC HRK CAMEL BW 2012|121|Horeca|0
0|CS3078997|2012-10-03 17:20:32|Virlan|Ovidiu||M|1987-05-18|Timis|TIMISOARA|I creanga|0|T33||||0729758203|||KTBL||Zippo|Yes|No||TM001094|DUBLIN HOUSE SRL|Timisoara|TMHRKBA15|74|CCC HRK CAMEL BW 2012|121|Horeca|0
0|CS3079019|2012-10-03 17:28:26|Dragomir|Ovidiu||M|1989-07-08|Timis|TIMISOARA|Cernauti|0|B16||||0736977435||ova_ovul@yahoo.com|KTBL||Ochelari|Yes|Yes||TM001094|DUBLIN HOUSE SRL|Timisoara|TMHRKBA15|74|CCC HRK CAMEL BW 2012|121|Horeca|0
0|CS3079026|2012-10-03 17:29:59|Vasilescu|Maria||F|1990-01-03|Braila|BRAILA|Cal Galați|41|||||0734317918|||CAWH||Husa|Yes|No||TM001094|DUBLIN HOUSE SRL|Timisoara|TMHRKBA15|74|CCC HRK CAMEL BW 2012|121|Horeca|0
0|CS3079049|2012-10-03 17:39:04|Susanu|Iulian||M|1985-01-13|Bucuresti|SECTOR 3|Calarasilor|86|||||0721389927||iulian_susanu@yahoo.com|DAVGL||Casti|No|Yes||BW005593|EUROTECH DEVELOPMENTS - INVESTMENTS SRL|Bucuresti|BWHRKBA33|74|CCC HRK CAMEL BW 2012|121|Horeca|0
0|CS3079061|2012-10-03 17:42:01|Ghiorghiu|Andrei gabriel||M|1990-09-14|Bucuresti|SECTOR 6|Dr taberei|122|Od2|1|1|5|0721917900|||DAVGL||Casti|No|Yes||BW005593|EUROTECH DEVELOPMENTS - INVESTMENTS SRL|Bucuresti|BWHRKBA33|74|CCC HRK CAMEL BW 2012|121|Horeca|0
0|CS3079073|2012-10-03 17:46:19|Sriuba|Ana||F|1982-08-03|Timis|TIMISOARA|Surorile martir caceu|29||||62|0752239358||anacatanalex@yahoo.com|KTBL||Husa|Yes|Yes||TM001094|DUBLIN HOUSE SRL|Timisoara|TMHRKBA15|74|CCC HRK CAMEL BW 2012|121|Horeca|0
0|CS3079076|2012-10-03 17:47:13|Stoian|Petrisor||M|1980-05-30|Bucuresti|SECTOR 4|Balasanu|21|||||0766435515|||CAWH||Casti|Yes|Yes||BW005593|EUROTECH DEVELOPMENTS - INVESTMENTS SRL|Bucuresti|BWHRKBA33|74|CCC HRK CAMEL BW 2012|121|Horeca|0
0|CS3079105|2012-10-03 17:57:43|Neculce|Radu||M|1992-04-15|Buzau|BUZAU|Mihai viteazu|27|||||0761147287|||CAWH||Zippo|Yes|Yes||BW005593|EUROTECH DEVELOPMENTS - INVESTMENTS SRL|Bucuresti|BWHRKBA33|74|CCC HRK CAMEL BW 2012|121|Horeca|0
0|CS3079118|2012-10-03 18:03:43|Ion|Mihai||M|1983-06-13|Constanta|MEDGIDIA|Primăriei|20|||||0729198847||ionmihaicosmin@yahoo.com|MBRFP||Zippo|Yes|Yes||TM001094|DUBLIN HOUSE SRL|Timisoara|TMHRKBA15|74|CCC HRK CAMEL BW 2012|121|Horeca|0
0|CS3079119|2012-10-03 18:04:28|Fulop|Beatrix||F|1990-01-09|Cluj|BACIU|Principala|F172|||||0753064348||kk_beatris@yahoo.com|CABK|ROTH|Casti|Yes|Yes||CJ006128|TIFF EVENTS UNIVERSITATI|Cluj-Napoca|CJHRKBA27|74|CCC HRK CAMEL BW 2012|121|Horeca|0
0|CS3079121|2012-10-03 18:05:01|Ion|Monica||F|1981-08-25|Timis|TIMISOARA|M costin|2|||||0763574470|||KTBL||Husa|Yes|Yes||TM001094|DUBLIN HOUSE SRL|Timisoara|TMHRKBA15|74|CCC HRK CAMEL BW 2012|121|Horeca|0
0|CS3079126|2012-10-03 18:07:22|Nemes|Noemi||F|1991-06-15|Caras Severin|RESITA|Burebista|1|||||0749103473|||KTBL||Ochelari|Yes|Yes||TM001094|DUBLIN HOUSE SRL|Timisoara|TMHRKBA15|74|CCC HRK CAMEL BW 2012|121|Horeca|0
0|CS3079133|2012-10-03 18:09:07|Coceanu|Adrian||M|1988-06-09|Braila|BRAILA|Burebista|1|||||0730366992|||KTBL||Husa|Yes|Yes||TM001094|DUBLIN HOUSE SRL|Timisoara|TMHRKBA15|74|CCC HRK CAMEL BW 2012|121|Horeca|0
0|CS3079179|2012-10-03 18:32:31|Turcuman|Robert||M|1988-10-06|Timis|TIMISOARA|Andrei saguna|0|A21|||19|0731611869||robby_emm@yahoo.co.uk|DUNBL||Zippo|Yes|Yes||TM001094|DUBLIN HOUSE SRL|Timisoara|TMHRKBA15|74|CCC HRK CAMEL BW 2012|121|Horeca|0
0|CS3079196|2012-10-03 18:40:37|Coza|Mihaela||F|1990-10-08|Maramures|BAIA MARE|Granicerilor|84|||0|39|0744874442||mihaela.coza@yahoo.com|CABK|KTBL|Casti|Yes|Yes||CJ006128|TIFF EVENTS UNIVERSITATI|Cluj-Napoca|CJHRKBA27|74|CCC HRK CAMEL BW 2012|121|Horeca|0
0|CS3079203|2012-10-03 18:42:54|Bucur|Alex||M|1994-07-03|Timis|TIMISOARA|Utvin|140a|||||0724760375||bucuralex38@yahoo.com|KTBL||Zippo|Yes|Yes||TM001094|DUBLIN HOUSE SRL|Timisoara|TMHRKBA15|74|CCC HRK CAMEL BW 2012|121|Horeca|0
0|CS3079215|2012-10-03 18:48:51|Cristea|Robert adrian||M|1983-05-22|Bucuresti|SECTOR 5|Muntii carpati|83|||||0722555377||cristea_robert83@yahoo.com|KTSV||Zippo|Yes|Yes||BW005593|EUROTECH DEVELOPMENTS - INVESTMENTS SRL|Bucuresti|BWHRKBA33|74|CCC HRK CAMEL BW 2012|121|Horeca|0
0|CS3079233|2012-10-03 18:53:00|Nae|Ioana||F|1991-01-15|Brasov|BRASOV|Saturn|19|||0|0|0731451259||ioana_mail15@yahoo.com|CABK|WISSB|Casti|Yes|Yes||CJ006128|TIFF EVENTS UNIVERSITATI|Cluj-Napoca|CJHRKBA27|74|CCC HRK CAMEL BW 2012|121|Horeca|0
0|CS3079251|2012-10-03 19:00:46|Fizesan|Bogdan||M|1992-12-17|Cluj|CLUJ NAPOCA|Ciresilor|51|||0|0|0741402871||bogdy_eu92@yahoo.com|CABK|DUNBL|Zippo|Yes|Yes||CJ006128|TIFF EVENTS UNIVERSITATI|Cluj-Napoca|CJHRKBA27|74|CCC HRK CAMEL BW 2012|121|Horeca|0
0|CS3079369|2012-10-03 19:50:00|Nechita|Valeriu||M|1985-06-13|Cluj|CLUJ NAPOCA|Aurel Suciu |18|||0|22|0740340834||vali.nechita@yahoo.com|CABK|KTBL|Casti|Yes|Yes||CJ006128|TIFF EVENTS UNIVERSITATI|Cluj-Napoca|CJHRKBA27|74|CCC HRK CAMEL BW 2012|121|Horeca|0
0|CS3079382|2012-10-03 19:54:38|Rusu|Andreea||F|1992-01-17|Cluj|CLUJ NAPOCA|Alexandru Vlahuta|7||||18|0743820236||gandreearusu@yahoo.com|CAWH|GLMLIL|Casti|Yes|Yes||CJ006128|TIFF EVENTS UNIVERSITATI|Cluj-Napoca|CJHRKBA27|74|CCC HRK CAMEL BW 2012|121|Horeca|0
0|CS3079393|2012-10-03 20:00:27|Chiselita|Sebastian||M|1990-06-01|Timis|TIMISOARA|V carlova|1|||||0765365613||sebi272727@gmail.com|PMBL||Zippo|Yes|Yes||TM001094|DUBLIN HOUSE SRL|Timisoara|TMHRKBA15|74|CCC HRK CAMEL BW 2012|121|Horeca|0
0|CS3080743|2012-10-05 15:57:14|Jicmon|Madalina||F|1985-11-26|Constanta|MANGALIA|Soveja|31|||0|0|0722953551||mada_2685@yahoo.com|CABK||Casti|Yes|Yes||CT005063|CONCORDANCE CAFFE|Constanta|CTHRKBA45|74|CCC HRK CAMEL BW 2012|121|Horeca|0
0|CS3080750|2012-10-05 15:59:10|Lupu|Catalin||M|1990-04-28|Constanta|CONSTANTA|Tilden|14|||0|0|0727195889||lupu90z@yahoo.com|WIBLH||Zippo|Yes|Yes||CT005063|CONCORDANCE CAFFE|Constanta|CTHRKBA45|74|CCC HRK CAMEL BW 2012|121|Horeca|0
0|CS3081297|2012-10-05 19:21:33|Averian|Mihaela||F|1983-12-17|Constanta|CONSTANTA|Baba novac|175|Bn8||9|58|0732461464||mihaela.averian@yahoo.com|DUNBL||Husa|Yes|Yes||CT005063|CONCORDANCE CAFFE|Constanta|CTHRKBA45|74|CCC HRK CAMEL BW 2012|121|Horeca|0
0|CS3081302|2012-10-05 19:23:07|Danut|Roza||F|1987-07-14|Constanta|CONSTANTA|Micsunelelor|12|||0|0|0768707800||fata_bau@yahoo.com|DUNBL||Zippo|Yes|Yes||CT005063|CONCORDANCE CAFFE|Constanta|CTHRKBA45|74|CCC HRK CAMEL BW 2012|121|Horeca|0
0|CS3082267|2012-10-06 15:57:13|Cucu|Vlad||M|1985-03-29|Cluj|CLUJ NAPOCA|Eroilor|50a|||0|3|0740181272||vldcucu@yahoo.com|CAWH|PMBL|Zippo|Yes|Yes||CJ006128|TIFF EVENTS UNIVERSITATI|Cluj-Napoca|CJHRKBA27|74|CCC HRK CAMEL BW 2012|121|Horeca|0
0|CS3082269|2012-10-06 16:01:10|Mureseanu|Ana maria||F|1989-07-09|Bucuresti|SECTOR 6|Bd 1 mai |30|||||0765967703||anita_bubu@yahoo.com|KTSV||Zippo|Yes|Yes||BW005593|EUROTECH DEVELOPMENTS - INVESTMENTS SRL|Bucuresti|BWHRKBA33|74|CCC HRK CAMEL BW 2012|121|Horeca|0
0|CS3082271|2012-10-06 16:02:18|Graur|Darius||M|1990-03-06|Timis|TIMISOARA|Labirint|6|||5|24|0741548697||darius_graur@yahoo.com|CABK||Casti|Yes|Yes||TM001094|DUBLIN HOUSE SRL|Timisoara|TMHRKBA15|74|CCC HRK CAMEL BW 2012|121|Horeca|0
0|CS3082274|2012-10-06 16:07:21|Mozos|Bogdan||M|1984-08-02|Timis|TIMISOARA|1decembrie|92||||13|0769846495||bogdanmozos@ymail.com|KTBL||Casti|Yes|Yes||TM001094|DUBLIN HOUSE SRL|Timisoara|TMHRKBA15|74|CCC HRK CAMEL BW 2012|121|Horeca|0
0|CS3082280|2012-10-06 16:13:09|Coca|Catalin||M|1987-06-16|Timis|TIMISOARA|Noua|0|L26||0|0|0763511809||catalin_coca@yahoo.com|KTBL||Casti|Yes|Yes||TM001094|DUBLIN HOUSE SRL|Timisoara|TMHRKBA15|74|CCC HRK CAMEL BW 2012|121|Horeca|0
0|CS3082284|2012-10-06 16:15:52|Cuzman|Alexandru||M|1989-12-19|Timis|TIMISOARA|Munteniei|C39||||16|0766652548||cuzman19@yahoo.com|KTBL||Casti|Yes|Yes||TM001094|DUBLIN HOUSE SRL|Timisoara|TMHRKBA15|74|CCC HRK CAMEL BW 2012|121|Horeca|0
0|CS3082289|2012-10-06 16:19:05|Dombrov|Andrei||M|1988-02-12|Timis|TIMISOARA|Lucerna|10|A100|B|0|13|0751916011||domvrov_12@yahoo.com|WIBL||Zippo|Yes|Yes||TM001094|DUBLIN HOUSE SRL|Timisoara|TMHRKBA15|74|CCC HRK CAMEL BW 2012|121|Horeca|0
0|CS3082297|2012-10-06 16:31:21|Goran|Razvan||M|1985-09-13|Bucuresti|SECTOR 4|Savinesti|4|||||0746102692||rzgoran@yahoo.com|CABK||Zippo|Yes|No||BW005593|EUROTECH DEVELOPMENTS - INVESTMENTS SRL|Bucuresti|BWHRKBA33|74|CCC HRK CAMEL BW 2012|121|Horeca|0
0|CS3082298|2012-10-06 16:34:26|Ose|Alexandru||M|1986-06-07|Bucuresti|SECTOR 4|Sos giurgiului|123|4vb|3||82|0721276798||alexandru.ose@gmail.com|CABK||Zippo|Yes|Yes||BW005593|EUROTECH DEVELOPMENTS - INVESTMENTS SRL|Bucuresti|BWHRKBA33|74|CCC HRK CAMEL BW 2012|121|Horeca|0
0|CS3082300|2012-10-06 16:37:06|Mocanu|Valentin||M|1986-01-17|Bucuresti|SECTOR 4|Ornamentului|23|E8|2||40|0724503475||mocanu.valentin@yahoo.com|CABK||Zippo|Yes|No||BW005593|EUROTECH DEVELOPMENTS - INVESTMENTS SRL|Bucuresti|BWHRKBA33|74|CCC HRK CAMEL BW 2012|121|Horeca|0
0|CS3082311|2012-10-06 16:53:28|Bublyak|Denis||M|1991-03-03|Timis|TIMISOARA|Gh.titeica|23|||0|0|0761691765||bublyak_denis@yahoo.com|KTBL||Husa|Yes|Yes||TM001094|DUBLIN HOUSE SRL|Timisoara|TMHRKBA15|74|CCC HRK CAMEL BW 2012|121|Horeca|0
0|CS3082335|2012-10-06 17:27:11|Felderean|Andreea||F|1988-07-08|Cluj|CLUJ NAPOCA|Grigore Alexandrescu|10|N2|3|4|60|0753866737||felde_88@yahoo.com|CABK|PMBL|Zippo|Yes|Yes||CJ006128|TIFF EVENTS UNIVERSITATI|Cluj-Napoca|CJHRKBA27|74|CCC HRK CAMEL BW 2012|121|Horeca|0
0|CS3082337|2012-10-06 17:28:19|Grecu|Madalina||F|1988-09-13|Cluj|CLUJ NAPOCA|Iszlaului|10|||0|28|0751030413||madoanyway@yahoo.com|CABK|GLMLIL|Husa|Yes|Yes||CJ006128|TIFF EVENTS UNIVERSITATI|Cluj-Napoca|CJHRKBA27|74|CCC HRK CAMEL BW 2012|121|Horeca|0
0|CS3082360|2012-10-06 17:54:03|Rusu|Emanuel||M|1986-05-15|Timis|TIMISOARA|Ana Ipatescu|15a|0|0|5|12|0768614388||rusu_20_tm@yahoo.com|DUNFCDB||Zippo|Yes|Yes||TM001094|DUBLIN HOUSE SRL|Timisoara|TMHRKBA15|74|CCC HRK CAMEL BW 2012|121|Horeca|0
0|CS3082364|2012-10-06 17:56:26|Muresan|Elena||F|1982-07-25|Cluj|CLUJ NAPOCA|21 Decembrie|19|||P|1|0745626286||muresan.elena@gmail.com|CAWH|PMOR|Casti|Yes|Yes||CJ006128|TIFF EVENTS UNIVERSITATI|Cluj-Napoca|CJHRKBA27|74|CCC HRK CAMEL BW 2012|121|Horeca|0
0|CS3082369|2012-10-06 18:01:46|Tavagiu|Tiberiu||M|1976-08-13|Timis|Timisoara|Hebe|34|||0|0|0723604587||anamaria.tavagiu@yahoo.com|KTBL||Zippo|Yes|Yes||TM001094|DUBLIN HOUSE SRL|Timisoara|TMHRKBA15|74|CCC HRK CAMEL BW 2012|121|Horeca|0
0|CS3082371|2012-10-06 18:03:39|Flori|Sebastian||M|1978-10-10|Timis|TIMISOARA|Miracul racovita|3||||0|0723010124|||KTBL||Casti|Yes|Yes||TM001094|DUBLIN HOUSE SRL|Timisoara|TMHRKBA15|74|CCC HRK CAMEL BW 2012|121|Horeca|0
0|CS3082373|2012-10-06 18:05:48|Coza|Mihaela||F|1990-10-08|Maramures|BAIA MARE|Granicerilor|84|||0|39|0744874442||mihaela.coza@yahoo.com|CABK|GLMLIL|Zippo|Yes|Yes||CJ006128|TIFF EVENTS UNIVERSITATI|Cluj-Napoca|CJHRKBA27|74|CCC HRK CAMEL BW 2012|121|Horeca|0
0|CS3082375|2012-10-06 18:06:46|Turtoi|Emanuel||M|1993-06-07|Gorj|TARGU JIU|Nicolae titulescu|8||||6|0762654676||emi_txt@yahoo.com|KTBL||Husa|Yes|Yes||TM001094|DUBLIN HOUSE SRL|Timisoara|TMHRKBA15|74|CCC HRK CAMEL BW 2012|121|Horeca|0
0|CS3082382|2012-10-06 18:11:13|Samson|Iulia||F|1986-06-14|Timis|TIMISOARA|T ionescu|10-16|||0|0|0748785140||julia_look2005@yahoo.com|DUNFCDB||Zippo|Yes|Yes||TM001094|DUBLIN HOUSE SRL|Timisoara|TMHRKBA15|74|CCC HRK CAMEL BW 2012|121|Horeca|0
0|CS3082388|2012-10-06 18:14:37|Dumitrescu|Razvan||M|1988-10-29|Timis|TIMISOARA|Magura|5||||1|0763688063||razvandumitrescu@yahoo.com|KTBL||Casti|Yes|Yes||TM001094|DUBLIN HOUSE SRL|Timisoara|TMHRKBA15|74|CCC HRK CAMEL BW 2012|121|Horeca|0
0|CS3082406|2012-10-06 18:30:10|Varga|Ervin||M|1984-07-01|Timis|TIMISOARA|Bucurescti|32||||4|0721893856||cashbe84@yahoo.com|CABK||Zippo|Yes|Yes||TM001094|DUBLIN HOUSE SRL|Timisoara|TMHRKBA15|74|CCC HRK CAMEL BW 2012|121|Horeca|0
0|CS3082417|2012-10-06 18:40:09|Erdei|Tiberiu||M|1988-08-04|Timis|TIMISOARA|Intrarea Vega|8|-|-|0|4|0742026571||deejay_tb@yahoo.com|KTBL||Zippo|Yes|Yes||TM001094|DUBLIN HOUSE SRL|Timisoara|TMHRKBA15|74|CCC HRK CAMEL BW 2012|121|Horeca|0
0|CS3082420|2012-10-06 18:42:44|Andrei|Dragos marian||M|1984-06-09|Bucuresti|SECTOR 3|Calea vita|235|1|1|8|30|0723433506||andrei.dragos1984@gmail.com|CAWH||Zippo|Yes|Yes||BW005593|EUROTECH DEVELOPMENTS - INVESTMENTS SRL|Bucuresti|BWHRKBA33|74|CCC HRK CAMEL BW 2012|121|Horeca|0
0|CS3082471|2012-10-06 19:29:04|Zeheru|Adriana||F|1987-04-16|Bucuresti|SECTOR 6|Tincani|8|Z4|C|3|12|0727100583||adriana.zecheru_papusica@yahoo.com|KTSV||Casti|Yes|Yes||BW005593|EUROTECH DEVELOPMENTS - INVESTMENTS SRL|Bucuresti|BWHRKBA33|74|CCC HRK CAMEL BW 2012|121|Horeca|0
0|CS3082474|2012-10-06 19:31:30|Fugaru|Izabela||F|1985-05-15|Bucuresti|SECTOR 3|Drmul lunca cetatii|4|||||0768525237||iza.f@gmail.com|CAWH||Casti|Yes|Yes||BW005593|EUROTECH DEVELOPMENTS - INVESTMENTS SRL|Bucuresti|BWHRKBA33|74|CCC HRK CAMEL BW 2012|121|Horeca|0
0|CS3082476|2012-10-06 19:33:13|Gherghescu|Catalin||M|1986-11-21|Bucuresti|SECTOR 5|Dumbrava noua|10|P13||1|23|0721055044||catalin.gherghescu@yahoo.com|CABK||Casti|Yes|Yes||BW005593|EUROTECH DEVELOPMENTS - INVESTMENTS SRL|Bucuresti|BWHRKBA33|74|CCC HRK CAMEL BW 2012|121|Horeca|0
0|CS3082480|2012-10-06 19:34:54|Moise|Elena||F|1986-09-20|Bucuresti|SECTOR 4|Zamfir luca|30|||||0765311296||moise.elena@gmail.com|CAWH||Husa|Yes|Yes||BW005593|EUROTECH DEVELOPMENTS - INVESTMENTS SRL|Bucuresti|BWHRKBA33|74|CCC HRK CAMEL BW 2012|121|Horeca|0
0|CS3082482|2012-10-06 19:35:35|Kis|Tunde angela||F|1987-07-27|Bistrita Nasaud|RETEAG|Sma|328|||0|0|0748897878||ngl_kis@yahoo.co.uk|CABK|PMBL|Casti|Yes|Yes||CJ006128|TIFF EVENTS UNIVERSITATI|Cluj-Napoca|CJHRKBA27|74|CCC HRK CAMEL BW 2012|121|Horeca|0
0|CS3082490|2012-10-06 19:40:02|Bartha|Attila||M|1986-05-04|Cluj|CLUJ NAPOCA|Molnar Piuariu|6|D5|2|3|20|0745571659||oreg_harcos@yahoo.com|CABK|WIXSTFX|Casti|Yes|Yes||CJ006128|TIFF EVENTS UNIVERSITATI|Cluj-Napoca|CJHRKBA27|74|CCC HRK CAMEL BW 2012|121|Horeca|0
